{
    "id": 4,
    "surah_id": 1,
    "ayah": 4,
    "page": 1,
    "quarter_hizb": null,
    "juz": 1,
    "manzil": 1,
    "arabic": "\u0645\u0670\u0644\u0650\u0643\u0650 \u064a\u064e\u0648\u0652\u0645\u0650 \u0627\u0644\u062f\u0651\u0650\u064a\u0652\u0646\u0650\u06d7",
    "latin": "M\u0101liki yaumid-d\u012bn(i). ",
    "translation": "Pemilik hari Pembalasan.2)",
    "no_footnote": "2",
    "footnotes": "2) Yaumid-d\u012bn (hari Pembalasan) adalah hari ketika kelak manusia menerima balasan atas amal-amalnya yang baik dan yang buruk. Hari itu disebut juga yaumul-qiy\u0101mah (hari Kiamat), yaumul-\u1e25is\u0101b (hari Penghitungan), dan sebagainya.",
    "surah": {
        "id": 1,
        "arabic": " \u0627\u0644\u0641\u0627\u062a\u062d\u0629",
        "latin": "Al-F\u0101ti\u1e25ah ",
        "transliteration": "Al-Fatihah",
        "translation": "Pembuka",
        "num_ayah": 7,
        "page": 1,
        "location": "Makkiyah"
    },
    "tafsir": {
        "wajiz": "Dialah satu-satunya Pemilik hari Pembalasan dan perhitungan atas segala perbuatan, yaitu hari kiamat. Kepemilikan-Nya pada hari itu bersifat mutlak dan tidak disekutui oleh suatu apa pun. ",
        "tahlili": "Sesudah Allah menyebutkan beberapa sifat-Nya, yaitu: Tuhan seluruh alam, Yang Maha Pengasih, Maha Penyayang, maka diiringi-Nya dengan menyebutkan satu sifat-Nya lagi, yaitu \u201cmenguasai hari pembalasan\u201d. Penyebutan ayat ini dimaksudkan agar kekuasaan Allah atas alam ini tak terhenti sampai di dunia ini saja, tetapi terus berkelanjutan sampai hari akhir.\nAda dua macam bacaan berkenaan dengan M\u0101lik. Pertama, dengan meman-jangkan m\u0101, dan kedua dengan memendekkannya. Menurut bacaan yang perta-ma, M\u0101lik artinya \u201cYang memiliki\u201d (Yang empunya). Sedang menurut bacaan yang kedua, artinya \u201cRaja\u201d. Kedua bacaan itu benar.\nBaik menurut bacaan yang pertama ataupun bacaan yang kedua, dapat dipa-hami dari kata itu arti \u201cberkuasa\u201d dan bertindak dengan sepenuhnya. Sebab itulah diterjemahkan dengan \u201cYang menguasai\u201d. \u201cYaum\u201d artinya hari, tetapi yang dimaksud di sini ialah waktu secara mutlak.\nAd-d\u012bn banyak artinya, di antaranya: (1) perhitungan, (2) ganjaran, pembalas-an, (3) patuh, (4) menundukkan, dan (5) syariat, agama. Yang selaras di sini ialah dengan arti \u201cpembalasan\u201d. Jadi, M\u0101liki yaumidd\u012bn maksudnya \u201cAllah itulah yang berkuasa dan yang dapat bertindak dengan sepenuhnya terhadap semua makhluk-Nya pada hari pembalasan.\u201d\nSebetulnya pada hari kemudian itu banyak hal yang terjadi, yaitu Kiamat, kebangkitan, berkumpul, perhitungan, pembalasan, tetapi pembalasan sajalah yang disebut oleh Allah di sini, karena itulah yang terpenting. Yang lain dari itu, umpamanya kiamat, kebangkitan dan seterusnya, merupakan pendahuluan dari pembalasan, apalagi untuk targ\u012bb dan tarh\u012bb (menggalakkan dan menakut-nakuti), penyebutan \u201chari pembalasan\u201d itu lebih tepat.\nHari Akhirat Menurut Pendapat Akal (Filsafat)\nKepercayaan tentang adanya hari akhirat, yang di hari itu akan diadakan perhitungan terhadap perbuatan manusia pada masa hidupnya dan diadakan pembalasan yang setimpal, adalah suatu kepercayaan yang sesuai dengan akal. Sebab itu adanya hidup yang lain, sesudah hidup di dunia ini, bukan saja ditetapkan oleh agama, tetapi juga ditunjukkan oleh akal.\nSeseorang yang mau berpikir tentu akan merasa bahwa hidup di dunia ini belumlah sempurna, perlu disambung dengan hidup yang lain. Alangkah banyaknya orang yang teraniaya hidup di dunia ini telah pulang ke rahmatullah sebelum mendapat keadilan. Alangkah banyaknya orang yang berjasa kecil atau besar, belum mendapat penghargaan atas jasanya. Alangkah banyaknya orang yang telah berusaha, memeras keringat, membanting tulang, tetapi belum sempat lagi merasakan buah usahanya itu. Sebaliknya, alangkah banyaknya penjahat, penganiaya, pembuat onar, yang tak dapat dijangkau oleh pengadilan di dunia ini. Lebih-lebih kalau yang melakukan kejahatan atau aniaya itu orang yang berkuasa sebagai raja, pembesar dan lain-lain. Maka biarpun kejahatan dan aniaya itu telah merantai bangsa seluruhnya, tidaklah akan digugat orang, malah dia tetap dipuja dan dihormati. Maka, dimanakah akan didapat keadilan itu, seandainya nanti tidak ada mahkamah yang lebih tinggi, Mahkamah Allah di hari kemudian?\nSebab itu, para pemikir dari zaman dahulu telah ada yang sampai kepada kepercayaan tentang adanya hari akhirat itu, semata-mata dengan jalan berpikir, antara lain Pitagoras. Filsuf ini berpendapat bahwa hidup di dunia ini merupakan bekal hidup yang abadi di akhirat kelak. Sebab itu sejak dari dunia hendaklah orang bersedia untuk hidup yang abadi. Sokrates, Plato dan Aristoteles berpendapat, \u201cJiwa yang baik akan merasakan kenikmatan dan kelezatan di akhirat, tetapi bukan kelezatan kebendaan, karena kelezatan kebendaan itu terbatas dan mendatangkan bosan dan jemu. Hanya kelezatan rohani, yang betapa pun banyak dan lamanya, tidak menyebabkan bosan dan jemu.\u201d \n\nKepercayaan Masyarakat Arab \nSebelum Islam tentang Hari Akhirat\nDi antara masyarakat Arab sebelum Islam terdapat beberapa pemikir dan pujangga yang telah mempercayai adanya hari kemudian, seperti Zuhair bin Abi Sulma yang meninggal dunia setahun sebelum Nabi Muhammad saw diutus Allah sebagai rasul. \nAda pula di antara mereka yang tidak mempercayai adanya hari kemudian. Dengarlah apa yang dikatakan oleh salah seorang penyair mereka: \u201cHidup, sesudah itu mati, sesudah itu dibangkitkan lagi, itulah cerita dongeng, hai fulan.\u201d Karena itu, datanglah agama Islam, membawa kepastian tentang adanya hari kemudian. Pada hari itu akan dihisab semua perbuatan yang telah dikerjakan manusia selama hidupnya, besar atau kecil. Allah berfirman:\n\u0641\u064e\u0645\u064e\u0646\u0652 \u064a\u0651\u064e\u0639\u0652\u0645\u064e\u0644\u0652 \u0645\u0650\u062b\u0652\u0642\u064e\u0627\u0644\u064e \u0630\u064e\u0631\u0651\u064e\u0629\u064d \u062e\u064e\u064a\u0652\u0631\u064b\u0627 \u064a\u0651\u064e\u0631\u064e\u0647\u0657\u06da \u0667 \u0648\u064e\u0645\u064e\u0646\u0652 \u064a\u0651\u064e\u0639\u0652\u0645\u064e\u0644\u0652 \u0645\u0650\u062b\u0652\u0642\u064e\u0627\u0644\u064e \u0630\u064e\u0631\u0651\u064e\u0629\u064d \u0634\u064e\u0631\u0651\u064b\u0627 \u064a\u0651\u064e\u0631\u064e\u0647\u0657 \u08d6 \u0668 (\u0627\u0644\u0632\u0644\u0632\u0644\u0629)\n (7) Maka barang siapa mengerjakan kebaikan seberat zarrah, niscaya dia akan melihat (balasan)nya, (8) dan barang siapa mengerjakan kejahatan seberat zarrah, niscaya dia akan melihat (balasan)nya. (az-Zalzalah/99: 7-8)\n\nTidak sedikit ayat di dalam Al-Qur\u2019an yang menjelaskan bahwa di antara mereka memang banyak yang tidak percaya adanya hari akhirat; hidup hanya di dunia, setelah itu selesai (al-An\u2018\u0101m/6: 29 ; al-Mu\u2019min\u016bn/23: 37). Mereka berkata, bila seorang bapak mati, maka lahir anak, bila suatu bangsa punah, maka datang bangsa lain. Mereka tidak percaya, bahwa sesudah mati manusia masih akan hidup kembali (H\u016bd/11: 7; al-Isr\u0101\u2019/17: 49) dan banyak lagi ayat senada yang menggambarkan pendirian demikian. Di dalam sejarah pemikiran tercatat bahwa sejak dahulu kala banyak anggapan yang demikian itu.",
        "intro_surah": "Nama, Tempat Diturunkan, dan Jumlah Ayat\nSurah pertama al-F\u0101ti\u1e25ah mempunyai bermacam-macam nama, antara lain:\n1. Surah al-F\u0101ti\u1e25ah\nKata \u201cF\u0101ti\u1e25ah\u201d terambil dari kata kerja fata\u1e25a yang berarti \u201cmembuka\u201d atau \u201cmemulai\u201d. Sedangkan \u201cal-\u201d adalah kata sandang, artikel definitif, itu, penunjuk suatu kata benda. Al-F\u0101ti\u1e25ah di sini berarti \u201cPembuka\u201d atau \u201cPemula\u201d. Surah ini dinamakan \u201cal-F\u0101ti\u1e25ah\u201d karena dengan surah inilah dibuka Al-Qur\u2019an, artinya dengan surah inilah dimulai susunan surah-surah Al-Qur\u2019an. Peletakannya di permulaan Al-Qur\u2019an berdasarkan tauq\u012bfi, artinya perintah dari Allah yang disampaikan kepada Nabi Muhammad saw.\n2.\tUmmul-Qur\u2019\u0101n atau Ummul-Kit\u0101b\nDi samping nama \u201cal-F\u0101ti\u1e25ah\u201c, surah ini juga dinamakan Ummul-Qur\u2019\u0101n (Induk Al-Qur\u2019an) atau Ummul-Kit\u0101b (Induk Al-Kitab), karena merupakan induk, pokok, atau basis bagi Al-Qur\u2019an seluruhnya, dengan arti bahwa surah al-F\u0101ti\u1e25ah mengandung pokok-pokok isi Al-Qur\u2019an\n3.\tAs-Sab\u2018ul Ma\u1e61\u0101n\u012b\nSurah al-F\u0101ti\u1e25ah juga dinamai as-Sab\u2018ul-Ma\u1e61\u0101n\u012b (tujuh yang berulang-ulang). Dinamai demikian karena ayatnya berjumlah tujuh, dan dibaca berulang-ulang dalam salat. \n\nSalat tidak sah tanpa membaca surah al-F\u0101ti\u1e25ah, berdasarkan Hadis: \n\u0644\u064e\u0627 \u0635\u064e\u0644\u0627\u064e\u0629\u064e \u0644\u0650\u0645\u064e\u0646\u0652 \u0644\u064e\u0645\u0652 \u064a\u064e\u0642\u0652\u0631\u064e\u0623\u0652 \u0628\u0650\u0641\u064e\u0627\u062a\u0650\u062d\u064e\u0629\u0650 \u0627\u0644\u0652\u0643\u0650\u062a\u064e\u0627\u0628\u0650. (\u0631\u0648\u0627\u0647 \u0627\u0635\u062d\u0627\u0628 \u0627\u0644\u0633\u062a\u0629 \u0639\u0646 \u0639\u0628\u0627\u062f\u0629 \u0628\u0646 \u0627\u0644\u0635\u0627\u0645\u062a)\nTidak sah salat bagi orang yang tidak membaca al-F\u0101ti\u1e25ah. (Riwayat A\u1e63\u1e25\u0101bus-Sittah dari \u2018Ubadah bin a\u1e63-\u1e62\u0101mit)\n\nSelain beberapa nama yang disebutkan, masih ada nama-nama lain, yaitu al-Kanz (Perbendaharaan), al-\u1e24amd (Pujian), a\u1e63-\u1e62al\u0101h (Salat), al-W\u0101qiyah (Yang Me-lindungi), As\u0101sul-Qur'\u0101n (Pokok-pokok Al-Qur\u2019an), asy-Sy\u0101fiyah (Penyembuhan), al-K\u0101fiyah (Yang Mencukupi), ar-Ruqyah (Bacaan untuk Pengobatan), asy-Syukur (Syukur) ad-Du\u2019\u0101 (Doa) dan al-As\u0101s (Asas Segala Sesuatu).\nSurah al-F\u0101ti\u1e25ah diturunkan di Mekah, jadi termasuk surah Makkiyyah. Surah ini diturunkan pada waktu pertama kali disyariatkan salat dan diwajibkan membacanya di dalam salat, karena itu, ia adalah surah yang pertama diturunkan dengan lengkap. Dalam surah ini terdapat kesimpulan dari isi keseluruhan Al-Qur\u2019an.\n\nPokok-Pokok Isinya\nTelah disebutkan di atas, bahwa surah al-F\u0101ti\u1e25ah adalah induk dari Al-Qur\u2019an seluruhnya, sehingga ia merupakan intisari dari isi Al-Qur\u2019an, yaitu:\n1. \tAkidah\n2.\tIbadah\n3.\tHukum-hukum \n4.\tJanji dan ancaman\n5.\tKisah-kisah.\n\nAkidah \nAkidah adalah yang pertama kali dibawa oleh Al-Qur\u2019an dan diajarkan oleh Nabi Muhammad saw. Para nabi dan rasul yang telah diutus sebelum Muhammad saw. juga menanamkan keimanan ini sejak pertama kali mereka diutus kepada umatnya.\nKeimanan yang dikandung oleh Al-Qur\u2019an meliputi keimanan kepada Allah, para rasul-Nya, malaikat-malaikat-Nya, kitab-kitab yang telah diturunkan-Nya, hari akhirat serta qa\u1e0da' dan qadar. Pada waktu Al-Qur\u2019an diturunkan, keimanan yang dibawa oleh para rasul sebelumnya sudah kabur, tauhid yang murni tidak ada lagi. Kepada umat-umat terdahulu telah diutus para rasul, dan mereka telah mempunyai kitab-kitab samawi. Mereka kemudian memandang para rasul, orang-orang saleh, dan malaikat-malaikat sebagai Tuhan. Kitab-kitab samawi yang dibawa oleh para nabi dan rasul kepada mereka sudah diubah oleh tangan mereka sendiri.\nBangsa Arab, baik yang telah pernah menganut ajaran-ajaran Nabi Ibrahim, maupun tidak, sebagian besar telah menjadi penganut kepercayaan wa\u1e61ani, penyembah patung dan dewa-dewa, sehingga menurut riwayat, di sekitar Ka\u2018bah terdapat 360 buah patung. Maka, datanglah Al-Qur\u2019an untuk menyucikan akidah manusia dari berbagai kotoran syirik, dengan membawa akidah tauhid yang murni, yang tidak dicampuri sedikit pun oleh berbagai kepercayaan dan perbuatan menuhankan sesuatu dalam alam ini.\nAkidah tauhid yang dibawa oleh Al-Qur\u2019an itu adalah akidah yang amat jelas dan tegas, dapat dipahami akal, dan yang paling sempurna. Tuhan Yang Maha Esa, Dialah yang Khalik, sedang selain Dia adalah makhluk. Tak ada permulaan-Nya, dan tak ada kesudahan-Nya. Mahakuasa, Maha Pengasih, Maha Penyayang dan Maha Mengetahui. Ilmu-Nya meliputi segala sesuatu. Tidak ada sesuatu yang serupa dengan Dia. Alam semesta ini makhluk Allah, yang akan lenyap dan binasa dengan kehendak Allah, karena keberadaannya juga dengan kehendak Allah.\nDi dalam surah al-F\u0101ti\u1e25ah, akidah tauhid ini terdapat dalam ayat-ayat:\n\na.\n\u0627\u064e\u0644\u0652\u062d\u064e\u0645\u0652\u062f\u064f \u0644\u0650\u0644\u0651\u0670\u0647\u0650 \u0631\u064e\u0628\u0651\u0650 \u0627\u0644\u0652\u0639\u0670\u0644\u064e\u0645\u0650\u064a\u0652\u0646\u064e\u06d9 \u0662 \n\u201cSegala puji bagi Allah, Tuhan seluruh alam\u201d \n\nMaksud ayat \u201cSegala puji bagi Allah, Tuhan seluruh alam,\u201d adalah bahwa yang berhak dipuji hanyalah Allah, maka pujian haruslah dihadapkan kepada-Nya. Yang dimaksud dengan \u201csemua puji\u201d meliputi: (1) puji Tuhan kepada diri-Nya; (2) puji Allah kepada makhluk-Nya; (3) puji makhluk kepada makhluk; dan (4) puji makhluk kepada Tuhannya. Pada hakikatnya, segala puji itu milik Allah.\nSeseorang dipuji karena sifat-sifat yang mulia yang ada pada dirinya, atau karena perbuatan, jasa dan budi baiknya. Pujian itu hanya semata-mata milik Allah, karena Dialah yang mempunyai sifat-sifat yang sempurna yang menyebabkan Dia berhak dipuji, umpama: sifat Maha Esa, Maha Pengasih, Maha Penyayang, Mahakuasa, Mahaadil, Maha Mengetahui, Maha Pengampun, Maha Pemaaf dan lain sebagainya.\nPernyataan seorang hamba bahwa hanya Allah sajalah yang mempunyai sifat-sifat yang sempurna dan bahwa Dia sajalah yang telah memberi nikmat dan karunia, merupakan inti dari keimanan kepada Allah dan merupakan akidah tauhid yang sebenarnya.\nKeimanan kepada Allah dengan segala sifat kesempurnaan-Nya, dan akidah tauhid yang murni adalah ajaran Islam yang terpenting. Sebab itu di dalam ayat ini ditegaskan bahwa Allah Rabb bagi seluruh alam.\nKata Rabb itu selain bermakna \u201cPemilik\u201d juga berarti \u201cPendidik\u201d atau \u201cPengasuh\u201d. Dengan ini jelas bahwa apa pun yang berada dalam alam ini adalah kepunyaan Allah. Dialah yang menciptakan, mendidik, mengasuh, menumbuhkan dan memeliharanya. Tidak ada yang bersekutu dengan Dia. Sejalan dengan ini, maka makhluk itu bagaimanapun kecil dan halusnya dan jauh tempatnya tetap berada di bawah pengetahuan, lindungan dan pemeliharaan Allah. Allah telah memberikan kepada makhluk-Nya suatu bentuk, lalu dikaruniakan-Nya akal, naluri dan kodrat alamiah yang dapat dipergunakan untuk kelanjutan hidupnya. Sesudah itu berbagai nikmat tersebut tidak dilepaskan begitu saja oleh Allah, melainkan selalu dipelihara, dilindungi dan dijaga-Nya.\nPendidikan, pemeliharaan, penumbuhan oleh Allah terhadap makhluk-Nya haruslah diperhatikan dan dipelajari oleh manusia dengan sedalam-dalamnya, dan memang sejak dahulu sampai sekarang telah diperhatikan dan dipelajari oleh para pemikir dan para sarjana, sehingga telah menjadi sumber berbagai macam ilmu pengetahuan, yang dapat menambah keyakinan manusia kepada keagungan dan kebesaran Allah, serta berguna bagi masyarakat.\n\nb.\n\u0627\u0644\u0631\u0651\u064e\u062d\u0652\u0645\u0670\u0646\u0650 \u0627\u0644\u0631\u0651\u064e\u062d\u0650\u064a\u0652\u0645\u0650\u06d9 \u0663 (\u0627\u0644\u0641\u0627\u062a\u062d\u0629)\n\u201cHanya kepada Engkaulah kami menyembah dan hanya kepada Engkaulah kami mohon pertolongan.\u201d \n\nAyat ini berisi keimanan, karena dalam ayat ini dinyatakan dengan lebih jelas akidah tauhid. Ayat ini menerangkan bahwa hanya Allah sajalah yang berhak disembah dan hanya kepada Allah sajalah manusia seharusnya memohon pertolongan.\nJadi, manusia sebagai makhluk Allah, haruslah berhubungan langsung dengan Allah sebagai Khaliknya. Ketika manusia berdoa memohon sesuatu haruslah langsung ditujukan kepada Allah, Khaliknya tanpa perantaraan siapa dan apa pun juga.\nDengan demikian, terbasmilah sampai ke akar-akarnya kepercayaan syirik (mempersekutukan Allah, membesarkan apa pun selain Allah) kepercayaan wa\u1e61ani, pagan (menyembah dewa-dewa, matahari, bulan, bintang-bintang, dan lain-lain), kepercayaan majusi (menyembah api) dan sebagainya, yaitu kepercayaan yang banyak berkembang dan dianut oleh segala bangsa, sebelum datang agama Islam yang dibawa Nabi Muhammad saw.\nKedua ayat yang disebutkan itu: \n\u0627\u064e\u0644\u0652\u062d\u064e\u0645\u0652\u062f\u064f \u0644\u0650\u0644\u0651\u0670\u0647\u0650 \u0631\u064e\u0628\u0651\u0650 \u0627\u0644\u0652\u0639\u0670\u0644\u064e\u0645\u0650\u064a\u0652\u0646\u064e\n\u0627\u0650\u064a\u0651\u064e\u0627\u0643\u064e \u0646\u064e\u0639\u0652\u0628\u064f\u062f\u064f \u0648\u064e\u0627\u0650\u064a\u0651\u064e\u0627\u0643\u064e \u0646\u064e\u0633\u0652\u062a\u064e\u0639\u0650\u064a\u0652\u0646\u064f\nadalah inti keimanan dan tauhid. Ayat-ayat lain, yang menyeru kepada tauhid dan memberantas kepercayaan syirik wa\u1e61ani, majusi, dan sebagainya, adalah penjelasan dari kedua ayat itu.\n\nPada dasarnya, semua ayat isi surah al-F\u0101ti\u1e25ah itu sejak dari \n\u0628\u0650\u0633\u0652\u0645\u0650 \u0627\u0644\u0644\u0651\u0670\u0647\u0650 \u0627\u0644\u0631\u0651\u064e\u062d\u0652\u0645\u0670\u0646\u0650 \u0627\u0644\u0631\u0651\u064e\u062d\u0650\u064a\u0652\u0645\u0650 \nsampai dengan\n\u0635\u0650\u0631\u064e\u0627\u0637\u064e \u0627\u0644\u0651\u064e\u0630\u0650\u064a\u0652\u0646\u064e \u0627\u064e\u0646\u0652\u0639\u064e\u0645\u0652\u062a\u064e \u0639\u064e\u0644\u064e\u064a\u0652\u0647\u0650\u0645\u0652\nmenerangkan akidah tauhid. \n\nIbadah\nIbadah adalah buah dari keimanan kepada adanya Allah, dengan segala sifat kesempurnaan-Nya. Orang yang meyakini adanya segala sifat kesempurnaan-Nya akan menyembah Allah. Ajaran ibadah ini dipaparkan di dalam surah al-F\u0101ti\u1e25ah dengan firman-Nya:\n\u0627\u0650\u064a\u0651\u064e\u0627\u0643\u064e \u0646\u064e\u0639\u0652\u0628\u064f\u062f\u064f \u0648\u064e\u0627\u0650\u064a\u0651\u064e\u0627\u0643\u064e \u0646\u064e\u0633\u0652\u062a\u064e\u0639\u0650\u064a\u0652\u0646\u064f\nHanya kepada Engkaulah kami menyembah dan hanya kepada Engkaulah kami mohon pertolongan.\n\nDi dalam ayat ini Allah mengajari hamba-Nya agar menyembah hanya kepada Allah semata. Maka ayat ini selain mengandung ajaran tentang tauhid, juga mengandung ajaran ibadah kepada Yang Maha Esa itu.\n\u0627\u0650\u0647\u0652\u062f\u0650\u0646\u064e\u0627 \u0627\u0644\u0635\u0651\u0650\u0631\u064e\u0627\u0637\u064e \u0627\u0644\u0652\u0645\u064f\u0633\u0652\u062a\u064e\u0642\u0650\u064a\u0652\u0645\u064e\nTunjukilah kami jalan yang lurus.\n\nUntuk kebahagiaan hidup manusia di dunia dan di akhirat, Allah mengada-kan peraturan-peraturan, hukum-hukum, menjelaskan kepercayaan, memberi pelajaran dan contoh-contoh. Ini semua adalah laksana jalan lurus yang diben-tangkan Allah yang mengantarkan manusia kepada kebahagiaannya di dunia dan di akhirat. Maka berbahagialah mereka yang menjalaninya dan sengsaralah orang yang menghindari diri dari jalan itu.\nMengikuti jalan yang lurus ini artinya ialah beribadah kepada Allah, dengan mematuhi peraturan-peraturan, menjalankan hukum-hukum, dan berpegang ke-pada akidah yang benar, mengambil pelajaran dan teladan dari contoh-contoh yang telah diberikan Allah. Hal itu diterangkan dalam ayat-ayat lain, yang menjadi uraian dari surah al-F\u0101ti\u1e25ah ini.\nIbadah tidak dapat dipisahkan dari tauhid, sebagaimana tauhid pun tidak dapat dipisahkan dari ibadah, karena ibadah adalah buah dari tauhid, dan ia tak mempunyai nilai dan harga kalau timbulnya tidak dari perasaan tauhid. Demikian pula halnya dengan tauhid, yakni tauhid itu tidak akan subur hidup-nya di dalam jiwa dan raga manusia, kalau tidak selalu dipupuk dengan ibadah.\nSebab itu, di dalam surah al-F\u0101ti\u1e25ah ini, di samping disebut tauhid, disebut juga ibadah. Kedua-duanya secara ringkas akan diikuti dengan penjelasan-penje-lasan pada ayat-ayat lain di dalam surah-surah yang lain.\n\nHukum-Hukum \nDalam rangka beribadah kepada Allah untuk mencapai kebahagiaan hidup manusia di dunia dan akhirat, Allah menetapkan hukum-hukum dan peraturan-peraturan; ada yang berkenaan dengan hubungan manusia dengan Allah, hubungan dengan masyarakat dan alam seisinya.\nDi dalam Al-Qur\u2019an banyak didapati ayat yang berhubungan dengan hukum dan peraturan itu. Semua ayat ini adalah penjelasan dari apa yang telah dican-tumkan dalam surah al-F\u0101ti\u1e25ah. Allah memberi tuntunan hukum dan peraturan dalam firman-Nya:\n\u0627\u0650\u0647\u0652\u062f\u0650\u0646\u064e\u0627 \u0627\u0644\u0635\u0651\u0650\u0631\u064e\u0627\u0637\u064e \u0627\u0644\u0652\u0645\u064f\u0633\u0652\u062a\u064e\u0642\u0650\u064a\u0652\u0645\u064e\nTunjukilah kami jalan yang lurus\n\nJalan yang menyampaikan manusia kepada kebahagiaan hidup di dunia dan akhirat, yaitu akidah (kepercayaan) yang benar, hukum dan peraturan, pelajaran yang dibawa oleh Al-Qur\u2019an sebagaimana disebutkan di atas.\nJanji dan Ancaman\nAl-Qur\u2019an juga berisi janji dan ancaman. Dia menjanjikan kebahagiaan kepada mereka yang beriman dan berbuat baik. Sebaliknya Dia memperingatkan mereka yang mempersekutukan-Nya, yang membuat onar dan kejahatan dengan azab.\nJanji dan ancaman itu ditujukan kepada umum, kaum atau bangsa. Di dalam surah al-F\u0101ti\u1e25ah terdapat ayat-ayat yang mengandung janji dan ancaman, yaitu:\na.\n\u0628\u0650\u0633\u0652\u0645\u0650 \u0627\u0644\u0644\u0651\u0670\u0647\u0650 \u0627\u0644\u0631\u0651\u064e\u062d\u0652\u0645\u0670\u0646\u0650 \u0627\u0644\u0631\u0651\u064e\u062d\u0650\u064a\u0652\u0645\u0650 \n\u201cDengan nama Allah Yang Maha Pengasih, Maha Penyayang.\u201d\n\nDengan menyebut \u201cMaha Pengasih\u201d, \u201cMaha Penyayang\u201d, Allah menjanjikan kepada mereka yang beriman dan berbuat baik, limpahan karunia dan nikmat.\nb.\n\u0645\u0670\u0644\u0650\u0643\u0650 \u064a\u064e\u0648\u0652\u0645\u0650 \u0627\u0644\u062f\u0651\u0650\u064a\u0652\u0646\u0650\n\u201cPemilik hari pembalasan\u201c\n\nPada hari itu perbuatan manusia sewaktu di dunia akan dibalas. Surga untuk mereka yang beriman dan berbuat baik, dan neraka bagi mereka yang ingkar dan berbuat salah. Ini adalah janji dan peringatan.\nc. \n\u0627\u0650\u0647\u0652\u062f\u0650\u0646\u064e\u0627 \u0627\u0644\u0635\u0651\u0650\u0631\u064e\u0627\u0637\u064e \u0627\u0644\u0652\u0645\u064f\u0633\u0652\u062a\u064e\u0642\u0650\u064a\u0652\u0645\u064e\n\u201cTunjukilah kami jalan yang lurus\u201d\n\nOrang-orang yang mengikuti jalan yang lurus akan berbahagia, dan yang menghindarkan diri dari jalan yang lurus akan celaka. Dengan ini dapat dipahami adanya janji dan ancaman.\nd. \n\u0635\u0650\u0631\u064e\u0627\u0637\u064e \u0627\u0644\u0651\u064e\u0630\u0650\u064a\u0652\u0646\u064e \u0627\u064e\u0646\u0652\u0639\u064e\u0645\u0652\u062a\u064e \u0639\u064e\u0644\u064e\u064a\u0652\u0647\u0650\u0645\u0652 \u06d5\u06d9 \u063a\u064e\u064a\u0652\u0631\u0650 \u0627\u0644\u0652\u0645\u064e\u063a\u0652\u0636\u064f\u0648\u0652\u0628\u0650 \u0639\u064e\u0644\u064e\u064a\u0652\u0647\u0650\u0645\u0652 \u0648\u064e\u0644\u064e\u0627 \u0627\u0644\u0636\u0651\u064e\u0627\u06e4\u0644\u0650\u0651\u064a\u0652\u0646\u064e \u08d6 \u0667\n\u201c(yaitu) jalan orang-orang yang telah Engkau beri nikmat kepadanya; bukan (jalan) mereka yang dimurkai, dan bukan (pula jalan) mereka yang sesat.\u201d\nAda orang yang telah dianugerahi nikmat oleh Allah, yaitu rasul-rasul, nabi-nabi, orang-orang saleh dan \u1e63idd\u012bq\u012bn. Orang-orang yang semacam ini akan diberi pahala dan ganjaran oleh Allah, yaitu surga jannatun-na\u2018\u012bm, dan ini adalah janji-Nya. Di samping itu, ada pula orang-orang yang dimurkai Allah, yaitu mereka yang tak mau menjalani jalan yang lurus, padahal dia tahu bahwa itulah jalan yang benar, dan ada pula orang yang sesat, yaitu orang yang tak mengetahui jalan yang lurus itu atau dia mengetahuinya, tetapi dia tersesat dalam menempuh jalan itu.\nMereka yang dimurkai Allah dan orang yang sesat itu akan menderita hukuman dari Allah, dan ini adalah suatu peringatan.\n\nKisah-Kisah \nUntuk menjadi contoh dan teladan, pelajaran dan iktibar, Al-Qur\u2019an telah menceritakan keadaan bangsa-bangsa dan kaum-kaum yang telah lalu dan bahwa Allah telah mengutus rasul-rasul dan nabi-nabi kepada mereka dan telah membuat peraturan, hukum dan syariat untuk kebahagiaan hidup mereka. Di antara mereka ada yang menerima dan ada yang menolak, dan Allah menerangkan apa akibat dari penerimaan atau penolakan itu, untuk dijadikan iktibar dan pelajaran. \nLebih kurang tiga perempat dari isi Al-Qur\u2019an adalah cerita tentang bangsa-bangsa dan umat yang lalu, serta anjuran dari Allah untuk mengambil iktibar dan pelajaran dari keadaan mereka. Di dalam surah al-F\u0101ti\u1e25ah ini keadaan bangsa-bangsa dan umat-umat yang telah lalu itu dipaparkan oleh Allah dalam firman-Nya:\n\u0635\u0650\u0631\u064e\u0627\u0637\u064e \u0627\u0644\u0651\u064e\u0630\u0650\u064a\u0652\u0646\u064e \u0627\u064e\u0646\u0652\u0639\u064e\u0645\u0652\u062a\u064e \u0639\u064e\u0644\u064e\u064a\u0652\u0647\u0650\u0645\u0652 \u06d5\u06d9 \u063a\u064e\u064a\u0652\u0631\u0650 \u0627\u0644\u0652\u0645\u064e\u063a\u0652\u0636\u064f\u0648\u0652\u0628\u0650 \u0639\u064e\u0644\u064e\u064a\u0652\u0647\u0650\u0645\u0652 \u0648\u064e\u0644\u064e\u0627 \u0627\u0644\u0636\u0651\u064e\u0627\u06e4\u0644\u0650\u0651\u064a\u0652\u0646\u064e \u08d6 \u0667\n\u201c(yaitu) jalan orang-orang yang telah Engkau beri nikmat kepadanya; bukan (jalan) mereka yang dimurkai, dan bukan (pula jalan) mereka yang sesat.\u201d\n\nDengan keterangan yang disebutkan di atas, jelaslah bahwa surah al-F\u0101ti\u1e25ah mengandung kesimpulan isi Al-Qur\u2019an dalam surah-surah yang berikutnya.",
        "outro_surah": null,
        "munasabah_prev_surah": null,
        "munasabah_prev_theme": null,
        "theme_group": null,
        "kosakata": "1. Rabb \u0631\u064e\u0628\u0651 (al-F\u0101ti\u1e25ah/1: 2)\nKata rabb secara etimologi berarti, \u201cpemelihara\u201d, \u201cpendidik\u201d, \u201cpengasuh\u201d, \u201cpengatur\u201d, dan \u201cyang menumbuhkan\u201d. Kata rabb biasa dipakai sebagai salah satu nama Tuhan, karena Tuhanlah yang secara hakiki sebagai pemelihara, pendidik, pengasuh, pengatur dan yang menumbuhkan makhluknya. Oleh sebab itu, kata rabb biasa diterjemahkan ke dalam bahasa Indonesia dengan kata \u201cTuhan\u201d. Kata rabb di dalam Al-Qur\u2019an disebut 151 kali.\n2. Ar-Ra\u1e25m\u0101n, ar-Ra\u1e25\u012bm \u0627\u064e\u0644\u0631\u0651\u064e\u062d\u0652\u0645\u0670\u0646 \u0627\u064e\u0644\u0631\u0651\u064e\u062d\u0650\u064a\u0652\u0645 (al-F\u0101ti\u1e25ah/1: 3)\nKata ar-ra\u1e25m\u0101n terambil dari ar-ra\u1e25mah yang berarti belas kasihan, yaitu suatu sifat yang menimbulkan perbuatan memberi nikmat dan karunia. Jadi, kata ar-ra\u1e25m\u0101n berarti \u201cYang berbuat (memberi) nikmat dan karunia yang banyak\u201d. Kata ar-ra\u1e25m\u0101n disebutkan dalam Al-Qur\u2019an 57 kali di berbagai surah, termasuk pada Basmalah di awal surah al-F\u0101ti\u1e25ah tapi tidak termasuk pada Basmalah di awal setiap surah selain al-F\u0101ti\u1e25ah. Kata ar-ra\u1e25m\u0101n terdapat pada surah al-F\u0101ti\u1e25ah, al-Baqarah, ar-Ra\u2018ad, al-Isr\u0101\u2019, Maryam, \u1e6c\u0101h\u0101, al-Anbiy\u0101\u2019, al-Furq\u0101n, asy-Syu\u2018ar\u0101\u2019, an-Naml, Y\u0101s\u012bn, Fu\u1e63\u1e63ilat, az-Zukhruf, Q\u0101f, ar-Ra\u1e25m\u0101n, al-\u1e24asyr, al-Mulk, dan an-Naba\u2019.\nKata ar-ra\u1e25\u012bm juga diambil dari kata ar-ra\u1e25mah. Arti ar-ra\u1e25\u012bm ialah: \u201cYang mempunyai sifat belas kasihan dan sifat itu tetap padanya selama-lamanya\u201d. Kata ar-ra\u1e25\u012bm disebutkan dalam Al-Qur\u2019an sebanyak 95 kali termasuk dalam Basmalah di awal surah al-F\u0101ti\u1e25ah tapi tidak termasuk pada Basmalah di awal setiap surah selain al-F\u0101ti\u1e25ah. Kata Ar-ra\u1e25\u012bm tersebut terdapat pada surah al-F\u0101ti\u1e25ah, al-Baqarah, \u0100li \u2018Imr\u0101n, an-Nis\u0101\u2019, al-M\u0101\u2019idah, al-An\u2018\u0101m, al-A\u2018r\u0101f, al-Anf\u0101l, at-Taubah, Y\u016bnus, H\u016bd, Y\u016bsuf, Ibr\u0101h\u012bm, al-\u1e24ijr, an-Na\u1e25l, al-\u1e24ajj, an-N\u016br, asy-Syu\u2018ar\u0101\u2019, an-Naml, al-Qa\u1e63a\u1e63, ar-R\u016bm, as-Sajdah, Saba\u2019, Y\u0101s\u012bn, az-Zumar, Fu\u1e63\u1e63ilat, asy-Sy\u016br\u0101, ad-Dukh\u0101n, al-A\u1e25q\u0101f, al-\u1e24ujur\u0101t, a\u1e6d-\u1e6c\u016br, al-\u1e24ad\u012bd, al-Muj\u0101dilah, al-\u1e24asyr, al-Mumta\u1e25anah, at-Tag\u0101bun, at-Ta\u1e25r\u012bm, dan al-Muzzammil.\nAr-ra\u1e25m\u0101n dan ar-ra\u1e25\u012bm maksudnya bahwa Tuhan telah memberi nikmat yang banyak dengan murah dan telah melimpahkan karunia yang tidak terhingga, karena Dia bersifat belas kasihan kepada makhluk-Nya. Karena sifat belas kasihan itu merupakan sifat yang tetap pada-Nya, maka nikmat dan karunia Allah tidak ada putus-putusnya.",
        "sabab_nuzul": null,
        "conclusion": null
    }
}