{
    "id": 106,
    "surah_id": 2,
    "ayah": 99,
    "page": 15,
    "quarter_hizb": 2.25,
    "juz": 1,
    "manzil": 1,
    "arabic": "\u0648\u064e\u0644\u064e\u0642\u064e\u062f\u0652 \u0627\u064e\u0646\u0652\u0632\u064e\u0644\u0652\u0646\u064e\u0627\u0653 \u0627\u0650\u0644\u064e\u064a\u0652\u0643\u064e \u0627\u0670\u064a\u0670\u062a\u064d\u06e2 \u0628\u064e\u064a\u0651\u0650\u0646\u0670\u062a\u064d\u06da \u0648\u064e\u0645\u064e\u0627 \u064a\u064e\u0643\u0652\u0641\u064f\u0631\u064f \u0628\u0650\u0647\u064e\u0627\u0653 \u0627\u0650\u0644\u0651\u064e\u0627 \u0627\u0644\u0652\u0641\u0670\u0633\u0650\u0642\u064f\u0648\u0652\u0646\u064e",
    "latin": "Wa laqad anzaln\u0101 ilaika \u0101y\u0101tim bayyin\u0101t(in), wa m\u0101 yakfuru bih\u0101 illal-f\u0101siq\u016bn(a).  ",
    "translation": "Sungguh, Kami benar-benar telah menurunkan ayat-ayat yang jelas kepadamu (Nabi Muhammad), dan tidaklah ada yang mengingkarinya selain orang-orang fasik.",
    "no_footnote": null,
    "footnotes": null,
    "surah": {
        "id": 2,
        "arabic": " \u0627\u0644\u0628\u0642\u0631\u0629",
        "latin": "Al-Baqarah ",
        "transliteration": "Al-Baqarah",
        "translation": "Sapi",
        "num_ayah": 286,
        "page": 2,
        "location": "Madaniyah"
    },
    "tafsir": {
        "wajiz": "Konteks ayat ini adalah bagian dari bantahan Allah terhadap orangorang Yahudi. Namun demikian, siapa pun yang berperilaku seperti disebut dalam ayat ini, maka mereka disebut fasik. Dan demi Tuhan, tidaklah wajar bila orang-orang Yahudi itu atau siapa pun menolak kebenaran Al-Qur'an karena sungguh Kami, dengan menugaskan Jibril, telah menurunkan ayat-ayat yang jelas kandungannya serta bukti-bukti kebenarannya dan kebenaranmu sebagai rasul kepadamu, Muhammad. Dan tidaklah ada yang mengingkarinya, baik dari golongan manusia yang hidup pada masamu atau sesudahmu, selain orang-orang fasik. Bukti-bukti kebenaran Al-Qur'an sudah sangat jelas; tidak ada yang mengingkarinya selain mereka yang tertutup mata hatinya. Mereka itulah yang disebut sebagai orang-orang fasik. ",
        "tahlili": "Allah swt menerangkan bahwa ayat-ayat yang diturunkan kepada Nabi Muhammad saw mengandung kebenaran, karena antara teori-teori i\u2018tiq\u0101diyah-nya dengan dalil-dalilnya terdapat keserasian, demikian pula antara hukum-hukumnya yang bersifat amali dengan segi-segi kemanfaatannya. Tidak diperlukan dalil lain untuk membuktikan kebenaran ayat-ayat itu. Ia laksana cahaya yang menyinari segala sesuatu, yang terang benderang dengan sendirinya, tidak memerlukan sesuatu pun untuk membantu kecerahannya. Orang-orang yang telah dipancari kebenaran, tetapi lebih suka mencari kegelapan, sebabnya tiada lain karena hasad pada orang yang menampakkan hak, juga karena sifat congkak dan sombong yang timbul dari mereka.",
        "intro_surah": "Surah al-Baqarah yang terdiri dari 286 ayat adalah termasuk golongan surah Madaniyah yang diturunkan pada tahun-tahun permulaan periode Nabi Muhammad saw di Medinah. Ia merupakan surah yang terpanjang dan terbanyak ayat-ayatnya di antara surah yang ada di dalam Al-Qur\u2019an. Surah ini dinamai \u201cal-Baqarah\u201d yang berarti \u201cseekor sapi\u201d, karena di dalamnya disebutkan kisah penyembelihan sapi betina yang diperintahkan Allah kepada Bani Israil. Dalam pelaksanaan penyembelihan sapi betina itu tampak dengan jelas sifat dan watak orang-orang Yahudi pada umumnya.\nDinamakan juga fus\u1e6da\u1e6d al-Qur\u2019\u0101n yang berarti \u201cpuncak Al-Qur\u2019an\u201d karena surah ini memuat beberapa hukum yang tidak disebut di surah-surah yang lain. Juga dinamakan Al\u012bf L\u0101m M\u012bm, karena surah ini dimulai dengan huruf-huruf hijaiyah (abjad) alif l\u0101m m\u012bm.\nDi antara pokok-pokok isinya ialah:\n1.\tKeimanan: Dakwah Islamiah yang ditujukan kepada umat Islam, Ahli Kitab dan orang-orang musyrik.\n2.\tHukum: Perintah mengerjakan salat, perintah menunaikan zakat, puasa, haji dan umrah, qi\u1e63a\u1e63, yang halal dan yang haram, bernafkah di jalan Allah, minum arak dan berjudi, cara bergaul dengan anak yatim, prinsip-prinsip ekonomi, larangan memakan riba, utang piutang, nafkah dan yang berhak menerimanya, wasiat kepada dua orang ibu bapak dan kaum kerabat, hukum sumpah, kewajiban menyampaikan amanat, sihir, hukum merusak masjid, hukum mengubah kitab-kitab Allah, haid, idah, talak, khulu\u2018, il\u0101, hukum susuan, meminang, mahar, menikahi wanita musyrik dan sebaliknya, hukum perang, dan lain-lain. \n3.\tKisah: Penciptaan Nabi Adam a.s., kisah Nabi Ibrahim a.s., dan kisah Nabi Musa a.s. dengan Bani Israil.\n4.\tLain-lain, seperti: sifat orang yang bertakwa, sifat-sifat orang munafik, sifat-sifat Allah, perumpamaan-perumpamaan, kiblat, dan kebangkitan sesudah mati.",
        "outro_surah": null,
        "munasabah_prev_surah": "1.\tSurah al-F\u0101ti\u1e25ah merupakan pokok-pokok pembahasan yang akan dirinci dalam surah al-Baqarah dan surah-surah sesudahnya.\n2.\tDi bagian akhir surah al-F\u0101ti\u1e25ah disebutkan permohonan hamba, agar diberi petunjuk oleh Allah ke jalan yang lurus, sedang surah al-Baqarah dimulai dengan ayat yang menerangkan bahwa Al-Qur\u2019an adalah kitab yang menunjukkan jalan yang dimaksudkan itu.\n3.\tDi akhir surah al-F\u0101ti\u1e25ah disebutkan tiga kelompok manusia, yaitu yang diberi nikmat, yang dimurkai Allah dan orang yang sesat, sedangkan di awal surah al-Baqarah juga disebutkan tiga kelompok manusia, yaitu orang yang bertakwa, orang kafir, dan orang munafik.",
        "munasabah_prev_theme": "Dalam ayat-ayat yang lalu telah disebutkan beberapa alasan yang dikemukakan orang-orang Yahudi mengapa mereka tidak beriman kepada Muhammad saw. Kemudian Allah membatalkan tuduhan mereka dengan mengemukakan dalil yang kuat. Dalam ayat ini, Allah menyebutkan alasan lain yang lebih kuat daripada alasan-alasan yang dikemukakan mereka. Alasan mereka ialah bahwa Jibril yang membawa wahyu kepada Nabi Muhammad saw adalah musuh mereka. Itulah sebabnya mereka tidak mau percaya sedikit pun kepada wahyu yang dibawanya. Sesudah itu Allah menjelaskan sebab-sebab mengapa mereka mengingkari dan memusuhi Muhammad saw, yaitu karena sebagian besar mereka mengingkari isi Kitab Taurat yang di dalamnya terdapat kabar gembira tentang kedatangan Nabi Muhammad saw. ",
        "theme_group": "MEMUSUHI JIBRIL BERARTI MEMUSUHI ALLAH",
        "kosakata": "Kosakata: Jibr\u012bl \u062c\u0650\u0628\u0652\u0631\u0650\u064a\u0652\u0644 (al-Baqarah/2: 97)\nJibr\u012bl atau Jibr\u0101\u2019\u012bl (al-Baqarah/2: 97-98), di dalam Al-Qur\u2019an disebut juga dengan gelar ar-R\u016b\u1e25 al-Am\u012bn (asy-Syu\u2018ar\u0101\u2019/26: 193), \u201cRoh yang dapat dipercaya\u201d dan R\u016b\u1e25 al-Qudus (asy-Syu\u2018ar\u0101\u2019/26: 102), \u201cRoh yang suci,\u201d yakni malaikat utusan Allah yang membawakan wahyu-Nya kepada Rasulullah saw. Dalam beberapa hadis (al-Bukh\u0101r\u012b, Muslim, dan A\u1e25mad) disebut juga N\u0101m\u016bs seperti yang diturunkan kepada Musa,\u201d atau an-N\u0101m\u016bs al-Akbar (Ibnu Hisy\u0101m 1/256-257). Ada juga yang mengartikan kata N\u0101m\u016bs sama dengan wahyu. Ayat ini turun sehubungan dengan Abdullah bin Salam, pemuka Yahudi di Medinah yang masuk Islam pada masa Nabi (kisahnya cukup panjang dalam beberapa hadis).\nAda sekelompok Yahudi yang memperolok Islam karena wahyu kepada Nabi dibawa oleh Jibril. Ada tiga alasan mereka memusuhi Jibril: pertama, semua ramalan buruk yang ditimpakan kepada orang Yahudi dan mengutuk sejarah lama mereka dibawa oleh Jibril. Dengan demikian, Jibril adalah lambang \u201calamat buruk dan jahat\u201d (sebaliknya dari malaikat Mikail yang dipandang sebagai pembawa alamat baik, dan karenanya ia adalah \u201csahabat\u201d mereka); kedua, karena Al-Qur\u2019an berulang-ulang menyebutkan bahwa pembawa wahyu kepada Muhammad adalah Jibril, padahal yang sah dan berhak menerima wahyu hanyalah turunan Israil; dan ketiga, karena Al-Qur\u2019an yang diwahyukan melalui Jibril berisi kritik terhadap keyakinan dan sikap Yahudi tertentu dan mengatakan mereka telah merusak ajaran Musa yang asli.\nSebenarnya dalam Perjanjian Lama terdapat beberapa bagian yang mengecam perangai dan watak orang-orang Yahudi yang buruk itu lebih keras dari yang diperlihatkan oleh Al-Qur\u2019an. Dalam kitab mereka, Daniel 12:1, memang sudah disebutkan bahwa pemimpin besar mereka adalah Mikail (Mikhael) dan Jibril adalah musuh mereka. Bagi mereka, bayangan Jibril (Gabriel) menimbulkan rasa takut (Daniel 8:16-17).\nWahyu dan semua ajaran Allah pada dasarnya adalah satu, disampaikan melalui Jibril sebagai rasul atau utusan-Nya (asy-Sy\u016br\u0101/42:51)\u2014dan wahyu tidak harus Kitab\u2014yang juga diturunkan kepada beberapa rasul dan nabi dalam suatu bangsa atau masyarakat sebelum itu, dan ada yang tidak disebutkan namanya (an-Nis\u0101\u2019/4:164) ada pula yang disebutkan, seperti kepada Nuh, Ibrahim, Musa, Isa dan seterusnya (Y\u016bnus/10:47), karena wahyu yang dibawa oleh Jibril atas perintah Allah disampaikan kepada siapa saja di antara hamba-Nya untuk diberi peringatan (an-Na\u1e25l/16:2).",
        "sabab_nuzul": null,
        "conclusion": null
    }
}