{
    "id": 80,
    "surah_id": 2,
    "ayah": 73,
    "page": 11,
    "quarter_hizb": 1.75,
    "juz": 1,
    "manzil": 1,
    "arabic": "\u0641\u064e\u0642\u064f\u0644\u0652\u0646\u064e\u0627 \u0627\u0636\u0652\u0631\u0650\u0628\u064f\u0648\u0652\u0647\u064f \u0628\u0650\u0628\u064e\u0639\u0652\u0636\u0650\u0647\u064e\u0627\u06d7  \u0643\u064e\u0630\u0670\u0644\u0650\u0643\u064e \u064a\u064f\u062d\u0652\u064a\u0650 \u0627\u0644\u0644\u0651\u0670\u0647\u064f \u0627\u0644\u0652\u0645\u064e\u0648\u0652\u062a\u0670\u0649 \u0648\u064e\u064a\u064f\u0631\u0650\u064a\u0652\u0643\u064f\u0645\u0652 \u0627\u0670\u064a\u0670\u062a\u0650\u0647\u0656 \u0644\u064e\u0639\u064e\u0644\u0651\u064e\u0643\u064f\u0645\u0652 \u062a\u064e\u0639\u0652\u0642\u0650\u0644\u064f\u0648\u0652\u0646\u064e",
    "latin": "Faqulna\u1e0drib\u016bhu biba\u2018\u1e0dih\u0101, ka\u017c\u0101lika yu\u1e25yill\u0101hul-maut\u0101 wa yur\u012bkum \u0101y\u0101tih\u012b la\u2018allakum ta\u2018qil\u016bn(a). ",
    "translation": "Lalu, Kami berfirman, \u201cPukullah (mayat) itu dengan bagian dari (sapi) itu!\u201d Demikianlah Allah menghidupkan (orang) yang telah mati, dan Dia memperlihatkan kepadamu tanda-tanda (kekuasaan-Nya) agar kamu mengerti.",
    "no_footnote": null,
    "footnotes": null,
    "surah": {
        "id": 2,
        "arabic": " \u0627\u0644\u0628\u0642\u0631\u0629",
        "latin": "Al-Baqarah ",
        "transliteration": "Al-Baqarah",
        "translation": "Sapi",
        "num_ayah": 286,
        "page": 2,
        "location": "Madaniyah"
    },
    "tafsir": {
        "wajiz": "Sesudah sapi yang ditetapkan itu disembelih, lalu Kami berfirman,\u201d Pukullah mayat itu dengan bagian dari potongan atau daging sapi itu!\u201d Dengan izin-Nya hiduplah orang yang sudah terbunuh itu. Demikianlah Allah memperlihatkan kekuasaan-Nya dengan menghidupkan kembali orang yang telah mati untuk mengungkap pelaku pembunuhan, dan Dia dengan peristiwa ini memperlihatkan kepadamu tanda-tanda kekuasaan-Nya agar kamu mengerti dan percaya akan adanya hari Kebangkitan yang pasti akan terjadi kelak.",
        "tahlili": "Dalam ayat ini Allah memerintahkan agar orang yang terbunuh itu dipukul dengan sebagian anggota tubuh sapi itu agar orang itu hidup kembali. Demikianlah Allah menghidupkan kembali orang-orang yang telah mati, dan menjadi saksi atas kematiannya sehingga si pembunuh terbongkar sesuai dengan tradisi Israil.\nDiriwayatkan bahwa ketika Bani Israil memukul orang yang terbunuh itu, maka dengan izin Allah berdirilah dia. Urat-urat lehernya mengucurkan darah seraya berkata, \"Saya dibunuh oleh si Anu dan si Anu.\u201d Kedua pembunuh itu adalah anak paman orang yang dibunuh. Kemudian dia pun mati kembali. Maka kedua pembunuh tersebut ditangkap dan dibunuh.\nNabi Musa a.s. menyuruh mereka memukulkan sebagian tubuh sapi itu dan bukan Nabi Musa sendiri yang melakukannya. Hal itu dilakukan untuk menghindari tuduhan bahwa ia berbuat sihir. Allah memperlihatkan tanda-tanda kekuasaan-Nya kepada bangsa Yahudi agar mereka memahami rahasia syariat agama sehingga mereka tunduk kepada syariat itu, agar mereka mencegah diri dari mengikuti hawa nafsu dan agar mereka menaati Allah dalam semua perintah-Nya.",
        "intro_surah": "Surah al-Baqarah yang terdiri dari 286 ayat adalah termasuk golongan surah Madaniyah yang diturunkan pada tahun-tahun permulaan periode Nabi Muhammad saw di Medinah. Ia merupakan surah yang terpanjang dan terbanyak ayat-ayatnya di antara surah yang ada di dalam Al-Qur\u2019an. Surah ini dinamai \u201cal-Baqarah\u201d yang berarti \u201cseekor sapi\u201d, karena di dalamnya disebutkan kisah penyembelihan sapi betina yang diperintahkan Allah kepada Bani Israil. Dalam pelaksanaan penyembelihan sapi betina itu tampak dengan jelas sifat dan watak orang-orang Yahudi pada umumnya.\nDinamakan juga fus\u1e6da\u1e6d al-Qur\u2019\u0101n yang berarti \u201cpuncak Al-Qur\u2019an\u201d karena surah ini memuat beberapa hukum yang tidak disebut di surah-surah yang lain. Juga dinamakan Al\u012bf L\u0101m M\u012bm, karena surah ini dimulai dengan huruf-huruf hijaiyah (abjad) alif l\u0101m m\u012bm.\nDi antara pokok-pokok isinya ialah:\n1.\tKeimanan: Dakwah Islamiah yang ditujukan kepada umat Islam, Ahli Kitab dan orang-orang musyrik.\n2.\tHukum: Perintah mengerjakan salat, perintah menunaikan zakat, puasa, haji dan umrah, qi\u1e63a\u1e63, yang halal dan yang haram, bernafkah di jalan Allah, minum arak dan berjudi, cara bergaul dengan anak yatim, prinsip-prinsip ekonomi, larangan memakan riba, utang piutang, nafkah dan yang berhak menerimanya, wasiat kepada dua orang ibu bapak dan kaum kerabat, hukum sumpah, kewajiban menyampaikan amanat, sihir, hukum merusak masjid, hukum mengubah kitab-kitab Allah, haid, idah, talak, khulu\u2018, il\u0101, hukum susuan, meminang, mahar, menikahi wanita musyrik dan sebaliknya, hukum perang, dan lain-lain. \n3.\tKisah: Penciptaan Nabi Adam a.s., kisah Nabi Ibrahim a.s., dan kisah Nabi Musa a.s. dengan Bani Israil.\n4.\tLain-lain, seperti: sifat orang yang bertakwa, sifat-sifat orang munafik, sifat-sifat Allah, perumpamaan-perumpamaan, kiblat, dan kebangkitan sesudah mati.",
        "outro_surah": null,
        "munasabah_prev_surah": "1.\tSurah al-F\u0101ti\u1e25ah merupakan pokok-pokok pembahasan yang akan dirinci dalam surah al-Baqarah dan surah-surah sesudahnya.\n2.\tDi bagian akhir surah al-F\u0101ti\u1e25ah disebutkan permohonan hamba, agar diberi petunjuk oleh Allah ke jalan yang lurus, sedang surah al-Baqarah dimulai dengan ayat yang menerangkan bahwa Al-Qur\u2019an adalah kitab yang menunjukkan jalan yang dimaksudkan itu.\n3.\tDi akhir surah al-F\u0101ti\u1e25ah disebutkan tiga kelompok manusia, yaitu yang diberi nikmat, yang dimurkai Allah dan orang yang sesat, sedangkan di awal surah al-Baqarah juga disebutkan tiga kelompok manusia, yaitu orang yang bertakwa, orang kafir, dan orang munafik.",
        "munasabah_prev_theme": "Pada ayat-ayat yang lalu, Allah menerangkan sikap keras kepala Bani Israil dalam menunaikan perintah-perintah Allah yakni kewajiban mereka mengamalkan isi Taurat dan beribadah pada hari Sabat. Pada ayat ini, Allah menerangkan sikap keras kepala mereka terhadap perintah Nabi Musa untuk menyembelih sapi.",
        "theme_group": "KISAH PENYEMBELIHAN SAPI",
        "kosakata": "Kosakata: Baqarah  \u0628\u064e\u0642\u064e\u0631\u064e\u0629\u064c (al-Baqarah/2: 67)\nBaqarah artinya sapi. Pendapat yang masyhur mengatakan maksudnya ialah sapi betina, karena adanya ta\u2019 marb\u016b\u1e6dah, tetapi pendapat lain mengatakan ta\u2019 marb\u016b\u1e6dah di sini berarti seekor sapi. Surah kedua dalam Al-Qur\u2019an ini disebut al-Baqarah karena adanya kisah penyembelihan sapi betina pada ayat-ayat ini. Ketika Bani Israil ditinggalkan Nabi Musa ke Bukit Sinai untuk menerima petunjuk Allah, mereka membuat patung anak sapi dari emas lalu disembah oleh mereka. Ketika ada perkara pembunuhan yang tidak diketahui siapa pembunuhnya, Nabi Musa menyuruh untuk menyembelih seekor sapi, kemudian lidah sapi itu dipukulkan kepada tubuh orang yang terbunuh. Seketika itu, orang tersebut hidup kembali dan menyebutkan siapa pembunuhnya lalu mati kembali. Mengapa sapi yang terpilih untuk dijadikan sarana menghidupkan kembali korban pembunuhan, maksudnya agar mereka juga mengingat kesalahan mereka pada masa lalu, yaitu bahwa sapi yang mereka buat dari emas adalah sesuatu yang tidak pantas mereka sembah. Penyembelihan sapi yang diperintahkan oleh Allah pada ayat ini selain untuk mengungkap sang pembunuh juga dalam rangka mengkritik penyembahan mereka terhadap sapi.",
        "sabab_nuzul": null,
        "conclusion": "1.\tPenyembelihan sapi yang diperintahkan kepada Bani Israil itu dimaksudkan untuk mengungkapkan rahasia pembunuhan.\n2 \tBani Israil waktu itu tidak segera menanggapi perintah Allah dan mereka mengajukan pertanyaan-pertanyaan tentang perkara yang mudah dan sederhana dengan maksud memperolok-olokan Nabi Musa, yang akibatnya mempersulit diri mereka sendiri.\n3.\tMenghidupkan orang yang terbunuh dengan jalan memukulkan sebagian tubuh sapi yang disembelih itu merupakan mukjizat yang diberikan Allah kepada Nabi Musa dan salah satu tanda kekuasaan-Nya."
    }
}