{
    "id": 66,
    "surah_id": 2,
    "ayah": 59,
    "page": 9,
    "quarter_hizb": 1.5,
    "juz": 1,
    "manzil": 1,
    "arabic": "\u0641\u064e\u0628\u064e\u062f\u0651\u064e\u0644\u064e \u0627\u0644\u0651\u064e\u0630\u0650\u064a\u0652\u0646\u064e \u0638\u064e\u0644\u064e\u0645\u064f\u0648\u0652\u0627 \u0642\u064e\u0648\u0652\u0644\u064b\u0627 \u063a\u064e\u064a\u0652\u0631\u064e \u0627\u0644\u0651\u064e\u0630\u0650\u064a\u0652 \u0642\u0650\u064a\u0652\u0644\u064e \u0644\u064e\u0647\u064f\u0645\u0652 \u0641\u064e\u0627\u064e\u0646\u0652\u0632\u064e\u0644\u0652\u0646\u064e\u0627 \u0639\u064e\u0644\u064e\u0649 \u0627\u0644\u0651\u064e\u0630\u0650\u064a\u0652\u0646\u064e \u0638\u064e\u0644\u064e\u0645\u064f\u0648\u0652\u0627 \u0631\u0650\u062c\u0652\u0632\u064b\u0627 \u0645\u0651\u0650\u0646\u064e \u0627\u0644\u0633\u0651\u064e\u0645\u064e\u0627\u06e4\u0621\u0650 \u0628\u0650\u0645\u064e\u0627 \u0643\u064e\u0627\u0646\u064f\u0648\u0652\u0627 \u064a\u064e\u0641\u0652\u0633\u064f\u0642\u064f\u0648\u0652\u0646\u064e \u08d6",
    "latin": "Fabaddalal-la\u017c\u012bna \u1e93alam\u016b qaulan gairal-la\u017c\u012b q\u012bla lahum fa anzaln\u0101 \u2018alal-la\u017c\u012bna \u1e93alam\u016b rijzam minas-sam\u0101'i bim\u0101 k\u0101n\u016b yafsuq\u016bn(a). ",
    "translation": "Lalu, orang-orang yang zalim mengganti perintah dengan (perintah lain) yang tidak diperintahkan kepada mereka. Maka, Kami menurunkan malapetaka dari langit kepada orang-orang yang zalim itu karena mereka selalu berbuat fasik.",
    "no_footnote": null,
    "footnotes": null,
    "surah": {
        "id": 2,
        "arabic": " \u0627\u0644\u0628\u0642\u0631\u0629",
        "latin": "Al-Baqarah ",
        "transliteration": "Al-Baqarah",
        "translation": "Sapi",
        "num_ayah": 286,
        "page": 2,
        "location": "Madaniyah"
    },
    "tafsir": {
        "wajiz": "Setelah mengenyam berbagai kenikmatan itu, ternyata Bani Israil tetap ingkar kepada Allah. Sebagai balasan dari beragam anugerah tersebut, lalu orang-orang yang zalim itu bahkan mengganti perintah Allah yang disyariatkan untuk kebaikan mereka dengan mengerjakan sesuatu yang justru tidak diperintahkan kepada mereka. Di antara perbuatan yang mereka lakukan adalah mengganti perintah sujud dengan mengangkat kepala, tunduk sebagai bukti ketaatan dengan pembangkangan, dan rendah hati dengan sikap angkuh serta sombong. Maka, akibat dari keingkaran dan kesombongan ini, Allah menegaskan, \u201cKami, melalui para malaikat atau bencana, turunkan malapetaka yang merupakan siksa yang amat pedih dari langit yang datangnya tidak terduga kepada orang-orang yang zalim itu.\u201d Hal yang sedemikian ini karena mereka selalu berbuat fasik, yaitu tidak pernah bersyukur dan selalu menyiratkan pembangkangan dan kesombongan. ",
        "tahlili": "Dalam ayat ini diterangkan, bahwa Bani Israil tidak mau melaksanakan perintah dan petunjuk-petunjuk Allah, bahkan sebaliknya mereka melakukan hal-hal yang bertentangan dengan perintah-perintah tersebut, seolah-olah mereka tidak mengakui adanya segala perintah itu. Mereka mengatakan bahwa hal-hal sebaliknyalah yang diperintahkan kepada mereka. Demikianlah orang yang fasik dengan mudah memutarbalikkan kenyataan. Orang-orang yang durhaka senantiasa menyalahi perintah, apabila mereka ditugaskan melakukan pekerjaan yang terasa berat bagi mereka.\nPada akhir ayat ini dijelaskan bahwa karena sikap mereka yang ingkar dan tidak mematuhi perintah itu, Allah menurunkan azab kepada mereka. Dalam ayat ini tidak dijelaskan macam azab yang diturunkan itu. Allah menguji Bani Israil dengan bermacam-macam cobaan setiap kali mereka melakukan kefasikan dan kezaliman.",
        "intro_surah": "Surah al-Baqarah yang terdiri dari 286 ayat adalah termasuk golongan surah Madaniyah yang diturunkan pada tahun-tahun permulaan periode Nabi Muhammad saw di Medinah. Ia merupakan surah yang terpanjang dan terbanyak ayat-ayatnya di antara surah yang ada di dalam Al-Qur\u2019an. Surah ini dinamai \u201cal-Baqarah\u201d yang berarti \u201cseekor sapi\u201d, karena di dalamnya disebutkan kisah penyembelihan sapi betina yang diperintahkan Allah kepada Bani Israil. Dalam pelaksanaan penyembelihan sapi betina itu tampak dengan jelas sifat dan watak orang-orang Yahudi pada umumnya.\nDinamakan juga fus\u1e6da\u1e6d al-Qur\u2019\u0101n yang berarti \u201cpuncak Al-Qur\u2019an\u201d karena surah ini memuat beberapa hukum yang tidak disebut di surah-surah yang lain. Juga dinamakan Al\u012bf L\u0101m M\u012bm, karena surah ini dimulai dengan huruf-huruf hijaiyah (abjad) alif l\u0101m m\u012bm.\nDi antara pokok-pokok isinya ialah:\n1.\tKeimanan: Dakwah Islamiah yang ditujukan kepada umat Islam, Ahli Kitab dan orang-orang musyrik.\n2.\tHukum: Perintah mengerjakan salat, perintah menunaikan zakat, puasa, haji dan umrah, qi\u1e63a\u1e63, yang halal dan yang haram, bernafkah di jalan Allah, minum arak dan berjudi, cara bergaul dengan anak yatim, prinsip-prinsip ekonomi, larangan memakan riba, utang piutang, nafkah dan yang berhak menerimanya, wasiat kepada dua orang ibu bapak dan kaum kerabat, hukum sumpah, kewajiban menyampaikan amanat, sihir, hukum merusak masjid, hukum mengubah kitab-kitab Allah, haid, idah, talak, khulu\u2018, il\u0101, hukum susuan, meminang, mahar, menikahi wanita musyrik dan sebaliknya, hukum perang, dan lain-lain. \n3.\tKisah: Penciptaan Nabi Adam a.s., kisah Nabi Ibrahim a.s., dan kisah Nabi Musa a.s. dengan Bani Israil.\n4.\tLain-lain, seperti: sifat orang yang bertakwa, sifat-sifat orang munafik, sifat-sifat Allah, perumpamaan-perumpamaan, kiblat, dan kebangkitan sesudah mati.",
        "outro_surah": null,
        "munasabah_prev_surah": "1.\tSurah al-F\u0101ti\u1e25ah merupakan pokok-pokok pembahasan yang akan dirinci dalam surah al-Baqarah dan surah-surah sesudahnya.\n2.\tDi bagian akhir surah al-F\u0101ti\u1e25ah disebutkan permohonan hamba, agar diberi petunjuk oleh Allah ke jalan yang lurus, sedang surah al-Baqarah dimulai dengan ayat yang menerangkan bahwa Al-Qur\u2019an adalah kitab yang menunjukkan jalan yang dimaksudkan itu.\n3.\tDi akhir surah al-F\u0101ti\u1e25ah disebutkan tiga kelompok manusia, yaitu yang diberi nikmat, yang dimurkai Allah dan orang yang sesat, sedangkan di awal surah al-Baqarah juga disebutkan tiga kelompok manusia, yaitu orang yang bertakwa, orang kafir, dan orang munafik.",
        "munasabah_prev_theme": "Pada ayat yang lalu telah diterangkan kedurhakaan yang dilakukan Bani Israil, dan pada ayat-ayat ini akan diterangkan lagi kedurhakaan Bani Israil yang lain, yaitu pembangkangan masuk Baitulmakdis dan mengubah ucapan yang maknanya berbeda dengan apa yang diperintahkan oleh Allah, sebagai tanda keingkaran mereka.",
        "theme_group": "KEDURHAKAAN BANI ISRAIL \nKETIKA MASUK KE BAITULMAKDIS",
        "kosakata": "Kosakata: al-Qaryah \u0627\u064e\u0644\u0652\u0642\u064e\u0631\u0652\u064a\u064e\u0629\u064c  (al-Baqarah/2: 58)\nAl-qaryah secara bahasa berasal dari kata kerja qar\u0101-yaqr\u012b yang maknanya \u201cberkumpul\u201d atau \u201cmengumpulkan\u201d. Al-qaryah diartikan sebagai kumpulan manusia, suatu kota yang menyeluruh, atau tempat berkumpulnya sesuatu. Dalam pengertian sehari-hari, al-qaryah diberi makna sebagai desa atau negeri. Yang dimaksud dengan al-qaryah dalam ayat ini adalah Baitulmakdis, yang oleh orang Yahudi dinamakan Yerusalem lama. Kawasan ini merupakan suatu daerah yang subur yang dipenuhi oleh hasil bumi yang melimpah. Keadaan yang demikian diisyaratkan oleh kelanjutan dari ayat ini (al-qaryah) yang menunjukkan betapa subur tanah negeri itu dan betapa banyak dan terpencar hasil buminya, sehingga mereka dipersilahkan untuk menikmati produk yang banyak itu di mana saja yang masih termasuk kawasan ini. Demikian keadaan yang sesungguhnya dengan negeri (al-qaryah) yang dimaksud, yaitu Baitulmakdis dan daerah-daerah di sekitarnya. Kondisi yang demikian tetap seperti yang diungkap Al-Qur\u2019an sampai saat ini. Sebagai tambahan, kemungkinan besar karena keadaannya yang subur di tengah-tengah gurun pasir yang gersang dan tandus, negeri ini selalu menjadi rebutan berbagai suku bangsa sejak zaman dahulu hingga sekarang.",
        "sabab_nuzul": null,
        "conclusion": "1.\tAllah memerintahkan kepada Bani Israil memasuki Baitulmakdis dan menikmati makanan yang terdapat di sana dengan mematuhi segala perintah-Nya.\n2.\tBani Israil tetap mengingkari nikmat Allah, dan tidak mau mematuhi perintah-perintah-Nya. Oleh sebab itu mereka ditimpa azab karena kesalahan-kesalahan yang telah berulang kali mereka lakukan."
    }
}