{
    "id": 72,
    "surah_id": 2,
    "ayah": 65,
    "page": 10,
    "quarter_hizb": 1.75,
    "juz": 1,
    "manzil": 1,
    "arabic": "\u0648\u064e\u0644\u064e\u0642\u064e\u062f\u0652 \u0639\u064e\u0644\u0650\u0645\u0652\u062a\u064f\u0645\u064f \u0627\u0644\u0651\u064e\u0630\u0650\u064a\u0652\u0646\u064e \u0627\u0639\u0652\u062a\u064e\u062f\u064e\u0648\u0652\u0627 \u0645\u0650\u0646\u0652\u0643\u064f\u0645\u0652 \u0641\u0650\u0649 \u0627\u0644\u0633\u0651\u064e\u0628\u0652\u062a\u0650 \u0641\u064e\u0642\u064f\u0644\u0652\u0646\u064e\u0627 \u0644\u064e\u0647\u064f\u0645\u0652 \u0643\u064f\u0648\u0652\u0646\u064f\u0648\u0652\u0627 \u0642\u0650\u0631\u064e\u062f\u064e\u0629\u064b \u062e\u0670\u0633\u0650\u0640\u0655\u0650\u064a\u0652\u0646\u064e",
    "latin": "Wa laqad \u2018alimtumul-la\u017c\u012bna\u2018tadau minkum fis-sabti faquln\u0101 lahum k\u016bn\u016b qiradatan kh\u0101si'\u012bn(a).  ",
    "translation": "Sungguh, kamu benar-benar telah mengetahui orang-orang yang melakukan pelanggaran di antara kamu pada hari Sabat, lalu Kami katakan kepada mereka, \u201cJadilah kamu kera yang hina!\u201d ",
    "no_footnote": null,
    "footnotes": null,
    "surah": {
        "id": 2,
        "arabic": " \u0627\u0644\u0628\u0642\u0631\u0629",
        "latin": "Al-Baqarah ",
        "transliteration": "Al-Baqarah",
        "translation": "Sapi",
        "num_ayah": 286,
        "page": 2,
        "location": "Madaniyah"
    },
    "tafsir": {
        "wajiz": "Ayat ini menjelaskan tentang sikap dan keingkaran Bani Israil. Sejalan dengan hal itu, Allah menegur dan memurkai mereka. Sungguh, kamu, wahai Bani Israil, telah mengetahui hukuman yang diterima oleh orang-orang yang melakukan pelanggaran di antara kamu dengan tetap mencari ikan pada hari Sabat, yakni hari Sabtu, hari khusus untuk beribadah bagi orang Yahudi, padahal kamu semua sudah sepakat untuk menjadikannya sebagai hari ibadah dan tidak melakukan pekerjaan lain. Karena itu lalu Kami katakan kepada mereka, \u201cJadilah kamu kera yang hina.\u201d Pada saat itu berubahlah fisik dan atau sikap mereka seperti kera. ",
        "tahlili": "Dalam ketentuan syariat agama Yahudi, pada hari ketujuh, Sabat (dari bahasa Ibrani, shabbath, berarti \u201cistirahat\u201d) orang dilarang mengerjakan apa pun, karena hari itu khusus untuk ibadah. Dalam bahasa Arab sabt (Sabtu), dari kata sabata, yasbitu, sabtan, juga berarti \u201cistirahat\u201d atau \u201ctenang.\u201d Pada hari itu setelah \u201clangit, bumi, dan segala isinya diselesaikan\u201d Tuhan beristirahat. \u201cLalu Allah memberkati hari ketujuh itu dan menguduskannya\u201d (Kejadian ii. 1-3), yang juga dipakai untuk merayakan terbebasnya orang Israil dari perbudakan di Mesir. Menurut Perjanjian Lama, mereka yang melanggar kekudusan Sabat, termasuk menangkap ikan pada hari itu, dapat dijatuhi hukuman mati: \u201cSiapa yang melanggar kekudusan hari Sabat itu pastilah ia dihukum mati, sebab orang yang melakukan pekerjaan pada hari itu, orang itu harus dilenyapkan dari antara bangsanya\u201d. (Kitab Keluaran 31. 14). \nPada hari yang sangat dihormati itu biasanya ikan-ikan bebas bermunculan sehingga menutupi permukaan air laut, karena hari itu tidak ada orang yang berani mengganggunya. Di luar hari Sabtu ikan-ikan itu menghilang lagi (al-A\u2018r\u0101f/7 : 163). Banyak mufasir menyebutkan, larangan ini oleh mereka diakali; pada hari-hari sebelum Sabat mereka membuat kolam besar dan air laut dialirkan ke dalamnya. Pada hari Ahad mereka bekerja mengambil ikan yang sudah terjaring itu. Tetapi dalam hukum Tuhan mereka tetap melanggar, maka Allah menjatuhkan hukuman dengan menjadikan mereka kera, sehingga mereka jauh dari kebajikan serta hina dan rendah.\nMenurut Muj\u0101hid, sebagaimana diriwayatkan oleh Ibnu Jar\u012br, \u201cFisik mereka tidak ditukar menjadi kera, tetapi hati, jiwa, dan sifat merekalah yang dijadikan seperti kera, sehingga mereka tidak dapat menerima pengajaran dan tidak dapat memahami ancaman.\u201d Pada ayat ini mereka diserupakan dengan kera dan pada ayat yang lain mereka diserupakan dengan keledai, sesuai dengan firman Allah:\n\u0645\u064e\u062b\u064e\u0644\u064f \u0627\u0644\u0651\u064e\u0630\u0650\u064a\u0652\u0646\u064e \u062d\u064f\u0645\u0651\u0650\u0644\u064f\u0648\u0627 \u0627\u0644\u062a\u0651\u064e\u0648\u0652\u0631\u0670\u0649\u0629\u064e \u062b\u064f\u0645\u0651\u064e \u0644\u064e\u0645\u0652 \u064a\u064e\u062d\u0652\u0645\u0650\u0644\u064f\u0648\u0652\u0647\u064e\u0627 \u0643\u064e\u0645\u064e\u062b\u064e\u0644\u0650 \u0627\u0644\u0652\u062d\u0650\u0645\u064e\u0627\u0631\u0650 \u064a\u064e\u062d\u0652\u0645\u0650\u0644\u064f \u0627\u064e\u0633\u0652\u0641\u064e\u0627\u0631\u064b\u0627\nPerumpamaan orang-orang yang diberi tugas membawa Taurat, kemudian mereka tidak membawanya (tidak mengamalkannya) adalah seperti keledai yang membawa kitab-kitab yang tebal.\u2026.(al-Jumu\u2018ah/62:5)\nJumhur ulama berpendapat bahwa mereka benar-benar bertukar wujud menjadi kera sebagai hukuman terhadap keingkaran mereka. Di dalam riwayat lain disebutkan bahwa mereka yang diubah menjadi kera tidak beranak, tidak makan, tidak minum, dan tidak dapat hidup lebih dari tiga hari. Di dalam Al-Qur\u2019an terdapat ayat yang serupa maksudnya:\n\u0648\u064e\u062c\u064e\u0639\u064e\u0644\u064e \u0645\u0650\u0646\u0652\u0647\u064f\u0645\u064f \u0627\u0644\u0652\u0642\u0650\u0631\u064e\u062f\u064e\u0629\u064e \u0648\u064e\u0627\u0644\u0652\u062e\u064e\u0646\u064e\u0627\u0632\u0650\u064a\u0652\u0631\u064e \u0648\u064e\u0639\u064e\u0628\u064e\u062f\u064e \u0627\u0644\u0637\u0651\u064e\u0627\u063a\u064f\u0648\u0652\u062a\u064e\u06d7 \n\u2026 Dan di antara mereka (ada) yang dijadikan kera dan babi dan (orang yang) menyembah Tagut.\u201d\u2026(al-M\u0101\u2019idah/5:60).",
        "intro_surah": "Surah al-Baqarah yang terdiri dari 286 ayat adalah termasuk golongan surah Madaniyah yang diturunkan pada tahun-tahun permulaan periode Nabi Muhammad saw di Medinah. Ia merupakan surah yang terpanjang dan terbanyak ayat-ayatnya di antara surah yang ada di dalam Al-Qur\u2019an. Surah ini dinamai \u201cal-Baqarah\u201d yang berarti \u201cseekor sapi\u201d, karena di dalamnya disebutkan kisah penyembelihan sapi betina yang diperintahkan Allah kepada Bani Israil. Dalam pelaksanaan penyembelihan sapi betina itu tampak dengan jelas sifat dan watak orang-orang Yahudi pada umumnya.\nDinamakan juga fus\u1e6da\u1e6d al-Qur\u2019\u0101n yang berarti \u201cpuncak Al-Qur\u2019an\u201d karena surah ini memuat beberapa hukum yang tidak disebut di surah-surah yang lain. Juga dinamakan Al\u012bf L\u0101m M\u012bm, karena surah ini dimulai dengan huruf-huruf hijaiyah (abjad) alif l\u0101m m\u012bm.\nDi antara pokok-pokok isinya ialah:\n1.\tKeimanan: Dakwah Islamiah yang ditujukan kepada umat Islam, Ahli Kitab dan orang-orang musyrik.\n2.\tHukum: Perintah mengerjakan salat, perintah menunaikan zakat, puasa, haji dan umrah, qi\u1e63a\u1e63, yang halal dan yang haram, bernafkah di jalan Allah, minum arak dan berjudi, cara bergaul dengan anak yatim, prinsip-prinsip ekonomi, larangan memakan riba, utang piutang, nafkah dan yang berhak menerimanya, wasiat kepada dua orang ibu bapak dan kaum kerabat, hukum sumpah, kewajiban menyampaikan amanat, sihir, hukum merusak masjid, hukum mengubah kitab-kitab Allah, haid, idah, talak, khulu\u2018, il\u0101, hukum susuan, meminang, mahar, menikahi wanita musyrik dan sebaliknya, hukum perang, dan lain-lain. \n3.\tKisah: Penciptaan Nabi Adam a.s., kisah Nabi Ibrahim a.s., dan kisah Nabi Musa a.s. dengan Bani Israil.\n4.\tLain-lain, seperti: sifat orang yang bertakwa, sifat-sifat orang munafik, sifat-sifat Allah, perumpamaan-perumpamaan, kiblat, dan kebangkitan sesudah mati.",
        "outro_surah": null,
        "munasabah_prev_surah": "1.\tSurah al-F\u0101ti\u1e25ah merupakan pokok-pokok pembahasan yang akan dirinci dalam surah al-Baqarah dan surah-surah sesudahnya.\n2.\tDi bagian akhir surah al-F\u0101ti\u1e25ah disebutkan permohonan hamba, agar diberi petunjuk oleh Allah ke jalan yang lurus, sedang surah al-Baqarah dimulai dengan ayat yang menerangkan bahwa Al-Qur\u2019an adalah kitab yang menunjukkan jalan yang dimaksudkan itu.\n3.\tDi akhir surah al-F\u0101ti\u1e25ah disebutkan tiga kelompok manusia, yaitu yang diberi nikmat, yang dimurkai Allah dan orang yang sesat, sedangkan di awal surah al-Baqarah juga disebutkan tiga kelompok manusia, yaitu orang yang bertakwa, orang kafir, dan orang munafik.",
        "munasabah_prev_theme": null,
        "theme_group": "PEMBALASAN TERHADAP BANI ISRAIL\nYANG MELANGGAR PERJANJIAN DENGAN ALLAH",
        "kosakata": null,
        "sabab_nuzul": null,
        "conclusion": null
    }
}