{
    "id": 44,
    "surah_id": 2,
    "ayah": 37,
    "page": 6,
    "quarter_hizb": 1.25,
    "juz": 1,
    "manzil": 1,
    "arabic": "\u0641\u064e\u062a\u064e\u0644\u064e\u0642\u0651\u0670\u0653\u0649 \u0627\u0670\u062f\u064e\u0645\u064f \u0645\u0650\u0646\u0652 \u0631\u0651\u064e\u0628\u0651\u0650\u0647\u0656 \u0643\u064e\u0644\u0650\u0645\u0670\u062a\u064d \u0641\u064e\u062a\u064e\u0627\u0628\u064e \u0639\u064e\u0644\u064e\u064a\u0652\u0647\u0650 \u06d7 \u0627\u0650\u0646\u0651\u064e\u0647\u0657 \u0647\u064f\u0648\u064e \u0627\u0644\u062a\u0651\u064e\u0648\u0651\u064e\u0627\u0628\u064f \u0627\u0644\u0631\u0651\u064e\u062d\u0650\u064a\u0652\u0645\u064f ",
    "latin": "Fatalaqq\u0101 \u0101damu mir rabbih\u012b kalim\u0101tin fat\u0101ba \u2018alaih(i), innah\u016b huwat-taww\u0101bur- ra\u1e25\u012bm(u). ",
    "translation": "Kemudian, Adam menerima beberapa kalimat18) dari Tuhannya, lalu Dia pun menerima tobatnya. Sesungguhnya Dialah Yang Maha Penerima tobat lagi Maha Penyayang.",
    "no_footnote": "18",
    "footnotes": "18) Yang dimaksud dengan beberapa kalimat pada ayat ini adalah ucapan untuk memohon ampunan (tobat) dari Allah Swt., seperti disebut dalam surah al-A\u2018r\u0101f (7): 23.",
    "surah": {
        "id": 2,
        "arabic": " \u0627\u0644\u0628\u0642\u0631\u0629",
        "latin": "Al-Baqarah ",
        "transliteration": "Al-Baqarah",
        "translation": "Sapi",
        "num_ayah": 286,
        "page": 2,
        "location": "Madaniyah"
    },
    "tafsir": {
        "wajiz": "Nabi Adam dan Hawa merasakan penyesalan yang sangat dalam atas kejadian yang baru saja berlalu. Keduanya tersadar telah diperdayakan oleh setan. Lalu keduanya meminta ampun kepada Allah. Kemudian Adam menerima beberapa kalimat, yakni doa penyesalan dan permintaan tobat, sebagaimana tersirat dalam Surah al-A \u2018raf/7: 23, dari Tuhannya, kemudian mereka bertobat, lalu Dia pun menerima tobatnya. Sungguh, Allah Maha Penerima tobat, Maha Penyayang. ",
        "tahlili": "Dalam ayat ini diterangkan bahwa setelah Adam a.s. dikeluarkan dari surga, dia menerima ilham dari Allah swt yang mengajarkan kepadanya kata-kata untuk bertobat. Lalu Adam bertobat dan memohon ampun kepada Allah dengan menggunakan kata-kata tersebut, yang berbunyi sebagai berikut:\n\u0642\u064e\u0627\u0644\u064e\u0627 \u0631\u064e\u0628\u0651\u064e\u0646\u064e\u0627 \u0638\u064e\u0644\u064e\u0645\u0652\u0646\u064e\u0627\u0653 \u0627\u064e\u0646\u0652\u0641\u064f\u0633\u064e\u0646\u064e\u0627 \u0648\u064e\u0627\u0650\u0646\u0652 \u0644\u0651\u064e\u0645\u0652 \u062a\u064e\u063a\u0652\u0641\u0650\u0631\u0652 \u0644\u064e\u0646\u064e\u0627 \u0648\u064e\u062a\u064e\u0631\u0652\u062d\u064e\u0645\u0652\u0646\u064e\u0627 \u0644\u064e\u0646\u064e\u0643\u064f\u0648\u0652\u0646\u064e\u0646\u0651\u064e \u0645\u0650\u0646\u064e \u0627\u0644\u0652\u062e\u0670\u0633\u0650\u0631\u0650\u064a\u0652\u0646\u064e \u0662\u0663 (\u0627\u0644\u0627\u0639\u0631\u0627\u0641)\nKeduanya berkata, \u201dYa Tuhan kami, kami telah menzalimi diri kami sendiri. Jika Engkau tidak mengampuni kami dan memberi rahmat kepada kami, niscaya kami termasuk orang-orang yang rugi.\u201d (al-A\u2018r\u0101f/7: 23)\nSetelah Adam berdoa memohon ampunan kepada Allah dengan mengucapkan kata-kata tersebut, Allah pun menerima tobatnya, dan melimpahkan rahmat-Nya kepada Adam. Sesungguhnya Allah Maha Penerima Tobat dan Maha Pengasih. Sebab Allah senantiasa memberikan maaf dan ampunan serta rahmat-Nya kepada orang-orang yang bertobat dari kesalahannya. \nTobat yang diterima Allah adalah tobat yang memenuhi hal-hal sebagai berikut:\n1.\tMenyesali dan meninggalkan segala kesalahan yang telah dilakukan.\n2.\tMenjauhi dan tidak mengulangi lagi kesalahan-kesalahan dan perbuatan-perbuatan semacam itu.\n3.\tMengiringi perbuatan dosa itu dengan perbuatan-perbuatan yang baik.\nDalam hal ini Rasulullah saw telah bersabda:\n\u0648\u064e\u0623\u064e\u062a\u0652\u0628\u0650\u0639\u0650 \u0627\u0644\u0633\u0651\u064e\u064a\u0651\u0650\u0626\u064e\u0629\u064e \u0627\u0644\u0652\u062d\u064e\u0633\u064e\u0646\u064e\u0629\u064e \u062a\u064e\u0645\u0652\u062d\u064f\u0647\u064e\u0627 (\u0631\u0648\u0627\u0647 \u0627\u0644\u062a\u0631\u0645\u0630\u064a \u0639\u0646 \u0623\u0628\u064a \u0630\u0631)\n\u201cIringilah perbuatan jahat itu dengan perbuatan baik, niscaya perbuatan baik itu akan menghapuskan dosanya\u201d. (Riwayat at-Tirmi\u017ci dari Ab\u012b \u017barr)\nDalam ayat ini ada dua macam sifat Allah swt yang disebutkan sekaligus, yaitu \u201cMaha Penerima tobat\u201d, dan \u201cMaha Pengasih\u201d. Hal ini merupakan isyarat tentang jaminan Allah kepada setiap orang yang bertobat menurut cara-cara yang tersebut di atas, bahwa Allah swt akan melimpahkan kepadanya kebajikan dan ampunan-Nya.",
        "intro_surah": "Surah al-Baqarah yang terdiri dari 286 ayat adalah termasuk golongan surah Madaniyah yang diturunkan pada tahun-tahun permulaan periode Nabi Muhammad saw di Medinah. Ia merupakan surah yang terpanjang dan terbanyak ayat-ayatnya di antara surah yang ada di dalam Al-Qur\u2019an. Surah ini dinamai \u201cal-Baqarah\u201d yang berarti \u201cseekor sapi\u201d, karena di dalamnya disebutkan kisah penyembelihan sapi betina yang diperintahkan Allah kepada Bani Israil. Dalam pelaksanaan penyembelihan sapi betina itu tampak dengan jelas sifat dan watak orang-orang Yahudi pada umumnya.\nDinamakan juga fus\u1e6da\u1e6d al-Qur\u2019\u0101n yang berarti \u201cpuncak Al-Qur\u2019an\u201d karena surah ini memuat beberapa hukum yang tidak disebut di surah-surah yang lain. Juga dinamakan Al\u012bf L\u0101m M\u012bm, karena surah ini dimulai dengan huruf-huruf hijaiyah (abjad) alif l\u0101m m\u012bm.\nDi antara pokok-pokok isinya ialah:\n1.\tKeimanan: Dakwah Islamiah yang ditujukan kepada umat Islam, Ahli Kitab dan orang-orang musyrik.\n2.\tHukum: Perintah mengerjakan salat, perintah menunaikan zakat, puasa, haji dan umrah, qi\u1e63a\u1e63, yang halal dan yang haram, bernafkah di jalan Allah, minum arak dan berjudi, cara bergaul dengan anak yatim, prinsip-prinsip ekonomi, larangan memakan riba, utang piutang, nafkah dan yang berhak menerimanya, wasiat kepada dua orang ibu bapak dan kaum kerabat, hukum sumpah, kewajiban menyampaikan amanat, sihir, hukum merusak masjid, hukum mengubah kitab-kitab Allah, haid, idah, talak, khulu\u2018, il\u0101, hukum susuan, meminang, mahar, menikahi wanita musyrik dan sebaliknya, hukum perang, dan lain-lain. \n3.\tKisah: Penciptaan Nabi Adam a.s., kisah Nabi Ibrahim a.s., dan kisah Nabi Musa a.s. dengan Bani Israil.\n4.\tLain-lain, seperti: sifat orang yang bertakwa, sifat-sifat orang munafik, sifat-sifat Allah, perumpamaan-perumpamaan, kiblat, dan kebangkitan sesudah mati.",
        "outro_surah": null,
        "munasabah_prev_surah": "1.\tSurah al-F\u0101ti\u1e25ah merupakan pokok-pokok pembahasan yang akan dirinci dalam surah al-Baqarah dan surah-surah sesudahnya.\n2.\tDi bagian akhir surah al-F\u0101ti\u1e25ah disebutkan permohonan hamba, agar diberi petunjuk oleh Allah ke jalan yang lurus, sedang surah al-Baqarah dimulai dengan ayat yang menerangkan bahwa Al-Qur\u2019an adalah kitab yang menunjukkan jalan yang dimaksudkan itu.\n3.\tDi akhir surah al-F\u0101ti\u1e25ah disebutkan tiga kelompok manusia, yaitu yang diberi nikmat, yang dimurkai Allah dan orang yang sesat, sedangkan di awal surah al-Baqarah juga disebutkan tiga kelompok manusia, yaitu orang yang bertakwa, orang kafir, dan orang munafik.",
        "munasabah_prev_theme": "Dalam ayat-ayat yang lalu dijelaskan bahwa Allah telah mengangkat Adam a.s. menjadi khalifah di bumi dan bahwa Adam a.s. telah diberi-Nya ilmu pengetahuan kemudian para malaikat diperintahkan agar bersujud kepadanya (Adam a.s.) dan mereka mematuhi perintah itu, kecuali Iblis. Selanjutnya dalam ayat-ayat ini Allah swt menjelaskan penempatan Adam a.s. dan istrinya di surga, godaan setan terhadap mereka, dan akibat dari godaan itu. Kemudian diakhiri-Nya dengan memberikan kabar gembira kepada orang-orang yang mengikuti petunjuk-petunjuk-Nya; dan ancaman terhadap orang-orang yang kafir.",
        "theme_group": "PENEMPATAN ADAM DI SURGA\nDAN GODAAN SETAN KEPADANYA",
        "kosakata": "Kosakata: Syai\u1e6d\u0101n  \u0634\u064e\u064a\u0652\u0637\u064e\u0627\u0646\u064f (al-Baqarah/2: 36)\nKata syai\u1e6d\u0101n berakar dari kata sya\u1e6dana yang berarti jauh. Disebut syai\u1e6d\u0101n karena jauh dari kebaikan, kebenaran dan perintah Allah. Jadi, setiap yang membangkang kepada Allah swt disebut syai\u1e6d\u0101n (setan), baik dari golongan jin atau manusia\u2014sesuai dengan surah al-An\u2018am/6: 112. Ambisi setan adalah menyesatkan umat manusia sehingga jauh dari kebenaran. Atau kata tersebut terambil dari kata sy\u0101\u1e6da-yasy\u012b\u1e6du artinya terbakar dalam kemarahan. Syai\u1e6d\u0101n mempunyai sifat demikian karena ia tercipta dari api (al-A\u2018r\u0101f/7: 12). Di dalam Al-Qur\u2019an diterangkan bahwa di antara tingkah laku keji setan adalah mengeluarkan Adam dan Hawa dari surga, menakut-nakuti akan kefakiran dan menyuruh melakukan kejahatan, menakut-nakuti agar tidak berbuat kebenaran, menipu manusia dengan kata-kata indah, mengelabui manusia sehingga kejahatan dan maksiat terlihat baik di matanya, menimbulkan kebencian dan permusuhan sesama manusia, membuat manusia lupa dari mengingat Allah, dan lain-lain. Karena itu, kita diperintahkan mewaspadai bisikan-bisikan setan, tidak mengikuti langkah-langkahnya, dan memohon perlindungan kepada Allah dari godaan-godaannya. Di dalam surah al-A\u2018r\u0101f/7: 27 dijelaskan bahwa setan dari golongan jin tidak terlihat oleh kita sementara mereka melihat kita. Itulah sebabnya mengapa kita harus selalu waspada terhadap tipu daya dan godaan setan.",
        "sabab_nuzul": null,
        "conclusion": "1.\tAllah swt memerintahkan Adam dan Hawa agar tetap tinggal di surga dengan ketentuan bahwa mereka tidak boleh memakan buah pohon keabadian. Tetapi setan menggodanya, sehingga mereka berdua memakan buah itu. Karena itu Allah memerintahkan mereka turun ke bumi.\n2.\tManusia hidup di dunia ini hanyalah untuk waktu yang terbatas, yaitu sampai pada saat datangnya ajal masing-masing. Sebab itu, umur kita yang singkat itu hendaklah digunakan sebaik-baiknya untuk berbuat amal kebajikan, guna mempersiapkan diri untuk memperoleh kebahagiaan yang kekal di akhirat kelak.\n3.\tApabila manusia terlanjur melakukan suatu kesalahan, kemudian dia segera bertobat kepada Allah, maka Allah akan menerima tobatnya.\n4.\tDari kisah ini dapat diambil pelajaran bahwa manusia dalam kehidupannya akan menemui ujian yang akan membuktikan keimanannya yang sungguh-sungguh."
    }
}