{
    "id": 57,
    "surah_id": 2,
    "ayah": 50,
    "page": 8,
    "quarter_hizb": 1.5,
    "juz": 1,
    "manzil": 1,
    "arabic": "\u0648\u064e\u0627\u0650\u0630\u0652 \u0641\u064e\u0631\u064e\u0642\u0652\u0646\u064e\u0627 \u0628\u0650\u0643\u064f\u0645\u064f \u0627\u0644\u0652\u0628\u064e\u062d\u0652\u0631\u064e \u0641\u064e\u0627\u064e\u0646\u0652\u062c\u064e\u064a\u0652\u0646\u0670\u0643\u064f\u0645\u0652 \u0648\u064e\u0627\u064e\u063a\u0652\u0631\u064e\u0642\u0652\u0646\u064e\u0627\u0653 \u0627\u0670\u0644\u064e \u0641\u0650\u0631\u0652\u0639\u064e\u0648\u0652\u0646\u064e \u0648\u064e\u0627\u064e\u0646\u0652\u062a\u064f\u0645\u0652 \u062a\u064e\u0646\u0652\u0638\u064f\u0631\u064f\u0648\u0652\u0646\u064e ",
    "latin": "Wa i\u017c faraqn\u0101 bikumul-ba\u1e25ra fa'anjain\u0101kum wa agraqn\u0101 \u0101la fir\u2018auna wa antum tan\u1e93ur\u016bn(a).  ",
    "translation": "(Ingatlah) ketika Kami membelah laut untukmu, lalu Kami menyelamatkanmu dan menenggelamkan (Fir\u2018aun dan) pengikut-pengikut Fir\u2018aun, sedangkan kamu menyaksikan(-nya).24)",
    "no_footnote": "24",
    "footnotes": "24) Allah Swt. memberikan mukjizat kepada Nabi Musa a.s. dengan memberinya jalan untuk dilintasi melalui tersibaknya laut. Belum ada penjelasan ilmiah tentang mekanismenya. Bisa jadi, Nabi Musa a.s. dan kaumnya menyeberang melintasi celah teluk yang sempit tepat saat laut surut maksimum akibat purnama atau bulan baru sehingga memunculkan daratan untuk dilintasi. Sekitar 6 jam kemudian, rombongan Fir\u2018aun mengejar. Saat di tengah, air laut mulai pasang dan menenggelamkan mereka semua.",
    "surah": {
        "id": 2,
        "arabic": " \u0627\u0644\u0628\u0642\u0631\u0629",
        "latin": "Al-Baqarah ",
        "transliteration": "Al-Baqarah",
        "translation": "Sapi",
        "num_ayah": 286,
        "page": 2,
        "location": "Madaniyah"
    },
    "tafsir": {
        "wajiz": "Penyelamatan lain adalah terbelahnya Laut Merah (dahulu Laut Qulzum. Dan ingatlah ketika Kami membelah laut Merah untukmu, wahai Bani Israil yang ketika itu bersama Nabi Musa meninggalkan Mesir menuju Sinai. Ketika rombongan kamu sampai di tepi Laut Merah, Allah memberi perintah kepada Nabi Musa untuk memukulkan tongkatnya ke Laut Merah, sehingga laut itu pun terbelah. Dengan demikian, kamu, wahai Bani Israil, bersama Nabi Musa dapat melewati laut, sehingga kamu dapat Kami selamatkan dari kejaran Firaun dan tentara-tentaranya. Akan tetapi, ketika Firaun dan tentara-tentaranya masuk ke dalam laut yang terbelah itu, air laut kemudian bertemu kembali, dan Kami tenggelamkan Firaun dan pengikut-pengikut Fir'aun, sehingga mereka semua mati tenggelam, sedang kamu, wahai Bani Israil, menyaksikan peristiwa itu dengan mata kepala kamu sendiri. Sementara itu, mayat Firaun diselamatkan agar menjadi pelajaran bagi generasi sesudahnya (Lihat: Surah Yunus/10: 92).",
        "tahlili": "Dalam ayat ini disebutkan nikmat lain yang diberikan kepada Bani Israil, yaitu Allah telah menyelamatkan mereka ketika meninggalkan Mesir di bawah pimpinan Nabi Musa a.s. dari kejaran Fir\u2018aun bersama tentaranya.\nSetelah Allah mengangkat Musa menjadi Rasul, Dia memerintahkan agar menyeru Fir\u2018aun dan kaumnya untuk beriman kepada-Nya, menuntut Fir\u2018aun agar membebaskan Bani Israil yang berada di negeri itu, dan menghentikan kekejaman yang dilakukan terhadap mereka. Sebagai jawabannya, Fir\u2018aun memperhebat siksaan dan kekejamannya terhadap Bani Israil dan memerintahkan rakyatnya untuk meningkatkan kerja paksa yang ditimpakan kepada mereka.\nKemudian Allah memberikan berbagai mukjizat kepada Musa a.s. dan saudaranya, Nabi Harun, antara lain tongkat Nabi Musa yang dapat berubah menjadi ular dan dapat menelan ular-ular yang dijelmakan oleh para pesihir yang dikerahkan Fir\u2018aun untuk melawan mukjizat Nabi Musa a.s.\nMelihat kenyataan itu, para pesihir itu pun mengakui kekalahan mereka, lalu menyatakan beriman kepada Tuhan. Akhirnya Fir\u2018aun mengusir dan mengejar-ngejar mereka. Maka berangkatlah mereka meninggalkan negeri itu di bawah pimpinan Nabi Musa a.s., sedangkan Fir\u2018aun dan bala tentaranya mengejar mereka.\nKetika mereka sampai di tepi Laut Merah yang membatasi kota Suez dengan Semenanjung Sinai, Allah memerintahkan Nabi Musa agar memukulkan tongkatnya ke laut. Lalu Musa a.s. melakukannya. Maka terbelahlah air laut dan terbentanglah dua belas jalur jalan raya yang akan dilalui Nabi Musa a.s. bersama pengikut-pengikutnya yang terdiri dari dua belas rombongan, sehingga selamatlah mereka sampai ke seberang.\nSementara itu Fir\u2018aun bersama rombongannya terus mengejar mereka. Tetapi ketika mereka sampai di tengah-tengah laut itu, air laut kembali bertaut, sehingga mereka semuanya tenggelam ditelan air laut. Kejadian itu disaksikan oleh Bani Israil yang telah selamat sampai ke seberang.\nTerbelahnya laut merupakan salah satu dari berbagai mukjizat Nabi Musa a.s. untuk membuktikan kepada manusia bahwa Allah adalah Mahakuasa. Dialah yang menciptakan alam ini dan Dia pula yang menetapkan undang-undang alam yang berlaku sepanjang masa, dan Dia berkuasa pula mengubah atau membatalkan undang-undang alam tersebut apabila dikehendaki-Nya.\nHukum alam yang berlaku pada air ialah bahwa air sebagai salah satu benda cair tidak dapat terpisah tanpa adanya benda lain yang memisahkannya. Undang-undang inilah yang diubah dan dibatalkan-Nya ketika terbelahnya air laut itu. Air laut tersibak dan berdiri seperti dinding-dinding yang tegak lurus tanpa ada sesuatu yang menahannya, sehingga terbentanglah jalan di antara dinding-dinding tersebut.\nDemikian besarnya nikmat yang telah dilimpahkan Allah kepada Bani Israil. Mereka telah dibebaskan dari kekejaman Fir\u2018aun dan rakyatnya. Kemudian mereka diselamatkan pula ketika menyeberang laut. Sesudah itu mereka menyaksikan dengan mata kepala sendiri tenggelamnya musuh-musuh mereka di tengah laut yang tentu saja menggembirakan hati mereka. Sepatutnyalah mereka mensyukuri nikmat-nikmat tersebut.",
        "intro_surah": "Surah al-Baqarah yang terdiri dari 286 ayat adalah termasuk golongan surah Madaniyah yang diturunkan pada tahun-tahun permulaan periode Nabi Muhammad saw di Medinah. Ia merupakan surah yang terpanjang dan terbanyak ayat-ayatnya di antara surah yang ada di dalam Al-Qur\u2019an. Surah ini dinamai \u201cal-Baqarah\u201d yang berarti \u201cseekor sapi\u201d, karena di dalamnya disebutkan kisah penyembelihan sapi betina yang diperintahkan Allah kepada Bani Israil. Dalam pelaksanaan penyembelihan sapi betina itu tampak dengan jelas sifat dan watak orang-orang Yahudi pada umumnya.\nDinamakan juga fus\u1e6da\u1e6d al-Qur\u2019\u0101n yang berarti \u201cpuncak Al-Qur\u2019an\u201d karena surah ini memuat beberapa hukum yang tidak disebut di surah-surah yang lain. Juga dinamakan Al\u012bf L\u0101m M\u012bm, karena surah ini dimulai dengan huruf-huruf hijaiyah (abjad) alif l\u0101m m\u012bm.\nDi antara pokok-pokok isinya ialah:\n1.\tKeimanan: Dakwah Islamiah yang ditujukan kepada umat Islam, Ahli Kitab dan orang-orang musyrik.\n2.\tHukum: Perintah mengerjakan salat, perintah menunaikan zakat, puasa, haji dan umrah, qi\u1e63a\u1e63, yang halal dan yang haram, bernafkah di jalan Allah, minum arak dan berjudi, cara bergaul dengan anak yatim, prinsip-prinsip ekonomi, larangan memakan riba, utang piutang, nafkah dan yang berhak menerimanya, wasiat kepada dua orang ibu bapak dan kaum kerabat, hukum sumpah, kewajiban menyampaikan amanat, sihir, hukum merusak masjid, hukum mengubah kitab-kitab Allah, haid, idah, talak, khulu\u2018, il\u0101, hukum susuan, meminang, mahar, menikahi wanita musyrik dan sebaliknya, hukum perang, dan lain-lain. \n3.\tKisah: Penciptaan Nabi Adam a.s., kisah Nabi Ibrahim a.s., dan kisah Nabi Musa a.s. dengan Bani Israil.\n4.\tLain-lain, seperti: sifat orang yang bertakwa, sifat-sifat orang munafik, sifat-sifat Allah, perumpamaan-perumpamaan, kiblat, dan kebangkitan sesudah mati.",
        "outro_surah": null,
        "munasabah_prev_surah": "1.\tSurah al-F\u0101ti\u1e25ah merupakan pokok-pokok pembahasan yang akan dirinci dalam surah al-Baqarah dan surah-surah sesudahnya.\n2.\tDi bagian akhir surah al-F\u0101ti\u1e25ah disebutkan permohonan hamba, agar diberi petunjuk oleh Allah ke jalan yang lurus, sedang surah al-Baqarah dimulai dengan ayat yang menerangkan bahwa Al-Qur\u2019an adalah kitab yang menunjukkan jalan yang dimaksudkan itu.\n3.\tDi akhir surah al-F\u0101ti\u1e25ah disebutkan tiga kelompok manusia, yaitu yang diberi nikmat, yang dimurkai Allah dan orang yang sesat, sedangkan di awal surah al-Baqarah juga disebutkan tiga kelompok manusia, yaitu orang yang bertakwa, orang kafir, dan orang munafik.",
        "munasabah_prev_theme": "Pada ayat-ayat yang lalu Allah mengingatkan Bani Israil kepada nikmat-Nya dan kelebihan yang diberikan kepada mereka dibanding umat-umat yang lain. Pada ayat-ayat berikutnya disebutkan kembali nikmat-nikmat yang diberikan kepada mereka.",
        "theme_group": "PEMBEBASAN BANI ISRAIL DARI \nKEKEJAMAN FIR\u2018AUN",
        "kosakata": "Kosakata: Fir\u2018aun \u0641\u0650\u0631\u0652\u0639\u064e\u0648\u0652\u0646 (al-Baqarah/2: 49)\nFir\u2018aun adalah gelar raja-raja Mesir sebelum Islam, sebagaimana orang-orang Arab menyebut gelar Kisra untuk raja-raja Persia dan Kaisar untuk raja-raja Romawi. Secara harfiah kata itu berarti \u201ctiran yang kejam\u201d. Menurut catatan sejarah, Fir\u2018aun pada masa Nabi Musa adalah Mineptah (1232-1224 SM) anak Ramses II. Ketiraniannya dilukiskan Al-Qur\u2019an, \u201cWahai kaumku! Bukankah kerajaan Mesir itu milikku dan (bukankah) sungai-sungai ini mengalir di bawahku? Apakah kamu tidak melihat?\u201d (az-Zukhruf/43: 51). Kekejamannya adalah bahwa ia sering menyembelih anak-anak laki-laki Bani Israil dan membiarkan hidup anak-anak perempuan (al-Baqarah/2: 49). Tidak hanya demikian, Fir\u2018aun bahkan menganggap dirinya Tuhan (al-Qa\u1e63a\u1e63/28: 38). Dalam ayat itu juga diceritakan bagaimana pembantunya yang setia, H\u0101m\u0101n, diperintahkannya untuk membangun menara yang menjulang ke angkasa untuk melihat Tuhan yang disembah Musa. Al-Qur\u2019an juga mengisahkan (Y\u016bnus/10: 90-92) bahwa untuk menyelamatkan diri dari kekejaman Fir\u2018aun, Nabi Musa a.s. memimpin pelarian Bani Israil keluar dari Mesir, tetapi Fir\u2018aun dan pasukannya mengejar mereka. Ketika mereka terdesak tidak mungkin menyeberangi Laut Merah, Allah memerintahkan Nabi Musa untuk memukulkan tongkatnya ke laut itu. Laut terbelah, Bani Israil selamat sampai ke seberang, sedangkan Fir\u2018aun dan pasukannya yang mengejar mereka tenggelam di dalam laut, karena laut itu dipertautkan kembali oleh Allah. Di tengah upaya menyelamatkan diri agar tidak tenggelam dalam air itulah Fir\u2018aun menyatakan imannya, \u201cSaya beriman bahwa tiada tuhan selain Tuhan yang diimani Bani Israil.\u201d Tetapi iman dalam keadaan terdesak seperti itu tidak diterima oleh Allah. \u201cMengapa baru sekarang, sedangkan engkau amat durhaka sebelumnya dan termasuk orang yang melakukan kerusakan?\u201d jawab Allah. Tubuh Fir\u2018aun diselamatkan oleh Allah untuk menjadi bukti bagi generasi selanjutnya bahwa Allah Mahakuasa, dan bahwa mereka yang membangkang, bagaimanapun kuasanya, akan mengalami nasib yang tragis di akhir hayatnya.",
        "sabab_nuzul": null,
        "conclusion": null
    }
}