{
    "id": 65,
    "surah_id": 2,
    "ayah": 58,
    "page": 9,
    "quarter_hizb": 1.5,
    "juz": 1,
    "manzil": 1,
    "arabic": "\u0648\u064e\u0627\u0650\u0630\u0652 \u0642\u064f\u0644\u0652\u0646\u064e\u0627 \u0627\u062f\u0652\u062e\u064f\u0644\u064f\u0648\u0652\u0627 \u0647\u0670\u0630\u0650\u0647\u0650 \u0627\u0644\u0652\u0642\u064e\u0631\u0652\u064a\u064e\u0629\u064e \u0641\u064e\u0643\u064f\u0644\u064f\u0648\u0652\u0627 \u0645\u0650\u0646\u0652\u0647\u064e\u0627 \u062d\u064e\u064a\u0652\u062b\u064f \u0634\u0650\u0626\u0652\u062a\u064f\u0645\u0652 \u0631\u064e\u063a\u064e\u062f\u064b\u0627 \u0648\u0651\u064e\u0627\u062f\u0652\u062e\u064f\u0644\u064f\u0648\u0627 \u0627\u0644\u0652\u0628\u064e\u0627\u0628\u064e \u0633\u064f\u062c\u0651\u064e\u062f\u064b\u0627 \u0648\u0651\u064e\u0642\u064f\u0648\u0652\u0644\u064f\u0648\u0652\u0627 \u062d\u0650\u0637\u0651\u064e\u0629\u064c \u0646\u0651\u064e\u063a\u0652\u0641\u0650\u0631\u0652 \u0644\u064e\u0643\u064f\u0645\u0652 \u062e\u064e\u0637\u0670\u064a\u0670\u0643\u064f\u0645\u0652 \u06d7 \u0648\u064e\u0633\u064e\u0646\u064e\u0632\u0650\u064a\u0652\u062f\u064f \u0627\u0644\u0652\u0645\u064f\u062d\u0652\u0633\u0650\u0646\u0650\u064a\u0652\u0646\u064e ",
    "latin": "Wa i\u017c qulnadkhul\u016b h\u0101\u017cihil-qaryata fakul\u016b minh\u0101 \u1e25ai\u1e61u syi'tum ragadaw wadkhulul- b\u0101ba sujjadaw wa q\u016bl\u016b \u1e25i\u1e6d\u1e6datun nagfir lakum kha\u1e6d\u0101y\u0101kum, wa sanaz\u012bdul-mu\u1e25sin\u012bn(a).  ",
    "translation": "(Ingatlah) ketika Kami berfirman, \u201cMasuklah ke negeri ini (Baitulmaqdis). Lalu, makanlah dengan nikmat (berbagai makanan) yang ada di sana sesukamu. Masukilah pintu gerbangnya sambil membungkuk dan katakanlah, \u2018Bebaskanlah kami (dari dosa-dosa kami),\u2019 niscaya Kami mengampuni kesalahan-kesalahanmu. Kami akan menambah (karunia) kepada orang-orang yang berbuat kebaikan.\u201d",
    "no_footnote": null,
    "footnotes": null,
    "surah": {
        "id": 2,
        "arabic": " \u0627\u0644\u0628\u0642\u0631\u0629",
        "latin": "Al-Baqarah ",
        "transliteration": "Al-Baqarah",
        "translation": "Sapi",
        "num_ayah": 286,
        "page": 2,
        "location": "Madaniyah"
    },
    "tafsir": {
        "wajiz": "Ayat-ayat sebelumnya menjelaskan beragam anugerah yang terlimpah kepada Bani Israil, sedang ayat ini menerangkan nikmat-nikmat yang lain. Dan selain anugerah yang telah dilimpahkan, ingatlah juga ketika Kami berfirman kepada Bani Israil, \u201cMasuklah ke negeri ini, yaitu Baitulmaqdis setelah dapat mengalahkan lawan-lawanmu. Sesudah itu maka makanlah dengan nikmat berbagai makanan yang ada di sana sesukamu. Dan selanjutnya masukilah pintu gerbangnya sambil membungkuk sebagai tanda kerendahan hati dan penyesalan atas semua dosa yang telah diperbuat masa lalu, dan kemudian katakanlah dengan penuh harap, \u2018Bebaskanlah kami dari dosa-dosa kami yang demikian banyak.\u2019 Bila hal ini kamu lakukan dengan penuh kesadaran, niscaya Kami ampuni dosa-dosa dan kesalahan-kesalahanmu. Dan selain dari yang telah dianugerahkan, Kami juga akan menambah karunia dan nikmat, baik ketika di dunia maupun di akhirat kelak, bagi orang-orang yang benar-benar selalu berbuat kebaikan.\u201d",
        "tahlili": "Pada permulaan ayat ini, Allah swt memerintahkan Bani Israil untuk memasuki suatu daerah (Baitulmakdis) dan menikmati makanan-makanan yang ada di sana dan mensyukuri nikmat-Nya, karena mereka telah diselamatkan dari pengejaran musuh dalam perjalanan yang amat sulit. Mereka diperintahkan untuk mengucapkan doa kepada Allah, agar mereka diampuni dari segala dosa yang telah mereka lakukan. Allah menegaskan bahwa jika mereka mematuhi perintah tersebut, Dia akan mengampuni semua kesalahan mereka, dan akan memberikan tambahan pahala dan karunia kepada orang-orang yang berbuat kebajikan.",
        "intro_surah": "Surah al-Baqarah yang terdiri dari 286 ayat adalah termasuk golongan surah Madaniyah yang diturunkan pada tahun-tahun permulaan periode Nabi Muhammad saw di Medinah. Ia merupakan surah yang terpanjang dan terbanyak ayat-ayatnya di antara surah yang ada di dalam Al-Qur\u2019an. Surah ini dinamai \u201cal-Baqarah\u201d yang berarti \u201cseekor sapi\u201d, karena di dalamnya disebutkan kisah penyembelihan sapi betina yang diperintahkan Allah kepada Bani Israil. Dalam pelaksanaan penyembelihan sapi betina itu tampak dengan jelas sifat dan watak orang-orang Yahudi pada umumnya.\nDinamakan juga fus\u1e6da\u1e6d al-Qur\u2019\u0101n yang berarti \u201cpuncak Al-Qur\u2019an\u201d karena surah ini memuat beberapa hukum yang tidak disebut di surah-surah yang lain. Juga dinamakan Al\u012bf L\u0101m M\u012bm, karena surah ini dimulai dengan huruf-huruf hijaiyah (abjad) alif l\u0101m m\u012bm.\nDi antara pokok-pokok isinya ialah:\n1.\tKeimanan: Dakwah Islamiah yang ditujukan kepada umat Islam, Ahli Kitab dan orang-orang musyrik.\n2.\tHukum: Perintah mengerjakan salat, perintah menunaikan zakat, puasa, haji dan umrah, qi\u1e63a\u1e63, yang halal dan yang haram, bernafkah di jalan Allah, minum arak dan berjudi, cara bergaul dengan anak yatim, prinsip-prinsip ekonomi, larangan memakan riba, utang piutang, nafkah dan yang berhak menerimanya, wasiat kepada dua orang ibu bapak dan kaum kerabat, hukum sumpah, kewajiban menyampaikan amanat, sihir, hukum merusak masjid, hukum mengubah kitab-kitab Allah, haid, idah, talak, khulu\u2018, il\u0101, hukum susuan, meminang, mahar, menikahi wanita musyrik dan sebaliknya, hukum perang, dan lain-lain. \n3.\tKisah: Penciptaan Nabi Adam a.s., kisah Nabi Ibrahim a.s., dan kisah Nabi Musa a.s. dengan Bani Israil.\n4.\tLain-lain, seperti: sifat orang yang bertakwa, sifat-sifat orang munafik, sifat-sifat Allah, perumpamaan-perumpamaan, kiblat, dan kebangkitan sesudah mati.",
        "outro_surah": null,
        "munasabah_prev_surah": "1.\tSurah al-F\u0101ti\u1e25ah merupakan pokok-pokok pembahasan yang akan dirinci dalam surah al-Baqarah dan surah-surah sesudahnya.\n2.\tDi bagian akhir surah al-F\u0101ti\u1e25ah disebutkan permohonan hamba, agar diberi petunjuk oleh Allah ke jalan yang lurus, sedang surah al-Baqarah dimulai dengan ayat yang menerangkan bahwa Al-Qur\u2019an adalah kitab yang menunjukkan jalan yang dimaksudkan itu.\n3.\tDi akhir surah al-F\u0101ti\u1e25ah disebutkan tiga kelompok manusia, yaitu yang diberi nikmat, yang dimurkai Allah dan orang yang sesat, sedangkan di awal surah al-Baqarah juga disebutkan tiga kelompok manusia, yaitu orang yang bertakwa, orang kafir, dan orang munafik.",
        "munasabah_prev_theme": "Pada ayat yang lalu telah diterangkan kedurhakaan yang dilakukan Bani Israil, dan pada ayat-ayat ini akan diterangkan lagi kedurhakaan Bani Israil yang lain, yaitu pembangkangan masuk Baitulmakdis dan mengubah ucapan yang maknanya berbeda dengan apa yang diperintahkan oleh Allah, sebagai tanda keingkaran mereka.",
        "theme_group": "KEDURHAKAAN BANI ISRAIL \nKETIKA MASUK KE BAITULMAKDIS",
        "kosakata": "Kosakata: al-Qaryah \u0627\u064e\u0644\u0652\u0642\u064e\u0631\u0652\u064a\u064e\u0629\u064c  (al-Baqarah/2: 58)\nAl-qaryah secara bahasa berasal dari kata kerja qar\u0101-yaqr\u012b yang maknanya \u201cberkumpul\u201d atau \u201cmengumpulkan\u201d. Al-qaryah diartikan sebagai kumpulan manusia, suatu kota yang menyeluruh, atau tempat berkumpulnya sesuatu. Dalam pengertian sehari-hari, al-qaryah diberi makna sebagai desa atau negeri. Yang dimaksud dengan al-qaryah dalam ayat ini adalah Baitulmakdis, yang oleh orang Yahudi dinamakan Yerusalem lama. Kawasan ini merupakan suatu daerah yang subur yang dipenuhi oleh hasil bumi yang melimpah. Keadaan yang demikian diisyaratkan oleh kelanjutan dari ayat ini (al-qaryah) yang menunjukkan betapa subur tanah negeri itu dan betapa banyak dan terpencar hasil buminya, sehingga mereka dipersilahkan untuk menikmati produk yang banyak itu di mana saja yang masih termasuk kawasan ini. Demikian keadaan yang sesungguhnya dengan negeri (al-qaryah) yang dimaksud, yaitu Baitulmakdis dan daerah-daerah di sekitarnya. Kondisi yang demikian tetap seperti yang diungkap Al-Qur\u2019an sampai saat ini. Sebagai tambahan, kemungkinan besar karena keadaannya yang subur di tengah-tengah gurun pasir yang gersang dan tandus, negeri ini selalu menjadi rebutan berbagai suku bangsa sejak zaman dahulu hingga sekarang.",
        "sabab_nuzul": null,
        "conclusion": null
    }
}