{
    "id": 17,
    "surah_id": 2,
    "ayah": 10,
    "page": 3,
    "quarter_hizb": 1,
    "juz": 1,
    "manzil": 1,
    "arabic": "\u0641\u0650\u064a\u0652 \u0642\u064f\u0644\u064f\u0648\u0652\u0628\u0650\u0647\u0650\u0645\u0652 \u0645\u0651\u064e\u0631\u064e\u0636\u064c\u06d9 \u0641\u064e\u0632\u064e\u0627\u062f\u064e\u0647\u064f\u0645\u064f \u0627\u0644\u0644\u0651\u0670\u0647\u064f \u0645\u064e\u0631\u064e\u0636\u064b\u0627\u06da \u0648\u064e\u0644\u064e\u0647\u064f\u0645\u0652 \u0639\u064e\u0630\u064e\u0627\u0628\u064c \u0627\u064e\u0644\u0650\u064a\u0652\u0645\u064c \u06e2 \u06d5\u06d9 \u0628\u0650\u0645\u064e\u0627 \u0643\u064e\u0627\u0646\u064f\u0648\u0652\u0627 \u064a\u064e\u0643\u0652\u0630\u0650\u0628\u064f\u0648\u0652\u0646\u064e",
    "latin": "F\u012b qul\u016bbihim mara\u1e0dun fa z\u0101dahumull\u0101hu mara\u1e0d\u0101(n), wa lahum \u2018a\u017c\u0101bun al\u012bmum bim\u0101 k\u0101n\u016b yak\u017cib\u016bn(a). ",
    "translation": "Dalam hati mereka ada penyakit,6) lalu Allah menambah penyakitnya dan mereka mendapat azab yang sangat pedih karena mereka selalu berdusta.",
    "no_footnote": "6",
    "footnotes": "6) Penyakit hati yang dimaksud adalah keraguan tentang kebenaran agama Islam, kemunafikan, atau kebencian terhadap kenabian Rasulullah saw.",
    "surah": {
        "id": 2,
        "arabic": " \u0627\u0644\u0628\u0642\u0631\u0629",
        "latin": "Al-Baqarah ",
        "transliteration": "Al-Baqarah",
        "translation": "Sapi",
        "num_ayah": 286,
        "page": 2,
        "location": "Madaniyah"
    },
    "tafsir": {
        "wajiz": "Hal itu karena dalam hati mereka ada penyakit, seperti penyakit iri dan dengki kepada orang-orang yang beriman, keraguan terhadap ajaran Islam, keyakinan yang keliru, dan lainnya, lalu Allah menambah parah penyakitnya itu dengan kemenangan yang besar bagi orang-orang yang beriman. Kemenangan itu sangat menyakitkan mereka karena rasa iri, dengki, dan sombong yang ada dalam diri mereka. Keraguan mereka pun semakin menjadi. Dan, sebagai akibatnya, selain menderita di dunia, mereka akan mendapat azab yang pedih, karena mereka berdusta dengan memperlihatkan keimanan padahal hati mereka ingkar. ",
        "tahlili": "Pada ayat ini diterangkan keburukan dusta atau sikap berpura-pura dan akibat-akibatnya. Dendam, iri hati dan ragu-ragu termasuk penyakit jiwa. Penyakit ini akan bertambah parah, bilamana disertai dengan perbuatan nyata. Misalnya rasa sedih pada seseorang akan bertambah dalam, apabila disertainya dengan perbuatan nyata, seperti menangis, meronta-ronta dan sebagainya. Penyakit-penyakit dengki demikian itu terdapat dalam jiwa orang-orang munafik. Oleh karena itu mereka memusuhi Allah dan Rasul-Nya, menipu dengan sikap pura-pura dan berusaha mencelakakan Rasul dan umatnya. Kemudian penyakit itu bertambah-tambah setelah melihat kemenangan-kemenangan Rasul. Setiap kali Rasul memperoleh kemenangan, bertambah pulalah penyakit mereka. Terutama sekali penyakit bimbang dan ragu-ragu, menimbulkan ketegangan jiwa yang sangat pada orang-orang munafik. Akal pikiran mereka bertambah lemah untuk menanggapi kebenaran agama dan memahaminya, bahkan pancaindra mereka tidak mampu menangkap obyek dengan benar, seperti yang diungkapkan Allah dengan firman-Nya:\n\u0648\u064e\u0644\u064e\u0642\u064e\u062f\u0652 \u0630\u064e\u0631\u064e\u0623\u0652\u0646\u064e\u0627 \u0644\u0650\u062c\u064e\u0647\u064e\u0646\u0651\u064e\u0645\u064e \u0643\u064e\u062b\u0650\u064a\u0652\u0631\u064b\u0627 \u0645\u0651\u0650\u0646\u064e \u0627\u0644\u0652\u062c\u0650\u0646\u0651\u0650 \u0648\u064e\u0627\u0644\u0652\u0627\u0650\u0646\u0652\u0633\u0650\u06d6 \u0644\u064e\u0647\u064f\u0645\u0652 \u0642\u064f\u0644\u064f\u0648\u0652\u0628\u064c \u0644\u0651\u064e\u0627 \u064a\u064e\u0641\u0652\u0642\u064e\u0647\u064f\u0648\u0652\u0646\u064e \u0628\u0650\u0647\u064e\u0627\u06d6 \u0648\u064e\u0644\u064e\u0647\u064f\u0645\u0652 \u0627\u064e\u0639\u0652\u064a\u064f\u0646\u064c \u0644\u0651\u064e\u0627 \u064a\u064f\u0628\u0652\u0635\u0650\u0631\u064f\u0648\u0652\u0646\u064e \u0628\u0650\u0647\u064e\u0627\u06d6 \u0648\u064e\u0644\u064e\u0647\u064f\u0645\u0652 \u0627\u0670\u0630\u064e\u0627\u0646\u064c \u0644\u0651\u064e\u0627 \u064a\u064e\u0633\u0652\u0645\u064e\u0639\u064f\u0648\u0652\u0646\u064e \u0628\u0650\u0647\u064e\u0627\u06d7 \u0627\u064f\u0648\u0644\u0670\u06e4\u0649\u0655\u0650\u0643\u064e \u0643\u064e\u0627\u0644\u0652\u0627\u064e\u0646\u0652\u0639\u064e\u0627\u0645\u0650 \u0628\u064e\u0644\u0652 \u0647\u064f\u0645\u0652 \u0627\u064e\u0636\u064e\u0644\u0651\u064f \u06d7 \u0627\u064f\u0648\u0644\u0670\u06e4\u0649\u0655\u0650\u0643\u064e \u0647\u064f\u0645\u064f \u0627\u0644\u0652\u063a\u0670\u0641\u0650\u0644\u064f\u0648\u0652\u0646\u064e \u0661\u0667\u0669 (\u0627\u0644\u0627\u0639\u0631\u0627\u0641)\n\u201cMereka memiliki hati, tetapi tidak dipergunakannya untuk memahami (ayat-ayat Allah) dan mereka memiliki mata, (tetapi) tidak dipergunakannya untuk melihat (tanda-tanda kekuasaan Allah), dan mereka mempunyai telinga, (tetapi) tidak dipergunakannya untuk mendengar (ayat-ayat Allah). Mereka seperti hewan ternak, bahkan lebih sesat lagi. Mereka itulah orang-orang yang lengah\u201d (al-A\u2018r\u0101f/7: 179)\nBukti-bukti telah nyata, cahaya kebenaran yang terang benderang juga jelas bagi mereka, namun mereka enggan menerimanya, bahkan mereka tambah erat berpegang kepada pendiriannya yang lama. Cahaya terang menjadi gelap di mata mereka dan menjadi penyakit di hati mereka. Hati mereka bertambah susah disebabkan lenyapnya kepemimpinan mereka. Iri dan dengki tambah mendalam karena menyaksikan kukuhnya Islam dari hari ke hari. Akibat pendustaan mereka, yaitu mengaku beriman kepada Allah dan hari akhir dan tipu daya mereka terhadap Allah, mereka akan menderita azab yang pedih.\nDalam ayat ini dan ayat-ayat berikutnya, Allah menerangkan sebagian dari sifat-sifat orang munafik yang melakukan tindakan-tindakan yang merusak, antara lain membantu orang-orang kafir (musuh-musuh Islam) dengan membukakan rahasia kaum Muslimin, mendorong orang-orang kafir segera menghancurkan kaum Muslimin, mengadakan perjanjian kerja sama dengan lawan-lawan Islam, menimbulkan pertentangan-pertentangan dalam masyarakat, menghasut orang-orang Islam agar meninggalkan Nabi saw dan lain sebagainya. Firman Allah:\n\u0648\u064e\u0627\u0650\u0630\u064e\u0627 \u062a\u064e\u0648\u064e\u0644\u0651\u0670\u0649 \u0633\u064e\u0639\u0670\u0649 \u0641\u0650\u0649 \u0627\u0644\u0652\u0627\u064e\u0631\u0652\u0636\u0650 \u0644\u0650\u064a\u064f\u0641\u0652\u0633\u0650\u062f\u064e \u0641\u0650\u064a\u0652\u0647\u064e\u0627 \u0648\u064e\u064a\u064f\u0647\u0652\u0644\u0650\u0643\u064e \u0627\u0644\u0652\u062d\u064e\u0631\u0652\u062b\u064e \u0648\u064e\u0627\u0644\u0646\u0651\u064e\u0633\u0652\u0644\u064e \u06d7 \u0648\u064e\u0627\u0644\u0644\u0651\u0670\u0647\u064f \u0644\u064e\u0627 \u064a\u064f\u062d\u0650\u0628\u0651\u064f \u0627\u0644\u0652\u0641\u064e\u0633\u064e\u0627\u062f\u064e \u0662\u0660\u0665 (\u0627\u0644\u0628\u0642\u0631\u0629)\nDan apabila dia berpaling (dari engkau), dia berusaha untuk berbuat kerusakan di bumi, serta merusak tanam-tanaman dan ternak, sedang Allah tidak menyukai kerusakan. (al-Baqarah/2: 205).",
        "intro_surah": "Surah al-Baqarah yang terdiri dari 286 ayat adalah termasuk golongan surah Madaniyah yang diturunkan pada tahun-tahun permulaan periode Nabi Muhammad saw di Medinah. Ia merupakan surah yang terpanjang dan terbanyak ayat-ayatnya di antara surah yang ada di dalam Al-Qur\u2019an. Surah ini dinamai \u201cal-Baqarah\u201d yang berarti \u201cseekor sapi\u201d, karena di dalamnya disebutkan kisah penyembelihan sapi betina yang diperintahkan Allah kepada Bani Israil. Dalam pelaksanaan penyembelihan sapi betina itu tampak dengan jelas sifat dan watak orang-orang Yahudi pada umumnya.\nDinamakan juga fus\u1e6da\u1e6d al-Qur\u2019\u0101n yang berarti \u201cpuncak Al-Qur\u2019an\u201d karena surah ini memuat beberapa hukum yang tidak disebut di surah-surah yang lain. Juga dinamakan Al\u012bf L\u0101m M\u012bm, karena surah ini dimulai dengan huruf-huruf hijaiyah (abjad) alif l\u0101m m\u012bm.\nDi antara pokok-pokok isinya ialah:\n1.\tKeimanan: Dakwah Islamiah yang ditujukan kepada umat Islam, Ahli Kitab dan orang-orang musyrik.\n2.\tHukum: Perintah mengerjakan salat, perintah menunaikan zakat, puasa, haji dan umrah, qi\u1e63a\u1e63, yang halal dan yang haram, bernafkah di jalan Allah, minum arak dan berjudi, cara bergaul dengan anak yatim, prinsip-prinsip ekonomi, larangan memakan riba, utang piutang, nafkah dan yang berhak menerimanya, wasiat kepada dua orang ibu bapak dan kaum kerabat, hukum sumpah, kewajiban menyampaikan amanat, sihir, hukum merusak masjid, hukum mengubah kitab-kitab Allah, haid, idah, talak, khulu\u2018, il\u0101, hukum susuan, meminang, mahar, menikahi wanita musyrik dan sebaliknya, hukum perang, dan lain-lain. \n3.\tKisah: Penciptaan Nabi Adam a.s., kisah Nabi Ibrahim a.s., dan kisah Nabi Musa a.s. dengan Bani Israil.\n4.\tLain-lain, seperti: sifat orang yang bertakwa, sifat-sifat orang munafik, sifat-sifat Allah, perumpamaan-perumpamaan, kiblat, dan kebangkitan sesudah mati.",
        "outro_surah": null,
        "munasabah_prev_surah": "1.\tSurah al-F\u0101ti\u1e25ah merupakan pokok-pokok pembahasan yang akan dirinci dalam surah al-Baqarah dan surah-surah sesudahnya.\n2.\tDi bagian akhir surah al-F\u0101ti\u1e25ah disebutkan permohonan hamba, agar diberi petunjuk oleh Allah ke jalan yang lurus, sedang surah al-Baqarah dimulai dengan ayat yang menerangkan bahwa Al-Qur\u2019an adalah kitab yang menunjukkan jalan yang dimaksudkan itu.\n3.\tDi akhir surah al-F\u0101ti\u1e25ah disebutkan tiga kelompok manusia, yaitu yang diberi nikmat, yang dimurkai Allah dan orang yang sesat, sedangkan di awal surah al-Baqarah juga disebutkan tiga kelompok manusia, yaitu orang yang bertakwa, orang kafir, dan orang munafik.",
        "munasabah_prev_theme": "Pada ayat-ayat yang lalu diterangkan golongan orang yang takwa dan golongan kafir, maka pada ayat-ayat ini Allah swt menjelaskan golongan manusia yang ketiga dalam menghadapi Islam. Mereka ini pada lahirnya beriman sedang batinnya menolak. Golongan ini dinamakan golongan munafik (bermuka dua).",
        "theme_group": "GOLONGAN MUNAFIK",
        "kosakata": "Kosakata: Muhtad\u012bn \u0645\u064f\u0647\u0652\u062a\u064e\u062f\u0650\u064a\u0652\u0646\u064e (al-Baqarah/2: 16)\nKata muhtad\u012bn berasal dari kata kerja ihtad\u0101-yahtad\u012b, dalam pengertian bahasa berarti mendapat petunjuk. Akar kata dari kalimat ini adalah Had\u0101-yahd\u012b yang berarti memberi petunjuk atau petunjuk dan seterusnya. Di dalam Al-Qur\u2019an, kata al-hud\u0101 dan kata lain yang seasal dengan itu disebut 306 kali. Kata ini muncul dalam berbagai bentuk dan dalam konteks yang bermacam-macam. Dalam ayat ini Allah mengancam orang-orang yang mengganti hidayah Allah dengan kesesatan sebagai orang yang merugi bahkan sebagai orang yang tidak akan pernah mendapat hidayah.",
        "sabab_nuzul": null,
        "conclusion": null
    }
}