{
    "id": 37,
    "surah_id": 2,
    "ayah": 30,
    "page": 6,
    "quarter_hizb": 1.25,
    "juz": 1,
    "manzil": 1,
    "arabic": "\u0648\u064e\u0627\u0650\u0630\u0652 \u0642\u064e\u0627\u0644\u064e \u0631\u064e\u0628\u0651\u064f\u0643\u064e \u0644\u0650\u0644\u0652\u0645\u064e\u0644\u0670\u06e4\u0649\u0655\u0650\u0643\u064e\u0629\u0650 \u0627\u0650\u0646\u0651\u0650\u064a\u0652 \u062c\u064e\u0627\u0639\u0650\u0644\u064c \u0641\u0650\u0649 \u0627\u0644\u0652\u0627\u064e\u0631\u0652\u0636\u0650 \u062e\u064e\u0644\u0650\u064a\u0652\u0641\u064e\u0629\u064b \u06d7 \u0642\u064e\u0627\u0644\u064f\u0648\u0652\u0653\u0627 \u0627\u064e\u062a\u064e\u062c\u0652\u0639\u064e\u0644\u064f \u0641\u0650\u064a\u0652\u0647\u064e\u0627 \u0645\u064e\u0646\u0652 \u064a\u0651\u064f\u0641\u0652\u0633\u0650\u062f\u064f \u0641\u0650\u064a\u0652\u0647\u064e\u0627 \u0648\u064e\u064a\u064e\u0633\u0652\u0641\u0650\u0643\u064f \u0627\u0644\u062f\u0651\u0650\u0645\u064e\u0627\u06e4\u0621\u064e\u06da \u0648\u064e\u0646\u064e\u062d\u0652\u0646\u064f \u0646\u064f\u0633\u064e\u0628\u0651\u0650\u062d\u064f \u0628\u0650\u062d\u064e\u0645\u0652\u062f\u0650\u0643\u064e \u0648\u064e\u0646\u064f\u0642\u064e\u062f\u0651\u0650\u0633\u064f \u0644\u064e\u0643\u064e \u06d7 \u0642\u064e\u0627\u0644\u064e \u0627\u0650\u0646\u0651\u0650\u064a\u0652\u0653 \u0627\u064e\u0639\u0652\u0644\u064e\u0645\u064f \u0645\u064e\u0627 \u0644\u064e\u0627 \u062a\u064e\u0639\u0652\u0644\u064e\u0645\u064f\u0648\u0652\u0646\u064e",
    "latin": "Wa i\u017c q\u0101la rabbuka lil-mal\u0101'ikati inn\u012b j\u0101\u2018ilun fil-ar\u1e0di khal\u012bfah(tan), q\u0101l\u016b ataj\u2018alu f\u012bh\u0101 may yufsidu f\u012bh\u0101 wa yasfikud-dim\u0101'(a), wa na\u1e25nu nusabbi\u1e25u bi\u1e25amdika wa nuqaddisu lak(a), q\u0101la inn\u012b a\u2018lamu m\u0101 l\u0101 ta\u2018lam\u016bn(a). ",
    "translation": "(Ingatlah) ketika Tuhanmu berfirman kepada para malaikat, \u201cAku hendak menjadikan khalifah13) di bumi.\u201d Mereka berkata, \u201cApakah Engkau hendak menjadikan orang yang merusak dan menumpahkan darah di sana, sedangkan kami bertasbih memuji-Mu dan menyucikan nama-Mu?\u201d Dia berfirman, \u201cSesungguhnya Aku mengetahui apa yang tidak kamu ketahui.\u201d ",
    "no_footnote": "13",
    "footnotes": "13) Dalam Al-Qur\u2019an, kata khal\u012bfah memiliki makna \u2018pengganti\u2019, \u2018pemimpin\u2019, \u2018penguasa\u2019, atau \u2018pengelola alam semesta\u2019.",
    "surah": {
        "id": 2,
        "arabic": " \u0627\u0644\u0628\u0642\u0631\u0629",
        "latin": "Al-Baqarah ",
        "transliteration": "Al-Baqarah",
        "translation": "Sapi",
        "num_ayah": 286,
        "page": 2,
        "location": "Madaniyah"
    },
    "tafsir": {
        "wajiz": "Setelah pada ayat-ayat terdahulu Allah menjelaskan adanya kelompok manusia yang ingkar atau kafir kepada-Nya, maka pada ayat ini Allah menjelaskan asal muasal manusia sehingga menjadi kafir, yaitu kejadian pada masa Nabi Adam. Dan ingatlah, wahai Rasul, satu kisah ketika Tuhanmu berfirman kepada para malaikat, \u201cAku hendak menjadikan khalifah, yakni manusia yang akan menjadi pemimpin dan penguasa, di bumi.\u201d Khalifah itu akan terus berganti dari satu generasi ke generasi sampai hari Kiamat nanti dalam rangka melestarikan bumi ini dan melaksanakan titah Allah yang berupa amanah atau tugas-tugas keagamaan. Para malaikat dengan serentak mengajukan pertanyaan kepada Allah, untuk mengetahui lebih jauh tentang maksud Allah. Mereka berkata, \u201cApakah Engkau hendak menjadikan orang yang memiliki kehendak atau ikhtiar dalam melakukan satu pekerjaan sehingga berpotensi merusak dan menumpahkan darah di sana dengan saling membunuh, sedangkan kami bertasbih memuji-Mu dan menyucikan nama-Mu?\u201d Malaikat menganggap bahwa diri merekalah yang patut untuk menjadi khalifah karena mereka adalah hamba Allah yang sangat patuh, selalu bertasbih, memuji Allah, dan menyucikan-Nya dari sifat-sifat yang tidak layak bagi-Nya. Menanggapi pertanyaan malaikat tersebut, Allah berfirman, \u201cSungguh, Aku mengetahui apa yang tidak kamu ketahui.\u201d Penciptaan manusia adalah rencana besar Allah di dunia ini. Allah Mahatahu bahwa pada diri manusia terdapat hal-hal negatif sebagaimana yang dikhawatirkan oleh malaikat, tetapi aspek positifnya jauh lebih banyak. Dari sini bisa diambil pelajaran bahwa sebuah rencana besar yang mempunyai kemaslahatan yang besar jangan sam-pai gagal hanya karena kekhawatiran adanya unsur negatif yang lebih kecil pada rencana besar tersebut.",
        "tahlili": "Ketika Allah swt memberitahukan  kepada  para  malaikat-Nya[4] bahwa Dia akan menjadikan Adam a.s. sebagai khalifah[5] di bumi, maka para malaikat itu bertanya, mengapa Adam yang akan diangkat menjadi khalifah di bumi, padahal Adam dan keturunannya kelak akan berbuat kerusakan dan menumpahkan darah di bumi. Para malaikat menganggap bahwa diri mereka lebih patut memangku jabatan itu, sebab mereka makhluk yang selalu bertasbih, memuji dan menyucikan Allah swt.\nAllah swt tidak membenarkan anggapan mereka itu, dan Dia menjawab bahwa Dia mengetahui yang tidak diketahui oleh para malaikat. Segala yang akan dilakukan Allah swt adalah berdasarkan pengetahuan dan hikmah-Nya yang Mahatinggi walaupun tak dapat diketahui oleh mereka, termasuk pengangkatan Adam a.s. menjadi khalifah di bumi.\nYang dimaksud dengan kekhalifahan Adam a.s. di bumi adalah kedudukannya sebagai khalifah di bumi ini, untuk melaksanakan perintah-perintah-Nya, dan memakmurkan bumi serta memanfaatkan segala apa yang ada padanya. Pengertian ini dapat dikuatkan dengan firman Allah:\n\u064a\u0670\u062f\u064e\u0627\u0648\u0657\u062f\u064f \u0627\u0650\u0646\u0651\u064e\u0627 \u062c\u064e\u0639\u064e\u0644\u0652\u0646\u0670\u0643\u064e \u062e\u064e\u0644\u0650\u064a\u0652\u0641\u064e\u0629\u064b \u0641\u0650\u0649 \u0627\u0644\u0652\u0627\u064e\u0631\u0652\u0636\u0650 \n\u201c\u2026.Wahai Daud! Sesungguhnya engkau Kami jadikan khalifah (penguasa) di bumi \u2026\u201d (\u1e63\u0101d/38: 26).\nSebagaimana kita ketahui Daud a.s. di samping menjadi nabi juga menjadi raja bagi kaumnya. Ayat ini merupakan dalil tentang wajibnya kaum Muslimin memilih dan mengangkat seorang pimpinan tertinggi sebagai tokoh pemersatu antara seluruh kaum Muslimin yang dapat memimpin umat untuk melaksanakan hukum-hukum Allah di bumi ini.\nPara ulama telah menyebutkan syarat-syarat yang harus dimiliki oleh tokoh pimpinan yang dimaksudkan itu, antara lain ialah: adil serta berpengetahuan yang memungkinkannya untuk bertindak sebagai hakim dan mujtahid, tidak mempunyai cacat jasmaniah, serta berpengalaman cukup, dan tidak pilih kasih dalam menjalankan hukum-hukum Allah.",
        "intro_surah": "Surah al-Baqarah yang terdiri dari 286 ayat adalah termasuk golongan surah Madaniyah yang diturunkan pada tahun-tahun permulaan periode Nabi Muhammad saw di Medinah. Ia merupakan surah yang terpanjang dan terbanyak ayat-ayatnya di antara surah yang ada di dalam Al-Qur\u2019an. Surah ini dinamai \u201cal-Baqarah\u201d yang berarti \u201cseekor sapi\u201d, karena di dalamnya disebutkan kisah penyembelihan sapi betina yang diperintahkan Allah kepada Bani Israil. Dalam pelaksanaan penyembelihan sapi betina itu tampak dengan jelas sifat dan watak orang-orang Yahudi pada umumnya.\nDinamakan juga fus\u1e6da\u1e6d al-Qur\u2019\u0101n yang berarti \u201cpuncak Al-Qur\u2019an\u201d karena surah ini memuat beberapa hukum yang tidak disebut di surah-surah yang lain. Juga dinamakan Al\u012bf L\u0101m M\u012bm, karena surah ini dimulai dengan huruf-huruf hijaiyah (abjad) alif l\u0101m m\u012bm.\nDi antara pokok-pokok isinya ialah:\n1.\tKeimanan: Dakwah Islamiah yang ditujukan kepada umat Islam, Ahli Kitab dan orang-orang musyrik.\n2.\tHukum: Perintah mengerjakan salat, perintah menunaikan zakat, puasa, haji dan umrah, qi\u1e63a\u1e63, yang halal dan yang haram, bernafkah di jalan Allah, minum arak dan berjudi, cara bergaul dengan anak yatim, prinsip-prinsip ekonomi, larangan memakan riba, utang piutang, nafkah dan yang berhak menerimanya, wasiat kepada dua orang ibu bapak dan kaum kerabat, hukum sumpah, kewajiban menyampaikan amanat, sihir, hukum merusak masjid, hukum mengubah kitab-kitab Allah, haid, idah, talak, khulu\u2018, il\u0101, hukum susuan, meminang, mahar, menikahi wanita musyrik dan sebaliknya, hukum perang, dan lain-lain. \n3.\tKisah: Penciptaan Nabi Adam a.s., kisah Nabi Ibrahim a.s., dan kisah Nabi Musa a.s. dengan Bani Israil.\n4.\tLain-lain, seperti: sifat orang yang bertakwa, sifat-sifat orang munafik, sifat-sifat Allah, perumpamaan-perumpamaan, kiblat, dan kebangkitan sesudah mati.",
        "outro_surah": null,
        "munasabah_prev_surah": "1.\tSurah al-F\u0101ti\u1e25ah merupakan pokok-pokok pembahasan yang akan dirinci dalam surah al-Baqarah dan surah-surah sesudahnya.\n2.\tDi bagian akhir surah al-F\u0101ti\u1e25ah disebutkan permohonan hamba, agar diberi petunjuk oleh Allah ke jalan yang lurus, sedang surah al-Baqarah dimulai dengan ayat yang menerangkan bahwa Al-Qur\u2019an adalah kitab yang menunjukkan jalan yang dimaksudkan itu.\n3.\tDi akhir surah al-F\u0101ti\u1e25ah disebutkan tiga kelompok manusia, yaitu yang diberi nikmat, yang dimurkai Allah dan orang yang sesat, sedangkan di awal surah al-Baqarah juga disebutkan tiga kelompok manusia, yaitu orang yang bertakwa, orang kafir, dan orang munafik.",
        "munasabah_prev_theme": "Ayat-ayat yang lalu mengingatkan manusia kepada nikmat-nikmat yang telah dilimpahkan-Nya kepada mereka. Jika mereka senantiasa ingat kepada nikmat tersebut, niscaya mereka akan senantiasa bersyukur dan bertakwa kepada-Nya, dan mereka tidak akan durhaka dan mengingkari nikmat-nikmat-Nya itu. Kemudian pada ayat-ayat ini Allah swt menerangkan nikmat-Nya yang jauh lebih besar, yang disyukuri oleh semua keturunan Adam a.s. dengan cara menaati perintah-perintah-Nya, serta menjauhkan diri dari kedurhakaan dan kekafiran terhadap-Nya. Nikmat tersebut ialah diangkatnya manusia sebagai khalifah di bumi.",
        "theme_group": "PENETAPAN MANUSIA SEBAGAI KHALIFAH DI BUMI",
        "kosakata": "Kosakata: Khal\u012bfah  \u062e\u064e\u0644\u0650\u064a\u0652\u0641\u064e\u0629\u064b  (al-Baqarah/2: 30) \nKata khal\u012bfah berakar dari kata khalafa yang berarti mengganti. Kata khal\u012bfah secara harfiah berarti pengganti. Akar katanya adalah \u062e\u0644\u0641 artinya sesuatu yang ada di belakang. Khalifah diartikan pengganti, karena ia menggantikan yang di depannya. Di dalam bahasa Arab, kalimat \u201cAllah menjadi khal\u012bfah bagimu\u201d berarti Allah menjadi pengganti bagimu dari orang tuamu yang meninggal. Allah menjadikan manusia sebagai khalifah di bumi berarti Allah menyerahkan pengelolaan dan pemakmuran bumi\u2014bukan secara mutlak\u2014kepada manusia. Kedudukan manusia sebagai khalifah dengan arti ini dinyatakan Allah di dalam surah al-Baqarah/2:30 di mana Allah menjadikan Bani Adam sebagai khalifah di bumi. Di samping arti ini, kata khalifah juga menunjuk arti pemimpin negara atau kaum. Kata khal\u012bfah dengan arti pemimpin terdapat antara lain di dalam surah \u1e63\u0101d/38:26 di mana Allah mengangkat Nabi Daud a.s. sebagai khalifah di bumi (Palestina) untuk memimpin umat manusia dengan adil dan tidak mengikuti hawa nafsu. Khalifah pada ayat pertama bertugas mengelola dan memakmurkan bumi, sedangkan khalifah pada ayat kedua bertugas menegakkan hukum Allah di bumi dan menciptakan kemaslahatan bagi manusia.",
        "sabab_nuzul": null,
        "conclusion": null
    }
}