{
    "id": 84,
    "surah_id": 2,
    "ayah": 77,
    "page": 12,
    "quarter_hizb": 2,
    "juz": 1,
    "manzil": 1,
    "arabic": "\u0627\u064e\u0648\u064e\u0644\u064e\u0627 \u064a\u064e\u0639\u0652\u0644\u064e\u0645\u064f\u0648\u0652\u0646\u064e \u0627\u064e\u0646\u0651\u064e \u0627\u0644\u0644\u0651\u0670\u0647\u064e \u064a\u064e\u0639\u0652\u0644\u064e\u0645\u064f \u0645\u064e\u0627 \u064a\u064f\u0633\u0650\u0631\u0651\u064f\u0648\u0652\u0646\u064e \u0648\u064e\u0645\u064e\u0627 \u064a\u064f\u0639\u0652\u0644\u0650\u0646\u064f\u0648\u0652\u0646\u064e",
    "latin": "Awal\u0101 ya\u2018lam\u016bna annall\u0101ha ya\u2018lamu m\u0101 yusirr\u016bna wa m\u0101 yu\u2018lin\u016bn(a).  ",
    "translation": "Tidakkah mereka tahu bahwa Allah mengetahui apa yang mereka sembunyikan dan apa yang mereka nyatakan?",
    "no_footnote": null,
    "footnotes": null,
    "surah": {
        "id": 2,
        "arabic": " \u0627\u0644\u0628\u0642\u0631\u0629",
        "latin": "Al-Baqarah ",
        "transliteration": "Al-Baqarah",
        "translation": "Sapi",
        "num_ayah": 286,
        "page": 2,
        "location": "Madaniyah"
    },
    "tafsir": {
        "wajiz": "Ayat sebelumnya menguraikan sikap sebagian orang-orang Yahudi yang menyem bunyikan kekafiran dan berpura-pura memeluk Islam, sedang ayat ini mengingat kan mereka dan siapa pun yang berperilaku seperti mereka; tidakkah mereka tahu bahwa Allah mengetahui apa yang mereka sembunyikan dan apa yang mereka nyatakan? ",
        "tahlili": "Ayat ini sebagai celaan dan pukulan bagi orang Yahudi terutama bagi para pemalsu yang menyembunyikan sifat-sifat Nabi Muhammad dan mengubah kitab suci mereka, seolah-olah mereka hendak menyembunyikan kekufuran dan kedustaan mereka. Tetapi Allah mengetahui tentang segala yang mereka lahirkan (tampakkan), yaitu memperlihatkan keimanan dan bermuka manis. ",
        "intro_surah": "Surah al-Baqarah yang terdiri dari 286 ayat adalah termasuk golongan surah Madaniyah yang diturunkan pada tahun-tahun permulaan periode Nabi Muhammad saw di Medinah. Ia merupakan surah yang terpanjang dan terbanyak ayat-ayatnya di antara surah yang ada di dalam Al-Qur\u2019an. Surah ini dinamai \u201cal-Baqarah\u201d yang berarti \u201cseekor sapi\u201d, karena di dalamnya disebutkan kisah penyembelihan sapi betina yang diperintahkan Allah kepada Bani Israil. Dalam pelaksanaan penyembelihan sapi betina itu tampak dengan jelas sifat dan watak orang-orang Yahudi pada umumnya.\nDinamakan juga fus\u1e6da\u1e6d al-Qur\u2019\u0101n yang berarti \u201cpuncak Al-Qur\u2019an\u201d karena surah ini memuat beberapa hukum yang tidak disebut di surah-surah yang lain. Juga dinamakan Al\u012bf L\u0101m M\u012bm, karena surah ini dimulai dengan huruf-huruf hijaiyah (abjad) alif l\u0101m m\u012bm.\nDi antara pokok-pokok isinya ialah:\n1.\tKeimanan: Dakwah Islamiah yang ditujukan kepada umat Islam, Ahli Kitab dan orang-orang musyrik.\n2.\tHukum: Perintah mengerjakan salat, perintah menunaikan zakat, puasa, haji dan umrah, qi\u1e63a\u1e63, yang halal dan yang haram, bernafkah di jalan Allah, minum arak dan berjudi, cara bergaul dengan anak yatim, prinsip-prinsip ekonomi, larangan memakan riba, utang piutang, nafkah dan yang berhak menerimanya, wasiat kepada dua orang ibu bapak dan kaum kerabat, hukum sumpah, kewajiban menyampaikan amanat, sihir, hukum merusak masjid, hukum mengubah kitab-kitab Allah, haid, idah, talak, khulu\u2018, il\u0101, hukum susuan, meminang, mahar, menikahi wanita musyrik dan sebaliknya, hukum perang, dan lain-lain. \n3.\tKisah: Penciptaan Nabi Adam a.s., kisah Nabi Ibrahim a.s., dan kisah Nabi Musa a.s. dengan Bani Israil.\n4.\tLain-lain, seperti: sifat orang yang bertakwa, sifat-sifat orang munafik, sifat-sifat Allah, perumpamaan-perumpamaan, kiblat, dan kebangkitan sesudah mati.",
        "outro_surah": null,
        "munasabah_prev_surah": "1.\tSurah al-F\u0101ti\u1e25ah merupakan pokok-pokok pembahasan yang akan dirinci dalam surah al-Baqarah dan surah-surah sesudahnya.\n2.\tDi bagian akhir surah al-F\u0101ti\u1e25ah disebutkan permohonan hamba, agar diberi petunjuk oleh Allah ke jalan yang lurus, sedang surah al-Baqarah dimulai dengan ayat yang menerangkan bahwa Al-Qur\u2019an adalah kitab yang menunjukkan jalan yang dimaksudkan itu.\n3.\tDi akhir surah al-F\u0101ti\u1e25ah disebutkan tiga kelompok manusia, yaitu yang diberi nikmat, yang dimurkai Allah dan orang yang sesat, sedangkan di awal surah al-Baqarah juga disebutkan tiga kelompok manusia, yaitu orang yang bertakwa, orang kafir, dan orang munafik.",
        "munasabah_prev_theme": "Ayat-ayat yang lalu menceritakan kepada orang Yahudi yang hidup pada zaman Nabi Muhammad saw tentang kedurhakaan nenek moyang mereka seperti melakukan pembunuhan, mengingkari perintah Allah untuk menyembelih sapi dan banyak lagi ayat-ayat lain yang menceritakan tindakan mereka yang terkutuk sehingga azab Allah menimpa mereka. Dalam ayat-ayat berikut ini, Allah menjelaskan tanggapan orang Yahudi terhadap cerita nenek moyang mereka. Mereka tidak menjadi sadar dan kembali ke jalan Allah, bahkan hati mereka tambah keras, keimanan mereka tak dapat diharapkan, tindakan-tindakan mereka menunjukkan perlawanan terhadap agama Islam.",
        "theme_group": "IMAN BANI ISRAIL SULIT DIHARAPKAN",
        "kosakata": "Kosakata: Qaswah \u0642\u064e\u0633\u0652\u0648\u064e\u0629\u064c (al-Baqarah/2: 74)\nQaswah artinya keras. Benda-benda yang keras adalah seperti batu, besi atau baja. Tetapi besi atau baja masih dapat dilunakkan dan diubah bentuknya, setelah dipanaskan lebih dahulu. Sedangkan batu kecuali kasar dan keras, juga tidak dapat dibikin lunak atau diubah bentuknya kecuali dengan memotong dan memahatnya. Meskipun begitu jika batu kejatuhan air terus-menerus dapat menjadi berlubang, bahkan ada batu yang mengeluarkan mata air atau menjadi aliran sungai. Orang Yahudi digambarkan Allah dalam ayat ini sebagai orang yang hatinya mengeras seperti batu, bahkan lebih keras dari batu. Hal ini menunjukkan bahwa orang Yahudi sangat sulit diatur, tidak pernah taat pada ketentuan dan hanya mengikuti kemauan mereka saja.",
        "sabab_nuzul": null,
        "conclusion": null
    }
}