{
    "id": 108,
    "surah_id": 2,
    "ayah": 101,
    "page": 15,
    "quarter_hizb": 2.25,
    "juz": 1,
    "manzil": 1,
    "arabic": " \u0648\u064e\u0644\u064e\u0645\u0651\u064e\u0627 \u062c\u064e\u0627\u06e4\u0621\u064e\u0647\u064f\u0645\u0652 \u0631\u064e\u0633\u064f\u0648\u0652\u0644\u064c \u0645\u0651\u0650\u0646\u0652 \u0639\u0650\u0646\u0652\u062f\u0650 \u0627\u0644\u0644\u0651\u0670\u0647\u0650 \u0645\u064f\u0635\u064e\u062f\u0651\u0650\u0642\u064c \u0644\u0651\u0650\u0645\u064e\u0627 \u0645\u064e\u0639\u064e\u0647\u064f\u0645\u0652 \u0646\u064e\u0628\u064e\u0630\u064e \u0641\u064e\u0631\u0650\u064a\u0652\u0642\u064c \u0645\u0651\u0650\u0646\u064e \u0627\u0644\u0651\u064e\u0630\u0650\u064a\u0652\u0646\u064e \u0627\u064f\u0648\u0652\u062a\u064f\u0648\u0627 \u0627\u0644\u0652\u0643\u0650\u062a\u0670\u0628\u064e\u06d9  \u0643\u0650\u062a\u0670\u0628\u064e \u0627\u0644\u0644\u0651\u0670\u0647\u0650 \u0648\u064e\u0631\u064e\u0627\u06e4\u0621\u064e \u0638\u064f\u0647\u064f\u0648\u0652\u0631\u0650\u0647\u0650\u0645\u0652 \u0643\u064e\u0627\u064e\u0646\u0651\u064e\u0647\u064f\u0645\u0652 \u0644\u064e\u0627 \u064a\u064e\u0639\u0652\u0644\u064e\u0645\u064f\u0648\u0652\u0646\u064e\u06d6",
    "latin": "Wa lamm\u0101 j\u0101'ahum ras\u016blum min \u2018indill\u0101hi mu\u1e63addiqul lim\u0101 ma\u2018ahum naba\u017ca far\u012bqum minal-la\u017c\u012bna \u016btul-kit\u0101b(a), kit\u0101ball\u0101hi war\u0101'a \u1e93uh\u016brihim ka'annahum l\u0101 ya\u2018lam\u016bn(a).  ",
    "translation": "Setelah datang kepada mereka Rasul (Nabi Muhammad) dari Allah yang membenarkan apa yang ada pada mereka, sebagian orang yang diberi Kitab (Taurat) melemparkan Kitab Allah itu ke belakang punggung (tidak menggubrisnya) seakan-akan mereka tidak tahu.",
    "no_footnote": null,
    "footnotes": null,
    "surah": {
        "id": 2,
        "arabic": " \u0627\u0644\u0628\u0642\u0631\u0629",
        "latin": "Al-Baqarah ",
        "transliteration": "Al-Baqarah",
        "translation": "Sapi",
        "num_ayah": 286,
        "page": 2,
        "location": "Madaniyah"
    },
    "tafsir": {
        "wajiz": "Ayat ini menjelaskan sisi lain dari keburukan orang-orang Yahudi. Dan setelah datang kepada mereka seorang rasul dari Allah, yakni Nabi Muhammad dengan membawa kitab suci yang membenarkan apa yang ada pada mereka, yakni kitab suci, sebagian dari orang-orang Yahudi yang diberi Kitab Taurat melemparkan Kitab Allah itu ke belakang punggung, yakni mengabaikan nya sama sekali, seakan-akan mereka tidak tahu yang dilempar nya adalah kitab Allah, padahal mereka sangat mengetahui.",
        "tahlili": "Ketika Nabi Muhammad saw datang dengan membawa kitab yang membawa keterangan-keterangan yang membenarkan kitab Taurat yang ada pada mereka, yang mengandung pokok-pokok ajaran tauhid, dasar-dasar hukum, hikmah-hikmah dan berita tentang umat yang lalu, orang Yahudi mengenyampingkan ajaran kitab Taurat. Padahal dalam kitab Taurat itu juga telah diisyaratkan kedatangan Nabi Muhammad saw, mereka itu tidak lagi berpegang pada ajaran Taurat. Tindakan orang-orang Yahudi yang mengenyampingkan Taurat dan mengingkarinya berarti mereka telah melemparkan Taurat itu ke belakang mereka, sehingga mereka tidak dapat mengetahuinya lagi.",
        "intro_surah": "Surah al-Baqarah yang terdiri dari 286 ayat adalah termasuk golongan surah Madaniyah yang diturunkan pada tahun-tahun permulaan periode Nabi Muhammad saw di Medinah. Ia merupakan surah yang terpanjang dan terbanyak ayat-ayatnya di antara surah yang ada di dalam Al-Qur\u2019an. Surah ini dinamai \u201cal-Baqarah\u201d yang berarti \u201cseekor sapi\u201d, karena di dalamnya disebutkan kisah penyembelihan sapi betina yang diperintahkan Allah kepada Bani Israil. Dalam pelaksanaan penyembelihan sapi betina itu tampak dengan jelas sifat dan watak orang-orang Yahudi pada umumnya.\nDinamakan juga fus\u1e6da\u1e6d al-Qur\u2019\u0101n yang berarti \u201cpuncak Al-Qur\u2019an\u201d karena surah ini memuat beberapa hukum yang tidak disebut di surah-surah yang lain. Juga dinamakan Al\u012bf L\u0101m M\u012bm, karena surah ini dimulai dengan huruf-huruf hijaiyah (abjad) alif l\u0101m m\u012bm.\nDi antara pokok-pokok isinya ialah:\n1.\tKeimanan: Dakwah Islamiah yang ditujukan kepada umat Islam, Ahli Kitab dan orang-orang musyrik.\n2.\tHukum: Perintah mengerjakan salat, perintah menunaikan zakat, puasa, haji dan umrah, qi\u1e63a\u1e63, yang halal dan yang haram, bernafkah di jalan Allah, minum arak dan berjudi, cara bergaul dengan anak yatim, prinsip-prinsip ekonomi, larangan memakan riba, utang piutang, nafkah dan yang berhak menerimanya, wasiat kepada dua orang ibu bapak dan kaum kerabat, hukum sumpah, kewajiban menyampaikan amanat, sihir, hukum merusak masjid, hukum mengubah kitab-kitab Allah, haid, idah, talak, khulu\u2018, il\u0101, hukum susuan, meminang, mahar, menikahi wanita musyrik dan sebaliknya, hukum perang, dan lain-lain. \n3.\tKisah: Penciptaan Nabi Adam a.s., kisah Nabi Ibrahim a.s., dan kisah Nabi Musa a.s. dengan Bani Israil.\n4.\tLain-lain, seperti: sifat orang yang bertakwa, sifat-sifat orang munafik, sifat-sifat Allah, perumpamaan-perumpamaan, kiblat, dan kebangkitan sesudah mati.",
        "outro_surah": null,
        "munasabah_prev_surah": "1.\tSurah al-F\u0101ti\u1e25ah merupakan pokok-pokok pembahasan yang akan dirinci dalam surah al-Baqarah dan surah-surah sesudahnya.\n2.\tDi bagian akhir surah al-F\u0101ti\u1e25ah disebutkan permohonan hamba, agar diberi petunjuk oleh Allah ke jalan yang lurus, sedang surah al-Baqarah dimulai dengan ayat yang menerangkan bahwa Al-Qur\u2019an adalah kitab yang menunjukkan jalan yang dimaksudkan itu.\n3.\tDi akhir surah al-F\u0101ti\u1e25ah disebutkan tiga kelompok manusia, yaitu yang diberi nikmat, yang dimurkai Allah dan orang yang sesat, sedangkan di awal surah al-Baqarah juga disebutkan tiga kelompok manusia, yaitu orang yang bertakwa, orang kafir, dan orang munafik.",
        "munasabah_prev_theme": "Dalam ayat-ayat yang lalu telah disebutkan beberapa alasan yang dikemukakan orang-orang Yahudi mengapa mereka tidak beriman kepada Muhammad saw. Kemudian Allah membatalkan tuduhan mereka dengan mengemukakan dalil yang kuat. Dalam ayat ini, Allah menyebutkan alasan lain yang lebih kuat daripada alasan-alasan yang dikemukakan mereka. Alasan mereka ialah bahwa Jibril yang membawa wahyu kepada Nabi Muhammad saw adalah musuh mereka. Itulah sebabnya mereka tidak mau percaya sedikit pun kepada wahyu yang dibawanya. Sesudah itu Allah menjelaskan sebab-sebab mengapa mereka mengingkari dan memusuhi Muhammad saw, yaitu karena sebagian besar mereka mengingkari isi Kitab Taurat yang di dalamnya terdapat kabar gembira tentang kedatangan Nabi Muhammad saw. ",
        "theme_group": "MEMUSUHI JIBRIL BERARTI MEMUSUHI ALLAH",
        "kosakata": "Kosakata: Jibr\u012bl \u062c\u0650\u0628\u0652\u0631\u0650\u064a\u0652\u0644 (al-Baqarah/2: 97)\nJibr\u012bl atau Jibr\u0101\u2019\u012bl (al-Baqarah/2: 97-98), di dalam Al-Qur\u2019an disebut juga dengan gelar ar-R\u016b\u1e25 al-Am\u012bn (asy-Syu\u2018ar\u0101\u2019/26: 193), \u201cRoh yang dapat dipercaya\u201d dan R\u016b\u1e25 al-Qudus (asy-Syu\u2018ar\u0101\u2019/26: 102), \u201cRoh yang suci,\u201d yakni malaikat utusan Allah yang membawakan wahyu-Nya kepada Rasulullah saw. Dalam beberapa hadis (al-Bukh\u0101r\u012b, Muslim, dan A\u1e25mad) disebut juga N\u0101m\u016bs seperti yang diturunkan kepada Musa,\u201d atau an-N\u0101m\u016bs al-Akbar (Ibnu Hisy\u0101m 1/256-257). Ada juga yang mengartikan kata N\u0101m\u016bs sama dengan wahyu. Ayat ini turun sehubungan dengan Abdullah bin Salam, pemuka Yahudi di Medinah yang masuk Islam pada masa Nabi (kisahnya cukup panjang dalam beberapa hadis).\nAda sekelompok Yahudi yang memperolok Islam karena wahyu kepada Nabi dibawa oleh Jibril. Ada tiga alasan mereka memusuhi Jibril: pertama, semua ramalan buruk yang ditimpakan kepada orang Yahudi dan mengutuk sejarah lama mereka dibawa oleh Jibril. Dengan demikian, Jibril adalah lambang \u201calamat buruk dan jahat\u201d (sebaliknya dari malaikat Mikail yang dipandang sebagai pembawa alamat baik, dan karenanya ia adalah \u201csahabat\u201d mereka); kedua, karena Al-Qur\u2019an berulang-ulang menyebutkan bahwa pembawa wahyu kepada Muhammad adalah Jibril, padahal yang sah dan berhak menerima wahyu hanyalah turunan Israil; dan ketiga, karena Al-Qur\u2019an yang diwahyukan melalui Jibril berisi kritik terhadap keyakinan dan sikap Yahudi tertentu dan mengatakan mereka telah merusak ajaran Musa yang asli.\nSebenarnya dalam Perjanjian Lama terdapat beberapa bagian yang mengecam perangai dan watak orang-orang Yahudi yang buruk itu lebih keras dari yang diperlihatkan oleh Al-Qur\u2019an. Dalam kitab mereka, Daniel 12:1, memang sudah disebutkan bahwa pemimpin besar mereka adalah Mikail (Mikhael) dan Jibril adalah musuh mereka. Bagi mereka, bayangan Jibril (Gabriel) menimbulkan rasa takut (Daniel 8:16-17).\nWahyu dan semua ajaran Allah pada dasarnya adalah satu, disampaikan melalui Jibril sebagai rasul atau utusan-Nya (asy-Sy\u016br\u0101/42:51)\u2014dan wahyu tidak harus Kitab\u2014yang juga diturunkan kepada beberapa rasul dan nabi dalam suatu bangsa atau masyarakat sebelum itu, dan ada yang tidak disebutkan namanya (an-Nis\u0101\u2019/4:164) ada pula yang disebutkan, seperti kepada Nuh, Ibrahim, Musa, Isa dan seterusnya (Y\u016bnus/10:47), karena wahyu yang dibawa oleh Jibril atas perintah Allah disampaikan kepada siapa saja di antara hamba-Nya untuk diberi peringatan (an-Na\u1e25l/16:2).",
        "sabab_nuzul": null,
        "conclusion": "1.\tAlasan orang Yahudi tidak mau mempercayai Al-Qur\u2019an, karena yang membawa adalah musuhnya yaitu Jibril, tidak dapat dibenarkan.\n2.\tBarang siapa memusuhi malaikat yang melaksanakan tugas Allah, berarti ia memusuhi Allah, dengan demikian ia menjadi kafir.\n3.\tKeingkaran orang-orang Yahudi terhadap Al-Qur\u2019an sebenarnya disebabkan kefasikan yang timbul karena watak mereka yang sering menyalahi janji dan tidak setia.\n4. Ketidaksetiaan mereka kepada Taurat menyebabkan mereka berani menyalahi janji-janji yang telah dibuatnya dengan Nabi Muhammad saw, mengubah sebagian yang penting dan meninggalkan sebagian yang lain."
    }
}