{
    "id": 172,
    "surah_id": 2,
    "ayah": 165,
    "page": 25,
    "quarter_hizb": 3.25,
    "juz": 2,
    "manzil": 1,
    "arabic": "\u0648\u064e\u0645\u0650\u0646\u064e \u0627\u0644\u0646\u0651\u064e\u0627\u0633\u0650 \u0645\u064e\u0646\u0652 \u064a\u0651\u064e\u062a\u0651\u064e\u062e\u0650\u0630\u064f \u0645\u0650\u0646\u0652 \u062f\u064f\u0648\u0652\u0646\u0650 \u0627\u0644\u0644\u0651\u0670\u0647\u0650 \u0627\u064e\u0646\u0652\u062f\u064e\u0627\u062f\u064b\u0627 \u064a\u0651\u064f\u062d\u0650\u0628\u0651\u064f\u0648\u0652\u0646\u064e\u0647\u064f\u0645\u0652 \u0643\u064e\u062d\u064f\u0628\u0651\u0650 \u0627\u0644\u0644\u0651\u0670\u0647\u0650 \u06d7 \u0648\u064e\u0627\u0644\u0651\u064e\u0630\u0650\u064a\u0652\u0646\u064e \u0627\u0670\u0645\u064e\u0646\u064f\u0648\u0652\u0653\u0627 \u0627\u064e\u0634\u064e\u062f\u0651\u064f \u062d\u064f\u0628\u0651\u064b\u0627 \u0644\u0651\u0650\u0644\u0651\u0670\u0647\u0650 \u06d9\u0648\u064e\u0644\u064e\u0648\u0652 \u064a\u064e\u0631\u064e\u0649 \u0627\u0644\u0651\u064e\u0630\u0650\u064a\u0652\u0646\u064e \u0638\u064e\u0644\u064e\u0645\u064f\u0648\u0652\u0653\u0627 \u0627\u0650\u0630\u0652 \u064a\u064e\u0631\u064e\u0648\u0652\u0646\u064e \u0627\u0644\u0652\u0639\u064e\u0630\u064e\u0627\u0628\u064e\u06d9 \u0627\u064e\u0646\u0651\u064e \u0627\u0644\u0652\u0642\u064f\u0648\u0651\u064e\u0629\u064e \u0644\u0650\u0644\u0651\u0670\u0647\u0650 \u062c\u064e\u0645\u0650\u064a\u0652\u0639\u064b\u0627 \u06d9\u0648\u0651\u064e\u0627\u064e\u0646\u0651\u064e \u0627\u0644\u0644\u0651\u0670\u0647\u064e \u0634\u064e\u062f\u0650\u064a\u0652\u062f\u064f \u0627\u0644\u0652\u0639\u064e\u0630\u064e\u0627\u0628\u0650 ",
    "latin": "Wa minan-n\u0101si may yattakhi\u017cu min d\u016bnill\u0101hi and\u0101day yu\u1e25ibb\u016bnahum ka\u1e25ubbill\u0101h(i), wal-la\u017c\u012bna \u0101man\u016b asyaddu \u1e25ubbal lill\u0101h(i), wa lau yaral-la\u017c\u012bna \u1e93alam\u016b i\u017c yaraunal-\u2018a\u017c\u0101b(a), annal-quwwata lill\u0101hi jam\u012b\u2018\u0101(n), wa annall\u0101ha syad\u012bdul-\u2018a\u017c\u0101b(i).  ",
    "translation": "Di antara manusia ada yang menjadikan (sesuatu) selain Allah sebagai tandingan-tandingan (bagi-Nya) yang mereka cintai seperti mencintai Allah. Adapun orang-orang yang beriman sangat kuat cinta mereka kepada Allah. Sekiranya orang-orang yang berbuat zalim itu melihat, ketika mereka melihat azab (pada hari Kiamat), bahwa kekuatan itu semuanya milik Allah dan bahwa Allah sangat keras azab-Nya, (niscaya mereka menyesal).",
    "no_footnote": null,
    "footnotes": null,
    "surah": {
        "id": 2,
        "arabic": " \u0627\u0644\u0628\u0642\u0631\u0629",
        "latin": "Al-Baqarah ",
        "transliteration": "Al-Baqarah",
        "translation": "Sapi",
        "num_ayah": 286,
        "page": 2,
        "location": "Madaniyah"
    },
    "tafsir": {
        "wajiz": "Dan di antara manusia, meski telah menyaksikan tanda kebesaran dan kekuasaan Allah yang demikian banyak dan jelas, masih ada saja orang yang menyembah tuhan selain Allah. Mereka menjadikannya sebagai tandingan Allah, yang mereka cintai seperti mereka mencintai Allah. Mahasuci Allah dari segala tandingan dan sekutu. Adapun orang-orang yang beriman sangat besar cintanya kepada Allah melebihi cinta orang musyrik kepada sesembahan dan berhala mereka. Mereka tidak mempersekutukan Allah dengan apa pun. Sekiranya orang-orang yang berbuat zalim itu melihat dan mengetahui, ketika mereka melihat, menerima, dan merasakan azab pada hari kiamat, sedang mereka dan sesembahan mereka tidak mampu berbuat apa-apa, maka mereka baru menyadari bahwa kekuatan itu semuanya milik Allah dan bahwa Allah sangat berat azab-Nya. Ketika itulah mereka baru menyesali kezaliman yang telah mereka lakukan, penyesalan yang tidak berguna sedikit pun. ",
        "tahlili": "Di antara manusia, baik zaman dahulu maupun zaman sekarang, ada yang menganggap bahwa di samping Allah ada lagi sesembahan yang diagungkan dan dicintai sama dengan mengagungkan dan mencintai Allah, seperti: berhala, pemimpin-pemimpin, arwah nenek moyang dan lain-lain sebagainya.\nApabila mereka mendapat nikmat dan kebaikan, mereka panjatkan syukur dan pujian kepada sesembahan tersebut, dan apabila mereka ditimpa kesusahan atau malapetaka mereka meminta dan berdoa kepada Allah dengan harapan mereka akan dapat ditolong dan dilepaskan dari cengkeraman bahaya yang mereka hadapi. Tindakan seperti ini adalah tindakan orang musyrik, bukan tindakan orang mukmin.\nSeorang mukmin tidak akan melakukan perbuatan seperti itu karena ia percaya dan yakin dengan sepenuh hatinya bahwa yang harus disembah adalah Allah dan yang harus dicintai dan dipanjatkan doa kepadanya hanyalah Allah. Di akhirat nanti orang yang mempersekutukan Allah dengan menyembah berhala, pemimpin dan arwah itu akan kekal di neraka dan akan menyaksikan dengan mata kepala sendiri bahwa Allah sajalah yang Mahakuasa dan Dia sajalah yang berhak menyiksa dan siksa-Nya amat berat.",
        "intro_surah": "Surah al-Baqarah yang terdiri dari 286 ayat adalah termasuk golongan surah Madaniyah yang diturunkan pada tahun-tahun permulaan periode Nabi Muhammad saw di Medinah. Ia merupakan surah yang terpanjang dan terbanyak ayat-ayatnya di antara surah yang ada di dalam Al-Qur\u2019an. Surah ini dinamai \u201cal-Baqarah\u201d yang berarti \u201cseekor sapi\u201d, karena di dalamnya disebutkan kisah penyembelihan sapi betina yang diperintahkan Allah kepada Bani Israil. Dalam pelaksanaan penyembelihan sapi betina itu tampak dengan jelas sifat dan watak orang-orang Yahudi pada umumnya.\nDinamakan juga fus\u1e6da\u1e6d al-Qur\u2019\u0101n yang berarti \u201cpuncak Al-Qur\u2019an\u201d karena surah ini memuat beberapa hukum yang tidak disebut di surah-surah yang lain. Juga dinamakan Al\u012bf L\u0101m M\u012bm, karena surah ini dimulai dengan huruf-huruf hijaiyah (abjad) alif l\u0101m m\u012bm.\nDi antara pokok-pokok isinya ialah:\n1.\tKeimanan: Dakwah Islamiah yang ditujukan kepada umat Islam, Ahli Kitab dan orang-orang musyrik.\n2.\tHukum: Perintah mengerjakan salat, perintah menunaikan zakat, puasa, haji dan umrah, qi\u1e63a\u1e63, yang halal dan yang haram, bernafkah di jalan Allah, minum arak dan berjudi, cara bergaul dengan anak yatim, prinsip-prinsip ekonomi, larangan memakan riba, utang piutang, nafkah dan yang berhak menerimanya, wasiat kepada dua orang ibu bapak dan kaum kerabat, hukum sumpah, kewajiban menyampaikan amanat, sihir, hukum merusak masjid, hukum mengubah kitab-kitab Allah, haid, idah, talak, khulu\u2018, il\u0101, hukum susuan, meminang, mahar, menikahi wanita musyrik dan sebaliknya, hukum perang, dan lain-lain. \n3.\tKisah: Penciptaan Nabi Adam a.s., kisah Nabi Ibrahim a.s., dan kisah Nabi Musa a.s. dengan Bani Israil.\n4.\tLain-lain, seperti: sifat orang yang bertakwa, sifat-sifat orang munafik, sifat-sifat Allah, perumpamaan-perumpamaan, kiblat, dan kebangkitan sesudah mati.",
        "outro_surah": null,
        "munasabah_prev_surah": "1.\tSurah al-F\u0101ti\u1e25ah merupakan pokok-pokok pembahasan yang akan dirinci dalam surah al-Baqarah dan surah-surah sesudahnya.\n2.\tDi bagian akhir surah al-F\u0101ti\u1e25ah disebutkan permohonan hamba, agar diberi petunjuk oleh Allah ke jalan yang lurus, sedang surah al-Baqarah dimulai dengan ayat yang menerangkan bahwa Al-Qur\u2019an adalah kitab yang menunjukkan jalan yang dimaksudkan itu.\n3.\tDi akhir surah al-F\u0101ti\u1e25ah disebutkan tiga kelompok manusia, yaitu yang diberi nikmat, yang dimurkai Allah dan orang yang sesat, sedangkan di awal surah al-Baqarah juga disebutkan tiga kelompok manusia, yaitu orang yang bertakwa, orang kafir, dan orang munafik.",
        "munasabah_prev_theme": "Dalam ayat 163 dan 164, disebutkan bahwa Tuhan yang sebenarnya adalah Tuhan yang Maha Esa, apa yang diciptakan-Nya seperti langit dan apa yang terdapat di dalamnya merupakan tanda-tanda bagi keesaan dan                                               kekuasaan-Nya; maka tidak sepantasnya bagi manusia yang dianugerahi pikiran dan perasaan, mempersekutukan-Nya dengan yang lain dan men-cintai sekutu-sekutu itu seperti mencintai Allah. Di dalam ayat ini, disebutkan keadaan orang-orang yang mempersekutukan Allah dengan menyembah berhala dan pemimpin mereka. Mereka mempersamakan berhala dan pemimpin itu dengan Allah dalam beribadah serta dalam mencintai-Nya. Mereka di akhirat nanti akan saling tuduh dan saling menyalahkan.",
        "theme_group": "SIFAT-SIFAT ORANG KAFIR \nDAN KEADAAN MEREKA DI AKHIRAT",
        "kosakata": "Kosakata: And\u0101dan \u0627\u064e\u0646\u0652\u062f\u064e\u0627\u062f\u064b\u0627 (al-Baqarah/2: 165)\nAnd\u0101dan jamak dari an-nidd artinya \u201cyang sama\u201d, \u201csepadan\u201d. Maksudnya menyekutukan sesuatu dengan yang lainnya dalam substansi, sesuatu yang disekutukan ini dianggap mempunyai beberapa faktor yang sama meskipun pada hakikatnya sangat kontradiksi dengan yang disekutukan (diserupakan).\nYang dimaksud and\u0101dan dalam ayat ini adalah patung-patung yang mereka sembah bukan pemimpin-pemimpin mereka. Orang Arab ketika itu mencintai patung-patung yang mereka anggap sebagai tuhan atau pemberi syafaat seperti mereka mencintai Allah yang juga mereka yakini sebagai Tuhan di samping patung-patung tersebut. Kecintaan mereka memang hanya terfokus pada patung-patung tersebut yang mereka anggap sebagai tuhan. Ayat ini menghimbau agar kita tidak menyekutukan Allah dengan benda-benda lain yang mereka anggap tuhan dan yang mereka cintai.\nSebuah kezaliman dan ironi jika ada makhluk selain Allah apa pun bentuknya yang tidak mempunyai konstribusi dalam kehidupan manusia, baik memberi manfaat atau madarat, disamakan dengan Allah Maha Pencipta segala sesuatu.",
        "sabab_nuzul": null,
        "conclusion": null
    }
}