{
    "id": 167,
    "surah_id": 2,
    "ayah": 160,
    "page": 24,
    "quarter_hizb": 3.25,
    "juz": 2,
    "manzil": 1,
    "arabic": "\u0627\u0650\u0644\u0651\u064e\u0627 \u0627\u0644\u0651\u064e\u0630\u0650\u064a\u0652\u0646\u064e \u062a\u064e\u0627\u0628\u064f\u0648\u0652\u0627 \u0648\u064e\u0627\u064e\u0635\u0652\u0644\u064e\u062d\u064f\u0648\u0652\u0627 \u0648\u064e\u0628\u064e\u064a\u0651\u064e\u0646\u064f\u0648\u0652\u0627 \u0641\u064e\u0627\u064f\u0648\u0644\u0670\u06e4\u0649\u0655\u0650\u0643\u064e \u0627\u064e\u062a\u064f\u0648\u0652\u0628\u064f \u0639\u064e\u0644\u064e\u064a\u0652\u0647\u0650\u0645\u0652 \u06da \u0648\u064e\u0627\u064e\u0646\u064e\u0627 \u0627\u0644\u062a\u0651\u064e\u0648\u0651\u064e\u0627\u0628\u064f \u0627\u0644\u0631\u0651\u064e\u062d\u0650\u064a\u0652\u0645\u064f ",
    "latin": "Illal-la\u017c\u012bna t\u0101b\u016b wa a\u1e63la\u1e25\u016b wa bayyan\u016b fa'ul\u0101'ika at\u016bbu \u2018alaihim, wa anat-taww\u0101bur-ra\u1e25\u012bm(u). ",
    "translation": "kecuali orang-orang yang telah bertobat, mengadakan perbaikan, dan menjelaskan(-nya).46) Mereka itulah yang Aku terima tobatnya. Akulah Yang Maha Penerima Tobat lagi Maha Penyayang.",
    "no_footnote": "46",
    "footnotes": "46) Maksudnya adalah melakukan amal-amal saleh untuk menghilangkan keburukan yang diakibatkan oleh kesalahan-kesalahannya dan menjelaskan kebenaran yang disembunyikannya.",
    "surah": {
        "id": 2,
        "arabic": " \u0627\u0644\u0628\u0642\u0631\u0629",
        "latin": "Al-Baqarah ",
        "transliteration": "Al-Baqarah",
        "translation": "Sapi",
        "num_ayah": 286,
        "page": 2,
        "location": "Madaniyah"
    },
    "tafsir": {
        "wajiz": " Allah mengimbau umat Islam untuk menyampaikan kebenaran. Sungguh, orang-orang yang menyembunyikan apa yang telah Kami turunkan, yakni kitab-kitab samawi sebelum Al-Qur'an, dengan tidak memaparkannya kepada masyarakat atau menggantinya dengan yang lain, berupa keterangan-keterangan tentang satu kebenaran dan petunjuk, seperti sifat-sifat Nabi Muhammad atau hukum syariat tertentu setelah Kami jelaskan kepada manusia dalam Kitab Al-Qur'an, mereka itulah orang yang dilaknat Allah, dijauhkan dari rahmat-Nya, dan dilaknat pula oleh mereka yang melaknat: para malaikat dan kaum mukmin. Ayat ini berlaku bagi setiap orang yang sengaja menyembunyikan kebenaran dari Allah. Laknat itu akan selalu meliputi mereka, kecuali mereka yang telah bertobat dan menyesali dosa mereka, dan mengadakan perbaikan dengan berbuat saleh, dan menjelaskan-nya; mereka itulah yang Aku terima tobatnya, dan Akulah Yang Maha Penerima tobat, Maha Penyayang. Sungguh, orang-orang yang kafir dan mati dalam keadaan kafir akan mendapat empat macam pembalasan. Pertama, mereka itu mendapat laknat Allah, para malaikat dan manusia seluruhnya; kedua, mereka kekal di dalamnya, di dalam laknat itu, dan karenanya mereka akan masuk neraka untuk selamanya; ketiga, mereka tidak akan diringankan azabnya; dan keempat, mereka tidak diberi penangguhan sebagaimana pada saat mereka di dunia.",
        "tahlili": "Orang yang tobat dari kesalahan dan kelalaiannya serta memperbaiki dirinya dengan cara mendekatkan diri kepada Allah, menerangkan serta menyebarkan ilmu yang dimilikinya, berani menegakkan kebenaran serta memerangi kemungkaran dikecualikan dan dibebaskan dari laknat Allah. Bagi orang-orang yang seperti itu walaupun mereka telah terlanjur berbuat kesalahan, namun Allah tetap menyediakan ampunan, karena Allah Maha Pengampun lagi Maha Penyayang. Jadi janganlah seseorang berputus asa dari rahmat Allah dan petunjuk-Nya bagaimanapun besar dan banyaknya kesalahan serta dosanya, karena pintu tobat dan rahmat Allah terbuka selebar-lebarnya bagi orang yang insaf dan ingin memperbaiki dirinya.",
        "intro_surah": "Surah al-Baqarah yang terdiri dari 286 ayat adalah termasuk golongan surah Madaniyah yang diturunkan pada tahun-tahun permulaan periode Nabi Muhammad saw di Medinah. Ia merupakan surah yang terpanjang dan terbanyak ayat-ayatnya di antara surah yang ada di dalam Al-Qur\u2019an. Surah ini dinamai \u201cal-Baqarah\u201d yang berarti \u201cseekor sapi\u201d, karena di dalamnya disebutkan kisah penyembelihan sapi betina yang diperintahkan Allah kepada Bani Israil. Dalam pelaksanaan penyembelihan sapi betina itu tampak dengan jelas sifat dan watak orang-orang Yahudi pada umumnya.\nDinamakan juga fus\u1e6da\u1e6d al-Qur\u2019\u0101n yang berarti \u201cpuncak Al-Qur\u2019an\u201d karena surah ini memuat beberapa hukum yang tidak disebut di surah-surah yang lain. Juga dinamakan Al\u012bf L\u0101m M\u012bm, karena surah ini dimulai dengan huruf-huruf hijaiyah (abjad) alif l\u0101m m\u012bm.\nDi antara pokok-pokok isinya ialah:\n1.\tKeimanan: Dakwah Islamiah yang ditujukan kepada umat Islam, Ahli Kitab dan orang-orang musyrik.\n2.\tHukum: Perintah mengerjakan salat, perintah menunaikan zakat, puasa, haji dan umrah, qi\u1e63a\u1e63, yang halal dan yang haram, bernafkah di jalan Allah, minum arak dan berjudi, cara bergaul dengan anak yatim, prinsip-prinsip ekonomi, larangan memakan riba, utang piutang, nafkah dan yang berhak menerimanya, wasiat kepada dua orang ibu bapak dan kaum kerabat, hukum sumpah, kewajiban menyampaikan amanat, sihir, hukum merusak masjid, hukum mengubah kitab-kitab Allah, haid, idah, talak, khulu\u2018, il\u0101, hukum susuan, meminang, mahar, menikahi wanita musyrik dan sebaliknya, hukum perang, dan lain-lain. \n3.\tKisah: Penciptaan Nabi Adam a.s., kisah Nabi Ibrahim a.s., dan kisah Nabi Musa a.s. dengan Bani Israil.\n4.\tLain-lain, seperti: sifat orang yang bertakwa, sifat-sifat orang munafik, sifat-sifat Allah, perumpamaan-perumpamaan, kiblat, dan kebangkitan sesudah mati.",
        "outro_surah": null,
        "munasabah_prev_surah": "1.\tSurah al-F\u0101ti\u1e25ah merupakan pokok-pokok pembahasan yang akan dirinci dalam surah al-Baqarah dan surah-surah sesudahnya.\n2.\tDi bagian akhir surah al-F\u0101ti\u1e25ah disebutkan permohonan hamba, agar diberi petunjuk oleh Allah ke jalan yang lurus, sedang surah al-Baqarah dimulai dengan ayat yang menerangkan bahwa Al-Qur\u2019an adalah kitab yang menunjukkan jalan yang dimaksudkan itu.\n3.\tDi akhir surah al-F\u0101ti\u1e25ah disebutkan tiga kelompok manusia, yaitu yang diberi nikmat, yang dimurkai Allah dan orang yang sesat, sedangkan di awal surah al-Baqarah juga disebutkan tiga kelompok manusia, yaitu orang yang bertakwa, orang kafir, dan orang munafik.",
        "munasabah_prev_theme": "Dalam ayat 146 telah diterangkan bahwa orang Yahudi mengenal Nabi Muhammad dari kitab-kitab mereka seperti mengenal anak-anak mereka sendiri, karena di sana disebutkan segala sifat-sifatnya dengan jelas dan bahwa beliau akan diutus sebagai Rasul, tetapi mereka tetap mengingkarinya dan selalu menyembunyikan apa yang mereka ketahui itu. Dalam ayat ini disebutkan lagi sifat-sifat Ahli Kitab tersebut, dan bahwa mereka mendapat laknat dari Allah, malaikat, dan manusia seluruhnya",
        "theme_group": "LAKNAT TERHADAP ORANG YANG \nMENYEMBUNYIKAN AYAT-AYAT ALLAH ",
        "kosakata": "Kosakata: Yal\u2018anu  \u064a\u064e\u0644\u0652\u0639\u064e\u0646\u064f (al-Baqarah/2: 159) \nAsal kata yal\u2018anu adalah al-la\u2018n artinya \u201cmengusir dan menjauhkan suatu atau seseorang akibat perbuatan yang menimbulkan kemarahan\u201d. Orang yang mendapat laknat Allah berarti ia dijauhkan dari rahmat-Nya disertai dengan kemurkaan Allah di dunia dan hukuman neraka di akhirat kelak. Laknat Allah pada ayat ini berarti terputusnya rahmat dan taufik-Nya disertai kemarahan Allah atas orang-orang yang menyembunyikan hidayah Al-Qur\u2019an ketika mereka membaca kitab Taurat, sedangkan laknat Allah di akhirat adalah azab neraka. Laknat bisa juga datang dari manusia yang berarti kutukan seseorang kepada orang lain yang berbuat kejahatan, sedangkan yang dimaksud dengan al-l\u0101\u2018in\u016bn dalam ayat ini adalah orang-orang yang taat kepada Allah, yang mengutuk kejahatan orang-orang yang menutupi kebenaran Al-Qur\u2019an, mereka marah karena mereka menganggap orang-orang kafir itu telah melakukan kemungkaran yang harus dicegah agar manusia lainnya tidak terhalang dari hidayah Allah.",
        "sabab_nuzul": null,
        "conclusion": null
    }
}