{
    "id": 123,
    "surah_id": 2,
    "ayah": 116,
    "page": 18,
    "quarter_hizb": 2.5,
    "juz": 1,
    "manzil": 1,
    "arabic": "\u0648\u064e\u0642\u064e\u0627\u0644\u064f\u0648\u0627 \u0627\u062a\u0651\u064e\u062e\u064e\u0630\u064e \u0627\u0644\u0644\u0651\u0670\u0647\u064f \u0648\u064e\u0644\u064e\u062f\u064b\u0627 \u06d9\u0633\u064f\u0628\u0652\u062d\u0670\u0646\u064e\u0647\u0657 \u06d7 \u0628\u064e\u0644\u0652 \u0644\u0651\u064e\u0647\u0657 \u0645\u064e\u0627 \u0641\u0650\u0649 \u0627\u0644\u0633\u0651\u064e\u0645\u0670\u0648\u0670\u062a\u0650 \u0648\u064e\u0627\u0644\u0652\u0627\u064e\u0631\u0652\u0636\u0650\u06d7  \u0643\u064f\u0644\u0651\u064c \u0644\u0651\u064e\u0647\u0657 \u0642\u0670\u0646\u0650\u062a\u064f\u0648\u0652\u0646\u064e ",
    "latin": "Wa q\u0101luttakha\u017call\u0101hu waladan sub\u1e25\u0101nah(\u016b), bal lah\u016b m\u0101 fis-sam\u0101w\u0101ti wal-ar\u1e0d(i), kullul lah\u016b q\u0101nit\u016bn(a).  ",
    "translation": "Mereka berkata, \u201cAllah mengangkat anak.\u201d Maha Suci Allah, bahkan milik-Nyalah apa yang di langit dan di bumi. Semua tunduk kepada-Nya.",
    "no_footnote": null,
    "footnotes": null,
    "surah": {
        "id": 2,
        "arabic": " \u0627\u0644\u0628\u0642\u0631\u0629",
        "latin": "Al-Baqarah ",
        "transliteration": "Al-Baqarah",
        "translation": "Sapi",
        "num_ayah": 286,
        "page": 2,
        "location": "Madaniyah"
    },
    "tafsir": {
        "wajiz": "Dan mereka, kaum Yahudi dan Nasrani, berkata, \u201cAllah mempunyai anak.\u201d Mahasuci Allah dari perkataan mereka. Ayat ini diturunkan sebagai jawaban atas pernyataan kaum Yahudi yang meyakini Uzair sebagai putra Allah, kaum Nasrani yang meng anggap Isa sebagai putra Allah, dan kaum musyrik Arab yang menganggap malaikat sebagai putri Allah. Bahkan milik-Nyalah, yakni Allah-lah pencipta dan pemilik apa yang di langit dan di bumi, termasuk di dalamnya Uzair, Isa, dan para malaikat itu. Semua tunduk, taat, dan patuh kepada-Nya, yakni kepada kebesaran, kekuasaan dan kehendak-Nya. ",
        "tahlili": "Pengakuan lisan dan hati orang-orang Yahudi dan Nasrani bahwa Allah mempunyai anak. Orang Yahudi mengatakan Uzair putra Allah, sedang orang Nasrani mengatakan bahwa Almasih putra Allah.\n\u0648\u064e\u0642\u064e\u0627\u0644\u064e\u062a\u0650 \u0627\u0644\u0652\u064a\u064e\u0647\u064f\u0648\u0652\u062f\u064f \u0639\u064f\u0632\u064e\u064a\u0652\u0631\u064f \u06e8\u0650\u0627\u0628\u0652\u0646\u064f \u0627\u0644\u0644\u0651\u0670\u0647\u0650 \u0648\u064e\u0642\u064e\u0627\u0644\u064e\u062a\u0650 \u0627\u0644\u0646\u0651\u064e\u0635\u0670\u0631\u064e\u0649 \u0627\u0644\u0652\u0645\u064e\u0633\u0650\u064a\u0652\u062d\u064f \u0627\u0628\u0652\u0646\u064f \u0627\u0644\u0644\u0651\u0670\u0647\u0650 \u06d7\u0630\u0670\u0644\u0650\u0643\u064e \u0642\u064e\u0648\u0652\u0644\u064f\u0647\u064f\u0645\u0652 \u0628\u0650\u0627\u064e\u0641\u0652\u0648\u064e\u0627\u0647\u0650\u0647\u0650\u0645\u0652\u06da \nDan orang-orang Yahudi berkata, \u201dUzair putra Allah,\u201d dan orang-orang Nasrani berkata, \u201dAlmasih putra Allah.\u201d Itulah ucapan yang keluar dari mulut mereka. (at-Taubah/9: 30)\nKedua kepercayaan itu pada dasarnya adalah sama, yaitu menyatakan bahwa Allah mempunyai anak dan berarti mereka mempersekutukan Allah, menyatakan bahwa Allah memerlukan pembantu dalam mengurus alam ini, menyatakan bahwa Allah mempunyai suatu cita-cita dan cita-cita itu akan dilanjutkan oleh putra-Nya seandainya Dia tidak ada lagi.\nKepercayaan dan ucapan orang-orang kafir itu tidak benar, mengherankan dan terlalu berani, Mahasuci Allah dari perkataan-perkataan yang demikian itu. Allah tidak memerlukan sesuatu pun, tidak memerlukan penolong dan pembantu dalam melaksanakan semua urusan-urusan-Nya, tidak memerlukan sesuatu pun untuk melanjutkan kehendak-Nya, karena Dia adalah kekal tidak berkesudahan.\nDari perkataan \"Mahasuci Allah\" dipahami bahwa pengakuan orang-orang Yahudi dan Nasrani tentang Allah mempunyai anak adalah pengakuan yang dinilai sebagai dosa besar. Karena itu hamba-hamba yang terlanjur menyatakan pengakuan itu hendaklah bertobat kepada Allah. Hanya dengan bertobat, dosa besar seseorang hamba dapat diampuni oleh Allah.\nAkhir ayat ini memberi pengertian bahwa Allah hendak membersihkan diri-Nya dari perkataan orang-orang kafir. Allah menyatakan yang demikian semata-mata untuk menjaga hak hamba-hamba-Nya, membersihkan kepercayaan hamba-hamba-Nya yang dapat merugikan mereka di dunia dan di akhirat nanti.\nBahkan Allah menegaskan bahwa seluruh alam ini adalah milik-Nya, berada di bawah kekuasaan-Nya. Tidak satu pun yang dapat mengurangi kehendak-Nya dan merugikan-Nya. Semua patuh dan tunduk kepada-Nya.",
        "intro_surah": "Surah al-Baqarah yang terdiri dari 286 ayat adalah termasuk golongan surah Madaniyah yang diturunkan pada tahun-tahun permulaan periode Nabi Muhammad saw di Medinah. Ia merupakan surah yang terpanjang dan terbanyak ayat-ayatnya di antara surah yang ada di dalam Al-Qur\u2019an. Surah ini dinamai \u201cal-Baqarah\u201d yang berarti \u201cseekor sapi\u201d, karena di dalamnya disebutkan kisah penyembelihan sapi betina yang diperintahkan Allah kepada Bani Israil. Dalam pelaksanaan penyembelihan sapi betina itu tampak dengan jelas sifat dan watak orang-orang Yahudi pada umumnya.\nDinamakan juga fus\u1e6da\u1e6d al-Qur\u2019\u0101n yang berarti \u201cpuncak Al-Qur\u2019an\u201d karena surah ini memuat beberapa hukum yang tidak disebut di surah-surah yang lain. Juga dinamakan Al\u012bf L\u0101m M\u012bm, karena surah ini dimulai dengan huruf-huruf hijaiyah (abjad) alif l\u0101m m\u012bm.\nDi antara pokok-pokok isinya ialah:\n1.\tKeimanan: Dakwah Islamiah yang ditujukan kepada umat Islam, Ahli Kitab dan orang-orang musyrik.\n2.\tHukum: Perintah mengerjakan salat, perintah menunaikan zakat, puasa, haji dan umrah, qi\u1e63a\u1e63, yang halal dan yang haram, bernafkah di jalan Allah, minum arak dan berjudi, cara bergaul dengan anak yatim, prinsip-prinsip ekonomi, larangan memakan riba, utang piutang, nafkah dan yang berhak menerimanya, wasiat kepada dua orang ibu bapak dan kaum kerabat, hukum sumpah, kewajiban menyampaikan amanat, sihir, hukum merusak masjid, hukum mengubah kitab-kitab Allah, haid, idah, talak, khulu\u2018, il\u0101, hukum susuan, meminang, mahar, menikahi wanita musyrik dan sebaliknya, hukum perang, dan lain-lain. \n3.\tKisah: Penciptaan Nabi Adam a.s., kisah Nabi Ibrahim a.s., dan kisah Nabi Musa a.s. dengan Bani Israil.\n4.\tLain-lain, seperti: sifat orang yang bertakwa, sifat-sifat orang munafik, sifat-sifat Allah, perumpamaan-perumpamaan, kiblat, dan kebangkitan sesudah mati.",
        "outro_surah": null,
        "munasabah_prev_surah": "1.\tSurah al-F\u0101ti\u1e25ah merupakan pokok-pokok pembahasan yang akan dirinci dalam surah al-Baqarah dan surah-surah sesudahnya.\n2.\tDi bagian akhir surah al-F\u0101ti\u1e25ah disebutkan permohonan hamba, agar diberi petunjuk oleh Allah ke jalan yang lurus, sedang surah al-Baqarah dimulai dengan ayat yang menerangkan bahwa Al-Qur\u2019an adalah kitab yang menunjukkan jalan yang dimaksudkan itu.\n3.\tDi akhir surah al-F\u0101ti\u1e25ah disebutkan tiga kelompok manusia, yaitu yang diberi nikmat, yang dimurkai Allah dan orang yang sesat, sedangkan di awal surah al-Baqarah juga disebutkan tiga kelompok manusia, yaitu orang yang bertakwa, orang kafir, dan orang munafik.",
        "munasabah_prev_theme": "Pada ayat-ayat sebelum ini diterangkan tentang anggapan orang Yahudi terhadap orang Nasrani dan sebaliknya. Maka ayat ini menerangkan tindakan yang paling zalim yang dilakukan oleh manusia, yaitu menghalangi orang melaksanakan ibadah, bahkan sampai menghancurkan tempat ibadahnya.",
        "theme_group": "TINDAKAN MENGHALANGI ORANG BERIBADAH",
        "kosakata": "Kosakata: al-Khizyu  \u0627\u064e\u0644\u0652\u062e\u0650\u0632\u0652\u064a\u064f (al-Baqarah/2: 114) \nAl-Khizyu dari akar kata  \u062e\u0632\u0649 - \u064a\u062e\u0632\u064a \u2013 \u062e\u0650\u0632\u064a\u064c sinonim dengan kata takut, hina, dina dan sebagainya. Arti kata al-khizyu (masdar) adalah sesuatu yang jelek yang tidak disukai pada diri seseorang apalagi kalau sempat terlihat oleh orang lain. Dalam ayat ini Allah mengancam orang-orang Yahudi yang akan merobohkan masjid-masjid di Medinah untuk memberi kehinaan kepada mereka di dunia sedangkan di akhirat mereka mendapatkan azab yang pedih.",
        "sabab_nuzul": null,
        "conclusion": null
    }
}