{
    "id": 187,
    "surah_id": 2,
    "ayah": 180,
    "page": 27,
    "quarter_hizb": 3.5,
    "juz": 2,
    "manzil": 1,
    "arabic": "\u0643\u064f\u062a\u0650\u0628\u064e \u0639\u064e\u0644\u064e\u064a\u0652\u0643\u064f\u0645\u0652 \u0627\u0650\u0630\u064e\u0627 \u062d\u064e\u0636\u064e\u0631\u064e \u0627\u064e\u062d\u064e\u062f\u064e\u0643\u064f\u0645\u064f \u0627\u0644\u0652\u0645\u064e\u0648\u0652\u062a\u064f \u0627\u0650\u0646\u0652 \u062a\u064e\u0631\u064e\u0643\u064e \u062e\u064e\u064a\u0652\u0631\u064b\u0627 \u06d6 \u06e8\u0627\u0644\u0652\u0648\u064e\u0635\u0650\u064a\u0651\u064e\u0629\u064f \u0644\u0650\u0644\u0652\u0648\u064e\u0627\u0644\u0650\u062f\u064e\u064a\u0652\u0646\u0650 \u0648\u064e\u0627\u0644\u0652\u0627\u064e\u0642\u0652\u0631\u064e\u0628\u0650\u064a\u0652\u0646\u064e \u0628\u0650\u0627\u0644\u0652\u0645\u064e\u0639\u0652\u0631\u064f\u0648\u0652\u0641\u0650\u06da \u062d\u064e\u0642\u0651\u064b\u0627 \u0639\u064e\u0644\u064e\u0649 \u0627\u0644\u0652\u0645\u064f\u062a\u0651\u064e\u0642\u0650\u064a\u0652\u0646\u064e \u06d7  ",
    "latin": "Kutiba \u2018alaikum i\u017c\u0101 \u1e25a\u1e0dara a\u1e25adakumul-mautu in taraka kahir\u0101(n), al-wa\u1e63iyyatu lil-w\u0101lidaini wal-aqrab\u012bna bil-ma\u2018r\u016bf(i), \u1e25aqqan \u2018alal-muttaq\u012bn(a).  ",
    "translation": "Diwajibkan kepadamu, apabila seseorang di antara kamu didatangi (tanda-tanda) maut sedang dia meninggalkan kebaikan (harta yang banyak), berwasiat kepada kedua orang tua dan karib kerabat dengan cara yang patut (sebagai) kewajiban bagi orang-orang yang bertakwa.49)",
    "no_footnote": "49",
    "footnotes": "49) Menurut mayoritas ulama, ayat ini dinasakh dengan ayat waris dan hadis \u201cl\u0101 wa\u1e63iyyata li w\u0101ri\u1e61in\u201d (Tidak ada wasiat bagi ahli waris).",
    "surah": {
        "id": 2,
        "arabic": " \u0627\u0644\u0628\u0642\u0631\u0629",
        "latin": "Al-Baqarah ",
        "transliteration": "Al-Baqarah",
        "translation": "Sapi",
        "num_ayah": 286,
        "page": 2,
        "location": "Madaniyah"
    },
    "tafsir": {
        "wajiz": "Diwajibkan atas kamu, wahai orang-orang yang beriman, apabila tanda-tanda maut atau kematian hendak menjemput seseorang di antara kamu seperti usia tua, rambut memutih, gigi rontok, kulit mengendur, jika dia meninggalkan harta yang banyak, maka hendaknya berwasiat dan memberi pesan yang disampaikan kepada orang lain untuk dilaksanakan setelah kamu meninggal dunia. Wasiat tersebut adalah untuk kedua orang tua yang terhalang menerima waris, karena beda agama atau hamba sahaya/tawanan perang dan untuk karib kerabat yang tidak berhak mendapatkan harta warisan, dengan ketentuan wasiat tersebut dilaksanakan dengan cara yang baik dan tidak merugikan ahli waris. Supaya tidak merugikan ahli waris, maka wasiat tidak boleh lebih dari sepertiga harta yang ditinggalkan oleh pemberi wasiat. Ketentuan hukum wasiat ini sebagai kewajiban bagi orang-orang yang bertakwa yang menaati perintah Allah. ",
        "tahlili": "Secara umum menurut bunyi ayat 180 ini, Allah mewajibkan berwasiat bagi orang yang beriman yang merasa bahwa ajalnya sudah dekat, dengan datangnya tanda-tanda bahwa dia akan mati. Kewajiban berwasiat, bagi orang-orang yang mempunyai harta, agar sesudah mati dapat disisihkan sebagian harta yang akan diberikan kepada ibu-bapak dan karib kerabatnya dengan baik (adil dan wajar).\nPara ulama mujtahid, dalam menetapkan suatu hukum wasiat yang positif dari ayat 180 ini, memerlukan pembahasan dan penelitian terhadap ayat-ayat lain dalam Al-Qur\u2019an dan terhadap hadis-hadis Nabi yang ada hubungannya dengan persoalan ini, sehingga mereka menghasilkan pendapat antara lain:\n1. Jumhur ulama memberikan pendapat bahwa ayat wasiat 180 ini telah dinasakhkan (dihapus hukumnya) oleh ayat-ayat harta waris yang diturunkan dengan terperinci pada surah an-Nis\u0101' ayat 11 dan 12 dengan alasan antara lain sebagai berikut:\na. Sabda Rasulullah saw:\n\u0625\u0650\u0646\u0651\u064e \u0627\u0644\u0644\u0647 \u064e\u0642\u064e\u062f\u0652 \u0627\u064e\u0639\u0652\u0637\u064e\u0649 \u0643\u064f\u0644\u0651\u064e \u0630\u0650\u064a\u0652 \u062d\u064e\u0642\u0651\u064d \u062d\u064e\u0642\u0651\u064e\u0647\u064f \u0623\u064e\u0644\u0627\u064e \u0644\u0627\u064e \u0648\u064e\u0635\u0650\u064a\u0651\u064e\u0629\u064e \u0644\u0650\u0648\u064e\u0627\u0631\u0650\u062b\u064d (\u0631\u0648\u0627\u0647 \u0623\u062d\u0645\u062f \u0648\u0627\u0644\u0628\u064a\u0647\u0642\u064a \u0639\u0646 \u0623\u0628\u0648 \u0623\u0645\u0627\u0645\u0629 \u0627\u0644\u0628\u0627\u0647\u0644\u064a)\nSesungguhnya Allah swt telah memberikan kepada setiap orang haknya masing-masing, maka tidak ada wasiat bagi ahli waris (Riwayat A\u1e25mad dan al-Baihaqi dari Ab\u016b Um\u0101mah al-B\u0101hil\u012b).\nHadis ini walaupun tidak mutawatir, namun telah diterima baik oleh para ulama Islam semenjak dahulu.\nb. \tPara ulama sependapat bahwa ayat-ayat harta waris tersebut diturunkan sesudah ayat wasiat ini.\n2. Para ulama yang berpendapat bahwa ayat wasiat ini dinasakh oleh ayat-ayat harta waris, terbagi pula kepada 2 golongan: golongan pertama mengatakan, tidak ada wasiat yang wajib, baik kepada kerabat yang ahli waris maupun kerabat yang bukan ahli waris. Golongan kedua berpendapat bahwa yang dinasakhkan hanya wasiat kepada kerabat ahli waris saja, sesuai dengan ayat-ayat mawaris itu tetapi untuk karib kerabat yang tidak termasuk ahli waris, wasiat itu tetap wajib hukumnya sesuai dengan ayat wasiat ini.\n3.\tMenurut Abu Muslim al-Isfah\u0101n\u012b (seorang ulama yang tidak mengakui adanya nasakh dalam ayat-ayat Al-Qur\u2019an) dan Ibnu Jarir a\u1e6d-\u1e6cabari, bahwa ayat wasiat 180 ini, tidak dinasakhkan oleh ayat-ayat mawaris dengan alasan antara lain:\na.\tTidak ada pertentangan antara ayat wasiat ini dengan ayat-ayat mawaris, karena wasiat ini sifatnya pemberian dari Tuhan. Oleh karena itu, seorang ahli waris bisa mendapat bagian dari wasiat sesuai dengan ayat 180 ini, dan dari warisan sesuai dengan ketentuan ayat-ayat harta waris.\nb.\tAndaikata ada pertentangan antara ayat wasiat ini dengan ayat-ayat harta waris, maka dapat dikompromikan yaitu ayat-ayat wasiat ini sifatnya umum, artinya wajib wasiat kepada setiap kerabat, baik ahli waris maupun bukan, sedang ayat-ayat mawaris sifatnya khusus. Jadi kewajiban berwasiat itu seperti dalam ayat 180 tetap berlaku, sehingga tidak bertentangan dengan ayat-ayat harta waris.\nPada ayat 180 ini diterangkan lagi bahwa wasiat itu diberlakukan kalau harta yang akan ditinggalkan oleh yang berwasiat itu banyak. Para ulama yang memberi pendapat tentang berapa banyak jumlah harta yang mengharuskan adanya wasiat. Perincian pendapat para ulama ini dapat diketahui dalam kitab fikih. Tetapi bagaimanapun banyaknya dalil yang dikemukakan, pikiran yang sehat dapat mengambil kesimpulan bahwa harta yang ditinggalkan itu tentulah tidak sedikit sebab wasiat tidak boleh melebihi sepertiga dari jumlah seluruh harta yang ditinggalkan, setelah dikeluarkan lebih dahulu apa yang wajib dikeluarkan, seperti utang-utang dan ongkos seperlunya untuk kepentingan penyelenggaraan jenazah. Kalau wasiat itu lebih dari sepertiga, maka harus mendapat persetujuan dari ahli waris.\nKalau ada yang tidak setuju, maka wasiat hanya berlaku sepertiga dari jumlah harta yang ditinggalkan, sesuai dengan sabda nabi Muhammad saw:\n\u0625\u0650\u0646\u0651\u064e \u0627\u0644\u0644\u0647 \u064e \u0623\u064e\u0639\u0652\u0637\u064e\u0627\u0643\u064f\u0645\u0652 \u062b\u064f\u0644\u064f\u062b\u064e \u0623\u064e\u0645\u0652\u0648\u064e\u0627\u0644\u0650\u0643\u064f\u0645\u0652 \u0639\u0650\u0646\u0652\u062f\u064e \u0648\u064e\u0641\u064e\u0627\u062a\u0650\u0643\u064f\u0645\u0652 \u0632\u0650\u064a\u064e\u0627\u062f\u064e\u0629\u064b \u0644\u064e\u0643\u064f\u0645\u0652 \u0641\u0650\u064a \u0623\u064e\u0639\u0652\u0645\u064e\u0627\u0644\u0650\u0643\u064f\u0645\u0652 (\u0631\u0648\u0627\u0647 \u0627\u0644\u062f\u0627\u0631\u0642\u0637\u0646\u064a \u0639\u0646 \u0645\u0639\u0627\u0630 \u0628\u0646 \u062c\u0628\u0644)\nSesungguhnya Allah telah membolehkan memberikan sepertiga dari harta kamu sewaktu dekat dengan kematian (ajal) untuk menambah kebajikan kamu. (Riwayat ad-D\u0101raqu\u1e6dn\u012b dari Mu\u2018\u0101\u017c bin Jabal)\nJadi kalau harta itu sedikit, wasiat tidak pantas dan tidak wajar dikeluarkan.\nSesudah itu ayat ini menekankan, bahwa apa yang diwasiatkan itu diberikan dan dibagi secara makruf, artinya secara baik, adil dan wajar. Jangan ada yang menerima sedikit, sedang yang lain menerima banyak, kecuali dalam hal-hal yang cukup wajar, yaitu orang yang menerima lebih banyak, karena sangat banyak kebutuhannya dibandingkan dengan yang lain.",
        "intro_surah": "Surah al-Baqarah yang terdiri dari 286 ayat adalah termasuk golongan surah Madaniyah yang diturunkan pada tahun-tahun permulaan periode Nabi Muhammad saw di Medinah. Ia merupakan surah yang terpanjang dan terbanyak ayat-ayatnya di antara surah yang ada di dalam Al-Qur\u2019an. Surah ini dinamai \u201cal-Baqarah\u201d yang berarti \u201cseekor sapi\u201d, karena di dalamnya disebutkan kisah penyembelihan sapi betina yang diperintahkan Allah kepada Bani Israil. Dalam pelaksanaan penyembelihan sapi betina itu tampak dengan jelas sifat dan watak orang-orang Yahudi pada umumnya.\nDinamakan juga fus\u1e6da\u1e6d al-Qur\u2019\u0101n yang berarti \u201cpuncak Al-Qur\u2019an\u201d karena surah ini memuat beberapa hukum yang tidak disebut di surah-surah yang lain. Juga dinamakan Al\u012bf L\u0101m M\u012bm, karena surah ini dimulai dengan huruf-huruf hijaiyah (abjad) alif l\u0101m m\u012bm.\nDi antara pokok-pokok isinya ialah:\n1.\tKeimanan: Dakwah Islamiah yang ditujukan kepada umat Islam, Ahli Kitab dan orang-orang musyrik.\n2.\tHukum: Perintah mengerjakan salat, perintah menunaikan zakat, puasa, haji dan umrah, qi\u1e63a\u1e63, yang halal dan yang haram, bernafkah di jalan Allah, minum arak dan berjudi, cara bergaul dengan anak yatim, prinsip-prinsip ekonomi, larangan memakan riba, utang piutang, nafkah dan yang berhak menerimanya, wasiat kepada dua orang ibu bapak dan kaum kerabat, hukum sumpah, kewajiban menyampaikan amanat, sihir, hukum merusak masjid, hukum mengubah kitab-kitab Allah, haid, idah, talak, khulu\u2018, il\u0101, hukum susuan, meminang, mahar, menikahi wanita musyrik dan sebaliknya, hukum perang, dan lain-lain. \n3.\tKisah: Penciptaan Nabi Adam a.s., kisah Nabi Ibrahim a.s., dan kisah Nabi Musa a.s. dengan Bani Israil.\n4.\tLain-lain, seperti: sifat orang yang bertakwa, sifat-sifat orang munafik, sifat-sifat Allah, perumpamaan-perumpamaan, kiblat, dan kebangkitan sesudah mati.",
        "outro_surah": null,
        "munasabah_prev_surah": "1.\tSurah al-F\u0101ti\u1e25ah merupakan pokok-pokok pembahasan yang akan dirinci dalam surah al-Baqarah dan surah-surah sesudahnya.\n2.\tDi bagian akhir surah al-F\u0101ti\u1e25ah disebutkan permohonan hamba, agar diberi petunjuk oleh Allah ke jalan yang lurus, sedang surah al-Baqarah dimulai dengan ayat yang menerangkan bahwa Al-Qur\u2019an adalah kitab yang menunjukkan jalan yang dimaksudkan itu.\n3.\tDi akhir surah al-F\u0101ti\u1e25ah disebutkan tiga kelompok manusia, yaitu yang diberi nikmat, yang dimurkai Allah dan orang yang sesat, sedangkan di awal surah al-Baqarah juga disebutkan tiga kelompok manusia, yaitu orang yang bertakwa, orang kafir, dan orang munafik.",
        "munasabah_prev_theme": "Setelah Allah pada ayat 178 dan 179 menerangkan tentang hukum kisas yang sangat erat hubungannya dengan kematian, maka pada ayat 180, 181 dan 182 ini, Allah menerangkan pula hukum wasiat bagi setiap orang mukmin yang merasakan ajalnya sudah dekat untuk menghadap Tuhannya, meninggalkan dunia yang fana ini.",
        "theme_group": "WASIAT",
        "kosakata": "Kosakata: Khair \u062e\u064e\u064a\u0652\u0631 (al-Baqarah/2: 180)\nKhair yaitu \u201csemua yang baik bagi manusia\u201d, seperti kecerdasan, kesehatan, kebahagiaan, dan lain-lain yang menguntungkan manusia. Allah berfirman, \u201cDan jika Allah menimpakan keburukan kepadamu maka tiada seorang pun yang dapat mengatasinya selain Dia, dan bila Ia memberikan kebaikan kepadamu maka Allah Mahakuasa atas segala sesuatu\u201d (al-An\u2018\u0101m/6:17). Dengan demikian, khair (kebaikan) lawannya adalah syarr (keburukan).\nKhair dapat pula berarti \u201charta benda yang banyak\u201d, sebagaimana firman Allah, \u201cSesungguhnya manusia mencintai harta benda teramat sangat\u201d, suatu sikap yang dicela oleh Allah dalam al-\u2018\u0100diy\u0101t/100:8. Dalam ayat ini khair berarti harta yang banyak dari orang yang dalam keadaan sekarat, harta yang akan ditinggalkan harus diwasiatkan kepada orang tua dan kerabatnya dengan cara yang ma\u2018r\u016bf. Para ulama mengatakan bahwa ayat ini di-nasakh oleh ayat waris (an-Nis\u0101\u2019/4: 11 dan 12). Khair dapat pula berbentuk kata sifat yang berarti \u201clebih baik\u201d. Contohnya firman Allah mengenai orang yang dibolehkan tidak berpuasa karena sakit, dengan menggantinya di hari lain, atau tidak mampu berpuasa karena tua, dengan membayar fidyah, \u201cBahwa puasa lebih baik bagimu jika kamu mengetahui,\u201d (al-Baqarah/2: 184).",
        "sabab_nuzul": null,
        "conclusion": null
    }
}