{
    "id": 109,
    "surah_id": 2,
    "ayah": 102,
    "page": 16,
    "quarter_hizb": 2.25,
    "juz": 1,
    "manzil": 1,
    "arabic": "\u0648\u064e\u0627\u062a\u0651\u064e\u0628\u064e\u0639\u064f\u0648\u0652\u0627 \u0645\u064e\u0627 \u062a\u064e\u062a\u0652\u0644\u064f\u0648\u0627 \u0627\u0644\u0634\u0651\u064e\u064a\u0670\u0637\u0650\u064a\u0652\u0646\u064f \u0639\u064e\u0644\u0670\u0649 \u0645\u064f\u0644\u0652\u0643\u0650 \u0633\u064f\u0644\u064e\u064a\u0652\u0645\u0670\u0646\u064e \u06da \u0648\u064e\u0645\u064e\u0627 \u0643\u064e\u0641\u064e\u0631\u064e \u0633\u064f\u0644\u064e\u064a\u0652\u0645\u0670\u0646\u064f \u0648\u064e\u0644\u0670\u0643\u0650\u0646\u0651\u064e \u0627\u0644\u0634\u0651\u064e\u064a\u0670\u0637\u0650\u064a\u0652\u0646\u064e \u0643\u064e\u0641\u064e\u0631\u064f\u0648\u0652\u0627 \u064a\u064f\u0639\u064e\u0644\u0651\u0650\u0645\u064f\u0648\u0652\u0646\u064e \u0627\u0644\u0646\u0651\u064e\u0627\u0633\u064e \u0627\u0644\u0633\u0651\u0650\u062d\u0652\u0631\u064e \u0648\u064e\u0645\u064e\u0627\u0653 \u0627\u064f\u0646\u0652\u0632\u0650\u0644\u064e \u0639\u064e\u0644\u064e\u0649 \u0627\u0644\u0652\u0645\u064e\u0644\u064e\u0643\u064e\u064a\u0652\u0646\u0650 \u0628\u0650\u0628\u064e\u0627\u0628\u0650\u0644\u064e \u0647\u064e\u0627\u0631\u064f\u0648\u0652\u062a\u064e \u0648\u064e\u0645\u064e\u0627\u0631\u064f\u0648\u0652\u062a\u064e \u06d7 \u0648\u064e\u0645\u064e\u0627 \u064a\u064f\u0639\u064e\u0644\u0651\u0650\u0645\u0670\u0646\u0650 \u0645\u0650\u0646\u0652 \u0627\u064e\u062d\u064e\u062f\u064d \u062d\u064e\u062a\u0651\u0670\u0649 \u064a\u064e\u0642\u064f\u0648\u0652\u0644\u064e\u0627\u0653 \u0627\u0650\u0646\u0651\u064e\u0645\u064e\u0627 \u0646\u064e\u062d\u0652\u0646\u064f \u0641\u0650\u062a\u0652\u0646\u064e\u0629\u064c \u0641\u064e\u0644\u064e\u0627 \u062a\u064e\u0643\u0652\u0641\u064f\u0631\u0652 \u06d7 \u0641\u064e\u064a\u064e\u062a\u064e\u0639\u064e\u0644\u0651\u064e\u0645\u064f\u0648\u0652\u0646\u064e \u0645\u0650\u0646\u0652\u0647\u064f\u0645\u064e\u0627 \u0645\u064e\u0627 \u064a\u064f\u0641\u064e\u0631\u0651\u0650\u0642\u064f\u0648\u0652\u0646\u064e \u0628\u0650\u0647\u0656 \u0628\u064e\u064a\u0652\u0646\u064e \u0627\u0644\u0652\u0645\u064e\u0631\u0652\u0621\u0650 \u0648\u064e\u0632\u064e\u0648\u0652\u062c\u0650\u0647\u0656 \u06d7 \u0648\u064e\u0645\u064e\u0627 \u0647\u064f\u0645\u0652 \u0628\u0650\u0636\u064e\u0627\u06e4\u0631\u0651\u0650\u064a\u0652\u0646\u064e \u0628\u0650\u0647\u0656 \u0645\u0650\u0646\u0652 \u0627\u064e\u062d\u064e\u062f\u064d \u0627\u0650\u0644\u0651\u064e\u0627 \u0628\u0650\u0627\u0650\u0630\u0652\u0646\u0650 \u0627\u0644\u0644\u0651\u0670\u0647\u0650 \u06d7 \u0648\u064e\u064a\u064e\u062a\u064e\u0639\u064e\u0644\u0651\u064e\u0645\u064f\u0648\u0652\u0646\u064e \u0645\u064e\u0627 \u064a\u064e\u0636\u064f\u0631\u0651\u064f\u0647\u064f\u0645\u0652 \u0648\u064e\u0644\u064e\u0627 \u064a\u064e\u0646\u0652\u0641\u064e\u0639\u064f\u0647\u064f\u0645\u0652 \u06d7 \u0648\u064e\u0644\u064e\u0642\u064e\u062f\u0652 \u0639\u064e\u0644\u0650\u0645\u064f\u0648\u0652\u0627 \u0644\u064e\u0645\u064e\u0646\u0650 \u0627\u0634\u0652\u062a\u064e\u0631\u0670\u0649\u0647\u064f \u0645\u064e\u0627 \u0644\u064e\u0647\u0657 \u0641\u0650\u0649 \u0627\u0644\u0652\u0627\u0670\u062e\u0650\u0631\u064e\u0629\u0650 \u0645\u0650\u0646\u0652 \u062e\u064e\u0644\u064e\u0627\u0642\u064d \u06d7 \u0648\u064e\u0644\u064e\u0628\u0650\u0626\u0652\u0633\u064e \u0645\u064e\u0627\u0634\u064e\u0631\u064e\u0648\u0652\u0627 \u0628\u0650\u0647\u0656\u0653 \u0627\u064e\u0646\u0652\u0641\u064f\u0633\u064e\u0647\u064f\u0645\u0652 \u06d7  \u0644\u064e\u0648\u0652 \u0643\u064e\u0627\u0646\u064f\u0648\u0652\u0627 \u064a\u064e\u0639\u0652\u0644\u064e\u0645\u064f\u0648\u0652\u0646\u064e ",
    "latin": "Wattaba\u2018\u016b m\u0101 tatlusy-syay\u0101\u1e6d\u012bnu \u2018al\u0101 mulki sulaim\u0101n(a), wa m\u0101 kafara sulaim\u0101nu wa l\u0101kinnnasy-syay\u0101\u1e6d\u012bna kafar\u016b yu\u2018allim\u016bnan-n\u0101sas si\u1e25r(a), wa m\u0101 unzila \u2018alal-malakaini bib\u0101bila h\u0101r\u016bta wa m\u0101r\u016bt(a), wa m\u0101 yu\u2018allim\u0101ni min a\u1e25adin \u1e25att\u0101 yaq\u016bl\u0101 innam\u0101 na\u1e25nu fitnatun fal\u0101 takfur, fayata\u2018allam\u016bna minhum\u0101 m\u0101 yufarriq\u016bna bih\u012b bainal-mar'i wa zaujih(\u012b), wa m\u0101 hum bi\u1e0darr\u012bna bih\u012b min a\u1e25adin ill\u0101 bi'i\u017cnill\u0101h(i), wa yata\u2018allam\u016bna m\u0101 ya\u1e0durruhum wa l\u0101 yanfa\u2018uhum, wa laqad \u2018alim\u016b lamanisytar\u0101hu m\u0101 lah\u016b fil-\u0101khirati min khal\u0101q(in), wa labi'sa m\u0101 syarau bih\u012b anfusahum, lau k\u0101n\u016b ya\u2018lam\u016bn(a).  ",
    "translation": "Mereka mengikuti apa yang dibaca oleh setan-setan pada masa Kerajaan Sulaiman. Sulaiman itu tidak kufur, tetapi setan-setan itulah yang kufur. Mereka mengajarkan sihir kepada manusia dan apa yang diturunkan kepada dua malaikat di negeri Babilonia, yaitu Harut dan Marut. Padahal, keduanya tidak mengajarkan sesuatu kepada seseorang sebelum mengatakan, \u201cSesungguhnya kami hanyalah fitnah (cobaan bagimu)32) oleh sebab itu janganlah kufur!\u201d Maka, mereka mempelajari dari keduanya (malaikat itu) apa yang (dapat) memisahkan antara seorang (suami) dan istrinya. Mereka tidak akan dapat mencelakakan seseorang dengan (sihir)-nya, kecuali dengan izin Allah. Mereka mempelajari sesuatu yang mencelakakan dan tidak memberi manfaat kepada mereka. Sungguh, mereka benar-benar sudah mengetahui bahwa siapa yang membeli (menggunakan sihir) itu niscaya tidak akan mendapat keuntungan di akhirat. Sungguh, buruk sekali perbuatan mereka yang menjual dirinya dengan sihir jika mereka mengetahui(-nya).",
    "no_footnote": "32",
    "footnotes": "32) Dalam Al-Qur\u2019an, kata fitnah digunakan untuk menyatakan sejumlah makna sesuai dengan konteksnya, seperti \u2018ujian\u2019, \u2018cobaan\u2019, \u2018azab\u2019, \u2018menghalangi kebenaran\u2019, dan \u2018mengusir orang dari kampung halamannya\u2019.",
    "surah": {
        "id": 2,
        "arabic": " \u0627\u0644\u0628\u0642\u0631\u0629",
        "latin": "Al-Baqarah ",
        "transliteration": "Al-Baqarah",
        "translation": "Sapi",
        "num_ayah": 286,
        "page": 2,
        "location": "Madaniyah"
    },
    "tafsir": {
        "wajiz": "Dan mereka, yakni sebagian pendeta-pendeta Yahudi yang meninggalkan Taurat, mengikuti apa yang dibaca oleh setan-setan pada masa kerajaan Sulaiman. Ketika Rasulullah menye butkan Sulaiman sebagai seorang nabi, sebagian pendeta Yahudi mengatakan, \u201cTidakkah kamu heran karena Muhammad mengatakan bahwa Sulaiman bin Daud adalah nabi, padahal ia adalah seorang tukang sihir?\u201d Allah lalu menurunkan ayat yang menyatakan bahwa Sulaiman itu tidak kafir, tidak pula tukang sihir, tetapi setan-setan itulah yang kafir, mereka mengajarkan sihir kepada manusia dan apa yang diturunkan kepada dua malaikat di negeri Babilonia, yaitu Harut dan Marut. Padahal keduanya tidak mengajarkan sesuatu kepada seseorang sebelum mengatakan. \u201cSesungguhnya kami hanyalah cobaan yang Allah turunkan bagimu, sebab itu janganlah kafir dan jangan pula kamu mengguna kannya untuk mencelakakan orang lain!\u201d Maka mereka mempelajari dari keduanya, kedua malaikat itu, apa, yakni sihir yang dapat memisahkan antara seorang suami dengan istrinya. Mereka tidak akan dapat mencelakakan seseorang dengan sihirnya kecuali dengan izin Allah. Mereka mempelajari sesuatu yang mencela kakan dan tidak memberi manfaat kepada mereka. Dan sungguh, mereka sudah tahu, barang siapa membeli atau menggunakan sihir itu, niscaya tidak akan mendapat keuntungan di akhirat. Dan sungguh, sangatlah buruk perbuatan mereka yang menjual dirinya dengan sihir, sekiranya mereka tahuDan jika mereka beriman dan bertakwa, takut kepada azab Allah, pahala dari Allah pasti lebih baik daripada sihir yang menyibukkan mereka, sekiranya mereka tahu",
        "tahlili": "Orang-orang Yahudi mengikuti sihir yang dibacakan oleh setan pada masa Sulaiman putra Daud, meskipun mereka tahu, bahwa yang demikian itu sebenarnya salah. Mereka menuduh bahwa Nabi Sulaiman yang menghimpun kitab sihir, dan menyimpan di bawah tahtanya, kemudian dikeluarkan dan disiarkan.\nDugaan seperti ini adalah suatu pemalsuan dan perbuatan yang dipengaruhi oleh hawa nafsu. Sebenarnya mereka hanya menghubung-hubungkan sihir itu pada Nabi Sulaiman. Nabi Sulaiman tidak mengajarkan atau mempraktekkan sihir karena ia mengetahui bahwa perbuatan yang demikian itu termasuk mengingkari Tuhan, apalagi kalau ditinjau dari kedudukannya sebagai nabi, mustahillah ia mempraktekkan sihir.\nKisah tentang sihir banyak dituturkan dalam Al-Qur\u2019an terutama dalam kisah Musa dan Fir\u2018aun. Dalam kisah itu diterangkan sifat-sifat sihir, bahwa sihir itu adalah sulapan yang menipu pandangan mata, sehingga orang yang melihat mengira, bahwa yang terlihat seolah-olah keadaan yang sebenarnya. Hal ini dijelaskan dalam firman Allah:\n\u064a\u064f\u062e\u064e\u064a\u0651\u064e\u0644\u064f \u0627\u0650\u0644\u064e\u064a\u0652\u0647\u0650 \u0645\u0650\u0646\u0652 \u0633\u0650\u062d\u0652\u0631\u0650\u0647\u0650\u0645\u0652 \u0627\u064e\u0646\u0651\u064e\u0647\u064e\u0627 \u062a\u064e\u0633\u0652\u0639\u0670\u0649 \n\u201c\u2026Terbayang olehnya (Musa) seakan-akan ular merayap cepat, karena sihir mereka\u2026. (\u1e6c\u0101h\u0101/20:66)\nDan sesuai dengan firman Allah:\n\u0633\u064e\u062d\u064e\u0631\u064f\u0648\u0652\u0653\u0627 \u0627\u064e\u0639\u0652\u064a\u064f\u0646\u064e \u0627\u0644\u0646\u0651\u064e\u0627\u0633\u0650 \u0648\u064e\u0627\u0633\u0652\u062a\u064e\u0631\u0652\u0647\u064e\u0628\u064f\u0648\u0652\u0647\u064f\u0645\u0652 \n\u201c\u2026Mereka menyihir mata orang banyak dan menjadikan orang banyak itu takut,\u2026 (al-A\u2018r\u0101f/7:116)\nSihir termasuk sesuatu yang tersembunyi, yang hanya diketahui oleh sebagian manusia saja. Tetapi apa yang telah terjadi menunjukkan bahwa kedua malaikat[11] itu tidak mampu memberikan pengaruh gaib yang melebihi kemampuan manusia, bahkan yang disebut kekuatan gaib oleh mereka itu hanyalah kemahiran dalam menguasai sebab-sebab yang mempunyai perpautan dengan akibat yang dilakukan. Hal ini hanyalah terjadi karena izin Allah semata-mata, sesuai dengan hukum yang telah ditetapkan-Nya.\nDalam praktek, tukang-tukang sihir itu membaca mantera dengan menyebut nama-nama setan dan raja-raja jin agar timbul kesan seolah-olah manteranya itu dikabulkan oleh raja jin. Atas dasar praktek mereka inilah timbul anggapan yang merata dalam lapisan masyarakat, bahwa sihir itu dibantu oleh setan.\nKemudian orang Yahudi yang sezaman dengan Nabi Muhammad saw menyebarluaskan sihir itu di kalangan orang-orang Islam dengan tujuan untuk menyesatkan. Mereka dapati sihir itu dari nenek moyang mereka yang mengatakan sihir itu dari Sulaiman a.s.. Padahal kedua malaikat tidak mengajarkan sihir kepada seorang pun, sebelum memberikan nasihat agar orang jangan mengamalkan sihir itu, sebab orang yang mempraktekkan sihir itu adalah kafir.\nAyat 102 ini tidak lepas dari ayat 101 sebelumnya. Sebagian Ahli Kitab itu meninggalkan Kitab mereka (Taurat) dan mengikuti bisikan manusia-manusia setan (syay\u0101\u1e6d\u012bn) yang mengajarkan sihir pada masa Nabi Sulaiman. Ayat ini membantah tuduhan kelompok Yahudi, bahwa ia mendapatkan kekuasaan dan kekayaannya melalui sihir (Zamakhsyari 1/230), juga menolak pernyataan Bibel, bahwa Sulaiman telah berdosa dengan melakukan praktek syirik. Dia dituduh beristrikan 700 perempuan bangsawan asing dan 300 gundik. Karena kebanyakan mereka penyembah berhala, maka Sulaiman juga pada masa tuanya terpengaruh oleh mereka, cenderung percaya kepada berhala-berhala dan dewa-dewa\u2014tidak seperti bapanya Daud (Kitab Raja-Raja I, 11:1-10).\nHarut dan Marut yang disebutkan dalam ayat ini adalah dua orang di Babilonia, sekitar Sungai Furat di Irak, \u201cyang berpura-pura seperti orang saleh dan bertakwa. Mereka mengajarkan sihir kepada masyarakat, sehingga keduanya dikira dua malaikat yang turun dari langit, dan yang diajarkan dikira wahyu dari Allah. Mereka pandai sekali menipu dan menjaga itikad baik masyarakat kepada mereka, maka mereka berkata kepada setiap orang yang ingin belajar dari mereka, bahwa \u201cKami hanyalah cobaan, janganlah kamu menjadi kafir,\u201d yakni bahwa mereka para penguji \u201cyang akan menguji kamu, akan bersyukur atau akan kufur. Maka kami menasihati kalian, janganlah menjadi kafir.\u201d Mereka berkata begitu untuk memberi kesan bahwa ilmu yang mereka bawa dari Tuhan, dan praktek mereka untuk kepentingan rohani. Tapi tujuannya hanya demi merusak keharmonisan. Dalam hal ini orang-orang Yahudi punya banyak tahayul. Mereka percaya bahwa sihir yang diturunkan kepada mereka sungguh dari Tuhan. Kedatangan kedua malaikat itu hanya untuk mengajar manusia. Maka Al-Qur\u2019an datang membantah anggapan mereka, bahwa itu datang dari langit, dan mengecam keras mereka yang belajar dan mengajarkannya...\u201d (al-Q\u0101sim\u012b 1/210).\nMengutip al-\u1e24asan al-Ba\u1e63r\u012b, al-Zamakhsyar\u012b (1/230) mengatakan bahwa kata malakaini (dua malaikat) ini dibaca malikaini (dua raja). Muhammad Asad menambahkan, bahwa Ibn Abbas dan tabi\u2018in berikutnya, seperti al-\u1e24asan al-Ba\u1e63r\u012b, Abu al-Aswad a\u1e0d-\u1e0cahh\u0101k juga membacanya malikaini. Adapun dua malaikat itu adalah Jibril dan Mikhail, mereka yang mengajarkan sihir kepada Sulaiman, seperti yang dituduhkan oleh orang-orang Yahudi itu. Sedang dua raja adalah Daud dan Sulaim\u0101n.\nTentang kata Wa m\u0101 unzila \u2018al\u0101 al-malakaini, pendapat para mufasir tidak sama, ada yang mengatakan m\u0101 nafiyyah (\u201ctidak diturunkan\u201d) ada pula yang berpendapat m\u0101 ismiyyah atau isim mau\u1e63\u016bl (\u201capa yang diturunkan\u201d), dan sebagainya. Tetapi perbedaan gramatikal ini rasanya kurang perlu dibahas di sini.\nDengan mengacu kepada tafsir-tafsir Haqq\u0101n\u012b, Bai\u1e0d\u0101wi dan ar-R\u0101z\u012b, kita coba meringkaskan apa yang disebutkan dalam tafsir Abdullah Yusuf Ali, bahwa \u201cKata \u2018para malaikat\u2019 yang diterapkan pada Harut dan Marut ialah kata kiasan, yang berarti \u2018orang-orang baik, berpengetahuan, berilmu (atau arif bijaksana) dan punya kekuatan\u201d, seperti kata \u2019malaikat\u2019 dalam bahasa-bahasa modern juga dipakai untuk perempuan yang baik dan cantik, dan bagi mereka berlaku segala sifat keindahan, yang juga berarti kebaikan, pengetahuan, kearifan dan kekuatan.\n\u201cHarut dan Marut hidup di Babilonia, pusat ilmu paling tua, terutama dalam astronomi. Diperkirakan masanya sekitar zaman Kerajaan Kuno di Timur, sangat kuat dan maju. Malah mungkin lebih tua lagi, mengingat Marut atau Marduk merupakan pahlawan yang didewakan dan kemudian dipuja sebagai dewa sihir di Babilonia. Agak berbeda dengan pendapat al-Q\u0101sim\u012b di atas, ia menyebutkan bahwa Harut dan Marut sebagai manusia yang baik tidak mau menceburkan diri ke dalam kejahatan, mereka bersih dari segala penipuan. Ilmu dan seni jika dipelajari oleh orang jahat dapat digunakan untuk kejahatan pula. Di samping praktek sihirnya yang keji, setan juga belajar tentang ilmu yang benar itu sedikit-sedikit dan akan digunakannya untuk maksud-maksud jahat tadi. Harut dan Marut bukan mau menyembunyikan ilmu, namun mereka belum pernah mengajarkan kepada siapa pun tanpa memberikan peringatan mengenai bahaya dan godaan ilmu semacam itu bila berada di tangan orang jahat. Mereka melihat bukan tidak mungkin orang-orang jahat itu akan terjerumus ke dalam kekufuran dan akan jadi sombong karena ilmunya. Ilmu ini memang merupakan cobaan dan godaan; kalau sudah diberi peringatan, tahulah kita akan bahayanya. (Abdullah Yusuf Ali: C. 107).\nYusuf Ali menambahkan, \u201cDi antara sekian banyak cerita Israiliat dalam Midrash (Kitab Tafsir Yahudi) ada sebuah cerita tentang dua malaikat yang memohonkan izin kepada Allah hendak turun ke bumi ini, tetapi kemudian mereka menyerah kepada godaan, lalu sebagai hukuman mereka digantung di Babilonia dengan kaki di atas. Cerita-cerita tentang para malaikat yang berdosa yang telah menerima hukuman demikian sudah menjadi kepercayaan kalangan kristiani dahulu juga. (Lihat Surat Petrus yang Kedua, 2, 4, dan Surat Yudas, ayat 6).\nApa yang dipelajari oleh setan dari Harut dan Marut mereka ubah untuk maksud-maksud jahat. Karena dicampur dengan kepalsuan dan penipuan, maka lahirlah segala jimat-jimat, mantera dan guna-guna. Tetapi lepas dari mudarat yang dibuat oleh penipu-penipu yang hendak ditimpakannya kepada orang lain itu, mudarat atau bahaya yang mereka lakukan itu akan menimpa jiwa mereka sendiri. Mereka menjual diri sendiri menjadi budak kejahatan (Idem).\nAyat ini sebenarnya tidak menunjukkan hakikat sihir. Apakah sihir itu berpengaruh secara tabi'i atau disebabkan oleh sesuatu yang sangat misteri, juga tidak diterangkan apakah sihir itu dapat memberi pengaruh kepada manusia dengan cara yang tidak biasa, atau sama sekali tidak memberikan pengaruh apa-apa. Ringkasnya, Allah tidak memberikan keterangan secara terinci. Andaikan Allah memandang baik menerangkan hakikat sihir itu dan bermanfaat bagi manusia, tentulah Allah akan menerangkannya secara terperinci.\nSeterusnya Allah menjelaskan bahwa sihir tidak memberikan manfaat sedikit pun kepada manusia, bahkan memberikan mudarat. Oleh sebab itu, Allah mengancam orang yang mempraktekkannya dengan siksaan. Orang-orang Yahudi pun sebetulnya telah mengetahui bahwa sihir memudaratkan manusia, dan seharusnya mereka membencinya. Tetapi, karena ada maksud jahat yang terkandung dalam hati mereka untuk menyesatkan orang Islam, mereka pun mau mengerjakannya. Oleh karena itulah, Allah mencela perbuatan sihir dan memasukkan orang yang melakukannya ke dalam golongan orang yang memilih perbuatan sesat. Selanjutnya Allah menegaskan bahwa di akhirat mereka tidak akan mendapat kebahagiaan sedikit pun. Karena mereka yang telah memilih perbuatan sihir, berarti mereka telah menyalahi hukum yang termuat dalam Taurat, padahal dalam Kitab mereka sendiri terdapat juga ketentuan bahwa orang yang mengikuti bisikan jin, setan dan dukun itu, sama hukumnya dengan orang yang menyembah berhala dan patung.\nLebih jauh Allah menjelaskan bahwa sihir yang mereka kerjakan itu sangat jelek, Allah menggambarkan orang yang memilih perbuatan sihir sebagai kesenangannya seperti orang yang menjual iman dengan kesesatan. Gambaran serupa ini gunanya untuk menyingkapkan selubung mereka, agar kesadarannya dapat terbuka dan mengetahui bahwa manusia diciptakan Allah untuk berbakti kepada-Nya. Dengan kata lain, andaikata mereka mengetahui kesesatan orang yang mempelajari dan mempraktekkan sihir, tentulah mereka tidak akan melakukannya. Tetapi mereka telah jauh tertipu, sehingga mereka beranggapan bahwa sihir itu termasuk ilmu pengetahuan, dan mereka merasa puas dengan ilmu yang tidak terbukti kebenarannya dan tidak memberikan pengaruh apa pun kepada jiwa seseorang kecuali dengan izin Allah.",
        "intro_surah": "Surah al-Baqarah yang terdiri dari 286 ayat adalah termasuk golongan surah Madaniyah yang diturunkan pada tahun-tahun permulaan periode Nabi Muhammad saw di Medinah. Ia merupakan surah yang terpanjang dan terbanyak ayat-ayatnya di antara surah yang ada di dalam Al-Qur\u2019an. Surah ini dinamai \u201cal-Baqarah\u201d yang berarti \u201cseekor sapi\u201d, karena di dalamnya disebutkan kisah penyembelihan sapi betina yang diperintahkan Allah kepada Bani Israil. Dalam pelaksanaan penyembelihan sapi betina itu tampak dengan jelas sifat dan watak orang-orang Yahudi pada umumnya.\nDinamakan juga fus\u1e6da\u1e6d al-Qur\u2019\u0101n yang berarti \u201cpuncak Al-Qur\u2019an\u201d karena surah ini memuat beberapa hukum yang tidak disebut di surah-surah yang lain. Juga dinamakan Al\u012bf L\u0101m M\u012bm, karena surah ini dimulai dengan huruf-huruf hijaiyah (abjad) alif l\u0101m m\u012bm.\nDi antara pokok-pokok isinya ialah:\n1.\tKeimanan: Dakwah Islamiah yang ditujukan kepada umat Islam, Ahli Kitab dan orang-orang musyrik.\n2.\tHukum: Perintah mengerjakan salat, perintah menunaikan zakat, puasa, haji dan umrah, qi\u1e63a\u1e63, yang halal dan yang haram, bernafkah di jalan Allah, minum arak dan berjudi, cara bergaul dengan anak yatim, prinsip-prinsip ekonomi, larangan memakan riba, utang piutang, nafkah dan yang berhak menerimanya, wasiat kepada dua orang ibu bapak dan kaum kerabat, hukum sumpah, kewajiban menyampaikan amanat, sihir, hukum merusak masjid, hukum mengubah kitab-kitab Allah, haid, idah, talak, khulu\u2018, il\u0101, hukum susuan, meminang, mahar, menikahi wanita musyrik dan sebaliknya, hukum perang, dan lain-lain. \n3.\tKisah: Penciptaan Nabi Adam a.s., kisah Nabi Ibrahim a.s., dan kisah Nabi Musa a.s. dengan Bani Israil.\n4.\tLain-lain, seperti: sifat orang yang bertakwa, sifat-sifat orang munafik, sifat-sifat Allah, perumpamaan-perumpamaan, kiblat, dan kebangkitan sesudah mati.",
        "outro_surah": null,
        "munasabah_prev_surah": "1.\tSurah al-F\u0101ti\u1e25ah merupakan pokok-pokok pembahasan yang akan dirinci dalam surah al-Baqarah dan surah-surah sesudahnya.\n2.\tDi bagian akhir surah al-F\u0101ti\u1e25ah disebutkan permohonan hamba, agar diberi petunjuk oleh Allah ke jalan yang lurus, sedang surah al-Baqarah dimulai dengan ayat yang menerangkan bahwa Al-Qur\u2019an adalah kitab yang menunjukkan jalan yang dimaksudkan itu.\n3.\tDi akhir surah al-F\u0101ti\u1e25ah disebutkan tiga kelompok manusia, yaitu yang diberi nikmat, yang dimurkai Allah dan orang yang sesat, sedangkan di awal surah al-Baqarah juga disebutkan tiga kelompok manusia, yaitu orang yang bertakwa, orang kafir, dan orang munafik.",
        "munasabah_prev_theme": "Pada ayat-ayat yang lalu diterangkan bahwa Nabi Muhammad saw diutus Allah dengan membawa wahyu (Al-Qur\u2019an) yang membenarkan kitab Taurat. Segolongan besar ahli kitab tidak lagi memelihara kemurnian kitab mereka sehingga mereka tidak lagi menempuh jalan yang benar. Dalam ayat ini Allah menjelaskan, bahwa dalam usaha mereka untuk mengacaukan ajaran Islam, mereka berusaha menyebarkan sihir, yang mereka pelajari dari nenek moyang mereka sejak zaman Nabi Sulaiman. Mereka menganggap bahwa sihir itu adalah ajaran Nabi Sulaiman.",
        "theme_group": "TUDUHAN ORANG YAHUDI TERHADAP NABI SULAIMAN",
        "kosakata": "Kosakata: as-Si\u1e25r \u0627\u064e\u0644\u0633\u0651\u0650\u062d\u0652\u0631\u064e  (al-Baqarah/2: 102) \nBiasanya sihir dan sulap yang negatif berupa usaha pengelabuan penglihatan, pikiran, perasaan, atau perbuatan manusia. Ada dua macam sihir: 1) Sihir gaib (celestial magic), dihubungkan dengan berbagai macam roh yang dipercaya menguasai planet-planet dan berpengaruh terhadap alam nyata. 2) Sihir alami (natural magic), seni atau cara memanfaatkan kekuatan alam sehingga menghasilkan sesuatu yang tampak atau terasa lain, gaib, dan adikodrati (supernatural). Kepercayaan demikian, termasuk ramalan, sihir, tahayul dan semacamnya sudah ada sepanjang sejarah, baik di kalangan awam maupun terpelajar, pada zaman primitif atau pada masa sekarang. Dalam kitab-kitab tafsir, ayat ini biasa ditafsirkan beraneka macam dan dibahas panjang lebar, karena memang perlu diberi penjelasan.\nSi\u1e25r dalam bahasa Arab banyak artinya, antara lain menyihir dan menyulap mata orang banyak dengan tongkat, atau tali dan tongkat (al-A\u2018r\u0101f/ 7: 116 dan \u1e6c\u0101h\u0101/20: 66) sehingga tampak seperti ular di mata atau dalam khayalan mereka (al-A\u2018r\u0101f/7: 117 dan asy-Syu\u2018ar\u0101\u2019/26: 32). Tetapi dalam hal ini sudah diperingatkan, bahwa perbuatan perusak kemanusiaan yang dilakukan oleh para pesihir itu tidak akan berhasil (Y\u016bnus/10:77; \u1e6c\u0101h\u0101/20:69) karena kepercayaan kepada sihir dan praktek sihir adalah kufur dan bertolak belakang dengan keimanan tauhid. Sihir berarti juga pesona, seperti orang yang terpesona oleh suatu penampilan atau oleh retorika dalam kata-kata, seperti dalam hadis, bahwa kefasihan berbahasa atau berbicara dengan retorika sama dengan sihir (membuat pendengarnya terpesona). ",
        "sabab_nuzul": null,
        "conclusion": null
    }
}