{
    "id": 130,
    "surah_id": 2,
    "ayah": 123,
    "page": 19,
    "quarter_hizb": 2.5,
    "juz": 1,
    "manzil": 1,
    "arabic": "\u0648\u064e\u0627\u062a\u0651\u064e\u0642\u064f\u0648\u0652\u0627 \u064a\u064e\u0648\u0652\u0645\u064b\u0627 \u0644\u0651\u064e\u0627 \u062a\u064e\u062c\u0652\u0632\u0650\u064a\u0652 \u0646\u064e\u0641\u0652\u0633\u064c \u0639\u064e\u0646\u0652 \u0646\u0651\u064e\u0641\u0652\u0633\u064d \u0634\u064e\u064a\u0652\u0640\u0654\u064b\u0627 \u0648\u0651\u064e\u0644\u064e\u0627 \u064a\u064f\u0642\u0652\u0628\u064e\u0644\u064f \u0645\u0650\u0646\u0652\u0647\u064e\u0627 \u0639\u064e\u062f\u0652\u0644\u064c \u0648\u0651\u064e\u0644\u064e\u0627 \u062a\u064e\u0646\u0652\u0641\u064e\u0639\u064f\u0647\u064e\u0627 \u0634\u064e\u0641\u064e\u0627\u0639\u064e\u0629\u064c \u0648\u0651\u064e\u0644\u064e\u0627 \u0647\u064f\u0645\u0652 \u064a\u064f\u0646\u0652\u0635\u064e\u0631\u064f\u0648\u0652\u0646\u064e ",
    "latin": "Wattaq\u016b yaumal l\u0101 tajz\u012b nafsun \u2018an nafsin syai'aw wa l\u0101 yuqbalu minh\u0101 \u2018adluw wa l\u0101 tanfa\u2018uh\u0101 syaf\u0101\u2018atuw wa l\u0101 hum yun\u1e63ar\u016bn(a). ",
    "translation": "Takutlah kamu pada hari (ketika) tidak seorang pun dapat menggantikan (membela) orang lain sedikit pun, tebusannya tidak diterima, syafaat tidak berguna baginya, dan mereka tidak akan ditolong.",
    "no_footnote": null,
    "footnotes": null,
    "surah": {
        "id": 2,
        "arabic": " \u0627\u0644\u0628\u0642\u0631\u0629",
        "latin": "Al-Baqarah ",
        "transliteration": "Al-Baqarah",
        "translation": "Sapi",
        "num_ayah": 286,
        "page": 2,
        "location": "Madaniyah"
    },
    "tafsir": {
        "wajiz": "Dan takutlah kamu dengan cara menjaga diri agar tidak mendapat siksa pada keadaan yang sangat mengerikan di hari Kiamat, yaitu ketika tidak seorang pun dapat menggantikan atau membela orang lain sedikit pun. Pada hari itu, tebusan dalam bentuk apa pun untuk menghindari siksa tidak akan diterima, dan bantuan maupun perantara tidak berguna baginya, dan mereka tidak akan ditolong. Ini mengisyaratkan bahwa berbagai kenikmatan di dunia yang Allah berikan kepada Bani Israil dan umat lain tidak menjamin hal serupa akan Allah berikan kepada mereka di akhirat. ",
        "tahlili": "Bani Israil diperingatkan agar selalu mengikuti agama Allah. Hendaklah mereka ingat akan kedatangan suatu hari, yang pada hari itu tidak ada sesuatu pun yang dapat menolong kecuali Allah.\nPada hari itu seseorang tidak dapat menolong orang lain menghindari diri dari azab Allah, tiap-tiap orang bertanggung jawab atas segala perbuatan yang pernah dilakukannya. Seseorang tidak dapat menebus dosanya dengan harta apa pun, dan seseorang tidak dapat menggantikan orang lain memikul azab.[19]\nAyat ini memperingatkan orang-orang yang beriman agar selalu menjaga diri dari azab hari Kiamat dengan melaksanakan semua perintah dan menghentikan larangan Allah.",
        "intro_surah": "Surah al-Baqarah yang terdiri dari 286 ayat adalah termasuk golongan surah Madaniyah yang diturunkan pada tahun-tahun permulaan periode Nabi Muhammad saw di Medinah. Ia merupakan surah yang terpanjang dan terbanyak ayat-ayatnya di antara surah yang ada di dalam Al-Qur\u2019an. Surah ini dinamai \u201cal-Baqarah\u201d yang berarti \u201cseekor sapi\u201d, karena di dalamnya disebutkan kisah penyembelihan sapi betina yang diperintahkan Allah kepada Bani Israil. Dalam pelaksanaan penyembelihan sapi betina itu tampak dengan jelas sifat dan watak orang-orang Yahudi pada umumnya.\nDinamakan juga fus\u1e6da\u1e6d al-Qur\u2019\u0101n yang berarti \u201cpuncak Al-Qur\u2019an\u201d karena surah ini memuat beberapa hukum yang tidak disebut di surah-surah yang lain. Juga dinamakan Al\u012bf L\u0101m M\u012bm, karena surah ini dimulai dengan huruf-huruf hijaiyah (abjad) alif l\u0101m m\u012bm.\nDi antara pokok-pokok isinya ialah:\n1.\tKeimanan: Dakwah Islamiah yang ditujukan kepada umat Islam, Ahli Kitab dan orang-orang musyrik.\n2.\tHukum: Perintah mengerjakan salat, perintah menunaikan zakat, puasa, haji dan umrah, qi\u1e63a\u1e63, yang halal dan yang haram, bernafkah di jalan Allah, minum arak dan berjudi, cara bergaul dengan anak yatim, prinsip-prinsip ekonomi, larangan memakan riba, utang piutang, nafkah dan yang berhak menerimanya, wasiat kepada dua orang ibu bapak dan kaum kerabat, hukum sumpah, kewajiban menyampaikan amanat, sihir, hukum merusak masjid, hukum mengubah kitab-kitab Allah, haid, idah, talak, khulu\u2018, il\u0101, hukum susuan, meminang, mahar, menikahi wanita musyrik dan sebaliknya, hukum perang, dan lain-lain. \n3.\tKisah: Penciptaan Nabi Adam a.s., kisah Nabi Ibrahim a.s., dan kisah Nabi Musa a.s. dengan Bani Israil.\n4.\tLain-lain, seperti: sifat orang yang bertakwa, sifat-sifat orang munafik, sifat-sifat Allah, perumpamaan-perumpamaan, kiblat, dan kebangkitan sesudah mati.",
        "outro_surah": null,
        "munasabah_prev_surah": "1.\tSurah al-F\u0101ti\u1e25ah merupakan pokok-pokok pembahasan yang akan dirinci dalam surah al-Baqarah dan surah-surah sesudahnya.\n2.\tDi bagian akhir surah al-F\u0101ti\u1e25ah disebutkan permohonan hamba, agar diberi petunjuk oleh Allah ke jalan yang lurus, sedang surah al-Baqarah dimulai dengan ayat yang menerangkan bahwa Al-Qur\u2019an adalah kitab yang menunjukkan jalan yang dimaksudkan itu.\n3.\tDi akhir surah al-F\u0101ti\u1e25ah disebutkan tiga kelompok manusia, yaitu yang diberi nikmat, yang dimurkai Allah dan orang yang sesat, sedangkan di awal surah al-Baqarah juga disebutkan tiga kelompok manusia, yaitu orang yang bertakwa, orang kafir, dan orang munafik.",
        "munasabah_prev_theme": "Ayat-ayat yang telah lalu menerangkan keingkaran Ahli Kitab terhadap ajakan Nabi Muhammad saw untuk mengikuti agama Allah yang hak. Hati mereka tidak akan tenteram sehingga Nabi Muhammad saw mengikuti agama mereka, seolah-olah Allah memutuskan harapan Nabi Muhammad saw. Ayat ini menerangkan bahwa ada di antara Ahli Kitab yang membaca Kitab yang diturunkan Allah dengan sebenarnya, mengikuti dan mengamal-kan apa yang tertulis di dalamnya, tidak mengubah, menambah, mengurangi, atau menakwilkan menurut kehendaknya. Mereka adalah orang-orang yang bersih hatinya, mereka pasti beriman kepada Nabi Muhammad saw, berbahagia di dunia dan di akhirat.",
        "theme_group": "SERUAN ALLAH KEPADA BANI ISRAIL\nYANG BENAR-BENAR BERIMAN",
        "kosakata": "Kosakata: al-Kit\u0101b \u0627\u064e\u0644\u0652\u0643\u0650\u062a\u064e\u0627\u0628\u064f (al-Baqarah/2: 121)\nAl-Kit\u0101b asal katanya adalah masdar dari kataba yang berarti \u201cmenulis\u201d, kemudian dipakai untuk sesuatu yang ditulis atau makt\u016bb. Arti kata dasarnya kataba adalah \u201cmengumpulkan\u201d. Menulis adalah pekerjaan mengumpulkan huruf-huruf menjadi kalimat dan ungkapan. Yang dimaksud \u201ckitab\u201d dalam ayat ini adalah kitab suci Taurat dan Injil. Al-Kit\u0101b ditulis dalam bentuk tunggal bukan jamak karena isi kitab suci pada intinya sama. Maksud kata al-Kit\u0101b dalam ayat ini adalah orang-orang yang diberi kitab Taurat dan Injil, benar-benar membacanya dengan tidak mengubah atau menggantinya serta mengikuti ajaran kitab suci tersebut.",
        "sabab_nuzul": null,
        "conclusion": "1.\tDi antara orang Yahudi ada yang membaca kitab Allah dengan sepenuh hati, mengamalkan semua isinya, tidak menambah, mengurangi dan mengubahnya. Mereka adalah orang-orang yang beriman kepada kitab-kitab itu dan beriman kepada Allah.\n2.\tDalam membaca Al-Qur\u2019an hendaklah kaum Muslimin membaca         Al-Qur\u2019an dengan sepenuh hati, membacanya dengan perlahan-lahan, meresapi arti dan maksudnya, tidak mengurangi atau menafsirkannya sesuai dengan keinginan hawa nafsu. Bila tidak demikian, maka           Al-Qur\u2019an itu tidak akan menjadi petunjuk yang mengarahkan mereka ke jalan yang benar.\n3.\tAmat banyak nikmat yang telah dilimpahkan Allah kepada Bani Israil, tetapi mereka tetap ingkar. Hendaklah hal ini menjadi pelajaran bagi orang-orang yang beriman."
    }
}