{
    "id": 139,
    "surah_id": 2,
    "ayah": 132,
    "page": 20,
    "quarter_hizb": 2.75,
    "juz": 1,
    "manzil": 1,
    "arabic": "\u0648\u064e\u0648\u064e\u0635\u0651\u0670\u0649 \u0628\u0650\u0647\u064e\u0627\u0653 \u0627\u0650\u0628\u0652\u0631\u0670\u0647\u0656\u0645\u064f \u0628\u064e\u0646\u0650\u064a\u0652\u0647\u0650 \u0648\u064e\u064a\u064e\u0639\u0652\u0642\u064f\u0648\u0652\u0628\u064f\u06d7 \u064a\u0670\u0628\u064e\u0646\u0650\u064a\u0651\u064e \u0627\u0650\u0646\u0651\u064e \u0627\u0644\u0644\u0651\u0670\u0647\u064e \u0627\u0635\u0652\u0637\u064e\u0641\u0670\u0649 \u0644\u064e\u0643\u064f\u0645\u064f \u0627\u0644\u062f\u0651\u0650\u064a\u0652\u0646\u064e \u0641\u064e\u0644\u064e\u0627 \u062a\u064e\u0645\u064f\u0648\u0652\u062a\u064f\u0646\u0651\u064e \u0627\u0650\u0644\u0651\u064e\u0627 \u0648\u064e\u0627\u064e\u0646\u0652\u062a\u064f\u0645\u0652 \u0645\u0651\u064f\u0633\u0652\u0644\u0650\u0645\u064f\u0648\u0652\u0646\u064e \u06d7",
    "latin": "Wa wa\u1e63\u1e63\u0101 bih\u0101 ibr\u0101h\u012bmu ban\u012bhi wa ya\u2018q\u016bb(u), y\u0101 baniyya innall\u0101ha\u1e63\u1e6daf\u0101 lakumud-d\u012bna fal\u0101 tam\u016btunna ill\u0101 wa antum muslim\u016bn(a).  ",
    "translation": "Ibrahim mewasiatkan (ucapan) itu kepada anak-anaknya dan demikian pula Ya\u2018qub, \u201cWahai anak-anakku, sesungguhnya Allah telah memilih agama ini untukmu. Janganlah kamu mati kecuali dalam keadaan muslim.\u201d",
    "no_footnote": null,
    "footnotes": null,
    "surah": {
        "id": 2,
        "arabic": " \u0627\u0644\u0628\u0642\u0631\u0629",
        "latin": "Al-Baqarah ",
        "transliteration": "Al-Baqarah",
        "translation": "Sapi",
        "num_ayah": 286,
        "page": 2,
        "location": "Madaniyah"
    },
    "tafsir": {
        "wajiz": "Salah satu faktor yang membuat kedudukan Nabi Ibrahim tinggi di dunia dan akhirat adalah Islam, yaitu penyerahan diri sepe nuhnya kepada Allah. Dan Ibrahim pun mewasiatkan ajaran penyerahan diri itu kepada anak-anaknya, Ismail dan Ishak. Demikian pula Yakub, ia berwasiat kepada anak-anaknya, \u201cWahai anak-anakku! Sesungguhnya Allah telah memilih agama penyerahan diri ini untukmu, maka janganlah kamu mati kecuali dalam keadaan muslim yang berserah diri.\u201d",
        "tahlili": "Ibrahim dan Yakub berwasiat kepada putra-putranya, demikian juga yang dilakukan oleh cucunya Yakub kepada putra-putranya bahwa Allah telah memilihkan agama yang paling baik bagi mereka dan mengingatkan mereka agar menganut agama itu selama-lamanya, dan jangan sampai mati kecuali dalam keadaan Muslim. Agama yang dimaksud adalah agama Islam. Allah menegaskan bahwa agama yang hak di sisi-Nya ialah agama Islam. Allah berfirman:\n\u0627\u0650\u0646\u0651\u064e \u0627\u0644\u062f\u0651\u0650\u064a\u0652\u0646\u064e \u0639\u0650\u0646\u0652\u062f\u064e \u0627\u0644\u0644\u0651\u0670\u0647\u0650 \u0627\u0644\u0652\u0627\u0650\u0633\u0652\u0644\u064e\u0627\u0645\u064f \u06d7 \u0648\u064e\u0645\u064e\u0627 \u0627\u062e\u0652\u062a\u064e\u0644\u064e\u0641\u064e \u0627\u0644\u0651\u064e\u0630\u0650\u064a\u0652\u0646\u064e \u0627\u064f\u0648\u0652\u062a\u064f\u0648\u0627 \u0627\u0644\u0652\u0643\u0650\u062a\u0670\u0628\u064e \u0627\u0650\u0644\u0651\u064e\u0627 \u0645\u0650\u0646\u0652\u06e2 \u0628\u064e\u0639\u0652\u062f\u0650 \u0645\u064e\u0627 \u062c\u064e\u0627\u06e4\u0621\u064e\u0647\u064f\u0645\u064f \u0627\u0644\u0652\u0639\u0650\u0644\u0652\u0645\u064f \u0628\u064e\u063a\u0652\u064a\u064b\u0627\u06e2 \u0628\u064e\u064a\u0652\u0646\u064e\u0647\u064f\u0645\u0652 \u06d7\u0648\u064e\u0645\u064e\u0646\u0652 \u064a\u0651\u064e\u0643\u0652\u0641\u064f\u0631\u0652 \u0628\u0650\u0627\u0670\u064a\u0670\u062a\u0650 \u0627\u0644\u0644\u0651\u0670\u0647\u0650 \u0641\u064e\u0627\u0650\u0646\u0651\u064e \u0627\u0644\u0644\u0651\u0670\u0647\u064e \u0633\u064e\u0631\u0650\u064a\u0652\u0639\u064f \u0627\u0644\u0652\u062d\u0650\u0633\u064e\u0627\u0628\u0650 \u0661\u0669 (\u0627\u0670\u0644 \u0639\u0645\u0631\u0627\u0646)\nSesungguhnya agama di sisi Allah ialah Islam. Tidaklah berselisih orang-orang yang telah diberi Kitab kecuali setelah mereka memperoleh ilmu, karena kedengkian di antara mereka. Barang siapa ingkar terhadap ayat-ayat Allah, maka sungguh, Allah sangat cepat perhitungan-Nya. (\u0100li \u2018Imr\u0101n/3: 19)\n\u0648\u064e\u0645\u064e\u0646\u0652 \u064a\u0651\u064e\u0628\u0652\u062a\u064e\u063a\u0650 \u063a\u064e\u064a\u0652\u0631\u064e \u0627\u0644\u0652\u0627\u0650\u0633\u0652\u0644\u064e\u0627\u0645\u0650 \u062f\u0650\u064a\u0652\u0646\u064b\u0627 \u0641\u064e\u0644\u064e\u0646\u0652 \u064a\u0651\u064f\u0642\u0652\u0628\u064e\u0644\u064e \u0645\u0650\u0646\u0652\u0647\u06da\u064f \u0648\u064e\u0647\u064f\u0648\u064e \u0641\u0650\u0649 \u0627\u0644\u0652\u0627\u0670\u062e\u0650\u0631\u064e\u0629\u0650 \u0645\u0650\u0646\u064e \u0627\u0644\u0652\u062e\u0670\u0633\u0650\u0631\u0650\u064a\u0652\u0646\u064e \u0668\u0665 (\u0627\u0670\u0644 \u0639\u0645\u0631\u0627\u0646)\nDan barang siapa mencari agama selain Islam, dia tidak akan diterima, dan di akhirat dia termasuk orang yang rugi. (\u0100li \u2018Imr\u0101n/3: 85)\nAgama yang dibawa Ibrahim itu terdapat pula di dalam kitab Musa (Taurat). Allah swt berfirman:\n\u0627\u0650\u0646\u0651\u064e \u0647\u0670\u0630\u064e\u0627 \u0644\u064e\u0641\u0650\u0649 \u0627\u0644\u0635\u0651\u064f\u062d\u064f\u0641\u0650 \u0627\u0644\u0652\u0627\u064f\u0648\u0652\u0644\u0670\u0649\u06d9 \u0661\u0668 \u0635\u064f\u062d\u064f\u0641\u0650 \u0627\u0650\u0628\u0652\u0631\u0670\u0647\u0650\u064a\u0652\u0645\u064e \u0648\u064e\u0645\u064f\u0648\u0652\u0633\u0670\u0649 \u08d6 \u0661\u0669 (\u0627\u0644\u0627\u0639\u0644\u0649)\nSesungguhnya ini terdapat dalam kitab-kitab yang dahulu, (yaitu) kitab-kitab Ibrahim dan Musa. (al-A\u2018l\u0101/87: 18,19)\n\u0642\u064f\u0648\u0652\u0644\u064f\u0648\u0652\u0653\u0627 \u0627\u0670\u0645\u064e\u0646\u0651\u064e\u0627 \u0628\u0650\u0627\u0644\u0644\u0651\u0670\u0647\u0650 \u0648\u064e\u0645\u064e\u0627\u0653 \u0627\u064f\u0646\u0652\u0632\u0650\u0644\u064e \u0627\u0650\u0644\u064e\u064a\u0652\u0646\u064e\u0627 \u0648\u064e\u0645\u064e\u0627\u0653 \u0627\u064f\u0646\u0652\u0632\u0650\u0644\u064e \u0627\u0650\u0644\u0670\u0653\u0649 \u0627\u0650\u0628\u0652\u0631\u0670\u0647\u0656\u0645\u064e \u0648\u064e\u0627\u0650\u0633\u0652\u0645\u0670\u0639\u0650\u064a\u0652\u0644\u064e \u0648\u064e\u0627\u0650\u0633\u0652\u062d\u0670\u0642\u064e \u0648\u064e\u064a\u064e\u0639\u0652\u0642\u064f\u0648\u0652\u0628\u064e \u0648\u064e\u0627\u0644\u0652\u0627\u064e\u0633\u0652\u0628\u064e\u0627\u0637\u0650 \u0648\u064e\u0645\u064e\u0627\u0653 \u0627\u064f\u0648\u0652\u062a\u0650\u064a\u064e \u0645\u064f\u0648\u0652\u0633\u0670\u0649 \u0648\u064e\u0639\u0650\u064a\u0652\u0633\u0670\u0649 \u0648\u064e\u0645\u064e\u0627\u0653 \u0627\u064f\u0648\u0652\u062a\u0650\u064a\u064e \u0627\u0644\u0646\u0651\u064e\u0628\u0650\u064a\u0651\u064f\u0648\u0652\u0646\u064e \u0645\u0650\u0646\u0652 \u0631\u0651\u064e\u0628\u0651\u0650\u0647\u0650\u0645\u0652\u06da \nKatakanlah, \u201cKami beriman kepada Allah dan kepada apa yang diturunkan kepada kami, dan kepada apa yang diturunkan kepada Ibrahim, Ismail, Ishak, Yakub dan anak cucunya, dan kepada apa yang diberikan kepada Musa dan Isa serta kepada apa yang diberikan kepada nabi-nabi dari Tuhan mereka. \u2026\u201d (al-Baqarah/2: 136)\nAllah tidak membeda-bedakan para nabi dan rasul yang diutus-Nya. Allah berfirman:\n\u0644\u064e\u0627 \u0646\u064f\u0641\u064e\u0631\u0651\u0650\u0642\u064f \u0628\u064e\u064a\u0652\u0646\u064e \u0627\u064e\u062d\u064e\u062f\u064d \u0645\u0651\u0650\u0646\u0652\u0647\u064f\u0645\u0652\u06d6 \u0648\u064e\u0646\u064e\u062d\u0652\u0646\u064f \u0644\u064e\u0647\u0657 \u0645\u064f\u0633\u0652\u0644\u0650\u0645\u064f\u0648\u0652\u0646\u064e \n\u201c\u2026Kami tidak membeda-bedakan seorang pun di antara mereka, dan kami berserah diri kepada-Nya.\u201d (al-Baqarah/2: 136)\nKarena itu, Allah memerintahkan Nabi Muhammad dan kaum Muslimin beriman kepada para nabi dan rasul-Nya. Iman kepada para nabi dan rasul serta apa yang dibawanya termasuk rukun iman.\nDari perkataan \u201cIbrahim telah mewasiatkan ...\u201d dapat dipahami:\n1.\tBahwa yang diwariskan itu adalah suatu hal yang sangat penting. Berbahaya bagi kehidupan bila wasiat itu tidak dilaksanakan. Karena itu di dalam ayat digunakan perkataan:\na.\t\u201cWasiat\u201d bukan \u201cmemerintahkan\u201d. Perkataan \u201cwasiat\u201d menunjukkan bahwa sesuatu itu sangat penting.\nb.\t\u201cAnak-anaknya\u201d, bukan \u201corang lain\u201d. Menurut kebiasaan, berwasiat kepada \u201canak-anak sendiri\u201d itu diharapkan lebih mungkin terlaksana dibandingkan dengan wasiat kepada orang lain.\n2.\tDi dalam ayat ini disebut bahwa yang berwasiat itu ialah Ibrahim a.s. dan Yakub a.s. seakan perkataan itu dipisahkan. Hal ini memberi pengertian bahwa yang disuruh melaksanakan wasiat itu bukan hanya keturunan Ibrahim a.s. dan cucunya Yakub a.s. (Bani Israil) saja, tetapi wasiat itu mencakup seluruh anak cucu Ibrahim dan seluruh kaum Muslimin, termasuk di dalamnya keturunan Ismail a.s.",
        "intro_surah": "Surah al-Baqarah yang terdiri dari 286 ayat adalah termasuk golongan surah Madaniyah yang diturunkan pada tahun-tahun permulaan periode Nabi Muhammad saw di Medinah. Ia merupakan surah yang terpanjang dan terbanyak ayat-ayatnya di antara surah yang ada di dalam Al-Qur\u2019an. Surah ini dinamai \u201cal-Baqarah\u201d yang berarti \u201cseekor sapi\u201d, karena di dalamnya disebutkan kisah penyembelihan sapi betina yang diperintahkan Allah kepada Bani Israil. Dalam pelaksanaan penyembelihan sapi betina itu tampak dengan jelas sifat dan watak orang-orang Yahudi pada umumnya.\nDinamakan juga fus\u1e6da\u1e6d al-Qur\u2019\u0101n yang berarti \u201cpuncak Al-Qur\u2019an\u201d karena surah ini memuat beberapa hukum yang tidak disebut di surah-surah yang lain. Juga dinamakan Al\u012bf L\u0101m M\u012bm, karena surah ini dimulai dengan huruf-huruf hijaiyah (abjad) alif l\u0101m m\u012bm.\nDi antara pokok-pokok isinya ialah:\n1.\tKeimanan: Dakwah Islamiah yang ditujukan kepada umat Islam, Ahli Kitab dan orang-orang musyrik.\n2.\tHukum: Perintah mengerjakan salat, perintah menunaikan zakat, puasa, haji dan umrah, qi\u1e63a\u1e63, yang halal dan yang haram, bernafkah di jalan Allah, minum arak dan berjudi, cara bergaul dengan anak yatim, prinsip-prinsip ekonomi, larangan memakan riba, utang piutang, nafkah dan yang berhak menerimanya, wasiat kepada dua orang ibu bapak dan kaum kerabat, hukum sumpah, kewajiban menyampaikan amanat, sihir, hukum merusak masjid, hukum mengubah kitab-kitab Allah, haid, idah, talak, khulu\u2018, il\u0101, hukum susuan, meminang, mahar, menikahi wanita musyrik dan sebaliknya, hukum perang, dan lain-lain. \n3.\tKisah: Penciptaan Nabi Adam a.s., kisah Nabi Ibrahim a.s., dan kisah Nabi Musa a.s. dengan Bani Israil.\n4.\tLain-lain, seperti: sifat orang yang bertakwa, sifat-sifat orang munafik, sifat-sifat Allah, perumpamaan-perumpamaan, kiblat, dan kebangkitan sesudah mati.",
        "outro_surah": null,
        "munasabah_prev_surah": "1.\tSurah al-F\u0101ti\u1e25ah merupakan pokok-pokok pembahasan yang akan dirinci dalam surah al-Baqarah dan surah-surah sesudahnya.\n2.\tDi bagian akhir surah al-F\u0101ti\u1e25ah disebutkan permohonan hamba, agar diberi petunjuk oleh Allah ke jalan yang lurus, sedang surah al-Baqarah dimulai dengan ayat yang menerangkan bahwa Al-Qur\u2019an adalah kitab yang menunjukkan jalan yang dimaksudkan itu.\n3.\tDi akhir surah al-F\u0101ti\u1e25ah disebutkan tiga kelompok manusia, yaitu yang diberi nikmat, yang dimurkai Allah dan orang yang sesat, sedangkan di awal surah al-Baqarah juga disebutkan tiga kelompok manusia, yaitu orang yang bertakwa, orang kafir, dan orang munafik.",
        "munasabah_prev_theme": "Ayat-ayat yang lalu menerangkan tugas seorang rasul dan doa Ibrahim a.s. kepada Allah. Ayat-ayat ini menerangkan agama Ibrahim, agama yang sama asasnya dengan agama yang akan disampaikan para rasul yang datang kemudian kepada umatnya.",
        "theme_group": "AGAMA IBRAHIM A.S.",
        "kosakata": "Kosakata: I\u1e63\u1e6dafain\u0101h  \u0627\u0650\u0635\u0652\u0637\u064e\u0641\u064e\u064a\u0652\u0646\u0670\u0647\u064f (al-Baqarah/2: 130)\nSecara etimologis, i\u1e63\u1e6dafain\u0101h berarti \u201caku memilihnya.\u201d Akar katanya adalah \u1e63af\u0101\u2019 artinya bersih, bening, tidak tercampur dengan sesuatu. I\u1e63\u1e6dafa berarti mengambil yang terbersih dari sesuatu. Dalam ayat ini yang dimaksud adalah Allah menjadikan Ibrahim sebagai imam, rasul, banyak keturunannya yang menjadi nabi, dan memberinya gelar khal\u012blull\u0101h.",
        "sabab_nuzul": null,
        "conclusion": null
    }
}