{
    "id": 283,
    "surah_id": 2,
    "ayah": 276,
    "page": 47,
    "quarter_hizb": 5.5,
    "juz": 3,
    "manzil": 1,
    "arabic": "\u064a\u064e\u0645\u0652\u062d\u064e\u0642\u064f \u0627\u0644\u0644\u0651\u0670\u0647\u064f \u0627\u0644\u0631\u0651\u0650\u0628\u0670\u0648\u0627 \u0648\u064e\u064a\u064f\u0631\u0652\u0628\u0650\u0649 \u0627\u0644\u0635\u0651\u064e\u062f\u064e\u0642\u0670\u062a\u0650 \u06d7 \u0648\u064e\u0627\u0644\u0644\u0651\u0670\u0647\u064f \u0644\u064e\u0627 \u064a\u064f\u062d\u0650\u0628\u0651\u064f \u0643\u064f\u0644\u0651\u064e \u0643\u064e\u0641\u0651\u064e\u0627\u0631\u064d \u0627\u064e\u062b\u0650\u064a\u0652\u0645\u064d",
    "latin": "Yam\u1e25aqull\u0101hur-rib\u0101 wa yurbi\u1e63-\u1e63adaq\u0101t(i), wall\u0101hu l\u0101 yu\u1e25ibbu kulla kaff\u0101rin a\u1e61\u012bm(in).  ",
    "translation": "Allah menghilangkan (keberkahan dari) riba dan menyuburkan sedekah. Allah tidak menyukai setiap orang yang sangat kufur lagi bergelimang dosa.",
    "no_footnote": null,
    "footnotes": null,
    "surah": {
        "id": 2,
        "arabic": " \u0627\u0644\u0628\u0642\u0631\u0629",
        "latin": "Al-Baqarah ",
        "transliteration": "Al-Baqarah",
        "translation": "Sapi",
        "num_ayah": 286,
        "page": 2,
        "location": "Madaniyah"
    },
    "tafsir": {
        "wajiz": "Allah memusnahkan harta yang diperoleh dari hasil praktik riba sedikit demi sedikit sampai akhirnya habis, atau menghilangkan keberkahannya sehingga tidak bermanfaat dan menyuburkan sedekah yakni dengan mengembangkan dan menambahkan harta yang disedekahkan, serta memberikan keberkahan harta, ketenangan jiwa dan ketenteraman hidup bagi pemberi dan penerima. Allah tidak menyukai dan tidak mencurahkan rahmat-Nya kepada setiap orang yang tetap dalam kekafiran karena mempersamakan riba dengan jual beli dengan disertai penolakan terhadap ketetapan Allah, dan tidak mensyukuri kelebihan nikmat yang mereka dapatkan, bahkan menggunakannya untuk menindas dan mengeksploitasi kelemahan orang lain, dan Allah tidak menyukai setiap orang yang bergelimang dosa karena praktik riba tidak hanya merugikan satu orang saja, tetapi dapat meruntuhkan perekonomian yang dapat merugikan seluruh warga masyarakat. ",
        "tahlili": "Riba itu tidak ada manfaatnya sedikit pun baik di dunia maupun di akhirat nanti. Yang ada manfaatnya adalah sedekah.\nAllah memusnahkan riba dan menyuburkan sedekah. Artinya memusnahkan harta yang diperoleh dari riba dan harta yang bercampur dengan riba atau meniadakan berkahnya. \u201cMenyuburkan sedekah\u201d ialah mengembangkan harta yang telah dikeluarkan sedekahnya sesuai dengan ketantuan-ketentuan agama atau melipatgandakan berkah harta itu. Allah berfirman:\n\u0648\u064e\u0645\u064e\u0627\u0653 \u0627\u0670\u062a\u064e\u064a\u0652\u062a\u064f\u0645\u0652 \u0645\u0651\u0650\u0646\u0652 \u0631\u0650\u0651\u0628\u064b\u0627 \u0644\u0650\u0651\u064a\u064e\u0631\u0652\u0628\u064f\u0648\u064e\u0627\u06df \u0641\u0650\u064a\u0652\u0653 \u0627\u064e\u0645\u0652\u0648\u064e\u0627\u0644\u0650 \u0627\u0644\u0646\u0651\u064e\u0627\u0633\u0650 \u0641\u064e\u0644\u064e\u0627 \u064a\u064e\u0631\u0652\u0628\u064f\u0648\u0652\u0627 \u0639\u0650\u0646\u0652\u062f\u064e \u0627\u0644\u0644\u0651\u0670\u0647\u0650 \u06da\u0648\u064e\u0645\u064e\u0627\u0653 \u0627\u0670\u062a\u064e\u064a\u0652\u062a\u064f\u0645\u0652 \u0645\u0650\u0651\u0646\u0652 \u0632\u064e\u0643\u0670\u0648\u0629\u064d \u062a\u064f\u0631\u0650\u064a\u0652\u062f\u064f\u0648\u0652\u0646\u064e \u0648\u064e\u062c\u0652\u0647\u064e \u0627\u0644\u0644\u0651\u0670\u0647\u0650 \u0641\u064e\u0627\u064f\u0648\u0644\u0670\u06e4\u0649\u0655\u0650\u0643\u064e \u0647\u064f\u0645\u064f \u0627\u0644\u0652\u0645\u064f\u0636\u0652\u0639\u0650\u0641\u064f\u0648\u0652\u0646\u064e \u0663\u0669 (\u0627\u0644\u0631\u0651\u0648\u0645)\nDan sesuatu riba (tambahan) yang kamu berikan agar harta manusia bertambah, maka tidak bertambah dalam pandangan Allah. Dan apa yang kamu berikan berupa zakat yang kamu maksudkan untuk memperoleh keridaan Allah, maka itulah orang-orang yang melipatgandakan (pahalanya). (ar-R\u016bm/30:39).\nPara ulama berpendapat bahwa yang dimaksud dengan perkataan \u201cAllah memusnahkan riba\u201d ialah Allah memusnahkan keberkahan harta riba, karena akibat melakukan riba timbul permusuhan antara orang-orang pemakan riba, dan kebencian masyarakat terhadap mereka terutama orang yang pernah membayar utang kepadanya dengan riba yang berlipat ganda, dan juga menyebabkan bertambah jauhnya jarak hubungan antara yang punya dan yang tidak punya. Kebencian dan permusuhan ini bila mencapai puncaknya akan menimbulkan peperangan dan kekacauan dalam masyarakat.\nAllah tidak menyukai orang-orang yang mengingkari nikmat-Nya berupa harta yang telah dianugerahkan kepada mereka. Mereka tidak menggunakan harta itu menurut ketentuan-ketentuan yang telah ditetapkan Allah, serta tidak memberikannya kepada orang yang berhak menerimanya. Demikian pula Allah tidak menyukai orang-orang yang menggunakan dan membelanjakan hartanya semata-mata untuk kepentingan diri sendiri, serta mencari harta dengan menindas atau memperkosa hak orang lain.",
        "intro_surah": "Surah al-Baqarah yang terdiri dari 286 ayat adalah termasuk golongan surah Madaniyah yang diturunkan pada tahun-tahun permulaan periode Nabi Muhammad saw di Medinah. Ia merupakan surah yang terpanjang dan terbanyak ayat-ayatnya di antara surah yang ada di dalam Al-Qur\u2019an. Surah ini dinamai \u201cal-Baqarah\u201d yang berarti \u201cseekor sapi\u201d, karena di dalamnya disebutkan kisah penyembelihan sapi betina yang diperintahkan Allah kepada Bani Israil. Dalam pelaksanaan penyembelihan sapi betina itu tampak dengan jelas sifat dan watak orang-orang Yahudi pada umumnya.\nDinamakan juga fus\u1e6da\u1e6d al-Qur\u2019\u0101n yang berarti \u201cpuncak Al-Qur\u2019an\u201d karena surah ini memuat beberapa hukum yang tidak disebut di surah-surah yang lain. Juga dinamakan Al\u012bf L\u0101m M\u012bm, karena surah ini dimulai dengan huruf-huruf hijaiyah (abjad) alif l\u0101m m\u012bm.\nDi antara pokok-pokok isinya ialah:\n1.\tKeimanan: Dakwah Islamiah yang ditujukan kepada umat Islam, Ahli Kitab dan orang-orang musyrik.\n2.\tHukum: Perintah mengerjakan salat, perintah menunaikan zakat, puasa, haji dan umrah, qi\u1e63a\u1e63, yang halal dan yang haram, bernafkah di jalan Allah, minum arak dan berjudi, cara bergaul dengan anak yatim, prinsip-prinsip ekonomi, larangan memakan riba, utang piutang, nafkah dan yang berhak menerimanya, wasiat kepada dua orang ibu bapak dan kaum kerabat, hukum sumpah, kewajiban menyampaikan amanat, sihir, hukum merusak masjid, hukum mengubah kitab-kitab Allah, haid, idah, talak, khulu\u2018, il\u0101, hukum susuan, meminang, mahar, menikahi wanita musyrik dan sebaliknya, hukum perang, dan lain-lain. \n3.\tKisah: Penciptaan Nabi Adam a.s., kisah Nabi Ibrahim a.s., dan kisah Nabi Musa a.s. dengan Bani Israil.\n4.\tLain-lain, seperti: sifat orang yang bertakwa, sifat-sifat orang munafik, sifat-sifat Allah, perumpamaan-perumpamaan, kiblat, dan kebangkitan sesudah mati.",
        "outro_surah": null,
        "munasabah_prev_surah": "1.\tSurah al-F\u0101ti\u1e25ah merupakan pokok-pokok pembahasan yang akan dirinci dalam surah al-Baqarah dan surah-surah sesudahnya.\n2.\tDi bagian akhir surah al-F\u0101ti\u1e25ah disebutkan permohonan hamba, agar diberi petunjuk oleh Allah ke jalan yang lurus, sedang surah al-Baqarah dimulai dengan ayat yang menerangkan bahwa Al-Qur\u2019an adalah kitab yang menunjukkan jalan yang dimaksudkan itu.\n3.\tDi akhir surah al-F\u0101ti\u1e25ah disebutkan tiga kelompok manusia, yaitu yang diberi nikmat, yang dimurkai Allah dan orang yang sesat, sedangkan di awal surah al-Baqarah juga disebutkan tiga kelompok manusia, yaitu orang yang bertakwa, orang kafir, dan orang munafik.",
        "munasabah_prev_theme": "Pada ayat-ayat yang lalu diterangkan cara-cara membelanjakan dan menggunakan harta yang dihalalkan Allah, seperti bersedekah, memberi nafkah kepada karib-kerabat, menafkahkan harta di jalan Allah serta pahala yang akan diperoleh orang-orang yang melaksanakannya. Ayat-ayat berikutnya menerangkan larangan Allah swt memakan riba, yaitu memakan harta manusia dengan cara tidak sah, diterangkan pula akibat yang akan dialami pemakan riba, baik di dunia maupun di akhirat nanti.",
        "theme_group": "RIBA DAN AKIBATNYA",
        "kosakata": "Kosakata: Rib\u0101 \u0631\u0650\u0628\u0670\u0648\u0627 (al-Baqarah/2: 275)\nRib\u0101 terderivasi dari kata rab\u0101 yang berarti z\u0101da, bertambah. Menurut syara\u2019, riba berarti kelebihan dari nilai tukar yang disyaratkan kepada salah seorang dari dua orang yang bertransaksi. Riba di dalam Islam hukumnya haram dan termasuk dosa besar. Menurut al-Qur\u1e6d\u016bb\u012b, di dalam Al-Qur\u2019an (an-Nis\u0101\u2019/4:161) juga disebutkan lafal rib\u0101, tetapi bukan dalam arti syar\u2018i sebagai riba yang diharamkan atas umat Muhammad, tetapi maksudnya harta haram yang dilarang bagi orang Yahudi di masa lalu. Sebagian besar jenis jual beli yang dilarang karena di dalamnya terdapat sifat riba. Riba ada dua macam; Yaitu riba nas\u012b\u2019ah dan riba fa\u1e0dl. Riba nas\u012b\u2019ah adalah pembayaran lebih yang disyaratkan oleh orang yang meminjamkan, dan riba fa\u1e0dl adalah penukaran satu barang dengan barang sejenis, tetapi jumlahnya lebih banyak.",
        "sabab_nuzul": null,
        "conclusion": null
    }
}