{
    "id": 226,
    "surah_id": 2,
    "ayah": 219,
    "page": 34,
    "quarter_hizb": 4.25,
    "juz": 2,
    "manzil": 1,
    "arabic": "\u06de \u064a\u064e\u0633\u0652\u0640\u0654\u064e\u0644\u064f\u0648\u0652\u0646\u064e\u0643\u064e \u0639\u064e\u0646\u0650 \u0627\u0644\u0652\u062e\u064e\u0645\u0652\u0631\u0650 \u0648\u064e\u0627\u0644\u0652\u0645\u064e\u064a\u0652\u0633\u0650\u0631\u0650\u06d7 \u0642\u064f\u0644\u0652 \u0641\u0650\u064a\u0652\u0647\u0650\u0645\u064e\u0627\u0653 \u0627\u0650\u062b\u0652\u0645\u064c \u0643\u064e\u0628\u0650\u064a\u0652\u0631\u064c \u0648\u0651\u064e\u0645\u064e\u0646\u064e\u0627\u0641\u0650\u0639\u064f \u0644\u0650\u0644\u0646\u0651\u064e\u0627\u0633\u0650\u06d6 \u0648\u064e\u0627\u0650\u062b\u0652\u0645\u064f\u0647\u064f\u0645\u064e\u0627\u0653 \u0627\u064e\u0643\u0652\u0628\u064e\u0631\u064f \u0645\u0650\u0646\u0652 \u0646\u0651\u064e\u0641\u0652\u0639\u0650\u0647\u0650\u0645\u064e\u0627\u06d7 \u0648\u064e\u064a\u064e\u0633\u0652\u0640\u0654\u064e\u0644\u064f\u0648\u0652\u0646\u064e\u0643\u064e \u0645\u064e\u0627\u0630\u064e\u0627 \u064a\u064f\u0646\u0652\u0641\u0650\u0642\u064f\u0648\u0652\u0646\u064e \u06d5\u06d7 \u0642\u064f\u0644\u0650 \u0627\u0644\u0652\u0639\u064e\u0641\u0652\u0648\u064e\u06d7  \u0643\u064e\u0630\u0670\u0644\u0650\u0643\u064e \u064a\u064f\u0628\u064e\u064a\u0651\u0650\u0646\u064f \u0627\u0644\u0644\u0651\u0670\u0647\u064f \u0644\u064e\u0643\u064f\u0645\u064f \u0627\u0644\u0652\u0627\u0670\u064a\u0670\u062a\u0650 \u0644\u064e\u0639\u064e\u0644\u0651\u064e\u0643\u064f\u0645\u0652 \u062a\u064e\u062a\u064e\u0641\u064e\u0643\u0651\u064e\u0631\u064f\u0648\u0652\u0646\u064e\u06d9",
    "latin": "Yas'al\u016bnaka \u2018anil-khamri wal-maisir(i), qul f\u012bhim\u0101 i\u1e61mun kab\u012brw wa man\u0101fi\u2018u lin n\u0101s(i), wa i\u1e61muhum\u0101 akbaru min naf\u2018ihim\u0101, wa yas'al\u016bnaka m\u0101\u017c\u0101 yunfiq\u016bn(a), qulil-\u2018afw(a), ka\u017c\u0101lika yubayyinull\u0101hu lakumul-\u0101y\u0101ti la\u2018allakum tatafakkar\u016bn(a).  ",
    "translation": "Mereka bertanya kepadamu (Nabi Muhammad) tentang khamar64) dan judi. Katakanlah, \u201cPada keduanya terdapat dosa besar dan beberapa manfaat bagi manusia. (Akan tetapi,) dosa keduanya lebih besar daripada manfaatnya.\u201d Mereka (juga) bertanya kepadamu (tentang) apa yang mereka infakkan. Katakanlah, \u201c(Yang diinfakkan adalah) kelebihan\u00a0(dari apa yang diperlukan).\u201d Demikianlah Allah menerangkan ayat-ayat-Nya kepadamu agar kamu berpikir",
    "no_footnote": "64",
    "footnotes": "64) Khamar adalah segala sesuatu yang mengandung unsur yang memabukkan.",
    "surah": {
        "id": 2,
        "arabic": " \u0627\u0644\u0628\u0642\u0631\u0629",
        "latin": "Al-Baqarah ",
        "transliteration": "Al-Baqarah",
        "translation": "Sapi",
        "num_ayah": 286,
        "page": 2,
        "location": "Madaniyah"
    },
    "tafsir": {
        "wajiz": "Mereka menanyakan kepadamu, wahai Nabi, tentang khamar, yaitu semua minuman yang memabukkan, dan berjudi. Pertanyaan itu muncul antara lain karena di antara rampasan perang yang diperoleh pasukan pimpinan \u2018Abdullah bin Jahsy seperti disinggung pada ayat 217 terdapat minuman keras. Katakanlah, \u201cPada keduanya terdapat dosa, yakni mudarat yang besar. Keduanya menimbulkan permusuhan dan menyebabkan kaum muslim melupakan Allah dan enggan menunaikan salat. Dan keduanya juga mengandung beberapa manfaat bagi manusia, seperti keuntungan dari perdagangan khamar, kehangatan badan bagi peminumnya, memperoleh harta tanpa susah payah bagi pemenang dalam perjudian, dan beberapa manfaat yang diperoleh fakir miskin dari perjudian pada zaman Jahiliah. Tetapi dosanya, yakni mudarat yang ditimbulkan oleh khamar dan judi, lebih besar daripada manfaatnya. Khamar diharamkan dalam Islam secara berangsur. Ayat ini menyatakan bahwa minum khamar dan berjudi adalah dosa dengan penjelasan bahwa pada keduanya terdapat manfaat, tetapi mudaratnya lebih besar daripada manfaat itu. Surah an-Nisa'/4: 43 dengan tegas melarang minum khamar, tetapi terbatas pada waktu menjelang salat. Surah al-Ma'idah/5: 90 dengan tegas mengharamkan khamar, berjudi, berkorban untuk berhala dan mengundi nasib dan menyatakan bahwa semuanya adalah perbuatan keji dan termasuk perbuatan setan yang harus dijauhi selamanya oleh orang-orang beriman. Bagian akhir ayat ini menjelaskan ketentuan menafkahkan harta di jalan Allah. Dan mereka menanyakan kepadamu tentang apa yang harus mereka infakkan di jalan Allah. Katakanlah, \u201cKelebihan dari apa yang diperlukan untuk memenuhi kebutuhan diri dan kebutuhan keluarga. Demikianlah Allah menerangkan ayat-ayat-Nya kepadamu agar kamu memikirkan. ",
        "tahlili": "Ayat ini menjawab pertanyaan para sahabat yang diajukan kepada Rasulullah saw. Jawaban-jawaban itu bukan saja mengenai hukum khamar dan judi, tetapi sekaligus menjawab pertanyaan tentang apa yang akan dinafkahkan; dan juga mengenai persoalan anak-anak yatim.\nLarangan minum khamar, diturunkan secara berangsur-angsur. Sebab minum khamar itu bagi orang Arab sudah menjadi adat kebiasaan yang mendarah daging sejak zaman jahiliah. Kalau dilarang sekaligus, dikhawatirkan akan sangat memberatkan bagi mereka. Mula-mula dikatakan bahwa dosanya besar, kemudian dikatakan orang mabuk tidak boleh mengerjakan salat; dan terakhir dikatakan bahwa minum khamar itu adalah keji dan termasuk perbuatan setan. Kemudian mereka dicela dengan mengatakan, \"Apakah kamu belum mau juga berhenti meminumnya?\" Tegasnya: minum khamar dan main judi itu dilarang, dan haram hukumnya.\nYang dimaksud dengan khamar menurut pendapat jumhur ulama ialah semua minuman yang memabukkan, walaupun terbuat dari bahan apa saja. Jadi minum apa saja yang memabukkan, hukumnya haram, baik sedikit ataupun banyak. Semua ahli kesehatan sependapat, baik dahulu maupun sekarang, bahwa minum khamar itu banyak sekali bahayanya. Allah tidak akan melarang sesuatu, kalau tidak berbahaya bagi manusia.\nSudah tidak diragukan bahwa minum khamar itu berbahaya bagi kesehatan, akal pikiran dan urat syaraf, serta harta benda dan keluarga. Minum khamar sama dengan menghisap candu, narkotika, dan obat-obatan terlarang (narkoba) yang menimbulkan ketagihan. Seseorang yang telah ketagihan minum khamar, baginya tidak ada nilainya harta benda, berapa saja harga khamar itu akan dibelinya.\nDengan demikian, khamar membahayakan dalam pergaulan masyarakat, menimbulkan permusuhan, perkelahian, dan sebagainya. Rumah tangga akan kacau, tetangga tidak aman dan masyarakat akan rusak, karena minum khamar.\nPenyakit kecanduan khamar erat sekali hubungannya dengan segala perbuatan maksiat dan kejahatan. Seorang yang sudah mabuk, tidak akan malu-malu berzina di tempat-tempat maksiat seperti night club, bar dan lain-lain. Kedua perbuatan mesum itu biasa disatukan tempatnya. Bahaya minum khamar akan lebih besar lagi kalau sudah bercampur dengan zina. Bukan saja menghambur-hamburkan harta dan berfoya-foya memperturutkan hawa nafsu, tapi segala macam penyakit kelamin akan merebak, lahirlah anak-anak tanpa bapak yang sah, serta pembunuhan bayi-bayi yang tidak berdosa. Pekerjaan seperti ini merupakan perbuatan yang terkutuk yang tidak berperikemanusiaan, perbuatan keji yang lebih keji dari perbuatan hewan.\nSebagaimana halnya minum khamar, Allah juga melarang main judi sebab bahayanya lebih besar daripada manfaatnya. Judi ialah semua permainan yang menggunakan pertaruhan yang kalah harus membayar kepada yang menang. Taruhan itu berupa apa saja: uang, barang-barang, dan lain-lain.\nBahaya main judi tidak kurang dari bahaya minum khamar. Main judi cepat sekali menimbulkan permusuhan dan kemarahan, dan tidak jarang menimbulkan pembunuhan. Bahaya itu sudah terbukti sejak dahulu sampai sekarang. Bilamana di suatu tempat telah berjangkit perjudian, maka di tempat itu selalu terjadi perselisihan, pemusuhan dan pembunuhan. Pekerjaan nekad, kerap kali terjadi pada pemain-pemain judi, seperti bunuh diri, merampok, dan lain-lain, lebih-lebih bila ia mengalami kekalahan.\nJudi adalah perbuatan berbahaya, akibat berjudi seseorang yang baik dapat menjadi jahat, malas mengerjakan ibadah, dan jenuh hatinya dari mengingat Allah. Dia jadi pemalas, pemarah, matanya merah, dan badannya lemas. Dengan sendirinya akhlaknya menjadi rusak, tidak mau bekerja untuk mencari rezeki dengan jalan yang baik, dan selalu mengharap kalau-kalau mendapat kemenangan. Dalam sejarah perjudian, tidak ada orang yang kaya karena berjudi. Malahan sebaliknya yang terjadi, banyak orang kaya tiba-tiba jatuh miskin dan melarat karena berjudi. Banyak pula rumah tangga yang bahagia, tiba-tiba hancur berantakan karena judi.\nAdapun manfaat minum khamar sedikit sekali, boleh dikatakan tidak ada artinya dibandingkan dengan bahayanya. Misalnya, khamar, mungkin dapat menjadi obat, dapat dijadikan komoditas perdagangan yang mendatangkan keuntungan, dan dapat menimbulkan semangat bagi prajurit-prajurit yang akan pergi berperang, dan lain-lain. Tapi semua itu bukanlah manfaat yang berarti. \nTentang bahaya minum khamar dan main judi, dan apa yang akan diderita oleh peminum khamar dan pemain judi nantinya, selain dijelaskan oleh Allah dalam Al-Qur\u2019an juga banyak diterangkan dalam hadis-hadis Nabi Muhammad saw. \nSesudah para sahabat menanyakan kedua masalah yang sangat besar bahayanya itu, yaitu minum khamar dan main judi, maka mereka menanyakan masalah apa yang akan dinafkahkan.\nDalam satu riwayat, dari Ibnu Ab\u012b \u1e24\u0101tim dari Ibnu \u2018Abb\u0101s beberapa orang sahabat Rasulullah saw datang bertanya kepada beliau, \"Kami belum tahu, apakah itu nafkah f\u012b sab\u012blill\u0101h yang diperintahkan kepada kami untuk mengeluarkannya dari harta kami?\u201d Ayat ini adalah jawabannya. Sengaja Allah swt menggabungkan masalah nafkah dengan masalah khamar dan judi dalam satu ayat, untuk menjadi cermin perbandingan bagi manusia, bahwa di samping ada orang yang menghambur-hamburkan hartanya untuk berbuat maksiat seperti minum khamar dan berjudi, ada pula orang yang menggunakan hartanya untuk dinafkahkan di jalan Allah.\nOrang-orang yang menghamburkan hartanya di jalan maksiat itu akan mendapat kehancuran dan malapetaka, sebaliknya orang-orang yang mempergunakan hartanya di jalan Allah akan memperoleh kebahagiaan dan keberuntungan. Yang dimaksud dengan nafkah dalam ayat ini ialah memberi sedekah, amal jariah, derma, sumbangan, dan lain-lain yang hukumnya sunah, sedang zakat hukumnya wajib. Hal ini sudah diterangkan dalam ayat-ayat yang lain. Arti al-\u2018afwa di sini ialah \"yang lebih dari keperluan\". Jadi yang akan dinafkahkan adalah harta yang sudah berlebih dari keperluan pokok sehari-hari.\nAllah menganjurkan agar seseorang berusaha mencari rezeki untuk keperluan anak dan istri serta orang-orang yang di bawah tanggungannya. Tapi kalau rezeki yang diberikan Allah sudah lebih dari kebutuhan tersebut, Allah menganjurkan agar ia berinfak, yaitu memberikan sebagian dari kelebihan harta itu untuk keperluan f\u012b sab\u012blill\u0101h. Umpamanya untuk membangun rumah-rumah ibadah, seperti masjid, musala atau surau, atau untuk membangun rumah-rumah yatim atau rumah-rumah pendidikan seperti madrasah, asrama-asrama pelajar, fakir miskin, juga kepada pelajar dan mahasiswa dalam bentuk beasiswa, dan lain-lain.\nAmal-amal sosial seperti tersebut di atas, dapat dibiayai dengan nafkah yang diberikan kaum Muslimin. Memberikan nafkah dalam hal ini penting sekali, sebab itu merupakan urat nadi pembangunan dalam Islam dan jadi jembatan yang menghubungkan antara yang kaya dengan yang miskin.\nBegitulah cara Allah memberikan petunjuk dengan ayat-ayat-Nya untuk kebahagiaan umat manusia. Ditunjukkan-Nya jalan mana yang dapat mendatangkan manfaat dan kebaikan dan jalan yang akan menjerumuskan ke dalam bahaya dan kerusakan. Dalam hal ini, manusia harus memikirkannya. Berpikir bukan untuk dunia saja tetapi juga memikirkan akhirat dalam setiap usaha dan pekerjaannya.\nKaum Muslimin menjadi jaya dan mulia bila mau mempergunakan akalnya untuk memikirkan keselamatan hidupnya dan masyarakatnya di dunia dan di akhirat. Di dunia, mereka menjadi orang yang terhormat dan disegani, karena mereka adalah orang-orang yang mampu, berwibawa, dan memegang tampuk kekuasaan. Di akhirat, dia menjadi orang yang beruntung karena amal kebajikannya yang banyak.",
        "intro_surah": "Surah al-Baqarah yang terdiri dari 286 ayat adalah termasuk golongan surah Madaniyah yang diturunkan pada tahun-tahun permulaan periode Nabi Muhammad saw di Medinah. Ia merupakan surah yang terpanjang dan terbanyak ayat-ayatnya di antara surah yang ada di dalam Al-Qur\u2019an. Surah ini dinamai \u201cal-Baqarah\u201d yang berarti \u201cseekor sapi\u201d, karena di dalamnya disebutkan kisah penyembelihan sapi betina yang diperintahkan Allah kepada Bani Israil. Dalam pelaksanaan penyembelihan sapi betina itu tampak dengan jelas sifat dan watak orang-orang Yahudi pada umumnya.\nDinamakan juga fus\u1e6da\u1e6d al-Qur\u2019\u0101n yang berarti \u201cpuncak Al-Qur\u2019an\u201d karena surah ini memuat beberapa hukum yang tidak disebut di surah-surah yang lain. Juga dinamakan Al\u012bf L\u0101m M\u012bm, karena surah ini dimulai dengan huruf-huruf hijaiyah (abjad) alif l\u0101m m\u012bm.\nDi antara pokok-pokok isinya ialah:\n1.\tKeimanan: Dakwah Islamiah yang ditujukan kepada umat Islam, Ahli Kitab dan orang-orang musyrik.\n2.\tHukum: Perintah mengerjakan salat, perintah menunaikan zakat, puasa, haji dan umrah, qi\u1e63a\u1e63, yang halal dan yang haram, bernafkah di jalan Allah, minum arak dan berjudi, cara bergaul dengan anak yatim, prinsip-prinsip ekonomi, larangan memakan riba, utang piutang, nafkah dan yang berhak menerimanya, wasiat kepada dua orang ibu bapak dan kaum kerabat, hukum sumpah, kewajiban menyampaikan amanat, sihir, hukum merusak masjid, hukum mengubah kitab-kitab Allah, haid, idah, talak, khulu\u2018, il\u0101, hukum susuan, meminang, mahar, menikahi wanita musyrik dan sebaliknya, hukum perang, dan lain-lain. \n3.\tKisah: Penciptaan Nabi Adam a.s., kisah Nabi Ibrahim a.s., dan kisah Nabi Musa a.s. dengan Bani Israil.\n4.\tLain-lain, seperti: sifat orang yang bertakwa, sifat-sifat orang munafik, sifat-sifat Allah, perumpamaan-perumpamaan, kiblat, dan kebangkitan sesudah mati.",
        "outro_surah": null,
        "munasabah_prev_surah": "1.\tSurah al-F\u0101ti\u1e25ah merupakan pokok-pokok pembahasan yang akan dirinci dalam surah al-Baqarah dan surah-surah sesudahnya.\n2.\tDi bagian akhir surah al-F\u0101ti\u1e25ah disebutkan permohonan hamba, agar diberi petunjuk oleh Allah ke jalan yang lurus, sedang surah al-Baqarah dimulai dengan ayat yang menerangkan bahwa Al-Qur\u2019an adalah kitab yang menunjukkan jalan yang dimaksudkan itu.\n3.\tDi akhir surah al-F\u0101ti\u1e25ah disebutkan tiga kelompok manusia, yaitu yang diberi nikmat, yang dimurkai Allah dan orang yang sesat, sedangkan di awal surah al-Baqarah juga disebutkan tiga kelompok manusia, yaitu orang yang bertakwa, orang kafir, dan orang munafik.",
        "munasabah_prev_theme": "Dalam ayat-ayat yang lalu kaum Muslimin mengemukakan pertanyaan-pertanyaan kepada Nabi Muhammad saw tentang berperang pada bulan Haram, maka pada ayat ini mereka menanyakan pula tentang hukum minum khamar dan berjudi, dan tentang pengurusan anak-anak yatim.",
        "theme_group": "HUKUM KHAMAR, BERJUDI, \n DAN MEMELIHARA ANAK YATIM",
        "kosakata": "1. al-Khamr\u0627\u064e\u0644\u0652\u062e\u064e\u0645\u0652\u0631\u064f  (al-Baqarah/2: 219)\nAl-Khamr berarti \u201cminuman keras\u201d, berasal dari kata khamara-yakhmuru yang berarti \u201cmenutupi\u201d. Segala sesuatu yang berfungsi sebagai penutup disebut khimar. Kemudian kata itu lebih populer diartikan sebagai kerudung atau tutup kepala perempuan, seperti yang terdapat di dalam an-N\u016br/24: 31. Arti lain dari kata khamr adalah \u201cminuman yang memabukkan\u201d. Minuman yang memabukkan disebut khamr, karena ia berdampak negatif yang dapat menutup atau melenyapkan akal pikiran. Kata khamr yang berarti \u201cminuman keras\u201d, di dalam Al-Qur\u2019an disebutkan, antara lain dalam al-Baqarah/2: 219 dan al-M\u0101\u2019idah/5: 90-91.\n2. Al-Maisir \u0627\u064e\u0644\u0652\u0645\u064e\u064a\u0652\u0633\u0650\u0631\u0652  (al-Baqarah/2: 219)\nKata maisir berarti \u201cjudi\u201d, berasal dari kata yusran, yang berasal dari yasara-yaisuru yang berarti \u201csedikit\u201d, \u201cmudah\u201d, karena maisir merupakan upaya dan cara untuk mendapatkan rezeki dengan mudah, tanpa susah payah. Sedangkan pengertian maisir menurut istilah adalah \u201cpermainan terdiri dari dua orang atau lebih, masing-masing memberikan taruhan dengan spekulasi yang menang akan mendapatkan taruhan itu. Kata maisir disebutkan dalam al-Baqarah/2: 219 dan al-M\u0101\u2019idah/5: 90-91.",
        "sabab_nuzul": null,
        "conclusion": null
    }
}