{
    "id": 211,
    "surah_id": 2,
    "ayah": 204,
    "page": 32,
    "quarter_hizb": 4,
    "juz": 2,
    "manzil": 1,
    "arabic": "\u0648\u064e\u0645\u0650\u0646\u064e \u0627\u0644\u0646\u0651\u064e\u0627\u0633\u0650 \u0645\u064e\u0646\u0652 \u064a\u0651\u064f\u0639\u0652\u062c\u0650\u0628\u064f\u0643\u064e \u0642\u064e\u0648\u0652\u0644\u064f\u0647\u0657 \u0641\u0650\u0649 \u0627\u0644\u0652\u062d\u064e\u064a\u0670\u0648\u0629\u0650 \u0627\u0644\u062f\u0651\u064f\u0646\u0652\u064a\u064e\u0627 \u0648\u064e\u064a\u064f\u0634\u0652\u0647\u0650\u062f\u064f \u0627\u0644\u0644\u0651\u0670\u0647\u064e \u0639\u064e\u0644\u0670\u0649 \u0645\u064e\u0627 \u0641\u0650\u064a\u0652 \u0642\u064e\u0644\u0652\u0628\u0650\u0647\u0656 \u06d9 \u0648\u064e\u0647\u064f\u0648\u064e \u0627\u064e\u0644\u064e\u062f\u0651\u064f \u0627\u0644\u0652\u062e\u0650\u0635\u064e\u0627\u0645\u0650 ",
    "latin": "Wa minan-n\u0101si may yu\u2018jibuka qauluh\u016b fil-\u1e25ay\u0101tid-dun-y\u0101 wa yusyhidull\u0101ha \u2018al\u0101 m\u0101 f\u012b qalbih(\u012b), wa huwa aladdul-khi\u1e63\u0101m(i).  ",
    "translation": "Di antara manusia ada yang pembicaraannya tentang kehidupan dunia mengagumkan engkau (Nabi Muhammad) dan dia menjadikan Allah sebagai saksi atas (kebenaran) isi hatinya. Padahal, dia adalah penentang yang paling keras.",
    "no_footnote": null,
    "footnotes": null,
    "surah": {
        "id": 2,
        "arabic": " \u0627\u0644\u0628\u0642\u0631\u0629",
        "latin": "Al-Baqarah ",
        "transliteration": "Al-Baqarah",
        "translation": "Sapi",
        "num_ayah": 286,
        "page": 2,
        "location": "Madaniyah"
    },
    "tafsir": {
        "wajiz": "Allah menjelaskan perihal dua golongan manusia, yaitu orang munafik dan orang mukmin yang beramal mengorbankan harta dan jiwanya untuk mencari rida-Nya. Ayat 204-206 diturunkan berkenaan dengan seorang munafik bernama al-Akhnas bin Syuraiq as-Saqafi, yang setiap bertemu Nabi Muhammad ia memuji Nabi dan mengucapkan kata-kata yang mengagumkan Nabi. Dan di antara manusia ada yang pembicaraannya tentang kehidupan dunia, atau pembicaraannya di dalam kehidupan dunia, tidak di akhirat nanti mengagumkan engkau, wahai Nabi Muhammad, sebab ia mengatakan perkataan yang manis di hadapanmu, dan dia bersaksi kepada Allah mengenai isi hatinya, yakni ia bersumpah dengan nama Allah bahwa ia beriman kepada engkau, padahal dia adalah penentang yang paling keras. Di akhirat akan terungkap bahwa isi hatinya tidak sesuai dengan ucapannya.",
        "tahlili": "Dengan ayat ini Allah memberitahukan bahwa orang yang seperti Al-Akhnas itu adalah pendusta, tidak dapat dipercaya dan bahwa ia adalah musuh Islam dan penentang yang keras terhadap Nabi Muhammad saw.\nAl-Akhnas dan orang-orang munafik lainnya ingin mengelabui dan melakukan makar terhadap umat manusia dengan tiga macam hal:\n1.\tDengan kata-kata dan ucapan yang menarik, sehingga orang-orang yang mendengarnya terpesona dan terpengaruh, tidak ragu-ragu sedikit pun tentang kebenaran ucapannya itu.\n2.\tBersumpah dengan menyebut nama Allah untuk menunjukkan kebenarannya seakan-akan ia bermaksud baik.\n3.\tGigih dalam berdebat dan berhujjah menghadapi lawan penentangnya.",
        "intro_surah": "Surah al-Baqarah yang terdiri dari 286 ayat adalah termasuk golongan surah Madaniyah yang diturunkan pada tahun-tahun permulaan periode Nabi Muhammad saw di Medinah. Ia merupakan surah yang terpanjang dan terbanyak ayat-ayatnya di antara surah yang ada di dalam Al-Qur\u2019an. Surah ini dinamai \u201cal-Baqarah\u201d yang berarti \u201cseekor sapi\u201d, karena di dalamnya disebutkan kisah penyembelihan sapi betina yang diperintahkan Allah kepada Bani Israil. Dalam pelaksanaan penyembelihan sapi betina itu tampak dengan jelas sifat dan watak orang-orang Yahudi pada umumnya.\nDinamakan juga fus\u1e6da\u1e6d al-Qur\u2019\u0101n yang berarti \u201cpuncak Al-Qur\u2019an\u201d karena surah ini memuat beberapa hukum yang tidak disebut di surah-surah yang lain. Juga dinamakan Al\u012bf L\u0101m M\u012bm, karena surah ini dimulai dengan huruf-huruf hijaiyah (abjad) alif l\u0101m m\u012bm.\nDi antara pokok-pokok isinya ialah:\n1.\tKeimanan: Dakwah Islamiah yang ditujukan kepada umat Islam, Ahli Kitab dan orang-orang musyrik.\n2.\tHukum: Perintah mengerjakan salat, perintah menunaikan zakat, puasa, haji dan umrah, qi\u1e63a\u1e63, yang halal dan yang haram, bernafkah di jalan Allah, minum arak dan berjudi, cara bergaul dengan anak yatim, prinsip-prinsip ekonomi, larangan memakan riba, utang piutang, nafkah dan yang berhak menerimanya, wasiat kepada dua orang ibu bapak dan kaum kerabat, hukum sumpah, kewajiban menyampaikan amanat, sihir, hukum merusak masjid, hukum mengubah kitab-kitab Allah, haid, idah, talak, khulu\u2018, il\u0101, hukum susuan, meminang, mahar, menikahi wanita musyrik dan sebaliknya, hukum perang, dan lain-lain. \n3.\tKisah: Penciptaan Nabi Adam a.s., kisah Nabi Ibrahim a.s., dan kisah Nabi Musa a.s. dengan Bani Israil.\n4.\tLain-lain, seperti: sifat orang yang bertakwa, sifat-sifat orang munafik, sifat-sifat Allah, perumpamaan-perumpamaan, kiblat, dan kebangkitan sesudah mati.",
        "outro_surah": null,
        "munasabah_prev_surah": "1.\tSurah al-F\u0101ti\u1e25ah merupakan pokok-pokok pembahasan yang akan dirinci dalam surah al-Baqarah dan surah-surah sesudahnya.\n2.\tDi bagian akhir surah al-F\u0101ti\u1e25ah disebutkan permohonan hamba, agar diberi petunjuk oleh Allah ke jalan yang lurus, sedang surah al-Baqarah dimulai dengan ayat yang menerangkan bahwa Al-Qur\u2019an adalah kitab yang menunjukkan jalan yang dimaksudkan itu.\n3.\tDi akhir surah al-F\u0101ti\u1e25ah disebutkan tiga kelompok manusia, yaitu yang diberi nikmat, yang dimurkai Allah dan orang yang sesat, sedangkan di awal surah al-Baqarah juga disebutkan tiga kelompok manusia, yaitu orang yang bertakwa, orang kafir, dan orang munafik.",
        "munasabah_prev_theme": "Setelah pada ayat-ayat sebelumnya dijelaskan bahwa maksud dan tujuan ibadah ialah takwa kepada Allah dengan jalan memperbaiki iman, zikir kepada Allah, mengingat kebesaran dan kemuliaan-Nya, serta menyadari bahwa urusan-urusan dunia yang membawa kepada kebaikan tidaklah bertentangan dengan takwa, bahkan takwa itu membantu mencapai hal-hal yang diridai Allah dan takwa itu tempatnya dalam hati yang ditandai dengan amal perbuatan yang nyata dan bukan sekadar kata-kata serta ucapan belaka, maka pada ayat-ayat ini Allah menjelaskan, apabila manusia itu diteliti kata-kata dan ucapannya kemudian dihubungkan dengan amal perbuatannya, akan jelaslah bahwa manusia itu ada dua macam, munafik dan mukhlis. Orang munafik ialah orang yang menampakkan apa yang tidak sesuai dengan yang ada di dalam hatinya, dan mukhlis ialah orang yang menampakkan yang sesuai dengan yang sebenarnya tersimpan di dalam hatinya, karena mengharapkan rida Allah swt.",
        "theme_group": "SIFAT ORANG MUNAFIK DAN ORANG YANG MUKHLIS",
        "kosakata": "Kosakata: al-Khi\u1e63\u0101m \u0627\u064e\u0644\u0652\u062e\u0650\u0635\u064e\u0627\u0645\u064f  (al-Baqarah/2: 204)\nKata ini masdar dari kh\u0101\u1e63ama, yaitu \u201cpenentangan yang sangat gigih\u201d. Kata dasarnya adalah al-kha\u1e63m artinya \u201cpermusuhan\u201d. Dalam ayat ini diberikan sebuah contoh sifat manusia yang melukiskan penentangan itu, yaitu orang yang mulutnya manis, menyatakan iman sebenar-benarnya, bahkan bersumpah demi Allah bahwa ia beriman, tetapi sebenarnya hatinya sangat ingkar, bahkan sangat memusuhi Islam.",
        "sabab_nuzul": null,
        "conclusion": null
    }
}