{
    "id": 219,
    "surah_id": 2,
    "ayah": 212,
    "page": 33,
    "quarter_hizb": 4,
    "juz": 2,
    "manzil": 1,
    "arabic": "\u0632\u064f\u064a\u0651\u0650\u0646\u064e \u0644\u0650\u0644\u0651\u064e\u0630\u0650\u064a\u0652\u0646\u064e \u0643\u064e\u0641\u064e\u0631\u064f\u0648\u0627 \u0627\u0644\u0652\u062d\u064e\u064a\u0670\u0648\u0629\u064f \u0627\u0644\u062f\u0651\u064f\u0646\u0652\u064a\u064e\u0627 \u0648\u064e\u064a\u064e\u0633\u0652\u062e\u064e\u0631\u064f\u0648\u0652\u0646\u064e \u0645\u0650\u0646\u064e \u0627\u0644\u0651\u064e\u0630\u0650\u064a\u0652\u0646\u064e \u0627\u0670\u0645\u064e\u0646\u064f\u0648\u0652\u0627 \u06d8 \u0648\u064e\u0627\u0644\u0651\u064e\u0630\u0650\u064a\u0652\u0646\u064e \u0627\u062a\u0651\u064e\u0642\u064e\u0648\u0652\u0627 \u0641\u064e\u0648\u0652\u0642\u064e\u0647\u064f\u0645\u0652 \u064a\u064e\u0648\u0652\u0645\u064e \u0627\u0644\u0652\u0642\u0650\u064a\u0670\u0645\u064e\u0629\u0650 \u06d7 \u0648\u064e\u0627\u0644\u0644\u0651\u0670\u0647\u064f \u064a\u064e\u0631\u0652\u0632\u064f\u0642\u064f \u0645\u064e\u0646\u0652 \u064a\u0651\u064e\u0634\u064e\u0627\u06e4\u0621\u064f \u0628\u0650\u063a\u064e\u064a\u0652\u0631\u0650 \u062d\u0650\u0633\u064e\u0627\u0628\u064d",
    "latin": "Zuyyina lil-la\u017c\u012bna kafarul-\u1e25ay\u0101tud-dun-y\u0101 wa yaskhar\u016bna minal-la\u017c\u012bna \u0101man\u016b, wal-la\u017c\u012bnattaqau fauqahum yaumal-qiy\u0101mah(ti), wall\u0101hu yarzuqu may yasy\u0101'u bigairi \u1e25is\u0101b(in).  ",
    "translation": "Kehidupan dunia dijadikan terasa indah dalam pandangan orang-orang yang kufur dan mereka (terus) menghina orang-orang yang beriman. Padahal orang-orang yang bertakwa itu berada di atas mereka pada hari Kiamat. Allah memberi rezeki kepada orang yang Dia kehendaki tanpa perhitungan.",
    "no_footnote": null,
    "footnotes": null,
    "surah": {
        "id": 2,
        "arabic": " \u0627\u0644\u0628\u0642\u0631\u0629",
        "latin": "Al-Baqarah ",
        "transliteration": "Al-Baqarah",
        "translation": "Sapi",
        "num_ayah": 286,
        "page": 2,
        "location": "Madaniyah"
    },
    "tafsir": {
        "wajiz": "Kehidupan dunia dijadikan oleh Allah terasa indah dalam pandangan orang-orang yang kafir Mekah. Mereka sangat mencintai dunia dan berlomba-lomba mencari kesenangan dunia sehingga lupa kepada akhirat, dan mereka terus-menerus menghina orang-orang yang beriman, seperti Bilal, suwahaib, dan lainnya karena kefakiran mereka. Mereka terus saja berbuat demikian padahal orang-orang yang bertakwa itu berada di atas mereka pada hari Kiamat. Mereka berada di surga sedangkan orang kafir itu berada di neraka. Dan Allah memberi rezeki baik di dunia maupun akhirat kepada orang yang Dia kehendaki tanpa perhitungan.",
        "tahlili": "Menurut Abdullah bin Abbas, ayat ini diturunkan berhubungan dengan Abu Jahal dan teman-temannya. Sedang menurut Muqatil, ayat ini diturunkan berhubungan dengan orang-orang munafik, seperti Abdullah bin Ubay dan pengikut-pengikutnya.\nRiwayat lain mengatakan bahwa ayat ini diturunkan berhubungan dengan kaum Yahudi, tokoh-tokoh dan pemimpin-pemimpinnya, dari Bani Quraizah Bani Nadir dan Bani Qainuqa, yang kesemuanya selalu menghina kaum Muslimin. \nImam Fakhrur Razi berkata, \u201cTidak ada salahnya bila dikatakan bahwa ayat ini diturunkan untuk ketiga golongan tersebut.\u201d Sudah menjadi tabiat yang melekat, terutama dalam hati orang kafir, yaitu mencintai dunia lebih dari segala-galanya. Setan menggambarkan kepada mereka kenikmatan hidup di dunia yang indah permai dengan sehebat-hebatnya sampai seluruh perhatian mereka tercurah kepada dunia. Mereka merebutnya mati-matian, mempertahankannya dengan jiwa raga, tidak mempedulikan larangan agama, kesopanan atau hukum-hukum Allah dan Rasul. Banyak celaan mereka yang ditujukan kepada orang-orang mukmin, seperti Abdullah bin Mas'ud, Ammar bin Yasir, Suhaib, dan sebagainya, dengan sengaja untuk menghina dan merendahkan kedudukan mereka. Mereka berkata, \u201cMuslimin itu suka menyiksa diri dan meninggalkan kesenangan dunia, mereka bersusah payah mengerjakan ibadah, menahan hawa nafsu dengan berpuasa, berzakat, dan mengeluarkan biaya yang besar untuk naik haji, dan lain sebagainya.\nEjekan dan penghinaan kaum kafir terhadap kaum Muslimin dijawab bahwa orang yang bertakwa kepada Allah, nanti pada hari kemudian jauh lebih tinggi martabat dan kedudukannya daripada mereka. Orang yang bertakwa akan dimasukkan ke dalam surga, sebagaimana disebutkan dalam firman Allah swt:\n\u062a\u0650\u0644\u0652\u0643\u064e \u0627\u0644\u0652\u062c\u064e\u0646\u0651\u064e\u0629\u064f \u0627\u0644\u0651\u064e\u062a\u0650\u064a\u0652 \u0646\u064f\u0648\u0652\u0631\u0650\u062b\u064f \u0645\u0650\u0646\u0652 \u0639\u0650\u0628\u064e\u0627\u062f\u0650\u0646\u064e\u0627 \u0645\u064e\u0646\u0652 \u0643\u064e\u0627\u0646\u064e \u062a\u064e\u0642\u0650\u064a\u0651\u064b\u0627 \u0666\u0663 (\u0645\u0631\u064a\u0645)\nItulah surga yang akan Kami wariskan kepada hamba-hamba Kami yang selalu bertakwa. (Maryam/19: 63).\nOrang kafir membanggakan kesenangan dunia yang dimilikinya, kekayaan bertumpuk-tumpuk yang diperolehnya, dan mereka menghina orang yang beriman yang umumnya miskin, tidak banyak yang kaya dibanding mereka. Untuk menjawab penghinaan ini, Allah menutup ayat ini dengan satu penegasan bahwa sangkaan mereka itu tidak benar. Allah memberi rezeki di dunia ini kepada siapa saja yang dikehendaki-Nya, baik ia orang kafir maupun mukmin, hanya bedanya kalau ia orang kafir, rezekinya itu sebagai \"istidraj\" yaitu menjerumuskan mereka dengan berangsur-angsur ke dalam siksa yang pedih yang akan ditemuinya. Siksa dan azab yang diterimanya di hari kemudian adalah karena mereka tidak mau sadar dan tidak mau kembali ke jalan Allah, sekalipun dalam keadaan senang dan serba cukup. Sedang bagi orang mukmin rezekinya itu merupakan \"fitnah\" yaitu cobaan, apakah ia mampu dan sanggup menggunakan dan memanfaatkannya kepada hal-hal yang diridai Allah swt atau tidak?\nDi akhirat nanti, orang-orang kafir akan meringkuk dalam neraka, merasakan siksaan dan azab yang amat pedih tak terhingga, dan orang mukmin dimasukkan ke dalam surga, diberi pahala berlipat ganda tak ada batasnya. Allah swt berfirman:\n\u0648\u064e\u0645\u064e\u0646\u0652 \u0639\u064e\u0645\u0650\u0644\u064e \u0635\u064e\u0627\u0644\u0650\u062d\u064b\u0627 \u0645\u0651\u0650\u0646\u0652 \u0630\u064e\u0643\u064e\u0631\u064d \u0627\u064e\u0648\u0652 \u0627\u064f\u0646\u0652\u062b\u0670\u0649 \u0648\u064e\u0647\u064f\u0648\u064e \u0645\u064f\u0624\u0652\u0645\u0650\u0646\u064c \u0641\u064e\u0627\u064f\u0648\u0644\u0670\u06e4\u0649\u0655\u0650\u0643\u064e \u064a\u064e\u062f\u0652\u062e\u064f\u0644\u064f\u0648\u0652\u0646\u064e \u0627\u0644\u0652\u062c\u064e\u0646\u0651\u064e\u0629\u064e \u064a\u064f\u0631\u0652\u0632\u064e\u0642\u064f\u0648\u0652\u0646\u064e \u0641\u0650\u064a\u0652\u0647\u064e\u0627 \u0628\u0650\u063a\u064e\u064a\u0652\u0631\u0650 \u062d\u0650\u0633\u064e\u0627\u0628\u064d \n\u2026 Dan barang siapa mengerjakan kebajikan, baik laki-laki maupun perempuan sedangkan dia dalam keadaan beriman, maka mereka akan masuk surga, mereka diberi rezeki di dalamnya tidak terhingga. (al-Mu\u2019min/40: 40)",
        "intro_surah": "Surah al-Baqarah yang terdiri dari 286 ayat adalah termasuk golongan surah Madaniyah yang diturunkan pada tahun-tahun permulaan periode Nabi Muhammad saw di Medinah. Ia merupakan surah yang terpanjang dan terbanyak ayat-ayatnya di antara surah yang ada di dalam Al-Qur\u2019an. Surah ini dinamai \u201cal-Baqarah\u201d yang berarti \u201cseekor sapi\u201d, karena di dalamnya disebutkan kisah penyembelihan sapi betina yang diperintahkan Allah kepada Bani Israil. Dalam pelaksanaan penyembelihan sapi betina itu tampak dengan jelas sifat dan watak orang-orang Yahudi pada umumnya.\nDinamakan juga fus\u1e6da\u1e6d al-Qur\u2019\u0101n yang berarti \u201cpuncak Al-Qur\u2019an\u201d karena surah ini memuat beberapa hukum yang tidak disebut di surah-surah yang lain. Juga dinamakan Al\u012bf L\u0101m M\u012bm, karena surah ini dimulai dengan huruf-huruf hijaiyah (abjad) alif l\u0101m m\u012bm.\nDi antara pokok-pokok isinya ialah:\n1.\tKeimanan: Dakwah Islamiah yang ditujukan kepada umat Islam, Ahli Kitab dan orang-orang musyrik.\n2.\tHukum: Perintah mengerjakan salat, perintah menunaikan zakat, puasa, haji dan umrah, qi\u1e63a\u1e63, yang halal dan yang haram, bernafkah di jalan Allah, minum arak dan berjudi, cara bergaul dengan anak yatim, prinsip-prinsip ekonomi, larangan memakan riba, utang piutang, nafkah dan yang berhak menerimanya, wasiat kepada dua orang ibu bapak dan kaum kerabat, hukum sumpah, kewajiban menyampaikan amanat, sihir, hukum merusak masjid, hukum mengubah kitab-kitab Allah, haid, idah, talak, khulu\u2018, il\u0101, hukum susuan, meminang, mahar, menikahi wanita musyrik dan sebaliknya, hukum perang, dan lain-lain. \n3.\tKisah: Penciptaan Nabi Adam a.s., kisah Nabi Ibrahim a.s., dan kisah Nabi Musa a.s. dengan Bani Israil.\n4.\tLain-lain, seperti: sifat orang yang bertakwa, sifat-sifat orang munafik, sifat-sifat Allah, perumpamaan-perumpamaan, kiblat, dan kebangkitan sesudah mati.",
        "outro_surah": null,
        "munasabah_prev_surah": "1.\tSurah al-F\u0101ti\u1e25ah merupakan pokok-pokok pembahasan yang akan dirinci dalam surah al-Baqarah dan surah-surah sesudahnya.\n2.\tDi bagian akhir surah al-F\u0101ti\u1e25ah disebutkan permohonan hamba, agar diberi petunjuk oleh Allah ke jalan yang lurus, sedang surah al-Baqarah dimulai dengan ayat yang menerangkan bahwa Al-Qur\u2019an adalah kitab yang menunjukkan jalan yang dimaksudkan itu.\n3.\tDi akhir surah al-F\u0101ti\u1e25ah disebutkan tiga kelompok manusia, yaitu yang diberi nikmat, yang dimurkai Allah dan orang yang sesat, sedangkan di awal surah al-Baqarah juga disebutkan tiga kelompok manusia, yaitu orang yang bertakwa, orang kafir, dan orang munafik.",
        "munasabah_prev_theme": "Ayat-ayat sebelumnya menjelaskan bahwa di antara manusia ada dua golongan, yaitu: pertama, orang-orang munafik yang kerjanya membuat kerusakan di atas bumi ini serta membinasakan tanaman dan ternak. Kedua, orang mukhlis yang berbuat dan beramal baik dengan ikhlas dan mengharapkan rida Allah. Pada ayat-ayat ini, Allah memerintahkan agar orang-orang mukmin menjadi muslim seutuhnya dan menaati seluruh perintah-Nya. Allah juga mengancam orang-orang yang mengingkari perintah-perintah-Nya dengan azab yang pedih.",
        "theme_group": "PERINTAH MENGIKUTI AJARAN AGAMA\nSECARA KESELURUHAN DAN BALASAN BAGI \nORANG YANG MENGINGKARINYA",
        "kosakata": "Kosakata: K\u0101ffah  \u0643\u064e\u0627\u0641\u0651\u064e\u0629\u0652 (al-Baqarah/2: 208)\nBerasal dari kata kaff \u201ctelapak tangan\u201d atau kaffa \u201cmenghambat sesuatu dengan tangan\u201d. Dalam Al-Qur\u2019an dinyatakan bahwa Nabi Muhammad diutus tiada lain kecuali untuk k\u0101ffatan bagi manusia (Saba\u2019/34:28), yaitu sebagai penghambat mereka dari segala perbuatan-perbuatan yang tidak baik. Juga berarti \u201cseluruhnya\u201d, karena \u201cmenghambat dengan tangan\u201d berarti \u201cmencegahnya sama sekali\u201d. Pengertian ini, misalnya, terdapat dalam al-Baqarah/2: 208, di mana Allah meminta mereka yang beriman masuk Islam dan melaksanakan ajarannya secara keseluruhan, yaitu secara total dan sempurna, tanpa mengamalkan sebagian dan mengabaikan sebagian yang lain.",
        "sabab_nuzul": null,
        "conclusion": "1.\tAllah memerintahkan agar ajaran Islam dilaksanakan secara keseluruhan.\n2.\tAllah memberi peringatan kepada orang yang mengikuti ajaran setan, bahwa mereka akan mendapat azab yang pedih di akhirat.\n3.\tAllah memperingatkan Bani Israil, agar mereka mensyukuri nikmat Allah dan mengancam mereka yang tidak mengindahkan peringatan-Nya.\n4.\tDi antara sifat-sifat orang kafir ialah sangat teperdaya dan tertarik oleh kehidupan duniawi dan suka memperolok-olokkan dan menghina orang yang beriman."
    }
}