{
    "id": 237,
    "surah_id": 2,
    "ayah": 230,
    "page": 36,
    "quarter_hizb": 4.25,
    "juz": 2,
    "manzil": 1,
    "arabic": "\u0641\u064e\u0627\u0650\u0646\u0652 \u0637\u064e\u0644\u0651\u064e\u0642\u064e\u0647\u064e\u0627 \u0641\u064e\u0644\u064e\u0627 \u062a\u064e\u062d\u0650\u0644\u0651\u064f \u0644\u064e\u0647\u0657 \u0645\u0650\u0646\u0652\u06e2 \u0628\u064e\u0639\u0652\u062f\u064f \u062d\u064e\u062a\u0651\u0670\u0649 \u062a\u064e\u0646\u0652\u0643\u0650\u062d\u064e \u0632\u064e\u0648\u0652\u062c\u064b\u0627 \u063a\u064e\u064a\u0652\u0631\u064e\u0647\u0657 \u06d7 \u0641\u064e\u0627\u0650\u0646\u0652 \u0637\u064e\u0644\u0651\u064e\u0642\u064e\u0647\u064e\u0627 \u0641\u064e\u0644\u064e\u0627 \u062c\u064f\u0646\u064e\u0627\u062d\u064e \u0639\u064e\u0644\u064e\u064a\u0652\u0647\u0650\u0645\u064e\u0627\u0653 \u0627\u064e\u0646\u0652 \u064a\u0651\u064e\u062a\u064e\u0631\u064e\u0627\u062c\u064e\u0639\u064e\u0627\u0653 \u0627\u0650\u0646\u0652 \u0638\u064e\u0646\u0651\u064e\u0627\u0653 \u0627\u064e\u0646\u0652 \u064a\u0651\u064f\u0642\u0650\u064a\u0652\u0645\u064e\u0627 \u062d\u064f\u062f\u064f\u0648\u0652\u062f\u064e \u0627\u0644\u0644\u0651\u0670\u0647\u0650 \u06d7 \u0648\u064e\u062a\u0650\u0644\u0652\u0643\u064e \u062d\u064f\u062f\u064f\u0648\u0652\u062f\u064f \u0627\u0644\u0644\u0651\u0670\u0647\u0650 \u064a\u064f\u0628\u064e\u064a\u0651\u0650\u0646\u064f\u0647\u064e\u0627 \u0644\u0650\u0642\u064e\u0648\u0652\u0645\u064d \u064a\u0651\u064e\u0639\u0652\u0644\u064e\u0645\u064f\u0648\u0652\u0646\u064e ",
    "latin": "Fa'in \u1e6dallaqah\u0101 fal\u0101 ta\u1e25illu lah\u016b mim ba\u2018du \u1e25att\u0101 tanki\u1e25a zaujan gairah(\u016b), fa'in \u1e6dallaqah\u0101 fal\u0101 jun\u0101\u1e25a \u2018alaihim\u0101 ay yatar\u0101ja\u2018\u0101 in \u1e93ann\u0101 ay yuq\u012bm\u0101 \u1e25ud\u016bdull\u0101h(i), tilka \u1e25ud\u016bdull\u0101hi yubayyinuh\u0101 liqaumiy ya\u2018lam\u016bn(a).  ",
    "translation": "Jika dia menceraikannya kembali (setelah talak kedua), perempuan itu tidak halal lagi baginya hingga dia menikah dengan laki-laki yang lain. Jika (suami yang lain itu) sudah menceraikannya, tidak ada dosa bagi keduanya (suami pertama dan mantan istri) untuk menikah kembali jika keduanya menduga akan dapat menjalankan hukum-hukum Allah. Itulah ketentuan-ketentuan Allah yang diterangkan-Nya kepada orang-orang yang (mau) mengetahui.",
    "no_footnote": null,
    "footnotes": null,
    "surah": {
        "id": 2,
        "arabic": " \u0627\u0644\u0628\u0642\u0631\u0629",
        "latin": "Al-Baqarah ",
        "transliteration": "Al-Baqarah",
        "translation": "Sapi",
        "num_ayah": 286,
        "page": 2,
        "location": "Madaniyah"
    },
    "tafsir": {
        "wajiz": "Kemudian jika dia memilih untuk menceraikan istri-nya setelah talak yang kedua, yakni pada talak ketiga yang tidak lagi memberinya kesempatan untuk rujuk, maka perempuan itu tidak halal lagi baginya sebelum dia menikah dan melakukan hubungan suami-istri dengan suami yang lain. Kemudian jika suami yang lain itu menceraikannya, maka tidak ada dosa dan halangan bagi keduanya, yakni suami pertama dan mantan istrinya, untuk menikah kembali dengan akad yang baru, setelah ia selesai menjalani masa idahnya dari suami kedua. Hal ini dapat ditempuh jika keduanya berpen-dapat akan dapat menjalankan hukum-hukum Allah dengan menjalani hidup baru yang lebih baik sesuai dengan aturan yang ditetapkan Allah. Apabila keduanya ragu untuk kembali dengan baikbaik maka niat untuk kembali hidup bersama hendaknya dibatalkan. Itulah ketentuan-ketentuan Allah tentang hukum talak, rujuk, dan khulu\u2019 yang dite-rangkan-Nya kepada orang-orang yang berpengetahuan agar mereka memahami dan memperhatikan hukum-hukum Allah",
        "tahlili": "Ayat ini menerangkan, kalau sudah jatuh talak tiga, tidak boleh lagi rujuk. Apabila kedua belah pihak ingin hidup kembali sebagai suami- istri, maka perempuan itu harus kawin lebih dahulu dengan laki-laki lain, dan telah dicampuri oleh suaminya yang baru, dan kemudian diceraikan atas kehendak sendiri, dan sudah habis masa idahnya, barulah keduanya boleh rujuk kembali.\nAyat ini menyuruh kita berhati-hati dalam menjatuhkan talak, jangan gegabah dan jangan terburu nafsu. Pikirkanlah masak-masak, karena terburu nafsu dalam menjatuhkan talak, akhirnya menyesal. Menjatuhkan talak itu dibolehkan dalam Islam, tapi ia adalah perbuatan yang dibenci Allah. Akibat perceraian itu besar sekali, baik bagi suami, lebih-lebih bagi istri dan anak-anak. Karenanya, apabila masih dalam talak kedua, lebih baik rujuk kembali, kalau memang masih bisa diharapkan terwujudnya rumah tangga bahagia, dan dapat menjalankan perintah Allah dengan sebaik-baiknya.",
        "intro_surah": "Surah al-Baqarah yang terdiri dari 286 ayat adalah termasuk golongan surah Madaniyah yang diturunkan pada tahun-tahun permulaan periode Nabi Muhammad saw di Medinah. Ia merupakan surah yang terpanjang dan terbanyak ayat-ayatnya di antara surah yang ada di dalam Al-Qur\u2019an. Surah ini dinamai \u201cal-Baqarah\u201d yang berarti \u201cseekor sapi\u201d, karena di dalamnya disebutkan kisah penyembelihan sapi betina yang diperintahkan Allah kepada Bani Israil. Dalam pelaksanaan penyembelihan sapi betina itu tampak dengan jelas sifat dan watak orang-orang Yahudi pada umumnya.\nDinamakan juga fus\u1e6da\u1e6d al-Qur\u2019\u0101n yang berarti \u201cpuncak Al-Qur\u2019an\u201d karena surah ini memuat beberapa hukum yang tidak disebut di surah-surah yang lain. Juga dinamakan Al\u012bf L\u0101m M\u012bm, karena surah ini dimulai dengan huruf-huruf hijaiyah (abjad) alif l\u0101m m\u012bm.\nDi antara pokok-pokok isinya ialah:\n1.\tKeimanan: Dakwah Islamiah yang ditujukan kepada umat Islam, Ahli Kitab dan orang-orang musyrik.\n2.\tHukum: Perintah mengerjakan salat, perintah menunaikan zakat, puasa, haji dan umrah, qi\u1e63a\u1e63, yang halal dan yang haram, bernafkah di jalan Allah, minum arak dan berjudi, cara bergaul dengan anak yatim, prinsip-prinsip ekonomi, larangan memakan riba, utang piutang, nafkah dan yang berhak menerimanya, wasiat kepada dua orang ibu bapak dan kaum kerabat, hukum sumpah, kewajiban menyampaikan amanat, sihir, hukum merusak masjid, hukum mengubah kitab-kitab Allah, haid, idah, talak, khulu\u2018, il\u0101, hukum susuan, meminang, mahar, menikahi wanita musyrik dan sebaliknya, hukum perang, dan lain-lain. \n3.\tKisah: Penciptaan Nabi Adam a.s., kisah Nabi Ibrahim a.s., dan kisah Nabi Musa a.s. dengan Bani Israil.\n4.\tLain-lain, seperti: sifat orang yang bertakwa, sifat-sifat orang munafik, sifat-sifat Allah, perumpamaan-perumpamaan, kiblat, dan kebangkitan sesudah mati.",
        "outro_surah": null,
        "munasabah_prev_surah": "1.\tSurah al-F\u0101ti\u1e25ah merupakan pokok-pokok pembahasan yang akan dirinci dalam surah al-Baqarah dan surah-surah sesudahnya.\n2.\tDi bagian akhir surah al-F\u0101ti\u1e25ah disebutkan permohonan hamba, agar diberi petunjuk oleh Allah ke jalan yang lurus, sedang surah al-Baqarah dimulai dengan ayat yang menerangkan bahwa Al-Qur\u2019an adalah kitab yang menunjukkan jalan yang dimaksudkan itu.\n3.\tDi akhir surah al-F\u0101ti\u1e25ah disebutkan tiga kelompok manusia, yaitu yang diberi nikmat, yang dimurkai Allah dan orang yang sesat, sedangkan di awal surah al-Baqarah juga disebutkan tiga kelompok manusia, yaitu orang yang bertakwa, orang kafir, dan orang munafik.",
        "munasabah_prev_theme": "Sebelum ayat ini, telah diterangkan hukum bersumpah tidak akan mencampuri istri yang menyebabkan istri terkatung-katung. Jika pada akhirnya suami memilih cerai dengan istrinya, maka dalam ayat ini diterangkan segala sesuatu yang bertalian dengan talak, masa idah, hukum talak tiga kali, atau sikap terhadap bekas istri yang telah dicerai.",
        "theme_group": "TALAK DAN HUKUMNYA",
        "kosakata": "Kosakata: al-Mu\u1e6dallaq\u0101t \u0627\u064e\u0644\u0652\u0645\u064f\u0637\u064e\u0644\u0651\u064e\u0642\u064e\u0627\u062a\u0650 (al-Baqarah/2: 228) \nAl-Mu\u1e6dallaq\u0101t adalah jamak dari kata al-mu\u1e6dallaqah yaitu isim maf\u2018\u016bl yang diambil dari kata \u1e6dal\u0101q, berarti \u201cperempuan yang dicerai oleh suaminya\u201d. Kata al-mu\u1e6dallaq\u0101t dan dari kata dasar yang sama disebutkan dalam berbagai surah Al-Qur\u2019an, antara lain pada surah al-Baqarah/2:228 dan 241. Arti kata dasarnya (\u1e6d-l-q [\u0637\u0644\u0642]) adalah \u201cmelepaskan\u201d, \u201cmengosongkan\u201d, dan lain sebagainya.",
        "sabab_nuzul": null,
        "conclusion": null
    }
}