{
    "id": 216,
    "surah_id": 2,
    "ayah": 209,
    "page": 32,
    "quarter_hizb": 4,
    "juz": 2,
    "manzil": 1,
    "arabic": "\u0641\u064e\u0627\u0650\u0646\u0652 \u0632\u064e\u0644\u064e\u0644\u0652\u062a\u064f\u0645\u0652 \u0645\u0651\u0650\u0646\u0652\u06e2 \u0628\u064e\u0639\u0652\u062f\u0650 \u0645\u064e\u0627 \u062c\u064e\u0627\u06e4\u0621\u064e\u062a\u0652\u0643\u064f\u0645\u064f \u0627\u0644\u0652\u0628\u064e\u064a\u0651\u0650\u0646\u0670\u062a\u064f \u0641\u064e\u0627\u0639\u0652\u0644\u064e\u0645\u064f\u0648\u0652\u0653\u0627 \u0627\u064e\u0646\u0651\u064e \u0627\u0644\u0644\u0651\u0670\u0647\u064e \u0639\u064e\u0632\u0650\u064a\u0652\u0632\u064c \u062d\u064e\u0643\u0650\u064a\u0652\u0645\u064c ",
    "latin": "Fa'in zalaltum mim ba\u2018di m\u0101 j\u0101'atkumul-bayyin\u0101tu fa\u2018lam\u016b annall\u0101ha \u2018az\u012bzun \u1e25ak\u012bm(un). ",
    "translation": "Maka, jika kamu menyimpang (dari jalan Allah) setelah bukti-bukti kebenaran yang nyata sampai kepadamu, ketahuilah bahwa Allah Maha Perkasa lagi Maha Bijaksana.",
    "no_footnote": null,
    "footnotes": null,
    "surah": {
        "id": 2,
        "arabic": " \u0627\u0644\u0628\u0642\u0631\u0629",
        "latin": "Al-Baqarah ",
        "transliteration": "Al-Baqarah",
        "translation": "Sapi",
        "num_ayah": 286,
        "page": 2,
        "location": "Madaniyah"
    },
    "tafsir": {
        "wajiz": "Tetapi jika kamu tergelincir akibat berbuat maksiat dan tidak melaksanakan Islam secara keseluruhan, kaffah, setelah bukti-bukti yang nyata, yakni dalil tentang kebenaran Islam, sampai kepadamu melalui wahyu yang dibawa oleh para nabi, ketahuilah bahwa Allah Mahaperkasa. Tidak ada yang dapat menghalangi siksaan-Nya. Allah juga Mahabijaksana dalam segala perbuatan-Nya. ",
        "tahlili": "Meskipun Allah menekankan kepada kaum Muslimin agar ajaran Islam dilaksanakan secara keseluruhan, perintah Allah ditaati, larangan-Nya dijauhi, namun masih ada juga orang yang tergelincir, lalu berbuat sekehendak hatinya, padahal bukti-bukti kebenaran agama Islam cukup jelas baginya. Hendaklah mereka ingat bahwa Allah Mahakuasa untuk mengadakan pembalasan, dan jika Allah menghendaki, tidak ada suatu kekuasaan dan kekuatan apa pun yang dapat menghalangi-Nya, dan Allah Mahabijaksana.\nDia tidak akan membiarkan pelanggar-pelanggar hukum, tetapi Dia akan membalasnya setimpal dengan kesalahan-kesalahan dan kejahatan-kejahatan yang telah dilakukan.",
        "intro_surah": "Surah al-Baqarah yang terdiri dari 286 ayat adalah termasuk golongan surah Madaniyah yang diturunkan pada tahun-tahun permulaan periode Nabi Muhammad saw di Medinah. Ia merupakan surah yang terpanjang dan terbanyak ayat-ayatnya di antara surah yang ada di dalam Al-Qur\u2019an. Surah ini dinamai \u201cal-Baqarah\u201d yang berarti \u201cseekor sapi\u201d, karena di dalamnya disebutkan kisah penyembelihan sapi betina yang diperintahkan Allah kepada Bani Israil. Dalam pelaksanaan penyembelihan sapi betina itu tampak dengan jelas sifat dan watak orang-orang Yahudi pada umumnya.\nDinamakan juga fus\u1e6da\u1e6d al-Qur\u2019\u0101n yang berarti \u201cpuncak Al-Qur\u2019an\u201d karena surah ini memuat beberapa hukum yang tidak disebut di surah-surah yang lain. Juga dinamakan Al\u012bf L\u0101m M\u012bm, karena surah ini dimulai dengan huruf-huruf hijaiyah (abjad) alif l\u0101m m\u012bm.\nDi antara pokok-pokok isinya ialah:\n1.\tKeimanan: Dakwah Islamiah yang ditujukan kepada umat Islam, Ahli Kitab dan orang-orang musyrik.\n2.\tHukum: Perintah mengerjakan salat, perintah menunaikan zakat, puasa, haji dan umrah, qi\u1e63a\u1e63, yang halal dan yang haram, bernafkah di jalan Allah, minum arak dan berjudi, cara bergaul dengan anak yatim, prinsip-prinsip ekonomi, larangan memakan riba, utang piutang, nafkah dan yang berhak menerimanya, wasiat kepada dua orang ibu bapak dan kaum kerabat, hukum sumpah, kewajiban menyampaikan amanat, sihir, hukum merusak masjid, hukum mengubah kitab-kitab Allah, haid, idah, talak, khulu\u2018, il\u0101, hukum susuan, meminang, mahar, menikahi wanita musyrik dan sebaliknya, hukum perang, dan lain-lain. \n3.\tKisah: Penciptaan Nabi Adam a.s., kisah Nabi Ibrahim a.s., dan kisah Nabi Musa a.s. dengan Bani Israil.\n4.\tLain-lain, seperti: sifat orang yang bertakwa, sifat-sifat orang munafik, sifat-sifat Allah, perumpamaan-perumpamaan, kiblat, dan kebangkitan sesudah mati.",
        "outro_surah": null,
        "munasabah_prev_surah": "1.\tSurah al-F\u0101ti\u1e25ah merupakan pokok-pokok pembahasan yang akan dirinci dalam surah al-Baqarah dan surah-surah sesudahnya.\n2.\tDi bagian akhir surah al-F\u0101ti\u1e25ah disebutkan permohonan hamba, agar diberi petunjuk oleh Allah ke jalan yang lurus, sedang surah al-Baqarah dimulai dengan ayat yang menerangkan bahwa Al-Qur\u2019an adalah kitab yang menunjukkan jalan yang dimaksudkan itu.\n3.\tDi akhir surah al-F\u0101ti\u1e25ah disebutkan tiga kelompok manusia, yaitu yang diberi nikmat, yang dimurkai Allah dan orang yang sesat, sedangkan di awal surah al-Baqarah juga disebutkan tiga kelompok manusia, yaitu orang yang bertakwa, orang kafir, dan orang munafik.",
        "munasabah_prev_theme": "Ayat-ayat sebelumnya menjelaskan bahwa di antara manusia ada dua golongan, yaitu: pertama, orang-orang munafik yang kerjanya membuat kerusakan di atas bumi ini serta membinasakan tanaman dan ternak. Kedua, orang mukhlis yang berbuat dan beramal baik dengan ikhlas dan mengharapkan rida Allah. Pada ayat-ayat ini, Allah memerintahkan agar orang-orang mukmin menjadi muslim seutuhnya dan menaati seluruh perintah-Nya. Allah juga mengancam orang-orang yang mengingkari perintah-perintah-Nya dengan azab yang pedih.",
        "theme_group": "PERINTAH MENGIKUTI AJARAN AGAMA\nSECARA KESELURUHAN DAN BALASAN BAGI \nORANG YANG MENGINGKARINYA",
        "kosakata": "Kosakata: K\u0101ffah  \u0643\u064e\u0627\u0641\u0651\u064e\u0629\u0652 (al-Baqarah/2: 208)\nBerasal dari kata kaff \u201ctelapak tangan\u201d atau kaffa \u201cmenghambat sesuatu dengan tangan\u201d. Dalam Al-Qur\u2019an dinyatakan bahwa Nabi Muhammad diutus tiada lain kecuali untuk k\u0101ffatan bagi manusia (Saba\u2019/34:28), yaitu sebagai penghambat mereka dari segala perbuatan-perbuatan yang tidak baik. Juga berarti \u201cseluruhnya\u201d, karena \u201cmenghambat dengan tangan\u201d berarti \u201cmencegahnya sama sekali\u201d. Pengertian ini, misalnya, terdapat dalam al-Baqarah/2: 208, di mana Allah meminta mereka yang beriman masuk Islam dan melaksanakan ajarannya secara keseluruhan, yaitu secara total dan sempurna, tanpa mengamalkan sebagian dan mengabaikan sebagian yang lain.",
        "sabab_nuzul": null,
        "conclusion": null
    }
}