{
    "id": 252,
    "surah_id": 2,
    "ayah": 245,
    "page": 39,
    "quarter_hizb": 4.75,
    "juz": 2,
    "manzil": 1,
    "arabic": "\u0645\u064e\u0646\u0652 \u0630\u064e\u0627 \u0627\u0644\u0651\u064e\u0630\u0650\u064a\u0652 \u064a\u064f\u0642\u0652\u0631\u0650\u0636\u064f \u0627\u0644\u0644\u0651\u0670\u0647\u064e \u0642\u064e\u0631\u0652\u0636\u064b\u0627 \u062d\u064e\u0633\u064e\u0646\u064b\u0627 \u0641\u064e\u064a\u064f\u0636\u0670\u0639\u0650\u0641\u064e\u0647\u0657 \u0644\u064e\u0647\u0657\u0653 \u0627\u064e\u0636\u0652\u0639\u064e\u0627\u0641\u064b\u0627 \u0643\u064e\u062b\u0650\u064a\u0652\u0631\u064e\u0629\u064b \u06d7\u0648\u064e\u0627\u0644\u0644\u0651\u0670\u0647\u064f \u064a\u064e\u0642\u0652\u0628\u0650\u0636\u064f \u0648\u064e\u064a\u064e\u0628\u0652\u0635\u06e3\u064f\u0637\u064f\u06d6 \u0648\u064e\u0627\u0650\u0644\u064e\u064a\u0652\u0647\u0650 \u062a\u064f\u0631\u0652\u062c\u064e\u0639\u064f\u0648\u0652\u0646\u064e",
    "latin": "Man \u017cal-la\u017c\u012b yuqri\u1e0dull\u0101ha qar\u1e0dan \u1e25asanan fayu\u1e0d\u0101\u2018ifah\u016b lah\u016b a\u1e0d\u2018\u0101fan ka\u1e61\u012brah(tan), wall\u0101hu yaqbi\u1e0du wa yabsu\u1e6d(u), wa ilaihi turja\u2018\u016bn(a).  ",
    "translation": "Siapakah yang mau memberi pinjaman yang baik kepada Allah?76) Dia akan melipatgandakan (pembayaran atas pinjaman itu) baginya berkali-kali lipat. Allah menyempitkan dan melapangkan (rezeki). Kepada-Nyalah kamu dikembalikan.",
    "no_footnote": "76",
    "footnotes": "76) Maksud memberi pinjaman kepada Allah Swt. adalah menginfakkan harta di jalan-Nya.",
    "surah": {
        "id": 2,
        "arabic": " \u0627\u0644\u0628\u0642\u0631\u0629",
        "latin": "Al-Baqarah ",
        "transliteration": "Al-Baqarah",
        "translation": "Sapi",
        "num_ayah": 286,
        "page": 2,
        "location": "Madaniyah"
    },
    "tafsir": {
        "wajiz": "Barang siapa mau meminjami atau menginfakkan hartanya di jalan Allah dengan pinjaman yang baik berupa harta yang halal disertai niat yang ikhlas, maka Allah akan melipatgandakan ganti atau balasan kepadanya dengan balasan yang banyak dan berlipat sehingga kamu akan senantiasa terpacu untuk berinfak. Allah dengan segala kebijaksanaanNya akan menahan atau menyempitkan dan melapangkan rezeki kepada siapa saja yang dikehendaki-Nya, dan kepada-Nyalah kamu dikembalikan pada hari kebangkitan untuk mendapatkan balasan yang setimpal dan sesuai dengan apa yang diniatkan. ",
        "tahlili": "Diriwiyatkan oleh Ibnu Hibb\u0101n, Ibnu Ab\u012b \u1e24\u0101tim, dan Ibnu Mardawaih dari Ibnu Umar ketika turun ayat 261 surah al-Baqarah yang menerangkan bahwa orang-orang yang menafkahkan hartanya di jalan Allah nafkahnya itu adalah seperti sebutir benih yang menumbuhkan 7 tangkai; pada tiap-tiap tangkai berisi seratus biji, maka Rasulullah saw memohon, \"Ya Tuhanku, tambahlah balasan itu bagi umatku (lebih dari 700 kali).\nSetelah dikisahkan tentang umat yang binasa disebabkan karena ketakutan dan kelemahan kayakinan, maka dalam ayat ini Allah menganjurkan agar umat rela berkorban menafkahkan hartanya di jalan Allah dan nafkah itu dinamakan pinjaman. Allah, menamakannya pinjaman padahal Allah sendiri maha kaya, karena Allah mengetahui bahwa dorongan untuk mengeluarkan harta bagi kemaslahatan umat itu sangat lemah pada sebagian besar manusia; hanya segolongan kecil saja yang rela berbuat demikian. Hal ini dapat dirasakan di mana seorang hartawan kadang-kadang mudah saja mengeluarkan kelebihan hartanya untuk menolong kawan-kawannya, mungkin dengan niat untuk menjaga diri dari kejahatan atau untuk memelihara kedudukan yang tinggi, terutama jika yang ditolong itu kerabatnya sendiri. Tetapi jika pengeluaran harta itu untuk mempertahankan agama dan memelihara keluhurannya serta meninggikan kalimah Allah yang di dalamnya tidak terdapat hal-hal yang menguntungkan bagi dirinya sendiri secara langsung di dunia, maka tidak mudah baginya untuk melepaskan harta yang dicintainya itu, kecuali jika secara terang-terangan atau melalui saluran resmi. Oleh karena itu, ungkapan yang dipergunakan untuk menafkahkan harta benda di jalan Allah itu sangat menarik, yaitu: \"Siapakah yang mau memberi pinjaman kepada Allah, suatu pinjaman yang baik.\"\nPinjaman yang baik itu yang sesuai dengan bidang dan kemanfaatannya dan dikeluarkan dengan ikhlas semata-mata untuk mencapai keridaan Allah swt. Allah menjanjikan akan memberi balasan yang berlipat ganda. Allah memberikan perumpamaan tentang balasan yang berlipat ganda itu seperti sebutir benih padi yang ditanam dapat menghasilkan tujuh tangkai padi, setiap tangkai berisi 100 butir, sehingga menghasilkan 700 butir. Bahkan, Allah membalas itu tanpa batas sesuai dengan yang dimohonkan Rasulullah bagi umatnya dan sesuai dengan keikhlasan orang yang memberikan nafkah.\nAllah swt membatasi rezeki kepada orang yang tidak mengetahui sunatullah dalam soal-soal pencarian harta benda karena mereka tidak giat membangun di pelbagai bidang yang telah ditunjukkan Allah. Allah melapangkan rezeki kepada manusia yang lain yang pandai menyesuaikan diri dengan sunatullah dan menggarap berbagai bidang usaha sehingga merasakan hasil manfaatnya. Bila Allah menjadikan seorang miskin jadi kaya atau sebaliknya, maka yang demikian itu adalah sepenuhnya dalam kekuasaan Allah. Anjuran Allah menafkahkan sebagian harta ke jalan Allah, semata-mata untuk kemanfaatan manusia sendiri dan memberi petunjuk kepadanya agar mensyukuri nikmat pemberian itu karena dengan mensyukuri akan bertambah banyaklah berkahnya. Kemudian Allah menjelaskan bahwa semua makhluk akan dikembalikan kepada-Nya pada hari kiamat untuk menerima balasan amalnya masing-masing. ",
        "intro_surah": "Surah al-Baqarah yang terdiri dari 286 ayat adalah termasuk golongan surah Madaniyah yang diturunkan pada tahun-tahun permulaan periode Nabi Muhammad saw di Medinah. Ia merupakan surah yang terpanjang dan terbanyak ayat-ayatnya di antara surah yang ada di dalam Al-Qur\u2019an. Surah ini dinamai \u201cal-Baqarah\u201d yang berarti \u201cseekor sapi\u201d, karena di dalamnya disebutkan kisah penyembelihan sapi betina yang diperintahkan Allah kepada Bani Israil. Dalam pelaksanaan penyembelihan sapi betina itu tampak dengan jelas sifat dan watak orang-orang Yahudi pada umumnya.\nDinamakan juga fus\u1e6da\u1e6d al-Qur\u2019\u0101n yang berarti \u201cpuncak Al-Qur\u2019an\u201d karena surah ini memuat beberapa hukum yang tidak disebut di surah-surah yang lain. Juga dinamakan Al\u012bf L\u0101m M\u012bm, karena surah ini dimulai dengan huruf-huruf hijaiyah (abjad) alif l\u0101m m\u012bm.\nDi antara pokok-pokok isinya ialah:\n1.\tKeimanan: Dakwah Islamiah yang ditujukan kepada umat Islam, Ahli Kitab dan orang-orang musyrik.\n2.\tHukum: Perintah mengerjakan salat, perintah menunaikan zakat, puasa, haji dan umrah, qi\u1e63a\u1e63, yang halal dan yang haram, bernafkah di jalan Allah, minum arak dan berjudi, cara bergaul dengan anak yatim, prinsip-prinsip ekonomi, larangan memakan riba, utang piutang, nafkah dan yang berhak menerimanya, wasiat kepada dua orang ibu bapak dan kaum kerabat, hukum sumpah, kewajiban menyampaikan amanat, sihir, hukum merusak masjid, hukum mengubah kitab-kitab Allah, haid, idah, talak, khulu\u2018, il\u0101, hukum susuan, meminang, mahar, menikahi wanita musyrik dan sebaliknya, hukum perang, dan lain-lain. \n3.\tKisah: Penciptaan Nabi Adam a.s., kisah Nabi Ibrahim a.s., dan kisah Nabi Musa a.s. dengan Bani Israil.\n4.\tLain-lain, seperti: sifat orang yang bertakwa, sifat-sifat orang munafik, sifat-sifat Allah, perumpamaan-perumpamaan, kiblat, dan kebangkitan sesudah mati.",
        "outro_surah": null,
        "munasabah_prev_surah": "1.\tSurah al-F\u0101ti\u1e25ah merupakan pokok-pokok pembahasan yang akan dirinci dalam surah al-Baqarah dan surah-surah sesudahnya.\n2.\tDi bagian akhir surah al-F\u0101ti\u1e25ah disebutkan permohonan hamba, agar diberi petunjuk oleh Allah ke jalan yang lurus, sedang surah al-Baqarah dimulai dengan ayat yang menerangkan bahwa Al-Qur\u2019an adalah kitab yang menunjukkan jalan yang dimaksudkan itu.\n3.\tDi akhir surah al-F\u0101ti\u1e25ah disebutkan tiga kelompok manusia, yaitu yang diberi nikmat, yang dimurkai Allah dan orang yang sesat, sedangkan di awal surah al-Baqarah juga disebutkan tiga kelompok manusia, yaitu orang yang bertakwa, orang kafir, dan orang munafik.",
        "munasabah_prev_theme": "Pada ayat-ayat yang lalu dibicarakan masalah pembenahan intern rumah tangga (i\u1e63l\u0101\u1e25 d\u0101khil\u012b), seperti talak dan sebagainya, pada ayat ini dijelaskan tentang pembenahan keluar, seperti masalah jihad dan sebagainya.",
        "theme_group": "MENGHIDUPKAN JIWA UMAT UNTUK BERJIHAD \nDAN MEMANFAATKAN HARTA",
        "kosakata": "Kosakata: Qar\u1e0d \u0642\u064e\u0631\u0652\u0636  (al-Baqarah/2: 245)\nQar\u1e0d merupakan bentuk masdar yang berasal dari kata kerja qara\u1e0da-yaqri\u1e0du yang artinya \u201cmemutus\u201d, \u201cmeninggal\u201d, \u201cmembolehkan\u201d, \u201cmengatakan\u201d, atau \u201cmemakan\u201d. Dalam konteks ayat di atas, qar\u1e0d diartikan dengan \u201cpinjaman\u201d. Sedang pada tinjauan bahasa Al-Qur\u2019an, kata tersebut pada mulanya bermakna memutus atau memotong sesuatu dengan gigi, seperti tikus yang memotong kayu dengan giginya. Asal kata ini memberikan kesan bahwa pinjaman yang diberikan itu dilakukan dalam keadaan jiwa yang sedang mengalami kesulitan. Di sisi lain, pada saat seseorang menggigit sesuatu, jelas ia mengharapkan hasil yang memuaskan dari upayanya itu. Karenanya, seorang pakar tafsir mendefinisikan qar\u1e0d sebagai segala sesuatu yang dilakukan dengan mengharapkan imbalan. Selanjutnya, karena yang diberi pinjaman itu Allah, maka bila kita semua percaya kepada-Nya, pasti kita percaya pula bahwa pinjaman itu tidak akan hilang, bahkan akan mendapat imbalan yang wajar. Dengan demikian, barang siapa yang meminjamkan (dalam arti berbuat) kebaikan kepada (jalan) Allah, pasti ia akan mendapatkan balasan kebaikan. Sebab Tuhan tidak akan mengabaikan mereka yang berbuat kebaikan.",
        "sabab_nuzul": null,
        "conclusion": "1.\tKehancuran suatu umat disebabkan karena takut membela kebenaran dan karena lemah keyakinan.\n2.\tOrang yang kikir ialah orang yang tidak mau memanfaatkan harta bendanya untuk perjuangan di jalan Allah."
    }
}