{
    "id": 259,
    "surah_id": 2,
    "ayah": 252,
    "page": 41,
    "quarter_hizb": 4.75,
    "juz": 2,
    "manzil": 1,
    "arabic": "\u062a\u0650\u0644\u0652\u0643\u064e \u0627\u0670\u064a\u0670\u062a\u064f \u0627\u0644\u0644\u0651\u0670\u0647\u0650 \u0646\u064e\u062a\u0652\u0644\u064f\u0648\u0652\u0647\u064e\u0627 \u0639\u064e\u0644\u064e\u064a\u0652\u0643\u064e \u0628\u0650\u0627\u0644\u0652\u062d\u064e\u0642\u0651\u0650 \u06d7 \u0648\u064e\u0627\u0650\u0646\u0651\u064e\u0643\u064e \u0644\u064e\u0645\u0650\u0646\u064e \u0627\u0644\u0652\u0645\u064f\u0631\u0652\u0633\u064e\u0644\u0650\u064a\u0652\u0646\u064e  \u06d4",
    "latin": "Tilka \u0101y\u0101tull\u0101hi natl\u016bh\u0101 \u2018alaika bil-\u1e25aqq(i), wa innaka laminal-mursal\u012bn(a).  ",
    "translation": "Itulah ayat-ayat Allah. Kami membacakannya kepadamu (Nabi Muhammad) dengan benar. Sesungguhnya engkau benar-benar termasuk di antara para rasul.",
    "no_footnote": null,
    "footnotes": null,
    "surah": {
        "id": 2,
        "arabic": " \u0627\u0644\u0628\u0642\u0631\u0629",
        "latin": "Al-Baqarah ",
        "transliteration": "Al-Baqarah",
        "translation": "Sapi",
        "num_ayah": 286,
        "page": 2,
        "location": "Madaniyah"
    },
    "tafsir": {
        "wajiz": "Itulah sebagian ayat-ayat Allah, khususnya mukjizat-mukjizat yang tertera di dalam surah ini, seperti kisah Bani Israil tersebut. Kami bacakan dan turunkan ayat-ayat itu kepadamu dengan benar demi menguatkan Al-Qur'an sebagai kitab hidayah. Dan engkau, Nabi Muhammad, adalah benar-benar seorang rasul, sebab tidak ada yang mampu menyebutkan kisah-kisah itu selain orang yang mendapat pengajaran dari Allah.",
        "tahlili": "Demikianlah ayat Allah diturunkan kepada manusia dengan sebenarnya. Sesungguhnya ayat-ayat ini menjadi saksi atas kerasulan Nabi Muhammad saw yang tidak dapat diragukan lagi oleh semua ahli kitab Yahudi maupun Nasrani. Ternyata kisah-kisah yang diuraikan itu sesuai betul dengan apa yang ada di dalam kitab-kitab mereka, meskipun Nabi Muhammad saw tidak menyaksikan sendiri peristiwa-peristiwa itu. Namun semuanya dapat diketahui beliau semata-mata dengan perantaraan wahyu yang diturunkan kepadanya. Allah dengan tegas menyatakan:\n\u0648\u064e\u0627\u0650\u0646\u0651\u064e\u0643\u064e \u0644\u064e\u0645\u0650\u0646\u064e \u0627\u0644\u0652\u0645\u064f\u0631\u0652\u0633\u064e\u0644\u0650\u064a\u0652\u0646\u064e \u06d4 \n\u2026 dan engkau (Muhammad) adalah benar-benar seorang rasul. (al-Baqarah/2: 252)",
        "intro_surah": "Surah al-Baqarah yang terdiri dari 286 ayat adalah termasuk golongan surah Madaniyah yang diturunkan pada tahun-tahun permulaan periode Nabi Muhammad saw di Medinah. Ia merupakan surah yang terpanjang dan terbanyak ayat-ayatnya di antara surah yang ada di dalam Al-Qur\u2019an. Surah ini dinamai \u201cal-Baqarah\u201d yang berarti \u201cseekor sapi\u201d, karena di dalamnya disebutkan kisah penyembelihan sapi betina yang diperintahkan Allah kepada Bani Israil. Dalam pelaksanaan penyembelihan sapi betina itu tampak dengan jelas sifat dan watak orang-orang Yahudi pada umumnya.\nDinamakan juga fus\u1e6da\u1e6d al-Qur\u2019\u0101n yang berarti \u201cpuncak Al-Qur\u2019an\u201d karena surah ini memuat beberapa hukum yang tidak disebut di surah-surah yang lain. Juga dinamakan Al\u012bf L\u0101m M\u012bm, karena surah ini dimulai dengan huruf-huruf hijaiyah (abjad) alif l\u0101m m\u012bm.\nDi antara pokok-pokok isinya ialah:\n1.\tKeimanan: Dakwah Islamiah yang ditujukan kepada umat Islam, Ahli Kitab dan orang-orang musyrik.\n2.\tHukum: Perintah mengerjakan salat, perintah menunaikan zakat, puasa, haji dan umrah, qi\u1e63a\u1e63, yang halal dan yang haram, bernafkah di jalan Allah, minum arak dan berjudi, cara bergaul dengan anak yatim, prinsip-prinsip ekonomi, larangan memakan riba, utang piutang, nafkah dan yang berhak menerimanya, wasiat kepada dua orang ibu bapak dan kaum kerabat, hukum sumpah, kewajiban menyampaikan amanat, sihir, hukum merusak masjid, hukum mengubah kitab-kitab Allah, haid, idah, talak, khulu\u2018, il\u0101, hukum susuan, meminang, mahar, menikahi wanita musyrik dan sebaliknya, hukum perang, dan lain-lain. \n3.\tKisah: Penciptaan Nabi Adam a.s., kisah Nabi Ibrahim a.s., dan kisah Nabi Musa a.s. dengan Bani Israil.\n4.\tLain-lain, seperti: sifat orang yang bertakwa, sifat-sifat orang munafik, sifat-sifat Allah, perumpamaan-perumpamaan, kiblat, dan kebangkitan sesudah mati.",
        "outro_surah": null,
        "munasabah_prev_surah": "1.\tSurah al-F\u0101ti\u1e25ah merupakan pokok-pokok pembahasan yang akan dirinci dalam surah al-Baqarah dan surah-surah sesudahnya.\n2.\tDi bagian akhir surah al-F\u0101ti\u1e25ah disebutkan permohonan hamba, agar diberi petunjuk oleh Allah ke jalan yang lurus, sedang surah al-Baqarah dimulai dengan ayat yang menerangkan bahwa Al-Qur\u2019an adalah kitab yang menunjukkan jalan yang dimaksudkan itu.\n3.\tDi akhir surah al-F\u0101ti\u1e25ah disebutkan tiga kelompok manusia, yaitu yang diberi nikmat, yang dimurkai Allah dan orang yang sesat, sedangkan di awal surah al-Baqarah juga disebutkan tiga kelompok manusia, yaitu orang yang bertakwa, orang kafir, dan orang munafik.",
        "munasabah_prev_theme": "Setelah mewajibkan perang untuk melindungi hak dan kebenaran serta mewajibkan infak f\u012b sab\u012blill\u0101h untuk memelihara kemuliaan agama dan umat Islam, maka ayat ini mengisahkan segolongan Bani Israil yang diusir dari kampung halamannya dan dipisahkan dari keluarganya dengan kekerasan karena mereka takut dan lemah imannya.",
        "theme_group": "KISAH TALUT DAN JALUT",
        "kosakata": "Kosakata: T\u0101b\u016bt \u062a\u064e\u0627\u0628\u064f\u0648\u0652\u062a (al-Baqarah/2: 248)\nT\u0101b\u016bt berasal dari bahasa asing (bukan bahasa Arab) yang diarabkan artinya \u201cpeti syahadat\u201d, atau \u201ctabut perjanjian\u201d, Ark of the Covenant, benda yang paling suci dalam agama Yahudi, berisi dua keping batu bertuliskan Sepuluh Perintah Tuhan (Ten Commandments).\nT\u0101b\u016bt adalah sebuah peti terbuat dari kayu penaga, dua setengah hasta panjangnya, satu setengah hasta lebarnya dan satu setengah hasta tingginya, dan dibalut dengan emas murni; dibingkai dengan emas dan dituang empat gelang emas, dipasang pada empat penjuru Tabut, dilengkapi dengan kayu pengusung yang dimasukkan ke dalam gelang, dan harus tetap tinggal dalam gelang itu. Demikian menurut Kitab Keluaran 25:1-20, diawali dengan perintah Tuhan kepada Musa, bahwa orang Israel \u201c\u2026 harus membuat tempat kudus bagi-Ku, supaya Aku akan diam di tengah-tengah mereka \u2026\u201d\nAyat 246 sebelumnya menyebutkan bahwa ada seorang nabi sesudah Musa, yang menurut anggapan ahli kitab orang ini adalah Samuel. Orang-orang Filistin\u2014sebuah suku bangsa purba yang sudah punah menyerang dan menghancurkan mereka. Sebaliknya daripada bertawakal kepada Allah dan berpegang teguh pada keberanian dan persatuan, pihak Israel mengarak Tabut keluar, benda milik mereka yang paling suci, supaya dapat menolong mereka dalam peperangan. Tetapi musuh dapat menaklukkan Israel dan membawa Tabut itu dan menahannya selama tujuh bulan. Setelah itu dikembalikan kepada mereka. Orang-orang Filistin itu kemudian ditaklukkan oleh Samuel (I Samuel vii. 2-7).",
        "sabab_nuzul": null,
        "conclusion": "1.\tUmat di zaman dahulu beranggapan bahwa orang yang paling berhak menjadi pemimpin adalah orang-orang kaya dan para bangsawan, padahal sifat-sifat yang harus diutamakan dalam pengangkatan seorang pemimpin ialah segi ilmu pengetahuan, kekuatan pisik, budi pekerti, dan ketakwaan kepada Allah.\n2.\tKemenangan dalam peperangan dapat tercapai dengan sempurna apabila setiap prajurit mempunyai disiplin yang ketat dan keimanan yang kuat.\n3.\tGolongan yang kecil dapat mengalahkan golongan yang besar jika disertai dengan kesabaran dan ketabahan.\n4.\tTelah menjadi sunnatullah bahwa Allah menolak keganasan manusia dengan sebagian manusia yang lain."
    }
}