{
    "id": 279,
    "surah_id": 2,
    "ayah": 272,
    "page": 46,
    "quarter_hizb": 5.5,
    "juz": 3,
    "manzil": 1,
    "arabic": "\u06de \u0644\u064e\u064a\u0652\u0633\u064e \u0639\u064e\u0644\u064e\u064a\u0652\u0643\u064e \u0647\u064f\u062f\u0670\u0649\u0647\u064f\u0645\u0652 \u0648\u064e\u0644\u0670\u0643\u0650\u0646\u0651\u064e \u0627\u0644\u0644\u0651\u0670\u0647\u064e \u064a\u064e\u0647\u0652\u062f\u0650\u064a\u0652 \u0645\u064e\u0646\u0652 \u064a\u0651\u064e\u0634\u064e\u0627\u06e4\u0621\u064f \u06d7\u0648\u064e\u0645\u064e\u0627 \u062a\u064f\u0646\u0652\u0641\u0650\u0642\u064f\u0648\u0652\u0627 \u0645\u0650\u0646\u0652 \u062e\u064e\u064a\u0652\u0631\u064d \u0641\u064e\u0644\u0650\u0627\u064e\u0646\u0652\u0641\u064f\u0633\u0650\u0643\u064f\u0645\u0652 \u06d7\u0648\u064e\u0645\u064e\u0627 \u062a\u064f\u0646\u0652\u0641\u0650\u0642\u064f\u0648\u0652\u0646\u064e \u0627\u0650\u0644\u0651\u064e\u0627 \u0627\u0628\u0652\u062a\u0650\u063a\u064e\u0627\u06e4\u0621\u064e \u0648\u064e\u062c\u0652\u0647\u0650 \u0627\u0644\u0644\u0651\u0670\u0647\u0650 \u06d7\u0648\u064e\u0645\u064e\u0627 \u062a\u064f\u0646\u0652\u0641\u0650\u0642\u064f\u0648\u0652\u0627 \u0645\u0650\u0646\u0652 \u062e\u064e\u064a\u0652\u0631\u064d \u064a\u0651\u064f\u0648\u064e\u0641\u0651\u064e \u0627\u0650\u0644\u064e\u064a\u0652\u0643\u064f\u0645\u0652 \u0648\u064e\u0627\u064e\u0646\u0652\u062a\u064f\u0645\u0652 \u0644\u064e\u0627 \u062a\u064f\u0638\u0652\u0644\u064e\u0645\u064f\u0648\u0652\u0646\u064e",
    "latin": "Laisa \u2018alaika hud\u0101hum wa l\u0101kinnall\u0101ha yahd\u012b may yasy\u0101'(u), wa m\u0101 tunfiq\u016b min khairin fa li'anfusikum, wa m\u0101 tunfiq\u016bna illabtig\u0101'a wajhill\u0101h(i), wa m\u0101 tunfiq\u016b min khairiy yuwaffa ilaikum wa antum l\u0101 tu\u1e93lam\u016bn(a).  ",
    "translation": "Bukanlah kewajibanmu (Nabi Muhammad) menjadikan mereka mendapat petunjuk, tetapi Allahlah yang memberi petunjuk kepada siapa yang Dia kehendaki (berdasarkan kesiapannya untuk menerima petunjuk). Kebaikan apa pun yang kamu infakkan, (manfaatnya) untuk dirimu (sendiri). Kamu (orang-orang mukmin) tidak berinfak, kecuali karena mencari rida Allah. Kebaikan apa pun yang kamu infakkan, niscaya kamu akan diberi (pahala) secara penuh dan kamu tidak akan dizalimi.",
    "no_footnote": null,
    "footnotes": null,
    "surah": {
        "id": 2,
        "arabic": " \u0627\u0644\u0628\u0642\u0631\u0629",
        "latin": "Al-Baqarah ",
        "transliteration": "Al-Baqarah",
        "translation": "Sapi",
        "num_ayah": 286,
        "page": 2,
        "location": "Madaniyah"
    },
    "tafsir": {
        "wajiz": "Jangan kaitkan bantuan sedekah dengan hidayah Tuhan. Kita hanya diminta membantu dengan bersedekah. Dahulu para Sahabat pernah enggan berinfak kepada sanak kerabat mereka yang musyrik. Ayat ini, menurut Ibnu Abbas, turun untuk merespons sikap mereka, dan memerintahkan mereka bersedekah, selain yang wajib, kepada setiap yang membutuhkan bantuan terlepas dari apa agama dan keyakinannya. Bukanlah kewajibanmu, wahai Nabi Muhammad, apalagi orang selain engkau, menjadikan mereka, yakni orang-orang kafir dan sesat, mendapat petunjuk yang membuat mereka melaksanakan tuntunan Allah secara benar. Engkau hanyalah sekadar penyampai risalah secara lisan dan dengan keteladanan melalui cara-cara yang terbaik, tetapi Allah-lah yang memberi petunjuk kepada siapa yang Dia kehendaki. Apa pun harta yang kamu infakkan, atau keluarkan, maka kebaikannya akan kembali untuk dirimu sendiri selama kamu berusaha keras dan melakukannya secara ikhlas untuk mendapatkan keridaan-Nya. Dan janganlah kamu berinfak mengeluarkan harta melainkan karena mencari rida Allah. Dan apa pun harta yang kamu infakkan, niscaya kamu akan diberi balasan secara penuh bahkan akan dilipatgandakan balasannya dan kamu tidak akan dizalimi atau dirugikan, bahkan diuntungkan, sebab seperti dinyatakan dalam Surah an-Nahl/16: 96, harta yang ada pada seseorang akan habis dan punah, sedangkan yang disedekahkan untuk mencari keridaan Allah akan kekal ganjarannya hingga hari kiamat.",
        "tahlili": "Petunjuk (hidayah, taufik) adalah semata-mata urusan Allah, bukan urusan Rasul dan bukan pula urusan umatnya. Kita tidak boleh menahan sedekah kepada orang yang bukan Islam hanya dengan alasan perbedaan agama semata. Namun bersedekah kepada sesama Muslim tentu lebih utama, selagi di kalangan Muslim masih terdapat orang fakir miskin yang memerlukan pertolongan.\nSedekah mempunyai dan mengandung faedah timbal balik. Orang yang menerima sedekah dapat tertolong dari kesukaran, sedang orang yang memberikannya mendapat pahala di sisi Allah, dan dihargai oleh orang-orang sekitarnya, asal ia memberikan sedekah itu dengan cara yang baik dan ikhlas karena Allah semata.\nSelanjutnya disebutkan, bahwa apa saja harta benda yang baik yang dinafkahkan seseorang dengan ikhlas, niscaya Allah akan membalasnya dengan pahala yang cukup dan dia tidak akan dirugikan sedikit pun, karena orang-orang yang suka berinfak dengan ikhlas tentu disayangi dan dihormati oleh masyarakat, terutama oleh fakir miskin; dan pahalanya tidak akan dikurangi di sisi Allah.",
        "intro_surah": "Surah al-Baqarah yang terdiri dari 286 ayat adalah termasuk golongan surah Madaniyah yang diturunkan pada tahun-tahun permulaan periode Nabi Muhammad saw di Medinah. Ia merupakan surah yang terpanjang dan terbanyak ayat-ayatnya di antara surah yang ada di dalam Al-Qur\u2019an. Surah ini dinamai \u201cal-Baqarah\u201d yang berarti \u201cseekor sapi\u201d, karena di dalamnya disebutkan kisah penyembelihan sapi betina yang diperintahkan Allah kepada Bani Israil. Dalam pelaksanaan penyembelihan sapi betina itu tampak dengan jelas sifat dan watak orang-orang Yahudi pada umumnya.\nDinamakan juga fus\u1e6da\u1e6d al-Qur\u2019\u0101n yang berarti \u201cpuncak Al-Qur\u2019an\u201d karena surah ini memuat beberapa hukum yang tidak disebut di surah-surah yang lain. Juga dinamakan Al\u012bf L\u0101m M\u012bm, karena surah ini dimulai dengan huruf-huruf hijaiyah (abjad) alif l\u0101m m\u012bm.\nDi antara pokok-pokok isinya ialah:\n1.\tKeimanan: Dakwah Islamiah yang ditujukan kepada umat Islam, Ahli Kitab dan orang-orang musyrik.\n2.\tHukum: Perintah mengerjakan salat, perintah menunaikan zakat, puasa, haji dan umrah, qi\u1e63a\u1e63, yang halal dan yang haram, bernafkah di jalan Allah, minum arak dan berjudi, cara bergaul dengan anak yatim, prinsip-prinsip ekonomi, larangan memakan riba, utang piutang, nafkah dan yang berhak menerimanya, wasiat kepada dua orang ibu bapak dan kaum kerabat, hukum sumpah, kewajiban menyampaikan amanat, sihir, hukum merusak masjid, hukum mengubah kitab-kitab Allah, haid, idah, talak, khulu\u2018, il\u0101, hukum susuan, meminang, mahar, menikahi wanita musyrik dan sebaliknya, hukum perang, dan lain-lain. \n3.\tKisah: Penciptaan Nabi Adam a.s., kisah Nabi Ibrahim a.s., dan kisah Nabi Musa a.s. dengan Bani Israil.\n4.\tLain-lain, seperti: sifat orang yang bertakwa, sifat-sifat orang munafik, sifat-sifat Allah, perumpamaan-perumpamaan, kiblat, dan kebangkitan sesudah mati.",
        "outro_surah": null,
        "munasabah_prev_surah": "1.\tSurah al-F\u0101ti\u1e25ah merupakan pokok-pokok pembahasan yang akan dirinci dalam surah al-Baqarah dan surah-surah sesudahnya.\n2.\tDi bagian akhir surah al-F\u0101ti\u1e25ah disebutkan permohonan hamba, agar diberi petunjuk oleh Allah ke jalan yang lurus, sedang surah al-Baqarah dimulai dengan ayat yang menerangkan bahwa Al-Qur\u2019an adalah kitab yang menunjukkan jalan yang dimaksudkan itu.\n3.\tDi akhir surah al-F\u0101ti\u1e25ah disebutkan tiga kelompok manusia, yaitu yang diberi nikmat, yang dimurkai Allah dan orang yang sesat, sedangkan di awal surah al-Baqarah juga disebutkan tiga kelompok manusia, yaitu orang yang bertakwa, orang kafir, dan orang munafik.",
        "munasabah_prev_theme": "Ada beberapa riwayat menerangkan sebab turunnya ayat ini, antara lain riwayat Ibnu Ab\u012b \u1e24\u0101tim dari Ibnu \u2018Abb\u0101s sebagai berikut:\n\u0623\u064e\u0646\u0651\u064e \u0627\u0644\u0646\u0651\u064e\u0628\u0650\u064a\u0651\u064e \u0635\u064e\u0644\u0651\u064e\u0649 \u0627\u0644\u0644\u0647 \u064f\u0639\u064e\u0644\u064e\u064a\u0652\u0647\u0650 \u0648\u064e\u0633\u064e\u0644\u0651\u064e\u0645\u064e \u0643\u064e\u0627\u0646\u064e \u064a\u064e\u0623\u0652\u0645\u064f\u0631\u064f\u0646\u064e\u0627 \u0623\u064e\u0644\u0627\u0651\u064e \u0646\u064e\u062a\u064e\u0635\u064e\u062f\u0651\u064e\u0642\u064e \u0625\u0650\u0644\u0627\u0651\u064e \u0639\u064e\u0644\u064e\u0649 \u0623\u064e\u0647\u0652\u0644\u0650 \u0627\u0652\u0644\u0625\u0650\u0633\u0652\u0644\u0627\u064e\u0645\u0650 \u062d\u064e\u062a\u0651\u064e\u0649 \u0646\u064e\u0632\u064e\u0644\u064e\u062a\u0652 \u0647\u0670\u0630\u0650\u0647\u0650 \u0627\u0652\u0644\u0627\u0670\u064a\u064e\u0629\u064f (\u0631\u0648\u0627\u0647 \u0627\u0628\u0646 \u0623\u0628\u064a \u062d\u0627\u062a\u0645 \u0639\u0646 \u0627\u0628\u0646 \u0639\u0628\u0651\u0627\u0633)\n\u201cBahwasanya Rasulullah saw dulu menyuruh kita untuk tidak bersedekah, kecuali kepada orang-orang Islam saja, sehingga turunlah ayat ini (yang membolehkan kita untuk bersedekah kepada orang yang bukan Islam).\u201d (Riwayat Ibnu Ab\u012b \u1e24\u0101tim dari Ibnu \u2018Abb\u0101s)",
        "theme_group": "ORANG YANG BERHAK MENERIMA SEDEKAH",
        "kosakata": "Kosakata: At-Ta\u2018affuf \u0627\u064e\u0644\u062a\u0651\u064e\u0639\u064e\u0641\u0651\u064f\u0641\u0652  (al-Baqarah/2: 273)\nTa\u2018affuf atau \u2018iffah menurut harfiah berarti situasi kejiwaan yang mempu mencegah dan bertahan dari godaan hawa nafsu. Asal katanya adalah \u2018affa-ya\u2018iffu, artinya membatasi diri untuk makan/memperoleh sesuatu sedikit saja. Menurut syara\u2018 adalah menahan diri dari perkara haram dan meminta-minta kepada manusia. \u2018Iffah atau menjaga kesucian disyariatkan kepada orang yang belum mampu menikah sebab belum mampu menyediakan mahar dan nafkah, dengan jalan puasa dan lain-lain (an-N\u016br/24: 33). Dalam ayat ini digambarkan keadaan orang-orang fakir yang berhak memperoleh infak dan sedekah, meskipun mereka tidak meminta karena \u2018iffah mereka sehingga kita menyangka mereka itu orang kaya.",
        "sabab_nuzul": "Ada beberapa riwayat menerangkan sebab turunnya ayat ini, antara lain riwayat Ibnu Ab\u012b \u1e24\u0101tim dari Ibnu \u2018Abb\u0101s sebagai berikut:\n\u0623\u064e\u0646\u0651\u064e \u0627\u0644\u0646\u0651\u064e\u0628\u0650\u064a\u0651\u064e \u0635\u064e\u0644\u0651\u064e\u0649 \u0627\u0644\u0644\u0647 \u064f\u0639\u064e\u0644\u064e\u064a\u0652\u0647\u0650 \u0648\u064e\u0633\u064e\u0644\u0651\u064e\u0645\u064e \u0643\u064e\u0627\u0646\u064e \u064a\u064e\u0623\u0652\u0645\u064f\u0631\u064f\u0646\u064e\u0627 \u0623\u064e\u0644\u0627\u0651\u064e \u0646\u064e\u062a\u064e\u0635\u064e\u062f\u0651\u064e\u0642\u064e \u0625\u0650\u0644\u0627\u0651\u064e \u0639\u064e\u0644\u064e\u0649 \u0623\u064e\u0647\u0652\u0644\u0650 \u0627\u0652\u0644\u0625\u0650\u0633\u0652\u0644\u0627\u064e\u0645\u0650 \u062d\u064e\u062a\u0651\u064e\u0649 \u0646\u064e\u0632\u064e\u0644\u064e\u062a\u0652 \u0647\u0670\u0630\u0650\u0647\u0650 \u0627\u0652\u0644\u0627\u0670\u064a\u064e\u0629\u064f (\u0631\u0648\u0627\u0647 \u0627\u0628\u0646 \u0623\u0628\u064a \u062d\u0627\u062a\u0645 \u0639\u0646 \u0627\u0628\u0646 \u0639\u0628\u0651\u0627\u0633)\n\u201cBahwasanya Rasulullah saw dulu menyuruh kita untuk tidak bersedekah, kecuali kepada orang-orang Islam saja, sehingga turunlah ayat ini (yang membolehkan kita untuk bersedekah kepada orang yang bukan Islam).\u201d (Riwayat Ibnu Ab\u012b \u1e24\u0101tim dari Ibnu \u2018Abb\u0101s)",
        "conclusion": null
    }
}