{
    "id": 290,
    "surah_id": 2,
    "ayah": 283,
    "page": 49,
    "quarter_hizb": 5.75,
    "juz": 3,
    "manzil": 1,
    "arabic": "\u06de \u0648\u064e\u0627\u0650\u0646\u0652 \u0643\u064f\u0646\u0652\u062a\u064f\u0645\u0652 \u0639\u064e\u0644\u0670\u0649 \u0633\u064e\u0641\u064e\u0631\u064d \u0648\u0651\u064e\u0644\u064e\u0645\u0652 \u062a\u064e\u062c\u0650\u062f\u064f\u0648\u0652\u0627 \u0643\u064e\u0627\u062a\u0650\u0628\u064b\u0627 \u0641\u064e\u0631\u0650\u0647\u0670\u0646\u064c \u0645\u0651\u064e\u0642\u0652\u0628\u064f\u0648\u0652\u0636\u064e\u0629\u064c  \u06d7\u0641\u064e\u0627\u0650\u0646\u0652 \u0627\u064e\u0645\u0650\u0646\u064e \u0628\u064e\u0639\u0652\u0636\u064f\u0643\u064f\u0645\u0652 \u0628\u064e\u0639\u0652\u0636\u064b\u0627 \u0641\u064e\u0644\u0652\u064a\u064f\u0624\u064e\u062f\u0651\u0650 \u0627\u0644\u0651\u064e\u0630\u0650\u0649 \u0627\u0624\u0652\u062a\u064f\u0645\u0650\u0646\u064e \u0627\u064e\u0645\u064e\u0627\u0646\u064e\u062a\u064e\u0647\u0657 \u0648\u064e\u0644\u0652\u064a\u064e\u062a\u0651\u064e\u0642\u0650 \u0627\u0644\u0644\u0651\u0670\u0647\u064e \u0631\u064e\u0628\u0651\u064e\u0647\u0657 \u06d7 \u0648\u064e\u0644\u064e\u0627 \u062a\u064e\u0643\u0652\u062a\u064f\u0645\u064f\u0648\u0627 \u0627\u0644\u0634\u0651\u064e\u0647\u064e\u0627\u062f\u064e\u0629\u064e\u06d7 \u0648\u064e\u0645\u064e\u0646\u0652 \u064a\u0651\u064e\u0643\u0652\u062a\u064f\u0645\u0652\u0647\u064e\u0627 \u0641\u064e\u0627\u0650\u0646\u0651\u064e\u0647\u0657\u0653 \u0627\u0670\u062b\u0650\u0645\u064c \u0642\u064e\u0644\u0652\u0628\u064f\u0647\u0657 \u06d7 \u0648\u064e\u0627\u0644\u0644\u0651\u0670\u0647\u064f \u0628\u0650\u0645\u064e\u0627 \u062a\u064e\u0639\u0652\u0645\u064e\u0644\u064f\u0648\u0652\u0646\u064e \u0639\u064e\u0644\u0650\u064a\u0652\u0645\u064c \u08d6",
    "latin": "Wa in kuntum \u2018al\u0101 safariw wa lam tajid\u016b k\u0101tiban fa ri\u1e25\u0101num maqb\u016b\u1e0dah(tun), fa'in amina ba\u2018\u1e0dukum ba\u2018\u1e0dan falyu'addil-la\u017ci'tumina am\u0101natah\u016b walyattaqill\u0101ha rabbah(\u016b), wa l\u0101 taktumusy syah\u0101dah(ta), wa may yaktumh\u0101 fa'innah\u016b \u0101\u1e61imun qalbuh(\u016b), wall\u0101hu bim\u0101 ta\u2018mal\u016bna  \u2018al\u012bm(un).  ",
    "translation": "Jika kamu dalam perjalanan, sedangkan kamu tidak mendapatkan seorang pencatat, hendaklah ada barang jaminan yang dipegang. Akan tetapi, jika sebagian kamu memercayai sebagian yang lain, hendaklah yang dipercayai itu menunaikan amanatnya (utangnya) dan hendaklah dia bertakwa kepada Allah, Tuhannya. Janganlah kamu menyembunyikan kesaksian karena siapa yang menyembunyikannya, sesungguhnya hatinya berdosa. Allah Maha Mengetahui apa yang kamu kerjakan.",
    "no_footnote": null,
    "footnotes": null,
    "surah": {
        "id": 2,
        "arabic": " \u0627\u0644\u0628\u0642\u0631\u0629",
        "latin": "Al-Baqarah ",
        "transliteration": "Al-Baqarah",
        "translation": "Sapi",
        "num_ayah": 286,
        "page": 2,
        "location": "Madaniyah"
    },
    "tafsir": {
        "wajiz": "Tuntunan pada ayat yang lalu mudah dilaksanakan jika seseorang tidak sedang dalam perjalanan. Jika kamu dalam perjalanan dan melakukan transaksi keuangan tidak secara tunai, sedang kamu tidak mendapatkan seorang penulis yang dapat menulis utang piutang sebagaimana mestinya, maka hendaklah ada barang jaminan yang dipegang oleh yang berpiutang atau meminjamkan. Tetapi menyimpan barang sebagai jaminan atau menggadaikannya tidak harus dilakukan jika sebagian kamu mempercayai sebagian yang lain. Maka hendaklah yang dipercayai itu menunaikan amanatnya, utang atau apa pun yang dia terima, dan hendaklah dia yang menerima amanat tersebut bertakwa kepada Allah, Tuhan Pemelihara-nya. Dan wahai para saksi, janganlah kamu menyembunyikan kesaksian, yakni jangan mengurangi, melebihkan, atau tidak menyampaikan sama sekali, baik yang diketahui oleh pemilik hak maupun yang tidak diketahuinya, karena barang siapa menyembunyikannya, sungguh, hatinya kotor, karena bergelimang dosa. Allah Maha Mengetahui apa yang kamu kerjakan, sekecil apa pun itu, yang nyata maupun yang tersembunyi, yang dilakukan oleh anggota badan maupun hati. ",
        "tahlili": "Ayat ini menerangkan tentang muamalah (transaksi) yang dilakukan tidak secara tunai, yang dilakukan dalam perjalanan dan tidak ada juru tulis yang akan menuliskannya.\nDalam hal muamalah yang tidak tunai, yang dilakukan dalam perjalanan dan tidak ada seorang juru tulis yang akan menuliskannya, maka hendaklah ada barang tanggungan (agunan/jaminan) yang diserahkan kepada pihak yang berpiutang. Kecuali jika masing-masing saling mempercayai dan menyerahkan diri kepada Allah, maka muamalah itu boleh dilakukan tanpa menyerahkan barang jaminan.\nAyat ini tidak menetapkan bahwa jaminan itu hanya boleh dilakukan dengan syarat dalam perjalanan, muamalah tidak dengan tunai, dan tidak ada juru tulis. Tetapi ayat ini hanya menyatakan bahwa dalam keadaan tersebut boleh dilakukan muamalah dengan memakai jaminan. Dalam situasi yang lain, boleh juga memakai jaminan sesuai dengan hadis yang diriwayatkan al-Bukh\u0101r\u012b bahwa Nabi Muhammad saw pernah menggadaikan baju besinya kepada orang Yahudi di Medinah.\nPada ayat yang lalu Allah memperingatkan bahwa manusia jangan enggan menjadi juru tulis atau memberikan persaksian bila diminta. Kemudian pada ayat ini Allah menegaskan kembali agar jangan menyembunyikan kesaksian. Penegasan yang demikian mengisyaratkan bahwa penulisan dan kesaksian itu menolong manusia dalam menjaga hartanya, dan jangan lengah melakukan keduanya. Demikian pula pemilik harta tidak disusahkan karena meminjamkan hartanya, dan tidak dibayar pada waktunya.\nDengan keterangan di atas bukan berarti bahwa semua perjanjian muamalah wajib ditulis oleh juru tulis dan disaksikan oleh saksi-saksi, tetapi maksudnya agar kaum Muslimin selalu memperhatikan dan meneliti muamalah yang akan dilakukannya. Bila muamalah itu muamalah yang biasa dilakukan setiap hari, seperti jual beli yang dilakukan di pasar dan tidak menimbulkan akibat yang tidak diinginkan di kemudian hari serta dilandasi rasa saling mempercayai, maka muamalah yang demikian tidak perlu ditulis dan disaksikan. Sebaliknya bila muamalah itu diduga akan menimbulkan hal-hal yang tidak diinginkan di kemudian hari, maka muamalah itu wajib ditulis dan disaksikan oleh dua orang saksi.",
        "intro_surah": "Surah al-Baqarah yang terdiri dari 286 ayat adalah termasuk golongan surah Madaniyah yang diturunkan pada tahun-tahun permulaan periode Nabi Muhammad saw di Medinah. Ia merupakan surah yang terpanjang dan terbanyak ayat-ayatnya di antara surah yang ada di dalam Al-Qur\u2019an. Surah ini dinamai \u201cal-Baqarah\u201d yang berarti \u201cseekor sapi\u201d, karena di dalamnya disebutkan kisah penyembelihan sapi betina yang diperintahkan Allah kepada Bani Israil. Dalam pelaksanaan penyembelihan sapi betina itu tampak dengan jelas sifat dan watak orang-orang Yahudi pada umumnya.\nDinamakan juga fus\u1e6da\u1e6d al-Qur\u2019\u0101n yang berarti \u201cpuncak Al-Qur\u2019an\u201d karena surah ini memuat beberapa hukum yang tidak disebut di surah-surah yang lain. Juga dinamakan Al\u012bf L\u0101m M\u012bm, karena surah ini dimulai dengan huruf-huruf hijaiyah (abjad) alif l\u0101m m\u012bm.\nDi antara pokok-pokok isinya ialah:\n1.\tKeimanan: Dakwah Islamiah yang ditujukan kepada umat Islam, Ahli Kitab dan orang-orang musyrik.\n2.\tHukum: Perintah mengerjakan salat, perintah menunaikan zakat, puasa, haji dan umrah, qi\u1e63a\u1e63, yang halal dan yang haram, bernafkah di jalan Allah, minum arak dan berjudi, cara bergaul dengan anak yatim, prinsip-prinsip ekonomi, larangan memakan riba, utang piutang, nafkah dan yang berhak menerimanya, wasiat kepada dua orang ibu bapak dan kaum kerabat, hukum sumpah, kewajiban menyampaikan amanat, sihir, hukum merusak masjid, hukum mengubah kitab-kitab Allah, haid, idah, talak, khulu\u2018, il\u0101, hukum susuan, meminang, mahar, menikahi wanita musyrik dan sebaliknya, hukum perang, dan lain-lain. \n3.\tKisah: Penciptaan Nabi Adam a.s., kisah Nabi Ibrahim a.s., dan kisah Nabi Musa a.s. dengan Bani Israil.\n4.\tLain-lain, seperti: sifat orang yang bertakwa, sifat-sifat orang munafik, sifat-sifat Allah, perumpamaan-perumpamaan, kiblat, dan kebangkitan sesudah mati.",
        "outro_surah": null,
        "munasabah_prev_surah": "1.\tSurah al-F\u0101ti\u1e25ah merupakan pokok-pokok pembahasan yang akan dirinci dalam surah al-Baqarah dan surah-surah sesudahnya.\n2.\tDi bagian akhir surah al-F\u0101ti\u1e25ah disebutkan permohonan hamba, agar diberi petunjuk oleh Allah ke jalan yang lurus, sedang surah al-Baqarah dimulai dengan ayat yang menerangkan bahwa Al-Qur\u2019an adalah kitab yang menunjukkan jalan yang dimaksudkan itu.\n3.\tDi akhir surah al-F\u0101ti\u1e25ah disebutkan tiga kelompok manusia, yaitu yang diberi nikmat, yang dimurkai Allah dan orang yang sesat, sedangkan di awal surah al-Baqarah juga disebutkan tiga kelompok manusia, yaitu orang yang bertakwa, orang kafir, dan orang munafik.",
        "munasabah_prev_theme": "Ayat ini merupakan lanjutan dari ayat-ayat yang menerangkan keutamaan sedekah, menafkahkan harta di jalan Allah yang timbul dari hati sanubari, semata-mata karena Allah, dan dilandasi dengan rasa kasih sayang terhadap sesama manusia. Selanjutnya Allah melarang melakukan riba dan menerang-kan keburukannya, karena riba itu semata-mata dilakukan untuk mencari keuntungan, tanpa mengindahkan kesulitan dan kesukaran orang lain. Pada ayat ini Allah menerangkan ketentuan-ketentuan dalam muamalah, yang didasarkan pada keadilan dan kerelaan masing-masing pihak, sehingga menghilangkan keragu-raguan, sakwasangka dan sebagainya.",
        "theme_group": "TANDA BUKTI DALAM TRANSAKSI",
        "kosakata": "Kosakata: Dain \u062f\u064e\u064a\u0652\u0646 (al-Baqarah/2: 282)\nLafal dain (utang) berasal dari kata d\u0101na-yad\u012bnu yang berarti memberi-kan (meminjamkan) kepada seseorang uang yang harus dikembalikan (dibayarkan kembali) dalam waktu tertentu yang disepakati bersama antara yang meminjamkan dan yang meminjam. Asal kata ad-dain dalam bahasa Arab adalah ganti yang diakhirkan atau ditunda. Dalam ayat ini Allah swt mensyariatkan adanya at-tad\u0101yun (utang piutang) di antara sesama muslim agar tidak ada yang mengatakan bahwa utang piutang itu haram, sebagaimana riba diharamkan, karena utang piutang atau pinjam meminjam itu menjadi sebab beredarnya uang, dimana orang yang hanya bisa meminjamkan uangnya kepada pedagang yang membutuhkan suntikan dana, tanpa pinjaman dia tidak bisa mengembangkan usahanya. Untuk menjamin hak si pemberi pinjaman dan si peminjam, agar keduanya merasa aman maka Allah mensyariatkan supaya utang piutang itu ditulis dan disaksikan oleh dua orang saksi.",
        "sabab_nuzul": null,
        "conclusion": "1.\tAda beberapa macam bentuk muamalah yang diterangkan oleh ayat di atas:\na.\tMuamalah/transaksi yang tidak tunai yang harus dilengkapi dengan alat-alat bukti, kecuali bila dilakukan atas dasar saling mempercayai.\nb.\tMuamalah yang tunai, boleh tidak dilengkapi dengan alat-alat bukti tersebut.\nc.\tMuamalah yang dilakukan dalam perjalanan dan tidak tunai, serta tidak ada juru tulis yang dapat menuliskannya maka hendaklah ada barang jaminan yang dipegang oleh yang berpiutang.\n2.\tAlat-alat bukti yang diperlukan dalam muamalah ialah:\na.\tBukti tertulis yang ditulis oleh seorang juru tulis.\nb.\tPersaksian yang dilakukan oleh dua orang saksi laki-laki atau seorang laki-laki dan dua orang perempuan."
    }
}