{
    "id": 248,
    "surah_id": 2,
    "ayah": 241,
    "page": 39,
    "quarter_hizb": 4.5,
    "juz": 2,
    "manzil": 1,
    "arabic": "\u0648\u064e\u0644\u0650\u0644\u0652\u0645\u064f\u0637\u064e\u0644\u0651\u064e\u0642\u0670\u062a\u0650 \u0645\u064e\u062a\u064e\u0627\u0639\u064c \u06e2\u0628\u0650\u0627\u0644\u0652\u0645\u064e\u0639\u0652\u0631\u064f\u0648\u0652\u0641\u0650\u06d7 \u062d\u064e\u0642\u0651\u064b\u0627 \u0639\u064e\u0644\u064e\u0649 \u0627\u0644\u0652\u0645\u064f\u062a\u0651\u064e\u0642\u0650\u064a\u0652\u0646\u064e ",
    "latin": "Wa lil-mu\u1e6dallaq\u0101ti mat\u0101\u2018um bil-ma\u2018r\u016bf(i),  \u1e25aqqan \u2018alal-muttaq\u012bn(a).  ",
    "translation": "Bagi istri-istri yang diceraikan terdapat hak mut\u2018ah dengan cara yang patut. Demikian ini adalah ketentuan bagi orang-orang yang bertakwa.",
    "no_footnote": null,
    "footnotes": null,
    "surah": {
        "id": 2,
        "arabic": " \u0627\u0644\u0628\u0642\u0631\u0629",
        "latin": "Al-Baqarah ",
        "transliteration": "Al-Baqarah",
        "translation": "Sapi",
        "num_ayah": 286,
        "page": 2,
        "location": "Madaniyah"
    },
    "tafsir": {
        "wajiz": "Ayat ini menjelaskan hukum pemberian mut\u2019ah bagi perempuan yang dicerai. Dan bagi perempuan-perempuan yang diceraikan, baik talak tiga (ba\u2019in) maupun talak satu dan dua tetapi tidak dirujuk, sementara ia sudah dicampuri, maka hendaklah diberi mut\u2019ah yakni pemberian suami di luar nafkah kepada istri yang ditalak tersebut menurut cara yang patut, yakni besar dan kecilnya pemberian itu disesuaikan dengan kemampuan suami, sebagai suatu kewajiban bagi orang yang bertakwa, yakni mereka yang melaksanakan segala perintah-Nya dan menjauhi segala larangan-Nya. ",
        "tahlili": "Tiap-tiap perempuan yang dicerai berhak menerima mut\u2018ah sebagai hiburan dari bekas suaminya dengan cara yang baik. Suami yang memberikan hiburan tersebut adalah orang yang bertakwa kepada Allah yang oleh karenanya ia menjadi pemurah memberikan bantuan kepada bekas istrinya dengan ketulusan hati sejalan dengan petunjuk agama yaitu mengambil istri dengan baik atau menceraikannya dengan baik.",
        "intro_surah": "Surah al-Baqarah yang terdiri dari 286 ayat adalah termasuk golongan surah Madaniyah yang diturunkan pada tahun-tahun permulaan periode Nabi Muhammad saw di Medinah. Ia merupakan surah yang terpanjang dan terbanyak ayat-ayatnya di antara surah yang ada di dalam Al-Qur\u2019an. Surah ini dinamai \u201cal-Baqarah\u201d yang berarti \u201cseekor sapi\u201d, karena di dalamnya disebutkan kisah penyembelihan sapi betina yang diperintahkan Allah kepada Bani Israil. Dalam pelaksanaan penyembelihan sapi betina itu tampak dengan jelas sifat dan watak orang-orang Yahudi pada umumnya.\nDinamakan juga fus\u1e6da\u1e6d al-Qur\u2019\u0101n yang berarti \u201cpuncak Al-Qur\u2019an\u201d karena surah ini memuat beberapa hukum yang tidak disebut di surah-surah yang lain. Juga dinamakan Al\u012bf L\u0101m M\u012bm, karena surah ini dimulai dengan huruf-huruf hijaiyah (abjad) alif l\u0101m m\u012bm.\nDi antara pokok-pokok isinya ialah:\n1.\tKeimanan: Dakwah Islamiah yang ditujukan kepada umat Islam, Ahli Kitab dan orang-orang musyrik.\n2.\tHukum: Perintah mengerjakan salat, perintah menunaikan zakat, puasa, haji dan umrah, qi\u1e63a\u1e63, yang halal dan yang haram, bernafkah di jalan Allah, minum arak dan berjudi, cara bergaul dengan anak yatim, prinsip-prinsip ekonomi, larangan memakan riba, utang piutang, nafkah dan yang berhak menerimanya, wasiat kepada dua orang ibu bapak dan kaum kerabat, hukum sumpah, kewajiban menyampaikan amanat, sihir, hukum merusak masjid, hukum mengubah kitab-kitab Allah, haid, idah, talak, khulu\u2018, il\u0101, hukum susuan, meminang, mahar, menikahi wanita musyrik dan sebaliknya, hukum perang, dan lain-lain. \n3.\tKisah: Penciptaan Nabi Adam a.s., kisah Nabi Ibrahim a.s., dan kisah Nabi Musa a.s. dengan Bani Israil.\n4.\tLain-lain, seperti: sifat orang yang bertakwa, sifat-sifat orang munafik, sifat-sifat Allah, perumpamaan-perumpamaan, kiblat, dan kebangkitan sesudah mati.",
        "outro_surah": null,
        "munasabah_prev_surah": "1.\tSurah al-F\u0101ti\u1e25ah merupakan pokok-pokok pembahasan yang akan dirinci dalam surah al-Baqarah dan surah-surah sesudahnya.\n2.\tDi bagian akhir surah al-F\u0101ti\u1e25ah disebutkan permohonan hamba, agar diberi petunjuk oleh Allah ke jalan yang lurus, sedang surah al-Baqarah dimulai dengan ayat yang menerangkan bahwa Al-Qur\u2019an adalah kitab yang menunjukkan jalan yang dimaksudkan itu.\n3.\tDi akhir surah al-F\u0101ti\u1e25ah disebutkan tiga kelompok manusia, yaitu yang diberi nikmat, yang dimurkai Allah dan orang yang sesat, sedangkan di awal surah al-Baqarah juga disebutkan tiga kelompok manusia, yaitu orang yang bertakwa, orang kafir, dan orang munafik.",
        "munasabah_prev_theme": "Pada ayat-ayat yang lalu telah diterangkan tentang peraturan-peraturan yang berhubungan dengan suami istri dan menjelaskan tentang keutamaan memelihara salat. Maka pada ayat-ayat ini dijelaskan tentang anjuran kepada suami yang akan meninggal (merasa sudah dekat ajalnya) untuk berwasiat kepada istrinya.",
        "theme_group": "WASIAT SUAMI",
        "kosakata": "Kosakata: Ma\u2018r\u016bf  \u0645\u064e\u0639\u0652\u0631\u064f\u0648\u0652\u0641(al-Baqarah/2: 240)\nKata ma\u2018r\u016bf merupakan bentuk ism maf\u2018\u016bl dari kata kerja \u2018arafa-ya\u2018rifu, yang artinya \u201cmengetahui\u201d, \u201cmenetapkan\u201d, atau \u201cmemikirkan\u201d. Dengan demikian ma\u2018r\u016bf dapat diartikan sebagai sesuatu yang diketahui, ditetapkan, atau dipikirkan. Kata \u2018urf atau adat kebiasaan juga tidak lepas dari arti kata dasar kalimat ini, karena sesuatu yang sudah menjadi adat kebiasaan berarti sudah diketahui oleh orang banyak. Dalam bahasa agama, ma\u2018r\u016bf dimaksudkan sebagai suatu perbuatan atau keadaan yang sesuai dengan ajaran-ajaran agama dan norma-norma masyarakat. Sebagai lawan katanya adalah munkar. Istilah ini digunakan untuk menunjuk pada suatu perbuatan yang tidak sejalan dengan ajaran agama dan norma kemasyarakatan. Setiap orang yang beriman dianjurkan untuk selalu melaksanakan perbuatan-perbuatan yang ma\u2018r\u016bf, dan menjauhi atau meninggalkan yang munkar.",
        "sabab_nuzul": null,
        "conclusion": null
    }
}