{
    "id": 241,
    "surah_id": 2,
    "ayah": 234,
    "page": 38,
    "quarter_hizb": 4.5,
    "juz": 2,
    "manzil": 1,
    "arabic": "\u0648\u064e\u0627\u0644\u0651\u064e\u0630\u0650\u064a\u0652\u0646\u064e \u064a\u064f\u062a\u064e\u0648\u064e\u0641\u0651\u064e\u0648\u0652\u0646\u064e \u0645\u0650\u0646\u0652\u0643\u064f\u0645\u0652 \u0648\u064e\u064a\u064e\u0630\u064e\u0631\u064f\u0648\u0652\u0646\u064e \u0627\u064e\u0632\u0652\u0648\u064e\u0627\u062c\u064b\u0627 \u064a\u0651\u064e\u062a\u064e\u0631\u064e\u0628\u0651\u064e\u0635\u0652\u0646\u064e \u0628\u0650\u0627\u064e\u0646\u0652\u0641\u064f\u0633\u0650\u0647\u0650\u0646\u0651\u064e \u0627\u064e\u0631\u0652\u0628\u064e\u0639\u064e\u0629\u064e \u0627\u064e\u0634\u0652\u0647\u064f\u0631\u064d \u0648\u0651\u064e\u0639\u064e\u0634\u0652\u0631\u064b\u0627 \u06da \u0641\u064e\u0627\u0650\u0630\u064e\u0627 \u0628\u064e\u0644\u064e\u063a\u0652\u0646\u064e \u0627\u064e\u062c\u064e\u0644\u064e\u0647\u064f\u0646\u0651\u064e \u0641\u064e\u0644\u064e\u0627 \u062c\u064f\u0646\u064e\u0627\u062d\u064e \u0639\u064e\u0644\u064e\u064a\u0652\u0643\u064f\u0645\u0652 \u0641\u0650\u064a\u0652\u0645\u064e\u0627 \u0641\u064e\u0639\u064e\u0644\u0652\u0646\u064e \u0641\u0650\u064a\u0652\u0653 \u0627\u064e\u0646\u0652\u0641\u064f\u0633\u0650\u0647\u0650\u0646\u0651\u064e \u0628\u0650\u0627\u0644\u0652\u0645\u064e\u0639\u0652\u0631\u064f\u0648\u0652\u0641\u0650\u06d7 \u0648\u064e\u0627\u0644\u0644\u0651\u0670\u0647\u064f \u0628\u0650\u0645\u064e\u0627 \u062a\u064e\u0639\u0652\u0645\u064e\u0644\u064f\u0648\u0652\u0646\u064e \u062e\u064e\u0628\u0650\u064a\u0652\u0631\u064c ",
    "latin": "Wal-la\u017c\u012bna yutawaffauna minkum wa ya\u017car\u016bna azw\u0101jay yatarabba\u1e63na bi'anfusihinna arba\u2018ata asyhuriw wa \u2018asyr\u0101(n), fa'i\u017c\u0101 balagna ajalahunna fal\u0101 jun\u0101\u1e25a \u2018alaikum f\u012bm\u0101 fa\u2018alna f\u012b anfusihinna bil-ma\u2018r\u016bf(i),wall\u0101hu bim\u0101 ta\u2018mal\u016bna khab\u012br(un).  ",
    "translation": "Orang-orang yang mati di antara kamu dan meninggalkan istri-istri hendaklah mereka (istri-istri) menunggu dirinya (beridah) empat bulan sepuluh hari. Kemudian, apabila telah sampai (akhir) idah mereka, tidak ada dosa bagimu (wali) mengenai apa yang mereka lakukan terhadap diri mereka71) menurut cara yang patut. Allah Maha Mengetahui apa yang kamu kerjakan.",
    "no_footnote": "71",
    "footnotes": "71) Setelah masa idah selesai, perempuan boleh berhias, bepergian, atau menerima pinangan.",
    "surah": {
        "id": 2,
        "arabic": " \u0627\u0644\u0628\u0642\u0631\u0629",
        "latin": "Al-Baqarah ",
        "transliteration": "Al-Baqarah",
        "translation": "Sapi",
        "num_ayah": 286,
        "page": 2,
        "location": "Madaniyah"
    },
    "tafsir": {
        "wajiz": "Ayat ini menjelaskan idah cerai mati agar tidak ada dugaan bahwa idah cerai mati sama dengan cerai hidup. Dan orang-orang yang mati di antara kamu, yakni para suami, serta meninggalkan istri-istri yang tidak sedang hamil, hendaklah mereka, para istri, menunggu atau beridah selama empat bulan sepuluh hari termasuk malamnya, sebagai ketentuan syarak yang bersifat qat\u2019i (pasti). Kemudian apabila telah sampai akhir atau selesai masa idah mereka, yakni para istri yang ditinggal mati suaminya, maka tidak ada dosa bagimu, wahai para wali dan saudara-saudara mereka, yakni tidak menghalangi dan melarang mereka mengenai apa yang mereka lakukan terhadap diri mereka sendiri yang sebelumnya dilarang ketika masih dalam masa idah, menurut cara yang patut dan sesuai dengan agama dan kewajaran, seperti berhias, menerima pinangan, menikah, dan aktivitas lainnya. Dan Allah Maha Mengetahui apa yang kamu kerjakan, baik yang kamu sembunyikan maupun yang kamu tampakkan. ",
        "tahlili": "Idah perempuan yang ditinggal mati suaminya adalah empat bulan sepuluh hari. Walaupun ayat ini kelihatannya umum (mencakup semua wanita yang ditinggal mati oleh suaminya) namun ada pengecualian yaitu yang tidak dalam keadaan hamil. Sebab untuk wanita hamil, telah ada hukum yang lain pada ayat yang lain. Hal ini akan dijelaskan lebih lanjut dalam tafsir ayat 240. Selama masa idah ia tidak boleh berhias, mempersiapkan diri menerima pinangan atau memberi janji untuk menerima pinangan. Demikian juga ia tidak boleh keluar rumah kecuali karena hal-hal yang dibolehkan oleh agama. Karena selain masa itu untuk mengetahui kebersihan rahimnya (hamil atau tidak hamil), juga digunakan sebagai masa berkabung. Manakala ia tidak hamil maka ia wajib berkabung menghormati tali hubungan suami istri baik terhadap mendiang suami maupun terhadap keluarga suaminya. Ia harus berkabung selama ia dalam idah. Setelah habis masa empat bulan sepuluh hari tersebut dibolehkan membuat segala sesuatu tentang dirinya menurut cara yang wajar, umpamanya menerima pinangan, keluar rumah dan perbuatan lain yang tidak bertentangan dengan agama.\nAllah mengetahui segala apa yang dikerjakan oleh manusia. Ayat ini menegaskan bahwa mengenai masa berkabung ini Islam memberikan jalan sebaik-baiknya yang sesuai dengan kebutuhan manusia. Wanita-wanita pada masa jahiliah melakukan masa berkabung selama satu tahun penuh dan tidak boleh memakai perhiasan, tidak boleh makan makanan yang enak dan tidak boleh pula memperlihatkan diri di muka umum. Bahkan pada sebagian kelompok masyarakat kaum wanita yang menjalani masa berkabung ini harus melakukan hal-hal yang jauh lebih berat dari apa yang dilakukan oleh orang di masa jahiliyah, seperti: terus menerus menangis dan meratap. Tidak boleh menghias dirinya dan lain sebagainya. Melakukan masa berkabung ini bukan karena kematian suaminya saja, tetapi karena kematian anak pun mereka berkabung secara demikian. Maka tepat apa yang diatur oleh Islam bahwa masa berkabung untuk wanita yang kematian suami tidak boleh lebih dari empat bulan sepuluh hari dan untuk kematian famili lainnya tidak boleh lebih dari tiga hari.\nPenyimpangan dari ketentuan ini harus dihindari karena Allah Maha Mengetahui segala apa yang dikerjakan manusia.",
        "intro_surah": "Surah al-Baqarah yang terdiri dari 286 ayat adalah termasuk golongan surah Madaniyah yang diturunkan pada tahun-tahun permulaan periode Nabi Muhammad saw di Medinah. Ia merupakan surah yang terpanjang dan terbanyak ayat-ayatnya di antara surah yang ada di dalam Al-Qur\u2019an. Surah ini dinamai \u201cal-Baqarah\u201d yang berarti \u201cseekor sapi\u201d, karena di dalamnya disebutkan kisah penyembelihan sapi betina yang diperintahkan Allah kepada Bani Israil. Dalam pelaksanaan penyembelihan sapi betina itu tampak dengan jelas sifat dan watak orang-orang Yahudi pada umumnya.\nDinamakan juga fus\u1e6da\u1e6d al-Qur\u2019\u0101n yang berarti \u201cpuncak Al-Qur\u2019an\u201d karena surah ini memuat beberapa hukum yang tidak disebut di surah-surah yang lain. Juga dinamakan Al\u012bf L\u0101m M\u012bm, karena surah ini dimulai dengan huruf-huruf hijaiyah (abjad) alif l\u0101m m\u012bm.\nDi antara pokok-pokok isinya ialah:\n1.\tKeimanan: Dakwah Islamiah yang ditujukan kepada umat Islam, Ahli Kitab dan orang-orang musyrik.\n2.\tHukum: Perintah mengerjakan salat, perintah menunaikan zakat, puasa, haji dan umrah, qi\u1e63a\u1e63, yang halal dan yang haram, bernafkah di jalan Allah, minum arak dan berjudi, cara bergaul dengan anak yatim, prinsip-prinsip ekonomi, larangan memakan riba, utang piutang, nafkah dan yang berhak menerimanya, wasiat kepada dua orang ibu bapak dan kaum kerabat, hukum sumpah, kewajiban menyampaikan amanat, sihir, hukum merusak masjid, hukum mengubah kitab-kitab Allah, haid, idah, talak, khulu\u2018, il\u0101, hukum susuan, meminang, mahar, menikahi wanita musyrik dan sebaliknya, hukum perang, dan lain-lain. \n3.\tKisah: Penciptaan Nabi Adam a.s., kisah Nabi Ibrahim a.s., dan kisah Nabi Musa a.s. dengan Bani Israil.\n4.\tLain-lain, seperti: sifat orang yang bertakwa, sifat-sifat orang munafik, sifat-sifat Allah, perumpamaan-perumpamaan, kiblat, dan kebangkitan sesudah mati.",
        "outro_surah": null,
        "munasabah_prev_surah": "1.\tSurah al-F\u0101ti\u1e25ah merupakan pokok-pokok pembahasan yang akan dirinci dalam surah al-Baqarah dan surah-surah sesudahnya.\n2.\tDi bagian akhir surah al-F\u0101ti\u1e25ah disebutkan permohonan hamba, agar diberi petunjuk oleh Allah ke jalan yang lurus, sedang surah al-Baqarah dimulai dengan ayat yang menerangkan bahwa Al-Qur\u2019an adalah kitab yang menunjukkan jalan yang dimaksudkan itu.\n3.\tDi akhir surah al-F\u0101ti\u1e25ah disebutkan tiga kelompok manusia, yaitu yang diberi nikmat, yang dimurkai Allah dan orang yang sesat, sedangkan di awal surah al-Baqarah juga disebutkan tiga kelompok manusia, yaitu orang yang bertakwa, orang kafir, dan orang munafik.",
        "munasabah_prev_theme": "Pada ayat yang lalu telah dijelaskan hukum-hukum yang berhubungan dengan talak, bagaimana cara-caranya dan apa saja hak suami dan istri. Istri yang ditinggalkan (janda) ada kalanya karena dicerai (al-Baqarah/2:228) atau ditinggal mati, maka dalam ayat ini Allah menjelaskan pula hukum yang berkenaan dengan seorang istri yang ditinggal mati oleh suaminya.",
        "theme_group": "IDAH PEREMPUAN YANG SUAMINYA MATI",
        "kosakata": "Kosakata: Yatarabba\u1e63na \u064a\u064e\u062a\u064e\u0631\u064e\u0628\u0651\u064e\u0635\u0652\u0646\u064e  (al-Baqarah/2: 234)\nYatarabba\u1e63na berasal dari kata tarabbu\u1e63, akar kata dari tarabba\u1e63a-yatarabba\u1e63u yang berarti menanti. Kata yatarabba\u1e63na dalam ayat 234 surah al-Baqarah berarti beridah, yaitu perempuan yang ditalak harus menahan diri atau menanti tiga kali suci, baru boleh menikah jika ia ingin menikah lagi. Kata yatarabba\u1e63na dan dari akar kata yang sama disebutkan dalam surah al-Baqarah/2: 226, 228, dan 234.",
        "sabab_nuzul": null,
        "conclusion": "1.\tPerempuan yang suaminya meninggal wajib menjalankan idah empat bulan sepuluh hari, kecuali bagi yang hamil, idahnya sampai ia melahirkan anaknya. Namun ada sementara ulama yang berpendapat bahwa dalam kasus wanita hamil ditinggal mati suaminya, idahnya adalah mana yang paling panjang dari dua idah, yaitu melahirkan atau masa empat bulan sepuluh hari. Sementara, istri yang belum digauli, jika suaminya meninggal, tidak ada idahnya. \n2.\tSetelah melahirkan (masa idah bagi perempuan hamil), perempuan dibolehkan menerima lamaran laki-laki."
    }
}