{
    "id": 289,
    "surah_id": 2,
    "ayah": 282,
    "page": 48,
    "quarter_hizb": 5.5,
    "juz": 3,
    "manzil": 1,
    "arabic": "\u064a\u0670\u0653\u0627\u064e\u064a\u0651\u064f\u0647\u064e\u0627 \u0627\u0644\u0651\u064e\u0630\u0650\u064a\u0652\u0646\u064e \u0627\u0670\u0645\u064e\u0646\u064f\u0648\u0652\u0653\u0627 \u0627\u0650\u0630\u064e\u0627 \u062a\u064e\u062f\u064e\u0627\u064a\u064e\u0646\u0652\u062a\u064f\u0645\u0652 \u0628\u0650\u062f\u064e\u064a\u0652\u0646\u064d \u0627\u0650\u0644\u0670\u0653\u0649 \u0627\u064e\u062c\u064e\u0644\u064d \u0645\u0651\u064f\u0633\u064e\u0645\u0651\u064b\u0649 \u0641\u064e\u0627\u0643\u0652\u062a\u064f\u0628\u064f\u0648\u0652\u0647\u064f\u06d7 \u0648\u064e\u0644\u0652\u064a\u064e\u0643\u0652\u062a\u064f\u0628\u0652 \u0628\u0651\u064e\u064a\u0652\u0646\u064e\u0643\u064f\u0645\u0652 \u0643\u064e\u0627\u062a\u0650\u0628\u064c\u06e2 \u0628\u0650\u0627\u0644\u0652\u0639\u064e\u062f\u0652\u0644\u0650\u06d6 \u0648\u064e\u0644\u064e\u0627 \u064a\u064e\u0623\u0652\u0628\u064e \u0643\u064e\u0627\u062a\u0650\u0628\u064c \u0627\u064e\u0646\u0652 \u064a\u0651\u064e\u0643\u0652\u062a\u064f\u0628\u064e \u0643\u064e\u0645\u064e\u0627 \u0639\u064e\u0644\u0651\u064e\u0645\u064e\u0647\u064f \u0627\u0644\u0644\u0651\u0670\u0647\u064f \u0641\u064e\u0644\u0652\u064a\u064e\u0643\u0652\u062a\u064f\u0628\u0652\u06da \u0648\u064e\u0644\u0652\u064a\u064f\u0645\u0652\u0644\u0650\u0644\u0650 \u0627\u0644\u0651\u064e\u0630\u0650\u064a\u0652 \u0639\u064e\u0644\u064e\u064a\u0652\u0647\u0650 \u0627\u0644\u0652\u062d\u064e\u0642\u0651\u064f \u0648\u064e\u0644\u0652\u064a\u064e\u062a\u0651\u064e\u0642\u0650 \u0627\u0644\u0644\u0651\u0670\u0647\u064e \u0631\u064e\u0628\u0651\u064e\u0647\u0657 \u0648\u064e\u0644\u064e\u0627 \u064a\u064e\u0628\u0652\u062e\u064e\u0633\u0652 \u0645\u0650\u0646\u0652\u0647\u064f \u0634\u064e\u064a\u0652\u0640\u0654\u064b\u0627\u06d7  \u0641\u064e\u0627\u0650\u0646\u0652 \u0643\u064e\u0627\u0646\u064e \u0627\u0644\u0651\u064e\u0630\u0650\u064a\u0652 \u0639\u064e\u0644\u064e\u064a\u0652\u0647\u0650 \u0627\u0644\u0652\u062d\u064e\u0642\u0651\u064f \u0633\u064e\u0641\u0650\u064a\u0652\u0647\u064b\u0627 \u0627\u064e\u0648\u0652 \u0636\u064e\u0639\u0650\u064a\u0652\u0641\u064b\u0627 \u0627\u064e\u0648\u0652 \u0644\u064e\u0627 \u064a\u064e\u0633\u0652\u062a\u064e\u0637\u0650\u064a\u0652\u0639\u064f \u0627\u064e\u0646\u0652 \u064a\u0651\u064f\u0645\u0650\u0644\u0651\u064e \u0647\u064f\u0648\u064e \u0641\u064e\u0644\u0652\u064a\u064f\u0645\u0652\u0644\u0650\u0644\u0652 \u0648\u064e\u0644\u0650\u064a\u0651\u064f\u0647\u0657 \u0628\u0650\u0627\u0644\u0652\u0639\u064e\u062f\u0652\u0644\u0650\u06d7 \u0648\u064e\u0627\u0633\u0652\u062a\u064e\u0634\u0652\u0647\u0650\u062f\u064f\u0648\u0652\u0627 \u0634\u064e\u0647\u0650\u064a\u0652\u062f\u064e\u064a\u0652\u0646\u0650 \u0645\u0650\u0646\u0652 \u0631\u0651\u0650\u062c\u064e\u0627\u0644\u0650\u0643\u064f\u0645\u0652\u06da \u0641\u064e\u0627\u0650\u0646\u0652 \u0644\u0651\u064e\u0645\u0652 \u064a\u064e\u0643\u064f\u0648\u0652\u0646\u064e\u0627 \u0631\u064e\u062c\u064f\u0644\u064e\u064a\u0652\u0646\u0650 \u0641\u064e\u0631\u064e\u062c\u064f\u0644\u064c \u0648\u0651\u064e\u0627\u0645\u0652\u0631\u064e\u0627\u064e\u062a\u0670\u0646\u0650 \u0645\u0650\u0645\u0651\u064e\u0646\u0652 \u062a\u064e\u0631\u0652\u0636\u064e\u0648\u0652\u0646\u064e \u0645\u0650\u0646\u064e \u0627\u0644\u0634\u0651\u064f\u0647\u064e\u062f\u064e\u06e4\u0627\u0621\u0650 \u0627\u064e\u0646\u0652 \u062a\u064e\u0636\u0650\u0644\u0651\u064e \u0627\u0650\u062d\u0652\u062f\u0670\u0649\u0647\u064f\u0645\u064e\u0627 \u0641\u064e\u062a\u064f\u0630\u064e\u0643\u0651\u0650\u0631\u064e \u0627\u0650\u062d\u0652\u062f\u0670\u0649\u0647\u064f\u0645\u064e\u0627 \u0627\u0644\u0652\u0627\u064f\u062e\u0652\u0631\u0670\u0649\u06d7 \u0648\u064e\u0644\u064e\u0627 \u064a\u064e\u0623\u0652\u0628\u064e \u0627\u0644\u0634\u0651\u064f\u0647\u064e\u062f\u064e\u06e4\u0627\u0621\u064f \u0627\u0650\u0630\u064e\u0627 \u0645\u064e\u0627 \u062f\u064f\u0639\u064f\u0648\u0652\u0627 \u06d7 \u0648\u064e\u0644\u064e\u0627 \u062a\u064e\u0633\u0652\u0640\u0654\u064e\u0645\u064f\u0648\u0652\u0653\u0627 \u0627\u064e\u0646\u0652 \u062a\u064e\u0643\u0652\u062a\u064f\u0628\u064f\u0648\u0652\u0647\u064f \u0635\u064e\u063a\u0650\u064a\u0652\u0631\u064b\u0627 \u0627\u064e\u0648\u0652 \u0643\u064e\u0628\u0650\u064a\u0652\u0631\u064b\u0627 \u0627\u0650\u0644\u0670\u0653\u0649 \u0627\u064e\u062c\u064e\u0644\u0650\u0647\u0656\u06d7 \u0630\u0670\u0644\u0650\u0643\u064f\u0645\u0652 \u0627\u064e\u0642\u0652\u0633\u064e\u0637\u064f \u0639\u0650\u0646\u0652\u062f\u064e \u0627\u0644\u0644\u0651\u0670\u0647\u0650 \u0648\u064e\u0627\u064e\u0642\u0652\u0648\u064e\u0645\u064f \u0644\u0650\u0644\u0634\u0651\u064e\u0647\u064e\u0627\u062f\u064e\u0629\u0650 \u0648\u064e\u0627\u064e\u062f\u0652\u0646\u0670\u0649\u0653 \u0627\u064e\u0644\u0651\u064e\u0627 \u062a\u064e\u0631\u0652\u062a\u064e\u0627\u0628\u064f\u0648\u0652\u0653\u0627 \u0627\u0650\u0644\u0651\u064e\u0627\u0653 \u0627\u064e\u0646\u0652 \u062a\u064e\u0643\u064f\u0648\u0652\u0646\u064e \u062a\u0650\u062c\u064e\u0627\u0631\u064e\u0629\u064b \u062d\u064e\u0627\u0636\u0650\u0631\u064e\u0629\u064b \u062a\u064f\u062f\u0650\u064a\u0652\u0631\u064f\u0648\u0652\u0646\u064e\u0647\u064e\u0627 \u0628\u064e\u064a\u0652\u0646\u064e\u0643\u064f\u0645\u0652 \u0641\u064e\u0644\u064e\u064a\u0652\u0633\u064e \u0639\u064e\u0644\u064e\u064a\u0652\u0643\u064f\u0645\u0652 \u062c\u064f\u0646\u064e\u0627\u062d\u064c \u0627\u064e\u0644\u0651\u064e\u0627 \u062a\u064e\u0643\u0652\u062a\u064f\u0628\u064f\u0648\u0652\u0647\u064e\u0627\u06d7 \u0648\u064e\u0627\u064e\u0634\u0652\u0647\u0650\u062f\u064f\u0648\u0652\u0653\u0627 \u0627\u0650\u0630\u064e\u0627 \u062a\u064e\u0628\u064e\u0627\u064a\u064e\u0639\u0652\u062a\u064f\u0645\u0652 \u06d6 \u0648\u064e\u0644\u064e\u0627 \u064a\u064f\u0636\u064e\u0627\u06e4\u0631\u0651\u064e \u0643\u064e\u0627\u062a\u0650\u0628\u064c \u0648\u0651\u064e\u0644\u064e\u0627 \u0634\u064e\u0647\u0650\u064a\u0652\u062f\u064c \u06d5\u06d7 \u0648\u064e\u0627\u0650\u0646\u0652 \u062a\u064e\u0641\u0652\u0639\u064e\u0644\u064f\u0648\u0652\u0627 \u0641\u064e\u0627\u0650\u0646\u0651\u064e\u0647\u0657 \u0641\u064f\u0633\u064f\u0648\u0652\u0642\u064c\u06e2 \u0628\u0650\u0643\u064f\u0645\u0652 \u06d7 \u0648\u064e\u0627\u062a\u0651\u064e\u0642\u064f\u0648\u0627 \u0627\u0644\u0644\u0651\u0670\u0647\u064e \u06d7 \u0648\u064e\u064a\u064f\u0639\u064e\u0644\u0651\u0650\u0645\u064f\u0643\u064f\u0645\u064f \u0627\u0644\u0644\u0651\u0670\u0647\u064f \u06d7 \u0648\u064e\u0627\u0644\u0644\u0651\u0670\u0647\u064f \u0628\u0650\u0643\u064f\u0644\u0651\u0650 \u0634\u064e\u064a\u0652\u0621\u064d \u0639\u064e\u0644\u0650\u064a\u0652\u0645\u064c",
    "latin": "Y\u0101 ayyuhal-la\u017c\u012bna \u0101man\u016b i\u017c\u0101 tad\u0101yantum bidainin il\u0101 ajalim musamman faktub\u016bh(u), walyaktub bainakum k\u0101tibum bil-\u2018adl(i), wa l\u0101 ya'ba k\u0101tibun ay yaktuba kam\u0101 \u2018allamahull\u0101hu falyaktub, walyumlilil-la\u017c\u012b \u2018alaihil-\u1e25aqqu walyattaqill\u0101ha rabbah\u016b wa l\u0101 yabkhas minhu syai'\u0101(n), fa'in k\u0101nal-la\u017c\u012b \u2018alaihil-\u1e25aqqu saf\u012bhan au \u1e0da\u2018\u012bfan au l\u0101 yasta\u1e6d\u012b\u2018u ay yumilla huwa falyumlil waliyyuh\u016b bil-\u2018adl(i), wastasyhid\u016b syah\u012bdaini mir rij\u0101li\u016bkum, fa'illam yak\u016bn\u0101 rajulaini farajuluw wamra'at\u0101ni mimman tar\u1e0dauna minasy-syuhad\u0101'i an ta\u1e0dilla i\u1e25d\u0101hum\u0101 fatu\u017cakkira i\u1e25d\u0101humal-ukhr\u0101, wa l\u0101 ya'basy-syuhad\u0101'u i\u017c\u0101 m\u0101 du\u2018\u016b, wa l\u0101 tas'am\u016b an taktub\u016bhu \u1e63ag\u012bran au kab\u012bran il\u0101 ajalih(\u012b), \u017c\u0101likum aqsa\u1e6du \u2018indall\u0101hi wa aqwamu lisy-syah\u0101dati wa adn\u0101 all\u0101 tart\u0101b\u016b ill\u0101 an tak\u016bna tij\u0101ratan \u1e25\u0101\u1e0diratan tud\u012br\u016bnah\u0101 bainakum falaisa \u2018alaikum jun\u0101\u1e25un all\u0101 taktub\u016bh\u0101, wa asyhid\u016b i\u017c\u0101 tab\u0101ya\u2018tum, wa l\u0101 yu\u1e0d\u0101rra k\u0101tibuw wa l\u0101 syah\u012bd(un), wa in taf\u2018al\u016b fa'innah\u016b fus\u016bqum bikum, wattaqull\u0101h(a), wa yu\u2018allimukumull\u0101h(u), wall\u0101hu bikulli syai'in \u2018al\u012bm(un).  ",
    "translation": "Wahai orang-orang yang beriman, apabila kamu berutang piutang untuk waktu yang ditentukan, hendaklah kamu mencatatnya. Hendaklah seorang pencatat di antara kamu menuliskannya dengan benar. Janganlah pencatat menolak untuk menuliskannya sebagaimana Allah telah mengajar-kan kepadanya. Hendaklah dia mencatat(-nya) dan orang yang berutang itu mendiktekan(-nya). Hendaklah dia bertakwa kepada Allah, Tuhannya, dan janganlah dia menguranginya sedikit pun. Jika yang berutang itu orang yang kurang akalnya, lemah (keadaannya), atau tidak mampu mendiktekan sendiri, hendaklah walinya mendiktekannya dengan benar. Mintalah kesaksian dua orang saksi laki-laki di antara kamu. Jika tidak ada (saksi) dua orang laki-laki, (boleh) seorang laki-laki dan dua orang perempuan di antara orang-orang yang kamu sukai dari para saksi (yang ada) sehingga jika salah seorang (saksi perempuan) lupa, yang lain mengingatkannya. Janganlah saksi-saksi itu menolak apabila dipanggil. Janganlah kamu bosan mencatatnya sampai batas waktunya, baik (utang itu) kecil maupun besar. Yang demikian itu lebih adil di sisi Allah, lebih dapat menguatkan kesaksian, dan lebih mendekatkan kamu pada ketidakraguan, kecuali jika hal itu merupakan perniagaan tunai yang kamu jalankan di antara kamu. Maka, tidak ada dosa bagi kamu jika kamu tidak mencatatnya. Ambillah saksi apabila kamu berjual beli dan janganlah pencatat mempersulit (atau dipersulit), begitu juga saksi. Jika kamu melakukan (yang demikian), sesungguhnya hal itu suatu kefasikan padamu. Bertakwalah kepada Allah, Allah memberikan pengajaran kepadamu dan Allah Maha Mengetahui segala sesuatu.",
    "no_footnote": null,
    "footnotes": null,
    "surah": {
        "id": 2,
        "arabic": " \u0627\u0644\u0628\u0642\u0631\u0629",
        "latin": "Al-Baqarah ",
        "transliteration": "Al-Baqarah",
        "translation": "Sapi",
        "num_ayah": 286,
        "page": 2,
        "location": "Madaniyah"
    },
    "tafsir": {
        "wajiz": "Wahai orang-orang yang beriman! Apabila kamu melakukan utang piutang untuk waktu pembayaran yang ditentukan, hendaklah kamu menuliskannya untuk melindungi hak masing-masing dan untuk menghindari perselisihan. Dan hendaklah seorang yang bertugas sebagai penulis di antara kamu menuliskannya dengan benar, jujur, dan adil, sesuai ketentuan Allah dan peraturan perundangan yang berlaku dalam masyarakat. Kepada para penulis diingatkan agar janganlah penulis menolak untuk menuliskannya sebagai tanda syukur, sebagaimana Allah telah mengajarkan kepadanya kemampuan membaca dan menulis, maka hendaklah dia menuliskan sesuai dengan pengakuan dan pernyataan pihak yang berutang dan disetujui oleh pihak yang mengutangi. Dan hendaklah orang yang berutang itu mendiktekan apa yang telah disepakati untuk ditulis, dan hendaklah dia bertakwa kepada Allah, Tuhan Pemelihara-nya, dan janganlah dia mengurangi sedikit pun daripada utang-nya, baik yang berkaitan dengan kadar utang, waktu, cara pembayaran, dan lain-lain yang dicakup oleh kesepakatan. Jika yang berutang itu orang yang kurang akalnya, tidak pandai mengurus harta karena suatu dan lain sebab, atau lemah keadaannya, seperti sakit atau sangat tua, atau tidak mampu mendiktekan sendiri karena bisu atau tidak mengetahui bahasa yang digunakan, atau boleh jadi malu, maka hendaklah walinya mendiktekannya dengan benar dan jujur. Dan persaksikanlah dengan dua orang saksi laki-laki di antara kamu. Jika tidak ada saksi dua orang laki-laki, atau kalau saksi itu bukan dua orang laki-laki, maka boleh seorang laki-laki dan dua orang perempuan di antara orang-orang yang kamu sukai dari para saksi yang ada, yakni yang disepakati oleh yang melakukan transaksi. Hal tersebut agar jika yang seorang dari perempuan itu lupa, maka perempuan yang seorang lagi yang menjadi saksi bersamanya mengingatkannya. Dan sebagaimana Allah berpesan kepada para penulis, kepada para saksi pun Allah berpesan. Janganlah saksi-saksi itu menolak memberi keterangan apabila dipanggil untuk memberi kesaksian, karena penolakannya itu dapat merugikan orang lain. Dan janganlah kamu bosan menuliskannya, baik utang itu kecil maupun besar, sampai yakni tiba batas waktu membayarnya. Yang demikian itu, yakni penulisan utang piutang dan persaksian yang dibicarakan itu, lebih adil di sisi Allah, yakni dalam pengetahuan-Nya dan dalam kenyataan hidup, dan lebih dapat menguatkan kesaksian, yakni lebih membantu penegakan persaksian, dan lebih mendekatkan kamu kepada ketidakraguan terkait jenis utang, besaran dan waktunya. Petunjuk-petunjuk di atas adalah jika muamalah dilakukan dalam bentuk utang piutang, tetapi jika hal itu merupakan perdagangan berupa jual beli secara tunai yang kamu jalankan di antara kamu, maka tidak ada dosa bagi kamu jika kamu tidak menuliskannya, sebab memang pencatatan jual beli tidak terlalu penting dibanding transaksi utang-piutang. Dan dianjurkan kepadamu ambillah saksi apabila kamu berjual beli untuk menghindari perselisihan, dan janganlah penulis dipersulit dan begitu juga saksi oleh para pihak untuk memberikan keterangan dan kesaksian jika diperlukan, begitu juga sebaliknya para pencatat dan saksi tidak boleh merugikan para pihak. Jika kamu, wahai para penulis dan saksi serta para pihak, lakukan yang demikian, maka sungguh, hal itu suatu kefasikan pada kamu. Dan bertakwalah kepada Allah dan rasakanlah keagunganNya dalam setiap perintah dan larangan, Allah memberikan pengajaran kepadamu tentang hak dan kewajiban, dan Allah Maha Mengetahui Segala sesuatu.",
        "tahlili": "Dengan adanya perintah membelanjakan harta di jalan Allah, anjuran bersedekah dan larangan melakukan riba, maka manusia harus berusaha memelihara dan mengembangkan hartanya, tidak menyia-nyiakannya sesuai dengan ketentuan-ketentuan Allah. Hal ini menunjukkan bahwa harta itu bukan sesuatu yang dibenci Allah dan dicela agama Islam. Bahkan Allah di samping memberi perintah untuk itu, juga memberi petunjuk dan menetapkan ketentuan-ketentuan umum serta hukum-hukum yang mengatur cara-cara mencari, memelihara, menggunakan dan menafkahkan harta di jalan Allah. Harta yang diperoleh sesuai dengan ketentuan-ketentuan Allah adalah harta yang paling baik, sesuai dengan sabda Rasulullah saw:\n\u0646\u0650\u0639\u0650\u0645\u0651\u064e\u0627 \u0627\u0644\u0652\u0645\u064e\u0627\u0644\u064f \u0627\u0644\u0635\u0651\u064e\u0627\u0644\u0650\u062d\u064f \u0644\u0650\u0644\u0652\u0645\u064e\u0631\u0652\u0621\u0650 \u0627\u0644\u0635\u0651\u064e\u0627\u0644\u0650\u062d\u0650 (\u0631\u0648\u0627\u0647 \u0623\u062d\u0645\u062f \u0648\u0627\u0644\u0637\u0628\u0631\u0627\u0646\u064a \u0639\u0646 \u0639\u0645\u0631\u0648 \u0628\u0646 \u0639\u0627\u0635)\n\u201cHarta yang paling baik ialah harta kepunyaan orang saleh.\u201d (Riwayat A\u1e25mad dan a\u1e6d-\u1e6cabr\u0101n\u012b dari \u2018Amr bin \u2018\u0100\u1e63).\nYang dibenci Allah dan yang dicela oleh Islam ialah harta yang diperoleh dengan cara-cara yang menyimpang dari ketentuan-ketentuan Allah swt dan harta orang-orang yang menjadikan dirinya sebagai budak harta. Seluruh kehidupan, usaha, dan pikirannya dicurahkan untuk menumpuk harta dan memperkaya diri sendiri. Karena itu timbullah sifat-sifat tamak, serakah, bakhil dan kikir pada dirinya, sehingga dia tidak mengindahkan orang yang miskin dan terlantar. Rasulullah saw bersabda:\n\u062a\u064e\u0639\u0650\u0633\u064e \u0639\u064e\u0628\u0652\u062f\u064f \u0627\u0644\u062f\u0651\u0650\u064a\u0652\u0646\u064e\u0627\u0631\u0650 \u062a\u064e\u0639\u0650\u0633\u064e \u0639\u064e\u0628\u0652\u062f\u064f \u0627\u0644\u062f\u0651\u0650\u0631\u0652\u0647\u064e\u0645\u0650 (\u0631\u0648\u0627\u0647 \u0627\u0644\u0628\u062e\u0627\u0631\u064a \u0639\u0646 \u0623\u0628\u064a \u0647\u0631\u064a\u0631\u0629)\n\u201cCelakalah budak dinar, celakalah budak dirham.\u201d (Riwayat al-Bukh\u0101r\u012b dari Ab\u016b Hurairah).\nDalam ayat ini Allah memerintahkan kepada orang yang beriman agar mereka melaksanakan ketentuan-ketentuan Allah setiap melakukan transaksi utang piutang, melengkapinya dengan alat-alat bukti, sehingga dapat dijadikan dasar untuk menyelesaikan perselisihan yang mungkin timbul di kemudian hari.\nPembuktian itu bisa berupa bukti tertulis atau adanya saksi.\n1. Bukti tertulis\n\u201cBukti tertulis\u201d hendaklah ditulis oleh seorang \u201cjuru tulis\u201d, yang menuliskan isi perjanjian yang telah disepakati oleh kedua belah pihak. Syarat-syarat juru tulis itu ialah:\na.\tOrang yang adil, tidak memihak kepada salah satu dari pihak-pihak yang mengadakan perjanjian, sehingga tidak menguntungkan pihak yang satu dan merugikan pihak yang lain.\nb.\tMengetahui hukum-hukum Allah terutama yang berhubungan dengan hukum perjanjian dan transaksi, sehingga dia dapat memberi nasihat dan petunjuk yang benar kepada pihak-pihak yang berjanji. Karena juru tulis itu ikut bertanggung jawab dan menjadi saksi antara pihak-pihak yang berjanji, seandainya terjadi perselisihan di kemudian hari. Juru tulis dalam era modern sekarang ini diwujudkan dalam bentuk notaris/pencatat akte jual beli dan utang piutang.\nDalam susunan ayat ini didahulukan menyebut sifat \u201cadil\u201d daripada sifat \u201cberilmu\u201d, adalah karena sifat adil lebih utama bagi seorang juru tulis. Banyak orang yang berilmu, tetapi mereka tidak adil, karena itu diragukan kebenaran petunjuk dan nasihat yang diberikannya. Orang yang adil sekalipun ilmunya kurang, dapat diharapkan daripadanya nasihat dan petunjuk yang benar dan tidak memihak.\nTugas juru tulis ialah menuliskan ketentuan-ketentuan yang telah disepakati oleh pihak-pihak yang berjanji. Caranya ialah pihak yang berutang mendiktekan kepada juru tulis tentang sesuatu yang telah dipinjamnya, cara serta pelaksanaan perjanjian itu dan sebagainya. Tujuan mendiktekan isi perjanjian itu oleh pihak yang berjanji, ialah agar yang ditulis itu merupakan pengakuan dari pihak yang berutang, karena dengan tulisan semata-mata tanpa ada ucapan yang dilakukan oleh pihak yang berutang, maka yang ditulis itu saja tidak dapat dijadikan sebagai pengakuan.\nAllah memperingatkan orang yang berjanji agar dia selalu menepati janjinya dengan baik. Hendaklah dia takut kepada Allah, dan komitmen terhadap janji yang telah diucapkan. Hendaklah bersyukur kepada Allah yang telah melunakkan hati orang yang telah membantunya dalam kesukaran. Bila dia bersyukur, Allah akan selalu menjaga, memelihara serta memberinya petunjuk ke jalan yang mudah dan ke jalan kebahagiaan.\nJika orang yang berjanji itu, orang yang lemah akalnya atau dia sendiri tidak sanggup untuk mendiktekan, maka hak untuk mendiktekan itu pindah ke tangan wali yang bersangkutan. Hendaklah wali itu orang yang adil dan mengetahui tentang hukum-hukum yang berhubungan dengan muamalah. Hendaklah para wali berhati-hati dalam melaksanakan tugas perwalian itu.\nYang dimaksud dengan \u201corang yang lemah akalnya\u201d ialah orang yang belum cakap memelihara dan menggunakan hartanya. Orang yang tidak sanggup mendiktekan ialah seperti orang bisu, orang yang gagap dan sebagainya.\n2. Saksi\n\u201cSaksi\u201d ialah orang yang melihat dan mengetahui terjadinya suatu peristiwa. Persaksian termasuk salah satu dari alat-alat bukti (bayyinah) yang dapat dijadikan dasar untuk menyelesaikan suatu perselisihan atau perkara.\nMenurut ayat ini persaksian dalam muamalah sekurang-kurangnya dilakukan oleh dua orang laki-laki, atau jika tidak ada dua orang laki-laki boleh dilakukan oleh seorang laki-laki dan dua orang perempuan.\nMengenai syarat-syarat \u201claki-laki\u201d bagi yang akan menjadi saksi adalah sebagai berikut:\na.\tSaksi itu hendaklah seorang Muslim. Pendapat ini berdasarkan perkataan min rij\u0101likum (dari orang laki-laki di antara kamu) yang terdapat di dalam ayat. Dari perkataan itu dipahami bahwa saksi itu hendaklah seorang Muslim. Menurut sebagian ulama: beragama Islam itu bukanlah merupakan syarat bagi seorang saksi dalam muamalah. Karena tujuan persaksian di dalam muamalah ialah agar ada alat bukti, seandainya terjadi perselisihan atau perkara antara pihak-pihak yang terlibat di kemudian hari. Karena itu orang yang tidak beragama Islam dibolehkan menjadi saksi asal saja tujuan mengadakan persaksian itu dapat tercapai.\nb.\tSaksi itu hendaklah orang yang adil, tidak memihak sehingga tercapai tujuan diadakannya persaksian, sesuai dengan firman Allah:\n\u0648\u0651\u064e\u0627\u064e\u0634\u0652\u0647\u0650\u062f\u064f\u0648\u0652\u0627 \u0630\u064e\u0648\u064e\u064a\u0652 \u0639\u064e\u062f\u0652\u0644\u064d \u0645\u0651\u0650\u0646\u0652\u0643\u064f\u0645\u0652 \n\u2026 dan persaksikanlah dengan dua orang saksi yang adil di antara kamu ... (a\u1e6d-\u1e6cal\u0101q/65: 2)\nSelanjutnya ayat ini membedakan persaksian laki-laki dengan persaksian perempuan. Seorang saksi laki-laki dapat diganti dengan dua orang saksi perempuan. Para ulama berbeda pendapat tentang apa sebabnya Allah membedakan jumlah saksi laki-laki dengan jumlah saksi perempuan. Alasan yang sesuai dengan akal pikiran ialah bahwa laki-laki dan perempuan masing-masing diciptakan Allah mempunyai kelebihan dan kekurangan. Masing-masing mempunyai kesanggupan dan kemampuan dalam suatu perkara lebih besar dari kesanggupan pihak yang lain. Dalam bidang muamalah, laki-laki lebih banyak mempunyai kemampuan dibandingkan dengan perempuan. Pada umumnya muamalah itu lebih banyak laki-laki yang mengerjakannya. Karena perhatian perempuan agak kurang dibandingkan dengan perhatian laki-laki dalam bidang muamalah, maka pemikiran dan ingatan mereka dalam bidang ini pun agak kurang pula. Bila persaksian dilakukan oleh seorang perempuan, kemungkinan dia lupa, karena itu hendaklah ada perempuan yang lain yang ikut sebagai saksi yang dapat mengingatkannya.\nMenurut Syekh \u0100li A\u1e25mad al-Jurj\u0101n\u012b: laki-laki lebih banyak mengguna-kan pikiran dalam menimbang suatu masalah yang dihadapinya, sedang perempuan lebih banyak menggunakan perasaannya. Karena itu perempuan lebih lemah iradahnya, kurang banyak menggunakan pikirannya dalam masalah pelik, lebih-lebih apabila dia dalam keadaan benci dan marah, dia akan gembira atau sedih karena suatu hal yang kecil. Lain halnya dengan laki-laki, dia sanggup tabah dan sabar menanggung kesukaran, dia tidak menetapkan suatu urusan, kecuali setelah memikirkannya dengan matang. [39]\nBidang muamalah adalah bidang yang lebih banyak menggunakan pikiran daripada perasaan. Seorang saksi dalam muamalah juga berfungsi sebagai juru pendamai antara pihak-pihak yang berjanji bila terjadi perselisihan di kemudian hari. Berdasarkan keterangan Syekh \u0100li A\u1e25mad al-Jurj\u0101n\u012b dan keterangan-keterangan lainnya diduga itulah di antara hikmah mengapa Allah menyamakan seorang saksi laki-laki dengan dua orang saksi perempuan.\nMenurut Im\u0101m asy-Sy\u0101fi\u2018\u012b: Penerimaan kesaksian seorang saksi hendaklah dengan bersumpah. Beliau beralasan dengan sunah Rasulullah saw yang menyuruh saksi mengucapkan sumpah sebelum mengucapkan kesaksiannya. Sedang menurut Abu Hanifah: penerimaan kesaksian seseorang tidak perlu disertai dengan sumpah.\nDalam ayat ini disebutkan \u201cjanganlah saksi-saksi itu enggan (memberi keterangan) apabila mereka dipanggil.\u201d Maksudnya ialah:\n1.\tHendaklah seseorang bersedia menjadi saksi dalam suatu kejadian atau peristiwa, bila kesaksian itu diperlukan.\n2.\tHendaklah seseorang bersedia menjadi saksi bila terjadi suatu perkara, sedang dia adalah orang yang mengetahui terjadinya peristiwa itu.\n3.\tHendaklah seorang bersedia menjadi saksi terhadap suatu peristiwa yang terjadi, bila tidak ada orang lain yang akan menjadi saksi.\nDiriwayatkan oleh ar-Rab\u012b\u2018 bahwa ayat ini diturunkan ketika seorang laki-laki mencari saksi di kalangan orang banyak untuk meminta persaksian mereka, tetapi tidak seorang pun yang bersedia.\nMenurut suatu pendapat, yang dimaksud dengan \u201cjanganlah mereka enggan\u201d ialah: jangan mereka enggan menerima permintaan menjadi saksi dan melaksanakannya. Enggan melakukan keduanya itu hukumnya haram. Hukum melakukan persaksian itu fardu kifayah.\nKemudian Allah menjelaskan perintah-Nya, agar orang-orang yang beriman jangan malas dan jangan jemu menuliskan perjanjian yang akan dilakukannya, baik kecil maupun besar, dan dijelaskan syarat-syarat dan waktunya. Dalam ayat ini Allah mendahulukan menyebut \u201cyang kecil\u201d daripada \u201cyang besar\u201d, karena kebanyakan manusia selalu memandang enteng dan mudah perjanjian yang terkait dengan hal-hal yang remeh (kecil). Orang yang meremehkan perjanjian yang terkait dengan hal-hal yang remeh (kecil) tentu dia akan menganggap enteng perjanjian yang terkait dengan hal-hal primer (besar). Dari ayat ini juga dapat dipahami bahwa Allah memperingatkan manusia agar berhati-hati dalam persoalan hak dan kewajiban, sekalipun hak dan kewajiban itu terkait dengan hal-hal yang sekunder/remeh.\nAllah menyebutkan hikmah perintah dan larangan yang terdapat pada permulaan ayat ini, ialah untuk menegakkan keadilan, menegakkan persaksian, untuk menimbulkan keyakinan dan menghilangkan keragu-raguan. Jika perdagangan dilakukan secara tunai, maka tidak berdosa bila tidak ditulis. Dari ayat ini dipahami bahwa sekalipun tidak berdosa bila tidak menuliskan perdagangan secara tunai, namun yang paling baik ialah agar selalu dituliskan.\nSekalipun tidak diwajibkan menuliskan perdagangan tunai, namun Allah memerintahkan untuk mendatangkan saksi-saksi. Perintah di sini bukan wajib, hanyalah memberi pengertian sunat. Tujuannya ialah agar manusia selalu berhati hati di dalam muamalah.\nSelanjutnya Allah memperingatkan agar juru tulis, saksi dan orang-orang yang melakukan perjanjian memudahkan pihak-pihak yang lain, jangan menyulitkan dan jangan pula salah satu pihak bertindak yang berakibat merugikan pihak yang lain. Sebab terlaksananya perjanjian dengan baik bila masing-masing pihak mempunyai niat yang baik terhadap pihak yang lain.\n\u0648\u064e\u0644\u064e\u0627 \u062a\u064e\u0646\u0652\u0633\u064e\u0648\u064f\u0627 \u0627\u0644\u0652\u0641\u064e\u0636\u0652\u0644\u064e \u0628\u064e\u064a\u0652\u0646\u064e\u0643\u064f\u0645\u0652 \u06d7 \nDan janganlah kamu lupa kebaikan di antara kamu\u2026 (al-Baqarah/2: 237)\nJika seseorang mempersulit atau merugikan orang lain, maka perbuatan yang demikian adalah perbuatan orang fasik, dan tidak menaati ketentuan dari Allah.\nPada akhir ayat ini Allah memerintahkan agar manusia bertakwa kepada-Nya dengan memelihara diri agar selalu melaksanakan perintah-Nya dan menjauhi larangan-Nya. Dia mengajarkan kepada manusia segala yang berguna baginya, yaitu cara memelihara harta dan cara menggunakannya, sehingga menimbulkan ketenangan bagi dirinya dan orang-orang yang membantunya dalam usaha mencari dan menggunakan harta itu. Allah mengetahui segala sesuatu yang diperbuat manusia, dan Dia akan memberi balasan sesuai dengan perbuatan itu.",
        "intro_surah": "Surah al-Baqarah yang terdiri dari 286 ayat adalah termasuk golongan surah Madaniyah yang diturunkan pada tahun-tahun permulaan periode Nabi Muhammad saw di Medinah. Ia merupakan surah yang terpanjang dan terbanyak ayat-ayatnya di antara surah yang ada di dalam Al-Qur\u2019an. Surah ini dinamai \u201cal-Baqarah\u201d yang berarti \u201cseekor sapi\u201d, karena di dalamnya disebutkan kisah penyembelihan sapi betina yang diperintahkan Allah kepada Bani Israil. Dalam pelaksanaan penyembelihan sapi betina itu tampak dengan jelas sifat dan watak orang-orang Yahudi pada umumnya.\nDinamakan juga fus\u1e6da\u1e6d al-Qur\u2019\u0101n yang berarti \u201cpuncak Al-Qur\u2019an\u201d karena surah ini memuat beberapa hukum yang tidak disebut di surah-surah yang lain. Juga dinamakan Al\u012bf L\u0101m M\u012bm, karena surah ini dimulai dengan huruf-huruf hijaiyah (abjad) alif l\u0101m m\u012bm.\nDi antara pokok-pokok isinya ialah:\n1.\tKeimanan: Dakwah Islamiah yang ditujukan kepada umat Islam, Ahli Kitab dan orang-orang musyrik.\n2.\tHukum: Perintah mengerjakan salat, perintah menunaikan zakat, puasa, haji dan umrah, qi\u1e63a\u1e63, yang halal dan yang haram, bernafkah di jalan Allah, minum arak dan berjudi, cara bergaul dengan anak yatim, prinsip-prinsip ekonomi, larangan memakan riba, utang piutang, nafkah dan yang berhak menerimanya, wasiat kepada dua orang ibu bapak dan kaum kerabat, hukum sumpah, kewajiban menyampaikan amanat, sihir, hukum merusak masjid, hukum mengubah kitab-kitab Allah, haid, idah, talak, khulu\u2018, il\u0101, hukum susuan, meminang, mahar, menikahi wanita musyrik dan sebaliknya, hukum perang, dan lain-lain. \n3.\tKisah: Penciptaan Nabi Adam a.s., kisah Nabi Ibrahim a.s., dan kisah Nabi Musa a.s. dengan Bani Israil.\n4.\tLain-lain, seperti: sifat orang yang bertakwa, sifat-sifat orang munafik, sifat-sifat Allah, perumpamaan-perumpamaan, kiblat, dan kebangkitan sesudah mati.",
        "outro_surah": null,
        "munasabah_prev_surah": "1.\tSurah al-F\u0101ti\u1e25ah merupakan pokok-pokok pembahasan yang akan dirinci dalam surah al-Baqarah dan surah-surah sesudahnya.\n2.\tDi bagian akhir surah al-F\u0101ti\u1e25ah disebutkan permohonan hamba, agar diberi petunjuk oleh Allah ke jalan yang lurus, sedang surah al-Baqarah dimulai dengan ayat yang menerangkan bahwa Al-Qur\u2019an adalah kitab yang menunjukkan jalan yang dimaksudkan itu.\n3.\tDi akhir surah al-F\u0101ti\u1e25ah disebutkan tiga kelompok manusia, yaitu yang diberi nikmat, yang dimurkai Allah dan orang yang sesat, sedangkan di awal surah al-Baqarah juga disebutkan tiga kelompok manusia, yaitu orang yang bertakwa, orang kafir, dan orang munafik.",
        "munasabah_prev_theme": "Ayat ini merupakan lanjutan dari ayat-ayat yang menerangkan keutamaan sedekah, menafkahkan harta di jalan Allah yang timbul dari hati sanubari, semata-mata karena Allah, dan dilandasi dengan rasa kasih sayang terhadap sesama manusia. Selanjutnya Allah melarang melakukan riba dan menerang-kan keburukannya, karena riba itu semata-mata dilakukan untuk mencari keuntungan, tanpa mengindahkan kesulitan dan kesukaran orang lain. Pada ayat ini Allah menerangkan ketentuan-ketentuan dalam muamalah, yang didasarkan pada keadilan dan kerelaan masing-masing pihak, sehingga menghilangkan keragu-raguan, sakwasangka dan sebagainya.",
        "theme_group": "TANDA BUKTI DALAM TRANSAKSI",
        "kosakata": "Kosakata: Dain \u062f\u064e\u064a\u0652\u0646 (al-Baqarah/2: 282)\nLafal dain (utang) berasal dari kata d\u0101na-yad\u012bnu yang berarti memberi-kan (meminjamkan) kepada seseorang uang yang harus dikembalikan (dibayarkan kembali) dalam waktu tertentu yang disepakati bersama antara yang meminjamkan dan yang meminjam. Asal kata ad-dain dalam bahasa Arab adalah ganti yang diakhirkan atau ditunda. Dalam ayat ini Allah swt mensyariatkan adanya at-tad\u0101yun (utang piutang) di antara sesama muslim agar tidak ada yang mengatakan bahwa utang piutang itu haram, sebagaimana riba diharamkan, karena utang piutang atau pinjam meminjam itu menjadi sebab beredarnya uang, dimana orang yang hanya bisa meminjamkan uangnya kepada pedagang yang membutuhkan suntikan dana, tanpa pinjaman dia tidak bisa mengembangkan usahanya. Untuk menjamin hak si pemberi pinjaman dan si peminjam, agar keduanya merasa aman maka Allah mensyariatkan supaya utang piutang itu ditulis dan disaksikan oleh dua orang saksi.",
        "sabab_nuzul": null,
        "conclusion": null
    }
}