{
    "id": 243,
    "surah_id": 2,
    "ayah": 236,
    "page": 38,
    "quarter_hizb": 4.5,
    "juz": 2,
    "manzil": 1,
    "arabic": "\u0644\u064e\u0627 \u062c\u064f\u0646\u064e\u0627\u062d\u064e \u0639\u064e\u0644\u064e\u064a\u0652\u0643\u064f\u0645\u0652 \u0627\u0650\u0646\u0652 \u0637\u064e\u0644\u0651\u064e\u0642\u0652\u062a\u064f\u0645\u064f \u0627\u0644\u0646\u0651\u0650\u0633\u064e\u0627\u06e4\u0621\u064e \u0645\u064e\u0627 \u0644\u064e\u0645\u0652 \u062a\u064e\u0645\u064e\u0633\u0651\u064f\u0648\u0652\u0647\u064f\u0646\u0651\u064e \u0627\u064e\u0648\u0652 \u062a\u064e\u0641\u0652\u0631\u0650\u0636\u064f\u0648\u0652\u0627 \u0644\u064e\u0647\u064f\u0646\u0651\u064e \u0641\u064e\u0631\u0650\u064a\u0652\u0636\u064e\u0629\u064b \u06d6 \u0648\u0651\u064e\u0645\u064e\u062a\u0651\u0650\u0639\u064f\u0648\u0652\u0647\u064f\u0646\u0651\u064e \u0639\u064e\u0644\u064e\u0649 \u0627\u0644\u0652\u0645\u064f\u0648\u0652\u0633\u0650\u0639\u0650 \u0642\u064e\u062f\u064e\u0631\u064f\u0647\u0657 \u0648\u064e\u0639\u064e\u0644\u064e\u0649 \u0627\u0644\u0652\u0645\u064f\u0642\u0652\u062a\u0650\u0631\u0650 \u0642\u064e\u062f\u064e\u0631\u064f\u0647\u0657 \u06da \u0645\u064e\u062a\u064e\u0627\u0639\u064b\u0627 \u06e2\u0628\u0650\u0627\u0644\u0652\u0645\u064e\u0639\u0652\u0631\u064f\u0648\u0652\u0641\u0650\u06da \u062d\u064e\u0642\u0651\u064b\u0627 \u0639\u064e\u0644\u064e\u0649 \u0627\u0644\u0652\u0645\u064f\u062d\u0652\u0633\u0650\u0646\u0650\u064a\u0652\u0646\u064e ",
    "latin": "L\u0101 jun\u0101\u1e25a \u2018alaikum in \u1e6dallaqtumun-nis\u0101'a m\u0101 lam tamass\u016bhunna au tafri\u1e0d\u016b lahunna far\u012b\u1e0dah(tan), wa matti\u2018\u016bhunna \u2018alal-m\u016bsi\u2018i qadaruh\u016b wa \u2018alal-muqtiri qadaruh\u016b mat\u0101\u2018am bil-ma\u2018r\u016bf(i), \u1e25aqqan \u2018alal-mu\u1e25sin\u012bn(a). ",
    "translation": "Tidak ada dosa bagimu (untuk tidak membayar mahar) jika kamu menceraikan istri-istrimu yang belum kamu sentuh (campuri) atau belum kamu tentukan maharnya. Berilah mereka mut\u2018ah,73) bagi yang kaya sesuai dengan kemampuannya dan bagi yang miskin sesuai dengan kemampuannya pula, sebagai pemberian dengan cara yang patut dan ketentuan bagi orang-orang yang berbuat ihsan.",
    "no_footnote": "73",
    "footnotes": "73)  Mut\u2018ah yang dimaksud adalah pemberian suami kepada istri yang diceraikannya sebagai pelipur, di samping nafkah yang wajib ditunaikannya sesuai dengan kemampuannya.",
    "surah": {
        "id": 2,
        "arabic": " \u0627\u0644\u0628\u0642\u0631\u0629",
        "latin": "Al-Baqarah ",
        "transliteration": "Al-Baqarah",
        "translation": "Sapi",
        "num_ayah": 286,
        "page": 2,
        "location": "Madaniyah"
    },
    "tafsir": {
        "wajiz": "Pada ayat berikut Allah menjelaskan hukum terkait perceraian antara suami dan istri yang belum dicampuri dan belum ditetapkan maskawinnya. Tidak ada dosa atau tidak apa-apa bagimu, wahai para suami, jika kamu menceraikan istri-istri kamu yang belum kamu sentuh, yakni belum kamu campuri, atau belum kamu tentukan maharnya, untuk tidak memberikan maharnya. Dan hendaklah kamu beri mereka mut\u2019ah, yaitu sesuatu yang diberikan sebagai penghibur kepada istri yang diceraikan, selain nafkah. Bagi yang mampu dianjurkan memberi mut\u2019ah menurut kemampuannya dan bagi yang tidak mampu tetap dituntut untuk memberi mut\u2019ah menurut kesanggupannya, yaitu pemberian dengan cara yang patut dan tidak menyakiti hatinya atau menyinggung perasaannya. Yang demikian itu merupakan kewajiban bagi orang-orang yang senantiasa berbuat kebaikan yang dibuktikan dengan selalu siap berkorban. ",
        "tahlili": "Seorang suami yang menjatuhkan talak pada istrinya sebelum dukh\u016bl (digauli), dan sebelum menentukan jumlah maharnya tidak dibebani kewajiban membayar mahar, hanya saja ia didorong untuk memberi mut\u2018ah yaitu pemberian untuk menyenangkan bekas istrinya. Besar kecilnya jumlah pemberian tersebut tergantung pada suami, yang kaya sesuai dengan kekayaannya dan yang tidak mampu sesuai pula dengan kadar yang disanggupinya. Pemberian mut\u2018ah tersebut merupakan suatu anjuran bagi laki-laki yang mau berbuat baik.",
        "intro_surah": "Surah al-Baqarah yang terdiri dari 286 ayat adalah termasuk golongan surah Madaniyah yang diturunkan pada tahun-tahun permulaan periode Nabi Muhammad saw di Medinah. Ia merupakan surah yang terpanjang dan terbanyak ayat-ayatnya di antara surah yang ada di dalam Al-Qur\u2019an. Surah ini dinamai \u201cal-Baqarah\u201d yang berarti \u201cseekor sapi\u201d, karena di dalamnya disebutkan kisah penyembelihan sapi betina yang diperintahkan Allah kepada Bani Israil. Dalam pelaksanaan penyembelihan sapi betina itu tampak dengan jelas sifat dan watak orang-orang Yahudi pada umumnya.\nDinamakan juga fus\u1e6da\u1e6d al-Qur\u2019\u0101n yang berarti \u201cpuncak Al-Qur\u2019an\u201d karena surah ini memuat beberapa hukum yang tidak disebut di surah-surah yang lain. Juga dinamakan Al\u012bf L\u0101m M\u012bm, karena surah ini dimulai dengan huruf-huruf hijaiyah (abjad) alif l\u0101m m\u012bm.\nDi antara pokok-pokok isinya ialah:\n1.\tKeimanan: Dakwah Islamiah yang ditujukan kepada umat Islam, Ahli Kitab dan orang-orang musyrik.\n2.\tHukum: Perintah mengerjakan salat, perintah menunaikan zakat, puasa, haji dan umrah, qi\u1e63a\u1e63, yang halal dan yang haram, bernafkah di jalan Allah, minum arak dan berjudi, cara bergaul dengan anak yatim, prinsip-prinsip ekonomi, larangan memakan riba, utang piutang, nafkah dan yang berhak menerimanya, wasiat kepada dua orang ibu bapak dan kaum kerabat, hukum sumpah, kewajiban menyampaikan amanat, sihir, hukum merusak masjid, hukum mengubah kitab-kitab Allah, haid, idah, talak, khulu\u2018, il\u0101, hukum susuan, meminang, mahar, menikahi wanita musyrik dan sebaliknya, hukum perang, dan lain-lain. \n3.\tKisah: Penciptaan Nabi Adam a.s., kisah Nabi Ibrahim a.s., dan kisah Nabi Musa a.s. dengan Bani Israil.\n4.\tLain-lain, seperti: sifat orang yang bertakwa, sifat-sifat orang munafik, sifat-sifat Allah, perumpamaan-perumpamaan, kiblat, dan kebangkitan sesudah mati.",
        "outro_surah": null,
        "munasabah_prev_surah": "1.\tSurah al-F\u0101ti\u1e25ah merupakan pokok-pokok pembahasan yang akan dirinci dalam surah al-Baqarah dan surah-surah sesudahnya.\n2.\tDi bagian akhir surah al-F\u0101ti\u1e25ah disebutkan permohonan hamba, agar diberi petunjuk oleh Allah ke jalan yang lurus, sedang surah al-Baqarah dimulai dengan ayat yang menerangkan bahwa Al-Qur\u2019an adalah kitab yang menunjukkan jalan yang dimaksudkan itu.\n3.\tDi akhir surah al-F\u0101ti\u1e25ah disebutkan tiga kelompok manusia, yaitu yang diberi nikmat, yang dimurkai Allah dan orang yang sesat, sedangkan di awal surah al-Baqarah juga disebutkan tiga kelompok manusia, yaitu orang yang bertakwa, orang kafir, dan orang munafik.",
        "munasabah_prev_theme": "Pada ayat yang lalu, telah dijelaskan masalah-masalah istri yang ditinggal mati suami. Dalam ayat ini, diterangkan hukum-hukumnya mengenai pembayaran mas kawin bagi istri yang dicerai sebelum dukh\u016bl (dicampuri, digauli).",
        "theme_group": "TALAK SEBELUM DUKHUL (BERCAMPUR)",
        "kosakata": "Kosakata: Matti\u2018\u016bhunna \u0645\u064e\u062a\u0651\u0650\u0639\u064f\u0648\u0652\u0647\u064f\u0646\u0651\u064e (al-Baqarah/2: 236) \nKata matti\u2018\u016b adalah fi\u2018il amar (kata kerja perintah) dari kata matta\u2018a-yumatti\u2018u yang menunjukkan perintah wajib dan sunnah, yang berarti \u201cberikanlah\u201d. Mut\u2018ah berarti \u201cbekalan yang sedikit\u201d, \u201cbarang yang menyenangkan\u201d. Mut\u2018ah yang dimaksud dalam ayat 236 adalah mut\u2018ah talak yang berarti barang pemberian bekas suami kepada bekas istrinya yang ditalaknya. Mut\u2018ah wajib diberikan oleh mantan suami dengan syarat, belum ditetapkan mahar bagi istri ba\u2018da ad-dukh\u016bl (setelah penetrasi), dan perceraian itu atas kehendak suami. Tetapi mut\u2018ah sunah diberikan oleh mantan suami tanpa syarat kepada mantan istri. Besar mut\u2018ah disesuaikan dengan kemampuan mantan suami. Kata mut\u2018ah yang bertalian dengan talak, dengan segala bentuk kata jadiannya, disebut dalam surah al-Baqarah/2: 236, 240, 241, dan al-A\u1e25z\u0101b/33: 49.",
        "sabab_nuzul": null,
        "conclusion": null
    }
}