{
    "id": 232,
    "surah_id": 2,
    "ayah": 225,
    "page": 36,
    "quarter_hizb": 4.25,
    "juz": 2,
    "manzil": 1,
    "arabic": "\u0644\u064e\u0627 \u064a\u064f\u0624\u064e\u0627\u062e\u0650\u0630\u064f\u0643\u064f\u0645\u064f \u0627\u0644\u0644\u0651\u0670\u0647\u064f \u0628\u0650\u0627\u0644\u0644\u0651\u064e\u063a\u0652\u0648\u0650 \u0641\u0650\u064a\u0652\u0653 \u0627\u064e\u064a\u0652\u0645\u064e\u0627\u0646\u0650\u0643\u064f\u0645\u0652 \u0648\u064e\u0644\u0670\u0643\u0650\u0646\u0652 \u064a\u0651\u064f\u0624\u064e\u0627\u062e\u0650\u0630\u064f\u0643\u064f\u0645\u0652 \u0628\u0650\u0645\u064e\u0627 \u0643\u064e\u0633\u064e\u0628\u064e\u062a\u0652 \u0642\u064f\u0644\u064f\u0648\u0652\u0628\u064f\u0643\u064f\u0645\u0652 \u06d7 \u0648\u064e\u0627\u0644\u0644\u0651\u0670\u0647\u064f \u063a\u064e\u0641\u064f\u0648\u0652\u0631\u064c \u062d\u064e\u0644\u0650\u064a\u0652\u0645\u064c ",
    "latin": "L\u0101 yu'\u0101khi\u017cukumull\u0101hu bil-lagwi f\u012b aim\u0101nikum wa l\u0101kiy yu'\u0101khi\u017cukum bim\u0101 kasabat qul\u016bbukum, wall\u0101hu gaf\u016brun \u1e25al\u012bm(un). ",
    "translation": "Allah tidak menghukummu karena sumpahmu yang tidak kamu sengaja, tetapi Dia menghukummu karena sumpah yang diniatkan oleh hatimu. Allah Maha Pengampun lagi Maha Penyantun.67)",
    "no_footnote": "67",
    "footnotes": "67) Allah Swt. Maha Penyantun (\u1e25al\u012bm) berarti tidak segera menyiksa orang yang berbuat dosa.",
    "surah": {
        "id": 2,
        "arabic": " \u0627\u0644\u0628\u0642\u0631\u0629",
        "latin": "Al-Baqarah ",
        "transliteration": "Al-Baqarah",
        "translation": "Sapi",
        "num_ayah": 286,
        "page": 2,
        "location": "Madaniyah"
    },
    "tafsir": {
        "wajiz": "Setelah menjelaskan larangan bersumpah untuk tidak berbuat baik, Allah pada ayat ini menjelaskan jenis sumpah lain. Allah tidak menghukum dengan memberi sanksi berupa kafarat terhadap kamu karena sumpahmu yang diucapkan dengan tidak kamu sengaja, yakni ucapan sumpah namun tidak ada maksud bersumpah, tetapi Dia menghukum kamu dengan memberi sanksi atau mengazab di akhirat karena niat yang terkandung dalam hatimu, yakni bila kamu bersumpah untuk meyakinkan orang lain. Allah Maha Pengampun atas sumpah yang telah kamu ucapkan, Maha Penyantun dengan tidak segera mengazab orang yang berbuat dosa agar mereka sadar dan bertobat.",
        "tahlili": "Ayat ini memperingatkan manusia agar berhati-hati mem-pergunakan nama Allah dalam bersumpah. Jangan berani bersumpah dengan menyebut nama Allah untuk hal-hal yang tidak baik dan yang dilarang oleh agama, sebab nama Allah sangat mulia dan harus diagungkan.\nDiriwayatkan oleh Ibnu Jar\u012br bahwa sebab turunnya ayat 224 ini, ialah ketika Abu Bakar bersumpah dengan menyebut nama Allah, bahwa ia tidak akan membantu lagi seorang kerabatnya (an-N\u016br/24 :22) yang bernama Mistah yang turut menyiarkan kabar bohong menjelek-jelekkan nama Aisyah istri Rasulullah saw. Riwayat yang mencemarkan nama baik Aisyah oleh orang-orang munafik disebut had\u012b\u1e61ul-ifki (kabar bohong).\nDalam ayat ini dilarang bersumpah untuk tidak berbuat baik atau tidak bertakwa atau tidak mengadakan islah di antara manusia. Kalau sumpah seperti itu sudah diucapkan, wajib dilanggar (dibatalkan), sebab sumpah tersebut tidak pada tempatnya, tetapi sesudah sumpah itu dilanggar, harus ditebus dengan membayar kafarat, yaitu memerdekakan seorang budak atau memberi makan sepuluh orang miskin atau memberi pakaian kepada mereka atau kalau tak sanggup, berpuasa selama 3 hari.\nAllah selalu mendengar dan mengetahui apa yang diucapkan dan dikerjakan oleh setiap orang. Bersumpah yang hanya ucapan lidah saja tanpa sungguh-sungguh tidaklah akan dihukum Allah. Tapi sumpah yang keluar dari hati dan diucapkan oleh lidah akan dinilai sebagai sumpah.",
        "intro_surah": "Surah al-Baqarah yang terdiri dari 286 ayat adalah termasuk golongan surah Madaniyah yang diturunkan pada tahun-tahun permulaan periode Nabi Muhammad saw di Medinah. Ia merupakan surah yang terpanjang dan terbanyak ayat-ayatnya di antara surah yang ada di dalam Al-Qur\u2019an. Surah ini dinamai \u201cal-Baqarah\u201d yang berarti \u201cseekor sapi\u201d, karena di dalamnya disebutkan kisah penyembelihan sapi betina yang diperintahkan Allah kepada Bani Israil. Dalam pelaksanaan penyembelihan sapi betina itu tampak dengan jelas sifat dan watak orang-orang Yahudi pada umumnya.\nDinamakan juga fus\u1e6da\u1e6d al-Qur\u2019\u0101n yang berarti \u201cpuncak Al-Qur\u2019an\u201d karena surah ini memuat beberapa hukum yang tidak disebut di surah-surah yang lain. Juga dinamakan Al\u012bf L\u0101m M\u012bm, karena surah ini dimulai dengan huruf-huruf hijaiyah (abjad) alif l\u0101m m\u012bm.\nDi antara pokok-pokok isinya ialah:\n1.\tKeimanan: Dakwah Islamiah yang ditujukan kepada umat Islam, Ahli Kitab dan orang-orang musyrik.\n2.\tHukum: Perintah mengerjakan salat, perintah menunaikan zakat, puasa, haji dan umrah, qi\u1e63a\u1e63, yang halal dan yang haram, bernafkah di jalan Allah, minum arak dan berjudi, cara bergaul dengan anak yatim, prinsip-prinsip ekonomi, larangan memakan riba, utang piutang, nafkah dan yang berhak menerimanya, wasiat kepada dua orang ibu bapak dan kaum kerabat, hukum sumpah, kewajiban menyampaikan amanat, sihir, hukum merusak masjid, hukum mengubah kitab-kitab Allah, haid, idah, talak, khulu\u2018, il\u0101, hukum susuan, meminang, mahar, menikahi wanita musyrik dan sebaliknya, hukum perang, dan lain-lain. \n3.\tKisah: Penciptaan Nabi Adam a.s., kisah Nabi Ibrahim a.s., dan kisah Nabi Musa a.s. dengan Bani Israil.\n4.\tLain-lain, seperti: sifat orang yang bertakwa, sifat-sifat orang munafik, sifat-sifat Allah, perumpamaan-perumpamaan, kiblat, dan kebangkitan sesudah mati.",
        "outro_surah": null,
        "munasabah_prev_surah": "1.\tSurah al-F\u0101ti\u1e25ah merupakan pokok-pokok pembahasan yang akan dirinci dalam surah al-Baqarah dan surah-surah sesudahnya.\n2.\tDi bagian akhir surah al-F\u0101ti\u1e25ah disebutkan permohonan hamba, agar diberi petunjuk oleh Allah ke jalan yang lurus, sedang surah al-Baqarah dimulai dengan ayat yang menerangkan bahwa Al-Qur\u2019an adalah kitab yang menunjukkan jalan yang dimaksudkan itu.\n3.\tDi akhir surah al-F\u0101ti\u1e25ah disebutkan tiga kelompok manusia, yaitu yang diberi nikmat, yang dimurkai Allah dan orang yang sesat, sedangkan di awal surah al-Baqarah juga disebutkan tiga kelompok manusia, yaitu orang yang bertakwa, orang kafir, dan orang munafik.",
        "munasabah_prev_theme": "Ayat terdahulu memerintahkan agar manusia bertakwa kepada Allah dan menjauhkan diri dari berbuat maksiat dan durhaka kepada-Nya. Dalam ayat ini diterangkan masalah sumpah.",
        "theme_group": "MEMPERMAINKAN SUMPAH",
        "kosakata": "Kosakata: Aim\u0101n \u0627\u064e\u064a\u0652\u0645\u064e\u0627\u0646\u064c  (al-Baqarah/2: 225)\nAim\u0101n adalah jamak kata yam\u012bn, sinonimnya adalah qasam yang berarti \u201csumpah\u201d. Menurut istilah, yam\u012bn adalah penguatan urusan dengan menyebut nama Allah, atau menyebut salah satu sifatnya. Kata yam\u012bn dipinjam dari kebiasaan orang yang bersumpah selalu menggunakan tangan kanan untuk bersalaman. ",
        "sabab_nuzul": null,
        "conclusion": null
    }
}