{
    "id": 378,
    "surah_id": 3,
    "ayah": 85,
    "page": 61,
    "quarter_hizb": 6.75,
    "juz": 3,
    "manzil": 1,
    "arabic": "\u0648\u064e\u0645\u064e\u0646\u0652 \u064a\u0651\u064e\u0628\u0652\u062a\u064e\u063a\u0650 \u063a\u064e\u064a\u0652\u0631\u064e \u0627\u0644\u0652\u0627\u0650\u0633\u0652\u0644\u064e\u0627\u0645\u0650 \u062f\u0650\u064a\u0652\u0646\u064b\u0627 \u0641\u064e\u0644\u064e\u0646\u0652 \u064a\u0651\u064f\u0642\u0652\u0628\u064e\u0644\u064e \u0645\u0650\u0646\u0652\u0647\u06da\u064f \u0648\u064e\u0647\u064f\u0648\u064e \u0641\u0650\u0649 \u0627\u0644\u0652\u0627\u0670\u062e\u0650\u0631\u064e\u0629\u0650 \u0645\u0650\u0646\u064e \u0627\u0644\u0652\u062e\u0670\u0633\u0650\u0631\u0650\u064a\u0652\u0646\u064e",
    "latin": "Wa may yabtagi gairal-isl\u0101mi d\u012bnan  falay yuqbala minh(u), wa huwa fil-\u0101khirati minal kh\u0101sir\u012bn(a).  ",
    "translation": "Siapa yang mencari agama selain Islam, sekali-kali (agamanya) tidak akan diterima darinya dan di akhirat dia termasuk orang-orang yang rugi.",
    "no_footnote": null,
    "footnotes": null,
    "surah": {
        "id": 3,
        "arabic": " \u0627\u0670\u0644 \u0639\u0645\u0631\u0670\u0646",
        "latin": "\u0100li \u2018Imr\u0101n",
        "transliteration": "Ali \u2018Imran",
        "translation": "Keluarga Imran",
        "num_ayah": 200,
        "page": 50,
        "location": "Madaniyah"
    },
    "tafsir": {
        "wajiz": "Jika agama yang dibawa oleh Nabi Muhammad adalah sama dengan inti ajaran nabi-nabi sebelumnya, yakni tauhid, maka barangsiapa mencari agama selain Islam setelah terutusnya Nabi Muhammad dia tidak akan diterima karena Allah tidak meridainya, dan di akhirat dia termasuk orang yang rugi, karena ia berhak atas siksa-Nya.",
        "tahlili": "Allah menetapkan bahwa barang siapa mencari agama selain agama Islam, atau tidak mau tunduk kepada ketentuan-ketentuan Allah, maka imannya tidak akan diterima oleh Allah. Sebagai contoh dikemukakan, orang-orang musyrik dan orang-orang yang mengaku beragama tauhid padahal mereka mempersekutukan Allah. Seperti Ahli Kitab penganut agama Nasrani yang tidak berhasil membawa pemeluk-pemeluknya tunduk di bawah kekuasaan Allah. Agama yang semacam ini hanyalah merupakan tradisi belaka, yang tidak dapat mendatangkan kemaslahatan kepada pemeluknya, bahkan menyeret mereka ke lembah kehancuran, dan menjadi sumber permusuhan di antara manusia di dunia, serta menjadi sebab penyesalan mereka di akhirat.\nOrang yang mencari agama selain Islam untuk menjadi agamanya, di akhirat nanti termasuk orang yang merugi, sebab ia telah menyia-nyiakan akidah tauhid yang sesuai dengan fitrah manusia.",
        "intro_surah": "Surah ketiga adalah \u0100li \u2018Imr\u0101n (Keluarga Imran) yang terdiri atas 200 ayat. Surah ini termasuk golongan Madaniyah. Dinamakan \u0100li \u2018Imr\u0101n, karena dalam surah ini terdapat kisah keluarga Imran dan keturunannya, kelahiran Nabi Isa a.s., yang dilahirkan oleh Maryam putri Imran, persamaan kejadian Isa dengan Adam a.s., dan mukjizat yang diberikan Allah kepada Nabi Isa.\nSurah al-Baqarah dan surah \u0100li \u2018Imr\u0101n dinamakan az-Zahraw\u0101ni (dua surah yang cemerlang), karena kedua surah ini mengungkapkan hal-hal yang disembunyikan oleh Ahli Kitab, seperti kejadian kelahiran Nabi Isa a.s., kedatangan Nabi Muhammad saw, dan sebagainya.\nPokok-pokok isinya\n1. Keimanan\nDalil-dalil yang membantah perkataan orang Nasrani yang mengakui Isa a.s., adalah salah satu dari oknum-oknum Tuhan yang tiga. Ketauhidan adalah dasar dari agama-agama yang dibawa para nabi.\n2. Hukum-hukum\nAsas musyawarah; mub\u0101halah dan hukum riba.\n3. Kisah-kisah\nKisah keluarga Imran, Perang Badar dan Perang Uhud dan pelajaran yang dapat diambil daripadanya.\n4. Lain-lain\nDalam surah ini disebutkan beberapa golongan manusia dalam memahami ayat-ayat mutasyabihat, sifat-sifat Allah, sifat-sifat orang yang bertakwa, agama Islam adalah agama yang diridai Allah, akibat menjadikan orang kafir sebagai teman kepercayaan, pengambilan perjanjian para nabi oleh Allah; perumpamaan-perumpamaan peringatan kepada orang mukmin; Ka\u2018bah adalah rumah ibadah yang paling tua; faedah mengingat Allah dan merenungkan ciptaan-Nya.\n ",
        "outro_surah": null,
        "munasabah_prev_surah": "HUBUNGAN ANTARA SURAH AL-BAQARAH\nDENGAN SURAH \u0100LI \u2018IMR\u0100N\n1. Dalam surah al-Baqarah disebutkan bahwa Nabi Adam a.s. langsung diciptakan Allah, sedang dalam surah Ali Imran disebutkan tentang kelahiran Nabi Isa a.s. yang kedua-duanya di luar kebiasaan.\n2.\tDalam surah al-Baqarah dibahas secara luas sifat dan perbuatan orang Yahudi, disertai dengan hujah-hujah yang membantah dan membetulkan kesesatan mereka, sedang dalam surah \u0100li \u2018Imr\u0101n dipaparkan hal-hal yang sama yang berhubungan dengan orang Nasrani.\n3.\tSurah al-Baqarah dimulai dengan menyebut tiga golongan manusia, yaitu orang mukmin, orang kafir dan orang munafik, sedang surah \u0100li \u2018Imr\u0101n menyebutkan orang-orang yang suka menakwilkan ayat-ayat yang mutasyabihat dengan takwil yang salah untuk memfitnah orang-orang mukmin dan menyebutkan orang yang mempunyai keahlian dalam menakwilkannya.\n4.\tSurah al-Baqarah diakhiri dengan menyebutkan permohonan kepada Allah agar diampuni atas kesalahan-kesalahan dan kealpaan dalam melaksanakan ketaatan, sedang surah \u0100li \u2018Imr\u0101n disudahi dengan permohonan kepada Allah agar memberi pahala atas amal kebaikan hamba-Nya.\n5.\tSurah al-Baqarah diakhiri dengan pengakuan terhadap kekuasaan Allah dan pertolongannya, sedang surah \u0100li \u2018Imr\u0101n dimulai dengan menyebutkan bahwa Tuhan yang mereka mintakan pertolongan tersebut, adalah Tuhan yang hidup kekal abadi dan mengurus semua urusan makhluk-Nya.",
        "munasabah_prev_theme": "Ayat yang lalu telah membantah orang Yahudi yang tidak mengakui kedatangan seorang nabi dari bangsa Arab karena kesombongan dan kedengkian mereka. Maka pada ayat ini Allah menetapkan kenabian Muhammad dengan mengemukakan alasan-alasan.",
        "theme_group": "JANJI PARA NABI KEPADA ALLAH \nTENTANG KENABIAN MUHAMMAD",
        "kosakata": "Kosakata: \u1e24ikmah \u062d\u0650\u0643\u0652\u0645\u064e\u0629\u0652(\u0100li \u2018Imr\u0101n/3: 81)\nSecara etimologis, \u1e25ikmah berarti kebijaksanaan. Pada mulanya arti akar kata adalah: mencegah, menolak. Hakim disebut demikian karena ia bisa mencegah orang lain berbuat zalim. Hikmah adalah sesuatu yang bisa mencegah melakukan kebodohan dan segala sesuatu yang tidak baik. Hikmah bisa juga diartikan dengan mencapai satu kebenaran dengan ilmu dan akal. Oleh para mufasir, hikmah acapkali diartikan sebagai ucapan-ucapan yang benar atau argumen-argumen yang kuat dan meyakinkan. Dalam Al-Qur\u2032an, hikmah sering disebutkan sebagai nikmat yang dianugerahkan kepada para nabi (al-Baqarah/2: 231) atau orang yang saleh (Luqm\u0101n/31: 12). Al-Qur\u2032an juga menjelaskan bahwa orang yang telah diberi hikmah berarti telah memperoleh berbagai kebaikan (al-Baqarah/2: 269).",
        "sabab_nuzul": null,
        "conclusion": null
    }
}