{
    "id": 306,
    "surah_id": 3,
    "ayah": 13,
    "page": 51,
    "quarter_hizb": 5.75,
    "juz": 3,
    "manzil": 1,
    "arabic": "\u0642\u064e\u062f\u0652 \u0643\u064e\u0627\u0646\u064e \u0644\u064e\u0643\u064f\u0645\u0652 \u0627\u0670\u064a\u064e\u0629\u064c \u0641\u0650\u064a\u0652 \u0641\u0650\u0626\u064e\u062a\u064e\u064a\u0652\u0646\u0650 \u0627\u0644\u0652\u062a\u064e\u0642\u064e\u062a\u064e\u0627 \u06d7\u0641\u0650\u0626\u064e\u0629\u064c \u062a\u064f\u0642\u064e\u0627\u062a\u0650\u0644\u064f \u0641\u0650\u064a\u0652 \u0633\u064e\u0628\u0650\u064a\u0652\u0644\u0650 \u0627\u0644\u0644\u0651\u0670\u0647\u0650 \u0648\u064e\u0627\u064f\u062e\u0652\u0631\u0670\u0649 \u0643\u064e\u0627\u0641\u0650\u0631\u064e\u0629\u064c \u064a\u0651\u064e\u0631\u064e\u0648\u0652\u0646\u064e\u0647\u064f\u0645\u0652 \u0645\u0651\u0650\u062b\u0652\u0644\u064e\u064a\u0652\u0647\u0650\u0645\u0652 \u0631\u064e\u0623\u0652\u064a\u064e \u0627\u0644\u0652\u0639\u064e\u064a\u0652\u0646\u0650 \u06d7\u0648\u064e\u0627\u0644\u0644\u0651\u0670\u0647\u064f \u064a\u064f\u0624\u064e\u064a\u0651\u0650\u062f\u064f \u0628\u0650\u0646\u064e\u0635\u0652\u0631\u0650\u0647\u0656 \u0645\u064e\u0646\u0652 \u064a\u0651\u064e\u0634\u064e\u0627\u06e4\u0621\u064f \u06d7 \u0627\u0650\u0646\u0651\u064e \u0641\u0650\u064a\u0652 \u0630\u0670\u0644\u0650\u0643\u064e \u0644\u064e\u0639\u0650\u0628\u0652\u0631\u064e\u0629\u064b \u0644\u0651\u0650\u0627\u064f\u0648\u0644\u0650\u0649 \u0627\u0644\u0652\u0627\u064e\u0628\u0652\u0635\u064e\u0627\u0631\u0650",
    "latin": "Qad k\u0101na lakum \u0101yatun f\u012b fi'atainil taqat\u0101, fi'atun tuq\u0101tilu f\u012b sab\u012blill\u0101hi wa ukhr\u0101 k\u0101firatuy yaraunahum mi\u1e61laihim ra'yal-\u2018ain(i), wall\u0101hu yu'ayyidu bina\u1e63rih\u012b may yasy\u0101'(u), inna f\u012b \u017c\u0101lika la\u2018ibratal li'ulil-ab\u1e63\u0101r(i).  ",
    "translation": "Sungguh, telah ada tanda (bukti) bagimu pada dua golongan yang bertemu (dalam pertempuran.86) Satu golongan berperang di jalan Allah dan (golongan) yang lain kafir yang melihat dengan mata kepala bahwa mereka (golongan muslim) dua kali lipat jumlahnya. Allah menguatkan siapa yang Dia kehendaki dengan pertolongan-Nya. Sesungguhnya pada yang demikian itu benar-benar terdapat pelajaran bagi orang-orang yang mempunyai penglihatan (mata hati).",
    "no_footnote": "86",
    "footnotes": "86) Pertempuran antara dua golongan yang dimaksudkan oleh ayat ini terjadi antara kaum muslim dan kaum musyrik pada Perang Badar tahun ke-2 Hijriah di barat daya Madinah.",
    "surah": {
        "id": 3,
        "arabic": " \u0627\u0670\u0644 \u0639\u0645\u0631\u0670\u0646",
        "latin": "\u0100li \u2018Imr\u0101n",
        "transliteration": "Ali \u2018Imran",
        "translation": "Keluarga Imran",
        "num_ayah": 200,
        "page": 50,
        "location": "Madaniyah"
    },
    "tafsir": {
        "wajiz": "Kamu pasti akan dikalahkan! Salah satu buktinya adalah apa yang diuraikan oleh ayat ini, yaitu sungguh, telah ada tanda bagi kamu pada dua golongan yang berhadap-hadapan, yakni bertempur di dalam Perang Badar pada tahun kedua Hijriah. Yang pertama, satu golongan mukmin berperang di jalan Allah, yaitu Nabi Muhammad dan para sahabatnya, dan yang lain golongan kafir yang berperang di jalan kebatilan yang melihat dengan mata kepala, bahwa jumlah pasukan mereka, yakni golongan muslim, dua kali lipat mereka, sehingga hati mereka menjadi gentar. Ini menjadi faktor penyebab kemenangan kaum muslim. Allah menguatkan dengan pertolongan-Nya bagi siapa yang Dia kehendaki. Sungguh, pada yang demikian itu terdapat pelajaran yang berharga bagi orang-orang yang mempunyai penglihatan mata hati yang dapat menangkap hikmah di balik setiap peristiwa.",
        "tahlili": "Selanjutnya Allah memperingatkan agar mereka jangan merasa kuat dengan jumlah harta dan tenaga yang mereka miliki. Karena seharusnya mereka mengambil pelajaran dari peristiwa Perang Badar.\nJumlah dana dan tenaga yang besar dan banyaknya sekutu yang membantu, tidak akan menjamin kemenangan dalam peperangan. Sejarah peperangan di dunia ini membuktikan kekeliruan anggapan demikian. Apa yang terjadi pada Perang Badar, di mana dua pasukan saling berhadapan, pasukan dari kaum Muslimin yang berjumlah kecil yang berjuang di jalan Allah, ditakdirkan mendapat kemenangan atas pasukan kaum musyrikin yang jauh lebih besar jumlahnya. Mereka yang memiliki akal pikiran yang sehat dan mempergunakannya untuk merenungkan segala perkara yang terjadi, serta mengambil faedah daripadanya, tentulah akan banyak memperoleh pelajaran dari peristiwa Perang Badar. Ternyata ada suatu kekuatan lain di atas segala kekuatan yang tampak. Kekuatan itulah yang sering memperkuat pasukan yang lemah hingga dia dapat mengalahkan pasukan yang kuat lagi besar dengan izin Allah.\nBerperang di jalan Allah adalah kunci kemenangan. Bila perjuangan dan peperangan tujuannya untuk membela kebenaran, melindungi agama dan pemeluknya, maka jiwa pejuang-pejuangnya akan mendapat ketenangan dalam menghadapi medan pertempuran dan dapat berkonsentrasi dengan sepenuh kekuatan yang dimilikinya. Karena mereka meyakini bahwa di belakang mereka ada kekuatan yang mendorong dan ada pertolongan dari Allah. Allah menegaskan bahwa pertolongan itu akan diberikan kepada hamba-hamba-Nya yang berjihad di jalan-Nya, asal saja mereka itu tetap tabah dan sabar serta selalu ingat kepada Allah, dan patuh kepada pimpinan.\nPada Perang Badar kedua yang terjadi tanggal 17 Ramadan tahun 2 Hijriah itu, kaum Muslimin berusaha mematuhi ketentuan-kekntuan Tuhan dan ketentuan Rasul-Nya dengan segala kemampuan yang ada, serta dengan tekad yang bulat. Mereka berperang dengan penuh keberanian, dan dengan pertolongan Allah mereka menang dalam peperangan itu.\n\u064a\u0670\u0653\u0627\u064e\u064a\u0651\u064f\u0647\u064e\u0627 \u0627\u0644\u0651\u064e\u0630\u0650\u064a\u0652\u0646\u064e \u0627\u0670\u0645\u064e\u0646\u064f\u0648\u0652\u0653\u0627 \u0627\u0650\u0646\u0652 \u062a\u064e\u0646\u0652\u0635\u064f\u0631\u064f\u0648\u0627 \u0627\u0644\u0644\u0651\u0670\u0647\u064e \u064a\u064e\u0646\u0652\u0635\u064f\u0631\u0652\u0643\u064f\u0645\u0652 \u0648\u064e\u064a\u064f\u062b\u064e\u0628\u0651\u0650\u062a\u0652 \u0627\u064e\u0642\u0652\u062f\u064e\u0627\u0645\u064e\u0643\u064f\u0645\u0652 \u0667\nWahai orang-orang yang beriman! Jika kamu menolong (agama) Allah, niscaya Dia akan menolongmu dan meneguhkan kedudukanmu. (Mu\u1e25ammad/47: 7).\nMenurut para ahli sejarah, tentara kaum Muslimin dalam Perang Badar berjumlah 313 orang. Terdiri dari 77 orang Muhajirin dan 236 orang Ansar. Yang memegang bendera dalam pasukan Muhajirin adalah Ali bin Ab\u012b \u1e6calib, sedang bendera pasukan Ansar dipegang oleh Sa\u2018ad bin \u2018Ubadah. Dalam pasukan Muslimin itu terdapat 90 ekor unta dan 2 ekor kuda perang, masing-masing dikendarai oleh Miqdad bin al-Aswad dan Mar\u1e61ad bin Abi Mar\u1e61ad. Jumlah yang terbunuh dari pihak kaum Muslimin 14 orang laki-laki, terdiri dari 6 orang Muhajirin dan 8 orang Ansar. Jumlah tentara kaum musyrikin 950 orang, dipimpin oleh \u2018Utbah bin Rabi\u2018ah, dan di antara mereka terdapat Abu Sufyan dan Abu Jahal. Dalam pasukan mereka terdapat seratus ekor kuda, 700 ekor unta, dan sejumlah senjata yang tidak terbilang banyaknya.\nDalam Perang Badar jumlah pasukan kaum Muslimin hanya 313 orang saja. Tetapi dalam penglihatan kaum musyrikin ketika perang telah berkecamuk jumlah tersebut menjadi berlipat ganda, sehingga hal itu menimbulkan rasa takut dalam hati mereka. Akhirnya mereka lari dari medan pertempuran. Demikian Allah menurunkan pertolongan kepada kaum Muslimin.\nSebelum perang berkecamuk, pasukan kaum Muslimin di mata orang musyrik kelihatan sangat kecil, karena itu mereka berani menghadapi dan menyerbu musuh, seperti yang terjadi dalam Perang Badar.\n\u0648\u064e\u0627\u0650\u0630\u0652 \u064a\u064f\u0631\u0650\u064a\u0652\u0643\u064f\u0645\u064f\u0648\u0652\u0647\u064f\u0645\u0652 \u0627\u0650\u0630\u0650 \u0627\u0644\u0652\u062a\u064e\u0642\u064e\u064a\u0652\u062a\u064f\u0645\u0652 \u0641\u0650\u064a\u0652\u0653 \u0627\u064e\u0639\u0652\u064a\u064f\u0646\u0650\u0643\u064f\u0645\u0652 \u0642\u064e\u0644\u0650\u064a\u0652\u0644\u064b\u0627 \u0648\u0651\u064e\u064a\u064f\u0642\u064e\u0644\u0651\u0650\u0644\u064f\u0643\u064f\u0645\u0652 \u0641\u0650\u064a\u0652\u0653 \u0627\u064e\u0639\u0652\u064a\u064f\u0646\u0650\u0647\u0650\u0645\u0652 \u0644\u0650\u064a\u064e\u0642\u0652\u0636\u0650\u064a\u064e \u0627\u0644\u0644\u0651\u0670\u0647\u064f \u0627\u064e\u0645\u0652\u0631\u064b\u0627 \u0643\u064e\u0627\u0646\u064e \u0645\u064e\u0641\u0652\u0639\u064f\u0648\u0652\u0644\u064b\u0627 \u06d7\u0648\u064e\u0627\u0650\u0644\u064e\u0649 \u0627\u0644\u0644\u0651\u0670\u0647\u0650 \u062a\u064f\u0631\u0652\u062c\u064e\u0639\u064f \u0627\u0644\u0652\u0627\u064f\u0645\u064f\u0648\u0652\u0631\u064f \u08d6 \u0664\u0664\nDan ketika Allah memperlihatkan mereka kepadamu ketika kamu berjumpa, mereka berjumlah sedikit menurut penglihatan matamu dan kamu diperlihatkan-Nya berjumlah sedikit menurut penglihatan mereka, itu karena Allah berkehendak melaksanakan suatu urusan yang harus dilaksanakan. Hanya kepada Allah segala urusan dikembalikan. (al-Anf\u0101l/8: 44)\nDengan pertolongan inilah Allah memperkuat orang-orang yang dikehendaki-Nya, dan sesungguhnya pada pertolongan yang demikian itu ada pelajaran bagi orang yang mempunyai akal dan pikiran.",
        "intro_surah": "Surah ketiga adalah \u0100li \u2018Imr\u0101n (Keluarga Imran) yang terdiri atas 200 ayat. Surah ini termasuk golongan Madaniyah. Dinamakan \u0100li \u2018Imr\u0101n, karena dalam surah ini terdapat kisah keluarga Imran dan keturunannya, kelahiran Nabi Isa a.s., yang dilahirkan oleh Maryam putri Imran, persamaan kejadian Isa dengan Adam a.s., dan mukjizat yang diberikan Allah kepada Nabi Isa.\nSurah al-Baqarah dan surah \u0100li \u2018Imr\u0101n dinamakan az-Zahraw\u0101ni (dua surah yang cemerlang), karena kedua surah ini mengungkapkan hal-hal yang disembunyikan oleh Ahli Kitab, seperti kejadian kelahiran Nabi Isa a.s., kedatangan Nabi Muhammad saw, dan sebagainya.\nPokok-pokok isinya\n1. Keimanan\nDalil-dalil yang membantah perkataan orang Nasrani yang mengakui Isa a.s., adalah salah satu dari oknum-oknum Tuhan yang tiga. Ketauhidan adalah dasar dari agama-agama yang dibawa para nabi.\n2. Hukum-hukum\nAsas musyawarah; mub\u0101halah dan hukum riba.\n3. Kisah-kisah\nKisah keluarga Imran, Perang Badar dan Perang Uhud dan pelajaran yang dapat diambil daripadanya.\n4. Lain-lain\nDalam surah ini disebutkan beberapa golongan manusia dalam memahami ayat-ayat mutasyabihat, sifat-sifat Allah, sifat-sifat orang yang bertakwa, agama Islam adalah agama yang diridai Allah, akibat menjadikan orang kafir sebagai teman kepercayaan, pengambilan perjanjian para nabi oleh Allah; perumpamaan-perumpamaan peringatan kepada orang mukmin; Ka\u2018bah adalah rumah ibadah yang paling tua; faedah mengingat Allah dan merenungkan ciptaan-Nya.\n ",
        "outro_surah": null,
        "munasabah_prev_surah": "HUBUNGAN ANTARA SURAH AL-BAQARAH\nDENGAN SURAH \u0100LI \u2018IMR\u0100N\n1. Dalam surah al-Baqarah disebutkan bahwa Nabi Adam a.s. langsung diciptakan Allah, sedang dalam surah Ali Imran disebutkan tentang kelahiran Nabi Isa a.s. yang kedua-duanya di luar kebiasaan.\n2.\tDalam surah al-Baqarah dibahas secara luas sifat dan perbuatan orang Yahudi, disertai dengan hujah-hujah yang membantah dan membetulkan kesesatan mereka, sedang dalam surah \u0100li \u2018Imr\u0101n dipaparkan hal-hal yang sama yang berhubungan dengan orang Nasrani.\n3.\tSurah al-Baqarah dimulai dengan menyebut tiga golongan manusia, yaitu orang mukmin, orang kafir dan orang munafik, sedang surah \u0100li \u2018Imr\u0101n menyebutkan orang-orang yang suka menakwilkan ayat-ayat yang mutasyabihat dengan takwil yang salah untuk memfitnah orang-orang mukmin dan menyebutkan orang yang mempunyai keahlian dalam menakwilkannya.\n4.\tSurah al-Baqarah diakhiri dengan menyebutkan permohonan kepada Allah agar diampuni atas kesalahan-kesalahan dan kealpaan dalam melaksanakan ketaatan, sedang surah \u0100li \u2018Imr\u0101n disudahi dengan permohonan kepada Allah agar memberi pahala atas amal kebaikan hamba-Nya.\n5.\tSurah al-Baqarah diakhiri dengan pengakuan terhadap kekuasaan Allah dan pertolongannya, sedang surah \u0100li \u2018Imr\u0101n dimulai dengan menyebutkan bahwa Tuhan yang mereka mintakan pertolongan tersebut, adalah Tuhan yang hidup kekal abadi dan mengurus semua urusan makhluk-Nya.",
        "munasabah_prev_theme": "Dalam ayat-ayat yang lalu Allah menjelaskan agama yang benar, tauhid yang murni, keterangan tentang kitab-kitab samawi mengenai agama dan tauhid, perihal Al-Qur\u2032an dan iman para ulama. Dalam ayat-ayat berikut ini Allah memaparkan keadaan orang-orang kafir, sebab-sebab mereka tertipu oleh hal-hal yang batil, jauhnya mereka dari kebenaran atau keraguan mereka tentang kebenaran itu.",
        "theme_group": "ANCAMAN ALLAH KEPADA ORANG KAFIR\nDAN PENGARUH HARTA BENDA",
        "kosakata": "Kosakata: Zuyyina \u0632\u064f\u064a\u0651\u0650\u0646\u064e (\u0100li \u2018Imr\u0101n/3: 14)\nZuyyina adalah fi\u2018il m\u0101\u1e0d\u012b (kata kerja telah lalu) dalam bentuk mabn\u012b majh\u016bl (bentuk pasif) artinya \u201cdihiaskan\u201d. Arti bahasa dalam permulaan ayat 14 ialah: dihiaskan kepada manusia rasa suka kepada hal-hal yang diinginkan berupa perempuan, anak, harta benda yang banyak berupa emas, perak, kuda yang bagus, binatang ternak dan sawah serta ladang. Siapakah yang menghiaskan kepada manusia sehingga ia menjadi suka kepada hal-hal tersebut? Dalam hal ini di kalangan para ulama ada dua pendapat: pertama yang menjadikan manusia suka pada perempuan dan harta adalah setan karena pada akhir ayat ini dikatakan bahwa di sisi Allah adalah tempat kembali yang baik, yaitu surga, yang jauh lebih baik dari harta di dunia. Pendapat kedua yaitu yang menjadikan manusia suka pada perempuan dan harta adalah Allah juga untuk menguji kemampuan orang-orang mukmin mengendalikan perasaan suka dan cintanya itu, tidak berlebih-lebihan melainkan wajar dan tetap mengikuti ketentuan agama dan aturan-aturan syariat yang benar. Pendapat kedua inilah yang disetujui oleh jumhur ulama.",
        "sabab_nuzul": null,
        "conclusion": null
    }
}