{
    "id": 310,
    "surah_id": 3,
    "ayah": 17,
    "page": 52,
    "quarter_hizb": 6,
    "juz": 3,
    "manzil": 1,
    "arabic": "\u0627\u064e\u0644\u0635\u0651\u0670\u0628\u0650\u0631\u0650\u064a\u0652\u0646\u064e \u0648\u064e\u0627\u0644\u0635\u0651\u0670\u062f\u0650\u0642\u0650\u064a\u0652\u0646\u064e \u0648\u064e\u0627\u0644\u0652\u0642\u0670\u0646\u0650\u062a\u0650\u064a\u0652\u0646\u064e \u0648\u064e\u0627\u0644\u0652\u0645\u064f\u0646\u0652\u0641\u0650\u0642\u0650\u064a\u0652\u0646\u064e \u0648\u064e\u0627\u0644\u0652\u0645\u064f\u0633\u0652\u062a\u064e\u063a\u0652\u0641\u0650\u0631\u0650\u064a\u0652\u0646\u064e \u0628\u0650\u0627\u0644\u0652\u0627\u064e\u0633\u0652\u062d\u064e\u0627\u0631\u0650 ",
    "latin": "A\u1e63-\u1e63\u0101bir\u012bna wa\u1e63-\u1e63\u0101diq\u012bna wal-q\u0101ni\u1e6d\u012bna wal-munfiq\u012bna wal-mustagfir\u012bna bil-as\u1e25\u0101r(i).  ",
    "translation": "(Juga) orang-orang yang sabar, benar, taat, dan berinfak, serta memohon ampunan pada akhir malam.",
    "no_footnote": null,
    "footnotes": null,
    "surah": {
        "id": 3,
        "arabic": " \u0627\u0670\u0644 \u0639\u0645\u0631\u0670\u0646",
        "latin": "\u0100li \u2018Imr\u0101n",
        "transliteration": "Ali \u2018Imran",
        "translation": "Keluarga Imran",
        "num_ayah": 200,
        "page": 50,
        "location": "Madaniyah"
    },
    "tafsir": {
        "wajiz": "Mereka itu adalah orang-orang yang sabar, baik dalam menjalankan ketaatan, di saat tertimpa musibah, maupun dalam meninggalkan larangan, orang-orang yang benar dalam sikap dan perkataannya, orang-orang yang senantiasa dalam ke-taat-an secara khusyuk, orang-orang yang selalu menginfakkan harta mereka, baik pada saat lapang maupun sempit (Lihat: Surah li Imran/3: 134) dan orang-orang yang senantiasa memohon ampunan terutama pada waktu sebelum fajar yakni masuknya waktu subuh.",
        "tahlili": "Pada ayat ini disebutkan sifat-sifat orang beriman yang membedakan mereka dari yang lain. Dengan sifat tersebut mereka mendapatkan keridaan Allah swt. Semua sifat tersebut mereka miliki, dan masing-masing sifat itu mempunyai tingkatan keutamaan, berkat sifat-sifat itu mereka memperoleh apa yang dijanjikan Allah kepada mereka. Sifat-sifat tersebut ialah:\n1.\tSabar. Sabar yang paling sempurna, ialah sabar dan tabah menderita di dalam melaksanakan ketaatan dan menjauhi larangan Allah. Apabila gelora syahwat sudah bergejolak, dan jiwa pun sudah tunduk untuk melakukan kemaksiatan maka kesabaranlah yang akan membendungnya. Sifat sabar pulalah yang menetapkan (mengokohkan) iman dan memelihara ketaatan pada batas-batas yang telah ditetapkan syariat (hukum agama). Sabarlah yang dapat memelihara martabat manusia di waktu mendapat kesulitan di dunia, dan memelihara hak-hak orang dari gangguan tangan orang yang rakus. Sifat sabar merupakan syarat bagi tercapainya sifat-sifat jujur, taat, dan istigfar.\n2.\tBersifat benar. Benar adalah puncak kesempurnaan. Benar dan jujur dalam iman, perkataan dan niat.\n3.\tTaat. Taat ialah ketekunan dalam melaksanakan perintah Allah dan menjauhi larangan-Nya dengan tunduk dan khusyuk kepada Allah. Tunduk dan khusyuk adalah jiwa dan intisari ibadah. Tanpa tunduk dan khusyuk ibadah menjadi hampa, bagaikan pohon tiada berbuah.\n4.\tMembelanjakan harta di jalan Allah, baik yang bersifat wajib, maupun yang sunah, karena mengeluarkan harta untuk amal kebajikan sangat ditekankan dan dianjurkan oleh agama.\n5.\tBeristigfar pada waktu sahur, yaitu waktu sebelum fajar menyingsing dekat subuh. Maksudnya salat tahajud di akhir malam, yaitu waktu tidur paling enak dan sukar untuk meninggalkannya. Tetapi jiwa dan hati pada waktu itu sangat bening dan tenang. Salat ini diikuti dengan bacaan istigfar dan doa. Terdapat di dalam kitab hadis Sahih Bukhari dan Muslim, dan dalam kitab-kitab musnad serta sunan, riwayat dari sejumlah sahabat.\nRasulullah berkata:\n\u064a\u064e\u0646\u0652\u0632\u0650\u0644\u064f \u0631\u064e\u0628\u0651\u064f\u0646\u064e\u0627 \u062a\u064e\u0628\u064e\u0627\u0631\u064e\u0643\u064e \u0648\u064e\u062a\u064e\u0639\u064e\u0627\u0644\u064e\u0649 \u0643\u064f\u0644\u0651\u064e \u0644\u064e\u064a\u0652\u0644\u064e\u0629\u064d \u0627\u0650\u0644\u064e\u0649 \u0627\u0644\u0633\u0651\u064e\u0645\u064e\u0627\u0621\u0650 \u0627\u0644\u062f\u0651\u064f\u0646\u0652\u064a\u064e\u0627 \u062d\u0650\u064a\u0652\u0646\u064e \u064a\u064e\u0628\u0652\u0642\u064e\u0649 \u062b\u064f\u0644\u064f\u062b\u064f \u0627\u0644\u0644\u0651\u064e\u064a\u0652\u0644\u0650 \u0627\u0652\u0644\u0627\u0670\u062e\u0650\u0631\u0650. \u064a\u064e\u0642\u064f\u0648\u0652\u0644\u064f \u0645\u064e\u0646\u0652 \u064a\u064e\u062f\u0652\u0639\u064f\u0648\u0652\u0646\u0650\u064a \u0641\u064e\u0623\u064e\u0633\u0652\u062a\u064e\u062c\u0650\u064a\u0652\u0628\u064e \u0644\u064e\u0647\u064f \u0645\u064e\u0646\u0652 \u064a\u064e\u0633\u0652\u0623\u064e\u0644\u064f\u0646\u0650\u064a \u0641\u064e\u0623\u064f\u0639\u0652\u0637\u0650\u064a\u064e\u0647\u064f \u0648\u064e\u0645\u064e\u0646\u0652 \u064a\u064e\u0633\u0652\u062a\u064e\u063a\u0652\u0641\u0650\u0631\u064f\u0646\u0650\u064a \u0641\u064e\u0623\u064e\u063a\u0652\u0641\u0650\u0631\u064e \u0644\u064e\u0647\u064f (\u0631\u0648\u0627\u0647 \u0627\u0644\u0628\u062e\u0627\u0631\u064a \u0648\u0645\u0633\u0644\u0645)\n'Tuhan kita Yang Mahasuci dan Mahatinggi, turun pada setiap malam ke langit dunia pada waktu sepertiga akhir malam. Dia berfirman, \u201cSiapa yang berdoa kepada-Ku maka Aku akan mengabulkannya. Siapa yang meminta kepada-Ku, Aku akan memberinya. Siapa yang meminta ampun kepada-Ku maka Aku akan mengampuninya\u201d. (Riwayat al-Bukh\u0101r\u012b dan Muslim)\nAdapun istigfar (minta ampun) yang dimaksud oleh agama ialah istigfar yang disertai tobat nasuha, serta menyesuaikan perbuatan dengan ketentuan agama. Tobat nasuha adalah tobat dengan benar-benar menghentikan perbuatan dosa dan tidak mengulangi lagi, serta berusaha menggantinya dengan perbuatan yang baik.",
        "intro_surah": "Surah ketiga adalah \u0100li \u2018Imr\u0101n (Keluarga Imran) yang terdiri atas 200 ayat. Surah ini termasuk golongan Madaniyah. Dinamakan \u0100li \u2018Imr\u0101n, karena dalam surah ini terdapat kisah keluarga Imran dan keturunannya, kelahiran Nabi Isa a.s., yang dilahirkan oleh Maryam putri Imran, persamaan kejadian Isa dengan Adam a.s., dan mukjizat yang diberikan Allah kepada Nabi Isa.\nSurah al-Baqarah dan surah \u0100li \u2018Imr\u0101n dinamakan az-Zahraw\u0101ni (dua surah yang cemerlang), karena kedua surah ini mengungkapkan hal-hal yang disembunyikan oleh Ahli Kitab, seperti kejadian kelahiran Nabi Isa a.s., kedatangan Nabi Muhammad saw, dan sebagainya.\nPokok-pokok isinya\n1. Keimanan\nDalil-dalil yang membantah perkataan orang Nasrani yang mengakui Isa a.s., adalah salah satu dari oknum-oknum Tuhan yang tiga. Ketauhidan adalah dasar dari agama-agama yang dibawa para nabi.\n2. Hukum-hukum\nAsas musyawarah; mub\u0101halah dan hukum riba.\n3. Kisah-kisah\nKisah keluarga Imran, Perang Badar dan Perang Uhud dan pelajaran yang dapat diambil daripadanya.\n4. Lain-lain\nDalam surah ini disebutkan beberapa golongan manusia dalam memahami ayat-ayat mutasyabihat, sifat-sifat Allah, sifat-sifat orang yang bertakwa, agama Islam adalah agama yang diridai Allah, akibat menjadikan orang kafir sebagai teman kepercayaan, pengambilan perjanjian para nabi oleh Allah; perumpamaan-perumpamaan peringatan kepada orang mukmin; Ka\u2018bah adalah rumah ibadah yang paling tua; faedah mengingat Allah dan merenungkan ciptaan-Nya.\n ",
        "outro_surah": null,
        "munasabah_prev_surah": "HUBUNGAN ANTARA SURAH AL-BAQARAH\nDENGAN SURAH \u0100LI \u2018IMR\u0100N\n1. Dalam surah al-Baqarah disebutkan bahwa Nabi Adam a.s. langsung diciptakan Allah, sedang dalam surah Ali Imran disebutkan tentang kelahiran Nabi Isa a.s. yang kedua-duanya di luar kebiasaan.\n2.\tDalam surah al-Baqarah dibahas secara luas sifat dan perbuatan orang Yahudi, disertai dengan hujah-hujah yang membantah dan membetulkan kesesatan mereka, sedang dalam surah \u0100li \u2018Imr\u0101n dipaparkan hal-hal yang sama yang berhubungan dengan orang Nasrani.\n3.\tSurah al-Baqarah dimulai dengan menyebut tiga golongan manusia, yaitu orang mukmin, orang kafir dan orang munafik, sedang surah \u0100li \u2018Imr\u0101n menyebutkan orang-orang yang suka menakwilkan ayat-ayat yang mutasyabihat dengan takwil yang salah untuk memfitnah orang-orang mukmin dan menyebutkan orang yang mempunyai keahlian dalam menakwilkannya.\n4.\tSurah al-Baqarah diakhiri dengan menyebutkan permohonan kepada Allah agar diampuni atas kesalahan-kesalahan dan kealpaan dalam melaksanakan ketaatan, sedang surah \u0100li \u2018Imr\u0101n disudahi dengan permohonan kepada Allah agar memberi pahala atas amal kebaikan hamba-Nya.\n5.\tSurah al-Baqarah diakhiri dengan pengakuan terhadap kekuasaan Allah dan pertolongannya, sedang surah \u0100li \u2018Imr\u0101n dimulai dengan menyebutkan bahwa Tuhan yang mereka mintakan pertolongan tersebut, adalah Tuhan yang hidup kekal abadi dan mengurus semua urusan makhluk-Nya.",
        "munasabah_prev_theme": "Dalam ayat-ayat yang lalu Allah menjelaskan agama yang benar, tauhid yang murni, keterangan tentang kitab-kitab samawi mengenai agama dan tauhid, perihal Al-Qur\u2032an dan iman para ulama. Dalam ayat-ayat berikut ini Allah memaparkan keadaan orang-orang kafir, sebab-sebab mereka tertipu oleh hal-hal yang batil, jauhnya mereka dari kebenaran atau keraguan mereka tentang kebenaran itu.",
        "theme_group": "ANCAMAN ALLAH KEPADA ORANG KAFIR\nDAN PENGARUH HARTA BENDA",
        "kosakata": "Kosakata: Zuyyina \u0632\u064f\u064a\u0651\u0650\u0646\u064e (\u0100li \u2018Imr\u0101n/3: 14)\nZuyyina adalah fi\u2018il m\u0101\u1e0d\u012b (kata kerja telah lalu) dalam bentuk mabn\u012b majh\u016bl (bentuk pasif) artinya \u201cdihiaskan\u201d. Arti bahasa dalam permulaan ayat 14 ialah: dihiaskan kepada manusia rasa suka kepada hal-hal yang diinginkan berupa perempuan, anak, harta benda yang banyak berupa emas, perak, kuda yang bagus, binatang ternak dan sawah serta ladang. Siapakah yang menghiaskan kepada manusia sehingga ia menjadi suka kepada hal-hal tersebut? Dalam hal ini di kalangan para ulama ada dua pendapat: pertama yang menjadikan manusia suka pada perempuan dan harta adalah setan karena pada akhir ayat ini dikatakan bahwa di sisi Allah adalah tempat kembali yang baik, yaitu surga, yang jauh lebih baik dari harta di dunia. Pendapat kedua yaitu yang menjadikan manusia suka pada perempuan dan harta adalah Allah juga untuk menguji kemampuan orang-orang mukmin mengendalikan perasaan suka dan cintanya itu, tidak berlebih-lebihan melainkan wajar dan tetap mengikuti ketentuan agama dan aturan-aturan syariat yang benar. Pendapat kedua inilah yang disetujui oleh jumhur ulama.",
        "sabab_nuzul": null,
        "conclusion": "1.\tOrang yang mengingkari kebenaran tidak akan lepas dari azab Allah.\n2.\tKekuatan material dan fisik seperti kekayaan dan upaya manusia tidak dapat membebaskan dirinya dari azab Allah.\n3.\tSejarah manusia sejak zaman Fir\u2018aun dan sejarah umat sebelumnya sampai dengan kehancuran orang Yahudi dan kaum Quraisy pada zaman Nabi Muhammad saw, membuktikan bahwa kehancuran pasti terjadi atas penentang-penentang kebenaran, yakni orang-orang yang memusuhi Allah.\n4.\tSetan selalu menggoda manusia sehingga ia memandang bahwa mencintai hal-hal yang diingini, seperti istri, anak, harta benda, ternak dan sawah ladang itu adalah indah. Padahal di akhirat ada yang lebih baik dari itu semua.\n5.\tIman yang sempurna dalam diri manusia dapat membebaskannya dari cinta yang berlebih-lebihan terhadap harta benda tersebut dan menjadikan rida Ilahi sebagai cita-cita terakhir dari kehidupannya.\n6.\tTanda kesempurnaan iman seseorang ialah bahwa ia selalu mengharapkan ampunan dari Tuhan, serta selalu bersifat sabar, benar, taat, dermawan dan tekun beribadah di malam hari."
    }
}