{
    "id": 353,
    "surah_id": 3,
    "ayah": 60,
    "page": 57,
    "quarter_hizb": 6.5,
    "juz": 3,
    "manzil": 1,
    "arabic": "\u0627\u064e\u0644\u0652\u062d\u064e\u0642\u0651\u064f \u0645\u0650\u0646\u0652 \u0631\u0651\u064e\u0628\u0651\u0650\u0643\u064e \u0641\u064e\u0644\u064e\u0627 \u062a\u064e\u0643\u064f\u0646\u0652 \u0645\u0651\u0650\u0646\u064e \u0627\u0644\u0652\u0645\u064f\u0645\u0652\u062a\u064e\u0631\u0650\u064a\u0652\u0646\u064e",
    "latin": "Al-\u1e25aqqu mir rabbika fal\u0101 takum minal-mumtar\u012bn(a).  ",
    "translation": "Kebenaran itu dari Tuhanmu. Oleh karena itu, janganlah engkau (Nabi Muhammad) termasuk orang-orang yang ragu.",
    "no_footnote": null,
    "footnotes": null,
    "surah": {
        "id": 3,
        "arabic": " \u0627\u0670\u0644 \u0639\u0645\u0631\u0670\u0646",
        "latin": "\u0100li \u2018Imr\u0101n",
        "transliteration": "Ali \u2018Imran",
        "translation": "Keluarga Imran",
        "num_ayah": 200,
        "page": 50,
        "location": "Madaniyah"
    },
    "tafsir": {
        "wajiz": "Demikian itu, karena kebenaran itu dari Tuhanmu, karena itu janganlah engkau, wahai Nabi Muhammad, termasuk orang-orang yang ragu terhadap proses penciptaan Nabi Isa bin Maryam.",
        "tahlili": "Dimaksud dengan \u201cItulah yang benar yang datang dari Tuhan\u201d ialah bahwa apa yang telah diberitakan Allah kepada Muhammad saw, tentang Nabi Isa dan Maryam itulah yang benar bukan apa yang telah dikatakan oleh orang-orang Nasrani bahwa Al-Masih adalah putra Tuhan; dan bukan pula seperti anggapan orang-orang Yahudi bahwa Nabi Isa itu hasil perzinaan antara Maryam dengan Yusuf an-Najj\u0101r (Yusuf tukang kayu atau Yusuf adik Eli). Dengan demikian Muslimin telah mendapat pengetahuan yang meyakinkan mengenai Isa dan Maryam.\nLarangan ini ditujukan kepada Nabi Muhammad agar tidak ragu, padahal tidak mungkin terjadi bahwa Nabi Muhammad akan ragu terhadap ayat Allah. Hal ini mempunyai dua pengertian:\n1.\tBahwasanya Nabi Muhammad pada saat mendengar ayat ini bertambah keyakinannya dan ia merasa puas dengan keyakinannya itu.\n2.\tKalau Nabi Muhammad yang mempunyai kedudukan yang tinggi dilarang merasa ragu terhadap kebenaran kisah itu, maka umatnya lebih terkena larangan ini.",
        "intro_surah": "Surah ketiga adalah \u0100li \u2018Imr\u0101n (Keluarga Imran) yang terdiri atas 200 ayat. Surah ini termasuk golongan Madaniyah. Dinamakan \u0100li \u2018Imr\u0101n, karena dalam surah ini terdapat kisah keluarga Imran dan keturunannya, kelahiran Nabi Isa a.s., yang dilahirkan oleh Maryam putri Imran, persamaan kejadian Isa dengan Adam a.s., dan mukjizat yang diberikan Allah kepada Nabi Isa.\nSurah al-Baqarah dan surah \u0100li \u2018Imr\u0101n dinamakan az-Zahraw\u0101ni (dua surah yang cemerlang), karena kedua surah ini mengungkapkan hal-hal yang disembunyikan oleh Ahli Kitab, seperti kejadian kelahiran Nabi Isa a.s., kedatangan Nabi Muhammad saw, dan sebagainya.\nPokok-pokok isinya\n1. Keimanan\nDalil-dalil yang membantah perkataan orang Nasrani yang mengakui Isa a.s., adalah salah satu dari oknum-oknum Tuhan yang tiga. Ketauhidan adalah dasar dari agama-agama yang dibawa para nabi.\n2. Hukum-hukum\nAsas musyawarah; mub\u0101halah dan hukum riba.\n3. Kisah-kisah\nKisah keluarga Imran, Perang Badar dan Perang Uhud dan pelajaran yang dapat diambil daripadanya.\n4. Lain-lain\nDalam surah ini disebutkan beberapa golongan manusia dalam memahami ayat-ayat mutasyabihat, sifat-sifat Allah, sifat-sifat orang yang bertakwa, agama Islam adalah agama yang diridai Allah, akibat menjadikan orang kafir sebagai teman kepercayaan, pengambilan perjanjian para nabi oleh Allah; perumpamaan-perumpamaan peringatan kepada orang mukmin; Ka\u2018bah adalah rumah ibadah yang paling tua; faedah mengingat Allah dan merenungkan ciptaan-Nya.\n ",
        "outro_surah": null,
        "munasabah_prev_surah": "HUBUNGAN ANTARA SURAH AL-BAQARAH\nDENGAN SURAH \u0100LI \u2018IMR\u0100N\n1. Dalam surah al-Baqarah disebutkan bahwa Nabi Adam a.s. langsung diciptakan Allah, sedang dalam surah Ali Imran disebutkan tentang kelahiran Nabi Isa a.s. yang kedua-duanya di luar kebiasaan.\n2.\tDalam surah al-Baqarah dibahas secara luas sifat dan perbuatan orang Yahudi, disertai dengan hujah-hujah yang membantah dan membetulkan kesesatan mereka, sedang dalam surah \u0100li \u2018Imr\u0101n dipaparkan hal-hal yang sama yang berhubungan dengan orang Nasrani.\n3.\tSurah al-Baqarah dimulai dengan menyebut tiga golongan manusia, yaitu orang mukmin, orang kafir dan orang munafik, sedang surah \u0100li \u2018Imr\u0101n menyebutkan orang-orang yang suka menakwilkan ayat-ayat yang mutasyabihat dengan takwil yang salah untuk memfitnah orang-orang mukmin dan menyebutkan orang yang mempunyai keahlian dalam menakwilkannya.\n4.\tSurah al-Baqarah diakhiri dengan menyebutkan permohonan kepada Allah agar diampuni atas kesalahan-kesalahan dan kealpaan dalam melaksanakan ketaatan, sedang surah \u0100li \u2018Imr\u0101n disudahi dengan permohonan kepada Allah agar memberi pahala atas amal kebaikan hamba-Nya.\n5.\tSurah al-Baqarah diakhiri dengan pengakuan terhadap kekuasaan Allah dan pertolongannya, sedang surah \u0100li \u2018Imr\u0101n dimulai dengan menyebutkan bahwa Tuhan yang mereka mintakan pertolongan tersebut, adalah Tuhan yang hidup kekal abadi dan mengurus semua urusan makhluk-Nya.",
        "munasabah_prev_theme": "Dalam ayat-ayat yang lalu diterangkan bahwa Nabi Isa yakin akan keingkaran Bani Israil kepada agama yang dibawanya, serta yakin pula akan pernyataan dari sahabat-sahabat setianya (Hawariy\u016bn) bahwa mereka sanggup untuk menjadi pembantu-pembantunya; beliau juga yakin terhadap sikap orang-orang kafir yang selalu membuat tipu daya untuk menghalang-halangi tersiarnya agama Allah. Kemudian dalam ayat-ayat ini diterangkan tentang sanggahan terhadap tipu daya mereka, yaitu bahwa Allah akan memelihara Isa dari tipu daya mereka dengan mengangkatnya kepada-Nya, guna menyelamatkan dirinya dari siksaan dan hinaan orang-orang kafir.",
        "theme_group": "KENAIKAN ISA ALMAS\u012a\u1e24",
        "kosakata": "Kosakata: Mutawaff\u012bka \u0645\u064f\u062a\u064e\u0648\u064e\u0641\u0651\u0650\u064a\u0652\u0643\u064e (\u0100li \u2018Imr\u0101n/3: 55)\nAkar katanya adalah (\u0648\u0641\u064a), artinya sempurna. Jika dikaitkan dengan janji berarti menunaikan janjinya dengan baik dan sempurna. Wafat berarti mati, karena Allah telah mengambil rohnya secara penuh, atau Allah telah menyempurnakan ajalnya.\nDalam ayat ini, kata mutawaffika berarti \u201cmencukupkan sepenuhnya waktumu di bumi, mengambil sesuatu sepenuhnya dan tak ada yang tertinggal\u201d; Allah akan mengambil engkau dan mengangkat engkau kepada-Ku,\u201d juga dapat berarti \u201cAllah mencukupkan sepenuhnya selama waktumu di tengah-tengah kaummu.\u201d\nPenafsiran di atas berbeda sekali dengan yang terdapat dalam beberapa tafsir lain yang menegaskan Nabi Isa sudah mati seperti dalam penafsiran Ahmadiyah dan Bibel. Beberapa arti dan perbandingan dapat dilihat dalam (Matius xxvii.32-38) diuraikan cukup panjang lebar. Ayat ini membantah anggapan orang-orang Nasrani yang mengatakan bahwa Nabi Isa mati disalib oleh musuh-musuhnya.",
        "sabab_nuzul": null,
        "conclusion": null
    }
}