{
    "id": 354,
    "surah_id": 3,
    "ayah": 61,
    "page": 57,
    "quarter_hizb": 6.5,
    "juz": 3,
    "manzil": 1,
    "arabic": "\u0641\u064e\u0645\u064e\u0646\u0652 \u062d\u064e\u0627\u06e4\u062c\u0651\u064e\u0643\u064e \u0641\u0650\u064a\u0652\u0647\u0650 \u0645\u0650\u0646\u0652\u06e2 \u0628\u064e\u0639\u0652\u062f\u0650 \u0645\u064e\u0627 \u062c\u064e\u0627\u06e4\u0621\u064e\u0643\u064e \u0645\u0650\u0646\u064e \u0627\u0644\u0652\u0639\u0650\u0644\u0652\u0645\u0650 \u0641\u064e\u0642\u064f\u0644\u0652 \u062a\u064e\u0639\u064e\u0627\u0644\u064e\u0648\u0652\u0627 \u0646\u064e\u062f\u0652\u0639\u064f \u0627\u064e\u0628\u0652\u0646\u064e\u0627\u06e4\u0621\u064e\u0646\u064e\u0627 \u0648\u064e\u0627\u064e\u0628\u0652\u0646\u064e\u0627\u06e4\u0621\u064e\u0643\u064f\u0645\u0652 \u0648\u064e\u0646\u0650\u0633\u064e\u0627\u06e4\u0621\u064e\u0646\u064e\u0627 \u0648\u064e\u0646\u0650\u0633\u064e\u0627\u06e4\u0621\u064e\u0643\u064f\u0645\u0652 \u0648\u064e\u0627\u064e\u0646\u0652\u0641\u064f\u0633\u064e\u0646\u064e\u0627 \u0648\u064e\u0627\u064e\u0646\u0652\u0641\u064f\u0633\u064e\u0643\u064f\u0645\u0652\u06d7  \u062b\u064f\u0645\u0651\u064e \u0646\u064e\u0628\u0652\u062a\u064e\u0647\u0650\u0644\u0652 \u0641\u064e\u0646\u064e\u062c\u0652\u0639\u064e\u0644\u0652 \u0644\u0651\u064e\u0639\u0652\u0646\u064e\u062a\u064e \u0627\u0644\u0644\u0651\u0670\u0647\u0650 \u0639\u064e\u0644\u064e\u0649 \u0627\u0644\u0652\u0643\u0670\u0630\u0650\u0628\u0650\u064a\u0652\u0646\u064e",
    "latin": "Faman \u1e25\u0101jjaka f\u012bhi mim ba\u2018di m\u0101 j\u0101'aka minal-\u2018ilmi faqul ta\u2018\u0101lau nad\u2018u abn\u0101'an\u0101 wa abn\u0101'akum wa nis\u0101'an\u0101 wa nis\u0101'akum wa anfusan\u0101 wa anfusakum, \u1e61umma nabtahil fanaj\u2018al la\u2018natall\u0101hi \u2018alal-k\u0101\u017cib\u012bn(a).  ",
    "translation": "Siapa yang membantahmu dalam hal ini setelah datang ilmu kepadamu, maka katakanlah (Nabi Muhammad), \u201cMarilah kita panggil anak-anak kami dan anak-anak kamu, istri-istri kami dan istri-istri kamu, diri kami dan diri kamu, kemudian marilah kita bermubahalah94) agar laknat Allah ditimpakan kepada para pendusta.\u201d",
    "no_footnote": "94",
    "footnotes": "94) Mubahalah berarti setiap pihak yang berselisih berdoa dengan sungguh-sungguh agar Allah menjatuhkan laknat kepada pihak yang berdusta. Nabi Muhammad saw. mengajak utusan Nasrani Najran bermubahalah, tetapi mereka tidak berani. Hal ini menjadi bukti kebenaran akidah Islam tentang Isa a.s.",
    "surah": {
        "id": 3,
        "arabic": " \u0627\u0670\u0644 \u0639\u0645\u0631\u0670\u0646",
        "latin": "\u0100li \u2018Imr\u0101n",
        "transliteration": "Ali \u2018Imran",
        "translation": "Keluarga Imran",
        "num_ayah": 200,
        "page": 50,
        "location": "Madaniyah"
    },
    "tafsir": {
        "wajiz": "Setelah beberapa ayat sebelumnya dipaparkan kekeliruan anggapan kaum Nasrani bahwa Allah mempunyai anak, sekaligus menunjukkan bukti-bukti kekeliruannya, namun mereka tetap menolaknya, maka sebagai jalan terakhir untuk membuktikan siapa yang paling benar antara mereka yang menganggap Isa sebagai anak Tuhan atau Isa sebagai rasul Allah, dilakukanlah doa mubahalah. Siapa yang membantahmu dalam hal ini, yaitu keberadaan Isa sebagai manusia biasa dan sebagai utusan Allah, setelah engkau memperoleh ilmu atau pengetahuan tentang hal itu, maka katakanlah, wahai Nabi Muhammad, \u201cMarilah kita panggil anak-anak kami dan anak-anak kalian, istri-istri kami dan istri-istri kalian, kami sendiri dan kalian juga, kemudian marilah kita ber-mubahalah, yaitu masing-masing pihak yang berbeda pendapat berdoa kepada Tuhan dengan sungguh-sungguh, agar laknat Allah ditimpakan kepada orang-orang yang dusta.\u201d Hanya saja, peristiwa mubahalah ini pada akhirnya tidak terjadi, sebab orang-orang Nasrani Najran tidak berani datang, karena dalam hati mereka sejatinya memang membenarkan kerasulan Nabi Muhammad. ",
        "tahlili": "Dalam ayat ini Allah memerintahkan kepada Nabi Muhammad bila masih ada orang yang membantah kebenaran berita tentang kejadian Isa a.s., sesudah mendapat penjelasan hendaklah mereka diajak ber-mub\u0101halah[46] untuk membuktikan siapa yang benar dan berdoa agar Allah swt menjatuhkan laknat-Nya kepada orang yang berdusta. Mub\u0101halah ini sebagai pencerminan dari kebenaran kepercayaan itu.\nAllah memerintahkan kepada Nabi Muhammad, agar mengundang keluarga masing-masing baik dari pihaknya maupun dari pihak mereka, yang terdiri dari anak-anak dan istri, untuk mengadakan mub\u0101halah ini.\nDi dalam ayat disebutkan lebih dahulu istri dan anak-anak nabi dalam mub\u0101halah, karena seseorang lebih mengkhawatirkan diri keluarganya daripada dirinya sendiri. Hal ini mengandung pengertian bahwa Nabi Muhammad, percaya dengan penuh keyakinan bahwa bencana yang tidak dikehendaki, sebagai akibat dari mub\u0101halah itu tidak akan menimpa keluarganya dan dirinya. Kemudian ayat ini dikenal sebagai ayat mub\u0101halah.\nMengenai terjadinya ajakan mub\u0101halah tersebut telah diriwayatkan melalui berbagai sumber, bahwa Nabi Muhammad, telah mengajak orang-orang Nasrani dari kota Najran di Yaman untuk mengadakan mub\u0101halah, tetapi mereka menolak.\nImam al-Bukh\u0101r\u012b dan Imam Muslim juga meriwayatkan sebuah hadis bahwa delegasi Najran yang dipimpin oleh al-\u2018Aqib dan as-Sayid mengunjungi Rasulullah. Kemudian beliau berkeinginan untuk mengadakan mub\u0101halah (sumpah) dengan mereka. Maka salah seorang di antara mereka berkata kepada kaumnya, \u201cJanganlah kamu ber-muh\u0101balah dengan dia. Demi Allah apabila ia betul-betul seorang Nabi lalu dia ber-mub\u0101halah dengan kita, niscaya kita tidak akan berbahagia selamanya, dan tidak akan ada generasi yang akan melanjutkan keturunan kita.\u201d Kemudian mereka berkata kepada Nabi, \u201cKami akan memberikan apa yang engkau minta sebab itu utuslah kepada kami seorang laki-laki, yang terpercaya.\u201d Kemudian Nabi saw bersabda, \u201cBerdirilah hai, Ab\u016b \u2018Ubaidah,\u201d maka setelah ia berdiri Nabi pun bersabda, \u201cInilah orang yang terpercaya di kalangan umat ini.\u201d (Riwayat al-Bukh\u0101r\u012b dari Huzaifah).\nAbu Nu\u2018aim meriwayatkan pula sebuah hadis dari Ibnu \u2018Abb\u0101s dalam kitab ad-Dal\u0101\u2032il melalui sanad dari \u2018A\u1e6da\u2032 dari A\u1e0d-\u1e0cahak dari Ibnu \u2018Abb\u0101s bahwasanya delapan orang Nasrani dari penduduk Najran mendatangi Rasulullah. Di antara mereka terdapat \u2018Aqib dan as-Sayid. Kemudian Allah menurunkan ayat ini. Lalu mereka berkata, \u201cBeri tangguhlah kami tiga hari.\u201d Lalu mereka pergi kepada Bani Quraizah, Bani Nadir dan Bani Qainuqa dari kalangan orang-orang Yahudi. Kemudian mereka memberi isyarat untuk berdamai dan tidak mengadakan mub\u0101halah dengan Nabi. Kemudian mereka berkata, \u201cDia adalah nabi yang telah diberitakan kedatangannya di dalam kitab Taurat.\u201d Lalu mereka mengadakan perdamaian dengan Nabi saw dengan perjanjian membayar 1.000 potong pakaian pada bulan Safar dan 1.000 potong lagi disertai sejumlah uang pada bulan Rajab.\nDiriwayatkan bahwa Nabi Muhammad saw, telah mengajukan Ali, Fatimah dan kedua putra mereka (Hasan dan Husain) selain diri beliau sendiri, untuk bermuhabalah dan Nabi pun keluar bersama-sama mereka seraya bersabda, \u201cApabila saya berdoa hendaklak kamu membaca, Amin\u201d.\nIbnu \u2018As\u0101kir meriwayatkan sebuah hadis dari Ja\u2018far dari ayahnya, bahwa setelah ayat ini turun, Nabi membawa Abu Bakar bersama-sama anak-anaknya, Umar dan anak-anaknya dan Usman bersama anak-anaknya. Dapat dipahami dari ayat-ayat ini bahwa Nabi Muhammad, telah memerintahkan untuk mengundang orang-orang yang menentang hakikat kejadian Isa a.s. dari kalangan orang-orang Ahli Kitab untuk berkumpul baik laki-laki, perempuan atau pun anak-anak, dan juga Nabi mengumpulkan orang mukminin baik laki-laki, perempuan atau anak-anak. Mereka pun mengajak ber-mub\u0101halah kepada Allah swt agar Dia melaknat orang-orang yang sengaja berdusta.\nAjakan Nabi saw untuk ber-mub\u0101halah itu menunjukkan adanya keyakinan yang penuh terhadap kebenaran apa yang beliau katakan, sebaliknya keengganan orang-orang Nasrani dan Yahudi yang diajak untuk ber-mub\u0101halah menunjukkan alasan dan kepalsuan kepercayan mereka.",
        "intro_surah": "Surah ketiga adalah \u0100li \u2018Imr\u0101n (Keluarga Imran) yang terdiri atas 200 ayat. Surah ini termasuk golongan Madaniyah. Dinamakan \u0100li \u2018Imr\u0101n, karena dalam surah ini terdapat kisah keluarga Imran dan keturunannya, kelahiran Nabi Isa a.s., yang dilahirkan oleh Maryam putri Imran, persamaan kejadian Isa dengan Adam a.s., dan mukjizat yang diberikan Allah kepada Nabi Isa.\nSurah al-Baqarah dan surah \u0100li \u2018Imr\u0101n dinamakan az-Zahraw\u0101ni (dua surah yang cemerlang), karena kedua surah ini mengungkapkan hal-hal yang disembunyikan oleh Ahli Kitab, seperti kejadian kelahiran Nabi Isa a.s., kedatangan Nabi Muhammad saw, dan sebagainya.\nPokok-pokok isinya\n1. Keimanan\nDalil-dalil yang membantah perkataan orang Nasrani yang mengakui Isa a.s., adalah salah satu dari oknum-oknum Tuhan yang tiga. Ketauhidan adalah dasar dari agama-agama yang dibawa para nabi.\n2. Hukum-hukum\nAsas musyawarah; mub\u0101halah dan hukum riba.\n3. Kisah-kisah\nKisah keluarga Imran, Perang Badar dan Perang Uhud dan pelajaran yang dapat diambil daripadanya.\n4. Lain-lain\nDalam surah ini disebutkan beberapa golongan manusia dalam memahami ayat-ayat mutasyabihat, sifat-sifat Allah, sifat-sifat orang yang bertakwa, agama Islam adalah agama yang diridai Allah, akibat menjadikan orang kafir sebagai teman kepercayaan, pengambilan perjanjian para nabi oleh Allah; perumpamaan-perumpamaan peringatan kepada orang mukmin; Ka\u2018bah adalah rumah ibadah yang paling tua; faedah mengingat Allah dan merenungkan ciptaan-Nya.\n ",
        "outro_surah": null,
        "munasabah_prev_surah": "HUBUNGAN ANTARA SURAH AL-BAQARAH\nDENGAN SURAH \u0100LI \u2018IMR\u0100N\n1. Dalam surah al-Baqarah disebutkan bahwa Nabi Adam a.s. langsung diciptakan Allah, sedang dalam surah Ali Imran disebutkan tentang kelahiran Nabi Isa a.s. yang kedua-duanya di luar kebiasaan.\n2.\tDalam surah al-Baqarah dibahas secara luas sifat dan perbuatan orang Yahudi, disertai dengan hujah-hujah yang membantah dan membetulkan kesesatan mereka, sedang dalam surah \u0100li \u2018Imr\u0101n dipaparkan hal-hal yang sama yang berhubungan dengan orang Nasrani.\n3.\tSurah al-Baqarah dimulai dengan menyebut tiga golongan manusia, yaitu orang mukmin, orang kafir dan orang munafik, sedang surah \u0100li \u2018Imr\u0101n menyebutkan orang-orang yang suka menakwilkan ayat-ayat yang mutasyabihat dengan takwil yang salah untuk memfitnah orang-orang mukmin dan menyebutkan orang yang mempunyai keahlian dalam menakwilkannya.\n4.\tSurah al-Baqarah diakhiri dengan menyebutkan permohonan kepada Allah agar diampuni atas kesalahan-kesalahan dan kealpaan dalam melaksanakan ketaatan, sedang surah \u0100li \u2018Imr\u0101n disudahi dengan permohonan kepada Allah agar memberi pahala atas amal kebaikan hamba-Nya.\n5.\tSurah al-Baqarah diakhiri dengan pengakuan terhadap kekuasaan Allah dan pertolongannya, sedang surah \u0100li \u2018Imr\u0101n dimulai dengan menyebutkan bahwa Tuhan yang mereka mintakan pertolongan tersebut, adalah Tuhan yang hidup kekal abadi dan mengurus semua urusan makhluk-Nya.",
        "munasabah_prev_theme": "Dalam ayat-ayat yang lalu diterangkan bahwa Nabi Isa yakin akan keingkaran Bani Israil kepada agama yang dibawanya, serta yakin pula akan pernyataan dari sahabat-sahabat setianya (Hawariy\u016bn) bahwa mereka sanggup untuk menjadi pembantu-pembantunya; beliau juga yakin terhadap sikap orang-orang kafir yang selalu membuat tipu daya untuk menghalang-halangi tersiarnya agama Allah. Kemudian dalam ayat-ayat ini diterangkan tentang sanggahan terhadap tipu daya mereka, yaitu bahwa Allah akan memelihara Isa dari tipu daya mereka dengan mengangkatnya kepada-Nya, guna menyelamatkan dirinya dari siksaan dan hinaan orang-orang kafir.",
        "theme_group": "KENAIKAN ISA ALMAS\u012a\u1e24",
        "kosakata": "Kosakata: Mutawaff\u012bka \u0645\u064f\u062a\u064e\u0648\u064e\u0641\u0651\u0650\u064a\u0652\u0643\u064e (\u0100li \u2018Imr\u0101n/3: 55)\nAkar katanya adalah (\u0648\u0641\u064a), artinya sempurna. Jika dikaitkan dengan janji berarti menunaikan janjinya dengan baik dan sempurna. Wafat berarti mati, karena Allah telah mengambil rohnya secara penuh, atau Allah telah menyempurnakan ajalnya.\nDalam ayat ini, kata mutawaffika berarti \u201cmencukupkan sepenuhnya waktumu di bumi, mengambil sesuatu sepenuhnya dan tak ada yang tertinggal\u201d; Allah akan mengambil engkau dan mengangkat engkau kepada-Ku,\u201d juga dapat berarti \u201cAllah mencukupkan sepenuhnya selama waktumu di tengah-tengah kaummu.\u201d\nPenafsiran di atas berbeda sekali dengan yang terdapat dalam beberapa tafsir lain yang menegaskan Nabi Isa sudah mati seperti dalam penafsiran Ahmadiyah dan Bibel. Beberapa arti dan perbandingan dapat dilihat dalam (Matius xxvii.32-38) diuraikan cukup panjang lebar. Ayat ini membantah anggapan orang-orang Nasrani yang mengatakan bahwa Nabi Isa mati disalib oleh musuh-musuhnya.",
        "sabab_nuzul": null,
        "conclusion": null
    }
}