{
    "id": 336,
    "surah_id": 3,
    "ayah": 43,
    "page": 55,
    "quarter_hizb": 6.25,
    "juz": 3,
    "manzil": 1,
    "arabic": "\u064a\u0670\u0645\u064e\u0631\u0652\u064a\u064e\u0645\u064f \u0627\u0642\u0652\u0646\u064f\u062a\u0650\u064a\u0652 \u0644\u0650\u0631\u064e\u0628\u0651\u0650\u0643\u0650 \u0648\u064e\u0627\u0633\u0652\u062c\u064f\u062f\u0650\u064a\u0652 \u0648\u064e\u0627\u0631\u0652\u0643\u064e\u0639\u0650\u064a\u0652 \u0645\u064e\u0639\u064e \u0627\u0644\u0631\u0651\u0670\u0643\u0650\u0639\u0650\u064a\u0652\u0646\u064e",
    "latin": "Y\u0101 maryamuqnut\u012b lirabbiki wasjud\u012b warka\u2018\u012b ma\u2018ar-r\u0101ki\u2018\u012bn(a).  ",
    "translation": "Wahai Maryam, taatlah kepada Tuhanmu, sujudlah, dan rukuklah bersama orang-orang yang rukuk.\u201d",
    "no_footnote": null,
    "footnotes": null,
    "surah": {
        "id": 3,
        "arabic": " \u0627\u0670\u0644 \u0639\u0645\u0631\u0670\u0646",
        "latin": "\u0100li \u2018Imr\u0101n",
        "transliteration": "Ali \u2018Imran",
        "translation": "Keluarga Imran",
        "num_ayah": 200,
        "page": 50,
        "location": "Madaniyah"
    },
    "tafsir": {
        "wajiz": "Wahai Maryam! Sebagai wujud rasa syukurmu kepada Allah, maka taatilah Tuhanmu dengan penuh kesungguhan dan konsisten, serta sujud dan rukuklah bersama orang-orang yang rukuk.\u201d ",
        "tahlili": "Allah mewajibkan kepada Maryam untuk taat kepada-Nya sebagai tanda syukur atas nikmat yang dianugerahkan-Nya kepadanya, dengan firman-Nya yang artinya, \u201cTaatilah hai Maryam Tuhanmu, bersujudlah, dan rukuklah bersama orang-orang yang ruku\u201d'. Yang dimaksud dengan \u201csujud\u201c di sini adalah sujud seperti sujud dalam salat dan dimaksudkan dengan \u201cruku\u201d ialah salat itu sendiri. Ayat ini memerintahkan kepada Maryam agar melakukan salat berjamaah bersama-sama orang lain.\nSalat menurut pengertian orang Yahudi waktu itu ialah: doa atau bersujud. Sujud dengan meletakkan dahi ke tanah atau ke lantai itu salat mereka, semua ibadah yang dilakukan Maryam bertempat di mihrab.",
        "intro_surah": "Surah ketiga adalah \u0100li \u2018Imr\u0101n (Keluarga Imran) yang terdiri atas 200 ayat. Surah ini termasuk golongan Madaniyah. Dinamakan \u0100li \u2018Imr\u0101n, karena dalam surah ini terdapat kisah keluarga Imran dan keturunannya, kelahiran Nabi Isa a.s., yang dilahirkan oleh Maryam putri Imran, persamaan kejadian Isa dengan Adam a.s., dan mukjizat yang diberikan Allah kepada Nabi Isa.\nSurah al-Baqarah dan surah \u0100li \u2018Imr\u0101n dinamakan az-Zahraw\u0101ni (dua surah yang cemerlang), karena kedua surah ini mengungkapkan hal-hal yang disembunyikan oleh Ahli Kitab, seperti kejadian kelahiran Nabi Isa a.s., kedatangan Nabi Muhammad saw, dan sebagainya.\nPokok-pokok isinya\n1. Keimanan\nDalil-dalil yang membantah perkataan orang Nasrani yang mengakui Isa a.s., adalah salah satu dari oknum-oknum Tuhan yang tiga. Ketauhidan adalah dasar dari agama-agama yang dibawa para nabi.\n2. Hukum-hukum\nAsas musyawarah; mub\u0101halah dan hukum riba.\n3. Kisah-kisah\nKisah keluarga Imran, Perang Badar dan Perang Uhud dan pelajaran yang dapat diambil daripadanya.\n4. Lain-lain\nDalam surah ini disebutkan beberapa golongan manusia dalam memahami ayat-ayat mutasyabihat, sifat-sifat Allah, sifat-sifat orang yang bertakwa, agama Islam adalah agama yang diridai Allah, akibat menjadikan orang kafir sebagai teman kepercayaan, pengambilan perjanjian para nabi oleh Allah; perumpamaan-perumpamaan peringatan kepada orang mukmin; Ka\u2018bah adalah rumah ibadah yang paling tua; faedah mengingat Allah dan merenungkan ciptaan-Nya.\n ",
        "outro_surah": null,
        "munasabah_prev_surah": "HUBUNGAN ANTARA SURAH AL-BAQARAH\nDENGAN SURAH \u0100LI \u2018IMR\u0100N\n1. Dalam surah al-Baqarah disebutkan bahwa Nabi Adam a.s. langsung diciptakan Allah, sedang dalam surah Ali Imran disebutkan tentang kelahiran Nabi Isa a.s. yang kedua-duanya di luar kebiasaan.\n2.\tDalam surah al-Baqarah dibahas secara luas sifat dan perbuatan orang Yahudi, disertai dengan hujah-hujah yang membantah dan membetulkan kesesatan mereka, sedang dalam surah \u0100li \u2018Imr\u0101n dipaparkan hal-hal yang sama yang berhubungan dengan orang Nasrani.\n3.\tSurah al-Baqarah dimulai dengan menyebut tiga golongan manusia, yaitu orang mukmin, orang kafir dan orang munafik, sedang surah \u0100li \u2018Imr\u0101n menyebutkan orang-orang yang suka menakwilkan ayat-ayat yang mutasyabihat dengan takwil yang salah untuk memfitnah orang-orang mukmin dan menyebutkan orang yang mempunyai keahlian dalam menakwilkannya.\n4.\tSurah al-Baqarah diakhiri dengan menyebutkan permohonan kepada Allah agar diampuni atas kesalahan-kesalahan dan kealpaan dalam melaksanakan ketaatan, sedang surah \u0100li \u2018Imr\u0101n disudahi dengan permohonan kepada Allah agar memberi pahala atas amal kebaikan hamba-Nya.\n5.\tSurah al-Baqarah diakhiri dengan pengakuan terhadap kekuasaan Allah dan pertolongannya, sedang surah \u0100li \u2018Imr\u0101n dimulai dengan menyebutkan bahwa Tuhan yang mereka mintakan pertolongan tersebut, adalah Tuhan yang hidup kekal abadi dan mengurus semua urusan makhluk-Nya.",
        "munasabah_prev_theme": "Pada ayat-ayat yang lalu diterangkan bahwa tanda mencintai Allah adalah melakukan segala perintah-Nya dan meninggalkan larangan-Nya, serta kesuksesan dan kemenangan umat Islam tergantung pada ketundukan mereka kepada Allah serta kepada Rasul-Nya, maka pada ayat-ayat berikut diterangkan tentang perihal orang-orang yang dicintai dan dipilih Allah, serta dijadikan-Nya rasul untuk menjelaskan kepada umatnya bagaimana cara mencintai Allah yaitu dengan beriman kepada-Nya serta taat dan mengamalkan perbuatan yang diridai-Nya.",
        "theme_group": "KEUTAMAAN KELUARGA IMRAN",
        "kosakata": "\u0100la \u2018Imr\u0101n (\u0100lu \u2018Imr\u0101n) adalah keluarga Imran. Keluarga Imran dalam ayat ini termasuk ayah Maryam, yang punya silsilah panjang sebagai pemuka-pemuka agama. Imran sendiri, ayah Maryam, dikenal sebagai orang besar yang saleh di kalangan pemuka agama Bani Israil. Istrinya bernazar kepada Tuhan bahwa bayi yang dalam kandungannya akan dibiarkan mengabdi kepada Tuhan dengan harapan akan mendapat anak laki-laki. Tetapi yang lahir ternyata anak perempuan Maryam (\u0100li \u2018Imr\u0101n/3: 34-36), yang dalam syariat Musa tidak dapat diabdikan untuk pelayan rumah suci. Diduga Imran meninggal ketika putrinya belum lahir, sehingga harus dipelihara oleh orang lain dengan cara diundi, Maryam kemudian dipelihara oleh Zakaria, ayah Yahya Pembaptis. Mereka semua termasuk keluarga Imran. Imran sendiri adalah anak Masan, kakek Nabi Isa dari pihak ibu, tapi tidak kita temukan silsilahnya yang berurutan, selain disebutkan bahwa ujungnya sampai kepada Nabi Sulaiman dan bermuara pada Nabi Ibrahim melalui Yehuda, Yaqub anak Ishak.\nAdapun Imran (dalam Bibel Amran) ayah Musa, anak Lewi, juga bermuara pada Nabi Ibrahim melalui Yaqub anak Ishak. Dan \u201cSebagai keturunan yang satu dengan yang lain....\u201d (\u0100li \u2018Imr\u0101n/3:34), maka rasul-rasul Allah sejak Adam sampai Nuh dan Ibrahim, sampai ke rasul terakhir, Muhammad saw, membentuk suatu persaudaraan dari keturunan Israil dan Ismail melalui Ibrahim, masing-masing dari Ishak dan dari Ismail. Jarak waktu antara kedua Imran itu 1800 tahun.\nWalaupun kita tidak banyak menemukan data mengenai Maria dan ayahnya dalam Perjanjian Baru, di dalam Al-Qur\u2032an Maryam disebutkan: \u201c\u2026 para malaikat berkata: \u2018Wahai Maryam! Sesungguhnya Allah telah memilihmu, menyucikanmu dan melebihkanmu di atas segala perempuan di seluruh alam (pada masa itu)\u2026\u201d (\u0100li \u2018Imr\u0101n/3:42).",
        "sabab_nuzul": null,
        "conclusion": null
    }
}