{
    "id": 392,
    "surah_id": 3,
    "ayah": 99,
    "page": 62,
    "quarter_hizb": 7,
    "juz": 4,
    "manzil": 1,
    "arabic": "\u0642\u064f\u0644\u0652 \u064a\u0670\u0653\u0627\u064e\u0647\u0652\u0644\u064e \u0627\u0644\u0652\u0643\u0650\u062a\u0670\u0628\u0650 \u0644\u0650\u0645\u064e \u062a\u064e\u0635\u064f\u062f\u0651\u064f\u0648\u0652\u0646\u064e \u0639\u064e\u0646\u0652 \u0633\u064e\u0628\u0650\u064a\u0652\u0644\u0650 \u0627\u0644\u0644\u0651\u0670\u0647\u0650 \u0645\u064e\u0646\u0652 \u0627\u0670\u0645\u064e\u0646\u064e \u062a\u064e\u0628\u0652\u063a\u064f\u0648\u0652\u0646\u064e\u0647\u064e\u0627 \u0639\u0650\u0648\u064e\u062c\u064b\u0627 \u0648\u0651\u064e\u0627\u064e\u0646\u0652\u062a\u064f\u0645\u0652 \u0634\u064f\u0647\u064e\u062f\u064e\u0627\u06e4\u0621\u064f \u06d7 \u0648\u064e\u0645\u064e\u0627 \u0627\u0644\u0644\u0651\u0670\u0647\u064f \u0628\u0650\u063a\u064e\u0627\u0641\u0650\u0644\u064d \u0639\u064e\u0645\u0651\u064e\u0627 \u062a\u064e\u0639\u0652\u0645\u064e\u0644\u064f\u0648\u0652\u0646\u064e ",
    "latin": "Qul y\u0101 ahlal-kit\u0101bi lima ta\u1e63udd\u016bna \u2018an sab\u012blill\u0101hi man \u0101mana tabg\u016bnah\u0101 \u2018iwajaw wa antum syuhad\u0101'(u), wa mall\u0101hu big\u0101filin \u2018amm\u0101 ta\u2018mal\u016bn(a).",
    "translation": "Katakanlah (Nabi Muhammad), \u201cWahai Ahlulkitab, mengapa kamu terus-menerus menghalang-halangi orang-orang yang beriman dari jalan Allah? Kamu (memang) menghendakinya (jalan Allah itu) menjadi bengkok, sedangkan kamu menyaksikan.110) Allah tidak lengah terhadap apa yang kamu kerjakan.\u201d",
    "no_footnote": "110",
    "footnotes": "110) Maksud menyaksikan adalah mengetahui bahwa agama yang diridai Allah Swt. adalah agama Islam.",
    "surah": {
        "id": 3,
        "arabic": " \u0627\u0670\u0644 \u0639\u0645\u0631\u0670\u0646",
        "latin": "\u0100li \u2018Imr\u0101n",
        "transliteration": "Ali \u2018Imran",
        "translation": "Keluarga Imran",
        "num_ayah": 200,
        "page": 50,
        "location": "Madaniyah"
    },
    "tafsir": {
        "wajiz": "Katakanlah, wahai Nabi Muhammad, \u201cWahai Ahli Kitab!\" Setelah kamu kufur, mengapa kamu terus menghalang-halangi dan berusaha memalingkan orang-orang yang beriman dari jalan Allah, kamu menghendakinya (jalan Allah) yang lurus menjadi bengkok, padahal kamu menyaksikan, yaitu mengetahui bahwa apa yang disampaikan oleh Nabi Muhammad adalah benar? Dan Allah tidak lengah terhadap apa yang kamu kerjakan secara terang-terangan maupun sembunyi-sembunyi, baik di masa lampau, sekarang, maupun yang akan datang. Sesungguhnya kalian telah sesat dan menyesatkan.",
        "tahlili": "Ahli Kitab menginginkan agar agama Allah menyimpang dari tujuan yang benar dengan mengubah sifat-sifat Muhammad dan membuat-buat dusta kepada Allah, padahal mereka menanti-nantikan kenabian Muhammad saw di dalam hati kecil mereka sendiri. Allah mengutuk sifat dengki yang tersembunyi dalam dada para pemimpin Ahli Kitab. Allah sekali-kali tidak akan lengah tentang kepalsuan mereka.",
        "intro_surah": "Surah ketiga adalah \u0100li \u2018Imr\u0101n (Keluarga Imran) yang terdiri atas 200 ayat. Surah ini termasuk golongan Madaniyah. Dinamakan \u0100li \u2018Imr\u0101n, karena dalam surah ini terdapat kisah keluarga Imran dan keturunannya, kelahiran Nabi Isa a.s., yang dilahirkan oleh Maryam putri Imran, persamaan kejadian Isa dengan Adam a.s., dan mukjizat yang diberikan Allah kepada Nabi Isa.\nSurah al-Baqarah dan surah \u0100li \u2018Imr\u0101n dinamakan az-Zahraw\u0101ni (dua surah yang cemerlang), karena kedua surah ini mengungkapkan hal-hal yang disembunyikan oleh Ahli Kitab, seperti kejadian kelahiran Nabi Isa a.s., kedatangan Nabi Muhammad saw, dan sebagainya.\nPokok-pokok isinya\n1. Keimanan\nDalil-dalil yang membantah perkataan orang Nasrani yang mengakui Isa a.s., adalah salah satu dari oknum-oknum Tuhan yang tiga. Ketauhidan adalah dasar dari agama-agama yang dibawa para nabi.\n2. Hukum-hukum\nAsas musyawarah; mub\u0101halah dan hukum riba.\n3. Kisah-kisah\nKisah keluarga Imran, Perang Badar dan Perang Uhud dan pelajaran yang dapat diambil daripadanya.\n4. Lain-lain\nDalam surah ini disebutkan beberapa golongan manusia dalam memahami ayat-ayat mutasyabihat, sifat-sifat Allah, sifat-sifat orang yang bertakwa, agama Islam adalah agama yang diridai Allah, akibat menjadikan orang kafir sebagai teman kepercayaan, pengambilan perjanjian para nabi oleh Allah; perumpamaan-perumpamaan peringatan kepada orang mukmin; Ka\u2018bah adalah rumah ibadah yang paling tua; faedah mengingat Allah dan merenungkan ciptaan-Nya.\n ",
        "outro_surah": null,
        "munasabah_prev_surah": "HUBUNGAN ANTARA SURAH AL-BAQARAH\nDENGAN SURAH \u0100LI \u2018IMR\u0100N\n1. Dalam surah al-Baqarah disebutkan bahwa Nabi Adam a.s. langsung diciptakan Allah, sedang dalam surah Ali Imran disebutkan tentang kelahiran Nabi Isa a.s. yang kedua-duanya di luar kebiasaan.\n2.\tDalam surah al-Baqarah dibahas secara luas sifat dan perbuatan orang Yahudi, disertai dengan hujah-hujah yang membantah dan membetulkan kesesatan mereka, sedang dalam surah \u0100li \u2018Imr\u0101n dipaparkan hal-hal yang sama yang berhubungan dengan orang Nasrani.\n3.\tSurah al-Baqarah dimulai dengan menyebut tiga golongan manusia, yaitu orang mukmin, orang kafir dan orang munafik, sedang surah \u0100li \u2018Imr\u0101n menyebutkan orang-orang yang suka menakwilkan ayat-ayat yang mutasyabihat dengan takwil yang salah untuk memfitnah orang-orang mukmin dan menyebutkan orang yang mempunyai keahlian dalam menakwilkannya.\n4.\tSurah al-Baqarah diakhiri dengan menyebutkan permohonan kepada Allah agar diampuni atas kesalahan-kesalahan dan kealpaan dalam melaksanakan ketaatan, sedang surah \u0100li \u2018Imr\u0101n disudahi dengan permohonan kepada Allah agar memberi pahala atas amal kebaikan hamba-Nya.\n5.\tSurah al-Baqarah diakhiri dengan pengakuan terhadap kekuasaan Allah dan pertolongannya, sedang surah \u0100li \u2018Imr\u0101n dimulai dengan menyebutkan bahwa Tuhan yang mereka mintakan pertolongan tersebut, adalah Tuhan yang hidup kekal abadi dan mengurus semua urusan makhluk-Nya.",
        "munasabah_prev_theme": "Setelah ayat yang lalu mengemukakan dalil-dalil atas kenabian Nabi Muhammad saw dan sanggahan Ahli Kitab terhadapnya serta jawaban atas sanggahan itu sehingga hujah mereka dikalahkan, maka ayat ini mencela kekafiran mereka dengan menyuruh Nabi Muhammad mengatakan kepada mereka, \u201cMengapa Ahli Kitab itu masih mengingkari ayat-ayat Allah yang telah jelas membuktikan kebenaran Muhammad dan menghalangi orang-orang yang beriman? Allah menyaksikan perbuatan mereka dan akan membalas mereka dengan balasan yang setimpal.\u201d",
        "theme_group": "KEINGKARAN AHLI KITAB TERHADAP AGAMA ISLAM",
        "kosakata": "Kosakata: Ta\u1e63udd\u016bn \u062a\u064e\u0635\u064f\u062f\u0651\u064f\u0648\u0652\u0646\u064e (\u0100li \u2018Imr\u0101n/3: 99)\nTa\u1e63udd\u016bn yang berakar kata \u1e63adda, ya\u1e63uddu, a\u1e63\u1e63addu secara etimologis ber-arti \u201cmemalingkan\u201d (an-Nis\u0101'/4: 61) \u201cmencegah\u201d (al-\u1e24ajj/22: 25; al-Baqarah/2: 217), \u201cmenghalangi\u201d (an-Naml/27:24) \u201cmenentang\u201d Mu\u1e25ammad/47:1). Dalam ayat ini (99) dikritik perilaku Ahli Kitab yang acapkali menghalang-halangi, menentang, dan lain-lain, orang yang telah beriman dalam menjalankan keimanannya. Hal ini mereka lakukan dengan tujuan supaya orang yang telah beriman kembali kepada perilaku sebelumnya.",
        "sabab_nuzul": null,
        "conclusion": "Para Ahli Kitab walaupun dalam hati kecilnya mempercayai kenabian Nabi Muhammad, namun mereka selalu berusaha dengan berbagai cara dan alasan untuk mengingkarinya dan memberikan gambaran yang keliru tentang agama Islam."
    }
}