{
    "id": 367,
    "surah_id": 3,
    "ayah": 74,
    "page": 59,
    "quarter_hizb": 6.5,
    "juz": 3,
    "manzil": 1,
    "arabic": "\u064a\u064e\u062e\u0652\u062a\u064e\u0635\u0651\u064f \u0628\u0650\u0631\u064e\u062d\u0652\u0645\u064e\u062a\u0650\u0647\u0656 \u0645\u064e\u0646\u0652 \u064a\u0651\u064e\u0634\u064e\u0627\u06e4\u0621\u064f  \u06d7\u0648\u064e\u0627\u0644\u0644\u0651\u0670\u0647\u064f \u0630\u064f\u0648 \u0627\u0644\u0652\u0641\u064e\u0636\u0652\u0644\u0650 \u0627\u0644\u0652\u0639\u064e\u0638\u0650\u064a\u0652\u0645\u0650",
    "latin": "Yakhta\u1e63\u1e63u bira\u1e25matih\u012b may yasy\u0101'(u), wall\u0101hu \u017cul-fa\u1e0dlil-\u2018a\u1e93\u012bm(i).  ",
    "translation": "Dia menentukan rahmat-Nya kepada siapa yang Dia kehendaki dan Allah memiliki karunia yang besar.",
    "no_footnote": null,
    "footnotes": null,
    "surah": {
        "id": 3,
        "arabic": " \u0627\u0670\u0644 \u0639\u0645\u0631\u0670\u0646",
        "latin": "\u0100li \u2018Imr\u0101n",
        "transliteration": "Ali \u2018Imran",
        "translation": "Keluarga Imran",
        "num_ayah": 200,
        "page": 50,
        "location": "Madaniyah"
    },
    "tafsir": {
        "wajiz": "Dia juga menentukan rahmat-Nya, yakni kenabian dan risalah, kepada siapa yang Dia kehendaki. Allah memiliki karunia yang besar, tidak seorang pun bisa melawan-Nya dan menghalangi-Nya kepada siapa karunia itu akan diberikan. Rangkaian ayat-ayat ini mengajari manusia agar tidak dengki atas karunia yang Allah berikan kepada orang lain, sebab hal itu hanya akan mendorong seseorang melakukan perilaku buruk lainnya.",
        "tahlili": "Rahmat Allah yang diberikan kepada nabi adalah suatu karunia Allah semata. Karunia Allah sangat luas dan rahmat-Nya merata pada setiap hamba-Nya. Tak ada seorang pun yang dapat mempengaruhi Allah dalam memberikan karunia itu. Maka Allah berhak untuk menambah rahmat dan karunia-Nya kepada hamba-Nya sesuai dengan keadilan-Nya, tidak seperti pendapat Ahli Kitab bahwa rahmat Allah dan karunia-Nya, untuk mereka saja. Dengan demikian Allah mempunyai kekuasaan yang tak terbatas untuk mengutus nabi menurut kehendak-Nya. Jika Allah mengutus seorang nabi dari satu bangsa tertentu, hal itu semata-mata karena limpahan karunia dan rahmat-Nya semata. \nDari ayat ini dapat dipahami bahwa penilaian Allah terhadap seseorang pada dasarnya adalah sama. Tidak ada seorang pun yang melebihi orang lain kecuali dengan takwanya. Keutamaan itu hanyalah datang dari Allah yang diberikan kepada seseorang menurut kehendak-Nya.",
        "intro_surah": "Surah ketiga adalah \u0100li \u2018Imr\u0101n (Keluarga Imran) yang terdiri atas 200 ayat. Surah ini termasuk golongan Madaniyah. Dinamakan \u0100li \u2018Imr\u0101n, karena dalam surah ini terdapat kisah keluarga Imran dan keturunannya, kelahiran Nabi Isa a.s., yang dilahirkan oleh Maryam putri Imran, persamaan kejadian Isa dengan Adam a.s., dan mukjizat yang diberikan Allah kepada Nabi Isa.\nSurah al-Baqarah dan surah \u0100li \u2018Imr\u0101n dinamakan az-Zahraw\u0101ni (dua surah yang cemerlang), karena kedua surah ini mengungkapkan hal-hal yang disembunyikan oleh Ahli Kitab, seperti kejadian kelahiran Nabi Isa a.s., kedatangan Nabi Muhammad saw, dan sebagainya.\nPokok-pokok isinya\n1. Keimanan\nDalil-dalil yang membantah perkataan orang Nasrani yang mengakui Isa a.s., adalah salah satu dari oknum-oknum Tuhan yang tiga. Ketauhidan adalah dasar dari agama-agama yang dibawa para nabi.\n2. Hukum-hukum\nAsas musyawarah; mub\u0101halah dan hukum riba.\n3. Kisah-kisah\nKisah keluarga Imran, Perang Badar dan Perang Uhud dan pelajaran yang dapat diambil daripadanya.\n4. Lain-lain\nDalam surah ini disebutkan beberapa golongan manusia dalam memahami ayat-ayat mutasyabihat, sifat-sifat Allah, sifat-sifat orang yang bertakwa, agama Islam adalah agama yang diridai Allah, akibat menjadikan orang kafir sebagai teman kepercayaan, pengambilan perjanjian para nabi oleh Allah; perumpamaan-perumpamaan peringatan kepada orang mukmin; Ka\u2018bah adalah rumah ibadah yang paling tua; faedah mengingat Allah dan merenungkan ciptaan-Nya.\n ",
        "outro_surah": null,
        "munasabah_prev_surah": "HUBUNGAN ANTARA SURAH AL-BAQARAH\nDENGAN SURAH \u0100LI \u2018IMR\u0100N\n1. Dalam surah al-Baqarah disebutkan bahwa Nabi Adam a.s. langsung diciptakan Allah, sedang dalam surah Ali Imran disebutkan tentang kelahiran Nabi Isa a.s. yang kedua-duanya di luar kebiasaan.\n2.\tDalam surah al-Baqarah dibahas secara luas sifat dan perbuatan orang Yahudi, disertai dengan hujah-hujah yang membantah dan membetulkan kesesatan mereka, sedang dalam surah \u0100li \u2018Imr\u0101n dipaparkan hal-hal yang sama yang berhubungan dengan orang Nasrani.\n3.\tSurah al-Baqarah dimulai dengan menyebut tiga golongan manusia, yaitu orang mukmin, orang kafir dan orang munafik, sedang surah \u0100li \u2018Imr\u0101n menyebutkan orang-orang yang suka menakwilkan ayat-ayat yang mutasyabihat dengan takwil yang salah untuk memfitnah orang-orang mukmin dan menyebutkan orang yang mempunyai keahlian dalam menakwilkannya.\n4.\tSurah al-Baqarah diakhiri dengan menyebutkan permohonan kepada Allah agar diampuni atas kesalahan-kesalahan dan kealpaan dalam melaksanakan ketaatan, sedang surah \u0100li \u2018Imr\u0101n disudahi dengan permohonan kepada Allah agar memberi pahala atas amal kebaikan hamba-Nya.\n5.\tSurah al-Baqarah diakhiri dengan pengakuan terhadap kekuasaan Allah dan pertolongannya, sedang surah \u0100li \u2018Imr\u0101n dimulai dengan menyebutkan bahwa Tuhan yang mereka mintakan pertolongan tersebut, adalah Tuhan yang hidup kekal abadi dan mengurus semua urusan makhluk-Nya.",
        "munasabah_prev_theme": "Di dalam ayat-ayat yang lalu, diterangkan ajakan Nabi Muhammad kepada para Ahli Kitab agar kembali kepada prinsip dan jiwa agama, yang sesuai dengan agama yang dibawa oleh para Nabi yang betul-betul adil, yaitu ajakan pada agama tauhid dan tidak mempersekutukan Allah. Dia juga menjelaskan bahwa bantah membantah yang terjadi di antara orang-orang Yahudi dan orang-orang Nasrani tentang agama Nabi Ibrahim, tidak didasarkan pada kebenaran. Kemudian ditegaskan bahwa agama yang dipeluk Nabi Ibrahim a.s. ialah agama tauhid. Maka orang yang berhak mengaku sebagai pengikut Nabi Ibrahim ialah orang yang memeluk agama yang sesuai dengan prinsip-prinsip dan jiwa agama Nabi Ibrahim. Dalam ayat ini diterangkan sikap dan perbuatan orang Yahudi yang sangat buruk, yaitu usaha mereka untuk menyesatkan umat Islam dengan jalan menimbulkan berbagai persoalan yang meragukan pada orang mukmin.",
        "theme_group": "SIKAP AHLI KITAB TERHADAP ISLAM",
        "kosakata": "Kosakata: Talbis\u016bn \u062a\u064e\u0644\u0652\u0628\u0650\u0633\u064f\u0648\u0652\u0646\u064e (\u0100li \u2018Imr\u0101n/3: 71)\nTalbis\u016bn merupakan bentuk jamak dari kata kerja labisa-yalbisu yang artinya berpakaian, menutupi, mengaburkan, dan mencampuradukkan. Yang dimaksud pada ayat ini adalah upaya untuk mengaburkan atau menutupi kebenaran dengan mencampuradukkan antara yang benar dan yang batil, baik melalui penakwilan, maupun beragam alasan dan dalih. Tujuan yang ingin dicapai dengan upaya ini adalah untuk menyesatkan. Cara yang ditempuh dalam pencampuradukan kebenaran dengan kebatilan ini dapat dengan propaganda. Sebagian isinya memang benar, bahkan bisa jadi banyak yang benar. Namun, di celah-celah kebenaran itu ternyata telah disisipkan kebohongan-kebohongan dalam bentuk yang halus, sehingga tidak terdeteksi oleh para pendengarnya, kecuali mereka yang jeli dan teliti. Kebohongan itu sengaja disertakan dengan tujuan untuk menyesatkan masyarakat. Oleh sebab itu, Allah mempertanyakan sikap mereka yang mencampuradukkan kebenaran dengan kebatilan padahal mereka telah menerima informasi tentang kebenaran tersebut.",
        "sabab_nuzul": null,
        "conclusion": "1.\tAhli Kitab selalu berusaha untuk menyesatkan umat Islam dengan jalan menimbulkan keraguan di hati mereka, agar mereka menjadi kafir kembali seperti semula. Tipu daya mereka itu sebenarnya akan menimpa diri mereka sendiri, yaitu menjauhkan mereka dari kebenaran.\n2.\tKarena kedengkian yang telah bersarang dalam dada Ahli Kitab, mereka berani mengingkari kebenaran yang nyata tentang berita kedatangan Nabi Muhammad sebagaimana yang termuat dalam Kitab Taurat dan Injil.\n3.\tOrang Yahudi berusaha mengacaukan umat Islam dari dalam. Mereka pura-pura masuk Islam kemudian murtad. Hal ini untuk menimbulkan kesan pada Muslim yang lemah imannya agar mereka ragu terhadap agama Islam.\n4.\tDalam usaha mengacau umat Islam dari dalam mereka memutarbalikkan prinsip yang penting. Mereka mengatakan bahwa kenabian dan kerasulan hanya bagi orang Yahudi saja, sekalipun mereka meyakini bahwa kenabian itu dapat diberikan Allah kepada siapa saja yang dikehendaki-Nya."
    }
}