{
    "id": 482,
    "surah_id": 3,
    "ayah": 189,
    "page": 75,
    "quarter_hizb": 8.25,
    "juz": 4,
    "manzil": 1,
    "arabic": "\u0648\u064e\u0644\u0650\u0644\u0651\u0670\u0647\u0650 \u0645\u064f\u0644\u0652\u0643\u064f \u0627\u0644\u0633\u0651\u064e\u0645\u0670\u0648\u0670\u062a\u0650 \u0648\u064e\u0627\u0644\u0652\u0627\u064e\u0631\u0652\u0636\u0650\u06d7 \u0648\u064e\u0627\u0644\u0644\u0651\u0670\u0647\u064f \u0639\u064e\u0644\u0670\u0649 \u0643\u064f\u0644\u0651\u0650 \u0634\u064e\u064a\u0652\u0621\u064d \u0642\u064e\u062f\u0650\u064a\u0652\u0631\u064c \u08d6 ",
    "latin": "Wa lill\u0101hi mulkus-sam\u0101w\u0101ti wal-ar\u1e0d(i), wall\u0101hu \u2018al\u0101 kulli syai'in qad\u012br(un).",
    "translation": "Milik Allahlah kerajaan langit dan bumi. Allah Maha Kuasa atas segala sesuatu.",
    "no_footnote": null,
    "footnotes": null,
    "surah": {
        "id": 3,
        "arabic": " \u0627\u0670\u0644 \u0639\u0645\u0631\u0670\u0646",
        "latin": "\u0100li \u2018Imr\u0101n",
        "transliteration": "Ali \u2018Imran",
        "translation": "Keluarga Imran",
        "num_ayah": 200,
        "page": 50,
        "location": "Madaniyah"
    },
    "tafsir": {
        "wajiz": "Dan milik Allah-lah seluruh kerajaan langit dan bumi dengan segala isinya, dan Allah Mahakuasa atas segala sesuatu terhadap ciptaan-Nya dengan memberinya kehidupan dan rezeki, mengatur, mematikan, membalas, dan menghitung setiap amal perbuatan manusia. ",
        "tahlili": "Kerajaan langit dan bumi dikuasai Allah, diberikan kepada orang yang dikehendaki-Nya. Allah Mahakuasa atas segala sesuatu, tidaklah sulit bagi-Nya memberikan pertolongan dan memenangkan kaum Muslimin atas Ahli Kitab dan para musyrikin yang menyakiti mereka dengan perbuatan-perbuatan dan ucapan-ucapan.",
        "intro_surah": "Surah ketiga adalah \u0100li \u2018Imr\u0101n (Keluarga Imran) yang terdiri atas 200 ayat. Surah ini termasuk golongan Madaniyah. Dinamakan \u0100li \u2018Imr\u0101n, karena dalam surah ini terdapat kisah keluarga Imran dan keturunannya, kelahiran Nabi Isa a.s., yang dilahirkan oleh Maryam putri Imran, persamaan kejadian Isa dengan Adam a.s., dan mukjizat yang diberikan Allah kepada Nabi Isa.\nSurah al-Baqarah dan surah \u0100li \u2018Imr\u0101n dinamakan az-Zahraw\u0101ni (dua surah yang cemerlang), karena kedua surah ini mengungkapkan hal-hal yang disembunyikan oleh Ahli Kitab, seperti kejadian kelahiran Nabi Isa a.s., kedatangan Nabi Muhammad saw, dan sebagainya.\nPokok-pokok isinya\n1. Keimanan\nDalil-dalil yang membantah perkataan orang Nasrani yang mengakui Isa a.s., adalah salah satu dari oknum-oknum Tuhan yang tiga. Ketauhidan adalah dasar dari agama-agama yang dibawa para nabi.\n2. Hukum-hukum\nAsas musyawarah; mub\u0101halah dan hukum riba.\n3. Kisah-kisah\nKisah keluarga Imran, Perang Badar dan Perang Uhud dan pelajaran yang dapat diambil daripadanya.\n4. Lain-lain\nDalam surah ini disebutkan beberapa golongan manusia dalam memahami ayat-ayat mutasyabihat, sifat-sifat Allah, sifat-sifat orang yang bertakwa, agama Islam adalah agama yang diridai Allah, akibat menjadikan orang kafir sebagai teman kepercayaan, pengambilan perjanjian para nabi oleh Allah; perumpamaan-perumpamaan peringatan kepada orang mukmin; Ka\u2018bah adalah rumah ibadah yang paling tua; faedah mengingat Allah dan merenungkan ciptaan-Nya.\n ",
        "outro_surah": null,
        "munasabah_prev_surah": "HUBUNGAN ANTARA SURAH AL-BAQARAH\nDENGAN SURAH \u0100LI \u2018IMR\u0100N\n1. Dalam surah al-Baqarah disebutkan bahwa Nabi Adam a.s. langsung diciptakan Allah, sedang dalam surah Ali Imran disebutkan tentang kelahiran Nabi Isa a.s. yang kedua-duanya di luar kebiasaan.\n2.\tDalam surah al-Baqarah dibahas secara luas sifat dan perbuatan orang Yahudi, disertai dengan hujah-hujah yang membantah dan membetulkan kesesatan mereka, sedang dalam surah \u0100li \u2018Imr\u0101n dipaparkan hal-hal yang sama yang berhubungan dengan orang Nasrani.\n3.\tSurah al-Baqarah dimulai dengan menyebut tiga golongan manusia, yaitu orang mukmin, orang kafir dan orang munafik, sedang surah \u0100li \u2018Imr\u0101n menyebutkan orang-orang yang suka menakwilkan ayat-ayat yang mutasyabihat dengan takwil yang salah untuk memfitnah orang-orang mukmin dan menyebutkan orang yang mempunyai keahlian dalam menakwilkannya.\n4.\tSurah al-Baqarah diakhiri dengan menyebutkan permohonan kepada Allah agar diampuni atas kesalahan-kesalahan dan kealpaan dalam melaksanakan ketaatan, sedang surah \u0100li \u2018Imr\u0101n disudahi dengan permohonan kepada Allah agar memberi pahala atas amal kebaikan hamba-Nya.\n5.\tSurah al-Baqarah diakhiri dengan pengakuan terhadap kekuasaan Allah dan pertolongannya, sedang surah \u0100li \u2018Imr\u0101n dimulai dengan menyebutkan bahwa Tuhan yang mereka mintakan pertolongan tersebut, adalah Tuhan yang hidup kekal abadi dan mengurus semua urusan makhluk-Nya.",
        "munasabah_prev_theme": "Dalam ayat-ayat yang lalu dijelaskan tentang gangguan dan kecaman-kecaman kaum Yahudi terhadap Nabi Muhammad saw, dalam ayat ini Allah menjelaskan perbuatan mereka yang aneh-aneh dan tidak wajar, seperti melalaikan ajaran Taurat dan tidak melaksanakannya.",
        "theme_group": "BEBERAPA KEBURUKAN AHLI KITAB",
        "kosakata": "Kosakata: Naba\u017c\u016bhu\u0646\u064e\u0628\u064e\u0630\u064f\u0648\u0652\u0647\u064f (\u0100li \u2018Imr\u0101n/3: 187)\nKata naba\u017ca-yanbi\u017cu berarti \u201cmelemparkan\u201d, \u201cmeremehkan\u201d, \u201cme-ngingkari\u201d. Minuman yang berasal dari perasan anggur atau kurma disebut nabi\u017c. Arti dari asal kata ini yaitu nab\u017c adalah \u201cmembuang sesuatu yang tidak berguna seperti sandal yang rusak\u201d. Dalam ayat ini, naba\u017ca berarti melemparkan atau mengabaikan/meremehkan, sehingga naba\u017c\u016bhu maknanya \u201cmereka melemparkannya\u201d. Kata ini dikaitkan dengan sikap pemuka agama Yahudi, yaitu ketika mereka mengetahui keterangan-keterangan dari Kitab Taurat dan janji Allah, mereka menyembunyikan dan mengabaikannya. Sikap seperti ini muncul karena adanya rasa benci dan dengki terhadap Nabi Muhammad saw. Ungkapan naba\u017c\u016bhu war\u0101\u2019a \u1e93uh\u016brihim (melemparkan ke belakang punggung) merupakan kiasan dari pengabaian secara penuh. Kata melemparkan saja sudah cukup untuk menunjukkan pengabaian, apa lagi kalau pelemparan itu ke belakang punggung.",
        "sabab_nuzul": null,
        "conclusion": "1.\tOrang-orang yang diberi Kitab telah diambil janjinya, agar isi Kitab itu diterangkan kepada manusia dan jangan sekali-kali disembunyikan. Tetapi mereka menyalahi janjinya, bahkan mereka menukarnya dengan harga yang sedikit. Perbuatan mereka itu adalah buruk.\n2.\tKegembiraan Ahli Kitab atas pekerjaan yang telah mereka kerjakan dan kesenangan mereka dipuji atas perbuatan yang tidak mereka kerjakan, mereka menyangka bahwa mereka terlepas dari siksa. Mereka akan mendapat azab yang sangat pedih. Allah yang menguasai langit dan bumi Mahakuasa menentukan segala sesuatu."
    }
}