{
    "id": 417,
    "surah_id": 3,
    "ayah": 124,
    "page": 66,
    "quarter_hizb": 7.25,
    "juz": 4,
    "manzil": 1,
    "arabic": "\u0627\u0650\u0630\u0652 \u062a\u064e\u0642\u064f\u0648\u0652\u0644\u064f \u0644\u0650\u0644\u0652\u0645\u064f\u0624\u0652\u0645\u0650\u0646\u0650\u064a\u0652\u0646\u064e \u0627\u064e\u0644\u064e\u0646\u0652 \u064a\u0651\u064e\u0643\u0652\u0641\u0650\u064a\u064e\u0643\u064f\u0645\u0652 \u0627\u064e\u0646\u0652 \u064a\u0651\u064f\u0645\u0650\u062f\u0651\u064e\u0643\u064f\u0645\u0652 \u0631\u064e\u0628\u0651\u064f\u0643\u064f\u0645\u0652 \u0628\u0650\u062b\u064e\u0644\u0670\u062b\u064e\u0629\u0650 \u0627\u0670\u0644\u064e\u0627\u0641\u064d \u0645\u0651\u0650\u0646\u064e \u0627\u0644\u0652\u0645\u064e\u0644\u0670\u06e4\u0649\u0655\u0650\u0643\u064e\u0629\u0650 \u0645\u064f\u0646\u0652\u0632\u064e\u0644\u0650\u064a\u0652\u0646\u064e\u06d7",
    "latin": "I\u017c taq\u016blu lil-mu'min\u012bna alay yakfiyakum ay yumiddakum rabbukum bi\u1e61al\u0101\u1e61ati \u0101l\u0101fim minal-mal\u0101'ikati munzal\u012bn(a).",
    "translation": "(Ingatlah) ketika engkau (Nabi Muhammad) mengatakan kepada orang-orang mukmin, \u201cApakah tidak cukup bagimu bahwa Tuhanmu membantumu dengan tiga ribu malaikat yang diturunkan (dari langit)?\u201d",
    "no_footnote": null,
    "footnotes": null,
    "surah": {
        "id": 3,
        "arabic": " \u0627\u0670\u0644 \u0639\u0645\u0631\u0670\u0646",
        "latin": "\u0100li \u2018Imr\u0101n",
        "transliteration": "Ali \u2018Imran",
        "translation": "Keluarga Imran",
        "num_ayah": 200,
        "page": 50,
        "location": "Madaniyah"
    },
    "tafsir": {
        "wajiz": "Ayat ini menggambarkan upaya Rasulullah sebagai pemimpin untuk menyemangati umat Islam yang akan ikut Perang Uhud. Ingatlah, ketika engkau, wahai Nabi Muhammad, mengatakan kepada orang-orang beriman, \u201cApakah tidak cukup bagimu bahwa Allah membantu kamu dengan bantuan yang tidak tampak, yaitu tiga ribu malaikat yang diturunkan dari langit?\u201d",
        "tahlili": "Untuk lebih memperkuat hati dan tekad kaum Muslimin dalam menghadapi Perang Uhud ini, Nabi mengatakan kepada mereka bahwa mereka akan dibantu oleh Allah dengan 3.000 malaikat. Apabila mereka sabar dan tabah menghadapi segala bahaya dan bertakwa, Allah akan membantu mereka dengan 5.000 malaikat.\nMenurut riwayat A\u1e0d-\u1e0ca\u1e25\u1e25\u0101k, bantuan dengan 5.000 malaikat ini adalah janji dari Allah yang dijanjikan-Nya kepada Muhammad jika kaum Muslimin sabar dan bertakwa. Ibnu Zaid meriwayatkan, ketika kaum Muslimin melihat banyaknya tentara kaum musyrikin dan lengkapnya persiapan mereka, mereka bertanya kepada Rasulullah saw, \u201cApakah dalam perang Uhud ini Allah tidak akan membantu kita sebagaimana Dia telah membantu kita dalam Perang Badar?\u201d Maka turunlah ayat ini.\nMemang dalam Perang Badar Allah telah membantu kaum Muslimin dengan 1000 malaikat sebagai tersebut dalam firman-Nya:\n\u0627\u0650\u0630\u0652 \u062a\u064e\u0633\u0652\u062a\u064e\u063a\u0650\u064a\u0652\u062b\u064f\u0648\u0652\u0646\u064e \u0631\u064e\u0628\u0651\u064e\u0643\u064f\u0645\u0652 \u0641\u064e\u0627\u0633\u0652\u062a\u064e\u062c\u064e\u0627\u0628\u064e \u0644\u064e\u0643\u064f\u0645\u0652 \u0627\u064e\u0646\u0651\u0650\u064a\u0652 \u0645\u064f\u0645\u0650\u062f\u0651\u064f\u0643\u064f\u0645\u0652 \u0628\u0650\u0627\u064e\u0644\u0652\u0641\u064d \u0645\u0651\u0650\u0646\u064e \u0627\u0644\u0652\u0645\u064e\u0644\u0670\u06e4\u0649\u0655\u0650\u0643\u064e\u0629\u0650 \u0645\u064f\u0631\u0652\u062f\u0650\u0641\u0650\u064a\u0652\u0646\u064e \u0669 (\u0627\u0644\u0627\u0646\u0641\u0627\u0644)\n(Ingatlah), ketika kamu memohon pertolongan kepada Tuhanmu, lalu diperkenankan-Nya bagimu, \u201cSungguh, Aku akan mendatangkan bala bantuan kepadamu dengan seribu malaikat yang datang berturut-turut.\u201d (al-Anf\u0101l/8:9).\nPada mulanya dalam Perang Uhud ini pasukan kaum Muslimin sudah dapat mengacaubalaukan musuh sehingga banyak di antara kaum musyrik yang lari kocar-kacir meninggalkan harta benda mereka, dan mulailah tentara Islam berebut mengambil harta benda itu sebagai ganimah (rampasan). Melihat keadaan ini para pemanah diperintahkan oleh Nabi Muhammad saw agar tetap bertahan di tempatnya, apa pun yang terjadi. Menyangka kaum musyrikin telah kalah, para pemanah pun meninggalkan tempat mereka dan turun untuk ikut mengambil harta ganimah.\nKarena tempat itu telah ditinggalkan pasukan pemanah, Khalid bin Walid panglima musyrikin Quraisy waktu itu, dengan pasukan berkudanya naik ke tempat itu dan mendudukinya, lalu menghujani kaum Muslimin dengan anak panah dari belakang sehingga terjadilah kekacauan dan kepanikan di kalangan kaum Muslimin. Dalam keadaan kacau balau itu kaum musyrikin mencoba hendak mendekati markas Nabi saw, tetapi para sahabat dapat mempertahankannya walaupun Nabi sendiri mendapat luka di bagian muka, bibirnya serta giginya pecah.\nAkhirnya berkat kesetiaan mereka membela Nabi dan kegigihan mereka mempertahankan posisinya, mereka bersama Nabi naik kembali ke bukit Uhud dengan selamat. Dengan demikian berakhirlah pertempuran dan pulanglah kaum musyrikin menuju Mekah dengan rasa kecewa karena tidak dapat mengalahkan Muhammad dan pasukannya, walaupun mereka sendiri masih selamat dari kehancuran. ",
        "intro_surah": "Surah ketiga adalah \u0100li \u2018Imr\u0101n (Keluarga Imran) yang terdiri atas 200 ayat. Surah ini termasuk golongan Madaniyah. Dinamakan \u0100li \u2018Imr\u0101n, karena dalam surah ini terdapat kisah keluarga Imran dan keturunannya, kelahiran Nabi Isa a.s., yang dilahirkan oleh Maryam putri Imran, persamaan kejadian Isa dengan Adam a.s., dan mukjizat yang diberikan Allah kepada Nabi Isa.\nSurah al-Baqarah dan surah \u0100li \u2018Imr\u0101n dinamakan az-Zahraw\u0101ni (dua surah yang cemerlang), karena kedua surah ini mengungkapkan hal-hal yang disembunyikan oleh Ahli Kitab, seperti kejadian kelahiran Nabi Isa a.s., kedatangan Nabi Muhammad saw, dan sebagainya.\nPokok-pokok isinya\n1. Keimanan\nDalil-dalil yang membantah perkataan orang Nasrani yang mengakui Isa a.s., adalah salah satu dari oknum-oknum Tuhan yang tiga. Ketauhidan adalah dasar dari agama-agama yang dibawa para nabi.\n2. Hukum-hukum\nAsas musyawarah; mub\u0101halah dan hukum riba.\n3. Kisah-kisah\nKisah keluarga Imran, Perang Badar dan Perang Uhud dan pelajaran yang dapat diambil daripadanya.\n4. Lain-lain\nDalam surah ini disebutkan beberapa golongan manusia dalam memahami ayat-ayat mutasyabihat, sifat-sifat Allah, sifat-sifat orang yang bertakwa, agama Islam adalah agama yang diridai Allah, akibat menjadikan orang kafir sebagai teman kepercayaan, pengambilan perjanjian para nabi oleh Allah; perumpamaan-perumpamaan peringatan kepada orang mukmin; Ka\u2018bah adalah rumah ibadah yang paling tua; faedah mengingat Allah dan merenungkan ciptaan-Nya.\n ",
        "outro_surah": null,
        "munasabah_prev_surah": "HUBUNGAN ANTARA SURAH AL-BAQARAH\nDENGAN SURAH \u0100LI \u2018IMR\u0100N\n1. Dalam surah al-Baqarah disebutkan bahwa Nabi Adam a.s. langsung diciptakan Allah, sedang dalam surah Ali Imran disebutkan tentang kelahiran Nabi Isa a.s. yang kedua-duanya di luar kebiasaan.\n2.\tDalam surah al-Baqarah dibahas secara luas sifat dan perbuatan orang Yahudi, disertai dengan hujah-hujah yang membantah dan membetulkan kesesatan mereka, sedang dalam surah \u0100li \u2018Imr\u0101n dipaparkan hal-hal yang sama yang berhubungan dengan orang Nasrani.\n3.\tSurah al-Baqarah dimulai dengan menyebut tiga golongan manusia, yaitu orang mukmin, orang kafir dan orang munafik, sedang surah \u0100li \u2018Imr\u0101n menyebutkan orang-orang yang suka menakwilkan ayat-ayat yang mutasyabihat dengan takwil yang salah untuk memfitnah orang-orang mukmin dan menyebutkan orang yang mempunyai keahlian dalam menakwilkannya.\n4.\tSurah al-Baqarah diakhiri dengan menyebutkan permohonan kepada Allah agar diampuni atas kesalahan-kesalahan dan kealpaan dalam melaksanakan ketaatan, sedang surah \u0100li \u2018Imr\u0101n disudahi dengan permohonan kepada Allah agar memberi pahala atas amal kebaikan hamba-Nya.\n5.\tSurah al-Baqarah diakhiri dengan pengakuan terhadap kekuasaan Allah dan pertolongannya, sedang surah \u0100li \u2018Imr\u0101n dimulai dengan menyebutkan bahwa Tuhan yang mereka mintakan pertolongan tersebut, adalah Tuhan yang hidup kekal abadi dan mengurus semua urusan makhluk-Nya.",
        "munasabah_prev_theme": "Setelah kaum Muslimin dilarang menjadikan orang-orang kafir yang memusuhi Islam sebagai teman akrab, dan diharuskan bersifat sabar dan takwa di dalam menghadapi tipu daya mereka, maka pada ayat-ayat ini mereka diingatkan kepada kisah Perang Uhud dan apa yang dialami oleh tentara Islam, akibat melanggar perintah pemimpin mereka.",
        "theme_group": "PERANG UHUD",
        "kosakata": "Kosakata: Yumiddukum \u064a\u064f\u0645\u0650\u062f\u0651\u064f\u0643\u064f\u0645\u0652 (\u0100li \u2018Imr\u0101n/3:124)\nAmadda-yumiddu adalah bentuk muta\u2018addi (transitif) dari madda-yamuddu yang berarti \u201cmemanjangkan\u201d dan \u201cmerentangkan\u201d. Kata ini dalam berbagai bentuknya disebutkan 32 kali. Kata madad berarti \u201cpertolongan\u201d. Kata yumiddu di dalam Al-Qur\u2019an menunjukkan arti \u201cmenolong\u201d, sebagaimana di dalam Surah \u0100li \u2018Imr\u0101n/3:124 dan 125. Sedangkan kata madda-yamuddu berarti \u201cmembantu\u201d sebagaimana di dalam surah al-A\u2018r\u0101f/7:202; berarti \u201cmembentangkan\u201d (ar-Ra\u2018d/13:3); berarti \u201cmemanjangkan\u201d (Maryam/19:75); berarti \u201cmenambah\u201d ( Luqm\u0101n/31:27). Al-Qur\u2019an banyak menggunakan kata yumiddu dalam bentuk ruba\u2019i dalam hal-hal yang positif (a\u1e6d-\u1e6c\u016br/52:22), sementara dalam bentuk \u1e61ula\u1e61i (yamuddu) untuk hal-hal yang negatif (al-Baqarah/2: 15)",
        "sabab_nuzul": null,
        "conclusion": null
    }
}