{
    "id": 477,
    "surah_id": 3,
    "ayah": 184,
    "page": 74,
    "quarter_hizb": 8,
    "juz": 4,
    "manzil": 1,
    "arabic": "\u0641\u064e\u0627\u0650\u0646\u0652 \u0643\u064e\u0630\u0651\u064e\u0628\u064f\u0648\u0652\u0643\u064e \u0641\u064e\u0642\u064e\u062f\u0652 \u0643\u064f\u0630\u0651\u0650\u0628\u064e \u0631\u064f\u0633\u064f\u0644\u064c \u0645\u0651\u0650\u0646\u0652 \u0642\u064e\u0628\u0652\u0644\u0650\u0643\u064e \u062c\u064e\u0627\u06e4\u0621\u064f\u0648\u0652 \u0628\u0650\u0627\u0644\u0652\u0628\u064e\u064a\u0651\u0650\u0646\u0670\u062a\u0650 \u0648\u064e\u0627\u0644\u0632\u0651\u064f\u0628\u064f\u0631\u0650 \u0648\u064e\u0627\u0644\u0652\u0643\u0650\u062a\u0670\u0628\u0650 \u0627\u0644\u0652\u0645\u064f\u0646\u0650\u064a\u0652\u0631\u0650",
    "latin": "Fa in ka\u017c\u017cab\u016bka faqad ku\u017c\u017ciba rusulum min qablika j\u0101'\u016b bil-bayyin\u0101ti waz-zuburi wal-kit\u0101bil-mun\u012br(i).",
    "translation": "Maka, jika mereka mendustakanmu (Nabi Muhammad), sungguh rasul-rasul sebelummu pun telah didustakan. Mereka datang dengan (membawa) mukjizat-mukjizat yang nyata, zubur,142) dan Alkitab yang memberi penjelasan yang sempurna.",
    "no_footnote": "142",
    "footnotes": "142) Zubur adalah lembaran-lembaran kalam suci, seperti suhuf Nabi Ibrahim a.s. dan Nabi Musa a.s.",
    "surah": {
        "id": 3,
        "arabic": " \u0627\u0670\u0644 \u0639\u0645\u0631\u0670\u0646",
        "latin": "\u0100li \u2018Imr\u0101n",
        "transliteration": "Ali \u2018Imran",
        "translation": "Keluarga Imran",
        "num_ayah": 200,
        "page": 50,
        "location": "Madaniyah"
    },
    "tafsir": {
        "wajiz": "Maka jika mereka mendustakan dan menolak risalah engkau, wahai Nabi Muhammad, serta berpaling dari agama, maka ketahuilah bahwa rasul-rasul sebelum engkau pun telah didustaka pula, mereka membawa mukjizat-mukjizat atau bukti-bukti yang nyata, Zubur kitab samawi yang berisi hikmah-hikmah yang terang serta nasihat-nasihat yang memikat, dan Kitab samawi lainnya; Taurat, Injil, dan Al-Qur\u2019an, yang memberi penjelasan yang sempurna tentang hukum-hukum syariat.",
        "tahlili": "Kalau mereka masih juga tetap mendustakan kamu, sekalipun kamu telah menunjukkan mukjizat-mukjizat yang nyata dan Kitab yang membimbing ke jalan yang benar, maka janganlah engkau gusar dan cemas atas kekerasan hati dan kekufuran mereka.\nHal yang seperti itu telah dialami pula oleh rasul-rasul sebelummu. Mereka telah diberi apa yang telah diberikan kepada kamu seperti mukjizat-mukjizat yang nyata. Allah telah mendatangkan \u1e60u\u1e25uf, yaitu lembaran-lembaran yang berisi wahyu yang diberikan kepada nabi-nabi sebelum kamu yang isinya mengandung hikmah dan juga telah mendatangkan Kitab yang memberikan penjelasan yang sempurna, berisi hukum syariat seperti Taurat, Injil dan Zabur. Mereka tetap sabar dan tabah menghadapi perbuatan yang menyakitkan hati dari orang-orang yang mengingkari mereka.",
        "intro_surah": "Surah ketiga adalah \u0100li \u2018Imr\u0101n (Keluarga Imran) yang terdiri atas 200 ayat. Surah ini termasuk golongan Madaniyah. Dinamakan \u0100li \u2018Imr\u0101n, karena dalam surah ini terdapat kisah keluarga Imran dan keturunannya, kelahiran Nabi Isa a.s., yang dilahirkan oleh Maryam putri Imran, persamaan kejadian Isa dengan Adam a.s., dan mukjizat yang diberikan Allah kepada Nabi Isa.\nSurah al-Baqarah dan surah \u0100li \u2018Imr\u0101n dinamakan az-Zahraw\u0101ni (dua surah yang cemerlang), karena kedua surah ini mengungkapkan hal-hal yang disembunyikan oleh Ahli Kitab, seperti kejadian kelahiran Nabi Isa a.s., kedatangan Nabi Muhammad saw, dan sebagainya.\nPokok-pokok isinya\n1. Keimanan\nDalil-dalil yang membantah perkataan orang Nasrani yang mengakui Isa a.s., adalah salah satu dari oknum-oknum Tuhan yang tiga. Ketauhidan adalah dasar dari agama-agama yang dibawa para nabi.\n2. Hukum-hukum\nAsas musyawarah; mub\u0101halah dan hukum riba.\n3. Kisah-kisah\nKisah keluarga Imran, Perang Badar dan Perang Uhud dan pelajaran yang dapat diambil daripadanya.\n4. Lain-lain\nDalam surah ini disebutkan beberapa golongan manusia dalam memahami ayat-ayat mutasyabihat, sifat-sifat Allah, sifat-sifat orang yang bertakwa, agama Islam adalah agama yang diridai Allah, akibat menjadikan orang kafir sebagai teman kepercayaan, pengambilan perjanjian para nabi oleh Allah; perumpamaan-perumpamaan peringatan kepada orang mukmin; Ka\u2018bah adalah rumah ibadah yang paling tua; faedah mengingat Allah dan merenungkan ciptaan-Nya.\n ",
        "outro_surah": null,
        "munasabah_prev_surah": "HUBUNGAN ANTARA SURAH AL-BAQARAH\nDENGAN SURAH \u0100LI \u2018IMR\u0100N\n1. Dalam surah al-Baqarah disebutkan bahwa Nabi Adam a.s. langsung diciptakan Allah, sedang dalam surah Ali Imran disebutkan tentang kelahiran Nabi Isa a.s. yang kedua-duanya di luar kebiasaan.\n2.\tDalam surah al-Baqarah dibahas secara luas sifat dan perbuatan orang Yahudi, disertai dengan hujah-hujah yang membantah dan membetulkan kesesatan mereka, sedang dalam surah \u0100li \u2018Imr\u0101n dipaparkan hal-hal yang sama yang berhubungan dengan orang Nasrani.\n3.\tSurah al-Baqarah dimulai dengan menyebut tiga golongan manusia, yaitu orang mukmin, orang kafir dan orang munafik, sedang surah \u0100li \u2018Imr\u0101n menyebutkan orang-orang yang suka menakwilkan ayat-ayat yang mutasyabihat dengan takwil yang salah untuk memfitnah orang-orang mukmin dan menyebutkan orang yang mempunyai keahlian dalam menakwilkannya.\n4.\tSurah al-Baqarah diakhiri dengan menyebutkan permohonan kepada Allah agar diampuni atas kesalahan-kesalahan dan kealpaan dalam melaksanakan ketaatan, sedang surah \u0100li \u2018Imr\u0101n disudahi dengan permohonan kepada Allah agar memberi pahala atas amal kebaikan hamba-Nya.\n5.\tSurah al-Baqarah diakhiri dengan pengakuan terhadap kekuasaan Allah dan pertolongannya, sedang surah \u0100li \u2018Imr\u0101n dimulai dengan menyebutkan bahwa Tuhan yang mereka mintakan pertolongan tersebut, adalah Tuhan yang hidup kekal abadi dan mengurus semua urusan makhluk-Nya.",
        "munasabah_prev_theme": "Pembahasan ayat-ayat yang terdahulu berkisar tentang dorongan untuk mengorbankan jiwa dalam berjuang di jalan Allah dan pahala yang akan diberikan kepada pejuang tersebut, yaitu penghormatan di sisi Allah di dalam surga. Ayat ini mendorong orang untuk berkorban dengan jiwa dan harta di jalan Allah dan menjelaskan akibat dari kekikiran seseorang yang enggan membayar zakat dan infak.",
        "theme_group": "BALASAN TERHADAP ORANG KIKIR \nDAN PENDUSTA",
        "kosakata": "Kosakata: Sayu\u1e6dawwaq\u016bn \u0633\u064e\u064a\u064f\u0637\u064e\u0648\u0651\u064e\u0642\u064f\u0648\u0652\u0646\u064e (\u0100li \u2018Imr\u0101n/3: 180)\n Sayu\u1e6dawwaq\u016bn artinya \u201cdikalungkan\u201d terambil dari kata al-\u1e6dawq yaitu sesuatu yang dikalungkan di leher baik itu berupa tali pengikat yang akan membatasi gerak atau berupa kalung rantai emas atau perak yang dikalungkan di leher sebagai perhiasan. Dalam ayat ini dijelaskan bahwa orang yang kikir dan enggan menafkahkan hartanya, kelak harta itu akan mencekik leher mereka. Kata Sayu\u1e6dawwaq\u016bn dalam ayat ini digunakan sebagai tasybih (penyerupaan) dari terbatasnya gerak dan tersiksanya binatang yang dikalungi tali. Tersiksanya orang-orang yang kikir dengan dosa kekikiran yang dikalungkan di leher mereka di akhirat kelak.",
        "sabab_nuzul": null,
        "conclusion": "1.\tOrang yang bakhil yang tidak mau menginfakkan apa yang telah diberikan Allah, diperingatkan agar jangan menyangka bahwa perbuatan itu baik, tetapi itu adalah buruk baginya. Harta yang tidak diinfakkan itu akan diwujudkan sebagai ular dan dikalungkan di lehernya kelak di hari kiamat.\n2.\tOrang-orang Yahudi yang mengatakan bahwa Allah fakir dan mereka adalah orang-orang yang kaya dan perbuatan mereka membunuh nabi-nabi tanpa alasan yang benar, semua itu dicatat dan diperhatikan oleh Allah dan mereka diancam dengan azab yang pedih.\n3.\tOrang-orang Yahudi yang mendustakan Nabi Muhammad saw sekalipun beliau menunjukkan bukti-bukti yang benar, mereka tidak akan mempercayainya karena memang demikian sifat-sifat mereka. Rasul-rasul sebelumnya juga telah membawa bukti-bukti dan mukjizat yang nyata seperti kitab-kitab suci yang memberikan penjelasan yang sempurna dan membuktikan apa-apa yang mereka minta, tetapi mereka tetap mendustakan."
    }
}