{
    "id": 432,
    "surah_id": 3,
    "ayah": 139,
    "page": 67,
    "quarter_hizb": 7.5,
    "juz": 4,
    "manzil": 1,
    "arabic": "\u0648\u064e\u0644\u064e\u0627 \u062a\u064e\u0647\u0650\u0646\u064f\u0648\u0652\u0627 \u0648\u064e\u0644\u064e\u0627 \u062a\u064e\u062d\u0652\u0632\u064e\u0646\u064f\u0648\u0652\u0627 \u0648\u064e\u0627\u064e\u0646\u0652\u062a\u064f\u0645\u064f \u0627\u0644\u0652\u0627\u064e\u0639\u0652\u0644\u064e\u0648\u0652\u0646\u064e \u0627\u0650\u0646\u0652 \u0643\u064f\u0646\u0652\u062a\u064f\u0645\u0652 \u0645\u0651\u064f\u0624\u0652\u0645\u0650\u0646\u0650\u064a\u0652\u0646\u064e ",
    "latin": "Wa l\u0101 tahin\u016b wa l\u0101 ta\u1e25zan\u016b wa antumul-a\u2018launa in kuntum mu'min\u012bn(a).",
    "translation": "Janganlah kamu (merasa) lemah dan jangan (pula) bersedih hati, padahal kamu paling tinggi (derajatnya) jika kamu orang-orang mukmin.",
    "no_footnote": null,
    "footnotes": null,
    "surah": {
        "id": 3,
        "arabic": " \u0627\u0670\u0644 \u0639\u0645\u0631\u0670\u0646",
        "latin": "\u0100li \u2018Imr\u0101n",
        "transliteration": "Ali \u2018Imran",
        "translation": "Keluarga Imran",
        "num_ayah": 200,
        "page": 50,
        "location": "Madaniyah"
    },
    "tafsir": {
        "wajiz": "Setelah menjelaskan sunatullah dan bagaimana kesudahan orangorang yang melanggar sunatullah tersebut, pada ayat ini Allah memberi motivasi agar kesedihan akibat kegagalan dalam Perang Uhud tidak berkepanjangan. Dan janganlah kamu merasa lemah menghadapi musuh, dan jangan pula bersedih hati karena kekalahan dalam Perang Uhud, sebab kamu paling tinggi derajatnya di sisi Allah, jika kamu orang beriman dengan sebenar-benarnya. ",
        "tahlili": " Ayat ini menghendaki agar kaum Muslimin jangan bersifat lemah dan bersedih hati, meskipun mereka mengalami pukulan berat dan penderitaan yang cukup pahit dalam Perang Uhud, karena kalah atau menang dalam suatu peperangan adalah hal biasa yang termasuk dalam ketentuan Allah. Yang demikian itu hendaklah dijadikan pelajaran. Kaum Muslimin dalam peperangan sebenarnya mempunyai mental yang kuat dan semangat yang tinggi serta lebih unggul jika mereka benar-benar beriman.",
        "intro_surah": "Surah ketiga adalah \u0100li \u2018Imr\u0101n (Keluarga Imran) yang terdiri atas 200 ayat. Surah ini termasuk golongan Madaniyah. Dinamakan \u0100li \u2018Imr\u0101n, karena dalam surah ini terdapat kisah keluarga Imran dan keturunannya, kelahiran Nabi Isa a.s., yang dilahirkan oleh Maryam putri Imran, persamaan kejadian Isa dengan Adam a.s., dan mukjizat yang diberikan Allah kepada Nabi Isa.\nSurah al-Baqarah dan surah \u0100li \u2018Imr\u0101n dinamakan az-Zahraw\u0101ni (dua surah yang cemerlang), karena kedua surah ini mengungkapkan hal-hal yang disembunyikan oleh Ahli Kitab, seperti kejadian kelahiran Nabi Isa a.s., kedatangan Nabi Muhammad saw, dan sebagainya.\nPokok-pokok isinya\n1. Keimanan\nDalil-dalil yang membantah perkataan orang Nasrani yang mengakui Isa a.s., adalah salah satu dari oknum-oknum Tuhan yang tiga. Ketauhidan adalah dasar dari agama-agama yang dibawa para nabi.\n2. Hukum-hukum\nAsas musyawarah; mub\u0101halah dan hukum riba.\n3. Kisah-kisah\nKisah keluarga Imran, Perang Badar dan Perang Uhud dan pelajaran yang dapat diambil daripadanya.\n4. Lain-lain\nDalam surah ini disebutkan beberapa golongan manusia dalam memahami ayat-ayat mutasyabihat, sifat-sifat Allah, sifat-sifat orang yang bertakwa, agama Islam adalah agama yang diridai Allah, akibat menjadikan orang kafir sebagai teman kepercayaan, pengambilan perjanjian para nabi oleh Allah; perumpamaan-perumpamaan peringatan kepada orang mukmin; Ka\u2018bah adalah rumah ibadah yang paling tua; faedah mengingat Allah dan merenungkan ciptaan-Nya.\n ",
        "outro_surah": null,
        "munasabah_prev_surah": "HUBUNGAN ANTARA SURAH AL-BAQARAH\nDENGAN SURAH \u0100LI \u2018IMR\u0100N\n1. Dalam surah al-Baqarah disebutkan bahwa Nabi Adam a.s. langsung diciptakan Allah, sedang dalam surah Ali Imran disebutkan tentang kelahiran Nabi Isa a.s. yang kedua-duanya di luar kebiasaan.\n2.\tDalam surah al-Baqarah dibahas secara luas sifat dan perbuatan orang Yahudi, disertai dengan hujah-hujah yang membantah dan membetulkan kesesatan mereka, sedang dalam surah \u0100li \u2018Imr\u0101n dipaparkan hal-hal yang sama yang berhubungan dengan orang Nasrani.\n3.\tSurah al-Baqarah dimulai dengan menyebut tiga golongan manusia, yaitu orang mukmin, orang kafir dan orang munafik, sedang surah \u0100li \u2018Imr\u0101n menyebutkan orang-orang yang suka menakwilkan ayat-ayat yang mutasyabihat dengan takwil yang salah untuk memfitnah orang-orang mukmin dan menyebutkan orang yang mempunyai keahlian dalam menakwilkannya.\n4.\tSurah al-Baqarah diakhiri dengan menyebutkan permohonan kepada Allah agar diampuni atas kesalahan-kesalahan dan kealpaan dalam melaksanakan ketaatan, sedang surah \u0100li \u2018Imr\u0101n disudahi dengan permohonan kepada Allah agar memberi pahala atas amal kebaikan hamba-Nya.\n5.\tSurah al-Baqarah diakhiri dengan pengakuan terhadap kekuasaan Allah dan pertolongannya, sedang surah \u0100li \u2018Imr\u0101n dimulai dengan menyebutkan bahwa Tuhan yang mereka mintakan pertolongan tersebut, adalah Tuhan yang hidup kekal abadi dan mengurus semua urusan makhluk-Nya.",
        "munasabah_prev_theme": "Pada ayat yang lalu dijanjikan untuk memberikan ampunan dan surga kepada orang yang taat dan orang yang bertobat, pada ayat ini Allah menyebutkan hal ihwal umat yang taat dan yang tidak taat pada masa lalu agar orang-orang mukmin mengambil iktibar dan pelajaran daripadanya.",
        "theme_group": "SUNATULLAH",
        "kosakata": "Kosakata: Nud\u0101wilu \u0646\u064f\u062f\u064e\u0627\u0648\u0650\u0644\u064f (\u0100li \u2018Imr\u0101n/3: 140)\nSecara etimologis, nud\u0101wilu yang berakar dari kata d\u0101wala, bermakna \u201cberputar\u201d, \u201cberedar\u201d, \u201cmengedarkan\u201d, atau \u201cbergilir\u201d. Pada surah al-Hasyr/59:7, terdapat kata d\u016blah yang artinya supaya harta itu tidak bergulir pada orang kaya saja. Ayat ini (140) menjelaskan bahwa kejayaan maupun kehancuran akan silih berganti mengenai umat manusia. Bila pada Perang Badar kaum musyrik mendapat kekalahan, maka pada Perang Uhud kaum Muslim mendapat musibah. Pergiliran yang disengaja oleh Allah swt ini dimaksudkan untuk memberi pelajaran kepada mereka yang beriman dan tidak beriman, bahwa hukum sebab akibat yang merupakan sunatullah terus berlaku.",
        "sabab_nuzul": null,
        "conclusion": null
    }
}