{
    "id": 458,
    "surah_id": 3,
    "ayah": 165,
    "page": 71,
    "quarter_hizb": 7.75,
    "juz": 4,
    "manzil": 1,
    "arabic": "\u0627\u064e\u0648\u064e\u0644\u064e\u0645\u0651\u064e\u0627\u0653 \u0627\u064e\u0635\u064e\u0627\u0628\u064e\u062a\u0652\u0643\u064f\u0645\u0652 \u0645\u0651\u064f\u0635\u0650\u064a\u0652\u0628\u064e\u0629\u064c \u0642\u064e\u062f\u0652 \u0627\u064e\u0635\u064e\u0628\u0652\u062a\u064f\u0645\u0652 \u0645\u0651\u0650\u062b\u0652\u0644\u064e\u064a\u0652\u0647\u064e\u0627\u06d9 \u0642\u064f\u0644\u0652\u062a\u064f\u0645\u0652 \u0627\u064e\u0646\u0651\u0670\u0649 \u0647\u0670\u0630\u064e\u0627 \u06d7 \u0642\u064f\u0644\u0652 \u0647\u064f\u0648\u064e \u0645\u0650\u0646\u0652 \u0639\u0650\u0646\u0652\u062f\u0650 \u0627\u064e\u0646\u0652\u0641\u064f\u0633\u0650\u0643\u064f\u0645\u0652 \u06d7 \u0627\u0650\u0646\u0651\u064e \u0627\u0644\u0644\u0651\u0670\u0647\u064e \u0639\u064e\u0644\u0670\u0649 \u0643\u064f\u0644\u0651\u0650 \u0634\u064e\u064a\u0652\u0621\u064d \u0642\u064e\u062f\u0650\u064a\u0652\u0631\u064c ",
    "latin": "Awa lamm\u0101 a\u1e63\u0101batkum mu\u1e63\u012bbatun qad a\u1e63abtum mi\u1e61laih\u0101, qultum ann\u0101 h\u0101\u017c\u0101, qul huwa min \u2018indi anfusikum, innall\u0101ha \u2018al\u0101 kulli syai'in qad\u012br(un).",
    "translation": "Apakah ketika kamu ditimpa musibah (kekalahan pada Perang Uhud), padahal kamu telah memperoleh (kenikmatan) dua kali lipatnya (pada Perang Badar), kamu berkata, \u201cDari mana datangnya (kekalahan) ini?\u201d Katakanlah, \u201cItu dari (kesalahan) dirimu sendiri.\u201d Sesungguhnya Allah Maha Kuasa atas segala sesuatu.",
    "no_footnote": null,
    "footnotes": null,
    "surah": {
        "id": 3,
        "arabic": " \u0627\u0670\u0644 \u0639\u0645\u0631\u0670\u0646",
        "latin": "\u0100li \u2018Imr\u0101n",
        "transliteration": "Ali \u2018Imran",
        "translation": "Keluarga Imran",
        "num_ayah": 200,
        "page": 50,
        "location": "Madaniyah"
    },
    "tafsir": {
        "wajiz": "Setelah dijelaskan bahwa diutusnya Nabi Muhammad adalah karunia Allah yang sangat besar bagi umat manusia, lalu dijelaskan tentang adanya kemenangan dan kekalahan dalam peperangan sesuai dengan ketaatan terhadap hukum kemasyarakatan. Dan mengapa kamu heran ketika ditimpa musibah kegagalan pada Perang Uhud dengan gugurnya 70 orang dari pasukan mukmin, padahal kamu telah menimpakan musibah dua kali lipat kepada musuh-musuhmu pada Perang Badar, kini kamu berkata, \u201cDari mana datangnya kekalahan ini?\u201d Katakanlah, \u201cItu dari kesalahan dirimu sendiri karena kamu meninggalkan tuntunan Rasulullah agar pasukan pemanah tidak meninggalkan tempat hingga peperangan selesai.\u201d Sungguh, Allah Mahakuasa atas segala sesuatu.",
        "tahlili": "Ayat ini masih ada hubungannya dengan ayat tentang kisah Perang Uhud. Pada waktu Perang Uhud 70 dari pasukan Muslimin gugur sebagai syuhada. Di antara mereka ada yang berkata dari manakah dan sebab apakah kita mengalami musibah sedemikian besar? Sedangkan pasukan Muslimin pada Perang Badar telah memperoleh kemenangan besar dengan menjadikan musuh lari kocar-kacir dan dapat menewaskan 70 orang musuh dan menawan 70 orang lagi.\nTerhadap pertanyaan itu Rasulullah dapat perintah untuk menjawab bahwa malapetaka itu adalah karena kesalahan mereka sendiri. Pasukan pemanah oleh Rasulullah diperintahkan bertahan di atas bukit dan tidak boleh meninggalkannya sebelum ada perintah dari beliau. Tetapi mereka telah melanggar perintah itu dan turun meninggalkan bukit untuk ikut mengambil barang ganimah. Dari atas bukit yang ditinggalkan pasukan pemanah itulah musuh menyerbu tentara Islam, sehingga akhirnya mereka mengalami kekalahan. Sesungguhnya Allah Mahakuasa atas segala sesuatu.",
        "intro_surah": "Surah ketiga adalah \u0100li \u2018Imr\u0101n (Keluarga Imran) yang terdiri atas 200 ayat. Surah ini termasuk golongan Madaniyah. Dinamakan \u0100li \u2018Imr\u0101n, karena dalam surah ini terdapat kisah keluarga Imran dan keturunannya, kelahiran Nabi Isa a.s., yang dilahirkan oleh Maryam putri Imran, persamaan kejadian Isa dengan Adam a.s., dan mukjizat yang diberikan Allah kepada Nabi Isa.\nSurah al-Baqarah dan surah \u0100li \u2018Imr\u0101n dinamakan az-Zahraw\u0101ni (dua surah yang cemerlang), karena kedua surah ini mengungkapkan hal-hal yang disembunyikan oleh Ahli Kitab, seperti kejadian kelahiran Nabi Isa a.s., kedatangan Nabi Muhammad saw, dan sebagainya.\nPokok-pokok isinya\n1. Keimanan\nDalil-dalil yang membantah perkataan orang Nasrani yang mengakui Isa a.s., adalah salah satu dari oknum-oknum Tuhan yang tiga. Ketauhidan adalah dasar dari agama-agama yang dibawa para nabi.\n2. Hukum-hukum\nAsas musyawarah; mub\u0101halah dan hukum riba.\n3. Kisah-kisah\nKisah keluarga Imran, Perang Badar dan Perang Uhud dan pelajaran yang dapat diambil daripadanya.\n4. Lain-lain\nDalam surah ini disebutkan beberapa golongan manusia dalam memahami ayat-ayat mutasyabihat, sifat-sifat Allah, sifat-sifat orang yang bertakwa, agama Islam adalah agama yang diridai Allah, akibat menjadikan orang kafir sebagai teman kepercayaan, pengambilan perjanjian para nabi oleh Allah; perumpamaan-perumpamaan peringatan kepada orang mukmin; Ka\u2018bah adalah rumah ibadah yang paling tua; faedah mengingat Allah dan merenungkan ciptaan-Nya.\n ",
        "outro_surah": null,
        "munasabah_prev_surah": "HUBUNGAN ANTARA SURAH AL-BAQARAH\nDENGAN SURAH \u0100LI \u2018IMR\u0100N\n1. Dalam surah al-Baqarah disebutkan bahwa Nabi Adam a.s. langsung diciptakan Allah, sedang dalam surah Ali Imran disebutkan tentang kelahiran Nabi Isa a.s. yang kedua-duanya di luar kebiasaan.\n2.\tDalam surah al-Baqarah dibahas secara luas sifat dan perbuatan orang Yahudi, disertai dengan hujah-hujah yang membantah dan membetulkan kesesatan mereka, sedang dalam surah \u0100li \u2018Imr\u0101n dipaparkan hal-hal yang sama yang berhubungan dengan orang Nasrani.\n3.\tSurah al-Baqarah dimulai dengan menyebut tiga golongan manusia, yaitu orang mukmin, orang kafir dan orang munafik, sedang surah \u0100li \u2018Imr\u0101n menyebutkan orang-orang yang suka menakwilkan ayat-ayat yang mutasyabihat dengan takwil yang salah untuk memfitnah orang-orang mukmin dan menyebutkan orang yang mempunyai keahlian dalam menakwilkannya.\n4.\tSurah al-Baqarah diakhiri dengan menyebutkan permohonan kepada Allah agar diampuni atas kesalahan-kesalahan dan kealpaan dalam melaksanakan ketaatan, sedang surah \u0100li \u2018Imr\u0101n disudahi dengan permohonan kepada Allah agar memberi pahala atas amal kebaikan hamba-Nya.\n5.\tSurah al-Baqarah diakhiri dengan pengakuan terhadap kekuasaan Allah dan pertolongannya, sedang surah \u0100li \u2018Imr\u0101n dimulai dengan menyebutkan bahwa Tuhan yang mereka mintakan pertolongan tersebut, adalah Tuhan yang hidup kekal abadi dan mengurus semua urusan makhluk-Nya.",
        "munasabah_prev_theme": "Setelah ayat yang lalu menceritakan sebagian sifat orang-orang munafik, mereka menuduh Nabi Muhammad saw curang dalam membagi harta rampasan, ayat ini menerangkan bahwa mereka melontarkan lagi tuduhan-tuduhan kepada orang-orang mukmin yang turut berperang bersama Rasulullah saw.\nSabab Nuzul \nUmar bin Kha\u1e6d\u1e6dab dalam menerangkan sebab turun ayat ini berkata, \u201cPasukan Muslim mendapat malapetaka dalam Perang Uhud setelah kemenangan mereka dalam Perang Badar. Mereka banyak menderita kerugian, di antaranya 70 orang mati syahid, sahabat-sahabat Nabi ada yang lari, geraham Nabi pecah, topi baja yang ada di kepala Nabi hancur dan mengalir darah dari kepala Nabi ke dahinya, lalu turunlah ayat ini. ",
        "theme_group": "BEBERAPA SIFAT ORANG-ORANG MUNAFIK",
        "kosakata": "Kosakata: Mu\u1e63\u012bbah \u0645\u064f\u0635\u0650\u064a\u0652\u0628\u064e\u0629\u064c (\u0100li \u2018Imr\u0101n/3:165)\nSecara etimologis, mu\u1e63\u012bbah berarti \u201csesuatu yang menimpa\u201d atau \u201cyang mengenai\u201d. Akar katanya adalah \u1e63-w-b (\u0635- \u0648- \u0628) artinya \u201csesuatu yang benar, tepat, memperoleh apa yang diminta\u201d. Ungkapan musibah digunakan untuk sesuatu yang tidak diinginkan yang menimpa seseorang. Melalui ayat 165 Allah menyatakan bahwa bencana yang menimpa kaum Muslimin dalam Perang Uhud merupakan musibah (ujian atau cobaan). Musibah ini datang dari dalam diri kaum muslim sendiri akibat ketidakpatuhan mereka pada perintah pemimpin mereka untuk tidak meninggalkan posisi yang sudah ditentukan bagi mereka sebelum perang berakhir.",
        "sabab_nuzul": null,
        "conclusion": null
    }
}