{
    "id": 468,
    "surah_id": 3,
    "ayah": 175,
    "page": 73,
    "quarter_hizb": 8,
    "juz": 4,
    "manzil": 1,
    "arabic": "\u0627\u0650\u0646\u0651\u064e\u0645\u064e\u0627 \u0630\u0670\u0644\u0650\u0643\u064f\u0645\u064f \u0627\u0644\u0634\u0651\u064e\u064a\u0652\u0637\u0670\u0646\u064f \u064a\u064f\u062e\u064e\u0648\u0651\u0650\u0641\u064f \u0627\u064e\u0648\u0652\u0644\u0650\u064a\u064e\u0627\u06e4\u0621\u064e\u0647\u0657\u06d6 \u0641\u064e\u0644\u064e\u0627 \u062a\u064e\u062e\u064e\u0627\u0641\u064f\u0648\u0652\u0647\u064f\u0645\u0652 \u0648\u064e\u062e\u064e\u0627\u0641\u064f\u0648\u0652\u0646\u0650 \u0627\u0650\u0646\u0652 \u0643\u064f\u0646\u0652\u062a\u064f\u0645\u0652 \u0645\u0651\u064f\u0624\u0652\u0645\u0650\u0646\u0650\u064a\u0652\u0646\u064e ",
    "latin": "Innam\u0101 \u017c\u0101likumusy-syai\u1e6d\u0101nu yukhawwifu auliy\u0101'ah(\u016b), fal\u0101 takh\u0101f\u016bhum wa kh\u0101f\u016bni in kuntum mu'min\u012bn(a).",
    "translation": "Sesungguhnya mereka hanyalah setan yang menakut-nakuti (kamu) dengan teman-teman setianya.136) Oleh karena itu, janganlah takut kepada mereka, tetapi takutlah kepada-Ku, jika kamu orang-orang mukmin.",
    "no_footnote": "136",
    "footnotes": "136) Lihat catatan kaki surah \u0100li \u2018Imr\u0101n (3): 28.",
    "surah": {
        "id": 3,
        "arabic": " \u0627\u0670\u0644 \u0639\u0645\u0631\u0670\u0646",
        "latin": "\u0100li \u2018Imr\u0101n",
        "transliteration": "Ali \u2018Imran",
        "translation": "Keluarga Imran",
        "num_ayah": 200,
        "page": 50,
        "location": "Madaniyah"
    },
    "tafsir": {
        "wajiz": "Ketahuilah, wahai kaum mukmin, sesungguhnya mereka hanyalah setan yang berusaha untuk menakut-nakuti kamu dengan teman-teman setianya menebarkan rasa takut dalam hati orang-orang beriman, karena itu janganlah kalian takut kepada mereka dan terpengaruh oleh ucapan mereka, tetapi takutlah kepada-Ku Yang Mahakuasa lagi Mahaperkasa, yang memiliki kekuatan tak terkalahkan, jika kamu orang-orang beriman dan yakin akan pertolongan-Ku.",
        "tahlili": "Musuh-musuh yang munafik yang berusaha menakut-nakuti orang-orang mukmin merupakan setan yang mengajak teman-temannya agar jangan ikut berperang dan menakut-nakuti Muslimin dengan menyatakan bahwa jumlah musuh amat banyak dan mempunyai senjata lengkap. Allah memperingatkan agar para mujahidin itu jangan terpengaruh dan jangan ikut mereka, tetapi takutlah kepada Allah dan bersiaplah untuk berperang bersama Rasulullah saw jika kamu sekalian benar-benar beriman.",
        "intro_surah": "Surah ketiga adalah \u0100li \u2018Imr\u0101n (Keluarga Imran) yang terdiri atas 200 ayat. Surah ini termasuk golongan Madaniyah. Dinamakan \u0100li \u2018Imr\u0101n, karena dalam surah ini terdapat kisah keluarga Imran dan keturunannya, kelahiran Nabi Isa a.s., yang dilahirkan oleh Maryam putri Imran, persamaan kejadian Isa dengan Adam a.s., dan mukjizat yang diberikan Allah kepada Nabi Isa.\nSurah al-Baqarah dan surah \u0100li \u2018Imr\u0101n dinamakan az-Zahraw\u0101ni (dua surah yang cemerlang), karena kedua surah ini mengungkapkan hal-hal yang disembunyikan oleh Ahli Kitab, seperti kejadian kelahiran Nabi Isa a.s., kedatangan Nabi Muhammad saw, dan sebagainya.\nPokok-pokok isinya\n1. Keimanan\nDalil-dalil yang membantah perkataan orang Nasrani yang mengakui Isa a.s., adalah salah satu dari oknum-oknum Tuhan yang tiga. Ketauhidan adalah dasar dari agama-agama yang dibawa para nabi.\n2. Hukum-hukum\nAsas musyawarah; mub\u0101halah dan hukum riba.\n3. Kisah-kisah\nKisah keluarga Imran, Perang Badar dan Perang Uhud dan pelajaran yang dapat diambil daripadanya.\n4. Lain-lain\nDalam surah ini disebutkan beberapa golongan manusia dalam memahami ayat-ayat mutasyabihat, sifat-sifat Allah, sifat-sifat orang yang bertakwa, agama Islam adalah agama yang diridai Allah, akibat menjadikan orang kafir sebagai teman kepercayaan, pengambilan perjanjian para nabi oleh Allah; perumpamaan-perumpamaan peringatan kepada orang mukmin; Ka\u2018bah adalah rumah ibadah yang paling tua; faedah mengingat Allah dan merenungkan ciptaan-Nya.\n ",
        "outro_surah": null,
        "munasabah_prev_surah": "HUBUNGAN ANTARA SURAH AL-BAQARAH\nDENGAN SURAH \u0100LI \u2018IMR\u0100N\n1. Dalam surah al-Baqarah disebutkan bahwa Nabi Adam a.s. langsung diciptakan Allah, sedang dalam surah Ali Imran disebutkan tentang kelahiran Nabi Isa a.s. yang kedua-duanya di luar kebiasaan.\n2.\tDalam surah al-Baqarah dibahas secara luas sifat dan perbuatan orang Yahudi, disertai dengan hujah-hujah yang membantah dan membetulkan kesesatan mereka, sedang dalam surah \u0100li \u2018Imr\u0101n dipaparkan hal-hal yang sama yang berhubungan dengan orang Nasrani.\n3.\tSurah al-Baqarah dimulai dengan menyebut tiga golongan manusia, yaitu orang mukmin, orang kafir dan orang munafik, sedang surah \u0100li \u2018Imr\u0101n menyebutkan orang-orang yang suka menakwilkan ayat-ayat yang mutasyabihat dengan takwil yang salah untuk memfitnah orang-orang mukmin dan menyebutkan orang yang mempunyai keahlian dalam menakwilkannya.\n4.\tSurah al-Baqarah diakhiri dengan menyebutkan permohonan kepada Allah agar diampuni atas kesalahan-kesalahan dan kealpaan dalam melaksanakan ketaatan, sedang surah \u0100li \u2018Imr\u0101n disudahi dengan permohonan kepada Allah agar memberi pahala atas amal kebaikan hamba-Nya.\n5.\tSurah al-Baqarah diakhiri dengan pengakuan terhadap kekuasaan Allah dan pertolongannya, sedang surah \u0100li \u2018Imr\u0101n dimulai dengan menyebutkan bahwa Tuhan yang mereka mintakan pertolongan tersebut, adalah Tuhan yang hidup kekal abadi dan mengurus semua urusan makhluk-Nya.",
        "munasabah_prev_theme": "Pada ayat-ayat lalu diterangkan kesombongan orang munafik dan kuatnya hasutan mereka kepada kawan-kawannya untuk tidak ikut berperang dan kekhawatiran mereka terhadap para syuhada dalam Perang Uhud, maka pada ayat ini diterangkan bagaimana kegembiraan dan kebahagiaan para mujahidin dan para syuhada f\u012b sab\u012blill\u0101h ketika mendengar berita tentang para sahabat lainnya yang akan masuk surga bersama mereka dan atas semua kenikmatan yang Allah berikan kepada mereka.",
        "theme_group": "PAHALA ORANG YANG MATI SYAHID",
        "kosakata": "Kosakata: Yastabsyir\u016bn \u064a\u064e\u0633\u0652\u062a\u064e\u0628\u0652\u0634\u0650\u0631\u064f\u0648\u0652\u0646\u064e (\u0100li \u2018Imr\u0101n/3: 170)\nKata yastabsyir\u016bn berasal dari kata kerja basyara-yabsyiru atau basyira-yabsyaru, yang artinya \u201csenang\u201d atau \u201cmenjadi gembira\u201d. Dengan demikian yastabsyir\u016bn maknanya adalah \u201cmereka bergembira\u201d. Pada mulanya akar kata dari kalimat ini (b-sy-r/ \u0628- \u0634- \u0631) yang artinya \u201cmunculnya sesuatu dengan baik dan mudah\u201d. Kata yang berasal dari akar kata yang sama adalah al-basyrah artinya \u201ckulit manusia\u201d, sedangkan manusia disebut al-basyar. Al-bisyra artinya gembira atau bahagia, karena kegembiraan ini memancar pada kulit dan bersinar di wajah orang yang gembira sehingga kegembiraan disebut al-bisyarah, karena membuat wajah orang yang mendapat berita gembira, cerah berseri-seri dan menarik. Lawan bisyarah adalah ni\u1e93arah yaitu \u201ckabar buruk\u201d atau \u201cperingatan\u201d (Ibnu Faris). Dalam kaitan dengan ayat ini, yastabsyir\u016bn menunjukkan pada perasaan yang ada pada para syuhada (pahlawan) yang telah gugur itu, yaitu kegembiraan yang berkaitan dengan teman-teman sejawat mereka yang akan menyusul. Artinya mereka mengetahui bahwa teman-teman mereka kelak akan pula menyusul menjadi pahlawan. Pada sisi lain, penjelasan ini menunjukkan bahwa mereka mempunyai pengetahuan tentang keadaan teman-teman tersebut, sekaligus membuktikan bahwasanya ada kehidupan di alam barzakh yang merupakan persinggahan sementara, sambil menunggu kedatangan hari akhir, yang merupakan awal dari kehidupan akhirat. Kata ini kemudian terulang pada ayat berikutnya, dan ini menunjukkan adanya kegembiraan yang mereka nikmati. Selain itu, pengulangan ini juga merupakan isyarat bahwa kegembiraan itu mencakup diri mereka, teman-teman sejawat, dan siapa pun yang mukmin, walau selain mereka dan teman sejawat mereka.",
        "sabab_nuzul": null,
        "conclusion": "1.\tPara mujahidin f\u012b sab\u012blill\u0101h yang tewas sebagai syuhada tetap hidup di sisi Allah, mendapat nikmat dan karunia yang telah ditentukan untuk mereka.\n2.\tPara syuhada itu memperoleh surga dari Allah dan mereka mengharapkan, teman seperjuangan mereka yang tidak gugur terus berjuang dengan mereka juga memperoleh nikmat serupa.\n3.\tPara mujahidin pada waktu itu meskipun mereka telah mengalami luka tetapi masih sanggup memenuhi panggilan Allah dan Rasul-Nya untuk melanjutkan peperangan.\n4.\tPara Mujahidin tidak mempan untuk ditakut-takuti.\n5.\tIman dan tekad yang kuat akan dibalas Allah dengan kemenangan."
    }
}