{
    "id": 426,
    "surah_id": 3,
    "ayah": 133,
    "page": 67,
    "quarter_hizb": 7.5,
    "juz": 4,
    "manzil": 1,
    "arabic": "\u06de \u0648\u064e\u0633\u064e\u0627\u0631\u0650\u0639\u064f\u0648\u0652\u0653\u0627 \u0627\u0650\u0644\u0670\u0649 \u0645\u064e\u063a\u0652\u0641\u0650\u0631\u064e\u0629\u064d \u0645\u0651\u0650\u0646\u0652 \u0631\u0651\u064e\u0628\u0651\u0650\u0643\u064f\u0645\u0652 \u0648\u064e\u062c\u064e\u0646\u0651\u064e\u0629\u064d \u0639\u064e\u0631\u0652\u0636\u064f\u0647\u064e\u0627 \u0627\u0644\u0633\u0651\u064e\u0645\u0670\u0648\u0670\u062a\u064f \u0648\u064e\u0627\u0644\u0652\u0627\u064e\u0631\u0652\u0636\u06d9\u064f  \u0627\u064f\u0639\u0650\u062f\u0651\u064e\u062a\u0652 \u0644\u0650\u0644\u0652\u0645\u064f\u062a\u0651\u064e\u0642\u0650\u064a\u0652\u0646\u06d9\u064e",
    "latin": "Wa s\u0101ri\u2018\u016b il\u0101 magfiratim mir rabbikum wa jannatin \u2018ar\u1e0duhas-sam\u0101w\u0101tu wal-ar\u1e0d(u), u\u2018iddat lil-muttaq\u012bn(a).",
    "translation": "Bersegeralah menuju ampunan dari Tuhanmu dan surga (yang) luasnya (seperti) langit dan bumi yang disediakan bagi orang-orang yang bertakwa,",
    "no_footnote": null,
    "footnotes": null,
    "surah": {
        "id": 3,
        "arabic": " \u0627\u0670\u0644 \u0639\u0645\u0631\u0670\u0646",
        "latin": "\u0100li \u2018Imr\u0101n",
        "transliteration": "Ali \u2018Imran",
        "translation": "Keluarga Imran",
        "num_ayah": 200,
        "page": 50,
        "location": "Madaniyah"
    },
    "tafsir": {
        "wajiz": "Setelah diperintahkan taat kepada Allah dan Nabi Muhammad, umat Islam diperintahkan juga untuk berlomba meningkatkan kualitas ketakwaan. Dan bersegeralah kamu dengan saling mendahului untuk mencari ampunan dari Tuhanmu dengan menyadari kesalahan dan tidak mengulangi kesalahan yang sama, dan mengerjakan amalan-amalan yang diridai Allah untuk mendapatkan surga yang luasnya seluas langit dan bumi, yang disediakan bagi orang-orang yang bertakwa, yang taat menjalankan perintah dan menjauhi larangan-Nya. ",
        "tahlili": "Allah menyuruh agar kaum Muslimin bersegera meminta ampun kepada-Nya bila sewaktu-waktu berbuat dosa dan maksiat, karena manusia tidak luput dari kesalahan dan kekhilafan. Seorang Muslim tidak akan mau mengerjakan perbuatan yang dilarang, tetapi kadang-kadang karena kuatnya godaan dan tipu daya setan dia terjerumus ke dalam jurang maksiat, kemudian ketika sadar akan kesalahannya dan menyesal atas perbuatan itu dia lalu bertobat dan mohon ampun kepada Allah, maka Allah akan mengampuni dosanya. Allah adalah Maha Penerima tobat dan Maha Pengampun dan Maha Penyayang.\nBila seorang Muslim selalu menaati perintah Allah dan Rasul-Nya dan menjauhi segala larangan-Nya dan segera bertobat bila jatuh ke jurang dosa \ndan maksiat, maka Allah akan mengampuni dosanya dan akan memasukkannya nanti di akhirat ke dalam surga yang amat luas sebagai balasan atas amal yang telah dikerjakannya di dunia yaitu surga yang disediakan-Nya untuk orang yang bertakwa.",
        "intro_surah": "Surah ketiga adalah \u0100li \u2018Imr\u0101n (Keluarga Imran) yang terdiri atas 200 ayat. Surah ini termasuk golongan Madaniyah. Dinamakan \u0100li \u2018Imr\u0101n, karena dalam surah ini terdapat kisah keluarga Imran dan keturunannya, kelahiran Nabi Isa a.s., yang dilahirkan oleh Maryam putri Imran, persamaan kejadian Isa dengan Adam a.s., dan mukjizat yang diberikan Allah kepada Nabi Isa.\nSurah al-Baqarah dan surah \u0100li \u2018Imr\u0101n dinamakan az-Zahraw\u0101ni (dua surah yang cemerlang), karena kedua surah ini mengungkapkan hal-hal yang disembunyikan oleh Ahli Kitab, seperti kejadian kelahiran Nabi Isa a.s., kedatangan Nabi Muhammad saw, dan sebagainya.\nPokok-pokok isinya\n1. Keimanan\nDalil-dalil yang membantah perkataan orang Nasrani yang mengakui Isa a.s., adalah salah satu dari oknum-oknum Tuhan yang tiga. Ketauhidan adalah dasar dari agama-agama yang dibawa para nabi.\n2. Hukum-hukum\nAsas musyawarah; mub\u0101halah dan hukum riba.\n3. Kisah-kisah\nKisah keluarga Imran, Perang Badar dan Perang Uhud dan pelajaran yang dapat diambil daripadanya.\n4. Lain-lain\nDalam surah ini disebutkan beberapa golongan manusia dalam memahami ayat-ayat mutasyabihat, sifat-sifat Allah, sifat-sifat orang yang bertakwa, agama Islam adalah agama yang diridai Allah, akibat menjadikan orang kafir sebagai teman kepercayaan, pengambilan perjanjian para nabi oleh Allah; perumpamaan-perumpamaan peringatan kepada orang mukmin; Ka\u2018bah adalah rumah ibadah yang paling tua; faedah mengingat Allah dan merenungkan ciptaan-Nya.\n ",
        "outro_surah": null,
        "munasabah_prev_surah": "HUBUNGAN ANTARA SURAH AL-BAQARAH\nDENGAN SURAH \u0100LI \u2018IMR\u0100N\n1. Dalam surah al-Baqarah disebutkan bahwa Nabi Adam a.s. langsung diciptakan Allah, sedang dalam surah Ali Imran disebutkan tentang kelahiran Nabi Isa a.s. yang kedua-duanya di luar kebiasaan.\n2.\tDalam surah al-Baqarah dibahas secara luas sifat dan perbuatan orang Yahudi, disertai dengan hujah-hujah yang membantah dan membetulkan kesesatan mereka, sedang dalam surah \u0100li \u2018Imr\u0101n dipaparkan hal-hal yang sama yang berhubungan dengan orang Nasrani.\n3.\tSurah al-Baqarah dimulai dengan menyebut tiga golongan manusia, yaitu orang mukmin, orang kafir dan orang munafik, sedang surah \u0100li \u2018Imr\u0101n menyebutkan orang-orang yang suka menakwilkan ayat-ayat yang mutasyabihat dengan takwil yang salah untuk memfitnah orang-orang mukmin dan menyebutkan orang yang mempunyai keahlian dalam menakwilkannya.\n4.\tSurah al-Baqarah diakhiri dengan menyebutkan permohonan kepada Allah agar diampuni atas kesalahan-kesalahan dan kealpaan dalam melaksanakan ketaatan, sedang surah \u0100li \u2018Imr\u0101n disudahi dengan permohonan kepada Allah agar memberi pahala atas amal kebaikan hamba-Nya.\n5.\tSurah al-Baqarah diakhiri dengan pengakuan terhadap kekuasaan Allah dan pertolongannya, sedang surah \u0100li \u2018Imr\u0101n dimulai dengan menyebutkan bahwa Tuhan yang mereka mintakan pertolongan tersebut, adalah Tuhan yang hidup kekal abadi dan mengurus semua urusan makhluk-Nya.",
        "munasabah_prev_theme": "Pada ayat-ayat yang lalu diterangkan larangan mempraktekkan riba, dan memerintahkan orang Muslim untuk bertakwa agar mendapat rahmat, maka pada ayat-ayat ini datang perintah untuk segera memohon ampunan agar menjadi orang yang bertakwa.",
        "theme_group": "SIFAT-SIFAT ORANG YANG BERTAKWA",
        "kosakata": "Kosakata: K\u0101\u1e93im\u012bn \u0643\u064e\u0627\u0638\u0650\u0645\u0650\u064a\u0652\u0646\u064e (\u0100li \u2018Imr\u0101n/3:134)\nK\u0101\u1e93im berasal dari kata ka\u1e93m yang berarti \u201cmenahan sesuatu agar tidak lepas\u201d. Ka\u1e93amal-ba\u2018\u012bra berarti \u201cmenahan unta agar tidak lari\u201d. Ka\u1e93m al-gai\u1e93 berarti \u201cmenahan amarah dan tidak melampiaskannya\u201d. Kata ka\u1e93im tanpa menyebut gai\u1e93 menunjukkan dua makna, yaitu menahan marah sebagaimana di dalam firman Allah, \u201cDan kedua matanya menjadi putih karena kesedihan dan dia adalah seorang yang menahan amarahnya (terhadap anak-anaknya)\u201d (Y\u016bsuf/12:84) dan menunjuk arti menahan kesedihan sebagaimana di dalam firman Allah, \u201c\u2026Jadilah mukanya hitam pekat sedang dia amat menahan sedih\u201d (az-Zukhruf/43:17). Kata al-ka\u1e93im\u012bn pada ayat di atas dalam bentuk isim fa\u2019il yang mempunyai arti bahwa menahan amarah tersebut sudah menjadi sifat yang menetap pada diri mereka. Tetapi, adakalanya kata ka\u1e93im berarti sama dengan mak\u1e93um, yaitu kesal dan marah, menahan marah termasuk perbuatan ihsan yang disukai Allah.",
        "sabab_nuzul": null,
        "conclusion": null
    }
}