{
    "id": 444,
    "surah_id": 3,
    "ayah": 151,
    "page": 69,
    "quarter_hizb": 7.5,
    "juz": 4,
    "manzil": 1,
    "arabic": "\u0633\u064e\u0646\u064f\u0644\u0652\u0642\u0650\u064a\u0652 \u0641\u0650\u064a\u0652 \u0642\u064f\u0644\u064f\u0648\u0652\u0628\u0650 \u0627\u0644\u0651\u064e\u0630\u0650\u064a\u0652\u0646\u064e \u0643\u064e\u0641\u064e\u0631\u064f\u0648\u0627 \u0627\u0644\u0631\u0651\u064f\u0639\u0652\u0628\u064e \u0628\u0650\u0645\u064e\u0653\u0627 \u0627\u064e\u0634\u0652\u0631\u064e\u0643\u064f\u0648\u0652\u0627 \u0628\u0650\u0627\u0644\u0644\u0651\u0670\u0647\u0650 \u0645\u064e\u0627 \u0644\u064e\u0645\u0652 \u064a\u064f\u0646\u064e\u0632\u0651\u0650\u0644\u0652 \u0628\u0650\u0647\u0656 \u0633\u064f\u0644\u0652\u0637\u0670\u0646\u064b\u0627 \u06da \u0648\u064e\u0645\u064e\u0623\u0652\u0648\u0670\u0649\u0647\u064f\u0645\u064f \u0627\u0644\u0646\u0651\u064e\u0627\u0631\u064f \u06d7 \u0648\u064e\u0628\u0650\u0626\u0652\u0633\u064e \u0645\u064e\u062b\u0652\u0648\u064e\u0649 \u0627\u0644\u0638\u0651\u0670\u0644\u0650\u0645\u0650\u064a\u0652\u0646\u064e ",
    "latin": "Sanulq\u012b f\u012b qul\u016bbil-la\u017c\u012bna kafarur-ru\u2018ba bim\u0101 asyrak\u016b bill\u0101hi m\u0101 lam yunazzil bih\u012b sul\u1e6d\u0101n\u0101(n), wa ma'w\u0101humun n\u0101r(u), wa bi'sa ma\u1e61wa\u1e93-\u1e93\u0101lim\u012bn(a).",
    "translation": "Kami akan memasukkan rasa takut ke dalam hati orang-orang yang kufur karena mereka mempersekutukan Allah dengan sesuatu yang Allah tidak menurunkan keterangan tentangnya. Tempat kembali mereka adalah neraka. (Itulah) seburuk-buruk tempat tinggal (bagi) orang-orang zalim.",
    "no_footnote": null,
    "footnotes": null,
    "surah": {
        "id": 3,
        "arabic": " \u0627\u0670\u0644 \u0639\u0645\u0631\u0670\u0646",
        "latin": "\u0100li \u2018Imr\u0101n",
        "transliteration": "Ali \u2018Imran",
        "translation": "Keluarga Imran",
        "num_ayah": 200,
        "page": 50,
        "location": "Madaniyah"
    },
    "tafsir": {
        "wajiz": "Setelah ditegaskan bahwa Allah adalah penolong yang terbaik, di sini dijelaskan salah satu bentuk pertolongan dimaksud. Yaitu akan Kami lindungi dan tolong kamu dengan masukkan rasa takut ke dalam hati orang-orang kafir, untuk menyerang kaum muslim, hal itu karena mereka mempersekutukan Allah dengan sesuatu yang Allah tidak menurunkan keterangan tentang itu. Dan tempat kembali mereka setelah meninggal dunia ialah neraka. Dan itulah seburuk-buruk tempat tinggal yang abadi bagi orang-orang zalim.",
        "tahlili": "Bentuk pertolongan Allah yang diberikan kepada orang mukmin, dengan membisikkan ke dalam hati orang kafir rasa takut untuk melanjutkan peperangan, karena mereka mempersekutukan Allah. Tempat mereka neraka dan itulah seburuk-buruk tempat tinggal bagi orang-orang yang zalim.\nMemang bagaimanapun hebat dan gagah perkasanya seseorang, ia akan merasa lemah dan tidak dapat berbuat sesuatu, apabila ia telah dihinggapi oleh perasaan takut.",
        "intro_surah": "Surah ketiga adalah \u0100li \u2018Imr\u0101n (Keluarga Imran) yang terdiri atas 200 ayat. Surah ini termasuk golongan Madaniyah. Dinamakan \u0100li \u2018Imr\u0101n, karena dalam surah ini terdapat kisah keluarga Imran dan keturunannya, kelahiran Nabi Isa a.s., yang dilahirkan oleh Maryam putri Imran, persamaan kejadian Isa dengan Adam a.s., dan mukjizat yang diberikan Allah kepada Nabi Isa.\nSurah al-Baqarah dan surah \u0100li \u2018Imr\u0101n dinamakan az-Zahraw\u0101ni (dua surah yang cemerlang), karena kedua surah ini mengungkapkan hal-hal yang disembunyikan oleh Ahli Kitab, seperti kejadian kelahiran Nabi Isa a.s., kedatangan Nabi Muhammad saw, dan sebagainya.\nPokok-pokok isinya\n1. Keimanan\nDalil-dalil yang membantah perkataan orang Nasrani yang mengakui Isa a.s., adalah salah satu dari oknum-oknum Tuhan yang tiga. Ketauhidan adalah dasar dari agama-agama yang dibawa para nabi.\n2. Hukum-hukum\nAsas musyawarah; mub\u0101halah dan hukum riba.\n3. Kisah-kisah\nKisah keluarga Imran, Perang Badar dan Perang Uhud dan pelajaran yang dapat diambil daripadanya.\n4. Lain-lain\nDalam surah ini disebutkan beberapa golongan manusia dalam memahami ayat-ayat mutasyabihat, sifat-sifat Allah, sifat-sifat orang yang bertakwa, agama Islam adalah agama yang diridai Allah, akibat menjadikan orang kafir sebagai teman kepercayaan, pengambilan perjanjian para nabi oleh Allah; perumpamaan-perumpamaan peringatan kepada orang mukmin; Ka\u2018bah adalah rumah ibadah yang paling tua; faedah mengingat Allah dan merenungkan ciptaan-Nya.\n ",
        "outro_surah": null,
        "munasabah_prev_surah": "HUBUNGAN ANTARA SURAH AL-BAQARAH\nDENGAN SURAH \u0100LI \u2018IMR\u0100N\n1. Dalam surah al-Baqarah disebutkan bahwa Nabi Adam a.s. langsung diciptakan Allah, sedang dalam surah Ali Imran disebutkan tentang kelahiran Nabi Isa a.s. yang kedua-duanya di luar kebiasaan.\n2.\tDalam surah al-Baqarah dibahas secara luas sifat dan perbuatan orang Yahudi, disertai dengan hujah-hujah yang membantah dan membetulkan kesesatan mereka, sedang dalam surah \u0100li \u2018Imr\u0101n dipaparkan hal-hal yang sama yang berhubungan dengan orang Nasrani.\n3.\tSurah al-Baqarah dimulai dengan menyebut tiga golongan manusia, yaitu orang mukmin, orang kafir dan orang munafik, sedang surah \u0100li \u2018Imr\u0101n menyebutkan orang-orang yang suka menakwilkan ayat-ayat yang mutasyabihat dengan takwil yang salah untuk memfitnah orang-orang mukmin dan menyebutkan orang yang mempunyai keahlian dalam menakwilkannya.\n4.\tSurah al-Baqarah diakhiri dengan menyebutkan permohonan kepada Allah agar diampuni atas kesalahan-kesalahan dan kealpaan dalam melaksanakan ketaatan, sedang surah \u0100li \u2018Imr\u0101n disudahi dengan permohonan kepada Allah agar memberi pahala atas amal kebaikan hamba-Nya.\n5.\tSurah al-Baqarah diakhiri dengan pengakuan terhadap kekuasaan Allah dan pertolongannya, sedang surah \u0100li \u2018Imr\u0101n dimulai dengan menyebutkan bahwa Tuhan yang mereka mintakan pertolongan tersebut, adalah Tuhan yang hidup kekal abadi dan mengurus semua urusan makhluk-Nya.",
        "munasabah_prev_theme": "Pada ayat yang lalu diterangkan bahwa setiap yang bernyawa itu tidak akan mati sebelum datang ajal yang telah ditentukan oleh Tuhan, kemudian pada ayat 146, 147, dan 149 diberi contoh teladan dengan menceritakan kisah para pengikut nabi-nabi yang terdahulu, maka pada ayat berikutnya dijelaskan bagaimana hendaknya sikap kaum Muslimin dalam menghadapi tindakan-tindakan permusuhan dari orang kafir.",
        "theme_group": "WASPADA TERHADAP AJAKAN ORANG KAFIR",
        "kosakata": "Kosakata: ar-Ru\u2018b \u0627\u064e\u0644\u0631\u0651\u064f\u0639\u0652\u0628(\u0100li \u2018Imr\u0101n/3: 151) \n Ada dua arti dasar pada kata ini, yaitu \u201cketerputusan\u201d (al-inqi\u1e6da\u2019) dan \u201cterpenuhinya rasa takut\u201d (imtila al-khauf) dikatakan ra\u2019abtu al-\u1e25au\u1e0d, aku mengisi kubangan itu sampai penuh. Ra\u2018abtu as-sanam, aku memotong punuk (bongkol). Dari dua arti dasar ini kata ar-ru\u2018b bisa diartikan \u201crasa takut yang sangat yang memenuhi hati seseorang karena keterputusan dari yang lain\u201d. Allah akan menghunjamkan rasa takut yang sangat kepada orang-orang musyrik, karena kemusyrikan mereka. Orang musyrikin tidak yakin dengan apa yang mereka sekutukan kepada Allah, di sisi lain mereka juga tidak punya argumen yang kuat untuk menafikan wujud Allah yang Esa. Situasi ini menyebabkan mereka selalu berada dalam ketakutan dan kegelisahan. Inilah yang menyebabkan Allah memasukkan rasa takut ke dalam hati mereka. Hanya nerakalah tempat kembali yang layak bagi mereka. Padahal, neraka adalah tempat kembali yang paling buruk.",
        "sabab_nuzul": null,
        "conclusion": "1. Allah memperingatkan semua orang yang beriman agar selalu waspada terhadap orang-orang kafir dan munafik dan jangan mengikuti ajakan atau bujukan mereka yang bisa mengakibatkan bahaya yang sangat besar.\n2.\tSetiap orang mukmin harus mengikuti perintah Allah dan menyerahkan diri kepada-Nya, karena Dialah Pelindung satu-satunya dan Dialah sebaik-baik penolong.\n3.\tPertolongan Allah kepada orang yang benar-benar beriman kepada-Nya, pasti akan datang, karena Allah adalah Mahakuasa memasukkan rasa takut dan gentar ke dalam hati orang-orang kafir, sehingga mereka tidak berdaya."
    }
}