{
    "id": 466,
    "surah_id": 3,
    "ayah": 173,
    "page": 72,
    "quarter_hizb": 8,
    "juz": 4,
    "manzil": 1,
    "arabic": "\u0627\u064e\u0644\u0651\u064e\u0630\u0650\u064a\u0652\u0646\u064e \u0642\u064e\u0627\u0644\u064e \u0644\u064e\u0647\u064f\u0645\u064f \u0627\u0644\u0646\u0651\u064e\u0627\u0633\u064f \u0627\u0650\u0646\u0651\u064e \u0627\u0644\u0646\u0651\u064e\u0627\u0633\u064e \u0642\u064e\u062f\u0652 \u062c\u064e\u0645\u064e\u0639\u064f\u0648\u0652\u0627 \u0644\u064e\u0643\u064f\u0645\u0652 \u0641\u064e\u0627\u062e\u0652\u0634\u064e\u0648\u0652\u0647\u064f\u0645\u0652 \u0641\u064e\u0632\u064e\u0627\u062f\u064e\u0647\u064f\u0645\u0652 \u0627\u0650\u064a\u0652\u0645\u064e\u0627\u0646\u064b\u0627\u06d6 \u0648\u0651\u064e\u0642\u064e\u0627\u0644\u064f\u0648\u0652\u0627 \u062d\u064e\u0633\u0652\u0628\u064f\u0646\u064e\u0627 \u0627\u0644\u0644\u0651\u0670\u0647\u064f \u0648\u064e\u0646\u0650\u0639\u0652\u0645\u064e \u0627\u0644\u0652\u0648\u064e\u0643\u0650\u064a\u0652\u0644\u064f ",
    "latin": "Al-la\u017c\u012bna q\u0101la lahumun-n\u0101su innan-n\u0101sa qad jama\u2018\u016b lakum fakhsyauhum fa z\u0101dahum \u012bm\u0101n\u0101(n), wa q\u0101l\u016b \u1e25asbunall\u0101hu wa ni\u2018mal-wak\u012bl(u).",
    "translation": "(yaitu) mereka yang (ketika ada) orang-orang mengatakan kepadanya, \u201cSesungguhnya orang-orang (Quraisy) telah mengumpulkan (pasukan) untuk (menyerang) kamu. Oleh karena itu, takutlah kepada mereka,\u201d ternyata (ucapan) itu menambah (kuat) iman mereka dan mereka menjawab, \u201cCukuplah Allah (menjadi penolong) bagi kami dan Dia sebaik-baik pelindung.\u201d",
    "no_footnote": null,
    "footnotes": null,
    "surah": {
        "id": 3,
        "arabic": " \u0627\u0670\u0644 \u0639\u0645\u0631\u0670\u0646",
        "latin": "\u0100li \u2018Imr\u0101n",
        "transliteration": "Ali \u2018Imran",
        "translation": "Keluarga Imran",
        "num_ayah": 200,
        "page": 50,
        "location": "Madaniyah"
    },
    "tafsir": {
        "wajiz": "Orang-orang yang mendapat pahala besar adalah orang-orang yang menaati Allah dan Rasul. Mereka memenuhi perintah Allah untuk berjuang yang ketika ada sekelompok orang-orang munafik yang loyal kepada kaum musyrikin mengatakan kepadanya dengan nada mengejek dan meniupkan rasa ketakutan terhadap orang-orang mukmin,\u201dOrang-orang Quraisy telah mengumpulkan pasukan untuk menyerang kamu dengan jumlah pasukan yang lebih besar dan persiapan lebih matang, karena itu takutlah kepada mereka.\u201d Ternyata ucapan mereka itu tidak membuat orang-orang mukmin gentar dan takut, justru menambah kuat iman mereka dan mereka menjawab dengan teguh dan mantap, \u201cCukuplah Allah menjadi penolong bagi kami dalam melawan setiap musuh dan Dia sebaik-baik pelindung yang selalu melindungi dari setiap penyerang, dan membela dari setiap penyerbu, karena kami adalah tentara Allah.\u201d",
        "tahlili": "Turunnya ayat ini berhubungan dengan Abu Sufyan panglima perang kaum musyrikin Mekah dan tentaranya, yang sudah kembali dari Perang Uhud. Mereka setelah sampai di suatu tempat bernama Ruha, mereka menyesal dan bermaksud akan kembali lagi untuk melanjutkan perang. Berita ini sampai kepada Rasulullah, maka beliau memanggil kembali pasukan Muslimin untuk menghadapi Abu Sufyan dan tentaranya. Kata Rasulullah saw, \u201cJangan ada yang ikut perang hari ini kecuali mereka yang telah ikut kemarin, sedang tentara Islam pada waktu itu telah banyak yang luka-luka. Tapi akhirnya Allah swt menurunkan rasa takut pada hati kaum musyrikin dan selanjutnya mereka pulang kembali.\nPara mujahidin ditakut-takuti oleh sebagian musuh (munafik), dengan menyatakan bahwa musuh telah menghimpun kekuatan baru guna menghadapi mereka. Tetapi para mujahidin tidak merasa gentar karena berita itu, bahkan bertambah imannya dan bertambah tinggi semangatnya untuk menghadapi musuh Allah itu dengan ucapan, \u201cAllah tetap akan melindungi kami dan kepada Allah kami bertawakal.\u201d",
        "intro_surah": "Surah ketiga adalah \u0100li \u2018Imr\u0101n (Keluarga Imran) yang terdiri atas 200 ayat. Surah ini termasuk golongan Madaniyah. Dinamakan \u0100li \u2018Imr\u0101n, karena dalam surah ini terdapat kisah keluarga Imran dan keturunannya, kelahiran Nabi Isa a.s., yang dilahirkan oleh Maryam putri Imran, persamaan kejadian Isa dengan Adam a.s., dan mukjizat yang diberikan Allah kepada Nabi Isa.\nSurah al-Baqarah dan surah \u0100li \u2018Imr\u0101n dinamakan az-Zahraw\u0101ni (dua surah yang cemerlang), karena kedua surah ini mengungkapkan hal-hal yang disembunyikan oleh Ahli Kitab, seperti kejadian kelahiran Nabi Isa a.s., kedatangan Nabi Muhammad saw, dan sebagainya.\nPokok-pokok isinya\n1. Keimanan\nDalil-dalil yang membantah perkataan orang Nasrani yang mengakui Isa a.s., adalah salah satu dari oknum-oknum Tuhan yang tiga. Ketauhidan adalah dasar dari agama-agama yang dibawa para nabi.\n2. Hukum-hukum\nAsas musyawarah; mub\u0101halah dan hukum riba.\n3. Kisah-kisah\nKisah keluarga Imran, Perang Badar dan Perang Uhud dan pelajaran yang dapat diambil daripadanya.\n4. Lain-lain\nDalam surah ini disebutkan beberapa golongan manusia dalam memahami ayat-ayat mutasyabihat, sifat-sifat Allah, sifat-sifat orang yang bertakwa, agama Islam adalah agama yang diridai Allah, akibat menjadikan orang kafir sebagai teman kepercayaan, pengambilan perjanjian para nabi oleh Allah; perumpamaan-perumpamaan peringatan kepada orang mukmin; Ka\u2018bah adalah rumah ibadah yang paling tua; faedah mengingat Allah dan merenungkan ciptaan-Nya.\n ",
        "outro_surah": null,
        "munasabah_prev_surah": "HUBUNGAN ANTARA SURAH AL-BAQARAH\nDENGAN SURAH \u0100LI \u2018IMR\u0100N\n1. Dalam surah al-Baqarah disebutkan bahwa Nabi Adam a.s. langsung diciptakan Allah, sedang dalam surah Ali Imran disebutkan tentang kelahiran Nabi Isa a.s. yang kedua-duanya di luar kebiasaan.\n2.\tDalam surah al-Baqarah dibahas secara luas sifat dan perbuatan orang Yahudi, disertai dengan hujah-hujah yang membantah dan membetulkan kesesatan mereka, sedang dalam surah \u0100li \u2018Imr\u0101n dipaparkan hal-hal yang sama yang berhubungan dengan orang Nasrani.\n3.\tSurah al-Baqarah dimulai dengan menyebut tiga golongan manusia, yaitu orang mukmin, orang kafir dan orang munafik, sedang surah \u0100li \u2018Imr\u0101n menyebutkan orang-orang yang suka menakwilkan ayat-ayat yang mutasyabihat dengan takwil yang salah untuk memfitnah orang-orang mukmin dan menyebutkan orang yang mempunyai keahlian dalam menakwilkannya.\n4.\tSurah al-Baqarah diakhiri dengan menyebutkan permohonan kepada Allah agar diampuni atas kesalahan-kesalahan dan kealpaan dalam melaksanakan ketaatan, sedang surah \u0100li \u2018Imr\u0101n disudahi dengan permohonan kepada Allah agar memberi pahala atas amal kebaikan hamba-Nya.\n5.\tSurah al-Baqarah diakhiri dengan pengakuan terhadap kekuasaan Allah dan pertolongannya, sedang surah \u0100li \u2018Imr\u0101n dimulai dengan menyebutkan bahwa Tuhan yang mereka mintakan pertolongan tersebut, adalah Tuhan yang hidup kekal abadi dan mengurus semua urusan makhluk-Nya.",
        "munasabah_prev_theme": "Pada ayat-ayat lalu diterangkan kesombongan orang munafik dan kuatnya hasutan mereka kepada kawan-kawannya untuk tidak ikut berperang dan kekhawatiran mereka terhadap para syuhada dalam Perang Uhud, maka pada ayat ini diterangkan bagaimana kegembiraan dan kebahagiaan para mujahidin dan para syuhada f\u012b sab\u012blill\u0101h ketika mendengar berita tentang para sahabat lainnya yang akan masuk surga bersama mereka dan atas semua kenikmatan yang Allah berikan kepada mereka.",
        "theme_group": "PAHALA ORANG YANG MATI SYAHID",
        "kosakata": "Kosakata: Yastabsyir\u016bn \u064a\u064e\u0633\u0652\u062a\u064e\u0628\u0652\u0634\u0650\u0631\u064f\u0648\u0652\u0646\u064e (\u0100li \u2018Imr\u0101n/3: 170)\nKata yastabsyir\u016bn berasal dari kata kerja basyara-yabsyiru atau basyira-yabsyaru, yang artinya \u201csenang\u201d atau \u201cmenjadi gembira\u201d. Dengan demikian yastabsyir\u016bn maknanya adalah \u201cmereka bergembira\u201d. Pada mulanya akar kata dari kalimat ini (b-sy-r/ \u0628- \u0634- \u0631) yang artinya \u201cmunculnya sesuatu dengan baik dan mudah\u201d. Kata yang berasal dari akar kata yang sama adalah al-basyrah artinya \u201ckulit manusia\u201d, sedangkan manusia disebut al-basyar. Al-bisyra artinya gembira atau bahagia, karena kegembiraan ini memancar pada kulit dan bersinar di wajah orang yang gembira sehingga kegembiraan disebut al-bisyarah, karena membuat wajah orang yang mendapat berita gembira, cerah berseri-seri dan menarik. Lawan bisyarah adalah ni\u1e93arah yaitu \u201ckabar buruk\u201d atau \u201cperingatan\u201d (Ibnu Faris). Dalam kaitan dengan ayat ini, yastabsyir\u016bn menunjukkan pada perasaan yang ada pada para syuhada (pahlawan) yang telah gugur itu, yaitu kegembiraan yang berkaitan dengan teman-teman sejawat mereka yang akan menyusul. Artinya mereka mengetahui bahwa teman-teman mereka kelak akan pula menyusul menjadi pahlawan. Pada sisi lain, penjelasan ini menunjukkan bahwa mereka mempunyai pengetahuan tentang keadaan teman-teman tersebut, sekaligus membuktikan bahwasanya ada kehidupan di alam barzakh yang merupakan persinggahan sementara, sambil menunggu kedatangan hari akhir, yang merupakan awal dari kehidupan akhirat. Kata ini kemudian terulang pada ayat berikutnya, dan ini menunjukkan adanya kegembiraan yang mereka nikmati. Selain itu, pengulangan ini juga merupakan isyarat bahwa kegembiraan itu mencakup diri mereka, teman-teman sejawat, dan siapa pun yang mukmin, walau selain mereka dan teman sejawat mereka.",
        "sabab_nuzul": null,
        "conclusion": null
    }
}