{
    "id": 462,
    "surah_id": 3,
    "ayah": 169,
    "page": 72,
    "quarter_hizb": 7.75,
    "juz": 4,
    "manzil": 1,
    "arabic": "\u0648\u064e\u0644\u064e\u0627 \u062a\u064e\u062d\u0652\u0633\u064e\u0628\u064e\u0646\u0651\u064e \u0627\u0644\u0651\u064e\u0630\u0650\u064a\u0652\u0646\u064e \u0642\u064f\u062a\u0650\u0644\u064f\u0648\u0652\u0627 \u0641\u0650\u064a\u0652 \u0633\u064e\u0628\u0650\u064a\u0652\u0644\u0650 \u0627\u0644\u0644\u0651\u0670\u0647\u0650 \u0627\u064e\u0645\u0652\u0648\u064e\u0627\u062a\u064b\u0627 \u06d7 \u0628\u064e\u0644\u0652 \u0627\u064e\u062d\u0652\u064a\u064e\u0627\u06e4\u0621\u064c \u0639\u0650\u0646\u0652\u062f\u064e \u0631\u064e\u0628\u0651\u0650\u0647\u0650\u0645\u0652 \u064a\u064f\u0631\u0652\u0632\u064e\u0642\u064f\u0648\u0652\u0646\u064e\u06d9",
    "latin": "Wa l\u0101 ta\u1e25sabannal-la\u017c\u012bna qutil\u016b f\u012b sab\u012blill\u0101hi amw\u0101t\u0101(n), bal a\u1e25y\u0101'un 'inda rabbihim yurzaq\u016bn(a).",
    "translation": "Jangan sekali-kali kamu mengira bahwa orang-orang yang gugur di jalan Allah itu mati. Sebenarnya, mereka itu hidup dan dianugerahi rezeki di sisi Tuhannya.134)",
    "no_footnote": "134",
    "footnotes": "134) Maksudnya adalah hidup di alam yang lain, bukan di alam dunia. Mereka mendapatkan berbagai kenikmatan di sisi Allah Swt. Hanya Allahlah yang mengetahui bagaimana keadaan hidup di alam lain itu.",
    "surah": {
        "id": 3,
        "arabic": " \u0627\u0670\u0644 \u0639\u0645\u0631\u0670\u0646",
        "latin": "\u0100li \u2018Imr\u0101n",
        "transliteration": "Ali \u2018Imran",
        "translation": "Keluarga Imran",
        "num_ayah": 200,
        "page": 50,
        "location": "Madaniyah"
    },
    "tafsir": {
        "wajiz": "Dan jangan sekali-kali kamu sekalian mengira bahwa orang-orang yang gugur sebagai syuhada di jalan Allah itu mati dalam arti tidak dapat bergerak kesana kemari dan tidak tahu keadaan orang yang ditinggalkan. Tetapi sebenarnya mereka itu hidup dengan kehidupan lain di sisi Tuhannya di alam barzakh, bahkan dapat bergerak dan mengetahui keadaan orang yang ditinggalkan. Mereka mendapat rezeki berupa kehidupan istimewa yang penuh dengan kenikmatan di dalamnya dan kedudukan mulia dari sisi Allah.",
        "tahlili": "Orang-orang yang telah terbunuh sebagai syuhada dalam perang f\u012b sab\u012blill\u0101h, janganlah dikira mereka mati, sebagaimana anggapan orang- orang munafik, tetapi mereka masih hidup di sisi Allah, mendapat rezeki dan nikmat yang berlimpah.\nBagaimana keadaan hidup mereka seterusnya, hanyalah Allah yang mengetahui. Dalam hadis yang diriwayatkan Ibnu Abbas, Nabi saw bersabda \n\u0627\u064e\u0644\u0634\u0651\u064f\u0647\u064e\u062f\u064e\u0627\u0621\u064f \u0639\u064e\u0644\u064e\u0649 \u0628\u064e\u0627\u0631\u0650\u0642\u0650 \u0646\u064e\u0647\u0652\u0631\u064d \u0628\u0650\u0628\u064e\u0627\u0628\u0650 \u0627\u0644\u0652\u062c\u064e\u0646\u0651\u064e\u0629\u0650 \u0641\u0650\u064a \u0642\u064f\u0628\u0651\u064e\u0629\u064d \u062e\u064e\u0636\u0652\u0631\u064e\u0627\u0621\u064e \u064a\u064e\u062e\u0652\u0631\u064f\u062c\u064f \u0627\u0650\u0644\u064e\u064a\u0652\u0647\u0650\u0645\u0652 \u0631\u0650\u0632\u0652\u0642\u064f\u0647\u064f\u0645\u0652 \u0645\u0650\u0646\u064e \u0627\u0644\u0652\u062c\u064e\u0646\u0651\u064e\u0629\u0650 \u0628\u064f\u0643\u0652\u0631\u064e\u0629\u064b \u0648\u064e \u0639\u064e\u0634\u0650\u064a\u0651\u064b\u0627 (\u0631\u0648\u0627\u0647 \u0627\u0644\u062d\u0627\u0643\u0645 \u0648\u0627\u062d\u0645\u062f \u0648\u0627\u0644\u0637\u0628\u0631\u0627\u0646\u064a \u0639\u0646 \u0627\u0628\u0646 \u0639\u0628\u0651\u0627\u0633)\nPara syuhada berada di tepi sungai dekat pintu surga, mereka berada dalam sebuah kubah yang hijau. Hidangan mereka keluar dari surga itu setiap pagi dan sore. (Riwayat al-\u1e24\u0101kim, A\u1e25mad dan a\u1e6d-\u1e6cabr\u0101n\u012b dari Ibnu \u2018Abb\u0101s).\nPara syuhada itu menikmati pemberian-pemberian Allah, mereka ingin mati syahid berulang kali. Hal ini dijelaskan dalam sabda Rasulullah saw:\n\u0645\u064e\u0627 \u0645\u0650\u0646\u0652 \u0646\u064e\u0641\u0652\u0633\u064d \u062a\u064e\u0645\u064f\u0648\u0652\u062a\u064f \u0644\u064e\u0647\u064e\u0627 \u0639\u0650\u0646\u0652\u062f\u064e \u0627\u0644\u0644\u0647\u0650 \u062e\u064e\u064a\u0652\u0631\u064c \u064a\u064e\u0633\u064f\u0631\u0651\u064f\u0647\u064e\u0627 \u0627\u064e\u0646\u0652 \u062a\u064f\u0631\u0652\u062c\u064e\u0639\u064e \u0627\u0650\u0644\u064e\u0649 \u0627\u0644\u062f\u0651\u064f\u0646\u0652\u064a\u064e\u0627 \u0627\u0650\u0644\u0627\u0651\u064e \u0627\u0644\u0634\u0651\u064e\u0647\u0650\u064a\u0652\u062f\u064f \u0641\u064e\u0627\u0650\u0646\u0651\u064e\u0647\u064f \u064a\u064e\u0633\u064f\u0631\u0651\u064f\u0647\u064f \u0627\u064e\u0646\u0652 \u064a\u064f\u0631\u0652\u062c\u064e\u0639\u064e \u0627\u0650\u0644\u064e\u0649 \u0627\u0644\u062f\u0651\u064f\u0646\u0652\u064a\u064e\u0627 \u0641\u064e\u064a\u064f\u0642\u0652\u062a\u064e\u0644\u064e \u0645\u064e\u0631\u0651\u064e\u0629\u064b \u0627\u064f\u062e\u0652\u0631\u064e\u0649 \u0645\u0650\u0645\u0651\u064e\u0627 \u064a\u064e\u0631\u064e\u0649 \u0645\u0650\u0646\u0652 \u0641\u064e\u0636\u0652\u0644\u0650 \u0627\u0644\u0634\u0651\u064e\u0647\u064e\u0627\u062f\u064e\u0629\u0650 (\u0631\u0648\u0627\u0647 \u0645\u0633\u0644\u0645)\n\u201cTidak ada seorang yang telah mati dan memperoleh kenikmatan di sisi Allah, kemudian ingin kembali ke dunia kecuali orang yang mati syahid. Ia ingin dikembalikan ke dunia, kemudian mati syahid lagi. Hal itu karena besarnya keutamaan mati syahid..\u201d (Riwayat Muslim)",
        "intro_surah": "Surah ketiga adalah \u0100li \u2018Imr\u0101n (Keluarga Imran) yang terdiri atas 200 ayat. Surah ini termasuk golongan Madaniyah. Dinamakan \u0100li \u2018Imr\u0101n, karena dalam surah ini terdapat kisah keluarga Imran dan keturunannya, kelahiran Nabi Isa a.s., yang dilahirkan oleh Maryam putri Imran, persamaan kejadian Isa dengan Adam a.s., dan mukjizat yang diberikan Allah kepada Nabi Isa.\nSurah al-Baqarah dan surah \u0100li \u2018Imr\u0101n dinamakan az-Zahraw\u0101ni (dua surah yang cemerlang), karena kedua surah ini mengungkapkan hal-hal yang disembunyikan oleh Ahli Kitab, seperti kejadian kelahiran Nabi Isa a.s., kedatangan Nabi Muhammad saw, dan sebagainya.\nPokok-pokok isinya\n1. Keimanan\nDalil-dalil yang membantah perkataan orang Nasrani yang mengakui Isa a.s., adalah salah satu dari oknum-oknum Tuhan yang tiga. Ketauhidan adalah dasar dari agama-agama yang dibawa para nabi.\n2. Hukum-hukum\nAsas musyawarah; mub\u0101halah dan hukum riba.\n3. Kisah-kisah\nKisah keluarga Imran, Perang Badar dan Perang Uhud dan pelajaran yang dapat diambil daripadanya.\n4. Lain-lain\nDalam surah ini disebutkan beberapa golongan manusia dalam memahami ayat-ayat mutasyabihat, sifat-sifat Allah, sifat-sifat orang yang bertakwa, agama Islam adalah agama yang diridai Allah, akibat menjadikan orang kafir sebagai teman kepercayaan, pengambilan perjanjian para nabi oleh Allah; perumpamaan-perumpamaan peringatan kepada orang mukmin; Ka\u2018bah adalah rumah ibadah yang paling tua; faedah mengingat Allah dan merenungkan ciptaan-Nya.\n ",
        "outro_surah": null,
        "munasabah_prev_surah": "HUBUNGAN ANTARA SURAH AL-BAQARAH\nDENGAN SURAH \u0100LI \u2018IMR\u0100N\n1. Dalam surah al-Baqarah disebutkan bahwa Nabi Adam a.s. langsung diciptakan Allah, sedang dalam surah Ali Imran disebutkan tentang kelahiran Nabi Isa a.s. yang kedua-duanya di luar kebiasaan.\n2.\tDalam surah al-Baqarah dibahas secara luas sifat dan perbuatan orang Yahudi, disertai dengan hujah-hujah yang membantah dan membetulkan kesesatan mereka, sedang dalam surah \u0100li \u2018Imr\u0101n dipaparkan hal-hal yang sama yang berhubungan dengan orang Nasrani.\n3.\tSurah al-Baqarah dimulai dengan menyebut tiga golongan manusia, yaitu orang mukmin, orang kafir dan orang munafik, sedang surah \u0100li \u2018Imr\u0101n menyebutkan orang-orang yang suka menakwilkan ayat-ayat yang mutasyabihat dengan takwil yang salah untuk memfitnah orang-orang mukmin dan menyebutkan orang yang mempunyai keahlian dalam menakwilkannya.\n4.\tSurah al-Baqarah diakhiri dengan menyebutkan permohonan kepada Allah agar diampuni atas kesalahan-kesalahan dan kealpaan dalam melaksanakan ketaatan, sedang surah \u0100li \u2018Imr\u0101n disudahi dengan permohonan kepada Allah agar memberi pahala atas amal kebaikan hamba-Nya.\n5.\tSurah al-Baqarah diakhiri dengan pengakuan terhadap kekuasaan Allah dan pertolongannya, sedang surah \u0100li \u2018Imr\u0101n dimulai dengan menyebutkan bahwa Tuhan yang mereka mintakan pertolongan tersebut, adalah Tuhan yang hidup kekal abadi dan mengurus semua urusan makhluk-Nya.",
        "munasabah_prev_theme": "Pada ayat-ayat lalu diterangkan kesombongan orang munafik dan kuatnya hasutan mereka kepada kawan-kawannya untuk tidak ikut berperang dan kekhawatiran mereka terhadap para syuhada dalam Perang Uhud, maka pada ayat ini diterangkan bagaimana kegembiraan dan kebahagiaan para mujahidin dan para syuhada f\u012b sab\u012blill\u0101h ketika mendengar berita tentang para sahabat lainnya yang akan masuk surga bersama mereka dan atas semua kenikmatan yang Allah berikan kepada mereka.",
        "theme_group": "PAHALA ORANG YANG MATI SYAHID",
        "kosakata": "Kosakata: Yastabsyir\u016bn \u064a\u064e\u0633\u0652\u062a\u064e\u0628\u0652\u0634\u0650\u0631\u064f\u0648\u0652\u0646\u064e (\u0100li \u2018Imr\u0101n/3: 170)\nKata yastabsyir\u016bn berasal dari kata kerja basyara-yabsyiru atau basyira-yabsyaru, yang artinya \u201csenang\u201d atau \u201cmenjadi gembira\u201d. Dengan demikian yastabsyir\u016bn maknanya adalah \u201cmereka bergembira\u201d. Pada mulanya akar kata dari kalimat ini (b-sy-r/ \u0628- \u0634- \u0631) yang artinya \u201cmunculnya sesuatu dengan baik dan mudah\u201d. Kata yang berasal dari akar kata yang sama adalah al-basyrah artinya \u201ckulit manusia\u201d, sedangkan manusia disebut al-basyar. Al-bisyra artinya gembira atau bahagia, karena kegembiraan ini memancar pada kulit dan bersinar di wajah orang yang gembira sehingga kegembiraan disebut al-bisyarah, karena membuat wajah orang yang mendapat berita gembira, cerah berseri-seri dan menarik. Lawan bisyarah adalah ni\u1e93arah yaitu \u201ckabar buruk\u201d atau \u201cperingatan\u201d (Ibnu Faris). Dalam kaitan dengan ayat ini, yastabsyir\u016bn menunjukkan pada perasaan yang ada pada para syuhada (pahlawan) yang telah gugur itu, yaitu kegembiraan yang berkaitan dengan teman-teman sejawat mereka yang akan menyusul. Artinya mereka mengetahui bahwa teman-teman mereka kelak akan pula menyusul menjadi pahlawan. Pada sisi lain, penjelasan ini menunjukkan bahwa mereka mempunyai pengetahuan tentang keadaan teman-teman tersebut, sekaligus membuktikan bahwasanya ada kehidupan di alam barzakh yang merupakan persinggahan sementara, sambil menunggu kedatangan hari akhir, yang merupakan awal dari kehidupan akhirat. Kata ini kemudian terulang pada ayat berikutnya, dan ini menunjukkan adanya kegembiraan yang mereka nikmati. Selain itu, pengulangan ini juga merupakan isyarat bahwa kegembiraan itu mencakup diri mereka, teman-teman sejawat, dan siapa pun yang mukmin, walau selain mereka dan teman sejawat mereka.",
        "sabab_nuzul": "Orang-orang yang telah terbunuh sebagai syuhada dalam perang f\u012b sab\u012blill\u0101h, janganlah dikira mereka mati, sebagaimana anggapan orang- orang munafik, tetapi mereka masih hidup di sisi Allah, mendapat rezeki dan nikmat yang berlimpah.\nBagaimana keadaan hidup mereka seterusnya, hanyalah Allah yang mengetahui. Dalam hadis yang diriwayatkan Ibnu Abbas, Nabi saw bersabda \n\u0627\u064e\u0644\u0634\u0651\u064f\u0647\u064e\u062f\u064e\u0627\u0621\u064f \u0639\u064e\u0644\u064e\u0649 \u0628\u064e\u0627\u0631\u0650\u0642\u0650 \u0646\u064e\u0647\u0652\u0631\u064d \u0628\u0650\u0628\u064e\u0627\u0628\u0650 \u0627\u0644\u0652\u062c\u064e\u0646\u0651\u064e\u0629\u0650 \u0641\u0650\u064a \u0642\u064f\u0628\u0651\u064e\u0629\u064d \u062e\u064e\u0636\u0652\u0631\u064e\u0627\u0621\u064e \u064a\u064e\u062e\u0652\u0631\u064f\u062c\u064f \u0627\u0650\u0644\u064e\u064a\u0652\u0647\u0650\u0645\u0652 \u0631\u0650\u0632\u0652\u0642\u064f\u0647\u064f\u0645\u0652 \u0645\u0650\u0646\u064e \u0627\u0644\u0652\u062c\u064e\u0646\u0651\u064e\u0629\u0650 \u0628\u064f\u0643\u0652\u0631\u064e\u0629\u064b \u0648\u064e \u0639\u064e\u0634\u0650\u064a\u0651\u064b\u0627 (\u0631\u0648\u0627\u0647 \u0627\u0644\u062d\u0627\u0643\u0645 \u0648\u0627\u062d\u0645\u062f \u0648\u0627\u0644\u0637\u0628\u0631\u0627\u0646\u064a \u0639\u0646 \u0627\u0628\u0646 \u0639\u0628\u0651\u0627\u0633)\nPara syuhada berada di tepi sungai dekat pintu surga, mereka berada dalam sebuah kubah yang hijau. Hidangan mereka keluar dari surga itu setiap pagi dan sore. (Riwayat al-\u1e24\u0101kim, A\u1e25mad dan a\u1e6d-\u1e6cabr\u0101n\u012b dari Ibnu \u2018Abb\u0101s).\nPara syuhada itu menikmati pemberian-pemberian Allah, mereka ingin mati syahid berulang kali. Hal ini dijelaskan dalam sabda Rasulullah saw:\n\u0645\u064e\u0627 \u0645\u0650\u0646\u0652 \u0646\u064e\u0641\u0652\u0633\u064d \u062a\u064e\u0645\u064f\u0648\u0652\u062a\u064f \u0644\u064e\u0647\u064e\u0627 \u0639\u0650\u0646\u0652\u062f\u064e \u0627\u0644\u0644\u0647\u0650 \u062e\u064e\u064a\u0652\u0631\u064c \u064a\u064e\u0633\u064f\u0631\u0651\u064f\u0647\u064e\u0627 \u0627\u064e\u0646\u0652 \u062a\u064f\u0631\u0652\u062c\u064e\u0639\u064e \u0627\u0650\u0644\u064e\u0649 \u0627\u0644\u062f\u0651\u064f\u0646\u0652\u064a\u064e\u0627 \u0627\u0650\u0644\u0627\u0651\u064e \u0627\u0644\u0634\u0651\u064e\u0647\u0650\u064a\u0652\u062f\u064f \u0641\u064e\u0627\u0650\u0646\u0651\u064e\u0647\u064f \u064a\u064e\u0633\u064f\u0631\u0651\u064f\u0647\u064f \u0627\u064e\u0646\u0652 \u064a\u064f\u0631\u0652\u062c\u064e\u0639\u064e \u0627\u0650\u0644\u064e\u0649 \u0627\u0644\u062f\u0651\u064f\u0646\u0652\u064a\u064e\u0627 \u0641\u064e\u064a\u064f\u0642\u0652\u062a\u064e\u0644\u064e \u0645\u064e\u0631\u0651\u064e\u0629\u064b \u0627\u064f\u062e\u0652\u0631\u064e\u0649 \u0645\u0650\u0645\u0651\u064e\u0627 \u064a\u064e\u0631\u064e\u0649 \u0645\u0650\u0646\u0652 \u0641\u064e\u0636\u0652\u0644\u0650 \u0627\u0644\u0634\u0651\u064e\u0647\u064e\u0627\u062f\u064e\u0629\u0650 (\u0631\u0648\u0627\u0647 \u0645\u0633\u0644\u0645)\n\u201cTidak ada seorang yang telah mati dan memperoleh kenikmatan di sisi Allah, kemudian ingin kembali ke dunia kecuali orang yang mati syahid. Ia ingin dikembalikan ke dunia, kemudian mati syahid lagi. Hal itu karena besarnya keutamaan mati syahid..\u201d (Riwayat Muslim)",
        "conclusion": null
    }
}