{
    "id": 403,
    "surah_id": 3,
    "ayah": 110,
    "page": 64,
    "quarter_hizb": 7,
    "juz": 4,
    "manzil": 1,
    "arabic": "\u0643\u064f\u0646\u0652\u062a\u064f\u0645\u0652 \u062e\u064e\u064a\u0652\u0631\u064e \u0627\u064f\u0645\u0651\u064e\u0629\u064d \u0627\u064f\u062e\u0652\u0631\u0650\u062c\u064e\u062a\u0652 \u0644\u0650\u0644\u0646\u0651\u064e\u0627\u0633\u0650 \u062a\u064e\u0623\u0652\u0645\u064f\u0631\u064f\u0648\u0652\u0646\u064e \u0628\u0650\u0627\u0644\u0652\u0645\u064e\u0639\u0652\u0631\u064f\u0648\u0652\u0641\u0650 \u0648\u064e\u062a\u064e\u0646\u0652\u0647\u064e\u0648\u0652\u0646\u064e \u0639\u064e\u0646\u0650 \u0627\u0644\u0652\u0645\u064f\u0646\u0652\u0643\u064e\u0631\u0650 \u0648\u064e\u062a\u064f\u0624\u0652\u0645\u0650\u0646\u064f\u0648\u0652\u0646\u064e \u0628\u0650\u0627\u0644\u0644\u0651\u0670\u0647\u0650 \u06d7 \u0648\u064e\u0644\u064e\u0648\u0652 \u0627\u0670\u0645\u064e\u0646\u064e \u0627\u064e\u0647\u0652\u0644\u064f \u0627\u0644\u0652\u0643\u0650\u062a\u0670\u0628\u0650 \u0644\u064e\u0643\u064e\u0627\u0646\u064e \u062e\u064e\u064a\u0652\u0631\u064b\u0627 \u0644\u0651\u064e\u0647\u064f\u0645\u0652 \u06d7 \u0645\u0650\u0646\u0652\u0647\u064f\u0645\u064f \u0627\u0644\u0652\u0645\u064f\u0624\u0652\u0645\u0650\u0646\u064f\u0648\u0652\u0646\u064e \u0648\u064e\u0627\u064e\u0643\u0652\u062b\u064e\u0631\u064f\u0647\u064f\u0645\u064f \u0627\u0644\u0652\u0641\u0670\u0633\u0650\u0642\u064f\u0648\u0652\u0646\u064e ",
    "latin": "Kuntum khaira ummatin ukhrijat lin-n\u0101si ta'mur\u016bna bil-ma\u2018r\u016bfi wa tanhauna \u2018anil-munkari wa tu'min\u016bna bill\u0101h(i), wa lau \u0101mana ahlul-kit\u0101bi lak\u0101na khairal lahum, minhumul-mu'min\u016bna wa ak\u1e61aruhumul-f\u0101siq\u016bn(a).",
    "translation": "Kamu (umat Islam) adalah umat terbaik yang dilahirkan untuk manusia (selama) kamu menyuruh (berbuat) yang makruf, mencegah dari yang mungkar, dan beriman kepada Allah. Seandainya Ahlulkitab beriman, tentulah itu lebih baik bagi mereka. Di antara mereka ada yang beriman dan kebanyakan mereka adalah orang-orang fasik.",
    "no_footnote": null,
    "footnotes": null,
    "surah": {
        "id": 3,
        "arabic": " \u0627\u0670\u0644 \u0639\u0645\u0631\u0670\u0646",
        "latin": "\u0100li \u2018Imr\u0101n",
        "transliteration": "Ali \u2018Imran",
        "translation": "Keluarga Imran",
        "num_ayah": 200,
        "page": 50,
        "location": "Madaniyah"
    },
    "tafsir": {
        "wajiz": "Setelah Allah menjelaskan kewajiban berdakwah bagi umat Islam dan menjaga persatuan dan kesatuan, maka dalam ayat ini dijelaskan bahwa kewajiban tersebut dikarenakan kamu (umat Islam) adalah umat terbaik dan paling utama di sisi Allah yang dilahirkan, yaitu ditampakkan untuk seluruh umat manusia hingga akhir zaman, karena kamu menyuruh berbuat yang makruf, dan mencegah dari yang mungkar dan beriman kepada Allah dengan iman yang benar, sehingga kalian menjalankan perintah-Nya dan menjauhi larangan-Nya serta beriman kepada rasul-rasul-Nya. Itulah tiga faktor yang menjadi sebab umat Islam mendapat julukan umat terbaik. Sekiranya Ahli Kitab beriman sebagaimana umat Islam beriman, menyuruh yang makruf dan mencegah yang mungkar serta tidak bercerai berai dan berselisih tentang kebenaran ajaran agama Allah, tentulah itu lebih baik bagi mereka. Kenyataannya di antara mereka ada yang beriman sebagaimana imannya umat Islam, sehingga sebagian kecil dari mereka ini pantas mendapat julukan sebaik-baik umat, namun kebanyakan mereka adalah orang-orang fasik, tidak mau mengikuti petunjuk dan tidak taat kepada Allah serta mengingkari syariat-Nya. ",
        "tahlili": "Ayat ini mengandung suatu dorongan kepada kaum mukminin agar tetap memelihara sifat-sifat utama itu dan agar mereka tetap mempunyai semangat yang tinggi.\nUmat yang paling baik di dunia adalah umat yang mempunyai dua macam sifat, yaitu mengajak kebaikan serta mencegah kemungkaran, dan senantiasa beriman kepada Allah. Semua sifat itu telah dimiliki oleh kaum Muslimin pada masa Nabi dan telah menjadi darah daging dalam diri mereka karena itu mereka menjadi kuat dan jaya. Dalam waktu yang singkat mereka telah dapat menjadikan seluruh tanah Arab tunduk dan patuh di bawah naungan Islam, hidup aman dan tenteram di bawah panji-panji keadilan, padahal mereka sebelumnya adalah umat yang berpecah-belah selalu berada dalam suasana kacau dan saling berperang antara sesama mereka. Ini adalah berkat keteguhan iman dan kepatuhan mereka menjalankan ajaran agama dan berkat ketabahan dan keuletan mereka menegakkan amar makruf dan mencegah kemungkaran. Iman yang mendalam di hati mereka selalu mendorong untuk berjihad dan berjuang untuk menegakkan kebenaran dan keadilan sebagaimana tersebut dalam firman Allah:\n\u0627\u0650\u0646\u0651\u064e\u0645\u064e\u0627 \u0627\u0644\u0652\u0645\u064f\u0624\u0652\u0645\u0650\u0646\u064f\u0648\u0652\u0646\u064e \u0627\u0644\u0651\u064e\u0630\u0650\u064a\u0652\u0646\u064e \u0627\u0670\u0645\u064e\u0646\u064f\u0648\u0652\u0627 \u0628\u0650\u0627\u0644\u0644\u0651\u0670\u0647\u0650 \u0648\u064e\u0631\u064e\u0633\u064f\u0648\u0652\u0644\u0650\u0647\u0656 \u062b\u064f\u0645\u0651\u064e \u0644\u064e\u0645\u0652 \u064a\u064e\u0631\u0652\u062a\u064e\u0627\u0628\u064f\u0648\u0652\u0627 \u0648\u064e\u062c\u064e\u0627\u0647\u064e\u062f\u064f\u0648\u0652\u0627 \u0628\u0650\u0627\u064e\u0645\u0652\u0648\u064e\u0627\u0644\u0650\u0647\u0650\u0645\u0652 \u0648\u064e\u0627\u064e\u0646\u0652\u0641\u064f\u0633\u0650\u0647\u0650\u0645\u0652 \u0641\u0650\u064a\u0652 \u0633\u064e\u0628\u0650\u064a\u0652\u0644\u0650 \u0627\u0644\u0644\u0651\u0670\u0647\u0650 \u06d7 \u0627\u064f\u0648\u0644\u0670\u06e4\u0649\u0655\u0650\u0643\u064e \u0647\u064f\u0645\u064f \u0627\u0644\u0635\u0651\u0670\u062f\u0650\u0642\u064f\u0648\u0652\u0646\u064e \u0661\u0665 (\u0627\u0644\u062d\u062c\u0631\u0670\u062a)\n\u201cSesungguhnya orang-orang mukmin yang sebenarnya adalah mereka yang beriman kepada Allah dan Rasul-Nya kemudian mereka tidak ragu-ragu dan mereka berjihad dengan harta dan jiwanya di jalan Allah. Mereka itulah orang-orang yang benar.\u201d (al-\u1e24ujur\u0101t/49: 15)\nJadi ada dua syarat untuk menjadi umat terbaik di dunia, sebagaimana diterangkan dalam ayat ini, pertama, iman yang kuat dan, kedua, menegakkan amar makruf dan mencegah kemungkaran. Maka setiap umat yang memiliki kedua sifat ini pasti umat itu jaya dan mulia dan apabila kedua hal itu diabaikan dan tidak dipedulikan lagi, maka tidak dapat disesalkan bila umat itu jatuh ke lembah kemelaratan.\nAhli Kitab itu jika beriman tentulah lebih baik bagi mereka. Tetapi sedikit sekali di antara mereka yang beriman seperti Abdullah bin Salam dan kawan-kawannya, dan kebanyakan mereka adalah orang fasik, tidak mau beriman, mereka percaya kepada sebagian kitab suci dan kafir kepada sebagiannya yang lain, atau mereka percaya kepada sebagian rasul seperti Musa dan Isa dan kafir kepada Nabi Muhammad saw.",
        "intro_surah": "Surah ketiga adalah \u0100li \u2018Imr\u0101n (Keluarga Imran) yang terdiri atas 200 ayat. Surah ini termasuk golongan Madaniyah. Dinamakan \u0100li \u2018Imr\u0101n, karena dalam surah ini terdapat kisah keluarga Imran dan keturunannya, kelahiran Nabi Isa a.s., yang dilahirkan oleh Maryam putri Imran, persamaan kejadian Isa dengan Adam a.s., dan mukjizat yang diberikan Allah kepada Nabi Isa.\nSurah al-Baqarah dan surah \u0100li \u2018Imr\u0101n dinamakan az-Zahraw\u0101ni (dua surah yang cemerlang), karena kedua surah ini mengungkapkan hal-hal yang disembunyikan oleh Ahli Kitab, seperti kejadian kelahiran Nabi Isa a.s., kedatangan Nabi Muhammad saw, dan sebagainya.\nPokok-pokok isinya\n1. Keimanan\nDalil-dalil yang membantah perkataan orang Nasrani yang mengakui Isa a.s., adalah salah satu dari oknum-oknum Tuhan yang tiga. Ketauhidan adalah dasar dari agama-agama yang dibawa para nabi.\n2. Hukum-hukum\nAsas musyawarah; mub\u0101halah dan hukum riba.\n3. Kisah-kisah\nKisah keluarga Imran, Perang Badar dan Perang Uhud dan pelajaran yang dapat diambil daripadanya.\n4. Lain-lain\nDalam surah ini disebutkan beberapa golongan manusia dalam memahami ayat-ayat mutasyabihat, sifat-sifat Allah, sifat-sifat orang yang bertakwa, agama Islam adalah agama yang diridai Allah, akibat menjadikan orang kafir sebagai teman kepercayaan, pengambilan perjanjian para nabi oleh Allah; perumpamaan-perumpamaan peringatan kepada orang mukmin; Ka\u2018bah adalah rumah ibadah yang paling tua; faedah mengingat Allah dan merenungkan ciptaan-Nya.\n ",
        "outro_surah": null,
        "munasabah_prev_surah": "HUBUNGAN ANTARA SURAH AL-BAQARAH\nDENGAN SURAH \u0100LI \u2018IMR\u0100N\n1. Dalam surah al-Baqarah disebutkan bahwa Nabi Adam a.s. langsung diciptakan Allah, sedang dalam surah Ali Imran disebutkan tentang kelahiran Nabi Isa a.s. yang kedua-duanya di luar kebiasaan.\n2.\tDalam surah al-Baqarah dibahas secara luas sifat dan perbuatan orang Yahudi, disertai dengan hujah-hujah yang membantah dan membetulkan kesesatan mereka, sedang dalam surah \u0100li \u2018Imr\u0101n dipaparkan hal-hal yang sama yang berhubungan dengan orang Nasrani.\n3.\tSurah al-Baqarah dimulai dengan menyebut tiga golongan manusia, yaitu orang mukmin, orang kafir dan orang munafik, sedang surah \u0100li \u2018Imr\u0101n menyebutkan orang-orang yang suka menakwilkan ayat-ayat yang mutasyabihat dengan takwil yang salah untuk memfitnah orang-orang mukmin dan menyebutkan orang yang mempunyai keahlian dalam menakwilkannya.\n4.\tSurah al-Baqarah diakhiri dengan menyebutkan permohonan kepada Allah agar diampuni atas kesalahan-kesalahan dan kealpaan dalam melaksanakan ketaatan, sedang surah \u0100li \u2018Imr\u0101n disudahi dengan permohonan kepada Allah agar memberi pahala atas amal kebaikan hamba-Nya.\n5.\tSurah al-Baqarah diakhiri dengan pengakuan terhadap kekuasaan Allah dan pertolongannya, sedang surah \u0100li \u2018Imr\u0101n dimulai dengan menyebutkan bahwa Tuhan yang mereka mintakan pertolongan tersebut, adalah Tuhan yang hidup kekal abadi dan mengurus semua urusan makhluk-Nya.",
        "munasabah_prev_theme": "Pada ayat-ayat yang lalu diterangkan bahwa pada hari kiamat nanti ada dua golongan manusia yang amat berlainan nasibnya yaitu dengan muka putih berseri-seri dan yang bermuka hitam muram. Yang pertama adalah wajah kaum mukminin, sedang yang kedua wajah kaum kafirin dan munafikin. Dalam ayat ini disebutkan bahwa orang-orang yang yang beriman adalah sebaik-baik umat di dunia, karena mereka selalu berpegang teguh pada agama Allah, menjunjung tinggi kebenaran mengajak kepada kebaikan, dan mencegah dari kemungkaran dan senantiasa beriman kepada Allah.",
        "theme_group": "KEUTAMAAN UMAT ISLAM",
        "kosakata": "Kosakata: \u1e24abl \u062d\u064e\u0628\u0652\u0644\u064c (\u0100li \u2018Imr\u0101n/3: 112)\nDalam Al-Qur\u2019an, kata \u1e25abl disebut sebanyak tujuh kali. Lima kali dalam bentuk mufrad (tunggal), dua kali dalam bentuk jamak. Semua kata \u1e25abl yang ada, tidak disebut dalam posisi berdiri sendiri, tetapi disebutkan dalam posisi yang disandarkan pada kata yang lain (mu\u1e0d\u0101f ilaih), sehingga dalam memahaminya tidak mungkin dilihat secara terlepas dari konteks kalimat yang ada. Secara bahasa, kata \u1e25abl berarti \u201ctali yang biasa digunakan untuk mengikat sesuatu atau alat untuk pegangan\u201d. Tetapi jika kata ini disandarkan pada kata lain, maka maknanya bisa berubah, seperti kata \u1e25abl al-war\u012bd yang terdapat dalam Surah Q\u0101f/50:16. Kata tersebut tidak mungkin dimaknai secara harfiah: tali leher, tetapi mesti dipahami menurut konteksnya: urat nadi leher. Dengan demikian, kata \u1e25abl dalam ayat 112 Surah \u0100li \u2018Imr\u0101n, juga mesti dipahami secara metaforis, bukan secara harfiah. Ayat 112 ini masih berkaitan dengan ayat sebelumnya yang menerangkan perilaku orang-orang Ahli Kitab. Mereka akan ditimpa kehinaan kecuali dengan habl min Allah yaitu membayar jizyah berupa pajak kepada pemerintah, dan habl min al-n\u0101s, yaitu keamanan yang mereka peroleh dari kaum Muslimin.",
        "sabab_nuzul": null,
        "conclusion": null
    }
}