{
    "id": 502,
    "surah_id": 4,
    "ayah": 9,
    "page": 78,
    "quarter_hizb": 8.5,
    "juz": 4,
    "manzil": 1,
    "arabic": "\u0648\u064e\u0644\u0652\u064a\u064e\u062e\u0652\u0634\u064e \u0627\u0644\u0651\u064e\u0630\u0650\u064a\u0652\u0646\u064e \u0644\u064e\u0648\u0652 \u062a\u064e\u0631\u064e\u0643\u064f\u0648\u0652\u0627 \u0645\u0650\u0646\u0652 \u062e\u064e\u0644\u0652\u0641\u0650\u0647\u0650\u0645\u0652 \u0630\u064f\u0631\u0651\u0650\u064a\u0651\u064e\u0629\u064b \u0636\u0650\u0639\u0670\u0641\u064b\u0627 \u062e\u064e\u0627\u0641\u064f\u0648\u0652\u0627 \u0639\u064e\u0644\u064e\u064a\u0652\u0647\u0650\u0645\u0652\u06d6 \u0641\u064e\u0644\u0652\u064a\u064e\u062a\u0651\u064e\u0642\u064f\u0648\u0627 \u0627\u0644\u0644\u0651\u0670\u0647\u064e \u0648\u064e\u0644\u0652\u064a\u064e\u0642\u064f\u0648\u0652\u0644\u064f\u0648\u0652\u0627 \u0642\u064e\u0648\u0652\u0644\u064b\u0627 \u0633\u064e\u062f\u0650\u064a\u0652\u062f\u064b\u0627",
    "latin": "Walyakhsyal-la\u017c\u012bna lau tarak\u016b min khalfihim \u017curriyyatan \u1e0di\u2018\u0101fan kh\u0101f\u016b \u2018alaihim, falyattaqull\u0101ha walyaq\u016bl\u016b qaulan sad\u012bd\u0101(n).",
    "translation": "Hendaklah merasa takut orang-orang yang seandainya (mati) meninggalkan setelah mereka, keturunan yang lemah (yang) mereka khawatir terhadapnya. Maka, bertakwalah kepada Allah dan berbicaralah dengan tutur kata yang benar (dalam hal menjaga hak-hak keturunannya). ",
    "no_footnote": null,
    "footnotes": null,
    "surah": {
        "id": 4,
        "arabic": "\u0627\u0644\u0646\u0651\u0633\u0627\u06e4\u0621",
        "latin": "An-Nis\u0101' ",
        "transliteration": "An-Nisa'",
        "translation": "Perempuan",
        "num_ayah": 176,
        "page": 77,
        "location": "Madaniyah"
    },
    "tafsir": {
        "wajiz": "Setelah menjelaskan anjuran berbagi sebagian dari harta warisan yang didapat kepada kerabat yang tidak mendapatkan bagian, ayat ini memberi anjuran untuk memperhatikan nasib anak-anak mereka apabila menjadi yatim. Dan hendaklah takut kepada Allah orang-orang yang sekiranya mereka meninggalkan keturunan di kemudian hari anakanak yang lemah dalam keadaan yatim yang belum mampu mandiri di belakang mereka yang mereka khawatir terhadap kesejahteraan-nya lantaran mereka tidak terurus, lemah, dan hidup dalam kemiskinan. Oleh sebab itu, hendaklah mereka para wali bertakwa kepada Allah dengan mengindahkan perintah-Nya dan menjauhi larangan-Nya, dan hendaklah mereka berbicara dengan tutur kata yang benar, penuh perhatian dan kasih sayang terhadap anak-anak yatim dalam asuhannya.",
        "tahlili": "Orang yang telah mendekati akhir hayatnya diperingatkan agar mereka memikirkan, janganlah meninggalkan anak-anak atau keluarga yang lemah terutama tentang kesejahteraan hidup mereka di kemudian hari. Untuk itu selalu bertakwa dan mendekatkan diri kepada Allah. Selalu berkata lemah lembut, terutama kepada anak yatim yang menjadi tanggung jawab mereka. Perlakukanlah mereka seperti memperlakukan anak kandung sendiri.",
        "intro_surah": "Surah an-Nis\u0101\u2019 yang terdiri dari 176 ayat itu adalah surah Madaniyah yang terpanjang sesudah Surah al-Baqarah. Dinamakan an-Nis\u0101\u2019 karena dalam surah ini banyak dibicarakan hal yang berhubungan dengan perempuan serta merupakan surah yang paling banyak membicarakan hal itu dibanding dengan surah-surah Al-Qur\u2019an yang lain. Surah lain yang banyak juga membicarakan hal perempuan ialah Surah a\u1e6d-\u1e6cal\u0101q. Dalam hubungan ini Surah an-Nis\u0101\u2019 biasa disebut dengan sebutan S\u016brah an-Nis\u0101\u2019 al-Kubr\u0101 (Surah an-Nis\u0101\u2019 yang besar), sedang Surah a\u1e6d-\u1e6cal\u0101q disebut dengan sebutan S\u016brah an-Nis\u0101\u2019 a\u1e63-\u1e62ugr\u0101 (Surah an-Nis\u0101\u2019 yang kecil).\n\nPokok-pokok Isinya\n1.\tKeimanan \nMencakup syirik, kekafiran dan hari kemudian.\n\n2.\tHukum-hukum\nKewajiban para w\u0101\u1e63i dan para wali, hukum poligami, maskawin, memakan harta anak yatim dan orang-orang yang tidak dapat mengurus hartanya, pokok-pokok hukum warisan, perbuatan-perbuatan keji dan hukumannya, perempuan yang haram dikawini, hukum mengawini budak perempuan, larangan memakan harta secara batil, hukum syiq\u0101q dan nusy\u016bz, kesucian lahir batin dalam salat, hukum suaka, hukum membunuh seorang muslim, salat khauf, larangan melontarkan ucapan-ucapan buruk, masalah pusaka kalalah, dan lain-lain.\n\n3.\tKisah-kisah \nKisah-kisah tentang Nabi Musa dan pengikut-pengikutnya.\n\n4.\tLain-lain:\nAsal manusia adalah satu, keharusan menjauhi adat zaman jahiliah dalam menggauli perempuan, cara menggauli istri, hak seseorang sesuai dengan kewajibannya, perlakuan Ahli Kitab terhadap kitab-kitab yang diturunkan kepadanya, dasar-dasar pemerintahan, cara mengadili perkara, keharusan siap-siaga terhadap musuh, sikap-sikap orang munafik dalam manghadapi peperangan, berperang di jalan Allah adalah kewajiban tiap-tiap mukalaf, adab dalam peperangan, cara menghadapi orang-orang munafik, derajat-derajat orang yang berjihad.\n ",
        "outro_surah": null,
        "munasabah_prev_surah": "Hubungan Surah an-Nis\u0101\u2019 dengan Surah \u0100li \u2018Imr\u0101n, ialah:\n1. \tSurah an-Nis\u0101\u2019 dimulai dengan perintah bertakwa kepada Allah sedang Surah Ali Imr\u0101n juga disudahi dengan perintah bertakwa kepada Allah.\n2.\tDalam Surah \u0100li \u2018Imr\u0101n disebutkan kisah perang Badar dan Uhud dengan sempurna, di dalam Surah an-Nis\u0101\u2019 sebagian kisah itu diulangi lagi.\n3.\tKisah perang \u1e24amra\u2019 al-Asad yang terjadi sesudah Perang Uhud terdapat dalam surah Ali \u2018Imr\u0101n, maka dalam Surah an-Nis\u0101\u2019 kisah itu disinggung lagi.\n4.\tDalam Surah \u0100li \u2018Imr\u0101n telah disebutkan bahwa di kalangan kaum Muslimin banyak yang gugur dalam medan perang sebagai syuhada yang tentunya mereka meninggalkan anak-anak yang sudah yatim dan istri yang sudah janda. Maka pada permulaan Surah an-Nis\u0101\u2019 disebutkan perintah memelihara anak-anak yatim serta pembagian harta pusaka.",
        "munasabah_prev_theme": "Ayat-ayat yang terdahulu menjelaskan tentang haram memakan harta anak yatim dan diperintahkan menyerahkan semua hartanya kepadanya bila telah dewasa dan juga larangan mengambil mahar perempuan yang sudah dinikahi atau menikahinya tanpa mahar. Maka dalam ayat ini dijelaskan tentang pembagian harta pusaka dan perlakuan terhadap anak-anak yatim dan hartanya.",
        "theme_group": "POKOK-POKOK HUKUM WARIS",
        "kosakata": "Kosakata: \u017curriyyah \u1e0di\u2019\u0101fan \u0630\u064f\u0631\u0651\u0650\u064a\u0651\u064e\u0629\u064b \u0636\u0650\u0639\u064e\u0627\u0641\u064b\u0627 (an-Nis\u0101\u2019/4: 9)\nDalam Al-Qur\u2019an sekurangnya disebutkan dua kali istilah yang hampir serupa. Pertama, istilah \u017curriyyah \u1e0du\u2019af\u0101\u2019 yang disebutkan di dalam Surah al-Baqarah/2:266; kedua, istilah \u017curriyyah \u1e0di\u2019\u0101fan yang disebutkan di dalam ayat ini. \u017curriyyah \u1e0du\u2019af\u0101\u2019 berarti \u201canak-anak (keturunan) yang masih kecil-kecil, dalam arti belum dewasa\u201d. Sedangkan kata \u017curriyyah \u1e0di\u2019\u0101fan berarti \u201cketurunan yang serba lemah,\u201d lemah fisik, mental, sosial, ekonomi, ilmu pengetahuan, spiritual dan lain-lain yang menyebabkan mereka tidak mampu menjalankan fungsi utama manusia, baik sebagai khalifah maupun sebagai makhluk-Nya yang harus beribadah kepada-Nya. Tegasnya, Allah berpesan kepada generasi yang tua jangan sampai generasi penerus yang akan melanjutkan perjuangan justru generasi yang tak berdaya, yang tidak dapat mengemban fungsi dan tanggung jawabnya. Upaya pemberdayaan generasi penerus terletak di pundak generasi sebelumnya, orang tua dan masyarakat.",
        "sabab_nuzul": null,
        "conclusion": null
    }
}