{
    "id": 529,
    "surah_id": 4,
    "ayah": 36,
    "page": 84,
    "quarter_hizb": 9.25,
    "juz": 5,
    "manzil": 1,
    "arabic": "\u06de \u0648\u064e\u0627\u0639\u0652\u0628\u064f\u062f\u064f\u0648\u0627 \u0627\u0644\u0644\u0651\u0670\u0647\u064e \u0648\u064e\u0644\u064e\u0627 \u062a\u064f\u0634\u0652\u0631\u0650\u0643\u064f\u0648\u0652\u0627 \u0628\u0650\u0647\u0656 \u0634\u064e\u064a\u0652\u0640\u0654\u064b\u0627 \u0648\u0651\u064e\u0628\u0650\u0627\u0644\u0652\u0648\u064e\u0627\u0644\u0650\u062f\u064e\u064a\u0652\u0646\u0650 \u0627\u0650\u062d\u0652\u0633\u064e\u0627\u0646\u064b\u0627 \u0648\u0651\u064e\u0628\u0650\u0630\u0650\u0649 \u0627\u0644\u0652\u0642\u064f\u0631\u0652\u0628\u0670\u0649 \u0648\u064e\u0627\u0644\u0652\u064a\u064e\u062a\u0670\u0645\u0670\u0649 \u0648\u064e\u0627\u0644\u0652\u0645\u064e\u0633\u0670\u0643\u0650\u064a\u0652\u0646\u0650 \u0648\u064e\u0627\u0644\u0652\u062c\u064e\u0627\u0631\u0650 \u0630\u0650\u0649 \u0627\u0644\u0652\u0642\u064f\u0631\u0652\u0628\u0670\u0649 \u0648\u064e\u0627\u0644\u0652\u062c\u064e\u0627\u0631\u0650 \u0627\u0644\u0652\u062c\u064f\u0646\u064f\u0628\u0650 \u0648\u064e\u0627\u0644\u0635\u0651\u064e\u0627\u062d\u0650\u0628\u0650 \u0628\u0650\u0627\u0644\u0652\u062c\u064e\u0646\u0652\u06e2\u0628\u0650 \u0648\u064e\u0627\u0628\u0652\u0646\u0650 \u0627\u0644\u0633\u0651\u064e\u0628\u0650\u064a\u0652\u0644\u0650\u06d9 \u0648\u064e\u0645\u064e\u0627 \u0645\u064e\u0644\u064e\u0643\u064e\u062a\u0652 \u0627\u064e\u064a\u0652\u0645\u064e\u0627\u0646\u064f\u0643\u064f\u0645\u0652 \u06d7 \u0627\u0650\u0646\u0651\u064e \u0627\u0644\u0644\u0651\u0670\u0647\u064e \u0644\u064e\u0627 \u064a\u064f\u062d\u0650\u0628\u0651\u064f \u0645\u064e\u0646\u0652 \u0643\u064e\u0627\u0646\u064e \u0645\u064f\u062e\u0652\u062a\u064e\u0627\u0644\u064b\u0627 \u0641\u064e\u062e\u064f\u0648\u0652\u0631\u064b\u0627\u06d9",
    "latin": "Wa\u2018budull\u0101ha wa l\u0101 tusyrik\u016b bih\u012b syai'aw wa bil-w\u0101lidaini i\u1e25s\u0101naw wa bi\u017cil-qurb\u0101 wal-yat\u0101m\u0101 wal-mas\u0101k\u012bni wal-j\u0101ri \u017cil-qurb\u0101 wal-j\u0101ril-junubi  wa\u1e63-\u1e63\u0101\u1e25ibi bil-jambi wabnis-sab\u012bl(i), wa m\u0101 malakat aim\u0101nukum, innall\u0101ha l\u0101 yu\u1e25ibbu man k\u0101na mukht\u0101lan fakh\u016br\u0101(n).",
    "translation": "Sembahlah Allah dan janganlah kamu mempersekutukan-Nya dengan sesuatu apa pun. Berbuat baiklah kepada kedua orang tua, karib kerabat, anak-anak ya tim, orang-orang miskin, tetangga dekat dan tetangga jauh, teman sejawat, ibnusabil, serta hamba sahaya yang kamu miliki. Sesungguhnya Allah tidak menyukai orang yang sombong lagi sangat membanggakan diri.",
    "no_footnote": null,
    "footnotes": null,
    "surah": {
        "id": 4,
        "arabic": "\u0627\u0644\u0646\u0651\u0633\u0627\u06e4\u0621",
        "latin": "An-Nis\u0101' ",
        "transliteration": "An-Nisa'",
        "translation": "Perempuan",
        "num_ayah": 176,
        "page": 77,
        "location": "Madaniyah"
    },
    "tafsir": {
        "wajiz": "Ayat-ayat di atas yang berbicara tentang aturan dan tuntunan kehidupan rumah tangga dan harta waris, memerlukan tingkat kesadaran untuk mematuhinya. Ayat ini menekankan kesadaran tersebut dengan menunjukkan perincian tempat tumpuan kesadaran itu dipraktikkan. Dan sembahlah Allah Tuhan yang menciptakan kamu dan pasangan kamu, dan janganlah kamu sekali-kali mempersekutukan-Nya dengan sesuatu apa pun. Dan berbuat baiklah dengan sungguh-sungguh kepada kedua orang tua, juga kepada karib-kerabat, anak-anak yatim, orang-orang miskin, tetangga dekat dan tetangga jauh walaupun tetangga itu nonmuslim, teman sejawat, ibnu sabil, yakni orang dalam perjalanan bukan maksiat yang kehabisan bekal, dan hamba sahaya yang kamu miliki. Sungguh, Allah tidak menyukai dan tidak melimpahkan rahmat dan kasih sayang-Nya kepada orang yang sombong dan membanggakan diri di hadapan orang lain.",
        "tahlili": "Mengabdi dan menyembah kepada Allah dinamakan ibadah. Beribadah dengan penuh keikhlasan hati, mengakui keesaan-Nya dan tidak mempersekutukan-Nya dengan sesuatu, itulah kewajiban seseorang kepada Allah. Dalam kata lain, ibadah dan mengesakan Allah merupakan hak-hak Allah yang menjadi kewajiban manusia untuk menunaikannya. Melakukan ibadah kepada Allah tampak dalam amal perbuatan setiap hari, seperti mengerjakan apa yang telah ditetapkan oleh Rasulullah dan telah dicontohkannya, seperti salat, puasa, zakat, haji dan lain-lainnya, dinamakan ibadah khusus. Kemudian ibadah umum, yaitu semua pekerjaan yang baik yang dikerjakan dalam rangka patuh dan taat kepada Allah saja, bukan karena yang lainnya, seperti membantu fakir miskin, menolong dan memelihara anak yatim, mengajar orang, menunjukkan jalan kepada orang yang sesat dalam perjalanan, menyingkirkan hal-hal yang dapat mengganggu orang di tengah jalan dan sebagainya. Ibadah harus dikerjakan dengan ikhlas, memurnikan ketaatan kepada-Nya dan tidak mempersekutukan-Nya dengan yang lain.\nAda bermacam-macam pekerjaan manusia yang menyebabkan dia bisa menjadi musyrik, di antaranya menyembah berhala sebagai perantara agar permohonannya disampaikan kepada Allah. Mereka bersembah sujud di hadapan berhala untuk menyampaikan hajat dan maksud mereka. Perbuatan manusia yang seperti itu banyak disebutkan Allah dalam Al-Qur\u2019an. Allah berfirman:\n\u0648\u064e\u064a\u064e\u0639\u0652\u0628\u064f\u062f\u064f\u0648\u0652\u0646\u064e \u0645\u0650\u0646\u0652 \u062f\u064f\u0648\u0652\u0646\u0650 \u0627\u0644\u0644\u0651\u0670\u0647\u0650 \u0645\u064e\u0627 \u0644\u064e\u0627 \u064a\u064e\u0636\u064f\u0631\u0651\u064f\u0647\u064f\u0645\u0652 \u0648\u064e\u0644\u064e\u0627 \u064a\u064e\u0646\u0652\u0641\u064e\u0639\u064f\u0647\u064f\u0645\u0652 \u0648\u064e\u064a\u064e\u0642\u064f\u0648\u0652\u0644\u064f\u0648\u0652\u0646\u064e \u0647\u0670\u0653\u0624\u064f\u0644\u064e\u0627\u06e4\u0621\u0650 \u0634\u064f\u0641\u064e\u0639\u064e\u0627\u06e4\u0624\u064f\u0646\u064e\u0627 \u0639\u0650\u0646\u0652\u062f\u064e \u0627\u0644\u0644\u0651\u0670\u0647\u0650 \u06d7\u0642\u064f\u0644\u0652 \u0627\u064e\u062a\u064f\u0646\u064e\u0628\u0651\u0650\u0640\u0654\u064f\u0648\u0652\u0646\u064e \u0627\u0644\u0644\u0651\u0670\u0647\u064e \u0628\u0650\u0645\u064e\u0627 \u0644\u064e\u0627 \u064a\u064e\u0639\u0652\u0644\u064e\u0645\u064f \u0641\u0650\u0649 \u0627\u0644\u0633\u0651\u064e\u0645\u0670\u0648\u0670\u062a\u0650 \u0648\u064e\u0644\u064e\u0627 \u0641\u0650\u0649 \u0627\u0644\u0652\u0627\u064e\u0631\u0652\u0636\u0650\u06d7 \u0633\u064f\u0628\u0652\u062d\u0670\u0646\u064e\u0647\u0657 \u0648\u064e\u062a\u064e\u0639\u0670\u0644\u0670\u0649 \u0639\u064e\u0645\u0651\u064e\u0627 \u064a\u064f\u0634\u0652\u0631\u0650\u0643\u064f\u0648\u0652\u0646\u064e \u0661\u0668\nDan mereka menyembah selain Allah, sesuatu yang tidak dapat mendatangkan bencana kepada mereka dan tidak (pula) memberi manfaat, dan mereka berkata, \u201dMereka itu adalah pemberi syafaat kami di hadapan Allah.\u201d Katakanlah, \u201dApakah kamu akan memberitahu kepada Allah sesuatu yang tidak diketahui-Nya apa yang di langit dan tidak (pula) yang di bumi?\u201d Mahasuci Allah dan Mahatinggi dari apa yang mereka persekutukan itu. (Y\u016bnus/10:18).\nAda pula golongan lain yang termasuk musyrik, sebagaimana yang disebutkan Allah dalam Al-Qur\u2019an, yaitu orang Nasrani yang menuhankan Nabi Isa, putra Maryam. Di samping mereka menyembah Allah, juga mereka mengakui Isa a.s. sebagai Tuhan mereka. Allah berfirman:\n\u0627\u0650\u062a\u0651\u064e\u062e\u064e\u0630\u064f\u0648\u0652\u0653\u0627 \u0627\u064e\u062d\u0652\u0628\u064e\u0627\u0631\u064e\u0647\u064f\u0645\u0652 \u0648\u064e\u0631\u064f\u0647\u0652\u0628\u064e\u0627\u0646\u064e\u0647\u064f\u0645\u0652 \u0627\u064e\u0631\u0652\u0628\u064e\u0627\u0628\u064b\u0627 \u0645\u0650\u0651\u0646\u0652 \u062f\u064f\u0648\u0652\u0646\u0650 \u0627\u0644\u0644\u0651\u0670\u0647\u0650 \u0648\u064e\u0627\u0644\u0652\u0645\u064e\u0633\u0650\u064a\u0652\u062d\u064e \u0627\u0628\u0652\u0646\u064e \u0645\u064e\u0631\u0652\u064a\u064e\u0645\u064e\u06da \u0648\u064e\u0645\u064e\u0627\u0653 \u0627\u064f\u0645\u0650\u0631\u064f\u0648\u0652\u0653\u0627 \u0627\u0650\u0644\u0651\u064e\u0627 \u0644\u0650\u064a\u064e\u0639\u0652\u0628\u064f\u062f\u064f\u0648\u0652\u0653\u0627 \u0627\u0650\u0644\u0670\u0647\u064b\u0627 \u0648\u0651\u064e\u0627\u062d\u0650\u062f\u064b\u0627\u06da \u0644\u064e\u0627\u0653 \u0627\u0650\u0644\u0670\u0647\u064e \u0627\u0650\u0644\u0651\u064e\u0627 \u0647\u064f\u0648\u064e\u06d7 \u0633\u064f\u0628\u0652\u062d\u0670\u0646\u064e\u0647\u0657 \u0639\u064e\u0645\u0651\u064e\u0627 \u064a\u064f\u0634\u0652\u0631\u0650\u0643\u064f\u0648\u0652\u0646\u064e \u0663\u0661\nMereka menjadikan orang-orang alim (Yahudi), dan rahib-rahibnya (Nasrani) sebagai tuhan selain Allah dan (juga) Al-Masih putra Maryam; padahal mereka hanya disuruh menyembah Tuhan Yang Maha Esa; tidak ada tuhan selain Dia. Mahasuci Dia dari apa yang mereka persekutukan. (at-Taubah/9:31).\n\nOrang musyrik semacam ini banyak terdapat pada masa sekarang, yaitu orang yang memohon dan meminta syafaat dengan perantaraan orang-orang yang dianggapnya suci dan keramat, baik orang-orang yang dianggapnya suci itu masih hidup maupun sudah mati. Mereka mendatangi kuburannya, di sanalah mereka menyampaikan hajat dan doa, bahkan mereka sampai bermalam di sana. Mereka berwasilah kepadanya dan dengan berwasilah itu, maksudnya akan berhasil dan doanya akan makbul. Tidak jarang terjadi manusia berdoa meminta kepada batu, pohon kayu, roh nenek moyang, jin, hantu dan sebagainya. Semua ini digolongkan perbuatan syirik.\nKewajiban seseorang kepada Allah ialah menyembah-Nya dan tidak mempersekutukan-Nya dengan yang lain. Rasulullah saw bersabda:\n\u0639\u064e\u0646\u0652 \u0645\u064f\u0639\u064e\u0627\u0630\u0650 \u0628\u0652\u0646\u0650 \u062c\u064e\u0628\u064e\u0644\u064d \u0623\u064e\u0646\u0651\u064e \u0631\u064e\u0633\u064f\u0648\u0652\u0644\u064e \u0627\u0644\u0644\u0647\u0650 \u0635\u064e\u0644\u0651\u064e\u0649 \u0627\u0644\u0644\u0647 \u064f\u0639\u064e\u0644\u064e\u064a\u0652\u0647\u0650 \u0648\u064e\u0633\u064e\u0644\u0651\u064e\u0645\u064e \u0642\u064e\u0627\u0644\u064e \u0644\u064e\u0647\u064f \u064a\u064e\u0627 \u0645\u064f\u0639\u064e\u0627\u0630\u064f \u0627\u064e\u062a\u064e\u062f\u0652\u0631\u0650\u064a\u0652 \u0645\u064e\u0627 \u062d\u064e\u0642\u0651\u064f \u0627\u0644\u0644\u0647\u0650 \u0639\u064e\u0644\u064e\u0649 \u0627\u0644\u0652\u0639\u0650\u0628\u064e\u0627\u062f\u0650 \u0648\u064e\u0645\u064e\u0627 \u062d\u064e\u0642\u0651\u064f \u0627\u0644\u0652\u0639\u0650\u0628\u064e\u0627\u062f\u0650 \u0639\u064e\u0644\u064e\u0649 \u0627\u0644\u0644\u0647\u0650\u061f \u0642\u064f\u0644\u0652\u062a\u064f: \u0627\u064e\u0644\u0644\u0647 \u064f\u0648\u064e\u0631\u064e\u0633\u064f\u0648\u0652\u0644\u064f\u0647\u064f \u0627\u064e\u0639\u0652\u0644\u064e\u0645\u064f. \u0642\u064e\u0627\u0644\u064e: \u062d\u064e\u0642\u0651\u064f \u0627\u0644\u0644\u0647\u0650 \u0639\u064e\u0644\u064e\u0649 \u0627\u0644\u0652\u0639\u0650\u0628\u064e\u0627\u062f\u0650 \u0627\u064e\u0646\u0652 \u064a\u064e\u0639\u0652\u0628\u064f\u062f\u064f\u0648\u0652\u0647\u064f \u0648\u064e\u0644\u0627\u064e \u064a\u064f\u0634\u0652\u0631\u0650\u0643\u064f\u0648\u0652\u0627 \u0628\u0650\u0647\u0650 \u0634\u064e\u064a\u0652\u0626\u064b\u0627\u060c \u0648\u064e\u062d\u064e\u0642\u0651\u064f \u0627\u0644\u0652\u0639\u0650\u0628\u064e\u0627\u062f\u0650 \u0639\u064e\u0644\u064e\u0649 \u0627\u0644\u0644\u0647\u0650 \u0623\u064e\u0644\u0627\u0651\u064e \u064a\u064f\u0639\u064e\u0630\u0651\u0650\u0628\u064e \u0645\u064e\u0646\u0652 \u0644\u0627\u064e \u064a\u064f\u0634\u0652\u0631\u0650\u0643\u064f \u0628\u0650\u0647\u0650 \u0634\u064e\u064a\u0652\u0626\u064b\u0627 (\u0631\u0648\u0627\u0647 \u0627\u0644\u0628\u062e\u0627\u0631\u064a \u0648\u0645\u0633\u0644\u0645)\n\"Dari Mu\u2019\u0101z bin Jabal, Rasulullah saw bersabda, \u201cYa Mu\u2019\u0101z, tahukah engkau apakah hak Allah atas hamba-Nya, dan apa pula hak hamba atas Allah?\u201d Saya menjawab, \u201cAllah dan Rasul-Nya yang lebih tahu.\u201d Rasulullah berkata, \u201cHak Allah atas hamba-Nya ialah agar hamba-Nya menyembah-Nya dan jangan mempersekutukan-Nya dengan sesuatu. Hak hamba atas Allah ialah bahwa Allah tidak akan mengazab hamba-Nya yang tidak mempersekutukan-Nya dengan sesuatu.\u201d (Riwayat al-Bukh\u0101r\u012b dan Muslim).\n\nDalam ayat ini Allah mengatur kewajiban terhadap sesama manusia. Sesudah Allah memerintahkan agar menyembah dan beribadah kepada-Nya dengan tidak mempersekutukan-Nya dengan yang lain, selanjutnya Allah memerintahkan agar berbuat baik kepada ibu-bapak. Berbuat baik kepada ibu-bapak adalah suatu kewajiban yang harus dipenuhi oleh setiap manusia. Perintah mengabdi kepada Allah diiringi perintah berbuat baik kepada ibu-bapak adalah suatu peringatan bahwa jasa ibu bapak itu sungguh besar dan tidak dapat dinilai harganya dengan apa pun. Selain ayat ini ada lagi beberapa ayat dalam Al-Qur\u2019an yang memerintahkan agar berbuat baik kepada ibu-bapak seperti firman Allah:\n\u0648\u064e\u0648\u064e\u0635\u0651\u064e\u064a\u0652\u0646\u064e\u0627 \u0627\u0644\u0652\u0627\u0650\u0646\u0652\u0633\u064e\u0627\u0646\u064e \u0628\u0650\u0648\u064e\u0627\u0644\u0650\u062f\u064e\u064a\u0652\u0647\u0650\u06da \u062d\u064e\u0645\u064e\u0644\u064e\u062a\u0652\u0647\u064f \u0627\u064f\u0645\u0651\u064f\u0647\u0657 \u0648\u064e\u0647\u0652\u0646\u064b\u0627 \u0639\u064e\u0644\u0670\u0649 \u0648\u064e\u0647\u0652\u0646\u064d \u0648\u0651\u064e\u0641\u0650\u0635\u064e\u0627\u0644\u064f\u0647\u0657 \u0641\u0650\u064a\u0652 \u0639\u064e\u0627\u0645\u064e\u064a\u0652\u0646\u0650 \u0627\u064e\u0646\u0650 \u0627\u0634\u0652\u0643\u064f\u0631\u0652 \u0644\u0650\u064a\u0652 \u0648\u064e\u0644\u0650\u0648\u064e\u0627\u0644\u0650\u062f\u064e\u064a\u0652\u0643\u064e\u06d7 \u0627\u0650\u0644\u064e\u064a\u0651\u064e \u0627\u0644\u0652\u0645\u064e\u0635\u0650\u064a\u0652\u0631\u064f \u0661\u0664\nDan Kami perintahkan kepada manusia (agar berbuat baik) kepada kedua orang tuanya. Ibunya telah mengandungnya dalam keadaan lemah yang bertambah-tambah, dan menyapihnya dalam usia dua tahun. Bersyukurlah kepada-Ku dan kepada kedua orang tuamu. Hanya kepada Aku kembalimu. (Luqman/31:14).\n\n\u0648\u064e\u0642\u064e\u0636\u0670\u0649 \u0631\u064e\u0628\u0651\u064f\u0643\u064e \u0627\u064e\u0644\u0651\u064e\u0627 \u062a\u064e\u0639\u0652\u0628\u064f\u062f\u064f\u0648\u0652\u0653\u0627 \u0627\u0650\u0644\u0651\u064e\u0627\u0653 \u0627\u0650\u064a\u0651\u064e\u0627\u0647\u064f \u0648\u064e\u0628\u0650\u0627\u0644\u0652\u0648\u064e\u0627\u0644\u0650\u062f\u064e\u064a\u0652\u0646\u0650 \u0627\u0650\u062d\u0652\u0633\u0670\u0646\u064b\u0627\u06d7 \u0627\u0650\u0645\u0651\u064e\u0627 \u064a\u064e\u0628\u0652\u0644\u064f\u063a\u064e\u0646\u0651\u064e \u0639\u0650\u0646\u0652\u062f\u064e\u0643\u064e \u0627\u0644\u0652\u0643\u0650\u0628\u064e\u0631\u064e \u0627\u064e\u062d\u064e\u062f\u064f\u0647\u064f\u0645\u064e\u0627\u0653 \u0627\u064e\u0648\u0652 \u0643\u0650\u0644\u0670\u0647\u064f\u0645\u064e\u0627 \u0641\u064e\u0644\u064e\u0627 \u062a\u064e\u0642\u064f\u0644\u0652 \u0644\u0651\u064e\u0647\u064f\u0645\u064e\u0627\u0653 \u0627\u064f\u0641\u0651\u064d \u0648\u0651\u064e\u0644\u064e\u0627 \u062a\u064e\u0646\u0652\u0647\u064e\u0631\u0652\u0647\u064f\u0645\u064e\u0627 \u0648\u064e\u0642\u064f\u0644\u0652 \u0644\u0651\u064e\u0647\u064f\u0645\u064e\u0627 \u0642\u064e\u0648\u0652\u0644\u064b\u0627 \u0643\u064e\u0631\u0650\u064a\u0652\u0645\u064b\u0627 \u0662\u0663\nDan Tuhanmu telah memerintahkan agar kamu jangan menyembah selain Dia dan hendaklah berbuat baik kepada ibu-bapak. Jika salah seorang di antara keduanya atau kedua-duanya sampai berusia lanjut dalam pemeliharaanmu, maka sekali-kali janganlah engkau mengatakan kepada keduanya perkataan \u201dah\u201d dan janganlah engkau membentak keduanya, dan ucapkanlah kepada keduanya perkataan yang baik. (al-Isr\u0101\u2019/17:23).\n\nBerbuat baik kepada ibu-bapak mencakup segala-galanya, baik dengan perkataan maupun dengan perbuatan yang dapat menyenangkan hati mereka keduanya. Berlaku lemah lembut dan sopan santun kepada keduanya termasuk berbuat baik kepadanya. Mengikuti nasihatnya, selama tidak bertentangan dengan ajaran Allah juga termasuk berbuat baik. Andaikata keduanya memerintahkan sesuatu yang bertentangan dengan ajaran Allah, perintahnya boleh tidak dipatuhi, tetapi terhadap keduanya tetap dijaga hubungan yang baik. Allah berfirman:\n\u0648\u064e\u0627\u0650\u0646\u0652 \u062c\u064e\u0627\u0647\u064e\u062f\u0670\u0643\u064e \u0639\u064e\u0644\u0670\u0653\u0649 \u0627\u064e\u0646\u0652 \u062a\u064f\u0634\u0652\u0631\u0650\u0643\u064e \u0628\u0650\u064a\u0652 \u0645\u064e\u0627 \u0644\u064e\u064a\u0652\u0633\u064e \u0644\u064e\u0643\u064e \u0628\u0650\u0647\u0656 \u0639\u0650\u0644\u0652\u0645\u064c \u0641\u064e\u0644\u064e\u0627 \u062a\u064f\u0637\u0650\u0639\u0652\u0647\u064f\u0645\u064e\u0627 \u0648\u064e\u0635\u064e\u0627\u062d\u0650\u0628\u0652\u0647\u064f\u0645\u064e\u0627 \u0641\u0650\u0649 \u0627\u0644\u062f\u0651\u064f\u0646\u0652\u064a\u064e\u0627 \u0645\u064e\u0639\u0652\u0631\u064f\u0648\u0652\u0641\u064b\u0627 \u06d6\u0648\u0651\u064e\u0627\u062a\u0651\u064e\u0628\u0650\u0639\u0652 \u0633\u064e\u0628\u0650\u064a\u0652\u0644\u064e \u0645\u064e\u0646\u0652 \u0627\u064e\u0646\u064e\u0627\u0628\u064e \u0627\u0650\u0644\u064e\u064a\u0651\u064e\u06da \u062b\u064f\u0645\u0651\u064e \u0627\u0650\u0644\u064e\u064a\u0651\u064e \u0645\u064e\u0631\u0652\u062c\u0650\u0639\u064f\u0643\u064f\u0645\u0652 \u0641\u064e\u0627\u064f\u0646\u064e\u0628\u0651\u0650\u0626\u064f\u0643\u064f\u0645\u0652 \u0628\u0650\u0645\u064e\u0627 \u0643\u064f\u0646\u0652\u062a\u064f\u0645\u0652 \u062a\u064e\u0639\u0652\u0645\u064e\u0644\u064f\u0648\u0652\u0646\u064e \u0661\u0665\n\u201cDan jika keduanya memaksamu untuk mempersekutukan Aku dengan sesuatu yang engkau tidak mempunyai ilmu tentang itu, maka janganlah engkau menaati keduanya, dan pergaulilah keduanya di dunia dengan baik, dan ikutilah jalan orang yang kembali kepada-Ku. Kemudian hanya kepada-Ku tempat kembalimu, maka akan Aku beritahukan kepadamu apa yang telah kamu kerjakan.\u201d (Luqm\u0101n/31:15).\n\nTermasuk pula berbuat baik mendoakan keduanya agar Allah mengampuni dosanya, sebab keduanya telah berjasa banyak, mendidik, memelihara dan mengasuh semenjak kecil.\nPerintah agar selalu berbuat baik kepada ibu bapak selama hayat masih dikandung badan, karena ibu bapak adalah manusia yang paling berjasa, diperintahkan pula agar berbuat baik kepada karib kerabat. Karib kerabat adalah orang yang paling dekat hubungannya dengan seseorang sesudah ibu bapak, baik karena ada hubungan darah maupun karena yang lainnya.\nKalau seseorang telah dapat menunaikan kewajibannya kepada Allah dengan sebaik-baiknya, maka dengan sendirinya akidah orang itu akan bertambah kuat dan amal perbuatannya akan bertambah baik. Kemudian bila dia telah menunaikan kewajibannya kepada kedua ibu bapaknya dengan ikhlas dan setia, akan terwujudlah rumah tangga yang aman dan damai dan akan berbahagialah seluruh rumah tangga itu.\nRumah tangga yang aman dan damai akan mempunyai kekuatan untuk berbuat baik kepada karib kerabat dan sanak famili. Maka akan terhimpunlah suatu kekuatan besar dalam masyarakat. Dari masyarakat yang seperti ini akan mudah terwujud sifat tolong-menolong dan bantu-membantu, berbuat baik kepada anak-anak yatim dan orang miskin.\nBerbuat baik kepada anak yatim dan orang miskin, bukan hanya didorong oleh hubungan darah dan famili, tetapi semata-mata karena dorongan perikemanusiaan yang ditumbuhkan oleh rasa iman kepada Allah. Iman kepada Allah yang menumbuhkan kasih sayang untuk menyantuni anak-anak yatim dan orang-orang miskin, sebab banyak terdapat perintah Allah di dalam Al-Qur\u2019an yang menyuruh berbuat baik kepada anak yatim dan orang miskin itu. Tangan siapa lagi yang dapat diharapkan oleh mereka itu untuk menolongnya, selain dari orang yang dadanya penuh dengan sifat kasih sayang, yaitu orang yang beriman yang mempunyai rasa perikemanusiaan.\nAnak yatim itu tidak mempunyai bapak yang mengurus dan membelanjainya dan orang miskin itu tidak mempunyai daya untuk membiayai hidupnya sehari-hari. Mungkin karena lemah badannya atau oleh karena tidak cukup pendapatannya dari sehari ke sehari. Agar mereka tetap menjadi anggota masyarakat yang baik jangan sampai terjerumus ke lembah kehinaan dan nista, setiap manusia yang mempunyai rasa perikemanusiaan dan mempunyai rasa kasih sayang, haruslah bersedia turun tangan membantu dan menolong mereka, sehingga lambat laun derajat hidup mereka dapat ditingkatkan.\nAllah juga menyuruh berbuat baik kepada tetangga yang dekat dan tetangga yang jauh, kepada teman sejawat, ibnussabil dan hamba sahaya. Tetangga dekat dan yang jauh ialah orang-orang yang berdekatan rumahnya, sering berjumpa setiap hari, bergaul setiap hari, dan tampak setiap hari keluar-masuk rumahnya. Tetapi ada pula yang mengartikan dengan hubungan kekeluargaan, dan ada pula yang mengartikan antara yang muslim dan yang bukan muslim.\nBerbuat baik kepada tetangga adalah penting. karena pada hakikatnya tetangga itulah yang menjadi saudara dan famili. Kalau terjadi sesuatu, tetanggalah yang paling dahulu datang memberikan pertolongan, baik siang maupun malam.\nSaudara dan sanak famili yang berjauhan tempat tinggalnya, belum tentu dapat diharapkan dengan cepat memberikan pertolongan pada waktu  di\u00ac\u00ac\u00acperlukan, seperti halnya tetangga. Oleh karena itu, hubungan yang baik dengan tetangga harus dijaga, jangan sampai terjadi perselisihan dan pertengkaran, walaupun tetangga itu beragama lain. Nabi Muhammad saw pernah melayat anak tetangganya yang beragama Yahudi.\nIbnu Umar pernah menyembelih seekor kambing, lalu dia berkata kepada pembantunya, \u201cSudahkah engkau berikan hadiah kepada tetangga kita orang Yahudi itu?\u201d Saya mendengar Rasulullah saw bersabda:\n\u0645\u064e\u0627 \u0632\u064e\u0627\u0644\u064e \u062c\u0650\u0628\u0652\u0631\u0650\u064a\u0652\u0644\u064f \u064a\u064f\u0648\u0652\u0635\u0650\u064a\u0652\u0646\u0650\u064a\u0652 \u0628\u0650\u0627\u0644\u0652\u062c\u064e\u0627\u0631\u0650 \u062d\u064e\u062a\u0651\u064e\u0649 \u0638\u064e\u0646\u064e\u0646\u0652\u062a\u064f \u0623\u064e\u0646\u0651\u064e\u0647\u064f \u0633\u064e\u064a\u064f\u0648\u064e\u0631\u0651\u0650\u062b\u064f\u0647\u064f (\u0631\u0648\u0627\u0647 \u0627\u0644\u0628\u062e\u0627\u0631\u064a \u0639\u0646 \u0627\u0628\u0646 \u0639\u0645\u0631)\n\"Malaikat Jibril tidak henti-henti menasihati aku, (agar berbuat baik) kepada tetangga,sehingga aku menyangka bahwa Jibril akan memberikan hak waris kepada tetangga.\" (Riwayat al-Bukh\u0101r\u012b dari Ibnu Umar).\n\nBanyak hadis yang menerangkan kewajiban bertetangga secara baik di antaranya:\n\u0645\u064e\u0646\u0652 \u0643\u064e\u0627\u0646\u064e \u064a\u064f\u0624\u0652\u0645\u0650\u0646\u064f \u0628\u0650\u0627\u0644\u0644\u0647\u0650 \u0648\u064e\u0627\u0644\u0652\u064a\u064e\u0648\u0652\u0645\u0650 \u0627\u0652\u0644\u0627\u0670\u062e\u0650\u0631\u0650 \u0641\u064e\u0644\u0652\u064a\u064f\u062d\u0652\u0633\u0650\u0646\u0652 \u0627\u0650\u0644\u064e\u0649 \u062c\u064e\u0627\u0631\u0650\u0647\u0650 (\u0631\u0648\u0627\u0647 \u0627\u0644\u0628\u062e\u0627\u0631\u064a \u0648\u0645\u0633\u0644\u0645 \u0639\u0646 \u0627\u0628\u064a \u0647\u0631\u064a\u0631\u0629)\n\"Siapa yang beriman kepada Allah dan hari akhir, maka hendaklah dia berbuat baik kepada tetanggannya\" (Riwayat al-Bukh\u0101r\u012b dan Muslim dari Abu Hurairah).\n\u0639\u064e\u0646\u0652 \u062c\u064e\u0627\u0628\u0650\u0631\u0650 \u0628\u0652\u0646\u0650 \u0639\u064e\u0628\u0652\u062f\u0650 \u0627\u0644\u0644\u0647\u0650 \u0642\u064e\u0627\u0644\u064e: \u0642\u064e\u0627\u0644\u064e \u0631\u064e\u0633\u064f\u0648\u0652\u0644\u064f \u0627\u0644\u0644\u0647\u0650 \u0635\u064e\u0644\u0651\u064e\u0649 \u0627\u0644\u0644\u0647 \u064f\u0639\u064e\u0644\u064e\u064a\u0652\u0647\u0650 \u0648\u064e\u0633\u064e\u0644\u0651\u064e\u0645\u064e: \u0627\u064e\u0644\u0652\u062c\u0650\u064a\u0652\u0631\u064e\u0627\u0646\u064f \u062b\u064e\u0644\u0627\u064e\u062b\u064c\u060c \u062c\u064e\u0627\u0631\u064c \u0644\u064e\u0647\u064f \u062d\u064e\u0642\u0651\u064c \u0648\u064e\u0627\u062d\u0650\u062f\u064c \u0648\u064e\u0647\u064f\u0648\u064e \u0627\u064e\u062f\u0652\u0646\u064e\u0649 \u0627\u0644\u0652\u062c\u0650\u064a\u0652\u0631\u064e\u0627\u0646\u0650 \u062d\u064e\u0642\u0651\u064b\u0627\u060c \u0648\u064e\u062c\u064e\u0627\u0631\u064c \u0644\u064e\u0647\u064f \u062d\u064e\u0642\u0651\u064e\u0627\u0646\u0650 \u0648\u064e\u062c\u064e\u0627\u0631\u064c \u0644\u064e\u0647\u064f \u062b\u064e\u0644\u0627\u064e\u062b\u064e\u0629\u064f \u062d\u064f\u0642\u064f\u0648\u0652\u0642\u064d \u0648\u064e\u0647\u064f\u0648\u064e \u0627\u064e\u0641\u0652\u0636\u064e\u0644\u064f \u0627\u0644\u0652\u062c\u0650\u064a\u0652\u0631\u064e\u0627\u0646\u0650 \u062d\u064e\u0642\u0651\u064b\u0627\u060c \u0641\u064e\u0627\u064e\u0645\u0651\u064e\u0627 \u0627\u0644\u0652\u062c\u064e\u0627\u0631\u064f \u0627\u0644\u0651\u064e\u0630\u0650\u064a\u0652 \u0644\u064e\u0647\u064f \u062d\u064e\u0642\u0651\u064c \u0648\u064e\u0627\u062d\u0650\u062f\u064c \u0641\u064e\u062c\u064e\u0627\u0631\u064c \u0645\u064f\u0634\u0652\u0631\u0650\u0643\u064c \u0644\u0627\u064e \u0631\u064e\u062d\u0650\u0645\u064e \u0644\u064e\u0647\u064f \u062d\u064e\u0642\u0651\u064f \u0627\u0644\u0652\u062c\u0650\u0648\u064e\u0627\u0631\u0650\u060c \u0648\u064e\u0627\u064e\u0645\u0651\u064e\u0627 \u0627\u0644\u0652\u062c\u064e\u0627\u0631\u064f \u0627\u0644\u0651\u064e\u0630\u0650\u064a\u0652 \u0644\u064e\u0647\u064f \u062d\u064e\u0642\u0651\u064e\u0627\u0646\u0650 \u0641\u064e\u062c\u064e\u0627\u0631\u064c \u0645\u064f\u0633\u0652\u0644\u0650\u0645\u064c \u0644\u064e\u0647\u064f \u062d\u064e\u0642\u0651\u064f \u0627\u0652\u0644\u0627\u0650\u0633\u0652\u0644\u0627\u064e\u0645\u0650 \u0648\u064e\u062d\u064e\u0642\u0651\u064f \u0627\u0644\u0652\u062c\u0650\u0648\u064e\u0627\u0631\u0650\u060c \u0648\u064e\u0627\u064e\u0645\u0651\u064e\u0627 \u0627\u0644\u0652\u062c\u064e\u0627\u0631\u064f \u0627\u0644\u0651\u064e\u0630\u0650\u064a\u0652 \u0644\u064e\u0647\u064f \u062b\u064e\u0644\u0627\u064e\u062b\u064e\u0629\u064f \u062d\u064f\u0642\u064f\u0648\u0652\u0642\u064d \u0641\u064e\u062c\u064e\u0627\u0631\u064c \u0645\u064f\u0633\u0652\u0644\u0650\u0645\u064c \u0630\u064f\u0648\u0652 \u0631\u064e\u062d\u0650\u0645\u064d \u0644\u064e\u0647\u064f \u062d\u064e\u0642\u0651\u064f \u0627\u0644\u0652\u062c\u0650\u0648\u064e\u0627\u0631\u0650 \u0648\u064e\u062d\u064e\u0642\u0651\u064f \u0627\u0652\u0644\u0627\u0650\u0633\u0652\u0644\u0627\u064e\u0645\u0650 \u0648\u064e\u062d\u064e\u0642\u0651\u064f \u0627\u0644\u0631\u0651\u064e\u062d\u0650\u0645\u0650 (\u0631\u0648\u0627\u0647 \u0627\u0628\u0648 \u0628\u0643\u0631 \u0627\u0644\u0628\u0632\u0627\u0631)\nDari Jabir bin Abdullah dia berkata, Rasulullah saw bersabda, \u201cTetangga itu ada tiga macam, tetangga yang mempunyai satu hak saja, dan ia merupakan tetangga yang haknya paling ringan. Ada tetangga yang mempunyai dua hak dan ada tetangga yang mempunyai tiga hak, inilah tetangga yang paling utama haknya. Adapun tetangga yang hanya mempunyai satu hak saja, ialah tetangga musyrik, tidak ada hubungan darah dengan dia, dia mempunyai hak bertetangga. Adapun tetangga yang mempunyai dua hak, ialah tetangga Muslim, baginya ada hak sebagai Muslim dan hak sebagai tetangga. Tetangga yang mempunyai tiga hak ialah tetangga Muslim yang ada hubungan darahnya. Baginya ada hak sebagai tetangga, hak sebagai Muslim dan hak sebagai famili.\u201d (Riwayat Ab\u016b Bakar al-Bazz\u0101r).\n\u0648\u064e\u0627\u0644\u0644\u0647\u0650 \u0644\u0627\u064e \u064a\u064f\u0624\u0652\u0645\u0650\u0646\u064f\u060c \u0648\u064e\u0627\u0644\u0644\u0647\u0650 \u0644\u0627\u064e \u064a\u064f\u0624\u0652\u0645\u0650\u0646\u064f\u060c \u0648\u064e\u0627\u0644\u0644\u0647\u0650 \u0644\u0627\u064e \u064a\u064f\u0624\u0652\u0645\u0650\u0646\u064f\u060c \u0642\u0650\u064a\u0652\u0644\u064e: \u0648\u064e\u0645\u064e\u0646\u0652 \u064a\u064e\u0627 \u0631\u064e\u0633\u064f\u0648\u0652\u0644\u064e \u0627\u0644\u0644\u0647\u0650\u061f \u0642\u064e\u0627\u0644\u064e: \u0627\u064e\u0644\u0651\u064e\u0630\u0650\u064a\u0652 \u0644\u0627\u064e \u064a\u064e\u0623\u0652\u0645\u064e\u0646\u064f \u062c\u064e\u0627\u0631\u064e\u0647\u064f \u0628\u064e\u0648\u064e\u0627\u0626\u0650\u0642\u064e\u0647\u064f (\u0631\u0648\u0627\u0647 \u0627\u0644\u0628\u062e\u0627\u0631\u064a \u0648\u0645\u0633\u0644\u0645 \u0639\u0646 \u0623\u0628\u064a \u0647\u0631\u064a\u0631\u0629)\n\"Demi Allah, tidak beriman, demi Allah tidak beriman, demi Allah, tidak beriman.\" Rasulullah ditanya orang, \"siapa ya Rasulullah?\" Rasulullah menjawab, \u201cIalah orang yang kejahatannya tidak membuat aman tetangganya.\" (Riwayat al-Bukh\u0101r\u012b dan Muslim dari Ab\u016b Hurairah).\n\nRasulullah saw bersabda:\n\u064a\u064e\u0627 \u0627\u064e\u0628\u064e\u0627 \u0630\u064e\u0631\u0651\u064d! \u0627\u0650\u0630\u064e\u0627 \u0637\u064e\u0628\u064e\u062e\u0652\u062a\u064e \u0645\u064e\u0631\u064e\u0642\u064e\u0629\u064b \u0641\u064e\u0623\u064e\u0643\u0652\u062b\u0650\u0631\u0652 \u0645\u064e\u0627\u0621\u064e\u0647\u064e\u0627 \u0648\u064e\u062a\u064e\u0639\u064e\u0627\u0647\u064e\u062f\u0652 \u062c\u0650\u064a\u0652\u0631\u064e\u0627\u0646\u064e\u0643\u064e (\u0631\u0648\u0627\u0647 \u0645\u0633\u0644\u0645 \u0639\u0646 \u0623\u0628\u064a \u0630\u0631)\n\"Ya Abu Zar, kalau engkau membuat maraq (sop) banyakkanlah kuahnya, kemudian berilah tetanggamu.\" (Riwayat Muslim dari Ab\u016b \u017carr).\n\nYang dimaksud berbuat baik kepada teman sejawat, ialah teman dalam perjalanan, atau dalam belajar, atau dalam pekerjaan yang dapat diharapkan pertolongannya dan memerlukan pertolongan, sehingga hubungan berkawan dan berteman tetap terpelihara. Setia-kawan adalah lambang ukhuwah Islamiyah, lambang persaudaraan dalam Islam.\nBerbuat baik kepada ibnu sabil, ialah menolong orang yang sedang dalam perjalanan bukan untuk tujuan maksiat, atau dalam perantauan yang jauh dari sanak famili dan memerlukan pertolongan, pada saat dia ingin kembali ke negerinya. Termasuk ibnu sabil ialah anak yang diketemukan yang tidak diketahui ibu bapaknya. Orang yang beriman wajib menolong anak tersebut, memeliharanya atau menemukan orang tuanya atau familinya, agar anak itu jangan terlunta-lunta hidupnya yang akibatnya akan menjadi anak yang rusak rohani dan jasmaninya.\nBerbuat baik kepada hamba sahaya, ialah dengan jalan memerdekakan budak. Apakah tuannya sendiri yang memerdekakannya atau orang lain dengan membelinya dari tuannya, kemudian dimerdekakannya. Pada zaman sekarang ini tidak terdapat lagi hamba sahaya, sebab perbudakan bertentangan dengan hak asasi manusia. Agama Islam pun tidak menginginkan adanya perbudakan. Karena itu semua hamba sahaya yang ditemui sebelum Islam datang, berangsur-angsur dimerdekakan dari tuannya, sehingga akhirnya habislah perbudakan itu.\nYang dimaksud dengan orang yang sombong dan membanggakan diri dalam ayat ini, ialah orang yang takabur yang dalam gerak-geriknya memperlihatkan kebesaran dirinya, begitu juga dalam pembicaraannya tampak kesombongannya melebihi orang lain, dialah yang tinggi dan mulia, orang lain rendah dan hina. Orang yang sombong dan membanggakan diri tidak disukai Allah. Sebab orang-orang yang seperti itu termasuk manusia yang tak tahu diri, lupa daratan dan akhirnya akan menyesal. Sifat takabur itu adalah hak Allah, bukan hak manusia. Siapa yang mempunyai sifat sombong dan takabur berarti menantang Allah. Biasanya orang yang sombong dan takabur itu kasar budi pekertinya dan busuk hatinya. Dia tidak dapat menunaikan kewajiban dengan baik dan ikhlas, baik kewajiban kepada Allah maupun kewajiban terhadap sesama manusia.\nBanyak hadis yang mencela orang-orang yang sombong dan takabur, di antaranya, Rasulullah saw bersabda:\n\u0644\u0627\u064e \u064a\u064e\u062f\u0652\u062e\u064f\u0644\u064f \u0627\u0644\u0652\u062c\u064e\u0646\u0651\u064e\u0629\u064e \u0645\u064e\u0646\u0652 \u0643\u064e\u0627\u0646\u064e \u0641\u0650\u064a \u0642\u064e\u0644\u0652\u0628\u0650\u0647\u0650 \u0645\u0650\u062b\u0652\u0642\u064e\u0627\u0644\u064f \u0630\u064e\u0631\u0651\u064e\u0629\u064d \u0645\u0650\u0646\u0652 \u0643\u0650\u0628\u0652\u0631\u064d\u060c \u0641\u064e\u0642\u064e\u0627\u0644\u064e \u0631\u064e\u062c\u064f\u0644\u064c: \u0627\u0650\u0646\u0651\u064e \u0627\u0644\u0631\u0651\u064e\u062c\u064f\u0644\u064e \u064a\u064f\u062d\u0650\u0628\u0651\u064f \u0627\u064e\u0646\u0652 \u064a\u064e\u0643\u064f\u0648\u0652\u0646\u064e \u062b\u064e\u0648\u0652\u0628\u064f\u0647\u064f \u062d\u064e\u0633\u064e\u0646\u064b\u0627 \u0648\u064e\u0646\u064e\u0639\u0652\u0644\u064f\u0647\u064f \u062d\u064e\u0633\u064e\u0646\u064e\u0629\u064b \u0642\u064e\u0627\u0644\u064e: \u0627\u0650\u0646\u0651\u064e \u0627\u0644\u0644\u0647 \u064e\u062c\u064e\u0645\u0650\u064a\u0652\u0644\u064c \u064a\u064f\u062d\u0650\u0628\u0651\u064f \u0627\u0644\u0652\u062c\u064e\u0645\u064e\u0627\u0644\u064e \u0627\u064e\u0644\u0652\u0643\u0650\u0628\u064e\u0631\u064f \u0628\u064e\u0637\u064e\u0631\u064f \u0627\u0644\u0652\u062d\u064e\u0642\u0651\u0650 \u0648\u064e\u063a\u064e\u0645\u0652\u0637\u064f \u0627\u0644\u0646\u0651\u064e\u0627\u0633\u0650 (\u0631\u0648\u0627\u0647 \u0623\u0628\u0648 \u062f\u0627\u0648\u062f \u0648\u0627\u0644\u062a\u0631\u0645\u0630\u064a \u0639\u0646 \u0627\u0628\u0646 \u0645\u0633\u0639\u0648\u062f)\n\"Tidak masuk surga orang yang di dalam hatinya terdapat takabur walaupun sedikit.\u201d Berkata seorang sabahat, \u201cSeseorang itu ingin memakai pakaian yang bagus dan sandal yang bagus.\u201d Berkata Rasulullah saw, \u201cSesungguhnya Allah itu indah dan senang kepada keindahan. Sifat takabur itu ialah menolak yang benar dan memandang rendah kepada orang lain.\u201d (Riwayat Ab\u016b Dawud, Tirmi\u017ci dari Ibnu Mas\u2019\u016bd).\n\nApakah yang akan disombongkan manusia, padahal semua yang ada padanya adalah kepunyaan Allah yang dititipkan kepadanya buat sementara. Lambat laun semuanya akan diambil Allah kembali, berikut nyawa dan tubuhnya yang kasar dan semuanya akan dipertanggungjawabkan di hadapan Allah nantinya.",
        "intro_surah": "Surah an-Nis\u0101\u2019 yang terdiri dari 176 ayat itu adalah surah Madaniyah yang terpanjang sesudah Surah al-Baqarah. Dinamakan an-Nis\u0101\u2019 karena dalam surah ini banyak dibicarakan hal yang berhubungan dengan perempuan serta merupakan surah yang paling banyak membicarakan hal itu dibanding dengan surah-surah Al-Qur\u2019an yang lain. Surah lain yang banyak juga membicarakan hal perempuan ialah Surah a\u1e6d-\u1e6cal\u0101q. Dalam hubungan ini Surah an-Nis\u0101\u2019 biasa disebut dengan sebutan S\u016brah an-Nis\u0101\u2019 al-Kubr\u0101 (Surah an-Nis\u0101\u2019 yang besar), sedang Surah a\u1e6d-\u1e6cal\u0101q disebut dengan sebutan S\u016brah an-Nis\u0101\u2019 a\u1e63-\u1e62ugr\u0101 (Surah an-Nis\u0101\u2019 yang kecil).\n\nPokok-pokok Isinya\n1.\tKeimanan \nMencakup syirik, kekafiran dan hari kemudian.\n\n2.\tHukum-hukum\nKewajiban para w\u0101\u1e63i dan para wali, hukum poligami, maskawin, memakan harta anak yatim dan orang-orang yang tidak dapat mengurus hartanya, pokok-pokok hukum warisan, perbuatan-perbuatan keji dan hukumannya, perempuan yang haram dikawini, hukum mengawini budak perempuan, larangan memakan harta secara batil, hukum syiq\u0101q dan nusy\u016bz, kesucian lahir batin dalam salat, hukum suaka, hukum membunuh seorang muslim, salat khauf, larangan melontarkan ucapan-ucapan buruk, masalah pusaka kalalah, dan lain-lain.\n\n3.\tKisah-kisah \nKisah-kisah tentang Nabi Musa dan pengikut-pengikutnya.\n\n4.\tLain-lain:\nAsal manusia adalah satu, keharusan menjauhi adat zaman jahiliah dalam menggauli perempuan, cara menggauli istri, hak seseorang sesuai dengan kewajibannya, perlakuan Ahli Kitab terhadap kitab-kitab yang diturunkan kepadanya, dasar-dasar pemerintahan, cara mengadili perkara, keharusan siap-siaga terhadap musuh, sikap-sikap orang munafik dalam manghadapi peperangan, berperang di jalan Allah adalah kewajiban tiap-tiap mukalaf, adab dalam peperangan, cara menghadapi orang-orang munafik, derajat-derajat orang yang berjihad.\n ",
        "outro_surah": null,
        "munasabah_prev_surah": "Hubungan Surah an-Nis\u0101\u2019 dengan Surah \u0100li \u2018Imr\u0101n, ialah:\n1. \tSurah an-Nis\u0101\u2019 dimulai dengan perintah bertakwa kepada Allah sedang Surah Ali Imr\u0101n juga disudahi dengan perintah bertakwa kepada Allah.\n2.\tDalam Surah \u0100li \u2018Imr\u0101n disebutkan kisah perang Badar dan Uhud dengan sempurna, di dalam Surah an-Nis\u0101\u2019 sebagian kisah itu diulangi lagi.\n3.\tKisah perang \u1e24amra\u2019 al-Asad yang terjadi sesudah Perang Uhud terdapat dalam surah Ali \u2018Imr\u0101n, maka dalam Surah an-Nis\u0101\u2019 kisah itu disinggung lagi.\n4.\tDalam Surah \u0100li \u2018Imr\u0101n telah disebutkan bahwa di kalangan kaum Muslimin banyak yang gugur dalam medan perang sebagai syuhada yang tentunya mereka meninggalkan anak-anak yang sudah yatim dan istri yang sudah janda. Maka pada permulaan Surah an-Nis\u0101\u2019 disebutkan perintah memelihara anak-anak yatim serta pembagian harta pusaka.",
        "munasabah_prev_theme": "Permulaan Surah an-Nis\u0101\u2019 sampai dengan ayat yang lalu mengandung nasihat dan petunjuk yang harus dituruti dan diamalkan oleh setiap yang menginginkan keselamatan dan kebahagiaan dalam hidupnya, juga dalam rangka keselamatan hidup bermasyarakat, atau hubungan antara sesama manusia dengan manusia pada umumnya, maka di dalam ayat ini dijelaskan tentang kewajiban seseorang kepada Allah dan kewajiban terhadap sesama\nmanusia. Kewajiban kepada Allah ialah beribadah dan mengabdi kepada-Nya, dengan penuh ketaatan, kerendahan hati dengan merasakan kebesaran dan keagungan-Nya, baik dengan terang-terangan atau dengan sembunyi-sembunyi. ",
        "theme_group": "KEWAJIBAN TERHADAP ALLAH DAN \nSESAMA MANUSIA",
        "kosakata": "Kosakata:\n1. \u017c\u012b al-Qurb\u0101 \u0630\u0650\u0649 \u0627\u0644\u0652\u0642\u064f\u0631\u0652\u0628\u064e\u0649 (an-Nis\u0101\u2019/4: 36)\nKata \u017c\u012b berarti mempunyai. Sedangkan kata al-qurb\u0101 berarti keluarga, kaum kerabat, atau karib. Kata qurb\u0101 atau qurb\u0101nan sebagai asal kata dari fi\u2019il qaruba-yaqrubu, berarti menghampiri atau mendekati (dalam nasab). Jika kata \u017c\u012b dan al-qurb\u0101 digabungkan (dijadikan mu\u1e0d\u0101f dan mu\u1e0d\u0101fun ilaihi), berarti keluarga atau kerabat.\nKata \u017c\u012b al-qurb\u0101 disebutkan enam kali dalam Al-Qur\u2019an, antara lain dalam an-Nis\u0101\u2019/4:36. Kata \u017c\u0101 al-qurb\u0101 disebutkan lima kali, dan kata \u017caw\u012b al-qurb\u0101 disebutkan satu kali.\n2. Yabkhal\u016bn (Al-Bakh\u012bl) \u064a\u064e\u0628\u0652\u062e\u064e\u0644\u064f\u0648\u0652\u0646\u064e (an-Nis\u0101\u2019/4: 37) \nKata ini berasal dari kata al-bukhl (bakhala) yaitu tidak mau mengeluarkan atau mendermakan apa yang ada pada seseorang (Al-Qur\u1e6dubi) atau biasa disebut dengan kikir. Apa yang ada pada seseorang bisa berupa materi seperti harta atau bukan materi seperti ilmu, namun sifat bukhl atau kikir ini lebih banyak terkait dengan persoalan harta. Sifat bakhil yang dicerca oleh Islam adalah jika seseorang menolak memberikan kewajiban yang semestinya dia keluarkan kepada orang lain. Seperti enggan membayar zakat.\nKata lain yang dipakai dalam Al-Qur\u2019an adalah asy-syuh, namun asy-syuh keadaannya lebih berat lagi dari al-bukhl, sebab asy-syuh adalah sifat bakhil yang disertai dengan keinginan yang sangat untuk memiliki apa yang tidak ada pada dirinya. Atau sifat kikir yang disertai dengan keinginan yang sangat akan apa yang ada padanya. Sifat ini adalah sifat yang buruk yang bila terdapat pada seseorang akan menjadikan orang lain tidak simpati kepadanya.",
        "sabab_nuzul": null,
        "conclusion": null
    }
}