{
    "id": 511,
    "surah_id": 4,
    "ayah": 18,
    "page": 80,
    "quarter_hizb": 8.75,
    "juz": 4,
    "manzil": 1,
    "arabic": "\u0648\u064e\u0644\u064e\u064a\u0652\u0633\u064e\u062a\u0650 \u0627\u0644\u062a\u0651\u064e\u0648\u0652\u0628\u064e\u0629\u064f \u0644\u0650\u0644\u0651\u064e\u0630\u0650\u064a\u0652\u0646\u064e \u064a\u064e\u0639\u0652\u0645\u064e\u0644\u064f\u0648\u0652\u0646\u064e \u0627\u0644\u0633\u0651\u064e\u064a\u0651\u0650\u0627\u0670\u062a\u0650\u06da \u062d\u064e\u062a\u0651\u0670\u0649\u0653 \u0627\u0650\u0630\u064e\u0627 \u062d\u064e\u0636\u064e\u0631\u064e \u0627\u064e\u062d\u064e\u062f\u064e\u0647\u064f\u0645\u064f \u0627\u0644\u0652\u0645\u064e\u0648\u0652\u062a\u064f \u0642\u064e\u0627\u0644\u064e \u0627\u0650\u0646\u0651\u0650\u064a\u0652 \u062a\u064f\u0628\u0652\u062a\u064f \u0627\u0644\u0652\u0640\u0654\u0670\u0646\u064e \u0648\u064e\u0644\u064e\u0627 \u0627\u0644\u0651\u064e\u0630\u0650\u064a\u0652\u0646\u064e \u064a\u064e\u0645\u064f\u0648\u0652\u062a\u064f\u0648\u0652\u0646\u064e \u0648\u064e\u0647\u064f\u0645\u0652 \u0643\u064f\u0641\u0651\u064e\u0627\u0631\u064c \u06d7 \u0627\u064f\u0648\u0644\u0670\u06e4\u0649\u0655\u0650\u0643\u064e \u0627\u064e\u0639\u0652\u062a\u064e\u062f\u0652\u0646\u064e\u0627 \u0644\u064e\u0647\u064f\u0645\u0652 \u0639\u064e\u0630\u064e\u0627\u0628\u064b\u0627 \u0627\u064e\u0644\u0650\u064a\u0652\u0645\u064b\u0627 ",
    "latin": "Wa laisatit-taubatu  lil-la\u017c\u012bna ya\u2018mal\u016bnas-sayyi'\u0101t(i), \u1e25att\u0101 i\u017c\u0101 \u1e25a\u1e0dara a\u1e25adahumul-mautu q\u0101la inn\u012b tubtul-\u0101na wa lal-la\u017c\u012bna yam\u016bt\u016bna wa hum kuff\u0101r(un), ul\u0101'ika a\u2018tadn\u0101 lahum \u2018a\u017c\u0101ban al\u012bm\u0101(n).",
    "translation": "Tidaklah tobat itu (diterima Allah) bagi orang-orang yang melakukan keburukan sehingga apabila datang ajal kepada seorang di antara mereka, (barulah) dia mengatakan, \u201cSaya benar-benar bertobat sekarang.\u201d Tidak (pula) bagi orang-orang yang meninggal dunia, sementara mereka di dalam kekufuran. Telah Kami sediakan azab yang sangat pedih bagi mereka.",
    "no_footnote": null,
    "footnotes": null,
    "surah": {
        "id": 4,
        "arabic": "\u0627\u0644\u0646\u0651\u0633\u0627\u06e4\u0621",
        "latin": "An-Nis\u0101' ",
        "transliteration": "An-Nisa'",
        "translation": "Perempuan",
        "num_ayah": 176,
        "page": 77,
        "location": "Madaniyah"
    },
    "tafsir": {
        "wajiz": "Setelah menjelaskan tobat yang diterima dan batas akhir diterimanya tobat, berikut ini dijelaskan tentang batas akhir waktu penolakan tobat serta dampak dari penolakan itu. Dan tobat yakni pengampunan dosa itu tidaklah diberikan Allah untuk mereka yang melakukan kejahatan atau kedurhakaan secara terus-menerus, silih berganti tanpa penyesalan. Tindakan tersebut dilakukan hingga apabila datang ajal kepada seseorang di antara mereka secara tiba-tiba, dan roh sudah berada di tenggorokan, atau sesaat sebelum keluarnya roh dari jasadnya, barulah dia mengatakan, \u201cSaya benar-benar bertobat sekarang.\u201d Tobat dalam kondisi tersebut pada saat diperlihatkan azab yang akan menimpanya, tidaklah diterima Allah (Lihat: Surah Gafir/40: 85). Dan selain itu tidak pula diterima tobat dari orang-orang yang meninggal sedang mereka dalam keadaan kafir, yakni kematiannya membawa serta kekufurannya yang tidak disertai dengan tobat. Bagi orang-orang itu telah Kami sediakan azab yang pedih di akhirat dan tidak ada seorang pun yang bisa menghalangi siksaan yang akan ditimpakan kepadanya.",
        "tahlili": "Tetapi tobat tidak akan diterima Allah jika datangnya dari orang yang selalu bergelimang dosa sehingga ajalnya datang barulah ia bertobat. Orang semacam ini seluruh kehidupannya penuh dengan noda dan dosa, tidak terdapat padanya amal kebajikan walau sedikit pun. Bertobat pada waktu seseorang telah mendekati ajalnya sebenarnya bukanlah penyesalan atas dosa dan kesalahan, melainkan karena ia telah putus asa untuk menikmati hidup selanjutnya. Jadi tobatnya hanyalah suatu kebohongan belaka.\nBegitu pula Allah tidak akan menerima tobat dari orang yang mati dalam keadaan kafir, ingkar kepada agama Allah. Kepada mereka ini yakni orang yang baru bertobat setelah maut berada di hadapannya atau orang yang mati dalam keingkarannya, Allah mengancam akan memberikan azab yang pedih nanti di hari perhitungan sesuai dengan apa yang telah diperbuatnya semasa hidupnya di dunia.\nTingkat orang yang melakukan tobat yang telah diperingatkan ini diperinci oleh para sufi sebagai berikut:\n1.\tAda orang yang memiliki jiwa yang pada dasarnya (fitrahnya) sempurna dan selalu dalam kebaikan. Orang yang demikian apabila suatu waktu tanpa kesengajaan berbuat kesalahan walau sekecil apapun ia akan merasakannya sebagai suatu hal yang sangat besar. Ia sangat menyesal atas kejadian tersebut dan segera ia memperbaiki kesalahannya dan menjauhkan diri dari perbuatan itu. Nafsu yang demikian disebut dengan nafs mu\u1e6dma\u2019innah.\n2.\tAda kalanya seseorang memiliki jiwa yang memang pada dasarnya labil, goyah, sehingga segala tindak tanduknya dikemudikan oleh nafsu dan syahwatnya saja. Sifat yang sudah demikian mendalam pada dirinya dan telah mendarah daging. Setelah sekian lama ia bergelimang dosa dengan memperturutkan kehendak hawa nafsunya akhirnya datanglah hidayah dan taufik Allah kepadanya sehingga ia sadar dan berjuang untuk memperbaiki tindakannya yang salah dan ia kembali pada tuntunan yang diberikan Allah. Hal semacam ini memang jarang terjadi dan bagi yang mendapatkannya benar-benar merupakan orang yang diberi petunjuk oleh Allah. Nafsu yang seperti di atas disebut nafs amm\u0101rah.\n3.\tAda pula orang yang memiliki jiwa di mana untuk mengerjakan dosa besar ia dapat mawas diri, sehingga ia tidak pernah mengerjakannya, tetapi mengenai dosa kecil sering dilakukannya, dengan perjuangan yang sungguh-sungguh, kadang-kadang nafsu dan syahwatnya dapat ditundukkan dan menanglah petunjuk bahkan kadang-kadang terjadi sebaliknya. Nafsu yang demikian disebut dengan nafs musawwilah.\n4.\tTerakhir ada pula orang yang memiliki nafs lawwamah. Orang ini sama sekali tidak dapat menghindarkan diri dari perbuatan dosa, baik besar maupun kecil. Apabila ia mengerjakan dosa maka datang kesadarannya dan ia bertobat minta ampun. Tetapi suatu saat datang lagi dorongan nafsu syahwatnya untuk berbuat dosa dan ia kerjakan pula dan kemudian bertobat lagi sesudah datang kesadarannya, begitulah seterusnya. Tobat yang demikian itu adalah tobat yang terendah derajatnya, namun begitu kepada orang seperti ini tetap dianjurkan agar selalu mengharap ampunan dari Allah.",
        "intro_surah": "Surah an-Nis\u0101\u2019 yang terdiri dari 176 ayat itu adalah surah Madaniyah yang terpanjang sesudah Surah al-Baqarah. Dinamakan an-Nis\u0101\u2019 karena dalam surah ini banyak dibicarakan hal yang berhubungan dengan perempuan serta merupakan surah yang paling banyak membicarakan hal itu dibanding dengan surah-surah Al-Qur\u2019an yang lain. Surah lain yang banyak juga membicarakan hal perempuan ialah Surah a\u1e6d-\u1e6cal\u0101q. Dalam hubungan ini Surah an-Nis\u0101\u2019 biasa disebut dengan sebutan S\u016brah an-Nis\u0101\u2019 al-Kubr\u0101 (Surah an-Nis\u0101\u2019 yang besar), sedang Surah a\u1e6d-\u1e6cal\u0101q disebut dengan sebutan S\u016brah an-Nis\u0101\u2019 a\u1e63-\u1e62ugr\u0101 (Surah an-Nis\u0101\u2019 yang kecil).\n\nPokok-pokok Isinya\n1.\tKeimanan \nMencakup syirik, kekafiran dan hari kemudian.\n\n2.\tHukum-hukum\nKewajiban para w\u0101\u1e63i dan para wali, hukum poligami, maskawin, memakan harta anak yatim dan orang-orang yang tidak dapat mengurus hartanya, pokok-pokok hukum warisan, perbuatan-perbuatan keji dan hukumannya, perempuan yang haram dikawini, hukum mengawini budak perempuan, larangan memakan harta secara batil, hukum syiq\u0101q dan nusy\u016bz, kesucian lahir batin dalam salat, hukum suaka, hukum membunuh seorang muslim, salat khauf, larangan melontarkan ucapan-ucapan buruk, masalah pusaka kalalah, dan lain-lain.\n\n3.\tKisah-kisah \nKisah-kisah tentang Nabi Musa dan pengikut-pengikutnya.\n\n4.\tLain-lain:\nAsal manusia adalah satu, keharusan menjauhi adat zaman jahiliah dalam menggauli perempuan, cara menggauli istri, hak seseorang sesuai dengan kewajibannya, perlakuan Ahli Kitab terhadap kitab-kitab yang diturunkan kepadanya, dasar-dasar pemerintahan, cara mengadili perkara, keharusan siap-siaga terhadap musuh, sikap-sikap orang munafik dalam manghadapi peperangan, berperang di jalan Allah adalah kewajiban tiap-tiap mukalaf, adab dalam peperangan, cara menghadapi orang-orang munafik, derajat-derajat orang yang berjihad.\n ",
        "outro_surah": null,
        "munasabah_prev_surah": "Hubungan Surah an-Nis\u0101\u2019 dengan Surah \u0100li \u2018Imr\u0101n, ialah:\n1. \tSurah an-Nis\u0101\u2019 dimulai dengan perintah bertakwa kepada Allah sedang Surah Ali Imr\u0101n juga disudahi dengan perintah bertakwa kepada Allah.\n2.\tDalam Surah \u0100li \u2018Imr\u0101n disebutkan kisah perang Badar dan Uhud dengan sempurna, di dalam Surah an-Nis\u0101\u2019 sebagian kisah itu diulangi lagi.\n3.\tKisah perang \u1e24amra\u2019 al-Asad yang terjadi sesudah Perang Uhud terdapat dalam surah Ali \u2018Imr\u0101n, maka dalam Surah an-Nis\u0101\u2019 kisah itu disinggung lagi.\n4.\tDalam Surah \u0100li \u2018Imr\u0101n telah disebutkan bahwa di kalangan kaum Muslimin banyak yang gugur dalam medan perang sebagai syuhada yang tentunya mereka meninggalkan anak-anak yang sudah yatim dan istri yang sudah janda. Maka pada permulaan Surah an-Nis\u0101\u2019 disebutkan perintah memelihara anak-anak yatim serta pembagian harta pusaka.",
        "munasabah_prev_theme": "Dalam ayat sebelumnya telah diterangkan bahwa Allah menerima tobat orang yang berbuat keji. Dalam ayat ini Allah menjelaskan lagi bilakah sebaiknya seseorang melakukan tobat, apa syaratnya agar tobatnya diterima oleh Allah.",
        "theme_group": "TOBAT KEPADA ALLAH",
        "kosakata": "Kosakata: at-Taubah \u0627\u064e\u0644\u062a\u0651\u064e\u0648\u0652\u0628\u064e\u0629\u0652(an-Nis\u0101\u2019/4: 17)\nKata taubah atau at-taubah disebut dalam Al-Qur\u2019an tidak kurang dari tujuh kali yang tersebar dalam beberapa surah. Jumlah tersebut belum termasuk kata-kata yang diungkap dalam bentuk kata kerja (fi\u2019il) m\u0101\u1e0di, mu\u1e0d\u0101ri\u2019 dan amar. Secara bahasa, at-taubah berarti \u201ckembali\u201d (ar-ruj\u016b\u2019), dan kata ini telah diadopsi dalam bahasa Indonesia menjadi tobat. Secara istilah, tobat adalah \u201csikap kembali dari keadaan tertentu ke keadaan yang lain\u201d. Jika manusia bertobat, maka itu berarti ia kembali dari keadaan maksiat kepada Allah ke keadaan taat (patuh) kepada-Nya. Jika tobat dinisbahkan kepada Allah, artinya bahwa Allah kembali dari keadaan hampir menjatuhkan siksa ke keadaan memberikan rahmat (ar-ruj\u016b\u2019 min al-\u2019a\u017c\u0101b il\u0101 ar-ra\u1e25mah). Tobat yang diperintahkan Allah dan diterima oleh-Nya, seperti yang dimaksud dalam ayat ini, adalah tobat yang dikerjakan sehubungan dengan perbuatan jahat atau salah yang dilakukan atas dasar kebodohan dan bukan atas dasar kesombongan. Tobat kepada Allah yang diterima adalah tobat dengan syarat: 1) menyesali dengan sungguh-sungguh perbuatan maksiat yang telah dilakukan; 2) pada saat kesadaran itu muncul, perbuatan maksiat ditinggalkan, kembali melaksanakan ketaatan-ketaatan; dan 3) bertekad dengan kuat bahwa ia tidak akan melakukan lagi perbuatan maksiatnya. Tobat diperintahkan Allah, seperti dalam firman-Nya: \u201cWahai orang-orang yang beriman, bertobatlah kepada Allah dengan tobat yang semurni-murninya, semoga Tuhan kamu menghapus (kesalahan) kesalahan mu dan memasukkan kamu ke dalam surga yang mengalir di bawahnya sungai-sungai.\u201d (at-Ta\u1e25r\u012bm/66:8)",
        "sabab_nuzul": null,
        "conclusion": "1.\tOrang yang telah berbuat maksiat wajib bertobat.\n2.\tTobat yang diterima Allah ialah apabila seseorang telah melakukan kesalahan ia segera insaf dan menghentikannya dan bertekad tidak akan mengulangi lagi kesalahan itu.\n3.\tTobat tidak diterima apabila maut telah sangat dekat sampai di ambang pintu.\n4.\tTobat dari orang yang mati dalam keadaan kafir juga tidak diterima Allah."
    }
}