{
    "id": 504,
    "surah_id": 4,
    "ayah": 11,
    "page": 78,
    "quarter_hizb": 8.5,
    "juz": 4,
    "manzil": 1,
    "arabic": "\u064a\u064f\u0648\u0652\u0635\u0650\u064a\u0652\u0643\u064f\u0645\u064f \u0627\u0644\u0644\u0651\u0670\u0647\u064f \u0641\u0650\u064a\u0652\u0653 \u0627\u064e\u0648\u0652\u0644\u064e\u0627\u062f\u0650\u0643\u064f\u0645\u0652 \u0644\u0650\u0644\u0630\u0651\u064e\u0643\u064e\u0631\u0650 \u0645\u0650\u062b\u0652\u0644\u064f \u062d\u064e\u0638\u0651\u0650 \u0627\u0644\u0652\u0627\u064f\u0646\u0652\u062b\u064e\u064a\u064e\u064a\u0652\u0646\u0650 \u06da \u0641\u064e\u0627\u0650\u0646\u0652 \u0643\u064f\u0646\u0651\u064e \u0646\u0650\u0633\u064e\u0627\u06e4\u0621\u064b \u0641\u064e\u0648\u0652\u0642\u064e \u0627\u062b\u0652\u0646\u064e\u062a\u064e\u064a\u0652\u0646\u0650 \u0641\u064e\u0644\u064e\u0647\u064f\u0646\u0651\u064e \u062b\u064f\u0644\u064f\u062b\u064e\u0627 \u0645\u064e\u0627 \u062a\u064e\u0631\u064e\u0643\u064e \u06da \u0648\u064e\u0627\u0650\u0646\u0652 \u0643\u064e\u0627\u0646\u064e\u062a\u0652 \u0648\u064e\u0627\u062d\u0650\u062f\u064e\u0629\u064b \u0641\u064e\u0644\u064e\u0647\u064e\u0627 \u0627\u0644\u0646\u0651\u0650\u0635\u0652\u0641\u064f \u06d7 \u0648\u064e\u0644\u0650\u0627\u064e\u0628\u064e\u0648\u064e\u064a\u0652\u0647\u0650 \u0644\u0650\u0643\u064f\u0644\u0651\u0650 \u0648\u064e\u0627\u062d\u0650\u062f\u064d \u0645\u0651\u0650\u0646\u0652\u0647\u064f\u0645\u064e\u0627 \u0627\u0644\u0633\u0651\u064f\u062f\u064f\u0633\u064f \u0645\u0650\u0645\u0651\u064e\u0627 \u062a\u064e\u0631\u064e\u0643\u064e \u0627\u0650\u0646\u0652 \u0643\u064e\u0627\u0646\u064e \u0644\u064e\u0647\u0657 \u0648\u064e\u0644\u064e\u062f\u064c \u06da \u0641\u064e\u0627\u0650\u0646\u0652 \u0644\u0651\u064e\u0645\u0652 \u064a\u064e\u0643\u064f\u0646\u0652 \u0644\u0651\u064e\u0647\u0657 \u0648\u064e\u0644\u064e\u062f\u064c \u0648\u0651\u064e\u0648\u064e\u0631\u0650\u062b\u064e\u0647\u0657\u0653 \u0627\u064e\u0628\u064e\u0648\u0670\u0647\u064f \u0641\u064e\u0644\u0650\u0627\u064f\u0645\u0651\u0650\u0647\u0650 \u0627\u0644\u062b\u0651\u064f\u0644\u064f\u062b\u064f \u06da \u0641\u064e\u0627\u0650\u0646\u0652 \u0643\u064e\u0627\u0646\u064e \u0644\u064e\u0647\u0657\u0653 \u0627\u0650\u062e\u0652\u0648\u064e\u0629\u064c \u0641\u064e\u0644\u0650\u0627\u064f\u0645\u0651\u0650\u0647\u0650 \u0627\u0644\u0633\u0651\u064f\u062f\u064f\u0633\u064f \u0645\u0650\u0646\u0652\u06e2 \u0628\u064e\u0639\u0652\u062f\u0650 \u0648\u064e\u0635\u0650\u064a\u0651\u064e\u0629\u064d \u064a\u0651\u064f\u0648\u0652\u0635\u0650\u064a\u0652 \u0628\u0650\u0647\u064e\u0627\u0653 \u0627\u064e\u0648\u0652 \u062f\u064e\u064a\u0652\u0646\u064d \u06d7 \u0627\u0670\u0628\u064e\u0627\u06e4\u0624\u064f\u0643\u064f\u0645\u0652 \u0648\u064e\u0627\u064e\u0628\u0652\u0646\u064e\u0627\u06e4\u0624\u064f\u0643\u064f\u0645\u0652\u06da  \u0644\u064e\u0627 \u062a\u064e\u062f\u0652\u0631\u064f\u0648\u0652\u0646\u064e \u0627\u064e\u064a\u0651\u064f\u0647\u064f\u0645\u0652 \u0627\u064e\u0642\u0652\u0631\u064e\u0628\u064f \u0644\u064e\u0643\u064f\u0645\u0652 \u0646\u064e\u0641\u0652\u0639\u064b\u0627 \u06d7 \u0641\u064e\u0631\u0650\u064a\u0652\u0636\u064e\u0629\u064b \u0645\u0651\u0650\u0646\u064e \u0627\u0644\u0644\u0651\u0670\u0647\u0650 \u06d7 \u0627\u0650\u0646\u0651\u064e \u0627\u0644\u0644\u0651\u0670\u0647\u064e \u0643\u064e\u0627\u0646\u064e \u0639\u064e\u0644\u0650\u064a\u0652\u0645\u064b\u0627 \u062d\u064e\u0643\u0650\u064a\u0652\u0645\u064b\u0627",
    "latin": "Y\u016b\u1e63\u012bkumull\u0101hu f\u012b aul\u0101dikum li\u017c-\u017cakari mi\u1e61lu \u1e25a\u1e93\u1e93il-un\u1e61ayain(i), fa in kunna nis\u0101'an fauqa\u1e61nataini fa lahunna \u1e61ulu\u1e61\u0101 m\u0101 tarak(a), wa in k\u0101nat w\u0101\u1e25idatan fa lahan-ni\u1e63f(u), wa li abawaihi likulli w\u0101\u1e25idim minhumas-sudusu mimm\u0101 taraka in k\u0101na lah\u016b walad(un), fa illam yakul lah\u016b waladuw wa wari\u1e61ah\u016b abaw\u0101hu fa li'ummihi\u1e61-\u1e61ulu\u1e61(u),  fa in k\u0101na lah\u016b ikhwatun fa li'ummihis-sudusu mim ba\u2018di wa\u1e63iyyatiy y\u016b\u1e63\u012b bih\u0101 au dain(in), \u0101b\u0101'ukum wa abn\u0101'ukum, l\u0101 tadr\u016bna ayyuhum aqrabu lakum naf\u2018\u0101(n), far\u012b\u1e0datam minall\u0101h(i), innall\u0101ha k\u0101na \u2018al\u012bman \u1e25ak\u012bm\u0101(n).",
    "translation": "Allah mensyariatkan (mewajibkan) kepadamu tentang (pembagian warisan untuk) anak-anakmu, (yaitu) bagian seorang anak laki-laki sama dengan bagian dua orang anak perempuan.146) Jika anak itu semuanya perempuan yang jumlahnya lebih dari dua, bagian mereka dua pertiga dari harta yang ditinggalkan. Jika dia (anak perempuan) itu seorang saja, dia memperoleh setengah (harta yang ditinggalkan). Untuk kedua orang tua, bagian masing-masing seperenam dari harta yang ditinggalkan, jika dia (yang meninggal) mempunyai anak. Jika dia (yang meninggal) tidak mempunyai anak dan dia diwarisi oleh kedua orang tuanya (saja), ibunya mendapat sepertiga. Jika dia (yang meninggal) mempunyai beberapa saudara, ibunya mendapat seperenam. (Warisan tersebut dibagi) setelah (dipenuhi) wasiat yang dibuatnya atau (dan dilunasi) utangnya. (Tentang) orang tuamu dan anak-anakmu, kamu tidak mengetahui siapa di antara mereka yang lebih banyak manfaatnya bagimu. Ini adalah ketetapan Allah. Sesungguhnya Allah adalah Maha Mengetahui lagi Maha Bijaksana.",
    "no_footnote": "146",
    "footnotes": "146) Bagian laki-laki adalah dua kali bagian perempuan karena kewajiban laki-laki lebih berat daripada perempuan, seperti kewajiban membayar maskawin dan memberi nafkah (lihat surah an-Nis\u0101\u2019 [4]: 34).",
    "surah": {
        "id": 4,
        "arabic": "\u0627\u0644\u0646\u0651\u0633\u0627\u06e4\u0621",
        "latin": "An-Nis\u0101' ",
        "transliteration": "An-Nisa'",
        "translation": "Perempuan",
        "num_ayah": 176,
        "page": 77,
        "location": "Madaniyah"
    },
    "tafsir": {
        "wajiz": "Setelah ayat sebelumnya menjelaskan dampak orang yang mengabaikan hak orang lain, ayat ini menjelaskan ketentuan pembagian harta warisan yang dijelaskan Allah secara rinci agar tidak diabaikan. Allah mensyariatkan, yakni mewajibkan, kepada kamu tentang pembagian harta warisan untuk anak-anak kamu baik laki-laki atau perempuan, dewasa atau kecil, yaitu bagian seorang anak laki-laki apabila bersamanya ada anak perempuan dan tidak ada halangan yang ditetapkan agama untuk memperoleh warisan, disebabkan karena membunuh pewaris atau berbeda agama, maka ia berhak memperoleh harta warisan yang jumlahnya sama dengan bagian dua orang anak perempuan, karena lakilaki mempunyai tanggung jawab memberi nafkah bagi keluarga. Dan jika anak itu semuanya perempuan yang jumlahnya lebih dari dua dan tidak ada bersama keduanya seorang anak lelaki, maka bagian mereka adalah dua pertiga dari harta warisan yang ditinggalkan ibu atau ayahnya. Jika dia, anak perempuan, itu seorang diri saja dan tidak ada bersamanya anak laki-laki, maka dia memperoleh harta warisan setengah dari harta yang ditinggalkan orang tuanya. Demikianlah harta warisan yang diterima anak apabila orang tua mereka meninggal dunia dan meninggalkan harta. Dan apabila yang meninggal dunia adalah anak laki-laki atau perempuan, maka untuk kedua ibu-bapak mendapat bagian masing-masing seperenam dari harta yang ditinggalkan oleh sang anak. Jumlah itu menjadi hak bapak dan ibu, jika dia yang meninggal itu mempunyai anak laki-laki atau perempuan. Akan tetapi, jika dia yang meninggal itu tidak mempunyai anak laki-laki atau perempuan dan harta dia diwarisi oleh kedua ibu-bapaknya saja, maka ibunya mendapat bagian warisan sepertiga dan selebihnya untuk ayahnya. Jika dia yang meninggal itu mempunyai beberapa saudara dua atau lebih, baik saudara seibu dan sebapak, maupun saudara seibu atau sebapak saja, lelaki atau perempuan, dan yang meninggal tidak mempunyai anak, maka ibunya mendapat bagian warisan seperenam dari harta waris yang ditinggalkan, sedang ayahnya mendapat sisanya. Pembagian-pembagian tersebut di atas dibagikan kepada ahli warisnya yang berhak mendapatkan setelah dipenuhi wasiat yang dibuatnya sebelum meninggal dunia atau setelah dibayar utangnya. Allah sengaja menentukan tentang pembagian harta warisan untuk orang tua dan anak-anak kamu sedemikian rupa karena kamu tidak mengetahui hikmah di balik ketentuan itu siapa di antara mereka yang lebih banyak manfaatnya bagi kamu dari kedua orang tua dan anak-anak kalian. Ini adalah ketetapan yang turun langsung dari Allah untuk ditaati dan diperhatikan. Sungguh, Allah Maha Mengetahui segala sesuatu, Mahabijaksana dalam segala ketetapan-ketetapan-Nya. Demikianlah ketentuan pembagian harta warisan yang ditetapkan langsung oleh Allah agar tidak terjadi perselisihan di antara ahli waris. Jika manusia yang membuat ketentuan, niscaya terjadi kecurangan dan kezaliman. Allah Mahatahu hikmah di balik ketetapan dan ketentuan itu.",
        "tahlili": "Adapun sebab turun ayat ini menurut hadis yang diriwayatkan oleh Ahmad, Abu Daud dan Tirmizi dari sahabat Jabir yang artinya: Telah datang kepada Rasulullah saw istri Sa\u2019ad bin Rabi\u2019 dan berkata, \u201cWahai Rasulullah! Ini adalah dua anak perempuan Sa\u2019ad bin Rabi\u2019. Ia telah gugur dalam Perang Uhud, seluruh hartanya telah diambil pamannya dan tak ada yang ditinggalkan untuk mereka sedangkan mereka tak dapat menikah bila tidak memiliki harta.\u201d Rasulullah saw berkata, \u201cAllah akan memberikan hukumnya,\u201d maka turunlah ayat warisan. Kemudian Rasulullah mendatangi paman kedua anak tersebut dan berkata, \u201cBerikan dua pertiga dari harta Sa\u2019ad kepada anaknya dan kepada ibunya berikan seperdelapannya, sedang sisanya ambillah untuk kamu.\u201d\nDalam ayat ini Allah menyampaikan wasiat yang mewajibkan kepada kaum Muslimin yang telah mukalaf untuk menyelesaikan harta warisan bagi anak yang ditinggalkan oleh orang tuanya, baik mereka laki-laki atau perempuan. Apabila ahli waris itu terdiri dari anak-anak laki-laki dan perempuan, maka berikan kepada yang laki-laki dua bagian dan kepada yang perempuan satu bagian. Adapun hikmah anak laki-laki mendapat dua bagian, karena laki-laki memerlukan harta untuk memenuhi kebutuhan dirinya dan nafkah istrinya serta anaknya, sedang perempuan hanya memerlukan biaya untuk diri sendiri. Adapun apabila ia telah menikah maka kewajiban nafkah itu ditanggung oleh suaminya. Karena itu wajarlah jika ia diberikan satu bagian.\nYang dimaksud anak atau ahli waris lainnya dalam ayat ini adalah secara umum. Kecuali karena ada halangan yang menyebabkan anak atau ahli waris lainnya tidak mendapat hak warisan. Adapun yang dapat menghalangi seseorang menerima hak warisannya adalah:\n1.\tBerlainan agama, sebagaimana sabda Rasulullah saw:\n\u0644\u0627\u064e \u064a\u064e\u062a\u064e\u0648\u064e\u0627\u0631\u064e\u062b\u064f \u0623\u064e\u0647\u0652\u0644\u064f \u0645\u0650\u0644\u0651\u064e\u062a\u064e\u064a\u0652\u0646\u0650 (\u0631\u0648\u0627\u0647 \u0627\u0628\u0646 \u0645\u0627\u062c\u0647)\n\u201cTidak saling mewarisi antara orang-orang yang berlainan agama.\u201d (Riwayat Ibnu M\u0101jah).\n2.\tMembunuh pewaris. Ini berdasarkan hadis dan ijma\u2019.\n3.\tBila ahli waris menjadi hamba sahaya.\n4.\tHarta peninggalan para nabi tidak boleh dibagi-bagi sebagai warisan.\nSelanjutnya ditentukan oleh Allah apabila seseorang wafat hanya mempunyai anak perempuan yang jumlahnya lebih dari dua orang dan tidak ada anak laki-laki, maka mereka mendapat dua pertiga dari jumlah harta, lalu dibagi rata di antara mereka masing-masing. Tetapi apabila yang ditinggalkan itu anak perempuan hanya seorang diri maka ia mendapat seperdua dari jumlah harta warisan. Sisa harta yang sepertiga (kalau hanya meninggalkan dua anak perempuan) atau yang seperdua (bagi yang meninggalkan hanya seorang anak perempuan) dibagikan kepada ahli waris yang lain sesuai dengan ketentuan masing-masing.\nPerlu ditambahkan di sini bahwa menurut bunyi ayat, anak perempuan mendapat 2/3 apabila jumlahnya lebih dari dua atau dengan kata lain mulai dari 3 ke atas. Tidak disebutkan berapa bagian apabila anak perempuan tersebut hanya dua orang. Menurut pendapat jumhur ulama bahwa mereka yang dimasukkan pada jumlah tiga ke atas mendapat 2/3 dari harta warisan.\nDari perincian di atas, diketahui bahwa anak perempuan tidak pernah menghabiskan semua harta. Paling banyak hanya memperoleh 1/2 dari jumlah harta. Berbeda dengan anak laki-laki, apabila tidak ada waris yang lain dan ia hanya seorang diri, maka ia mengambil semua harta warisan. Dan apabila anak laki-laki lebih dari seorang maka dibagi rata di antara mereka. Tentang hikmah dan perbedaan ini telah diterangkan di atas.\nDijelaskan pula tentang hak kedua orang tua. Apabila seseorang meninggal dunia dan ia meninggalkan anak, baik laki-laki maupun perempuan, maka masing-masing orang tua yaitu ibu dan bapak mendapat 1/6 dari jumlah harta. Sebaliknya apabila ia tidak meninggalkan anak, maka ibu mendapat 1/3 dari jumlah harta dan sisanya diberikan kepada bapak. Apabila yang meninggal itu selain meninggalkan ibu-bapak ada pula saudara-saudaranya yang lain, laki-laki atau perempuan dua ke atas, menurut jumhur maka ibu mendapat 1/6 dan bapak mendapat sisanya.\nSetelah diterangkan jumlah pembagian untuk anak, ibu dan bapak, diterangkan lagi bahwa pembagian tersebut barulah dilaksanakan setelah lebih dahulu diselesaikan urusan wasiat dan hutangnya. Walaupun dalam ayat mendahulukan penyebutan wasiat dari utang namun dalam pelaksanaannya menurut Sunah Rasul hendaklah didahulukan pembayaran hutang.\nDi antara orang tua dan anak, kamu tidak mengetahui mana yang lebih dekat atau yang lebih memberi manfaat bagi kamu. Oleh karena itu janganlah kamu membagi harta warisan sebagaimana yang dilakukan oleh orang jahiliah yang memberikan hak warisan hanya kepada orang yang dianggap dapat ikut perang akan membela keluarganya dan tidak memberikan hak warisan sama sekali bagi anak kecil dan kaum perempuan. Ikutilah apa yang ditentukan Allah karena Dialah yang lebih tahu mana yang bermanfaat untuk kamu baik di dunia maupun di akhirat. Hukum warisan tersebut adalah suatu ketentuan dari Allah yang wajib dilaksanakan oleh kaum Muslimin. Ketahuilah bahwa Allah Mengetahui segala sesuatu dan apa yang ditentukan-Nya pastilah mengandung manfaat untuk kemaslahatan manusia.",
        "intro_surah": "Surah an-Nis\u0101\u2019 yang terdiri dari 176 ayat itu adalah surah Madaniyah yang terpanjang sesudah Surah al-Baqarah. Dinamakan an-Nis\u0101\u2019 karena dalam surah ini banyak dibicarakan hal yang berhubungan dengan perempuan serta merupakan surah yang paling banyak membicarakan hal itu dibanding dengan surah-surah Al-Qur\u2019an yang lain. Surah lain yang banyak juga membicarakan hal perempuan ialah Surah a\u1e6d-\u1e6cal\u0101q. Dalam hubungan ini Surah an-Nis\u0101\u2019 biasa disebut dengan sebutan S\u016brah an-Nis\u0101\u2019 al-Kubr\u0101 (Surah an-Nis\u0101\u2019 yang besar), sedang Surah a\u1e6d-\u1e6cal\u0101q disebut dengan sebutan S\u016brah an-Nis\u0101\u2019 a\u1e63-\u1e62ugr\u0101 (Surah an-Nis\u0101\u2019 yang kecil).\n\nPokok-pokok Isinya\n1.\tKeimanan \nMencakup syirik, kekafiran dan hari kemudian.\n\n2.\tHukum-hukum\nKewajiban para w\u0101\u1e63i dan para wali, hukum poligami, maskawin, memakan harta anak yatim dan orang-orang yang tidak dapat mengurus hartanya, pokok-pokok hukum warisan, perbuatan-perbuatan keji dan hukumannya, perempuan yang haram dikawini, hukum mengawini budak perempuan, larangan memakan harta secara batil, hukum syiq\u0101q dan nusy\u016bz, kesucian lahir batin dalam salat, hukum suaka, hukum membunuh seorang muslim, salat khauf, larangan melontarkan ucapan-ucapan buruk, masalah pusaka kalalah, dan lain-lain.\n\n3.\tKisah-kisah \nKisah-kisah tentang Nabi Musa dan pengikut-pengikutnya.\n\n4.\tLain-lain:\nAsal manusia adalah satu, keharusan menjauhi adat zaman jahiliah dalam menggauli perempuan, cara menggauli istri, hak seseorang sesuai dengan kewajibannya, perlakuan Ahli Kitab terhadap kitab-kitab yang diturunkan kepadanya, dasar-dasar pemerintahan, cara mengadili perkara, keharusan siap-siaga terhadap musuh, sikap-sikap orang munafik dalam manghadapi peperangan, berperang di jalan Allah adalah kewajiban tiap-tiap mukalaf, adab dalam peperangan, cara menghadapi orang-orang munafik, derajat-derajat orang yang berjihad.\n ",
        "outro_surah": null,
        "munasabah_prev_surah": "Hubungan Surah an-Nis\u0101\u2019 dengan Surah \u0100li \u2018Imr\u0101n, ialah:\n1. \tSurah an-Nis\u0101\u2019 dimulai dengan perintah bertakwa kepada Allah sedang Surah Ali Imr\u0101n juga disudahi dengan perintah bertakwa kepada Allah.\n2.\tDalam Surah \u0100li \u2018Imr\u0101n disebutkan kisah perang Badar dan Uhud dengan sempurna, di dalam Surah an-Nis\u0101\u2019 sebagian kisah itu diulangi lagi.\n3.\tKisah perang \u1e24amra\u2019 al-Asad yang terjadi sesudah Perang Uhud terdapat dalam surah Ali \u2018Imr\u0101n, maka dalam Surah an-Nis\u0101\u2019 kisah itu disinggung lagi.\n4.\tDalam Surah \u0100li \u2018Imr\u0101n telah disebutkan bahwa di kalangan kaum Muslimin banyak yang gugur dalam medan perang sebagai syuhada yang tentunya mereka meninggalkan anak-anak yang sudah yatim dan istri yang sudah janda. Maka pada permulaan Surah an-Nis\u0101\u2019 disebutkan perintah memelihara anak-anak yatim serta pembagian harta pusaka.",
        "munasabah_prev_theme": "Ayat-ayat yang terdahulu menjelaskan tentang haram memakan harta anak yatim dan diperintahkan menyerahkan semua hartanya kepadanya bila telah dewasa dan juga larangan mengambil mahar perempuan yang sudah dinikahi atau menikahinya tanpa mahar. Maka dalam ayat ini dijelaskan tentang pembagian harta pusaka dan perlakuan terhadap anak-anak yatim dan hartanya.",
        "theme_group": "POKOK-POKOK HUKUM WARIS",
        "kosakata": "Kosakata: \u017curriyyah \u1e0di\u2019\u0101fan \u0630\u064f\u0631\u0651\u0650\u064a\u0651\u064e\u0629\u064b \u0636\u0650\u0639\u064e\u0627\u0641\u064b\u0627 (an-Nis\u0101\u2019/4: 9)\nDalam Al-Qur\u2019an sekurangnya disebutkan dua kali istilah yang hampir serupa. Pertama, istilah \u017curriyyah \u1e0du\u2019af\u0101\u2019 yang disebutkan di dalam Surah al-Baqarah/2:266; kedua, istilah \u017curriyyah \u1e0di\u2019\u0101fan yang disebutkan di dalam ayat ini. \u017curriyyah \u1e0du\u2019af\u0101\u2019 berarti \u201canak-anak (keturunan) yang masih kecil-kecil, dalam arti belum dewasa\u201d. Sedangkan kata \u017curriyyah \u1e0di\u2019\u0101fan berarti \u201cketurunan yang serba lemah,\u201d lemah fisik, mental, sosial, ekonomi, ilmu pengetahuan, spiritual dan lain-lain yang menyebabkan mereka tidak mampu menjalankan fungsi utama manusia, baik sebagai khalifah maupun sebagai makhluk-Nya yang harus beribadah kepada-Nya. Tegasnya, Allah berpesan kepada generasi yang tua jangan sampai generasi penerus yang akan melanjutkan perjuangan justru generasi yang tak berdaya, yang tidak dapat mengemban fungsi dan tanggung jawabnya. Upaya pemberdayaan generasi penerus terletak di pundak generasi sebelumnya, orang tua dan masyarakat.",
        "sabab_nuzul": null,
        "conclusion": null
    }
}