{
    "id": 582,
    "surah_id": 4,
    "ayah": 89,
    "page": 92,
    "quarter_hizb": 10,
    "juz": 5,
    "manzil": 1,
    "arabic": "\u0648\u064e\u062f\u0651\u064f\u0648\u0652\u0627 \u0644\u064e\u0648\u0652 \u062a\u064e\u0643\u0652\u0641\u064f\u0631\u064f\u0648\u0652\u0646\u064e \u0643\u064e\u0645\u064e\u0627 \u0643\u064e\u0641\u064e\u0631\u064f\u0648\u0652\u0627 \u0641\u064e\u062a\u064e\u0643\u064f\u0648\u0652\u0646\u064f\u0648\u0652\u0646\u064e \u0633\u064e\u0648\u064e\u0627\u06e4\u0621\u064b \u0641\u064e\u0644\u064e\u0627 \u062a\u064e\u062a\u0651\u064e\u062e\u0650\u0630\u064f\u0648\u0652\u0627 \u0645\u0650\u0646\u0652\u0647\u064f\u0645\u0652 \u0627\u064e\u0648\u0652\u0644\u0650\u064a\u064e\u0627\u06e4\u0621\u064e \u062d\u064e\u062a\u0651\u0670\u0649 \u064a\u064f\u0647\u064e\u0627\u062c\u0650\u0631\u064f\u0648\u0652\u0627 \u0641\u0650\u064a\u0652 \u0633\u064e\u0628\u0650\u064a\u0652\u0644\u0650 \u0627\u0644\u0644\u0651\u0670\u0647\u0650 \u06d7 \u0641\u064e\u0627\u0650\u0646\u0652 \u062a\u064e\u0648\u064e\u0644\u0651\u064e\u0648\u0652\u0627 \u0641\u064e\u062e\u064f\u0630\u064f\u0648\u0652\u0647\u064f\u0645\u0652 \u0648\u064e\u0627\u0642\u0652\u062a\u064f\u0644\u064f\u0648\u0652\u0647\u064f\u0645\u0652 \u062d\u064e\u064a\u0652\u062b\u064f \u0648\u064e\u062c\u064e\u062f\u0652\u062a\u0651\u064f\u0645\u064f\u0648\u0652\u0647\u064f\u0645\u0652 \u06d6 \u0648\u064e\u0644\u064e\u0627 \u062a\u064e\u062a\u0651\u064e\u062e\u0650\u0630\u064f\u0648\u0652\u0627 \u0645\u0650\u0646\u0652\u0647\u064f\u0645\u0652 \u0648\u064e\u0644\u0650\u064a\u0651\u064b\u0627 \u0648\u0651\u064e\u0644\u064e\u0627 \u0646\u064e\u0635\u0650\u064a\u0652\u0631\u064b\u0627\u06d9  ",
    "latin": "Wadd\u016b lau takfur\u016bna kam\u0101 kafar\u016b fa tak\u016bn\u016bna saw\u0101'an fal\u0101 tattakhi\u017c\u016b minhum auliy\u0101'a \u1e25att\u0101 yuh\u0101jir\u016b f\u012b sab\u012blill\u0101h(i), fa in tawallau fa khu\u017c\u016bhum waqtul\u016bhum \u1e25ai\u1e61u wajattum\u016bhum, wa l\u0101 tattakhi\u017c\u016b minhum waliyyaw wa l\u0101 na\u1e63\u012br\u0101(n).",
    "translation": "Mereka sangat menginginkan agar kamu mau menjadi kufur sebagaimana mereka telah kufur sehingga kamu sama (dengan mereka). Janganlah kamu jadikan siapa pun di antara mereka sebagai teman setia160) sebelum mereka berpindah pada jalan Allah. Jika mereka berpaling, tawan dan bunuhlah mereka di mana pun kamu temukan mereka. Janganlah kamu jadikan seorang pun di antara mereka sebagai teman setia dan jangan pula sebagai penolong.",
    "no_footnote": "160",
    "footnotes": "160) Lihat catatan kaki surah \u0100li \u2018Imr\u0101n (3): 28.",
    "surah": {
        "id": 4,
        "arabic": "\u0627\u0644\u0646\u0651\u0633\u0627\u06e4\u0621",
        "latin": "An-Nis\u0101' ",
        "transliteration": "An-Nisa'",
        "translation": "Perempuan",
        "num_ayah": 176,
        "page": 77,
        "location": "Madaniyah"
    },
    "tafsir": {
        "wajiz": "Mereka ingin sekali, agar kamu menjadi kafir terus-menerus dan berkesinambungan sebagaimana mereka telah menjadi kafir sejak dahulu, sehingga kamu menjadi sama dengan mereka dalam kekafiran yang terus menerus dan berkesinambungan. Oleh sebab itu, janganlah kamu, wahai orang-orang beriman, menjadikan seorang pun dari antara mereka sebagai teman-teman-mu, sebagai penolong dan pelindung bagi kalian, sebelum mereka beriman kepada Allah dan mewujudkan keimanan mereka dengan berpindah atau meninggalkan kekufuran dan berjihad di jalan Allah. Apabila mereka berpaling, yaitu enggan meninggalkan kekufuran mereka, maka tawanlah dengan menaklukkan mereka dan bahkan bunuhlah mereka di mana pun mereka kamu temukan, baik di Mekah atau di Tanah Haram maupun di tempat-tempat lain, dan janganlah kamu jadikan seorang pun di antara mereka sebagai teman setia untuk dimintai nasihatnya, dan jangan pula kamu jadikan penolong untuk dimintai pertolongannya dalam menghadapi musuh-musuh kalian. Pengertian ini menunjukkan larangan bagi orang-orang beriman menjalin hubungan baik dengan orang yang memusuhi Islam dan kaum muslim.",
        "tahlili": "Diriwayatkan bahwa beberapa orang Arab datang kepada Rasulullah saw. di Medinah, lalu mereka masuk Islam, kemudian mereka ditimpa penyakit panas, yang menyebabkan mereka kembali kafir lalu mereka keluar dari Medinah. Kemudian mereka berjumpa dengan sahabat Nabi, para sahabat menanyakan sebab-sebab mereka meninggalkan Medinah. Mereka menerangkan bahwa mereka ditimpa penyakit panas. Para sahabat berkata, \u201dMengapa kamu tidak mengambil teladan yang baik dari Rasulullah?\u201d Dalam menyikapi orang-orang ini, para sahabat terbagi kepada dua golongan. Yang sebagian berpendapat bahwa mereka telah menjadi munafik, sedang sebagian lagi berpendapat bahwa mereka masih Islam. Lalu turunlah ayat ini yang mencela sikap kaum muslimin, karena terpecah menjadi dua golongan, dan memerintahkan agar orang Arab ditawan dan dibunuh, jika mereka tidak berhijrah ke Medinah, karena mereka disamakan dengan kaum musyrikin yang lain.\nAyat ini menjelaskan sifat-sifat orang-orang munafik, yang oleh sebagian kaum Muslimin ketika itu dibela dan hendak diberi petunjuk, serta diharapkan bantuan mereka untuk memperkuat kaum Muslimin. Sifat kaum munafik itu jauh berbeda dari orang-orang kafir, yang senang dengan kekafiran mereka dan tidak mengganggu orang lain. Adapun orang-orang munafik, mereka tidak hanya sekedar bermuka dua terhadap kaum Muslimin, melainkan juga ingin mengembalikan kaum Muslimin kepada kekafiran, dan sesudah itu mereka akan melenyapkan agama Islam dari muka bumi ini.\nOleh karena demikian buruknya niat dan perbuatan orang-orang munafik itu, maka kaum Muslimin sekali lagi diingatkan, agar jangan sekali-kali mempercayai mereka dan jangan menjadikan mereka sebagai teman dan penolong, kecuali mereka benar-benar telah menganut agama Islam dan telah sesuai perbuatan mereka dengan ucapan, serta telah bersatu padu dengan kaum Muslimin dalam akidah, sikap dan perbuatan, bukan hanya sekedar tunduk karena mereka dalam keadaan lemah. Jika mereka benar-benar telah beriman, tentulah mereka tidak akan meninggalkan Nabi dan kaum Muslimin dalam menghadapi berbagai kesulitan. Mereka tentu akan selalu bersama Nabi dan kaum Muslimin, karena hal itu adalah dorongan iman yang kuat di dalam hati seseorang. Maka keengganan untuk mengikuti Nabi adalah suatu tanda lemahnya keimanan dan belum adanya keikhlasan untuk membela agama Islam.\nOleh sebab itu perintah dalam ayat ini bilamana ternyata mereka tidak mau beriman dan berjihad di jalan Allah, maka hendaklah kaum Muslimin menawan dan membunuh mereka, dan tidak menjadikan mereka sebagai pelindung dan penolong.\nDari ayat ini dapat diambil pengertian bahwa yang menjadi alasan pokok bagi perintah untuk menawan dan membunuh mereka, ialah sifat mereka yang tidak jujur kepada kaum Muslimin serta perbuatan mereka yang dilakukan dengan sembunyi untuk menghancurkan Islam dan kaum Muslimin. Tindakan terhadap mereka itu dipandang sebagai suatu keharusan yang perlu dilakukan untuk keselamatan Islam dan kaum Muslimin. Tindakan itu harus dihentikan apabila ternyata mereka itu telah menghentikan pula sikap dan perbuatan mereka yang bersifat bermusuhan terhadap Islam dan kaum Muslimin.",
        "intro_surah": "Surah an-Nis\u0101\u2019 yang terdiri dari 176 ayat itu adalah surah Madaniyah yang terpanjang sesudah Surah al-Baqarah. Dinamakan an-Nis\u0101\u2019 karena dalam surah ini banyak dibicarakan hal yang berhubungan dengan perempuan serta merupakan surah yang paling banyak membicarakan hal itu dibanding dengan surah-surah Al-Qur\u2019an yang lain. Surah lain yang banyak juga membicarakan hal perempuan ialah Surah a\u1e6d-\u1e6cal\u0101q. Dalam hubungan ini Surah an-Nis\u0101\u2019 biasa disebut dengan sebutan S\u016brah an-Nis\u0101\u2019 al-Kubr\u0101 (Surah an-Nis\u0101\u2019 yang besar), sedang Surah a\u1e6d-\u1e6cal\u0101q disebut dengan sebutan S\u016brah an-Nis\u0101\u2019 a\u1e63-\u1e62ugr\u0101 (Surah an-Nis\u0101\u2019 yang kecil).\n\nPokok-pokok Isinya\n1.\tKeimanan \nMencakup syirik, kekafiran dan hari kemudian.\n\n2.\tHukum-hukum\nKewajiban para w\u0101\u1e63i dan para wali, hukum poligami, maskawin, memakan harta anak yatim dan orang-orang yang tidak dapat mengurus hartanya, pokok-pokok hukum warisan, perbuatan-perbuatan keji dan hukumannya, perempuan yang haram dikawini, hukum mengawini budak perempuan, larangan memakan harta secara batil, hukum syiq\u0101q dan nusy\u016bz, kesucian lahir batin dalam salat, hukum suaka, hukum membunuh seorang muslim, salat khauf, larangan melontarkan ucapan-ucapan buruk, masalah pusaka kalalah, dan lain-lain.\n\n3.\tKisah-kisah \nKisah-kisah tentang Nabi Musa dan pengikut-pengikutnya.\n\n4.\tLain-lain:\nAsal manusia adalah satu, keharusan menjauhi adat zaman jahiliah dalam menggauli perempuan, cara menggauli istri, hak seseorang sesuai dengan kewajibannya, perlakuan Ahli Kitab terhadap kitab-kitab yang diturunkan kepadanya, dasar-dasar pemerintahan, cara mengadili perkara, keharusan siap-siaga terhadap musuh, sikap-sikap orang munafik dalam manghadapi peperangan, berperang di jalan Allah adalah kewajiban tiap-tiap mukalaf, adab dalam peperangan, cara menghadapi orang-orang munafik, derajat-derajat orang yang berjihad.\n ",
        "outro_surah": null,
        "munasabah_prev_surah": "Hubungan Surah an-Nis\u0101\u2019 dengan Surah \u0100li \u2018Imr\u0101n, ialah:\n1. \tSurah an-Nis\u0101\u2019 dimulai dengan perintah bertakwa kepada Allah sedang Surah Ali Imr\u0101n juga disudahi dengan perintah bertakwa kepada Allah.\n2.\tDalam Surah \u0100li \u2018Imr\u0101n disebutkan kisah perang Badar dan Uhud dengan sempurna, di dalam Surah an-Nis\u0101\u2019 sebagian kisah itu diulangi lagi.\n3.\tKisah perang \u1e24amra\u2019 al-Asad yang terjadi sesudah Perang Uhud terdapat dalam surah Ali \u2018Imr\u0101n, maka dalam Surah an-Nis\u0101\u2019 kisah itu disinggung lagi.\n4.\tDalam Surah \u0100li \u2018Imr\u0101n telah disebutkan bahwa di kalangan kaum Muslimin banyak yang gugur dalam medan perang sebagai syuhada yang tentunya mereka meninggalkan anak-anak yang sudah yatim dan istri yang sudah janda. Maka pada permulaan Surah an-Nis\u0101\u2019 disebutkan perintah memelihara anak-anak yatim serta pembagian harta pusaka.",
        "munasabah_prev_theme": "Ayat-ayat ini sangat erat hubungannya dengan ayat-ayat yang lalu yang telah menjelaskan hukum berperang untuk membela agama Allah, serta menerangkan keuntungan yang akan didapat oleh orang-orang yang suka memberikan bantuan untuk berhasilnya perjuangan kaum Muslimin dalam menyiarkan dan menegakkan agamanya; juga menerangkan kerugian yang akan menimpa orang yang merugikan perjuangan kaum Muslimin, maka ayat-ayat ini menjelaskan bagaimana seharusnya sikap kaum Muslimin dalam menghadapi kaum munafik, terutama dalam masalah perang. Pada lahirnya orang munafik itu seolah-olah mau membantu kaum Muslimin, tetapi pada hakikatnya memusuhi Islam dan umatnya bahkan membantu musuh Islam.",
        "theme_group": "CARA MENGHADAPI ORANG-ORANG MUNAFIK\nDAN DASAR HUKUM SUAKA",
        "kosakata": "Kosakata: Ha\u1e63irat \u1e62ud\u016bruhum \u062d\u064e\u0635\u0650\u0631\u064e\u062a\u0652 \u0635\u064f\u062f\u064f\u0648\u0652\u0631\u064f\u0647\u064f\u0645\u0652 (an-Nis\u0101\u2019/4: 90)\nHa\u1e63irat \u1e63ud\u016bruhum berarti \"hati mereka merasa keberatan.\" Akar katanya adalah (\u062d\u0635\u0631) yang berarti mengumpulkan, mencegah, menahan, perasaan berat pada hati karena ada sesuatu yang tertahan. Hati menjadi sesak, tidak lagi lapang. Dalam Tafsir al-Qurtubi, \u1e25a\u1e63irat \u1e63ud\u016bruhum diartikan hati yang sempit. Maksudnya, orang-orang yang hatinya sempit, karena tidak mau memerangi kaum Muslimin juga tidak mau turut berperang bersama kaum Muslimin. Komitmen ini laksana perjanjian atau perkataan; \"Kami berislam, tapi kami tidak berperang.\" Ini terjadi saat awal keislaman mereka di Medinah, sehingga Allah membuka ketakwaan dan melapangkan Islam dalam hati mereka.",
        "sabab_nuzul": null,
        "conclusion": null
    }
}