{
    "id": 513,
    "surah_id": 4,
    "ayah": 20,
    "page": 81,
    "quarter_hizb": 8.75,
    "juz": 4,
    "manzil": 1,
    "arabic": "\u0648\u064e\u0627\u0650\u0646\u0652 \u0627\u064e\u0631\u064e\u062f\u0652\u062a\u0651\u064f\u0645\u064f \u0627\u0633\u0652\u062a\u0650\u0628\u0652\u062f\u064e\u0627\u0644\u064e \u0632\u064e\u0648\u0652\u062c\u064d \u0645\u0651\u064e\u0643\u064e\u0627\u0646\u064e \u0632\u064e\u0648\u0652\u062c\u064d\u06d9 \u0648\u0651\u064e\u0627\u0670\u062a\u064e\u064a\u0652\u062a\u064f\u0645\u0652 \u0627\u0650\u062d\u0652\u062f\u0670\u0649\u0647\u064f\u0646\u0651\u064e \u0642\u0650\u0646\u0652\u0637\u064e\u0627\u0631\u064b\u0627 \u0641\u064e\u0644\u064e\u0627 \u062a\u064e\u0623\u0652\u062e\u064f\u0630\u064f\u0648\u0652\u0627 \u0645\u0650\u0646\u0652\u0647\u064f \u0634\u064e\u064a\u0652\u0640\u0654\u064b\u0627 \u06d7 \u0627\u064e\u062a\u064e\u0623\u0652\u062e\u064f\u0630\u064f\u0648\u0652\u0646\u064e\u0647\u0657 \u0628\u064f\u0647\u0652\u062a\u064e\u0627\u0646\u064b\u0627 \u0648\u0651\u064e\u0627\u0650\u062b\u0652\u0645\u064b\u0627 \u0645\u0651\u064f\u0628\u0650\u064a\u0652\u0646\u064b\u0627 ",
    "latin": "Wa in arattumustibd\u0101la zaujim mak\u0101na zauj(in), wa \u0101taitum i\u1e25d\u0101hunna qin\u1e6d\u0101ran fal\u0101 ta'khu\u017c\u016b minhu syai'\u0101(n), ata'khu\u017c\u016bnah\u016b buht\u0101naw wa i\u1e61mam mub\u012bn\u0101(n).",
    "translation": "Jika kamu ingin mengganti istri dengan istri yang lain, sedangkan kamu telah memberikan kepada salah seorang di antara mereka harta yang banyak (sebagai mahar), janganlah kamu mengambilnya kembali sedikit pun. Apakah kamu akan mengambilnya kembali dengan cara dusta dan dosa yang nyata?",
    "no_footnote": null,
    "footnotes": null,
    "surah": {
        "id": 4,
        "arabic": "\u0627\u0644\u0646\u0651\u0633\u0627\u06e4\u0621",
        "latin": "An-Nis\u0101' ",
        "transliteration": "An-Nisa'",
        "translation": "Perempuan",
        "num_ayah": 176,
        "page": 77,
        "location": "Madaniyah"
    },
    "tafsir": {
        "wajiz": "Dan jika kamu, wahai para suami, ingin mengganti istrimu dengan menceraikannya dan setelah menceraikannya kemudian kamu menikah dengan istri yang lain yang kamu sukai sedang kamu telah memberikan kepada seorang di antara mereka harta yang banyak sebagai mahar untuk mereka yang telah kamu ceraikan itu, maka janganlah kamu mengambil kembali walau sedikit pun pemberian itu darinya karena mahar yang telah kamu berikan itu sudah menjadi miliknya. Apakah kamu akan mengambilnya kembali harta kekayaan yang kamu jadikan mahar itu dengan jalan tuduhan yang dusta dan dengan menanggung dosa yang nyata? Mengambil atau meminta kembali mahar yang telah diberikan kepada mereka adalah termasuk perbuatan zalim yang dimurkai Allah.",
        "tahlili": "Apabila di antara para suami ingin mengganti istrinya dengan istri yang lain, karena ia tidak dapat lagi mempertahankan kesabaran atas ketidaksenangannya kepada istrinya itu, dan istri tidak pula melakukan tindak kejahatan, maka janganlah suami mengambil barang atau harta yang telah diberikan kepadanya.\nBahkan suami wajib memberikan hadiah penghibur kepadanya sebab perpisahan itu bukanlah atas kesalahan ataupun permintaan dari istri, tapi semata-mata kerena suami mencari kemaslahatan bagi dirinya sendiri. Allah memperingatkan: apakah suami mau menjadi orang yang berdosa dengan tetap meminta kembali harta mereka dengan alasan yang dicari-cari? Karena tidak jarang suami membuat tuduhan-tuduhan jelek terhadap istrinya agar ada alasan baginya untuk menceraikan dan minta kembali harta yang telah diberikannya.",
        "intro_surah": "Surah an-Nis\u0101\u2019 yang terdiri dari 176 ayat itu adalah surah Madaniyah yang terpanjang sesudah Surah al-Baqarah. Dinamakan an-Nis\u0101\u2019 karena dalam surah ini banyak dibicarakan hal yang berhubungan dengan perempuan serta merupakan surah yang paling banyak membicarakan hal itu dibanding dengan surah-surah Al-Qur\u2019an yang lain. Surah lain yang banyak juga membicarakan hal perempuan ialah Surah a\u1e6d-\u1e6cal\u0101q. Dalam hubungan ini Surah an-Nis\u0101\u2019 biasa disebut dengan sebutan S\u016brah an-Nis\u0101\u2019 al-Kubr\u0101 (Surah an-Nis\u0101\u2019 yang besar), sedang Surah a\u1e6d-\u1e6cal\u0101q disebut dengan sebutan S\u016brah an-Nis\u0101\u2019 a\u1e63-\u1e62ugr\u0101 (Surah an-Nis\u0101\u2019 yang kecil).\n\nPokok-pokok Isinya\n1.\tKeimanan \nMencakup syirik, kekafiran dan hari kemudian.\n\n2.\tHukum-hukum\nKewajiban para w\u0101\u1e63i dan para wali, hukum poligami, maskawin, memakan harta anak yatim dan orang-orang yang tidak dapat mengurus hartanya, pokok-pokok hukum warisan, perbuatan-perbuatan keji dan hukumannya, perempuan yang haram dikawini, hukum mengawini budak perempuan, larangan memakan harta secara batil, hukum syiq\u0101q dan nusy\u016bz, kesucian lahir batin dalam salat, hukum suaka, hukum membunuh seorang muslim, salat khauf, larangan melontarkan ucapan-ucapan buruk, masalah pusaka kalalah, dan lain-lain.\n\n3.\tKisah-kisah \nKisah-kisah tentang Nabi Musa dan pengikut-pengikutnya.\n\n4.\tLain-lain:\nAsal manusia adalah satu, keharusan menjauhi adat zaman jahiliah dalam menggauli perempuan, cara menggauli istri, hak seseorang sesuai dengan kewajibannya, perlakuan Ahli Kitab terhadap kitab-kitab yang diturunkan kepadanya, dasar-dasar pemerintahan, cara mengadili perkara, keharusan siap-siaga terhadap musuh, sikap-sikap orang munafik dalam manghadapi peperangan, berperang di jalan Allah adalah kewajiban tiap-tiap mukalaf, adab dalam peperangan, cara menghadapi orang-orang munafik, derajat-derajat orang yang berjihad.\n ",
        "outro_surah": null,
        "munasabah_prev_surah": "Hubungan Surah an-Nis\u0101\u2019 dengan Surah \u0100li \u2018Imr\u0101n, ialah:\n1. \tSurah an-Nis\u0101\u2019 dimulai dengan perintah bertakwa kepada Allah sedang Surah Ali Imr\u0101n juga disudahi dengan perintah bertakwa kepada Allah.\n2.\tDalam Surah \u0100li \u2018Imr\u0101n disebutkan kisah perang Badar dan Uhud dengan sempurna, di dalam Surah an-Nis\u0101\u2019 sebagian kisah itu diulangi lagi.\n3.\tKisah perang \u1e24amra\u2019 al-Asad yang terjadi sesudah Perang Uhud terdapat dalam surah Ali \u2018Imr\u0101n, maka dalam Surah an-Nis\u0101\u2019 kisah itu disinggung lagi.\n4.\tDalam Surah \u0100li \u2018Imr\u0101n telah disebutkan bahwa di kalangan kaum Muslimin banyak yang gugur dalam medan perang sebagai syuhada yang tentunya mereka meninggalkan anak-anak yang sudah yatim dan istri yang sudah janda. Maka pada permulaan Surah an-Nis\u0101\u2019 disebutkan perintah memelihara anak-anak yatim serta pembagian harta pusaka.",
        "munasabah_prev_theme": "Ayat-ayat yang lalu menerangkan hukuman bagi perempuan dan laki-laki yang berbuat keji dan kemudian dilanjutkan dengan anjuran untuk bertobat, maka ayat-ayat ini memperingatkan ahli waris agar jangan mewarisi bekas istri dari keluarga yang meninggal dengan secara paksa.",
        "theme_group": "PERGAULAN DENGAN ISTRI",
        "kosakata": "Kosakata: Karhan \u0643\u064e\u0631\u0652\u0647\u064b\u0627 (an-Nis\u0101\u2019/4: 19)\nDalam Al-Qur\u2019an, kata karh(an) sering diungkapkan untuk mengimbangi \u1e6dau\u2019(an), misalnya dalam Surah \u0100li \u2018Imr\u0101n/3:83, at-Taubah/9:53, ar-Ra\u2019d/13:15, dan Fu\u1e63\u1e63ilat/41:11. Kata \u1e6dau\u2019an wa karhan, dalam Surah \u0100li \u2018Imr\u0101n/3:83 diartikan dengan \u201cbaik dengan suka maupun terpaksa.\u201d Tetapi, kata karh(an) dalam Surah an-Nis\u0101\u2019/4:19 ini berarti \u201cdengan jalan paksa.\u201d Maka terjemah ayat tersebut: \u201cWahai orang-orang yang beriman! Tidak halal bagi kamu mewarisi perempuan dengan jalan paksa.\u201d",
        "sabab_nuzul": null,
        "conclusion": null
    }
}