{
    "id": 561,
    "surah_id": 4,
    "ayah": 68,
    "page": 89,
    "quarter_hizb": 9.5,
    "juz": 5,
    "manzil": 1,
    "arabic": "\u0648\u0651\u064e\u0644\u064e\u0647\u064e\u062f\u064e\u064a\u0652\u0646\u0670\u0647\u064f\u0645\u0652 \u0635\u0650\u0631\u064e\u0627\u0637\u064b\u0627 \u0645\u0651\u064f\u0633\u0652\u062a\u064e\u0642\u0650\u064a\u0652\u0645\u064b\u0627 ",
    "latin": "Wa lahadain\u0101hum \u1e63ir\u0101\u1e6dam mustaq\u012bm\u0101(n).",
    "translation": "dan pasti Kami tunjukkan kepada mereka jalan yang lurus.",
    "no_footnote": null,
    "footnotes": null,
    "surah": {
        "id": 4,
        "arabic": "\u0627\u0644\u0646\u0651\u0633\u0627\u06e4\u0621",
        "latin": "An-Nis\u0101' ",
        "transliteration": "An-Nisa'",
        "translation": "Perempuan",
        "num_ayah": 176,
        "page": 77,
        "location": "Madaniyah"
    },
    "tafsir": {
        "wajiz": "Pada waktu yang bersamaan, pasti Kami akan tunjukkan pula kepada mereka jalan yang lurus yang mengantarkan mereka menuju kebahagiaan hidup di dunia dan di akhirat.",
        "tahlili": "Kemudian dijelaskan bahwa kalau mereka berbuat kebaikan dan mematuhi segala perintah Allah dan meninggalkan semua larangan-Nya serta beramal dengan penuh ikhlas, niscaya Allah akan memberikan kepada mereka pahala yang besar dan akan memimpin mereka ke jalan yang lurus yang dapat membawa kebahagiaan hidup dunia dan akhirat.\n",
        "intro_surah": "Surah an-Nis\u0101\u2019 yang terdiri dari 176 ayat itu adalah surah Madaniyah yang terpanjang sesudah Surah al-Baqarah. Dinamakan an-Nis\u0101\u2019 karena dalam surah ini banyak dibicarakan hal yang berhubungan dengan perempuan serta merupakan surah yang paling banyak membicarakan hal itu dibanding dengan surah-surah Al-Qur\u2019an yang lain. Surah lain yang banyak juga membicarakan hal perempuan ialah Surah a\u1e6d-\u1e6cal\u0101q. Dalam hubungan ini Surah an-Nis\u0101\u2019 biasa disebut dengan sebutan S\u016brah an-Nis\u0101\u2019 al-Kubr\u0101 (Surah an-Nis\u0101\u2019 yang besar), sedang Surah a\u1e6d-\u1e6cal\u0101q disebut dengan sebutan S\u016brah an-Nis\u0101\u2019 a\u1e63-\u1e62ugr\u0101 (Surah an-Nis\u0101\u2019 yang kecil).\n\nPokok-pokok Isinya\n1.\tKeimanan \nMencakup syirik, kekafiran dan hari kemudian.\n\n2.\tHukum-hukum\nKewajiban para w\u0101\u1e63i dan para wali, hukum poligami, maskawin, memakan harta anak yatim dan orang-orang yang tidak dapat mengurus hartanya, pokok-pokok hukum warisan, perbuatan-perbuatan keji dan hukumannya, perempuan yang haram dikawini, hukum mengawini budak perempuan, larangan memakan harta secara batil, hukum syiq\u0101q dan nusy\u016bz, kesucian lahir batin dalam salat, hukum suaka, hukum membunuh seorang muslim, salat khauf, larangan melontarkan ucapan-ucapan buruk, masalah pusaka kalalah, dan lain-lain.\n\n3.\tKisah-kisah \nKisah-kisah tentang Nabi Musa dan pengikut-pengikutnya.\n\n4.\tLain-lain:\nAsal manusia adalah satu, keharusan menjauhi adat zaman jahiliah dalam menggauli perempuan, cara menggauli istri, hak seseorang sesuai dengan kewajibannya, perlakuan Ahli Kitab terhadap kitab-kitab yang diturunkan kepadanya, dasar-dasar pemerintahan, cara mengadili perkara, keharusan siap-siaga terhadap musuh, sikap-sikap orang munafik dalam manghadapi peperangan, berperang di jalan Allah adalah kewajiban tiap-tiap mukalaf, adab dalam peperangan, cara menghadapi orang-orang munafik, derajat-derajat orang yang berjihad.\n ",
        "outro_surah": null,
        "munasabah_prev_surah": "Hubungan Surah an-Nis\u0101\u2019 dengan Surah \u0100li \u2018Imr\u0101n, ialah:\n1. \tSurah an-Nis\u0101\u2019 dimulai dengan perintah bertakwa kepada Allah sedang Surah Ali Imr\u0101n juga disudahi dengan perintah bertakwa kepada Allah.\n2.\tDalam Surah \u0100li \u2018Imr\u0101n disebutkan kisah perang Badar dan Uhud dengan sempurna, di dalam Surah an-Nis\u0101\u2019 sebagian kisah itu diulangi lagi.\n3.\tKisah perang \u1e24amra\u2019 al-Asad yang terjadi sesudah Perang Uhud terdapat dalam surah Ali \u2018Imr\u0101n, maka dalam Surah an-Nis\u0101\u2019 kisah itu disinggung lagi.\n4.\tDalam Surah \u0100li \u2018Imr\u0101n telah disebutkan bahwa di kalangan kaum Muslimin banyak yang gugur dalam medan perang sebagai syuhada yang tentunya mereka meninggalkan anak-anak yang sudah yatim dan istri yang sudah janda. Maka pada permulaan Surah an-Nis\u0101\u2019 disebutkan perintah memelihara anak-anak yatim serta pembagian harta pusaka.",
        "munasabah_prev_theme": "Pada ayat-ayat yang lalu diterangkan bahwa orang yang beriman adalah mereka yang mau bertahkim kepada Rasul dalam menyelesaikan perselisihan yang terjadi di antara mereka dan mau menerima dengan ikhlas putusan yang dijatuhkan oleh Rasulullah serta tidak merasa keberatan tentang hukum yang dijatuhkannya, maka ayat ini menerangkan tentang tabiat atau watak manusia dalam mematuhi perintah Allah dan meninggalkan larangan Nya, menurut tinggi rendahnya mutu keimanan yang tertanam dalam lubuk hati mereka.",
        "theme_group": "SIKAP MANUSIA DALAM BERAGAMA",
        "kosakata": "Kosakata: Ajr \u0627\u064e\u062c\u0652\u0631(an-Nis\u0101\u2019/4: 67)\nSecara harfiah, lafal ajr berasal dari ajara yang berarti memberi upah untuk suatu perbuatan atau pahala, dan bentuk jamaknya uj\u016br. Di dalam Al-Qur\u2019an, lafal ajr memiliki dua makna pokok. Pertama, lafal ajr berarti surga, sebagaimana di dalam firman Allah, \u201cMaka berilah mereka kabar gembira dengan ampunan dan pahala yang mulia (surga)\u201d (Y\u0101s\u012bn/36:11) Kedua, lafal ajr berarti mahar untuk istri, sebagaimana di dalam firman Allah, \u201cMaka karena kenikmatan yang telah kamu dapatkan dari mereka, berikanlah mas kawinnya kepada mereka sebagai suatu kewajiban.\u201d (an-Nis\u0101\u2019/4:24) Kedua makna inilah yang paling banyak digunakan di dalam Al-Qur\u2019an.",
        "sabab_nuzul": null,
        "conclusion": "1.\tTabiat dan sikap manusia tidak sama dalam mematuhi perintah Allah, ada yang suka membangkang dan keras kepala seperti yang banyak terjadi pada Bani Israil dan beberapa umat para nabi dahulu, dan ada pula yang sangat patuh.\n2.\tAllah telah memberikan keringanan kepada Nabi Muhammad saw dan umatnya, yaitu tidak memerintahkan bunuh diri sebagai kafarat seperti yang telah diperintahkan kepada Bani Israil. Keringanan tersebut, adalah merupakan salah satu karunia besar kepada umat Nabi Muhammad.\n3.\tOrang mukmin yang senantiasa berbuat amal saleh, mendapat pahala yang besar dan bimbingan dari Allah.\n4.\tOrang yang membiasakan diri berbuat amal saleh, amalnya akan menambah kuat imannya, dan menjadikannya sabar dan tabah dalam menghadapi segala macam rintangan dan tantangan."
    }
}