{
    "id": 570,
    "surah_id": 4,
    "ayah": 77,
    "page": 90,
    "quarter_hizb": 9.75,
    "juz": 5,
    "manzil": 1,
    "arabic": "\u0627\u064e\u0644\u064e\u0645\u0652 \u062a\u064e\u0631\u064e \u0627\u0650\u0644\u064e\u0649 \u0627\u0644\u0651\u064e\u0630\u0650\u064a\u0652\u0646\u064e \u0642\u0650\u064a\u0652\u0644\u064e \u0644\u064e\u0647\u064f\u0645\u0652 \u0643\u064f\u0641\u0651\u064f\u0648\u0652\u0653\u0627 \u0627\u064e\u064a\u0652\u062f\u0650\u064a\u064e\u0643\u064f\u0645\u0652 \u0648\u064e\u0627\u064e\u0642\u0650\u064a\u0652\u0645\u064f\u0648\u0627 \u0627\u0644\u0635\u0651\u064e\u0644\u0670\u0648\u0629\u064e \u0648\u064e\u0627\u0670\u062a\u064f\u0648\u0627 \u0627\u0644\u0632\u0651\u064e\u0643\u0670\u0648\u0629\u064e\u06da \u0641\u064e\u0644\u064e\u0645\u0651\u064e\u0627 \u0643\u064f\u062a\u0650\u0628\u064e \u0639\u064e\u0644\u064e\u064a\u0652\u0647\u0650\u0645\u064f \u0627\u0644\u0652\u0642\u0650\u062a\u064e\u0627\u0644\u064f \u0627\u0650\u0630\u064e\u0627 \u0641\u064e\u0631\u0650\u064a\u0652\u0642\u064c \u0645\u0651\u0650\u0646\u0652\u0647\u064f\u0645\u0652 \u064a\u064e\u062e\u0652\u0634\u064e\u0648\u0652\u0646\u064e \u0627\u0644\u0646\u0651\u064e\u0627\u0633\u064e \u0643\u064e\u062e\u064e\u0634\u0652\u064a\u064e\u0629\u0650 \u0627\u0644\u0644\u0651\u0670\u0647\u0650 \u0627\u064e\u0648\u0652 \u0627\u064e\u0634\u064e\u062f\u0651\u064e \u062e\u064e\u0634\u0652\u064a\u064e\u0629\u064b \u06da \u0648\u064e\u0642\u064e\u0627\u0644\u064f\u0648\u0652\u0627 \u0631\u064e\u0628\u0651\u064e\u0646\u064e\u0627 \u0644\u0650\u0645\u064e \u0643\u064e\u062a\u064e\u0628\u0652\u062a\u064e \u0639\u064e\u0644\u064e\u064a\u0652\u0646\u064e\u0627 \u0627\u0644\u0652\u0642\u0650\u062a\u064e\u0627\u0644\u064e\u06da  \u0644\u064e\u0648\u0652\u0644\u064e\u0627\u0653 \u0627\u064e\u062e\u0651\u064e\u0631\u0652\u062a\u064e\u0646\u064e\u0627\u0653 \u0627\u0650\u0644\u0670\u0653\u0649 \u0627\u064e\u062c\u064e\u0644\u064d \u0642\u064e\u0631\u0650\u064a\u0652\u0628\u064d\u06d7 \u0642\u064f\u0644\u0652 \u0645\u064e\u062a\u064e\u0627\u0639\u064f \u0627\u0644\u062f\u0651\u064f\u0646\u0652\u064a\u064e\u0627 \u0642\u064e\u0644\u0650\u064a\u0652\u0644\u064c\u06da \u0648\u064e\u0627\u0644\u0652\u0627\u0670\u062e\u0650\u0631\u064e\u0629\u064f \u062e\u064e\u064a\u0652\u0631\u064c \u0644\u0651\u0650\u0645\u064e\u0646\u0650 \u0627\u062a\u0651\u064e\u0642\u0670\u0649\u06d7 \u0648\u064e\u0644\u064e\u0627 \u062a\u064f\u0638\u0652\u0644\u064e\u0645\u064f\u0648\u0652\u0646\u064e \u0641\u064e\u062a\u0650\u064a\u0652\u0644\u064b\u0627 ",
    "latin": "Alam tara ilal-la\u017c\u012bna q\u012bla lahum kuff\u016b aidiyakum wa aq\u012bmu\u1e63-\u1e63al\u0101ta wa \u0101tuz-zak\u0101t(a), fa lamm\u0101 kutiba \u2018alaihimul-qit\u0101lu  i\u017c\u0101 far\u012bqum minhum yakhsyaunan-n\u0101sa kakhasy-yatill\u0101hi  au asyadda khasy-yah(tan), wa q\u0101l\u016b rabban\u0101 lima katabta \u2018alainal-qit\u0101l(a), lau l\u0101 akhkhartan\u0101 il\u0101 ajalin qar\u012bb(in), qul mat\u0101\u2018ud-dun-y\u0101 qal\u012bl(un), wal-\u0101khiratu khairul limanittaq\u0101, wa l\u0101 tu\u1e93lam\u016bna fat\u012bl\u0101(n).",
    "translation": "Tidakkah engkau memperhatikan orang-orang yang dikatakan kepada mereka, \u201cTahanlah tanganmu (dari berperang), tegakkanlah salat, dan tunaikanlah zakat!\u201d Ketika mereka diwajibkan berperang, tiba-tiba segolongan mereka (munafik) takut kepada manusia (musuh) seperti ketakutan mereka kepada Allah, bahkan lebih takut daripada itu. Mereka berkata, \u201cWahai Tuhan kami, mengapa Engkau wajibkan berperang kepada kami? Mengapa tidak Engkau tangguhkan (kewajiban berperang) kepada kami beberapa waktu lagi?\u201d Katakanlah, \u201cKesenangan di dunia ini hanyalah sedikit, sedangkan akhirat itu lebih baik bagi orang yang bertakwa dan kamu tidak akan dizalimi sedikit pun.\u201d",
    "no_footnote": null,
    "footnotes": null,
    "surah": {
        "id": 4,
        "arabic": "\u0627\u0644\u0646\u0651\u0633\u0627\u06e4\u0621",
        "latin": "An-Nis\u0101' ",
        "transliteration": "An-Nisa'",
        "translation": "Perempuan",
        "num_ayah": 176,
        "page": 77,
        "location": "Madaniyah"
    },
    "tafsir": {
        "wajiz": "Ayat-ayat yang lalu menggambarkan dua motivasi perang dan dua kelompok pada masing-masing motivasi itu. Ayat-ayat berikut menggambarkan fenomena yang ada di sebagian kelompok orang beriman yang enggan diajak berperang. Tidakkah engkau memperhatikan, wahai kaum beriman, orang-orang yang dikatakan kepada mereka, yakni orangorang yang menampakkan dirinya beriman dan minta izin berperang sebelum ada perintah berperang? Dikatakan kepada mereka,  \u201cTahanlah tanganmu dari berperang karena belum waktunya, laksanakanlah salat guna membangun hubungan dengan Allah, dan tunaikanlah zakat untuk membangun hubungan dengan sesama!\u201d Ketika situasi telah menuntut untuk melakukan perang karena kaum muslim bertambah teraniaya, maka mereka pun diwajibkan untuk berperang, tiba-tiba sebagian mereka golongan munafik yang telah hidup nyaman pada waktu turunnya ayat ini, takut kepada manusia sebagai musuh yakni orang-orang kafir seperti takutnya kepada Allah, bahkan lebih dahsyat lagi takut dari itu. Dalam kondisi dihantui oleh rasa takut menghadapi musuh dan takut kehilangan kesenangan yang sudah diperoleh, mereka berkata, \u201cYa Tuhan kami, mengapa Engkau wajibkan berperang kepada kami, padahal kami belum terlepas dari kesulitan hidup? Mengapa tidak Engkau tunda kewajiban berperang itu kepada kami beberapa waktu lagi, agar kami dapat merasakan kesenangan ini lebih lama lagi?\u201d Katakanlah, \u201cBerapa lama pun kesenangan yang kalian dapatkan di dunia ini tidak ada artinya, karena kesenangan dunia itu hanya sedikit, dan kesenangan akhirat itu lebih baik karena banyak dan beraneka ragam, yang disediakan bagi orang-orang yang bertakwa mendapat pahala turut berperang dan kamu tidak akan dizalimi sedikit pun baik di dunia maupun di akhirat.\u201d",
        "tahlili": "Ayat ini menggambarkan keadaan masyarakat masa jahiliah. Mereka suka berperang meskipun karena sebab yang kecil. Setelah masuk Islam, mereka diperintahkan agar menghentikan perang, melaksanakan salat dan membayar zakat. Sebagian dari mereka mengharapkan adanya perintah perang karena kepentingan duniawi sebagaimana kebiasaan mereka pada masa jahiliah. \nAyat ini memerintahkan kepada sebagian kaum Muslimin yang enggan berperang agar mereka bersikap tenang dan menahan diri untuk tidak mengadakan peperangan terhadap orang kafir dan mereka hanya diperintahkan melakukan salat dan membayar zakat. Tetapi pada waktu mereka diperintahkan berperang untuk mempertahankan diri, ternyata sebagian dari mereka tidak bersemangat untuk berperang karena takut kepada musuh, padahal semestinya mereka hanya takut kepada Allah. Malahan mereka berkata, \u201cMengapa kami diwajibkan berperang pada waktu ini, biarkanlah kami mati seperti biasa.\u201d\nAllah memerintahkan kepada Rasul-Nya agar mengatakan kepada sebagian kaum Muslimin bahwa sikap mereka itu adalah sikap seorang pengecut, karena takut mati dan cinta kepada harta dunia, sedangkan kelezatan dunia itu hanya sedikit sekali dibandingkan dengan kelezatan akhirat yang abadi dan tidak terbatas, yang hanya akan didapat oleh orang-orang yang bertakwa kepada Allah yaitu orang yang bersih dari syirik dan akhlak yang rendah. Pada akhir ayat ini ditegaskan bahwa Allah tidak akan menganiaya dan merugikan manusia. Masing-masing akan mendapat balasan sesuai dengan amal perbuatannya walaupun sebesar zarrah.",
        "intro_surah": "Surah an-Nis\u0101\u2019 yang terdiri dari 176 ayat itu adalah surah Madaniyah yang terpanjang sesudah Surah al-Baqarah. Dinamakan an-Nis\u0101\u2019 karena dalam surah ini banyak dibicarakan hal yang berhubungan dengan perempuan serta merupakan surah yang paling banyak membicarakan hal itu dibanding dengan surah-surah Al-Qur\u2019an yang lain. Surah lain yang banyak juga membicarakan hal perempuan ialah Surah a\u1e6d-\u1e6cal\u0101q. Dalam hubungan ini Surah an-Nis\u0101\u2019 biasa disebut dengan sebutan S\u016brah an-Nis\u0101\u2019 al-Kubr\u0101 (Surah an-Nis\u0101\u2019 yang besar), sedang Surah a\u1e6d-\u1e6cal\u0101q disebut dengan sebutan S\u016brah an-Nis\u0101\u2019 a\u1e63-\u1e62ugr\u0101 (Surah an-Nis\u0101\u2019 yang kecil).\n\nPokok-pokok Isinya\n1.\tKeimanan \nMencakup syirik, kekafiran dan hari kemudian.\n\n2.\tHukum-hukum\nKewajiban para w\u0101\u1e63i dan para wali, hukum poligami, maskawin, memakan harta anak yatim dan orang-orang yang tidak dapat mengurus hartanya, pokok-pokok hukum warisan, perbuatan-perbuatan keji dan hukumannya, perempuan yang haram dikawini, hukum mengawini budak perempuan, larangan memakan harta secara batil, hukum syiq\u0101q dan nusy\u016bz, kesucian lahir batin dalam salat, hukum suaka, hukum membunuh seorang muslim, salat khauf, larangan melontarkan ucapan-ucapan buruk, masalah pusaka kalalah, dan lain-lain.\n\n3.\tKisah-kisah \nKisah-kisah tentang Nabi Musa dan pengikut-pengikutnya.\n\n4.\tLain-lain:\nAsal manusia adalah satu, keharusan menjauhi adat zaman jahiliah dalam menggauli perempuan, cara menggauli istri, hak seseorang sesuai dengan kewajibannya, perlakuan Ahli Kitab terhadap kitab-kitab yang diturunkan kepadanya, dasar-dasar pemerintahan, cara mengadili perkara, keharusan siap-siaga terhadap musuh, sikap-sikap orang munafik dalam manghadapi peperangan, berperang di jalan Allah adalah kewajiban tiap-tiap mukalaf, adab dalam peperangan, cara menghadapi orang-orang munafik, derajat-derajat orang yang berjihad.\n ",
        "outro_surah": null,
        "munasabah_prev_surah": "Hubungan Surah an-Nis\u0101\u2019 dengan Surah \u0100li \u2018Imr\u0101n, ialah:\n1. \tSurah an-Nis\u0101\u2019 dimulai dengan perintah bertakwa kepada Allah sedang Surah Ali Imr\u0101n juga disudahi dengan perintah bertakwa kepada Allah.\n2.\tDalam Surah \u0100li \u2018Imr\u0101n disebutkan kisah perang Badar dan Uhud dengan sempurna, di dalam Surah an-Nis\u0101\u2019 sebagian kisah itu diulangi lagi.\n3.\tKisah perang \u1e24amra\u2019 al-Asad yang terjadi sesudah Perang Uhud terdapat dalam surah Ali \u2018Imr\u0101n, maka dalam Surah an-Nis\u0101\u2019 kisah itu disinggung lagi.\n4.\tDalam Surah \u0100li \u2018Imr\u0101n telah disebutkan bahwa di kalangan kaum Muslimin banyak yang gugur dalam medan perang sebagai syuhada yang tentunya mereka meninggalkan anak-anak yang sudah yatim dan istri yang sudah janda. Maka pada permulaan Surah an-Nis\u0101\u2019 disebutkan perintah memelihara anak-anak yatim serta pembagian harta pusaka.",
        "munasabah_prev_theme": "Pada ayat-ayat yang lalu kaum Muslimin diperintahkan agar waspada dan bersiap-siap untuk berperang menangkis serangan pihak Quraisy dan sekutu-sekutunya, menegakkan agama Allah dan membela golongan yang lemah, maka pada ayat ini diterangkan keadaan sebagian dari kaum Muslimin yang lemah imannya ketika diperintahkan berperang.",
        "theme_group": "SIKAP ORANG MUNAFIK\nDALAM MENGHADAPI PEPERANGAN",
        "kosakata": "Kosakata: Sayyi\u2019ah \u0633\u064e\u064a\u0651\u0650\u0626\u064e\u0629\u0652 (an-Nis\u0101\u2019/4: 78)\nKata sayyi\u2019ah berasal dari s\u0101\u2019a yang berarti berlaku buruk dan jahat. Kalimat s\u0101\u2019an\u012b rajulun berarti \"seorang laki-laki berbuat buruk kepadaku\". Kata sayyi\u2019ah adalah lawan dari kata \u1e25asanah (baik), dan berarti sesuatu yang buruk dan dihindari oleh tabiat dan akal. Di dalam Al-Qur\u2019an, kata sayyi\u2019ah mengandung banyak makna. Pertama, syirik sebagaimana di dalam firman Allah dalam Surah al-Baqarah/2:81. Kedua, bencana dan kekeringan. Ketiga, Syaf\u0101\u2019at sayyi\u2019ah adalah syafa\u2019at yang bertujuan merampas hak seorang Muslim dan menjerumuskannya kepada mudarat, sebagaimana di dalam Surah an-Nis\u0101\u2019/4:85. Sedangkan syaf\u0101\u2019at \u1e25asanah berarti kebalikannya. Keempat, perbuatan jahat dan dosa sebagaimana di dalam Surah al-An\u2018\u0101m/6: 160. Kelima, kesusahan sedangkan \u1e25asanah sebagai lawan katanya berarti kesenangan atau kemakmuran, sebagaimana di dalam Surah al-A\u2018r\u0101f/7:95. Keenam, siksaan sebagaimana di dalam Surah ar-Ra\u2019d/13:6.",
        "sabab_nuzul": null,
        "conclusion": null
    }
}