{
    "id": 586,
    "surah_id": 4,
    "ayah": 93,
    "page": 93,
    "quarter_hizb": 10,
    "juz": 5,
    "manzil": 1,
    "arabic": "\u0648\u064e\u0645\u064e\u0646\u0652 \u064a\u0651\u064e\u0642\u0652\u062a\u064f\u0644\u0652 \u0645\u064f\u0624\u0652\u0645\u0650\u0646\u064b\u0627 \u0645\u0651\u064f\u062a\u064e\u0639\u064e\u0645\u0651\u0650\u062f\u064b\u0627 \u0641\u064e\u062c\u064e\u0632\u064e\u0627\u06e4\u0624\u064f\u0647\u0657 \u062c\u064e\u0647\u064e\u0646\u0651\u064e\u0645\u064f \u062e\u064e\u0627\u0644\u0650\u062f\u064b\u0627 \u0641\u0650\u064a\u0652\u0647\u064e\u0627 \u0648\u064e\u063a\u064e\u0636\u0650\u0628\u064e \u0627\u0644\u0644\u0651\u0670\u0647\u064f \u0639\u064e\u0644\u064e\u064a\u0652\u0647\u0650 \u0648\u064e\u0644\u064e\u0639\u064e\u0646\u064e\u0647\u0657 \u0648\u064e\u0627\u064e\u0639\u064e\u062f\u0651\u064e \u0644\u064e\u0647\u0657 \u0639\u064e\u0630\u064e\u0627\u0628\u064b\u0627 \u0639\u064e\u0638\u0650\u064a\u0652\u0645\u064b\u0627 ",
    "latin": "Wa may yaqtul mu'minam muta\u2018ammidan fa jaz\u0101'uh\u016b jahannamu kh\u0101lidan f\u012bh\u0101 wa ga\u1e0diball\u0101hu \u2018alaihi wa la\u2018anah\u016b wa a\u2018adda lah\u016b \u2018a\u017c\u0101ban \u2018a\u1e93\u012bm\u0101(n).",
    "translation": "Siapa yang membunuh seorang mukmin dengan sengaja, balasannya adalah (neraka) Jahanam. Dia kekal di dalamnya. Allah murka kepadanya, melaknatnya, dan menyediakan baginya azab yang sangat besar.",
    "no_footnote": null,
    "footnotes": null,
    "surah": {
        "id": 4,
        "arabic": "\u0627\u0644\u0646\u0651\u0633\u0627\u06e4\u0621",
        "latin": "An-Nis\u0101' ",
        "transliteration": "An-Nisa'",
        "translation": "Perempuan",
        "num_ayah": 176,
        "page": 77,
        "location": "Madaniyah"
    },
    "tafsir": {
        "wajiz": "Dan barang siapa membunuh seorang mukmin dengan sengaja yakni dengan niat dan terencana, maka balasannya yang pantas dan setimpal ialah neraka Jahanam yang sangat mengerikan, dia kekal di dalamnya dalam waktu yang lama disertai dengan siksaan yang amat mengerikan. Di samping hukuman itu, Allah murka kepadanya dan melaknatnya yakni menjauhkannya dan tidak memberinya rahmat, serta menyediakan azab yang besar baginya selain dari azab-azab yang disebutkan di atas di akhirat.",
        "tahlili": "Betapa besarnya dosa seorang mukmin yang membunuh mukmin lainnya dengan sengaja. Dalam permulaan ayat yang lalu disebutkan sebagai suatu perbuatan yang tidak layak bagi seorang yang beriman karena seharusnya imannya menghalanginya dari perbuatan tersebut. Maka ayat ini menyebutkan hukuman yang akan ditimpakan kepada mukmin yang membunuh mukmin yang lain dengan sengaja, sama dengan hukuman yang disediakan Allah swt untuk orang yang tidak beriman, sehingga seolah-olah si pembunuh tersebut disamakan dengan orang yang tidak beriman karena kejahatan yang dilakukannya sama sekali tidak layak bagi orang yang beriman.\nMenurut ayat ini, hukuman yang akan diterapkan untuknya ialah azab neraka yang kekal di dalamnya dan kemurkaan serta laknat Allah. Neraka Jahanam merupakan azab yang paling berat. Kekekalan seseorang dalam neraka menunjukkan bahwa Allah tidak menerima tobatnya. Sedang laknat Allah berarti dijauhkan dari rahmat-Nya selama-lamanya. Kemurkaan Allah kepada seseorang akan menjauhkannya dari keridaan-Nya, di samping itu masih disediakan pula untuknya azab yang besar yang tidak dijelaskan dalam ayat ini.\nPerlu diketahui, berbagai hukuman yang disebutkan dalam ayat ini diancamkan kepada si pembunuh mukmin, yang membunuh mukmin yang lain dengan sengaja, adalah merupakan azab ukhrawi, yaitu azab yang akan diterima di akhirat kelak. Sedang di dunia ini, berlaku hukuman duniawi yang dilakukan oleh pihak penguasa. Menurut peraturan yang telah ditentukan dalam agama, yaitu: apabila dalam sidang pengadilan seseorang telah terbukti bersalah, maka terhadapnya dijatuhkan dan dilaksanakan hukum kisas, yaitu pembalasan yang setimpal, nyawa dengan nyawa. Tetapi, apabila ahli waris dari yang terbunuh memberikan maaf dan tidak menghendaki pelaksanaan hukuman kisas terhadap si pembunuh, maka pihak si pembunuh diwajibkan membayar diat, yang harus dilaksanakan dengan cara yang baik. Artinya: harus dibayar oleh yang bersangkutan pada waktu dan dengan jumlah yang ditetapkan oleh pengadilan tanpa mengulur-ulur waktu. Sebaliknya pihak yang akan menerima harus bersabar sampai datangnya waktu yang telah ditetapkan dan tidak mendesak (lihat al-Baqarah/2:178).\nMengenai tobat si pembunuh menurut zahir ayat ini memang tidak diterima Allah swt, karena dalam ayat ini disebutkan bahwa ia kekal dalam neraka Jahanam, sedang orang yang diterima tobatnya oleh Tuhan tidak akan kekal dalam neraka. Mengenai masalah ini ada dua pendapat:\nPertama: Pendapat sebagian sahabat, antara lain Ibnu Abbas, mengatakan bahwa orang mukmin yang membunuh orang mukmin lain dengan sengaja tidak diterima tobatnya di sisi Allah Yang Maha Esa. Lain halnya dengan orang musyrik yang walaupun pada masa-masa musyriknya ia membunuh, tetapi ia berbuat demikian sebelum ia mendapat petunjuk dan belum mengetahui hukum-hukum Allah, maka perbuatan membunuhnya diampuni oleh Allah selama perbuatan itu tidak diulangi setelah masuk Islam. Tetapi apabila ia telah memperoleh petunjuk dan telah mengetahui hukum-hukum dan larangan-larangan agama, maka perbuatannya itu berarti meremehkan hukum Allah yang telah diketahuinya dengan baik, dan seolah-olah telah meninggalkan imannya. Maka wajar bila Allah tidak menerima tobatnya, sebaliknya Allah memberikan azab yang kekal dalam neraka Jahanam dan kemurkaan serta laknat-Nya.\nKedua: Pendapat sebagian ulama, si pembunuh walaupun ia membunuh mukmin lainnya dengan sengaja, namun bila ia bertobat maka tobatnya masih diterima Allah, sebab Allah telah menjelaskan bahwa hanya dosa syiriklah yang tidak diampuni-Nya. Adapun dosa-dosa selain syirik masih dapat diampuni bagi orang-orang yang dikehendaki-Nya. Allah berfirman:\n\u0627\u0650\u0646\u0651\u064e \u0627\u0644\u0644\u0651\u0670\u0647\u064e \u0644\u064e\u0627 \u064a\u064e\u063a\u0652\u0641\u0650\u0631\u064f \u0627\u064e\u0646\u0652 \u064a\u0651\u064f\u0634\u0652\u0631\u064e\u0643\u064e \u0628\u0650\u0647\u0656 \u0648\u064e\u064a\u064e\u063a\u0652\u0641\u0650\u0631\u064f \u0645\u064e\u0627 \u062f\u064f\u0648\u0652\u0646\u064e \u0630\u0670\u0644\u0650\u0643\u064e \u0644\u0650\u0645\u064e\u0646\u0652 \u064a\u0651\u064e\u0634\u064e\u0627\u06e4\u0621\u064f \u06da \u0648\u064e\u0645\u064e\u0646\u0652 \u064a\u0651\u064f\u0634\u0652\u0631\u0650\u0643\u0652 \u0628\u0650\u0627\u0644\u0644\u0651\u0670\u0647\u0650 \u0641\u064e\u0642\u064e\u062f\u0650 \u0627\u0641\u0652\u062a\u064e\u0631\u0670\u0653\u0649 \u0627\u0650\u062b\u0652\u0645\u064b\u0627 \u0639\u064e\u0638\u0650\u064a\u0652\u0645\u064b\u0627 \u0664\u0668\nSesungguhnya Allah tidak akan mengampuni (dosa) karena mempersekutukan-Nya (syirik), dan Dia mengampuni apa (dosa) yang selain (syirik) itu bagi siapa yang Dia kehendaki. Barang siapa mempersekutukan Allah, maka sungguh, dia telah berbuat dosa yang besar. (an-Nis\u0101\u2019/4:48).\n\nJika Allah dapat menerima tobat seorang yang dahulunya musyrik yang melakukan pembunuhan dan perzinaan, kemudian ia masuk Islam dan bertobat serta senantiasa melakukan amal-amal saleh dan menjauhi perbuatan jahat, mengapa tobat seorang mukmin yang melakukan satu kali pembunuhan saja tidak dapat diterima Allah? Apakah tidak mungkin bahwa setelah melaksanakan pembunuhan itu yang mungkin karena disebabkan dorongan emosi yang meluap-luap, ia sadar akan kesalahannya dan mengetahui betapa besar dosanya dan betapa berat azab yang akan diterimanya, lalu ia bertobat kepada Allah dan menjauhi segala macam kejahatan, serta mengerjakan amal-amal saleh dengan tekun?\nAdapun orang-orang yang mengaku mukmin, tetapi ia senantiasa bergelimang dalam perbuatan dosa dan membunuh orang-orang mukmin yang lain yang dianggapnya sebagai musuh-musuhnya, atau karena ingin menguasai harta benda, maka orang-orang semacam ini tidak diterima tobatnya di sisi Allah dan selayaknyalah mereka menerima azab neraka dan kekal di dalamnya serta ditimpa kemurkaan dan laknat Allah jika mereka tidak bertobat sebelum ajalnya.",
        "intro_surah": "Surah an-Nis\u0101\u2019 yang terdiri dari 176 ayat itu adalah surah Madaniyah yang terpanjang sesudah Surah al-Baqarah. Dinamakan an-Nis\u0101\u2019 karena dalam surah ini banyak dibicarakan hal yang berhubungan dengan perempuan serta merupakan surah yang paling banyak membicarakan hal itu dibanding dengan surah-surah Al-Qur\u2019an yang lain. Surah lain yang banyak juga membicarakan hal perempuan ialah Surah a\u1e6d-\u1e6cal\u0101q. Dalam hubungan ini Surah an-Nis\u0101\u2019 biasa disebut dengan sebutan S\u016brah an-Nis\u0101\u2019 al-Kubr\u0101 (Surah an-Nis\u0101\u2019 yang besar), sedang Surah a\u1e6d-\u1e6cal\u0101q disebut dengan sebutan S\u016brah an-Nis\u0101\u2019 a\u1e63-\u1e62ugr\u0101 (Surah an-Nis\u0101\u2019 yang kecil).\n\nPokok-pokok Isinya\n1.\tKeimanan \nMencakup syirik, kekafiran dan hari kemudian.\n\n2.\tHukum-hukum\nKewajiban para w\u0101\u1e63i dan para wali, hukum poligami, maskawin, memakan harta anak yatim dan orang-orang yang tidak dapat mengurus hartanya, pokok-pokok hukum warisan, perbuatan-perbuatan keji dan hukumannya, perempuan yang haram dikawini, hukum mengawini budak perempuan, larangan memakan harta secara batil, hukum syiq\u0101q dan nusy\u016bz, kesucian lahir batin dalam salat, hukum suaka, hukum membunuh seorang muslim, salat khauf, larangan melontarkan ucapan-ucapan buruk, masalah pusaka kalalah, dan lain-lain.\n\n3.\tKisah-kisah \nKisah-kisah tentang Nabi Musa dan pengikut-pengikutnya.\n\n4.\tLain-lain:\nAsal manusia adalah satu, keharusan menjauhi adat zaman jahiliah dalam menggauli perempuan, cara menggauli istri, hak seseorang sesuai dengan kewajibannya, perlakuan Ahli Kitab terhadap kitab-kitab yang diturunkan kepadanya, dasar-dasar pemerintahan, cara mengadili perkara, keharusan siap-siaga terhadap musuh, sikap-sikap orang munafik dalam manghadapi peperangan, berperang di jalan Allah adalah kewajiban tiap-tiap mukalaf, adab dalam peperangan, cara menghadapi orang-orang munafik, derajat-derajat orang yang berjihad.\n ",
        "outro_surah": null,
        "munasabah_prev_surah": "Hubungan Surah an-Nis\u0101\u2019 dengan Surah \u0100li \u2018Imr\u0101n, ialah:\n1. \tSurah an-Nis\u0101\u2019 dimulai dengan perintah bertakwa kepada Allah sedang Surah Ali Imr\u0101n juga disudahi dengan perintah bertakwa kepada Allah.\n2.\tDalam Surah \u0100li \u2018Imr\u0101n disebutkan kisah perang Badar dan Uhud dengan sempurna, di dalam Surah an-Nis\u0101\u2019 sebagian kisah itu diulangi lagi.\n3.\tKisah perang \u1e24amra\u2019 al-Asad yang terjadi sesudah Perang Uhud terdapat dalam surah Ali \u2018Imr\u0101n, maka dalam Surah an-Nis\u0101\u2019 kisah itu disinggung lagi.\n4.\tDalam Surah \u0100li \u2018Imr\u0101n telah disebutkan bahwa di kalangan kaum Muslimin banyak yang gugur dalam medan perang sebagai syuhada yang tentunya mereka meninggalkan anak-anak yang sudah yatim dan istri yang sudah janda. Maka pada permulaan Surah an-Nis\u0101\u2019 disebutkan perintah memelihara anak-anak yatim serta pembagian harta pusaka.",
        "munasabah_prev_theme": "Ayat-ayat yang lalu telah menjelaskan bermacam golongan orang kafir dan munafik, dilihat dari sikap mereka terhadap Islam dan kaum Muslimin. Dijelaskan pula ketentuan Allah mengenai apa yang harus dilakukan oleh kaum Muslimin terhadap mereka. Ayat-ayat ini juga menerangkan masalah hukum yang harus diberlakukan terhadap seorang mukmin yang membunuh mukmin lainnya.",
        "theme_group": "HUKUM MEMBUNUH ORANG ISLAM",
        "kosakata": "Kosakata: Diyah \u062f\u0650\u064a\u064e\u0629\u0652 (an-Nis\u0101\u2019/4: 92)\nAsal kata diyah adalah wad\u0101-yad\u012b (\u0648\u062f\u0649 - \u064a\u062f\u064a), masdarnya al-wadyu (\u0627\u0644\u0648\u062f\u064a), kemudian huruf waw (\u0648) di awal kata dibuang untuk meringankan, karena huruf waw dianggap berat dalam pengucapan. Huruf waw yang dibuang ini diganti dengan huruf ha yang diletakan di akhir kata, terbentuklah kata (\u062f\u064a\u0629) artinya harta yang dibayarkan kepada keluarga korban yang terbunuh secara tidak sengaja, sebagai upaya mengobati kesedihan keluarga akibat musibah pembunuhan salah satu anggota keluarga. Diyah sudah dikenal bangsa Arab sebelum Islam datang sehingga Al-Qur\u2019an tidak merincinya. Menurut tradisi Arab, diyah berupa 10 ekor unta, ketika Abdul Mutalib membatalkan niatnya untuk mengorbankan putranya, Abdullah (ayah Rasulullah) di Ka\u2019bah, beliau membayar diyah sebanyak 100 ekor unta. Apa yang dilakukan Abdul Mutalib diikuti oleh kaumnya. Jumlah diyah dengan 100 ekor unta ini pula yang kita dapati dalam hadis Rasul saw. Namun, ketentuan besarnya diyah ini tergantung pada situasi dan kondisi setempat. Sedangkan yang berkewajiban membayar diyah adalah al-\u2019aqilah atau kerabat dari kabilah si pembunuh. Jika keluarga korban merelakan kematian korban dan memaafkan serta tidak meminta ganti rugi kepada si pembunuh, maka kewajiban membayar diyah gugur. Sebaliknya, keluarga korban memperoleh pahala sedekah dari diyah yang seharusnya diterima.",
        "sabab_nuzul": null,
        "conclusion": "1.\tSeorang mukmin tidak boleh membunuh mukmin yang lain.\n2.\tSeorang mukmin yang membunuh mukmin yang lain tanpa sengaja, dikenai hukuman sebagai berikut:\na.\tPembunuh diharuskan memerdekakan seorang hamba sahaya yang beriman di samping itu harus pula membayar diat (diyat) yang di serahkan kepada ahli waris orang yang terbunuh.\nb.\tPembunuh diharuskan memerdekakan hamba sahaya yang beriman, tanpa kewajiban membayar diat, apabila mukmin yang terbunuh itu berasal dari keluarga kafir yang memusuhi lslam dan kaum Muslimin.\nc.\tPembunuh diharuskan membayar diat yang diserahkan kepada ahli waris dari yang terbunuh, di samping harus memerdekakan seorang hamba sahaya yang beriman, apabila mukmin yang terbunuh itu berasal dari keluarga kafir yang telah membuat perjanjian damai dengan kaum Muslimin.\n3.\tKewajiban untuk memerdekakan hamba sahaya yang beriman dapat diganti dengan kewajiban puasa dua bulan berturut-turut bila pembunuh tidak dapat melakukannya disebabkan ketidakmampuannya atau karena ia tidak memperoleh hamba sahaya yang beriman.\n4.\tKewajiban untuk membayar diat dibebankan kepada kerabat dari pembunuh menurut garis keturunan ayahnya.\n5.\tOrang mukmin yang membunuh mukmin yang lain, dengan sengaja, tanpa alasan yang dibenarkan agama Islam, akan mendapat hukuman di akhirat, berupa azab neraka, dan ia kekal di dalamnya berikut ditimpa kemurkaan serta laknat Allah. Sedang di dunia ia harus dihukum kisas atau membayar diat kepada ahli waris mukmin yang terbunuh bila mereka ini tidak menuntut kisas."
    }
}