{
    "id": 577,
    "surah_id": 4,
    "ayah": 84,
    "page": 91,
    "quarter_hizb": 9.75,
    "juz": 5,
    "manzil": 1,
    "arabic": "\u0641\u064e\u0642\u064e\u0627\u062a\u0650\u0644\u0652 \u0641\u0650\u064a\u0652 \u0633\u064e\u0628\u0650\u064a\u0652\u0644\u0650 \u0627\u0644\u0644\u0651\u0670\u0647\u0650 \u06da \u0644\u064e\u0627 \u062a\u064f\u0643\u064e\u0644\u0651\u064e\u0641\u064f \u0627\u0650\u0644\u0651\u064e\u0627 \u0646\u064e\u0641\u0652\u0633\u064e\u0643\u064e \u0648\u064e\u062d\u064e\u0631\u0651\u0650\u0636\u0650 \u0627\u0644\u0652\u0645\u064f\u0624\u0652\u0645\u0650\u0646\u0650\u064a\u0652\u0646\u064e \u06da \u0639\u064e\u0633\u064e\u0649 \u0627\u0644\u0644\u0651\u0670\u0647\u064f \u0627\u064e\u0646\u0652 \u064a\u0651\u064e\u0643\u064f\u0641\u0651\u064e \u0628\u064e\u0623\u0652\u0633\u064e \u0627\u0644\u0651\u064e\u0630\u0650\u064a\u0652\u0646\u064e \u0643\u064e\u0641\u064e\u0631\u064f\u0648\u0652\u0627 \u06d7\u0648\u064e\u0627\u0644\u0644\u0651\u0670\u0647\u064f \u0627\u064e\u0634\u064e\u062f\u0651\u064f \u0628\u064e\u0623\u0652\u0633\u064b\u0627 \u0648\u0651\u064e\u0627\u064e\u0634\u064e\u062f\u0651\u064f \u062a\u064e\u0646\u0652\u0643\u0650\u064a\u0652\u0644\u064b\u0627 ",
    "latin": "Faq\u0101til f\u012b sab\u012blill\u0101h(i), l\u0101 tukallafu ill\u0101 nafsaka wa \u1e25arri\u1e0dil-mu'min\u012bn(a), \u2018asall\u0101hu ay yakuffa ba'sal la\u017c\u012bna kafar\u016b,  wall\u0101hu asyaddu ba'saw wa asyaddu tank\u012bl\u0101(n).",
    "translation": "Maka, berperanglah engkau (Nabi Muhammad) di jalan Allah. Tidaklah engkau dibebani (tanggung jawab), kecuali (yang terkait) dengan dirimu sendiri. Kobarkanlah (semangat) orang-orang mukmin (untuk berperang). Semoga Allah menolak serangan orang-orang yang kufur itu. Allah sangat dahsyat kekuatan-Nya dan sangat keras siksaan-Nya.",
    "no_footnote": null,
    "footnotes": null,
    "surah": {
        "id": 4,
        "arabic": "\u0627\u0644\u0646\u0651\u0633\u0627\u06e4\u0621",
        "latin": "An-Nis\u0101' ",
        "transliteration": "An-Nisa'",
        "translation": "Perempuan",
        "num_ayah": 176,
        "page": 77,
        "location": "Madaniyah"
    },
    "tafsir": {
        "wajiz": "Maka berperanglah engkau, Nabi Muhammad dan kaum muslim, di jalan Allah untuk menegakkan kebenaran dan keadilan, dan ingatlah bahwa engkau tidaklah dibebani melainkan atas kewajiban yang diletakkan pada dirimu sendiri. Kobarkanlah semangat orang-orang beriman untuk berperang di jalan Allah. Mudah-mudahan Allah menolak dengan cara mematahkan serangan orang-orang yang kafir itu. Allah sangat besar kekuatan-Nya untuk mengalahkan para penentang agama Allah itu dan sangat keras siksaan-Nya bagi kedurhakaan orang-orang munafik itu.",
        "tahlili": "Perintah perang untuk menahan serangan pihak kafir ini ditujukan langsung oleh Allah kepada Nabi-Nya dan Allah menghendaki pelaksanaan perintah perang ini atas dasar ketaatan dan berserah diri kepada-Nya tanpa menggantungkan harapan kepada orang-orang munafik yakni dengan mengharap bantuan kaum munafik. Allah memerintahkan kepada Nabi-Nya agar menganjurkan kepada orang-orang mukmin untuk ikut memerangi orang-orang kafir. Sejarah membuktikan pada Perang Uhud betapa ketabahan Rasulullah menjalankan perintah Allah meskipun pasukan Muslimin berada dalam keadaan kacau balau. Dalam ayat ini Allah menjanjikan akan melemahkan kekuatan orang-orang kafir, karenanya sudah sewajarnya kaum Muslimin tidak merasa khawatir, bahkan hendaknya semakin patuh kepada Rasulullah dengan memenuhi anjurannya untuk turut memerangi orang-orang kafir dengan keyakinan bahwa Allah Mahakuat dan memenuhi janji-Nya, memberikan kemenangan kepada Rasulullah beserta orang-orang mukmin.",
        "intro_surah": "Surah an-Nis\u0101\u2019 yang terdiri dari 176 ayat itu adalah surah Madaniyah yang terpanjang sesudah Surah al-Baqarah. Dinamakan an-Nis\u0101\u2019 karena dalam surah ini banyak dibicarakan hal yang berhubungan dengan perempuan serta merupakan surah yang paling banyak membicarakan hal itu dibanding dengan surah-surah Al-Qur\u2019an yang lain. Surah lain yang banyak juga membicarakan hal perempuan ialah Surah a\u1e6d-\u1e6cal\u0101q. Dalam hubungan ini Surah an-Nis\u0101\u2019 biasa disebut dengan sebutan S\u016brah an-Nis\u0101\u2019 al-Kubr\u0101 (Surah an-Nis\u0101\u2019 yang besar), sedang Surah a\u1e6d-\u1e6cal\u0101q disebut dengan sebutan S\u016brah an-Nis\u0101\u2019 a\u1e63-\u1e62ugr\u0101 (Surah an-Nis\u0101\u2019 yang kecil).\n\nPokok-pokok Isinya\n1.\tKeimanan \nMencakup syirik, kekafiran dan hari kemudian.\n\n2.\tHukum-hukum\nKewajiban para w\u0101\u1e63i dan para wali, hukum poligami, maskawin, memakan harta anak yatim dan orang-orang yang tidak dapat mengurus hartanya, pokok-pokok hukum warisan, perbuatan-perbuatan keji dan hukumannya, perempuan yang haram dikawini, hukum mengawini budak perempuan, larangan memakan harta secara batil, hukum syiq\u0101q dan nusy\u016bz, kesucian lahir batin dalam salat, hukum suaka, hukum membunuh seorang muslim, salat khauf, larangan melontarkan ucapan-ucapan buruk, masalah pusaka kalalah, dan lain-lain.\n\n3.\tKisah-kisah \nKisah-kisah tentang Nabi Musa dan pengikut-pengikutnya.\n\n4.\tLain-lain:\nAsal manusia adalah satu, keharusan menjauhi adat zaman jahiliah dalam menggauli perempuan, cara menggauli istri, hak seseorang sesuai dengan kewajibannya, perlakuan Ahli Kitab terhadap kitab-kitab yang diturunkan kepadanya, dasar-dasar pemerintahan, cara mengadili perkara, keharusan siap-siaga terhadap musuh, sikap-sikap orang munafik dalam manghadapi peperangan, berperang di jalan Allah adalah kewajiban tiap-tiap mukalaf, adab dalam peperangan, cara menghadapi orang-orang munafik, derajat-derajat orang yang berjihad.\n ",
        "outro_surah": null,
        "munasabah_prev_surah": "Hubungan Surah an-Nis\u0101\u2019 dengan Surah \u0100li \u2018Imr\u0101n, ialah:\n1. \tSurah an-Nis\u0101\u2019 dimulai dengan perintah bertakwa kepada Allah sedang Surah Ali Imr\u0101n juga disudahi dengan perintah bertakwa kepada Allah.\n2.\tDalam Surah \u0100li \u2018Imr\u0101n disebutkan kisah perang Badar dan Uhud dengan sempurna, di dalam Surah an-Nis\u0101\u2019 sebagian kisah itu diulangi lagi.\n3.\tKisah perang \u1e24amra\u2019 al-Asad yang terjadi sesudah Perang Uhud terdapat dalam surah Ali \u2018Imr\u0101n, maka dalam Surah an-Nis\u0101\u2019 kisah itu disinggung lagi.\n4.\tDalam Surah \u0100li \u2018Imr\u0101n telah disebutkan bahwa di kalangan kaum Muslimin banyak yang gugur dalam medan perang sebagai syuhada yang tentunya mereka meninggalkan anak-anak yang sudah yatim dan istri yang sudah janda. Maka pada permulaan Surah an-Nis\u0101\u2019 disebutkan perintah memelihara anak-anak yatim serta pembagian harta pusaka.",
        "munasabah_prev_theme": "Pada ayat-ayat yang lalu terdapat perintah jihad (berperang) dan penjelasan tentang tingkah laku orang-orang munafik terutama dalam usaha mereka melemahkan semangat kaum Muslimin. Maka dalam ayat ini Allah menyatakan bahwa Dia mengeluarkan perintah kepada Nabi-Nya agar memerangi orang kafir yang menentang dan merintangi dakwah dengan kekuatan.",
        "theme_group": "ANJURAN BERPERANG JIKA DISERANG",
        "kosakata": "Kosakata: \u1e24arri\u1e0d \u062d\u064e\u0631\u0651\u0650\u0636\u0652 (an-Nis\u0101\u2019/4: 84)\n\u1e24arri\u1e0d,adalah bentuk amar dari \u1e25arra\u1e0da. Masdarnya adalah ta\u1e25r\u012b\u1e0d. Ta\u1e25r\u012b\u1e0d adalah dorongan atau suport untuk melakukan sesuatu, serta dibarengi dengan menyediakan fasilitas dan sarana untuk mencapainya. Ayat 84 di atas menghilangkan kesan bahwa seolah-olah Nabi hanya diperintahkan untuk maju ke medan perang secara sendirian, tetapi justru Nabi disuruh untuk mendorong dan mengobarkan semangat berjihad terhadap orang-orang mukmin guna berperang bersamanya melawan orang musyrik dan munafik yang menyerang Muslimin di Medinah.",
        "sabab_nuzul": "Perintah berperang itu harus dilakukan oleh Nabi Muhammad saw. karena yang dibebani adalah dirinya sendiri. Ayat ini berhubungan dengan keengganan sebagian besar orang Medinah untuk ikut bersama Nabi ke Badar untuk mempertahankan kota Medinah dari serangan pasukan Quraisy. Maka turunlah ayat ini yang memerintahkan agar Nabi Muhammad saw. pergi berperang walaupun seorang diri.",
        "conclusion": "1.\tMenganjurkan orang mukmin berperang jika perlu, untuk mempertahankan diri, disesuaikan dengan kesanggupan mereka.\n2.\tBila telah ada perintah jihad hendaklah kaum Muslimin mengobarkan semangat jihad itu."
    }
}