{
    "id": 564,
    "surah_id": 4,
    "ayah": 71,
    "page": 89,
    "quarter_hizb": 9.5,
    "juz": 5,
    "manzil": 1,
    "arabic": "\u064a\u0670\u0653\u0627\u064e\u064a\u0651\u064f\u0647\u064e\u0627 \u0627\u0644\u0651\u064e\u0630\u0650\u064a\u0652\u0646\u064e \u0627\u0670\u0645\u064e\u0646\u064f\u0648\u0652\u0627 \u062e\u064f\u0630\u064f\u0648\u0652\u0627 \u062d\u0650\u0630\u0652\u0631\u064e\u0643\u064f\u0645\u0652 \u0641\u064e\u0627\u0646\u0652\u0641\u0650\u0631\u064f\u0648\u0652\u0627 \u062b\u064f\u0628\u064e\u0627\u062a\u064d \u0627\u064e\u0648\u0650 \u0627\u0646\u0652\u0641\u0650\u0631\u064f\u0648\u0652\u0627 \u062c\u064e\u0645\u0650\u064a\u0652\u0639\u064b\u0627 ",
    "latin": "Y\u0101 ayyuhal-la\u017c\u012bna \u0101man\u016b khu\u017c\u016b \u1e25i\u017crakum fanfir\u016b \u1e61ub\u0101tin awinfir\u016b jam\u012b\u2018\u0101(n).",
    "translation": "Wahai orang-orang yang beriman, bersiap siagalah dan majulah (ke medan pertempuran) secara berkelompok-kelompok atau majulah bersama-sama (serentak).",
    "no_footnote": null,
    "footnotes": null,
    "surah": {
        "id": 4,
        "arabic": "\u0627\u0644\u0646\u0651\u0633\u0627\u06e4\u0621",
        "latin": "An-Nis\u0101' ",
        "transliteration": "An-Nisa'",
        "translation": "Perempuan",
        "num_ayah": 176,
        "page": 77,
        "location": "Madaniyah"
    },
    "tafsir": {
        "wajiz": "Wahai orang-orang yang beriman! Bersiapsiagalah kamu menghadapi musuh, dan majulah dengan sungguh-sungguh dan penuh keberanian ke medan pertempuran secara berkelompok yakni menyerang secara bergelombang sekelompok dengan sekelompok bila taktik ini terbaik, atau majulah bersama-sama secara serentak apabila taktik ini kamu nilai lebih efektif.",
        "tahlili": "Dalam ayat ini diperintahkan untuk mengadakan segala macam persiapan menghadapi musuh, ayat ini seirama dengan ayat 60 surah al-Anf\u0101l. Menurut Sayyid Qutub, ayat-ayat ini diturunkan segera setelah Perang Uhud dan sebelum Perang Khandak. Tetapi beliau tidak menyebutkan sebab turunnya.\nOrang mukmin harus senantiasa bersiap siaga dalam segala hal, untuk menghadapi orang-orang kafir dalam peperangan, dimana wajib maju ke medan pertempuran, baik secara berkelompok maupun secara serempak, sesuai dengan taktik strategi peperangan, dan menurut komando yang diatur dengan baik.\nHal ini sudah dipraktekkan oleh Nabi Muhammad saw dalam menghadapi beberapa peperangan yang terjadi antara kaum Muslimin dengan orang-orang kafir. Beliau sebelum membebaskan kota Mekah lebih dahulu telah mengetahui kekuatan musuh dan strategi mereka dalam menghadapi kaum Muslimin dan mengetahui pula secara mendalam bagaimana semangat dan kekuatan iman yang dimiliki oleh pengikut-pengikutnya. Pada umumnya Nabi dalam melakukan peperangan telah mengetahui lebih dahulu keadaan musuh dan kesetiaan pengikutnya.",
        "intro_surah": "Surah an-Nis\u0101\u2019 yang terdiri dari 176 ayat itu adalah surah Madaniyah yang terpanjang sesudah Surah al-Baqarah. Dinamakan an-Nis\u0101\u2019 karena dalam surah ini banyak dibicarakan hal yang berhubungan dengan perempuan serta merupakan surah yang paling banyak membicarakan hal itu dibanding dengan surah-surah Al-Qur\u2019an yang lain. Surah lain yang banyak juga membicarakan hal perempuan ialah Surah a\u1e6d-\u1e6cal\u0101q. Dalam hubungan ini Surah an-Nis\u0101\u2019 biasa disebut dengan sebutan S\u016brah an-Nis\u0101\u2019 al-Kubr\u0101 (Surah an-Nis\u0101\u2019 yang besar), sedang Surah a\u1e6d-\u1e6cal\u0101q disebut dengan sebutan S\u016brah an-Nis\u0101\u2019 a\u1e63-\u1e62ugr\u0101 (Surah an-Nis\u0101\u2019 yang kecil).\n\nPokok-pokok Isinya\n1.\tKeimanan \nMencakup syirik, kekafiran dan hari kemudian.\n\n2.\tHukum-hukum\nKewajiban para w\u0101\u1e63i dan para wali, hukum poligami, maskawin, memakan harta anak yatim dan orang-orang yang tidak dapat mengurus hartanya, pokok-pokok hukum warisan, perbuatan-perbuatan keji dan hukumannya, perempuan yang haram dikawini, hukum mengawini budak perempuan, larangan memakan harta secara batil, hukum syiq\u0101q dan nusy\u016bz, kesucian lahir batin dalam salat, hukum suaka, hukum membunuh seorang muslim, salat khauf, larangan melontarkan ucapan-ucapan buruk, masalah pusaka kalalah, dan lain-lain.\n\n3.\tKisah-kisah \nKisah-kisah tentang Nabi Musa dan pengikut-pengikutnya.\n\n4.\tLain-lain:\nAsal manusia adalah satu, keharusan menjauhi adat zaman jahiliah dalam menggauli perempuan, cara menggauli istri, hak seseorang sesuai dengan kewajibannya, perlakuan Ahli Kitab terhadap kitab-kitab yang diturunkan kepadanya, dasar-dasar pemerintahan, cara mengadili perkara, keharusan siap-siaga terhadap musuh, sikap-sikap orang munafik dalam manghadapi peperangan, berperang di jalan Allah adalah kewajiban tiap-tiap mukalaf, adab dalam peperangan, cara menghadapi orang-orang munafik, derajat-derajat orang yang berjihad.\n ",
        "outro_surah": null,
        "munasabah_prev_surah": "Hubungan Surah an-Nis\u0101\u2019 dengan Surah \u0100li \u2018Imr\u0101n, ialah:\n1. \tSurah an-Nis\u0101\u2019 dimulai dengan perintah bertakwa kepada Allah sedang Surah Ali Imr\u0101n juga disudahi dengan perintah bertakwa kepada Allah.\n2.\tDalam Surah \u0100li \u2018Imr\u0101n disebutkan kisah perang Badar dan Uhud dengan sempurna, di dalam Surah an-Nis\u0101\u2019 sebagian kisah itu diulangi lagi.\n3.\tKisah perang \u1e24amra\u2019 al-Asad yang terjadi sesudah Perang Uhud terdapat dalam surah Ali \u2018Imr\u0101n, maka dalam Surah an-Nis\u0101\u2019 kisah itu disinggung lagi.\n4.\tDalam Surah \u0100li \u2018Imr\u0101n telah disebutkan bahwa di kalangan kaum Muslimin banyak yang gugur dalam medan perang sebagai syuhada yang tentunya mereka meninggalkan anak-anak yang sudah yatim dan istri yang sudah janda. Maka pada permulaan Surah an-Nis\u0101\u2019 disebutkan perintah memelihara anak-anak yatim serta pembagian harta pusaka.",
        "munasabah_prev_theme": "Dari permulaan Surah sampai dengan ayat 70, telah banyak menerangkan mengenai hal-hal yang bertalian dengan tauhid, kemasyarakatan, perkawinan, warisan dan sebagainya. Maka mulai dari ayat ini dan beberapa ayat berikutnya, menerangkan hal-hal yang bertalian dengan peperangan, seperti mempersiapkan segala macam pengetahuan dan pendidikan kemiliteran, peralatan, perbekalan mencari berita, informasi dan keterangan tentang keadaan musuh dengan mengembangkan jaringan intelijen dan sebagainya.",
        "theme_group": "SIAP SIAGA MENGHADAPI MUSUH",
        "kosakata": "Kosakata: Fa\u1e0dl \u0641\u064e\u0636\u0652\u0644\u064c (an-Nis\u0101\u2019/4: 73)\nFa\u1e0dl adalah lawan kata naq\u1e63 atau naqi\u1e63ah yang berarti kurang. Bentuk jamaknya adalah fu\u1e0dul. Fa\u1e0dl secara harfiah berarti kelebihan dari sesuatu yang ekonomis. Fa\u1e0dula ful\u0101n \u2018al\u0101 gairihi berarti fulan melebihi selainnya. Menurut ar-R\u0101gib, fa\u1e0dl berarti melebihi batas sedang. Fa\u1e0d\u012blah berarti derajat fa\u1e0dl yang tinggi. Menurut istilah, fa\u1e0dl berarti berbuat kebajikan tanpa didahului \u2018illah atau sebab. Kata fa\u1e0dl dengan makna inilah yang sering disandarkan kepada Allah di dalam Al-Qur\u2019an. Apabila fa\u1e0dl digunakan untuk menilai kelebihan seseorang dibanding orang lain, biasanya menggunakan kata fa\u1e0d\u1e0dala, maka berlaku tiga segi perbandingan. Pertama, keutamaan jenis seperti di dalam firman Allah, \"Dan Kami lebihkan mereka di atas banyak makhluk yang Kami ciptakan dengan kelebihan sempurna.\" (al-Isra\u2019/17:70) Kedua, macam seperti keunggulan manusia dibanding hewan\u2014dengan asumsi bahwa manusia adalah hewan yang berpikir. Ketiga, keutamaan \u017c\u0101t (esensi) seperti keunggulan seseorang dibanding orang lain, sebagaimana di dalam firman Allah, \"Allah melebihkan orang-orang yang berjihad atas orang-orang yang duduk dengan pahala yang besar.\" (an-Nis\u0101\u2019/4:95)",
        "sabab_nuzul": null,
        "conclusion": null
    }
}