{
    "id": 523,
    "surah_id": 4,
    "ayah": 30,
    "page": 83,
    "quarter_hizb": 9,
    "juz": 5,
    "manzil": 1,
    "arabic": "\u0648\u064e\u0645\u064e\u0646\u0652 \u064a\u0651\u064e\u0641\u0652\u0639\u064e\u0644\u0652 \u0630\u0670\u0644\u0650\u0643\u064e \u0639\u064f\u062f\u0652\u0648\u064e\u0627\u0646\u064b\u0627 \u0648\u0651\u064e\u0638\u064f\u0644\u0652\u0645\u064b\u0627 \u0641\u064e\u0633\u064e\u0648\u0652\u0641\u064e \u0646\u064f\u0635\u0652\u0644\u0650\u064a\u0652\u0647\u0650 \u0646\u064e\u0627\u0631\u064b\u0627 \u06d7\u0648\u064e\u0643\u064e\u0627\u0646\u064e \u0630\u0670\u0644\u0650\u0643\u064e \u0639\u064e\u0644\u064e\u0649 \u0627\u0644\u0644\u0651\u0670\u0647\u0650 \u064a\u064e\u0633\u0650\u064a\u0652\u0631\u064b\u0627 ",
    "latin": "Wa may yaf\u2018al \u017c\u0101lika \u2018udw\u0101naw wa \u1e93ulman fa saufa nu\u1e63l\u012bhi n\u0101r\u0101(n), wa k\u0101na \u017c\u0101lika \u2018alall\u0101hi yas\u012br\u0101(n).",
    "translation": "Siapa yang berbuat demikian dengan cara melanggar aturan dan berbuat zalim kelak Kami masukkan dia ke dalam neraka. Yang demikian itu adalah mudah bagi Allah.",
    "no_footnote": null,
    "footnotes": null,
    "surah": {
        "id": 4,
        "arabic": "\u0627\u0644\u0646\u0651\u0633\u0627\u06e4\u0621",
        "latin": "An-Nis\u0101' ",
        "transliteration": "An-Nisa'",
        "translation": "Perempuan",
        "num_ayah": 176,
        "page": 77,
        "location": "Madaniyah"
    },
    "tafsir": {
        "wajiz": "Dan barang siapa berbuat demikian, dalam memperoleh harta, dengan cara melanggar hukum dan dengan berbuat zalim, maka akan Kami masukkan dia ke dalam neraka. Yang demikian itu, yakni menjatuhkan hukuman dengan siksaan neraka, adalah sesuatu hal yang sangat mudah bagi Allah.",
        "tahlili": "Ayat ini memberikan peringatan kepada orang yang melanggar hak orang lain dan menganiayanya, dengan memasukkannya ke dalam api neraka, yang demikian itu sangat mudah bagi Allah, karena tidak ada sesuatu yang dapat membantah, merintangi atau menghalang-halangi-Nya.",
        "intro_surah": "Surah an-Nis\u0101\u2019 yang terdiri dari 176 ayat itu adalah surah Madaniyah yang terpanjang sesudah Surah al-Baqarah. Dinamakan an-Nis\u0101\u2019 karena dalam surah ini banyak dibicarakan hal yang berhubungan dengan perempuan serta merupakan surah yang paling banyak membicarakan hal itu dibanding dengan surah-surah Al-Qur\u2019an yang lain. Surah lain yang banyak juga membicarakan hal perempuan ialah Surah a\u1e6d-\u1e6cal\u0101q. Dalam hubungan ini Surah an-Nis\u0101\u2019 biasa disebut dengan sebutan S\u016brah an-Nis\u0101\u2019 al-Kubr\u0101 (Surah an-Nis\u0101\u2019 yang besar), sedang Surah a\u1e6d-\u1e6cal\u0101q disebut dengan sebutan S\u016brah an-Nis\u0101\u2019 a\u1e63-\u1e62ugr\u0101 (Surah an-Nis\u0101\u2019 yang kecil).\n\nPokok-pokok Isinya\n1.\tKeimanan \nMencakup syirik, kekafiran dan hari kemudian.\n\n2.\tHukum-hukum\nKewajiban para w\u0101\u1e63i dan para wali, hukum poligami, maskawin, memakan harta anak yatim dan orang-orang yang tidak dapat mengurus hartanya, pokok-pokok hukum warisan, perbuatan-perbuatan keji dan hukumannya, perempuan yang haram dikawini, hukum mengawini budak perempuan, larangan memakan harta secara batil, hukum syiq\u0101q dan nusy\u016bz, kesucian lahir batin dalam salat, hukum suaka, hukum membunuh seorang muslim, salat khauf, larangan melontarkan ucapan-ucapan buruk, masalah pusaka kalalah, dan lain-lain.\n\n3.\tKisah-kisah \nKisah-kisah tentang Nabi Musa dan pengikut-pengikutnya.\n\n4.\tLain-lain:\nAsal manusia adalah satu, keharusan menjauhi adat zaman jahiliah dalam menggauli perempuan, cara menggauli istri, hak seseorang sesuai dengan kewajibannya, perlakuan Ahli Kitab terhadap kitab-kitab yang diturunkan kepadanya, dasar-dasar pemerintahan, cara mengadili perkara, keharusan siap-siaga terhadap musuh, sikap-sikap orang munafik dalam manghadapi peperangan, berperang di jalan Allah adalah kewajiban tiap-tiap mukalaf, adab dalam peperangan, cara menghadapi orang-orang munafik, derajat-derajat orang yang berjihad.\n ",
        "outro_surah": null,
        "munasabah_prev_surah": "Hubungan Surah an-Nis\u0101\u2019 dengan Surah \u0100li \u2018Imr\u0101n, ialah:\n1. \tSurah an-Nis\u0101\u2019 dimulai dengan perintah bertakwa kepada Allah sedang Surah Ali Imr\u0101n juga disudahi dengan perintah bertakwa kepada Allah.\n2.\tDalam Surah \u0100li \u2018Imr\u0101n disebutkan kisah perang Badar dan Uhud dengan sempurna, di dalam Surah an-Nis\u0101\u2019 sebagian kisah itu diulangi lagi.\n3.\tKisah perang \u1e24amra\u2019 al-Asad yang terjadi sesudah Perang Uhud terdapat dalam surah Ali \u2018Imr\u0101n, maka dalam Surah an-Nis\u0101\u2019 kisah itu disinggung lagi.\n4.\tDalam Surah \u0100li \u2018Imr\u0101n telah disebutkan bahwa di kalangan kaum Muslimin banyak yang gugur dalam medan perang sebagai syuhada yang tentunya mereka meninggalkan anak-anak yang sudah yatim dan istri yang sudah janda. Maka pada permulaan Surah an-Nis\u0101\u2019 disebutkan perintah memelihara anak-anak yatim serta pembagian harta pusaka.",
        "munasabah_prev_theme": "Ayat-ayat yang lalu menerangkan syariat orang-orang dahulu dan penerimaan tobat bagi orang yang memohon ampunan kepada Allah. Ayat ini menerangkan bagaimana seharusnya setiap orang yang beriman bersikap terhadap hak dan milik orang lain.",
        "theme_group": "ISLAM MELINDUNGI HAK MILIK DAN HAK PRIBADI",
        "kosakata": "Kosakata: al-B\u0101\u1e6dil \u0627\u064e\u0644\u0652\u0628\u064e\u0627\u0637\u0650\u0644\u064f (an-Nis\u0101\u2019/4: 29)\nAl-B\u0101\u1e6dil artinya segala sesuatu yang tidak punya landasannya ketika diuji sehingga ambruk. Dalam Al-Qur\u2019an kata itu berarti sesuatu yang tidak mengandung kebenaran sedikit pun. Lawannya adalah al-\u1e25aqq. Allah berfirman, \u201cDemikianlah (kebesaran Allah) karena Allah, Dialah (Tuhan) Yang Hak. Dan apa saja yang mereka seru selain Dia, itulah yang batil\u2026\u201d (al-\u1e24ajj/22:62). Juga firman-Nya, \u201cDan janganlah kamu campuradukkan kebenaran dengan kebatilan.\u201d (al-Baqarah/2:42). Dalam ayat ini Allah melarang orang-orang yang beriman menguasai harta orang lain dengan cara yang tidak dibenarkan.",
        "sabab_nuzul": null,
        "conclusion": "1.\tDilarang memakan (mengambil) harta orang lain dengan jalan yang batil (tidak benar), karena perbuatan itu melanggar hak orang lain.\n2.\tDilarang membunuh orang lain. Siapa yang membunuh orang lain, maka ia akan dibunuh sesuai dengan hukum kisas.\n3.\tBunuh diri dilarang, bahkan perbuatan itu lebih jahat, karena orang yang berbuat demikian, adalah orang yang putus asa dan lemah imannya, dan di akhirat akan disiksa dalam neraka."
    }
}