{
    "id": 631,
    "surah_id": 4,
    "ayah": 138,
    "page": 100,
    "quarter_hizb": 10.75,
    "juz": 5,
    "manzil": 1,
    "arabic": "\u0628\u064e\u0634\u0651\u0650\u0631\u0650 \u0627\u0644\u0652\u0645\u064f\u0646\u0670\u0641\u0650\u0642\u0650\u064a\u0652\u0646\u064e \u0628\u0650\u0627\u064e\u0646\u0651\u064e \u0644\u064e\u0647\u064f\u0645\u0652 \u0639\u064e\u0630\u064e\u0627\u0628\u064b\u0627 \u0627\u064e\u0644\u0650\u064a\u0652\u0645\u064b\u0627\u06d9",
    "latin": "Basysyiril-mun\u0101fiq\u012bna bi'anna lahum \u2018a\u017c\u0101ban al\u012bm\u0101(n).",
    "translation": "Berilah kabar \u2018gembira\u2019 kepada orang-orang munafik bahwa sesungguhnya bagi mereka azab yang sangat pedih.",
    "no_footnote": null,
    "footnotes": null,
    "surah": {
        "id": 4,
        "arabic": "\u0627\u0644\u0646\u0651\u0633\u0627\u06e4\u0621",
        "latin": "An-Nis\u0101' ",
        "transliteration": "An-Nisa'",
        "translation": "Perempuan",
        "num_ayah": 176,
        "page": 77,
        "location": "Madaniyah"
    },
    "tafsir": {
        "wajiz": "Sampaikanlah berita gembira sebagai ejekan dan kecaman kepada orang-orang munafik, wahai Nabi Muhammad, bahwa bagi mereka di akhirat kelak siksaan yang pedih, dan bahkan mereka akan berada pada tingkat yang paling rendah, buruk, dan berat dari neraka Jahanam sebagai balasan dari perbuatan mereka.",
        "tahlili": "Orang-orang munafik sangat tercela karena sikap mereka yang selalu berubah-ubah, dan tidak sesuai ucapannya dengan perbuatannya. Pada saat berkumpul dengan orang-orang mukmin, mereka menampakkan keimanannya dan menyembunyikan kekufurannya. Sebaliknya apabila bertemu dengan orang-orang kafir, mereka menampakkan kekafirannya dan menyembunyikan keimanannya. Mereka benar-benar akan mendapat siksaan yang pedih.",
        "intro_surah": "Surah an-Nis\u0101\u2019 yang terdiri dari 176 ayat itu adalah surah Madaniyah yang terpanjang sesudah Surah al-Baqarah. Dinamakan an-Nis\u0101\u2019 karena dalam surah ini banyak dibicarakan hal yang berhubungan dengan perempuan serta merupakan surah yang paling banyak membicarakan hal itu dibanding dengan surah-surah Al-Qur\u2019an yang lain. Surah lain yang banyak juga membicarakan hal perempuan ialah Surah a\u1e6d-\u1e6cal\u0101q. Dalam hubungan ini Surah an-Nis\u0101\u2019 biasa disebut dengan sebutan S\u016brah an-Nis\u0101\u2019 al-Kubr\u0101 (Surah an-Nis\u0101\u2019 yang besar), sedang Surah a\u1e6d-\u1e6cal\u0101q disebut dengan sebutan S\u016brah an-Nis\u0101\u2019 a\u1e63-\u1e62ugr\u0101 (Surah an-Nis\u0101\u2019 yang kecil).\n\nPokok-pokok Isinya\n1.\tKeimanan \nMencakup syirik, kekafiran dan hari kemudian.\n\n2.\tHukum-hukum\nKewajiban para w\u0101\u1e63i dan para wali, hukum poligami, maskawin, memakan harta anak yatim dan orang-orang yang tidak dapat mengurus hartanya, pokok-pokok hukum warisan, perbuatan-perbuatan keji dan hukumannya, perempuan yang haram dikawini, hukum mengawini budak perempuan, larangan memakan harta secara batil, hukum syiq\u0101q dan nusy\u016bz, kesucian lahir batin dalam salat, hukum suaka, hukum membunuh seorang muslim, salat khauf, larangan melontarkan ucapan-ucapan buruk, masalah pusaka kalalah, dan lain-lain.\n\n3.\tKisah-kisah \nKisah-kisah tentang Nabi Musa dan pengikut-pengikutnya.\n\n4.\tLain-lain:\nAsal manusia adalah satu, keharusan menjauhi adat zaman jahiliah dalam menggauli perempuan, cara menggauli istri, hak seseorang sesuai dengan kewajibannya, perlakuan Ahli Kitab terhadap kitab-kitab yang diturunkan kepadanya, dasar-dasar pemerintahan, cara mengadili perkara, keharusan siap-siaga terhadap musuh, sikap-sikap orang munafik dalam manghadapi peperangan, berperang di jalan Allah adalah kewajiban tiap-tiap mukalaf, adab dalam peperangan, cara menghadapi orang-orang munafik, derajat-derajat orang yang berjihad.\n ",
        "outro_surah": null,
        "munasabah_prev_surah": "Hubungan Surah an-Nis\u0101\u2019 dengan Surah \u0100li \u2018Imr\u0101n, ialah:\n1. \tSurah an-Nis\u0101\u2019 dimulai dengan perintah bertakwa kepada Allah sedang Surah Ali Imr\u0101n juga disudahi dengan perintah bertakwa kepada Allah.\n2.\tDalam Surah \u0100li \u2018Imr\u0101n disebutkan kisah perang Badar dan Uhud dengan sempurna, di dalam Surah an-Nis\u0101\u2019 sebagian kisah itu diulangi lagi.\n3.\tKisah perang \u1e24amra\u2019 al-Asad yang terjadi sesudah Perang Uhud terdapat dalam surah Ali \u2018Imr\u0101n, maka dalam Surah an-Nis\u0101\u2019 kisah itu disinggung lagi.\n4.\tDalam Surah \u0100li \u2018Imr\u0101n telah disebutkan bahwa di kalangan kaum Muslimin banyak yang gugur dalam medan perang sebagai syuhada yang tentunya mereka meninggalkan anak-anak yang sudah yatim dan istri yang sudah janda. Maka pada permulaan Surah an-Nis\u0101\u2019 disebutkan perintah memelihara anak-anak yatim serta pembagian harta pusaka.",
        "munasabah_prev_theme": "Ayat-ayat yang lalu memerintahkan kepada orang-orang yang beriman agar mereka menegakkan keadilan, memberikan kesaksian yang benar serta melarang memperturutkan hawa nafsu, juga menyuruh mereka agar tetap beriman kepada Allah, kepada para rasul-Nya, kepada Kitab-kitab-Nya secara keseluruhan dan tidak boleh mempercayai sebagian rasul atau sebagian kitab-Nya. Dalam ayat-ayat ini dijelaskan sifat-sifat orang yang sesat, yaitu orang yang tidak sesuai isi hatinya dengan tindak tanduknya. Hati mereka telah kejangkitan penyakit kufur. Oleh sebab itu mereka tidak lagi dapat memahami dan meresapi hakikat iman dan mencicipi kenikmatannya. Maka tidaklah mengherankan apabila mereka terombang-ambing di antara iman dengan kufur.",
        "theme_group": "KEJELEKAN ORANG MUNAFIK",
        "kosakata": "Kosakata: Mu\u017cab\u017cab\u012bn \u0645\u064f\u0630\u064e\u0628\u0652\u0630\u064e\u0628\u0650\u064a\u0652\u0646\u064e (an-Nis\u0101\u2019/4: 143)\nMu\u017cab\u017cab yaitu terombang-ambing di antara dua persoalan, serta tidak punya ketegasan dan ketetapan hati. Sama halnya dengan sesuatu yang tergantung di atas pohon, kemudian selalu bergerak mengikuti hembusan angin. Akar katanya adalah a\u017c-\u017cabb yang berarti menghalau, menyingkirkan, mengusir, menjauhkan. Mu\u017cab\u017cab adalah sesuatu yang dihalau ke sana - ke mari dari dua arah, dari waktu ke waktu yang lain. Lalu muncul arti terombang-ambing. Dalam ayat 143 di atas dinyatakan bahwa karakter dan tamperamen orang-orang munafik laksana suatu benda yang tergantung dalam sebuah pohon yang senantiasa bergerak dan terombang ambing oleh tiupan angin, tidak punya ketetapan hati, tetapi senantiasa mengikuti arus dan situasi, yang dalam saat tertentu mereka berpihak kepada kaum Muslimin, dan di saat lain mereka berpihak kepada orang kafir. Sabda Rasulullah, bahwa perumpamaan orang munafik bagaikan seekor kambing yang berada di antara dua gerombolan kambing, dia merasa kebingungan gerombolan mana yang harus diikutinya (Riwayat Muslim dari Ibnu \u2018Umar).",
        "sabab_nuzul": null,
        "conclusion": null
    }
}