{
    "id": 641,
    "surah_id": 4,
    "ayah": 148,
    "page": 102,
    "quarter_hizb": 11,
    "juz": 6,
    "manzil": 1,
    "arabic": "\u06de \u0644\u064e\u0627 \u064a\u064f\u062d\u0650\u0628\u0651\u064f \u0627\u0644\u0644\u0651\u0670\u0647\u064f \u0627\u0644\u0652\u062c\u064e\u0647\u0652\u0631\u064e \u0628\u0650\u0627\u0644\u0633\u0651\u064f\u0648\u0652\u06e4\u0621\u0650 \u0645\u0650\u0646\u064e \u0627\u0644\u0652\u0642\u064e\u0648\u0652\u0644\u0650 \u0627\u0650\u0644\u0651\u064e\u0627 \u0645\u064e\u0646\u0652 \u0638\u064f\u0644\u0650\u0645\u064e \u06d7 \u0648\u064e\u0643\u064e\u0627\u0646\u064e \u0627\u0644\u0644\u0651\u0670\u0647\u064f \u0633\u064e\u0645\u0650\u064a\u0652\u0639\u064b\u0627 \u0639\u064e\u0644\u0650\u064a\u0652\u0645\u064b\u0627 ",
    "latin": "L\u0101 yu\u1e25ibbull\u0101hul-jahra bis-s\u016b'i minal-qauli ill\u0101 man \u1e93ulim(a), wa k\u0101nall\u0101hu sam\u012b\u2018an \u2018al\u012bm\u0101(n).",
    "translation": "Allah tidak menyukai perkataan buruk (yang diucapkan) secara terus terang, kecuali oleh orang yang dizalimi.178) Allah Maha Mendengar lagi Maha Mengetahui.",
    "no_footnote": "178",
    "footnotes": "178) Orang yang dizalimi boleh mengemukakan kepada hakim atau penguasa tentang keburukan-keburukan orang yang menzaliminya.",
    "surah": {
        "id": 4,
        "arabic": "\u0627\u0644\u0646\u0651\u0633\u0627\u06e4\u0621",
        "latin": "An-Nis\u0101' ",
        "transliteration": "An-Nisa'",
        "translation": "Perempuan",
        "num_ayah": 176,
        "page": 77,
        "location": "Madaniyah"
    },
    "tafsir": {
        "wajiz": "Pada ayat sebelumnya Allah menerangkan orang-orang munafik dan keburukan sifat mereka. Uraian itu dapat menimbulkan kebencian dan mengundang caci maki dari kalangan kaum muslim. Maka ayat ini memberikan tuntunan kepada kaum muslim terkait dengan kata-kata yang buruk. Allah tidak menyukai perkataan buruk yang diucapkan secara terus terang, kecuali diucapkan secara terpaksa oleh orang yang dizalimi; dalam keadaan itu dibenarkan baginya mengucapkannya dalam batasbatas tertentu. Dan Allah Maha Mendengar, ucapan yang baik maupun yang buruk, yang diucapkan secara rahasia maupun terang-terangan, lagi Maha Mengetahui, segala sesuatu yang diperbuat hamba-Nya.",
        "tahlili": "Allah tidak menyukai hamba-Nya yang melontarkan kata-kata buruk kepada siapa pun. Kata buruk dapat menimbulkan permusuhan dan kebencian di antara anggota masyarakat dan jika berlarut-larut dapat menjurus kepada pengingkaran hak dan pertumpahan darah, dan dapat pula mempengaruhi orang yang mendengarnya untuk meniru perbuatan itu, terutama bila perbuatan itu dilakukan oleh pemimpin. Allah tidak menyukai sesuatu, berarti Allah tidak meridainya dan tidak memberinya pahala.\nDalam hal ini dikecualikan orang yang dianiaya. Jika seseorang dianiaya, dia diperbolehkan mengadukan orang yang menganiayanya kepada hakim atau kepada orang lain yang dapat memberi pertolongan dalam menghilangkan kezaliman. Jika seseorang dianiaya lalu ia menyampaikan pengaduan, tentu saja pengaduan itu dengan menyebutkan keburukan-keburukan orang yang menganiayanya. Maka dalam hal ini ada dua kemungkinan. Pertama, orang yang teraniaya melontarkan ucapan-ucapan buruk terhadap seseorang yang menganiayanya. Hal ini dapat menimbulkan permusuhan dan kebencian antara kedua belah pihak. Kedua, bila orang yang dianiaya itu mendiamkan saja, maka kezaliman akan tambah memuncak dan keadilan akan lenyap. Karena itu Allah mengizinkan dalam ayat ini bagi orang yang teraniaya melontarkan ucapan dan tuduhan tentang keburukan tindakan-tindakan yang dilakukan oleh orang yang menganiaya walaupun akan mengakibatkan kebencian, karena membiarkan penganiayaan adalah lebih buruk akibatnya, sesuai dengan kaidah:\n\u0627\u0650\u0631\u0652\u062a\u0650\u0643\u064e\u0627\u0628\u064f \u0623\u064e\u062e\u064e\u0641\u0651\u0650 \u0627\u0644\u0636\u0651\u064e\u0631\u064e\u0631\u064e\u064a\u0652\u0646\u0650\n\u201cMelakukan yang lebih ringan mudaratnya di antara dua kemudaratan.\u201d\n\nOrang yang dianiaya wajib menyampaikan pengaduannya kepada hakim atau lainnya. Seseorang yang zalim jika tidak diambil tindakan yang tegas terhadapnya, kezalimannya akan bertambah luas. Tetapi jika tidak ada maksud untuk menghilangkan kezaliman, seseorang dilarang keras melontarkan ucapan-ucapan yang buruk. Dalam ayat ini diperingatkan bahwa Allah Maha Mendengar dan Maha Mengetahui setiap ucapan yang dikeluarkan oleh orang yang zalim dan orang yang dianiaya, terutama jika mereka melampaui batas sampai melontarkan pengaduan yang dusta atau bersifat menghasut dan mengadu domba.",
        "intro_surah": "Surah an-Nis\u0101\u2019 yang terdiri dari 176 ayat itu adalah surah Madaniyah yang terpanjang sesudah Surah al-Baqarah. Dinamakan an-Nis\u0101\u2019 karena dalam surah ini banyak dibicarakan hal yang berhubungan dengan perempuan serta merupakan surah yang paling banyak membicarakan hal itu dibanding dengan surah-surah Al-Qur\u2019an yang lain. Surah lain yang banyak juga membicarakan hal perempuan ialah Surah a\u1e6d-\u1e6cal\u0101q. Dalam hubungan ini Surah an-Nis\u0101\u2019 biasa disebut dengan sebutan S\u016brah an-Nis\u0101\u2019 al-Kubr\u0101 (Surah an-Nis\u0101\u2019 yang besar), sedang Surah a\u1e6d-\u1e6cal\u0101q disebut dengan sebutan S\u016brah an-Nis\u0101\u2019 a\u1e63-\u1e62ugr\u0101 (Surah an-Nis\u0101\u2019 yang kecil).\n\nPokok-pokok Isinya\n1.\tKeimanan \nMencakup syirik, kekafiran dan hari kemudian.\n\n2.\tHukum-hukum\nKewajiban para w\u0101\u1e63i dan para wali, hukum poligami, maskawin, memakan harta anak yatim dan orang-orang yang tidak dapat mengurus hartanya, pokok-pokok hukum warisan, perbuatan-perbuatan keji dan hukumannya, perempuan yang haram dikawini, hukum mengawini budak perempuan, larangan memakan harta secara batil, hukum syiq\u0101q dan nusy\u016bz, kesucian lahir batin dalam salat, hukum suaka, hukum membunuh seorang muslim, salat khauf, larangan melontarkan ucapan-ucapan buruk, masalah pusaka kalalah, dan lain-lain.\n\n3.\tKisah-kisah \nKisah-kisah tentang Nabi Musa dan pengikut-pengikutnya.\n\n4.\tLain-lain:\nAsal manusia adalah satu, keharusan menjauhi adat zaman jahiliah dalam menggauli perempuan, cara menggauli istri, hak seseorang sesuai dengan kewajibannya, perlakuan Ahli Kitab terhadap kitab-kitab yang diturunkan kepadanya, dasar-dasar pemerintahan, cara mengadili perkara, keharusan siap-siaga terhadap musuh, sikap-sikap orang munafik dalam manghadapi peperangan, berperang di jalan Allah adalah kewajiban tiap-tiap mukalaf, adab dalam peperangan, cara menghadapi orang-orang munafik, derajat-derajat orang yang berjihad.\n ",
        "outro_surah": null,
        "munasabah_prev_surah": "Hubungan Surah an-Nis\u0101\u2019 dengan Surah \u0100li \u2018Imr\u0101n, ialah:\n1. \tSurah an-Nis\u0101\u2019 dimulai dengan perintah bertakwa kepada Allah sedang Surah Ali Imr\u0101n juga disudahi dengan perintah bertakwa kepada Allah.\n2.\tDalam Surah \u0100li \u2018Imr\u0101n disebutkan kisah perang Badar dan Uhud dengan sempurna, di dalam Surah an-Nis\u0101\u2019 sebagian kisah itu diulangi lagi.\n3.\tKisah perang \u1e24amra\u2019 al-Asad yang terjadi sesudah Perang Uhud terdapat dalam surah Ali \u2018Imr\u0101n, maka dalam Surah an-Nis\u0101\u2019 kisah itu disinggung lagi.\n4.\tDalam Surah \u0100li \u2018Imr\u0101n telah disebutkan bahwa di kalangan kaum Muslimin banyak yang gugur dalam medan perang sebagai syuhada yang tentunya mereka meninggalkan anak-anak yang sudah yatim dan istri yang sudah janda. Maka pada permulaan Surah an-Nis\u0101\u2019 disebutkan perintah memelihara anak-anak yatim serta pembagian harta pusaka.",
        "munasabah_prev_theme": "Pada ayat sebelumnya diterangkan sebagian besar dosa orang munafik dan kejahatannya dan Allah memperingatkan kaum mukminin supaya jangan meniru akhlak dan perbuatan mereka, maka ayat ini menerangkan hukum tentang melontarkan ucapan buruk kepada seseorang dan hukum menampakkan suatu kebaikan atau menyembunyikannya.",
        "theme_group": "LARANGAN MELONTARKAN KATA-KATA BURUK\nKEPADA SESEORANG",
        "kosakata": "Kosakata: al-Jahr \u0627\u064e\u0644\u0652\u062c\u064e\u0647\u0652\u0631 (an-Nis\u0101/4:148)\nAl-jahr artinya kemunculan sesuatu yang bisa dilihat dengan mata atau didengar dengan telinga, lihat al-Baqarah/2:55 dan \u1e6c\u0101h\u0101/20:7. Dalam ayat ini al-jahr artinya \u201cterang-terangan\u201d, lawannya tersembunyi, seperti dalam Surah an-Na\u1e25l/16:75 disebutkan Fa huwa yunfiqu minhu sirran wa jahran artinya: \u201cDia menginfakkan sebagian dari rezeki itu secara sembunyi-sembunyi dan secara terang-terangan\u201d. Allah tidak suka pada ucapan buruk yang diungkapkan dengan terus terang, karena akan menyebabkan kebencian dan sangat mudah mempengaruhi orang lain yang mendengarnya sehingga mereka meniru dan menyebarkan kepada orang lain lagi. Perbuatan dan hal yang buruk mestinya dibatasi dan tidak dibicarakan di depan umum secara terang-terangan. ",
        "sabab_nuzul": null,
        "conclusion": null
    }
}