{
    "id": 654,
    "surah_id": 4,
    "ayah": 161,
    "page": 103,
    "quarter_hizb": 11,
    "juz": 6,
    "manzil": 1,
    "arabic": "\u0648\u0651\u064e\u0627\u064e\u062e\u0652\u0630\u0650\u0647\u0650\u0645\u064f \u0627\u0644\u0631\u0651\u0650\u0628\u0670\u0648\u0627 \u0648\u064e\u0642\u064e\u062f\u0652 \u0646\u064f\u0647\u064f\u0648\u0652\u0627 \u0639\u064e\u0646\u0652\u0647\u064f \u0648\u064e\u0627\u064e\u0643\u0652\u0644\u0650\u0647\u0650\u0645\u0652 \u0627\u064e\u0645\u0652\u0648\u064e\u0627\u0644\u064e \u0627\u0644\u0646\u0651\u064e\u0627\u0633\u0650 \u0628\u0650\u0627\u0644\u0652\u0628\u064e\u0627\u0637\u0650\u0644\u0650 \u06d7\u0648\u064e\u0627\u064e\u0639\u0652\u062a\u064e\u062f\u0652\u0646\u064e\u0627 \u0644\u0650\u0644\u0652\u0643\u0670\u0641\u0650\u0631\u0650\u064a\u0652\u0646\u064e \u0645\u0650\u0646\u0652\u0647\u064f\u0645\u0652 \u0639\u064e\u0630\u064e\u0627\u0628\u064b\u0627 \u0627\u064e\u0644\u0650\u064a\u0652\u0645\u064b\u0627",
    "latin": "Wa akh\u017cihimur-rib\u0101 wa qad nuh\u016b \u2018anhu wa aklihim amw\u0101lan-n\u0101si bil-b\u0101\u1e6dil(i), wa a\u2018tadn\u0101 lil-k\u0101fir\u012bna minhum \u2018a\u017c\u0101ban al\u012bm\u0101(n).",
    "translation": "melakukan riba, padahal sungguh mereka telah dilarang darinya; dan memakan harta orang dengan cara tidak sah (batil). Kami sediakan untuk orang-orang kafir di antara mereka azab yang sangat pedih.",
    "no_footnote": null,
    "footnotes": null,
    "surah": {
        "id": 4,
        "arabic": "\u0627\u0644\u0646\u0651\u0633\u0627\u06e4\u0621",
        "latin": "An-Nis\u0101' ",
        "transliteration": "An-Nisa'",
        "translation": "Perempuan",
        "num_ayah": 176,
        "page": 77,
        "location": "Madaniyah"
    },
    "tafsir": {
        "wajiz": " Dan, selain itu, juga karena mereka menjalankan riba yang merupakan perbuatan yang tidak manusiawi, padahal sesungguhnya mereka telah dilarang darinya, sebagaimana diterangkan di dalam kitab Taurat, dan karena mereka memakan harta orang dengan cara tidak sah, cara yang batil, seperti penipuan, sogok menyogok, dan lain-lainnya. Dan Kami sediakan untuk orang-orang kafir di antara mereka azab yang pedih kelak di akhirat.",
        "tahlili": "Diharamkannya sebagian makanan yang baik kepada orang-orang Yahudi juga disebabkan oleh tindakan mereka memakan uang riba yang nyata-nyata telah dilarang Allah dan disebabkan pula oleh perbuatan mereka yang batil seperti memperoleh harta melalui sogokan, penipuan, perampasan dan sebagainya. Terhadap perbuatan-perbuatan yang jahat itu Allah menyediakan siksa yang pedih di akhirat.",
        "intro_surah": "Surah an-Nis\u0101\u2019 yang terdiri dari 176 ayat itu adalah surah Madaniyah yang terpanjang sesudah Surah al-Baqarah. Dinamakan an-Nis\u0101\u2019 karena dalam surah ini banyak dibicarakan hal yang berhubungan dengan perempuan serta merupakan surah yang paling banyak membicarakan hal itu dibanding dengan surah-surah Al-Qur\u2019an yang lain. Surah lain yang banyak juga membicarakan hal perempuan ialah Surah a\u1e6d-\u1e6cal\u0101q. Dalam hubungan ini Surah an-Nis\u0101\u2019 biasa disebut dengan sebutan S\u016brah an-Nis\u0101\u2019 al-Kubr\u0101 (Surah an-Nis\u0101\u2019 yang besar), sedang Surah a\u1e6d-\u1e6cal\u0101q disebut dengan sebutan S\u016brah an-Nis\u0101\u2019 a\u1e63-\u1e62ugr\u0101 (Surah an-Nis\u0101\u2019 yang kecil).\n\nPokok-pokok Isinya\n1.\tKeimanan \nMencakup syirik, kekafiran dan hari kemudian.\n\n2.\tHukum-hukum\nKewajiban para w\u0101\u1e63i dan para wali, hukum poligami, maskawin, memakan harta anak yatim dan orang-orang yang tidak dapat mengurus hartanya, pokok-pokok hukum warisan, perbuatan-perbuatan keji dan hukumannya, perempuan yang haram dikawini, hukum mengawini budak perempuan, larangan memakan harta secara batil, hukum syiq\u0101q dan nusy\u016bz, kesucian lahir batin dalam salat, hukum suaka, hukum membunuh seorang muslim, salat khauf, larangan melontarkan ucapan-ucapan buruk, masalah pusaka kalalah, dan lain-lain.\n\n3.\tKisah-kisah \nKisah-kisah tentang Nabi Musa dan pengikut-pengikutnya.\n\n4.\tLain-lain:\nAsal manusia adalah satu, keharusan menjauhi adat zaman jahiliah dalam menggauli perempuan, cara menggauli istri, hak seseorang sesuai dengan kewajibannya, perlakuan Ahli Kitab terhadap kitab-kitab yang diturunkan kepadanya, dasar-dasar pemerintahan, cara mengadili perkara, keharusan siap-siaga terhadap musuh, sikap-sikap orang munafik dalam manghadapi peperangan, berperang di jalan Allah adalah kewajiban tiap-tiap mukalaf, adab dalam peperangan, cara menghadapi orang-orang munafik, derajat-derajat orang yang berjihad.\n ",
        "outro_surah": null,
        "munasabah_prev_surah": "Hubungan Surah an-Nis\u0101\u2019 dengan Surah \u0100li \u2018Imr\u0101n, ialah:\n1. \tSurah an-Nis\u0101\u2019 dimulai dengan perintah bertakwa kepada Allah sedang Surah Ali Imr\u0101n juga disudahi dengan perintah bertakwa kepada Allah.\n2.\tDalam Surah \u0100li \u2018Imr\u0101n disebutkan kisah perang Badar dan Uhud dengan sempurna, di dalam Surah an-Nis\u0101\u2019 sebagian kisah itu diulangi lagi.\n3.\tKisah perang \u1e24amra\u2019 al-Asad yang terjadi sesudah Perang Uhud terdapat dalam surah Ali \u2018Imr\u0101n, maka dalam Surah an-Nis\u0101\u2019 kisah itu disinggung lagi.\n4.\tDalam Surah \u0100li \u2018Imr\u0101n telah disebutkan bahwa di kalangan kaum Muslimin banyak yang gugur dalam medan perang sebagai syuhada yang tentunya mereka meninggalkan anak-anak yang sudah yatim dan istri yang sudah janda. Maka pada permulaan Surah an-Nis\u0101\u2019 disebutkan perintah memelihara anak-anak yatim serta pembagian harta pusaka.",
        "munasabah_prev_theme": "Pada ayat-ayat sebelum ini diterangkan keburukan orang-orang Yahudi dan perbuatan-perbuatan mereka yang tercela, maka pada ayat ini diterangkan akibat-akibatnya, yaitu di dunia diharamkan bagi mereka makanan yang baik yang dahulunya dihalalkan dan di akhirat disediakan bagi mereka siksaan yang amat pedih.",
        "theme_group": "KEBURUKAN ORANG-ORANG YAHUDI \nDAN BALASANNYA",
        "kosakata": "Kosakata: ar-R\u0101sikh\u016bn \u0627\u064e\u0644\u0631\u0651\u064e\u0627\u0633\u0650\u062e\u064f\u0648\u0652\u0646\u064e (an-Nis\u0101/4:162)\nKata raskh mempunyai arti \u201ctetap dan kukuh pada tempatnya\u201d. Jika dikatakan rasakha al-gadir artinya \u201cair dalam kolam meresap\u201d, jika dikaitkan dengan ilmu maka maksudnya ilmu itu menancap kuat-kuat di dada. Dari pengertian tersebut kata ar-r\u0101sikh\u016bn artinya \u201corang-orang yang mendalam ilmunya\u201d, maksudnya orang-orang yang mampu menguasai ilmu secara benar sejalan dengan petunjuk Allah. Di samping berbagai keburukan yang dilakukan orang-orang Yahudi ada juga orang-orang Yahudi yang mendalam ilmunya seperti Abdull\u0101h bin Sal\u0101m dan kawan-kawannya yang masuk Islam bersama dengan orang-orang mukmin yang beriman pada Al-Qur\u2019an yang diturunkan kepada Nabi Muhammad saw dan kitab-kitab yang diturunkan kepada rasul-rasul sebelumnya. Mereka rajin melaksanakan salat, menunaikan zakat dan menjaga iman mereka kepada Allah dan hari akhir. Mereka pasti akan memperoleh pahala yang besar. Jadi menguasai ilmu secara benar dan mendalam, sesuai dengan petunjuk Allah adalah bagian yang tidak terpisahkan dari pengamalan ajaran agama. Dalam Surah \u0100li \u2018Imr\u0101n/3:7 Allah juga menunjukkan penghargaan yang tinggi kepada orang-orang yang mendalam ilmunya, mereka ini sebagai kelompok penting di masyarakat yang berfungsi sebagai motivator dan penggerak pembangunan umat.",
        "sabab_nuzul": null,
        "conclusion": null
    }
}