{
    "id": 609,
    "surah_id": 4,
    "ayah": 116,
    "page": 97,
    "quarter_hizb": 10.5,
    "juz": 5,
    "manzil": 1,
    "arabic": "\u0627\u0650\u0646\u0651\u064e \u0627\u0644\u0644\u0651\u0670\u0647\u064e \u0644\u064e\u0627 \u064a\u064e\u063a\u0652\u0641\u0650\u0631\u064f \u0627\u064e\u0646\u0652 \u064a\u0651\u064f\u0634\u0652\u0631\u064e\u0643\u064e \u0628\u0650\u0647\u0656 \u0648\u064e\u064a\u064e\u063a\u0652\u0641\u0650\u0631\u064f \u0645\u064e\u0627 \u062f\u064f\u0648\u0652\u0646\u064e \u0630\u0670\u0644\u0650\u0643\u064e \u0644\u0650\u0645\u064e\u0646\u0652 \u064a\u0651\u064e\u0634\u064e\u0627\u06e4\u0621\u064f \u06d7 \u0648\u064e\u0645\u064e\u0646\u0652 \u064a\u0651\u064f\u0634\u0652\u0631\u0650\u0643\u0652 \u0628\u0650\u0627\u0644\u0644\u0651\u0670\u0647\u0650 \u0641\u064e\u0642\u064e\u062f\u0652 \u0636\u064e\u0644\u0651\u064e \u0636\u064e\u0644\u0670\u0644\u064b\u0627 \u06e2 \u0628\u064e\u0639\u0650\u064a\u0652\u062f\u064b\u0627 ",
    "latin": "Innall\u0101ha l\u0101 yagfiru ay yusyraka bih\u012b wa yagfiru m\u0101 d\u016bna \u017c\u0101lika limay yasy\u0101'(u), wa may yusyrik bill\u0101hi faqad \u1e0dalla \u1e0dal\u0101lam ba\u2018\u012bd\u0101(n).",
    "translation": "Sesungguhnya Allah tidak akan mengampuni (dosa) karena mempersekutukan-Nya (syirik), tetapi Dia mengampuni apa (dosa) yang selain (syirik) itu bagi siapa yang Dia kehendaki. Siapa pun yang mempersekutukan Allah sungguh telah tersesat jauh.",
    "no_footnote": null,
    "footnotes": null,
    "surah": {
        "id": 4,
        "arabic": "\u0627\u0644\u0646\u0651\u0633\u0627\u06e4\u0621",
        "latin": "An-Nis\u0101' ",
        "transliteration": "An-Nisa'",
        "translation": "Perempuan",
        "num_ayah": 176,
        "page": 77,
        "location": "Madaniyah"
    },
    "tafsir": {
        "wajiz": "Syirik adalah perbuatan dosa yang paling besar. Karena itu, sesungguhnya Allah Yang Maha Esa tidak akan mengampuni dosa syirik yakni mempersekutukan-Nya dengan sesuatu apa pun tanpa bertobat sebelum ia mati, dan Dia mengampuni dosa yang dilakukan selain syirik itu, baik dosa besar maupun kecil, baik yang bersangkutan memohon ampun atau tidak, bagi siapa yang Dia kehendaki berdasarkan kebijakanNya. Dan barangsiapa mempersekutukan sesuatu dengan Allah, maka sungguh, dia telah tersesat jauh sekali sehingga sulit baginya untuk menemukan jalan kembali kepada kebenaran (Lihat: Surah an-Nisa/4: 48, 116; dan Surah Luqman/31: 13).",
        "tahlili": "Allah tidak akan mengampuni dosa orang yang mengakui adanya tuhan lain selain Allah atau menyembah selain Allah, tetapi Dia mengampuni dosa lainnya. Dari ayat ini dipahami bahwa ada dua macam dosa, yaitu:\n1.\tDosa yang tidak diampuni Allah, dosa syirik.\n2.\tDosa yang dapat diampuni Allah, dosa selain dosa syirik.\nJika seseorang mensyarikatkan Allah, berarti di dalam hatinya tidak ada pengakuan tentang keesaan Allah. Karena itu hubungannya dengan Allah Yang Mahakuasa, Yang Maha Penolong, Maha Pengasih lagi Maha Penyayang telah terputus: Ini berarti tidak ada lagi baginya penolong, pelindung, pemelihara, seakan-akan dirinya telah lepas dari Tuhan Yang Maha Esa. Ia telah sesat dan jauh menyimpang dari jalan yang lurus yang diridai Allah, maka mustahil baginya mendekatkan diri kepada Allah.\nSeandainya di dalam hati dan jiwa seseorang telah tumbuh syirik berarti hati dan jiwanya telah dihinggapi penyakit yang paling parah; tidak ada obat yang dapat menyembuhkannya. Segala macam bentuk kebenaran dan kebaikan yang ada pada orang itu tidak akan sanggup mengimbangi, apalagi menghapuskan kejahatan dan kerusakan yang ditimbulkan oleh syirik itu.\nHati seorang musyrik tidak berhubungan lagi dengan Allah, tetapi terpaut kepada hawa nafsu, loba dan tamak kepada harta benda yang tidak akan dapat menolongnya sedikit pun. Itulah sebabnya Allah menegaskan bahwa dosa syirik itu amat besar dan tidak akan diampuni-Nya.\nSeandainya hati dan jiwa seseorang bersih dari syirik, atau ada cahaya iman di dalamnya, maka sekalipun ia telah mengerjakan dosa, hatinya akan ditumbuhi iman dan datang kepadanya petunjuk, maka ia akan bertobat, karena cahaya iman yang ada di dalam hatinya dapat bersinar kembali. Karena itulah Allah akan mengampuni dosanya karena bukan dosa syirik.\nAn-Nis\u0101\u2019 48 telah menerangkan bahwa Allah tidak akan mengampuni dosa syirik, tetapi akan mengampuni dosa selain dari dosa itu. Pengulangan pernyataan itu adalah untuk menegaskan kepada orang yang beriman agar mereka menjauhi syirik. Hendaklah mereka memupuk tauhid di dalam hati mereka, karena tauhid itu adalah dasar agama.",
        "intro_surah": "Surah an-Nis\u0101\u2019 yang terdiri dari 176 ayat itu adalah surah Madaniyah yang terpanjang sesudah Surah al-Baqarah. Dinamakan an-Nis\u0101\u2019 karena dalam surah ini banyak dibicarakan hal yang berhubungan dengan perempuan serta merupakan surah yang paling banyak membicarakan hal itu dibanding dengan surah-surah Al-Qur\u2019an yang lain. Surah lain yang banyak juga membicarakan hal perempuan ialah Surah a\u1e6d-\u1e6cal\u0101q. Dalam hubungan ini Surah an-Nis\u0101\u2019 biasa disebut dengan sebutan S\u016brah an-Nis\u0101\u2019 al-Kubr\u0101 (Surah an-Nis\u0101\u2019 yang besar), sedang Surah a\u1e6d-\u1e6cal\u0101q disebut dengan sebutan S\u016brah an-Nis\u0101\u2019 a\u1e63-\u1e62ugr\u0101 (Surah an-Nis\u0101\u2019 yang kecil).\n\nPokok-pokok Isinya\n1.\tKeimanan \nMencakup syirik, kekafiran dan hari kemudian.\n\n2.\tHukum-hukum\nKewajiban para w\u0101\u1e63i dan para wali, hukum poligami, maskawin, memakan harta anak yatim dan orang-orang yang tidak dapat mengurus hartanya, pokok-pokok hukum warisan, perbuatan-perbuatan keji dan hukumannya, perempuan yang haram dikawini, hukum mengawini budak perempuan, larangan memakan harta secara batil, hukum syiq\u0101q dan nusy\u016bz, kesucian lahir batin dalam salat, hukum suaka, hukum membunuh seorang muslim, salat khauf, larangan melontarkan ucapan-ucapan buruk, masalah pusaka kalalah, dan lain-lain.\n\n3.\tKisah-kisah \nKisah-kisah tentang Nabi Musa dan pengikut-pengikutnya.\n\n4.\tLain-lain:\nAsal manusia adalah satu, keharusan menjauhi adat zaman jahiliah dalam menggauli perempuan, cara menggauli istri, hak seseorang sesuai dengan kewajibannya, perlakuan Ahli Kitab terhadap kitab-kitab yang diturunkan kepadanya, dasar-dasar pemerintahan, cara mengadili perkara, keharusan siap-siaga terhadap musuh, sikap-sikap orang munafik dalam manghadapi peperangan, berperang di jalan Allah adalah kewajiban tiap-tiap mukalaf, adab dalam peperangan, cara menghadapi orang-orang munafik, derajat-derajat orang yang berjihad.\n ",
        "outro_surah": null,
        "munasabah_prev_surah": "Hubungan Surah an-Nis\u0101\u2019 dengan Surah \u0100li \u2018Imr\u0101n, ialah:\n1. \tSurah an-Nis\u0101\u2019 dimulai dengan perintah bertakwa kepada Allah sedang Surah Ali Imr\u0101n juga disudahi dengan perintah bertakwa kepada Allah.\n2.\tDalam Surah \u0100li \u2018Imr\u0101n disebutkan kisah perang Badar dan Uhud dengan sempurna, di dalam Surah an-Nis\u0101\u2019 sebagian kisah itu diulangi lagi.\n3.\tKisah perang \u1e24amra\u2019 al-Asad yang terjadi sesudah Perang Uhud terdapat dalam surah Ali \u2018Imr\u0101n, maka dalam Surah an-Nis\u0101\u2019 kisah itu disinggung lagi.\n4.\tDalam Surah \u0100li \u2018Imr\u0101n telah disebutkan bahwa di kalangan kaum Muslimin banyak yang gugur dalam medan perang sebagai syuhada yang tentunya mereka meninggalkan anak-anak yang sudah yatim dan istri yang sudah janda. Maka pada permulaan Surah an-Nis\u0101\u2019 disebutkan perintah memelihara anak-anak yatim serta pembagian harta pusaka.",
        "munasabah_prev_theme": "Ayat-ayat yang telah lalu melarang manusia melakukan pembicaraan rahasia untuk merencanakan kejahatan, seperti yang dilakukan oleh Tu\u2019mah dan kawan-kawannya. Diisyaratkan pula bahwa Allah menganugerahkan kepada manusia, kekuatan meneliti dan memilih, kekuatan kemauan untuk melaksanakan pilihannya. Kemudian Allah membiarkan melaksanakan pilihannya, Dia memberi balasan sesuai dengan perbuatan yang telah dilakukannya, sesuai dengan pilihan dan kehendaknya. Ayat-ayat ini menerangkan bahwa dosa yang paling besar adalah dosa memperserikatkan Allah dengan yang lain. Dosa yang demikian tidak akan diampuni selama-lamanya.",
        "theme_group": "KEJELEKAN SYIRIK DAN PENGARUH SETAN",
        "kosakata": "1. Yubattikunn \u064a\u064f\u0628\u064e\u062a\u0651\u0650\u0643\u064f\u0646\u0651\u064e (an-Nis\u0101\u2019/4: 119)\nYubattikunn bentuk mu\u1e0d\u0101ri\u2019 dari battaka. Akar katanya adalah al-batku (\u0627\u0644\u0628\u062a\u0643) yang berarti memotong, membelah. Imbuhan tasydid pada kata tersebut untuk memberikan arti mubalagah (melebih-lebihkan suatu pekerjaan) atau tak\u1e61\u012br (memperbanyak). Kata al-batk biasanya digunakan untuk memotong anggota badan atau rambut. Dalam ayat ini disebutkan bahwa orang-orang musyrikin mematuhi perintah setan untuk memotong telinga binatang yang akan dikurbankan kepada sesembahan mereka. Mereka melobangi telinga binatang kurban tersebut sebagai tanda bahwa binatang itu binatang keramat milik tuhan-tuhan mereka.\n2. Ma\u1e25\u012b\u1e63an \u0645\u064e\u062d\u0650\u064a\u0652\u0635\u064b\u0627 (an-Nis\u0101\u2019/4: 121)\nAl-Ma\u1e25\u012b\u1e63 berarti tempat kembali, tempat untuk melarikan diri. Asal katanya \u1e25\u0101\u1e63a - ya\u1e25\u012b\u1e63u. Dalam ayat ini dijelaskan bahwa orang-orang yang tunduk pada perintah setan, tempatnya di neraka. Di sini mereka tidak akan mendapatkan cara untuk melarikan diri dari siksa Allah.",
        "sabab_nuzul": null,
        "conclusion": null
    }
}