{
    "id": 656,
    "surah_id": 4,
    "ayah": 163,
    "page": 104,
    "quarter_hizb": 11.25,
    "juz": 6,
    "manzil": 1,
    "arabic": "\u06de \u0627\u0650\u0646\u0651\u064e\u0627\u0653 \u0627\u064e\u0648\u0652\u062d\u064e\u064a\u0652\u0646\u064e\u0627\u0653 \u0627\u0650\u0644\u064e\u064a\u0652\u0643\u064e \u0643\u064e\u0645\u064e\u0627\u0653 \u0627\u064e\u0648\u0652\u062d\u064e\u064a\u0652\u0646\u064e\u0627\u0653 \u0627\u0650\u0644\u0670\u0649 \u0646\u064f\u0648\u0652\u062d\u064d \u0648\u0651\u064e\u0627\u0644\u0646\u0651\u064e\u0628\u0650\u064a\u0651\u0656\u0646\u064e \u0645\u0650\u0646\u0652\u06e2 \u0628\u064e\u0639\u0652\u062f\u0650\u0647\u0656\u06da \u0648\u064e\u0627\u064e\u0648\u0652\u062d\u064e\u064a\u0652\u0646\u064e\u0627\u0653 \u0627\u0650\u0644\u0670\u0653\u0649 \u0627\u0650\u0628\u0652\u0631\u0670\u0647\u0650\u064a\u0652\u0645\u064e \u0648\u064e\u0627\u0650\u0633\u0652\u0645\u0670\u0639\u0650\u064a\u0652\u0644\u064e \u0648\u064e\u0627\u0650\u0633\u0652\u062d\u0670\u0642\u064e \u0648\u064e\u064a\u064e\u0639\u0652\u0642\u064f\u0648\u0652\u0628\u064e \u0648\u064e\u0627\u0644\u0652\u0627\u064e\u0633\u0652\u0628\u064e\u0627\u0637\u0650 \u0648\u064e\u0639\u0650\u064a\u0652\u0633\u0670\u0649 \u0648\u064e\u0627\u064e\u064a\u0651\u064f\u0648\u0652\u0628\u064e \u0648\u064e\u064a\u064f\u0648\u0652\u0646\u064f\u0633\u064e \u0648\u064e\u0647\u0670\u0631\u064f\u0648\u0652\u0646\u064e \u0648\u064e\u0633\u064f\u0644\u064e\u064a\u0652\u0645\u0670\u0646\u064e \u06da\u0648\u064e\u0627\u0670\u062a\u064e\u064a\u0652\u0646\u064e\u0627 \u062f\u064e\u0627\u0648\u0657\u062f\u064e \u0632\u064e\u0628\u064f\u0648\u0652\u0631\u064b\u0627\u06da ",
    "latin": "Inn\u0101 au\u1e25ain\u0101 ilaika kam\u0101 au\u1e25ain\u0101 il\u0101 n\u016b\u1e25iw wan-nabiyy\u012bna mim ba\u2018dih(\u012b), wa au\u1e25ain\u0101 il\u0101 ibr\u0101h\u012bma wa ism\u0101\u2018\u012bla wa is\u1e25\u0101qa wa ya\u2018q\u016bba wal-asb\u0101\u1e6di wa \u2018\u012bs\u0101 wa ayy\u016bba wa y\u016bnusa wa h\u0101r\u016bna wa sulaim\u0101n(a), wa \u0101tain\u0101 d\u0101w\u016bda zab\u016br\u0101(n).",
    "translation": "Sesungguhnya Kami telah mewahyukan kepadamu (Nabi Muhammad) sebagaimana Kami telah mewahyukan kepada Nuh dan nabi-nabi setelahnya. Kami telah mewahyukan pula kepada Ibrahim, Ismail, Ishaq, Ya\u2018qub dan keturunan(-nya), Isa, Ayyub, Yunus, Harun, dan Sulaiman. Kami telah memberikan (Kitab) Zabur kepada Daud.",
    "no_footnote": null,
    "footnotes": null,
    "surah": {
        "id": 4,
        "arabic": "\u0627\u0644\u0646\u0651\u0633\u0627\u06e4\u0621",
        "latin": "An-Nis\u0101' ",
        "transliteration": "An-Nisa'",
        "translation": "Perempuan",
        "num_ayah": 176,
        "page": 77,
        "location": "Madaniyah"
    },
    "tafsir": {
        "wajiz": "Sesungguhnya Kami, melalui malaikat-malaikat Kami, telah mewahyukan kepadamu, wahai Nabi Muhammad, sebagaimana Kami telah mewahyukan kepada Nuh, yaitu rasul yang pertama, dan nabi-nabi yang diutus setelahnya, dan Kami telah mewahyukan pula kepada Ibrahim yang digelari bapak dari para nabi, Ismail, putra Ibrahim yang merupakan kakek buyut Nabi Muhammad, dan Ishak, putra Ibrahim yang merupakan kakek Bani Israil, selanjutnya kepada putra Ishak yaitu Yakub dan nabi-nabi yang merupakan anak cucunya, dan Kami mewahyukan kepada Isa, nabi yang terakhir dari anak cucu Yakub, dan Kami telah mewahyukan kepada Ayyub, Yunus, Harun, dan Sulaiman, dan Kami telah menganugerahkan Kitab Zabur kepada Dawud.",
        "tahlili": "Sesungguhnya Allah telah memberi wahyu kepada Muhammad seperti memberi wahyu kepada Nuh dan nabi-nabi yang diutus kemudian. Wahyu yang diberikan kepada para nabi berbeda dengan pengertian wahyu yang pernah diberikan kepada makhluk lain, karena wahyu itu mempunyai empat pengertian:\n\n1.\tIsyarat, seperti dalam Firman Allah:\n\u0641\u064e\u062e\u064e\u0631\u064e\u062c\u064e \u0639\u064e\u0644\u0670\u0649 \u0642\u064e\u0648\u0652\u0645\u0650\u0647\u0656 \u0645\u0650\u0646\u064e \u0627\u0644\u0652\u0645\u0650\u062d\u0652\u0631\u064e\u0627\u0628\u0650 \u0641\u064e\u0627\u064e\u0648\u0652\u062d\u0670\u0653\u0649 \u0627\u0650\u0644\u064e\u064a\u0652\u0647\u0650\u0645\u0652 \u0627\u064e\u0646\u0652 \u0633\u064e\u0628\u0651\u0650\u062d\u064f\u0648\u0652\u0627 \u0628\u064f\u0643\u0652\u0631\u064e\u0629\u064b \u0648\u0651\u064e\u0639\u064e\u0634\u0650\u064a\u0651\u064b\u0627 \u0661\u0661\nMaka dia keluar dari mihrab menuju kaumnya, lalu dia memberi isyarat kepada mereka; bertasbihlah kamu pada waktu pagi dan petang. (Maryam/19:11).\n\n2. Ilham, seperti dalam firman Allah:\n\u0648\u064e\u0627\u064e\u0648\u0652\u062d\u064e\u064a\u0652\u0646\u064e\u0627\u0653 \u0627\u0650\u0644\u0670\u0653\u0649 \u0627\u064f\u0645\u0651\u0650 \u0645\u064f\u0648\u0652\u0633\u0670\u0653\u0649 \u0627\u064e\u0646\u0652 \u0627\u064e\u0631\u0652\u0636\u0650\u0639\u0650\u064a\u0652\u0647\u0650\nDan Kami ilhamkan kepada ibunya Musa, \u201dSusuilah dia (Musa), (al-Qa\u1e63a\u1e63/28:7).\n\n3.\tInsting (naluri) seperti dalam firman Allah:\n\u0648\u064e\u0627\u064e\u0648\u0652\u062d\u0670\u0649 \u0631\u064e\u0628\u0651\u064f\u0643\u064e \u0627\u0650\u0644\u064e\u0649 \u0627\u0644\u0646\u0651\u064e\u062d\u0652\u0644\u0650 \u0627\u064e\u0646\u0650 \u0627\u062a\u0651\u064e\u062e\u0650\u0630\u0650\u064a\u0652 \u0645\u0650\u0646\u064e \u0627\u0644\u0652\u062c\u0650\u0628\u064e\u0627\u0644\u0650 \u0628\u064f\u064a\u064f\u0648\u0652\u062a\u064b\u0627 \u0648\u0651\u064e\u0645\u0650\u0646\u064e \u0627\u0644\u0634\u0651\u064e\u062c\u064e\u0631\u0650 \u0648\u064e\u0645\u0650\u0645\u0651\u064e\u0627 \u064a\u064e\u0639\u0652\u0631\u0650\u0634\u064f\u0648\u0652\u0646\u064e\u06d9 \u0666\u0668\nDan Tuhanmu mengilhamkan kepada lebah, \u201dBuatlah sarang di gunung-gunung, di pohon-pohon kayu, dan di tempat-tempat yang dibikin manusia. (an-Na\u1e25l/16:68).\n\n4. Bisikan halus, seperti dalam firman Allah:\n\u0648\u064e\u0643\u064e\u0630\u0670\u0644\u0650\u0643\u064e \u062c\u064e\u0639\u064e\u0644\u0652\u0646\u064e\u0627 \u0644\u0650\u0643\u064f\u0644\u0651\u0650 \u0646\u064e\u0628\u0650\u064a\u0651\u064d \u0639\u064e\u062f\u064f\u0648\u0651\u064b\u0627 \u0634\u064e\u064a\u0670\u0637\u0650\u064a\u0652\u0646\u064e \u0627\u0644\u0652\u0627\u0650\u0646\u0652\u0633\u0650 \u0648\u064e\u0627\u0644\u0652\u062c\u0650\u0646\u0651\u0650 \u064a\u064f\u0648\u0652\u062d\u0650\u064a\u0652 \u0628\u064e\u0639\u0652\u0636\u064f\u0647\u064f\u0645\u0652 \u0627\u0650\u0644\u0670\u0649 \u0628\u064e\u0639\u0652\u0636\u064d \u0632\u064f\u062e\u0652\u0631\u064f\u0641\u064e \u0627\u0644\u0652\u0642\u064e\u0648\u0652\u0644\u0650 \u063a\u064f\u0631\u064f\u0648\u0652\u0631\u064b\u0627 \u06d7\u0648\u064e\u0644\u064e\u0648\u0652 \u0634\u064e\u0627\u06e4\u0621\u064e \u0631\u064e\u0628\u0651\u064f\u0643\u064e \u0645\u064e\u0627 \u0641\u064e\u0639\u064e\u0644\u064f\u0648\u0652\u0647\u064f \u0641\u064e\u0630\u064e\u0631\u0652\u0647\u064f\u0645\u0652 \u0648\u064e\u0645\u064e\u0627 \u064a\u064e\u0641\u0652\u062a\u064e\u0631\u064f\u0648\u0652\u0646\u064e \u0661\u0661\u0662\nDan demikianlah untuk setiap nabi Kami menjadikan musuh yang terdiri dari setan-setan manusia dan jin, sebagian mereka membisikkan kepada sebagian yang lain perkataan yang indah sebagai tipuan. (al-An\u2018\u0101m/6:112).\n\nWahyu yang dimaksud dalam ayat ini ialah wahyu dalam pengertian yang dikenal dalam istilah agama, yaitu bisikan halus dan pengertian makrifat yang didapati oleh seorang nabi di dalam hatinya dengan penuh keyakinan bahwa pengertian itu datangnya dari Allah, baik langsung maupun memakai perantaraan. Allah telah mewahyukan Al-Qur\u2019an ini kepada Muhammad sebagaimana Allah telah mewahyukan kepada Nuh dan nabi-nabi yang datang kemudian. Allah tidak pernah menurunkan sebuah kitab dari langit secara terang-terangan disaksikan oleh pancaindra seperti yang dimintakan oleh orang-orang Yahudi kepada Muhammad, karena wahyu itu adalah semacam pemberitahuan yang datang dengan cepat dan tersembunyi. Di antara nabi-nabi yang menerima wahyu pertama sekali untuk umatnya ialah Nabi Nuh, karena beliau termasuk Nabi yang tertua setelah Adam, dan karena beliau dipandang sebagai Adam kedua, yang menurunkan umat manusia setelah terjadinya banjir besar (taufan). \nAllah telah mewahyukan pula kepada Ibrahim yang diberi julukan Abul-Anbiy\u0101\u2019 (bapak para nabi dari sisi tauhid) dan Ismail sebagai nenek moyang orang Arab dan Ishak dan Yakub sebagai nenek moyang Bani Israil (Yahudi). Yang dimaksud dengan Asb\u0101\u1e6d ialah anak Nabi Yakub yang berjumlah 12 orang. Pemakaian kata Asb\u0101\u1e6d di kalangan Bani Israil sama dengan pemakaian kata \u201ckabilah\u201d di kalangan orang-orang Arab turunan Ismail.\nAllah telah mewahyukan pula kepada Isa, Ayyub, Yunus, Harun dan Sulaiman dan telah memberikan Zabur kepada Daud. Menurut Imam Qurtubi, Zabur itu berisi 150 surah yang tidak mengandung hukum-hukum, hanya berisi nasihat-nasihat, hikmah, pujian dan sanjungan kepada Allah.",
        "intro_surah": "Surah an-Nis\u0101\u2019 yang terdiri dari 176 ayat itu adalah surah Madaniyah yang terpanjang sesudah Surah al-Baqarah. Dinamakan an-Nis\u0101\u2019 karena dalam surah ini banyak dibicarakan hal yang berhubungan dengan perempuan serta merupakan surah yang paling banyak membicarakan hal itu dibanding dengan surah-surah Al-Qur\u2019an yang lain. Surah lain yang banyak juga membicarakan hal perempuan ialah Surah a\u1e6d-\u1e6cal\u0101q. Dalam hubungan ini Surah an-Nis\u0101\u2019 biasa disebut dengan sebutan S\u016brah an-Nis\u0101\u2019 al-Kubr\u0101 (Surah an-Nis\u0101\u2019 yang besar), sedang Surah a\u1e6d-\u1e6cal\u0101q disebut dengan sebutan S\u016brah an-Nis\u0101\u2019 a\u1e63-\u1e62ugr\u0101 (Surah an-Nis\u0101\u2019 yang kecil).\n\nPokok-pokok Isinya\n1.\tKeimanan \nMencakup syirik, kekafiran dan hari kemudian.\n\n2.\tHukum-hukum\nKewajiban para w\u0101\u1e63i dan para wali, hukum poligami, maskawin, memakan harta anak yatim dan orang-orang yang tidak dapat mengurus hartanya, pokok-pokok hukum warisan, perbuatan-perbuatan keji dan hukumannya, perempuan yang haram dikawini, hukum mengawini budak perempuan, larangan memakan harta secara batil, hukum syiq\u0101q dan nusy\u016bz, kesucian lahir batin dalam salat, hukum suaka, hukum membunuh seorang muslim, salat khauf, larangan melontarkan ucapan-ucapan buruk, masalah pusaka kalalah, dan lain-lain.\n\n3.\tKisah-kisah \nKisah-kisah tentang Nabi Musa dan pengikut-pengikutnya.\n\n4.\tLain-lain:\nAsal manusia adalah satu, keharusan menjauhi adat zaman jahiliah dalam menggauli perempuan, cara menggauli istri, hak seseorang sesuai dengan kewajibannya, perlakuan Ahli Kitab terhadap kitab-kitab yang diturunkan kepadanya, dasar-dasar pemerintahan, cara mengadili perkara, keharusan siap-siaga terhadap musuh, sikap-sikap orang munafik dalam manghadapi peperangan, berperang di jalan Allah adalah kewajiban tiap-tiap mukalaf, adab dalam peperangan, cara menghadapi orang-orang munafik, derajat-derajat orang yang berjihad.\n ",
        "outro_surah": null,
        "munasabah_prev_surah": "Hubungan Surah an-Nis\u0101\u2019 dengan Surah \u0100li \u2018Imr\u0101n, ialah:\n1. \tSurah an-Nis\u0101\u2019 dimulai dengan perintah bertakwa kepada Allah sedang Surah Ali Imr\u0101n juga disudahi dengan perintah bertakwa kepada Allah.\n2.\tDalam Surah \u0100li \u2018Imr\u0101n disebutkan kisah perang Badar dan Uhud dengan sempurna, di dalam Surah an-Nis\u0101\u2019 sebagian kisah itu diulangi lagi.\n3.\tKisah perang \u1e24amra\u2019 al-Asad yang terjadi sesudah Perang Uhud terdapat dalam surah Ali \u2018Imr\u0101n, maka dalam Surah an-Nis\u0101\u2019 kisah itu disinggung lagi.\n4.\tDalam Surah \u0100li \u2018Imr\u0101n telah disebutkan bahwa di kalangan kaum Muslimin banyak yang gugur dalam medan perang sebagai syuhada yang tentunya mereka meninggalkan anak-anak yang sudah yatim dan istri yang sudah janda. Maka pada permulaan Surah an-Nis\u0101\u2019 disebutkan perintah memelihara anak-anak yatim serta pembagian harta pusaka.",
        "munasabah_prev_theme": "Setelah menerangkan keburukan orang-orang Yahudi secara terperinci pada ayat-ayat yang lalu, maka ayat ini menerangkan, bahwa yang menjadi pegangan semua rasul itu adalah wahyu dari Allah yang sama jenisnya dan satu sumbernya dan para rasul pun sama fungsinya sebagai utusan Allah. Maka jika iman mereka itu benar terhadap rasul-rasul yang terdahulu, maka sepantasnya pula bagi mereka untuk beriman kepada nabi yang terakhir yaitu Muhammad saw.",
        "theme_group": "PERSAMAAN POKOK-POKOK AGAMA YANG\nDIWAHYUKAN KEPADA PARA RASUL",
        "kosakata": "Kosakata: Kallama \u0643\u064e\u0644\u0651\u064e\u0645\u064e (an-Nis\u0101/4:164)\nKata dasarnya kalama (\u0643\u0644\u0645) yaitu \u201cmemberikan bekas kepada sesuatu yang bisa diketahui baik lewat pendengaran, perkataan atau lewat penglihatan\u201d. Kallama artinya \u201cberbicara\u201d, \u201cberkata\u201d, \u201cbercakap-cakap\u201d. Pada ayat 164 ini diterangkan bahwa Allah berbicara dengan Musa secara langsung, tidak melalui malaikat Jibril. Pembicaraan Allah secara langsung dengan Musa ini merupakan mukjizat yang hanya diberikan kepada Nabi Musa dalam rangka menurunkan wahyu, karena dalam Surah asy-Sy\u016br\u0101/42:51 disebutkan bahwa tidak ada seorang manusia pun yang bisa berbicara langsung dengan Allah kecuali dengan perantaraan wahyu atau di belakang tabir. Dalam pembicaraan ini Musa juga hanya mendengar suara kalam Allah, dan tidak dapat melihat-Nya. Musa adalah satu-satunya rasul yang berkesempatan berbicara dengan Allah secara langsung sehingga Musa disebut Kalimullah. Pada surah al-A\u2018r\u0101f/7:143 diterangkan ketika Allah berbicara langsung dengan Musa kemudian Nabi Musa a.s. memohon untuk dapat melihat Allah, maka Allah menerangkan bahwa Musa tidak mungkin dapat melihat Allah. Waktu itu Musa hanya disuruh untuk melihat gunung, jika gunung itu tetap di tempatnya barulah ia dapat melihat Allah. Tetapi ketika Allah menampakkan diri, gunung itu hancur dan Musa terpelanting pingsan.",
        "sabab_nuzul": null,
        "conclusion": null
    }
}