{
    "id": 736,
    "surah_id": 5,
    "ayah": 67,
    "page": 119,
    "quarter_hizb": 12.75,
    "juz": 6,
    "manzil": 2,
    "arabic": "\u06de \u064a\u0670\u0653\u0627\u064e\u064a\u0651\u064f\u0647\u064e\u0627 \u0627\u0644\u0631\u0651\u064e\u0633\u064f\u0648\u0652\u0644\u064f \u0628\u064e\u0644\u0651\u0650\u063a\u0652 \u0645\u064e\u0627\u0653 \u0627\u064f\u0646\u0652\u0632\u0650\u0644\u064e \u0627\u0650\u0644\u064e\u064a\u0652\u0643\u064e \u0645\u0650\u0646\u0652 \u0631\u0651\u064e\u0628\u0651\u0650\u0643\u064e \u06d7\u0648\u064e\u0627\u0650\u0646\u0652 \u0644\u0651\u064e\u0645\u0652 \u062a\u064e\u0641\u0652\u0639\u064e\u0644\u0652 \u0641\u064e\u0645\u064e\u0627 \u0628\u064e\u0644\u0651\u064e\u063a\u0652\u062a\u064e \u0631\u0650\u0633\u0670\u0644\u064e\u062a\u064e\u0647\u0657 \u06d7\u0648\u064e\u0627\u0644\u0644\u0651\u0670\u0647\u064f \u064a\u064e\u0639\u0652\u0635\u0650\u0645\u064f\u0643\u064e \u0645\u0650\u0646\u064e \u0627\u0644\u0646\u0651\u064e\u0627\u0633\u0650\u06d7 \u0627\u0650\u0646\u0651\u064e \u0627\u0644\u0644\u0651\u0670\u0647\u064e \u0644\u064e\u0627 \u064a\u064e\u0647\u0652\u062f\u0650\u0649 \u0627\u0644\u0652\u0642\u064e\u0648\u0652\u0645\u064e \u0627\u0644\u0652\u0643\u0670\u0641\u0650\u0631\u0650\u064a\u0652\u0646\u064e",
    "latin": "Y\u0101 ayyuhar-ras\u016blu ballig m\u0101 unzila ilaika mir rabbik(a), wa illam taf\u2018al fam\u0101 ballagta ris\u0101latah(\u016b), wall\u0101hu ya\u2018\u1e63imuka minan-n\u0101s(i), innall\u0101ha l\u0101 yahdil-qaumal-k\u0101fir\u012bn(a).",
    "translation": "Wahai Rasul, sampaikanlah apa yang diturunkan Tuhanmu kepadamu. Jika engkau tidak melakukan (apa yang diperintahkan itu), berarti engkau tidak menyampaikan risalah-Nya. Allah menjaga engkau dari (gangguan) manusia.220) Sesungguhnya Allah tidak memberi petunjuk kepada kaum yang kafir.",
    "no_footnote": "220",
    "footnotes": "220) Maksudnya, tidak seorang pun yang dapat membunuh Nabi Muhammad saw.",
    "surah": {
        "id": 5,
        "arabic": " \u0627\u0644\u0645\u0627\u06e4\u0626\u062f\u0629",
        "latin": "Al-M\u0101'idah",
        "transliteration": "Al-Ma'idah",
        "translation": "Hidangan",
        "num_ayah": 120,
        "page": 106,
        "location": "Madaniyah"
    },
    "tafsir": {
        "wajiz": "Sesudah menjelaskan tentang keingkaran Ahli Kitab, maka pada ayat ini Allah menerangkan tugas Rasulullah, yang di antaranya adalah untuk menyampaikan ajaran Islam kepada mereka. Demikian informasi dari sabab nuzul yang diriwayatkan Ibnu Mardawaih. \"Wahai Rasul! Sampaikanlah kepada orang-orang Ahli Kitab apa yang diturunkan kepadamu, yaitu ajaran-ajaran Islam melalui wahyu dari Tuhanmu. Itulah tugas atau kewajibanmu. Jika tidak engkau lakukan apa yang diperintahkan itu, berarti engkau tidak menyampaikan amanat-Nya. Dan ketahuilah bahwa Allah akan selalu memelihara engkau dari gangguan atau maksud buruk manusia. Tugasmu hanya menyampaikan ajaran Islam dan bukan menjadikan mereka beriman, karena sungguh, Allah tidak memberi petunjuk kepada orang-orang kafir, sehingga kekafiran mereka bukan menjadi tanggung jawabmu.",
        "tahlili": "Ayat ini memerintahkan kepada Nabi Muhammad supaya menyampaikan apa yang telah diturunkan kepadanya tanpa menghiraukan besarnya tantangan di kalangan Ahli Kitab, orang musyrik dan orang-orang fasik.\nAyat ini menganjurkan kepada Nabi Muhammad agar tidak perlu takut menghadapi gangguan dari mereka dalam membentangkan rahasia dan keburukan tingkah laku mereka itu karena Allah menjamin akan memelihara Nabi Muhammad dari gangguan, baik masa sebelum hijrah oleh kafir Quraisy maupun sesudah hijrah oleh orang Yahudi. Apa yang telah diturunkan oleh Allah kepada Muhammad adalah amanat yang wajib disampaikan seluruhnya kepada manusia. Menyampaikan sebagian saja dari amanat-Nya dianggap sama dengan tidak menyampaikan sama sekali. Demikianlah kerasnya peringatan Allah kepada Muhammad. Hal tersebut menunjukkan bahwa tugas menyampaikan amanat adalah kewajiban Rasul. Tugas penyampaian tersebut tidak boleh ditunda meskipun penundaan itu dilakukan untuk menunggu kesanggupan manusia untuk menerimanya, karena masa penundaan itu dapat dianggap sebagai suatu tindakan penyembunyian terhadap amanat Allah. \nAncaman terhadap penyembunyian sebagian amanat Allah sama kerasnya dengan ancaman terhadap sikap sesesorang yang beriman kepada sebagian rasul saja dan beriman kepada sebagian ayat Al-Qur\u2019an saja. Meskipun seorang rasul bersifat maksum yakni terpelihara dari sifat tidak menyampaikan, namun ayat ini menegaskan bahwa tugas menyampaikan amanat adalah kewajiban yang tidak dapat ditawar-tawar atau ditunda-tunda meskipun menyangkut pribadi Rasul sendiri seperti halnya yang kemudian terjadi antara Zainab binti Jahsy dengan Nabi Muhammad sebagaimana yang diuraikan dalam al-A\u1e25z\u0101b/33: 37 :\n\u0648\u064e\u0627\u0650\u0630\u0652 \u062a\u064e\u0642\u064f\u0648\u0652\u0644\u064f \u0644\u0650\u0644\u0651\u064e\u0630\u0650\u064a\u0652\u0653 \u0627\u064e\u0646\u0652\u0639\u064e\u0645\u064e \u0627\u0644\u0644\u0651\u0670\u0647\u064f \u0639\u064e\u0644\u064e\u064a\u0652\u0647\u0650 \u0648\u064e\u0627\u064e\u0646\u0652\u0639\u064e\u0645\u0652\u062a\u064e \u0639\u064e\u0644\u064e\u064a\u0652\u0647\u0650 \u0627\u064e\u0645\u0652\u0633\u0650\u0643\u0652 \u0639\u064e\u0644\u064e\u064a\u0652\u0643\u064e \u0632\u064e\u0648\u0652\u062c\u064e\u0643\u064e \u0648\u064e\u0627\u062a\u0651\u064e\u0642\u0650 \u0627\u0644\u0644\u0651\u0670\u0647\u064e \u0648\u064e\u062a\u064f\u062e\u0652\u0641\u0650\u064a\u0652 \u0641\u0650\u064a\u0652 \u0646\u064e\u0641\u0652\u0633\u0650\u0643\u064e \u0645\u064e\u0627 \u0627\u0644\u0644\u0651\u0670\u0647\u064f \u0645\u064f\u0628\u0652\u062f\u0650\u064a\u0652\u0647\u0650 \u0648\u064e\u062a\u064e\u062e\u0652\u0634\u064e\u0649 \u0627\u0644\u0646\u0651\u064e\u0627\u0633\u064e\u06da \u0648\u064e\u0627\u0644\u0644\u0651\u0670\u0647\u064f \u0627\u064e\u062d\u064e\u0642\u0651\u064f \u0627\u064e\u0646\u0652 \u062a\u064e\u062e\u0652\u0634\u0670\u0649\u0647\u064f\n\u201cDan (ingatlah) ketika engkau (Muhammad) berkata kepada orang yang telah diberi nikmat oleh Allah dan engkau (juga) telah memberi nikmat kepadanya, \u201cpertahankanlah terus istrimu dan bertakwalah kepada Allah\u201d, sedang engkau menyembunyikan di dalam hatimu apa yang akan dinyatakan oleh Allah, dan engkau takut kepada manusia padahal Allah lebih berhak engkau takuti. (al-A\u1e25z\u0101b/33:37).\n\nDalam hubungan ini Aisyah dan Anas berkata, \u201cKalaulah kiranya Nabi Muhammad akan menyembunyikan sesuatu dalam Al-Qur\u2019an, tentu ayat inilah yang disembunyikannya.\u201d Dari keterangan \u2018Aisyah dan Anas ini jelaslah peristiwa yang kemudian terjadi antara Zainab binti Jahsy dengan Zaid ialah perceraian yang berkelanjutan dengan berlakunya kehendak Allah yaitu menikahkan Zainab dengan Nabi Muhammad. Hal tersebut tidak dikemukakan oleh Nabi Muhammad kepada Zaid ketika ia mengadukan peristiwanya kepada Nabi Muhammad pada hal beliau sudah mengetahuinya dengan perantaraan wahyu. Nabi Muhammad saw, menyembunyikan hal-hal yang diketahuinya sesuai dengan kesopanan disamping menghindarkan tuduhan-tuduhan yang dilancarkan oleh golongan orang-orang munafik. Meskipun demikian Nabi Muhammad masih juga menerima kritik Allah seperti diketahui pada ayat dalam surah al-A\u1e25z\u0101b tersebut.\nTegasnya, ayat 67 ini mengancam orang-orang yang menyembunyikan amanat Allah sebagaimana tersebut dalam firman-Nya:\n\u0627\u0650\u0646\u0651\u064e \u0627\u0644\u0651\u064e\u0630\u0650\u064a\u0652\u0646\u064e \u064a\u064e\u0643\u0652\u062a\u064f\u0645\u064f\u0648\u0652\u0646\u064e \u0645\u064e\u0627\u0653 \u0627\u064e\u0646\u0652\u0632\u064e\u0644\u0652\u0646\u064e\u0627 \u0645\u0650\u0646\u064e \u0627\u0644\u0652\u0628\u064e\u064a\u0651\u0650\u0646\u0670\u062a\u0650 \u0648\u064e\u0627\u0644\u0652\u0647\u064f\u062f\u0670\u0649 \u0645\u0650\u0646\u0652\u06e2 \u0628\u064e\u0639\u0652\u062f\u0650 \u0645\u064e\u0627 \u0628\u064e\u064a\u0651\u064e\u0646\u0651\u0670\u0647\u064f \u0644\u0650\u0644\u0646\u0651\u064e\u0627\u0633\u0650 \u0641\u0650\u0649 \u0627\u0644\u0652\u0643\u0650\u062a\u0670\u0628\u0650\u06d9 \u0627\u064f\u0648\u0644\u0670\u06e4\u0649\u0655\u0650\u0643\u064e \u064a\u064e\u0644\u0652\u0639\u064e\u0646\u064f\u0647\u064f\u0645\u064f \u0627\u0644\u0644\u0651\u0670\u0647\u064f \u0648\u064e\u064a\u064e\u0644\u0652\u0639\u064e\u0646\u064f\u0647\u064f\u0645\u064f \u0627\u0644\u0644\u0651\u0670\u0639\u0650\u0646\u064f\u0648\u0652\u0646\u064e\u06d9 \u0661\u0665\u0669\n\u201cSungguh, orang-orang yang menyembunyikan apa yang telah Kami turunkan berupa keterangan-keterangan dan petunjuk, setelah Kami jelaskan kepada manusia dalam Kitab (Al-Qur\u2019an), mereka itulah yang dilaknat Allah dan dilaknat (pula) oleh mereka yang melaknat.\u201d (al-Baqarah/2:159).\n\nSejalan dengan ancaman Al-Qur\u2019an ini, Nabi Muhammad bersabda mengingatkan orang-orang yang menyembunyikan ilmu pengetahuan:\n\u0645\u064e\u0646\u0652 \u0633\u064f\u0626\u0650\u0644\u064e \u0639\u064e\u0646\u0652 \u0639\u0650\u0644\u0652\u0645\u064d \u0641\u064e\u0643\u064e\u062a\u064e\u0645\u064e\u0647\u064f \u0627\u064f\u0644\u0652\u062c\u0650\u0645\u064e \u064a\u064e\u0648\u0652\u0645\u064e \u0627\u0644\u0652\u0642\u0650\u064a\u064e\u0627\u0645\u064e\u0629\u0650 \u0628\u0650\u0644\u0650\u062c\u064e\u0627\u0645\u064d \u0645\u0650\u0646\u0652 \u0646\u064e\u0627\u0631\u064d (\u0631\u0648\u0627\u0647 \u0627\u0628\u0648 \u062f\u0627\u0648\u062f \u0648\u0627\u0644\u062a\u0631\u0645\u0630\u064a \u0639\u0646 \u0627\u0628\u064a \u0647\u0631\u064a\u0631\u0629) \nBarang siapa ditanya tentang sesuatu ilmu pengetahuan lalu disembunyikannya maka ia akan dikekang pada hari Kiamat dengan kekangan dari api neraka. (Riwayat Ab\u016b D\u0101ud, at-Tirmi\u017ci dari Ab\u016b Hurairah).\n\nSelanjutnya akhir ayat ini menegaskan bahwa Allah tidak akan memberi petunjuk kepada orang-orang kafir yang mengganggu Nabi Muhammad dan pekerjaan mereka itu pastilah sia-sia karena Allah tetap melindungi Nabi-Nya dan tetap akan meninggikan kalimat-Nya.",
        "intro_surah": "Surah al-M\u0101\u2019idah terdiri dari 120 ayat, termasuk golongan surah Madaniyah. Sekalipun ada ayatnya yang turun di Mekah namun ayat ini diturunkan sesudah Nabi Muhammad saw, hijrah ke Medinah pada waktu haji wada\u2019.\nSurah ini dinamakan al-M\u0101\u2019idah (Hidangan), karena menurut kisah, pengikut-pengikut setia Nabi Isa meminta kepada Nabi Isa agar Allah menurunkan untuk mereka al-m\u0101\u2019idah (hidangan makanan) dari langit (ayat 112). Dinamakan dengan al-\u2018Uq\u016bd (perjanjian), karena kata itu terdapat pada ayat pertama Surah ini, Allah menyuruh agar hamba-hamba-Nya memenuhi janji prasetia mereka terhadap Allah dan perjanjian-perjanjian yang mereka buat sesamanya.\nDinamakan juga al-Munqi\u017c (yang menyelamatkan), karena akhir surah ini mengandung kisah tentang Nabi Isa sebagai penyelamat pengikut-pengikut setianya dari azab Allah.\n\nPokok-pokok Isinya\n1.\tKeimanan:\n\tBantahan terhadap orang yang menganggap Nabi Isa sebagai Tuhan.\n2.\tHukum-hukum:\nKeharusan memenuhi perjanjian, melanggar syiar Allah, makanan yang dihalalkan dan yang diharamkan, hukum mengawini perempuan Ahli Kitab, wudu, tayamum, mandi, hukum membunuh orang, mengacau dan mengganggu keamanan, melanggar sumpah dan kafaratnya, berjudi, berkorban untuk berhala, mengundi nasib, membunuh binatang waktu ihram dan persaksian dalam berwasiat.\n3. \tKisah-kisah:\nNabi Musa menyuruh kaumnya memasuki Palestina, kisah Habil dan Qabil, dan kisah Nabi Isa.\n4.\tLain-lain:\nKeharusan bersikap lemah-lembut terhadap sesama mukmin, bersikap keras terhadap orang-orang kafir, penyempurnaan agama Islam di zaman Nabi Muhammad saw, keharusan jujur dan berlaku adil, sikap dalam menghadapi berita-berita bohong, akibat berteman akrab dengan orang yang bukan Muslim; kutukan Allah terhadap orang-orang Yahudi, kewajiban rasul hanya menyampaikan agama, sikap Yahudi dan Nasrani terhadap Islam, Ka\u2019bah sakaguru kehidupan manusia, peringatan Allah supaya meninggalkan adat jahiliah dan larangan-larangan terhadap pertanyaan-pertanyaan yang mengakibatkan kesulitan menjalankan agama.",
        "outro_surah": null,
        "munasabah_prev_surah": "Hubungan Surah an-Nis\u0101\u2019 dengan al-M\u0101\u2019idah:\n1.\tSurah an-Nis\u0101\u2019 menerangkan beberapa macam akad, seperti perkawinan, perceraian, warisan, perjanjian, wasiat dan sebagainya, sedang permulaan Surah al-M\u0101\u2019idah menyatakan supaya hamba-hamba Allah memenuhi segala macam akad yang telah dilakukan, baik terhadap Allah, maupun terhadap sesama manusia, di samping menerangkan akad-akad yang lain.\n2.\tSurah an-Nis\u0101\u2019 mengemukakan hukum secara umum dan mendapat jalan untuk menetapkan suatu hukum, kemudian Surah al-M\u0101\u2019idah menjelaskan dan menegaskan hukum-hukum itu.\n3.\tSebagaimana halnya Surah al-Baqarah dan Surah \u0100li \u2018Imr\u0101n mengemukakan hal-hal yang berhubungan dengan pokok-pokok ajaran, seperti keesaan Allah dan kenabian, maka Surah an-Nis\u0101\u2019 dan al-M\u0101\u2019idah menerangkan tentang fur\u016b\u2019 agama (hukum fiqh), seperti hal-hal yang berhubungan dengan hukum keluarga dan sebagainya.\n4.\tAkhir Surah an-Nis\u0101\u2019 mengemukakan hujah-hujah atas kekeliruan orang-orang Yahudi dan Nasrani, serta kekeliruan kaum musyrik dan munafik. Hal yang serupa diterangkan secara panjang lebar dalam Surah al-M\u0101\u2019idah.\n5.\tSurah an-Nis\u0101\u2019 dimulai dengan Y\u0101 ayyuhan-n\u0101s (wahai manusia) yang nadanya sama dengan surah Makiyah, sedang Surah al-M\u0101\u2019idah seperti surah-surah Madaniyah, dimulai dengan Y\u0101 ayyuhalla\u017c\u012bna \u0101man\u016b (wahai orang yang beriman) Hal ini menyatakan sekalipun nadanya berbeda, tetapi yang dituju oleh kedua surah itu ialah semua manusia.",
        "munasabah_prev_theme": "Ayat-ayat yang telah lalu mengungkapkan watak golongan Yahudi yang lebih keji dari watak mereka yang telah diungkapkan dalam ayat-ayat sebelumnya, yaitu tuduhan mereka bahwa Allah bersikap kikir, tidak suka mengampuni dosa dan sebagainya. Diungkapkan juga bahwa mereka berwatak demikian itu lantaran telah menyimpang dari tuntunan kitab Allah, sehingga mereka tidak menyadari perbuatan mereka yang keji itu. Kemudian di dalam ayat-ayat ini Allah memerintahkan kepada Nabi Muhammad saw, agar menyampaikan wahyu yang telah diterima dengan tidak usah menghiraukan sikap orang-orang Yahudi yang memusuhinya, bahkan Nabi Muhammad saw, diperintahkan untuk menyeru mereka agar kembali kepada tuntunan Taurat dan Injil, agar mereka menjadi orang yang beragama tauhid dan menempuh jalan yang benar, sesuai tuntunan nabi-nabi yang telah di utus kepada mereka dengan silih berganti.",
        "theme_group": "KEWAJIBAN RASULULLAH SAW\nMENYAMPAIKAN AGAMA ISLAM",
        "kosakata": "Kosakata: Ballig \u0628\u064e\u0644\u0651\u0650\u063a\u0652 (al-M\u0101\u2019idah/5: 67)\nBallig artinya \u201csampaikanlah\u201d. Terambil dari kata al-bal\u0101g atau al-bul\u016bg yaitu \u201csampai ke tujuan yang dimaksud baik berupa tempat, masa atau lainnya\u201d. Sedangkan masdarnya tabl\u012bg artinya ajakan atau seruan dengan jelas dan gamblang, karena pada masa awal-awal Islam tablig tersebut disampaikan secara diam-diam dan sembunyi. Kata ballig dalam ayat tersebut tidak menyebutkan obyeknya, ini berarti bahwa segala sesuatu yang berkaitan dengan penyampaian ajaran agama yang diwahyukan kepada Nabi Muhammad. Ayat ini pun merupakan pelajaran yang indah bagi \u1e25am\u0101latul-\u2019ilmi (orang berilmu), agar tidak menyembunyikan sedikit pun dari ilmu yang ia miliki.",
        "sabab_nuzul": "Diriwayatkan oleh Ibnu Mardawaih dan Diya\u2019 dari Ibnu Abbas bahwa ayat ini diturunkan pada masa permulaan Islam dan masa permulaan Rasul diperintahkan Allah melakukan dakwah secara umum. Sebagian mufasir memandang, bahwa perintah Allah kepada Rasul untuk melakukan dakwah tersebut secara khusus kepada Ahli Kitab dan yang harus disampaikan itu ialah yang dikandung oleh ayat berikut ini. Selanjutnya menurut Ibnu Mardawaih, Ibnu Abbas berkata:\n\nRasulullah ditanya, \u201cAyat manakah yang turun dari langit yang sangat berat bagimu.\u201d Rasulullah berkata, \u201cAku sedang berada di Mina pada suatu musim, sedang orang-orang musyrik Arab dan masyarakat awam berkumpul pada musim tersebut. Maka datanglah kepadaku Jibril membacakan ayat ini. Kata Nabi, \u201cLantas aku berdiri di Aqobah lalu menyeru, \u201cWahai sekalian manusia siapakah di antaramu yang menolong aku untuk menyampaikan amanat-amanat Tuhanku dan kamu akan memperoleh surga. Hai sekalian manusia katakanlah tidak ada tuhan melainkan Allah dan aku (Muhammad) adalah utusan Allah kepadamu niscaya kamu akan berbahagia, selamat sentosa dan kamu memperoleh surga.\u201d Kata Nabi, \u201cTidak ada seorang pun baik laki-laki maupun perempuan, baik hamba sahaya perempuan dan anak-anak kecil, melainkan semua mereka itu melempariku dengan tanah dan batu sambil berteriak \u201cPendusta yang murtad.\u201d Kemudian muncullah seseorang dan berkata, \u201cHai Muhammad jika engkau Rasulullah maka sudah sampailah waktunya engkau mendoakan kecelakaan atas mereka itu sebaigamana Nabi Nuh mendoakan kecelakaan atas kaumnya. Maka berkata Rasulullah saw, \u201cHai Tuhanku berilah petunjuk kaumku ini, karena mereka tidak mengetahui dan tolonglah aku supaya mereka mengikuti ajakan-ajakanku agar mereka taat kepada-Mu.\u201d Kemudian datanglah Abbas paman Rasul menolongnya dan mengusir orang-orang itu.\u201d228)",
        "conclusion": null
    }
}