{
    "id": 685,
    "surah_id": 5,
    "ayah": 16,
    "page": 110,
    "quarter_hizb": 11.75,
    "juz": 6,
    "manzil": 2,
    "arabic": "\u064a\u0651\u064e\u0647\u0652\u062f\u0650\u064a\u0652 \u0628\u0650\u0647\u0650 \u0627\u0644\u0644\u0651\u0670\u0647\u064f \u0645\u064e\u0646\u0650 \u0627\u062a\u0651\u064e\u0628\u064e\u0639\u064e \u0631\u0650\u0636\u0652\u0648\u064e\u0627\u0646\u064e\u0647\u0657 \u0633\u064f\u0628\u064f\u0644\u064e \u0627\u0644\u0633\u0651\u064e\u0644\u0670\u0645\u0650 \u0648\u064e\u064a\u064f\u062e\u0652\u0631\u0650\u062c\u064f\u0647\u064f\u0645\u0652 \u0645\u0651\u0650\u0646\u064e \u0627\u0644\u0638\u0651\u064f\u0644\u064f\u0645\u0670\u062a\u0650 \u0627\u0650\u0644\u064e\u0649 \u0627\u0644\u0646\u0651\u064f\u0648\u0652\u0631\u0650 \u0628\u0650\u0627\u0650\u0630\u0652\u0646\u0650\u0647\u0656 \u0648\u064e\u064a\u064e\u0647\u0652\u062f\u0650\u064a\u0652\u0647\u0650\u0645\u0652 \u0627\u0650\u0644\u0670\u0649 \u0635\u0650\u0631\u064e\u0627\u0637\u064d \u0645\u0651\u064f\u0633\u0652\u062a\u064e\u0642\u0650\u064a\u0652\u0645\u064d",
    "latin": "Yahd\u012b bihill\u0101hi manittaba\u2018a ri\u1e0dw\u0101nah\u016b subulas-sal\u0101mi wa yukhrijuhum mina\u1e93-\u1e93ulum\u0101ti ilan-n\u016bri bi'i\u017cnih\u012b wa yahd\u012bhim il\u0101 \u1e63ir\u0101\u1e6dim mustaq\u012bm(in).",
    "translation": "Dengannya (kitab suci) Allah menunjukkan kepada orang yang mengikuti rida-Nya jalan-jalan keselamatan, mengeluarkannya dari berbagai kegelapan menuju cahaya dengan izin-Nya, dan menunjukkan kepadanya (satu) jalan yang lurus.",
    "no_footnote": null,
    "footnotes": null,
    "surah": {
        "id": 5,
        "arabic": " \u0627\u0644\u0645\u0627\u06e4\u0626\u062f\u0629",
        "latin": "Al-M\u0101'idah",
        "transliteration": "Al-Ma'idah",
        "translation": "Hidangan",
        "num_ayah": 120,
        "page": 106,
        "location": "Madaniyah"
    },
    "tafsir": {
        "wajiz": "Allah menyatakan sekali lagi pada ayat ini jalan keselamatan bagi orang-orang yang beriman yaitu dengan mengikuti petunjuk dan tuntunan kitab suci Al-Qur\u2019an. Dengan Kitab itulah Allah memberi petunjuk kepada orang yang dengan sungguh-sungguh mengikuti keridaan-Nya, mengantarkan ke jalan keselamatan, yaitu dengan beriman kepada-Nya, dan dengan kitab itu pula Allah mengeluarkan orang itu dari gelap gulita, yaitu kegelapan kufur kepada Allah dan mengantarkan kepada cahaya, yaitu iman kepada Allah, dengan izin-Nya, dan menunjukkan ke jalan yang lurus, jalan kebahagiaan, baik di dunia maupun di akhirat.",
        "tahlili": "Ayat ini menerangkan bahwa dengan Al-Qur\u2019an Allah memimpin dan menunjuki orang-orang yang mengikuti keridaan-Nya ke jalan keselamatan dunia dan akhirat serta mengeluarkan mereka dari alam yang gelap ke alam yang terang dan menunjuki mereka jalan yang benar.\nAyat ini menerangkan tiga macam tuntunan yang besar faedahnya yaitu:\na.\tMematuhi ajaran Al-Qur\u2019an akan membawa manusia kepada kesela-matan dan kebahagiaan.\nb.\tMenaati ajaran Al-Qur\u2019an akan membebaskan manusia dari segala macam kesesatan yang ditimbulkan oleh perbuatan tahayul dan khurafat.\nc.\tMematuhi Al-Qur\u2019an akan menyampaikan manusia kepada tujuan terakhir dari agama, yaitu kebahagiaan dunia dan kebahagiaan akhirat.",
        "intro_surah": "Surah al-M\u0101\u2019idah terdiri dari 120 ayat, termasuk golongan surah Madaniyah. Sekalipun ada ayatnya yang turun di Mekah namun ayat ini diturunkan sesudah Nabi Muhammad saw, hijrah ke Medinah pada waktu haji wada\u2019.\nSurah ini dinamakan al-M\u0101\u2019idah (Hidangan), karena menurut kisah, pengikut-pengikut setia Nabi Isa meminta kepada Nabi Isa agar Allah menurunkan untuk mereka al-m\u0101\u2019idah (hidangan makanan) dari langit (ayat 112). Dinamakan dengan al-\u2018Uq\u016bd (perjanjian), karena kata itu terdapat pada ayat pertama Surah ini, Allah menyuruh agar hamba-hamba-Nya memenuhi janji prasetia mereka terhadap Allah dan perjanjian-perjanjian yang mereka buat sesamanya.\nDinamakan juga al-Munqi\u017c (yang menyelamatkan), karena akhir surah ini mengandung kisah tentang Nabi Isa sebagai penyelamat pengikut-pengikut setianya dari azab Allah.\n\nPokok-pokok Isinya\n1.\tKeimanan:\n\tBantahan terhadap orang yang menganggap Nabi Isa sebagai Tuhan.\n2.\tHukum-hukum:\nKeharusan memenuhi perjanjian, melanggar syiar Allah, makanan yang dihalalkan dan yang diharamkan, hukum mengawini perempuan Ahli Kitab, wudu, tayamum, mandi, hukum membunuh orang, mengacau dan mengganggu keamanan, melanggar sumpah dan kafaratnya, berjudi, berkorban untuk berhala, mengundi nasib, membunuh binatang waktu ihram dan persaksian dalam berwasiat.\n3. \tKisah-kisah:\nNabi Musa menyuruh kaumnya memasuki Palestina, kisah Habil dan Qabil, dan kisah Nabi Isa.\n4.\tLain-lain:\nKeharusan bersikap lemah-lembut terhadap sesama mukmin, bersikap keras terhadap orang-orang kafir, penyempurnaan agama Islam di zaman Nabi Muhammad saw, keharusan jujur dan berlaku adil, sikap dalam menghadapi berita-berita bohong, akibat berteman akrab dengan orang yang bukan Muslim; kutukan Allah terhadap orang-orang Yahudi, kewajiban rasul hanya menyampaikan agama, sikap Yahudi dan Nasrani terhadap Islam, Ka\u2019bah sakaguru kehidupan manusia, peringatan Allah supaya meninggalkan adat jahiliah dan larangan-larangan terhadap pertanyaan-pertanyaan yang mengakibatkan kesulitan menjalankan agama.",
        "outro_surah": null,
        "munasabah_prev_surah": "Hubungan Surah an-Nis\u0101\u2019 dengan al-M\u0101\u2019idah:\n1.\tSurah an-Nis\u0101\u2019 menerangkan beberapa macam akad, seperti perkawinan, perceraian, warisan, perjanjian, wasiat dan sebagainya, sedang permulaan Surah al-M\u0101\u2019idah menyatakan supaya hamba-hamba Allah memenuhi segala macam akad yang telah dilakukan, baik terhadap Allah, maupun terhadap sesama manusia, di samping menerangkan akad-akad yang lain.\n2.\tSurah an-Nis\u0101\u2019 mengemukakan hukum secara umum dan mendapat jalan untuk menetapkan suatu hukum, kemudian Surah al-M\u0101\u2019idah menjelaskan dan menegaskan hukum-hukum itu.\n3.\tSebagaimana halnya Surah al-Baqarah dan Surah \u0100li \u2018Imr\u0101n mengemukakan hal-hal yang berhubungan dengan pokok-pokok ajaran, seperti keesaan Allah dan kenabian, maka Surah an-Nis\u0101\u2019 dan al-M\u0101\u2019idah menerangkan tentang fur\u016b\u2019 agama (hukum fiqh), seperti hal-hal yang berhubungan dengan hukum keluarga dan sebagainya.\n4.\tAkhir Surah an-Nis\u0101\u2019 mengemukakan hujah-hujah atas kekeliruan orang-orang Yahudi dan Nasrani, serta kekeliruan kaum musyrik dan munafik. Hal yang serupa diterangkan secara panjang lebar dalam Surah al-M\u0101\u2019idah.\n5.\tSurah an-Nis\u0101\u2019 dimulai dengan Y\u0101 ayyuhan-n\u0101s (wahai manusia) yang nadanya sama dengan surah Makiyah, sedang Surah al-M\u0101\u2019idah seperti surah-surah Madaniyah, dimulai dengan Y\u0101 ayyuhalla\u017c\u012bna \u0101man\u016b (wahai orang yang beriman) Hal ini menyatakan sekalipun nadanya berbeda, tetapi yang dituju oleh kedua surah itu ialah semua manusia.",
        "munasabah_prev_theme": "Setelah ayat-ayat yang lalu menerangkan bahwa orang-orang Yahudi dan Nasrani selalu mengingkari janji, dan mereka menghilangkan dan melupakan sebagian dari wahyu yang diturunkan kepada nabi-nabi mereka, maka ayat ini mengungkapkan beberapa hal yang mereka sembunyikan dari isi Alkitab yang asli (Taurat dan Injil), kemudian mengajak mereka beriman kepada Nabi Muhammad saw yang sifat-sifatnya mereka sembunyikan.",
        "theme_group": "AL-QUR\u2019AN MENYINGKAPKAN HUKUM-HUKUM\nYANG DISEMBUNYIKAN AHLI KITAB",
        "kosakata": "Kosakata: N\u016br \u0646\u064f\u0648\u0652\u0631(al-M\u0101\u2019idah/5: 15)\nAn-n\u016br dari sisi materi adalah \u201ccahaya yang memancar yang bisa ditangkap oleh indra penglihatan\u201d. Dari sisi maknawi n\u016br berarti \u201csesuatu yang terkait dengan urusan agama yang membantu menerangi akal atau hati nurani\u201d. Dalam ayat ini para ulama menafsirkan kata n\u016br dengan Nabi Muhammad saw. Karena pada ayat yang sama disebutkan, \u201cTelah datang Utusan Kami, Rasul dan Kitab yang jelas yaitu Al-Qur\u2019an.\u201d Allah telah menjadikan Rasul dengan Al-Qur\u2019an yang diturunkan kepadanya sebagai seorang pemberi hidayah bagi orang-orang yang mengikuti jalan Allah, mengeluarkan mereka dari kesesatan, nurani dan akal, kepada jalan lurus yang dilandasi keimanan, dalam hal ini Rasul diserupakan dengan n\u016br (cahaya) karena sama-sama memberi pencerahan.",
        "sabab_nuzul": null,
        "conclusion": "1.\tNabi Muhammad saw dengan Al-Qur\u2019an, telah mengungkapkan sebagian dari apa yang disembunyikan oleh Ahli Kitab tentang syariat Allah yang disebutkan dalam Taurat dan Injil, seperti hukum rajam tetapi masih banyak sekali hal-hal yang ditinggalkan begitu saja, tidak diungkapkan.\n2.\tNabi Muhammad adalah cahaya yang menerangi umat manusia di alam gelap dan mengubah mereka dari alam kejahilan ke alam yang terang benderang dengan keimanan dan ilmu pengetahuan."
    }
}