{
    "id": 731,
    "surah_id": 5,
    "ayah": 62,
    "page": 118,
    "quarter_hizb": 12.5,
    "juz": 6,
    "manzil": 2,
    "arabic": "\u0648\u064e\u062a\u064e\u0631\u0670\u0649 \u0643\u064e\u062b\u0650\u064a\u0652\u0631\u064b\u0627 \u0645\u0651\u0650\u0646\u0652\u0647\u064f\u0645\u0652 \u064a\u064f\u0633\u064e\u0627\u0631\u0650\u0639\u064f\u0648\u0652\u0646\u064e \u0641\u0650\u0649 \u0627\u0644\u0652\u0627\u0650\u062b\u0652\u0645\u0650 \u0648\u064e\u0627\u0644\u0652\u0639\u064f\u062f\u0652\u0648\u064e\u0627\u0646\u0650 \u0648\u064e\u0627\u064e\u0643\u0652\u0644\u0650\u0647\u0650\u0645\u064f \u0627\u0644\u0633\u0651\u064f\u062d\u0652\u062a\u064e\u06d7  \u0644\u064e\u0628\u0650\u0626\u0652\u0633\u064e \u0645\u064e\u0627 \u0643\u064e\u0627\u0646\u064f\u0648\u0652\u0627 \u064a\u064e\u0639\u0652\u0645\u064e\u0644\u064f\u0648\u0652\u0646\u064e",
    "latin": "Wa tar\u0101 ka\u1e61\u012bram minhum yus\u0101ri\u2018\u016bna fil-i\u1e61mi wal-\u2018udw\u0101ni wa aklihimus-su\u1e25t(a), labi'sa m\u0101 k\u0101n\u016b ya\u2018mal\u016bn(a).",
    "translation": "Kamu akan melihat banyak di antara mereka (Ahlulkitab) berlomba-lomba dalam perbuatan dosa, permusuhan, dan memakan (makanan) yang haram. Sungguh, itulah seburuk-buruk apa yang selalu mereka kerjakan.",
    "no_footnote": null,
    "footnotes": null,
    "surah": {
        "id": 5,
        "arabic": " \u0627\u0644\u0645\u0627\u06e4\u0626\u062f\u0629",
        "latin": "Al-M\u0101'idah",
        "transliteration": "Al-Ma'idah",
        "translation": "Hidangan",
        "num_ayah": 120,
        "page": 106,
        "location": "Madaniyah"
    },
    "tafsir": {
        "wajiz": "Selanjutnya Allah memberikan informasi kepada nabi dan rasul-Nya,\" Kamu, wahai Nabi Muhammad, akan melihat banyak di antara mereka, yaitu orang Yahudi yang berlomba dalam berbuat dosa, menimbulkan permusuhan, baik di antara mereka sendiri maupun dengan orang mukmin, dan memakan yang haram tanpa menghiraukan syariat yang telah ditetapkan Tuhan. Sungguh, sangat buruk apa saja yang telah mereka perbuat dan yang mereka kerjakan.\"",
        "tahlili": "Ayat ini menjelaskan pula sesuatu yang maksudnya sebagai berikut: \u201cDan engkau ya Muhammad, akan melihat banyak di antara orang-orang Yahudi menjadikan agamamu sebagai bahan ejekan dan permainan. Mereka segera melanjutkan dan meneruskan perbuatan dosa dan permusuhan, dengan perkataan, seperti mengejek, menghina, membohong dan sebagainya. Selain itu mereka senantiasa makan yang haram, seperti riba, uang suap, korupsi dan sebagainya.\nSelanjutnya Allah berfirman yang maksudnya: \u201cSesungguhnya amat buruklah apa yang telah mereka kerjakan itu\u201d, karena pada hakikatnya mereka telah menenggelamkan diri sendiri ke dalam lautan kejahatan yang tidak berpantai, sehingga mereka tidak dapat ditolong lagi.",
        "intro_surah": "Surah al-M\u0101\u2019idah terdiri dari 120 ayat, termasuk golongan surah Madaniyah. Sekalipun ada ayatnya yang turun di Mekah namun ayat ini diturunkan sesudah Nabi Muhammad saw, hijrah ke Medinah pada waktu haji wada\u2019.\nSurah ini dinamakan al-M\u0101\u2019idah (Hidangan), karena menurut kisah, pengikut-pengikut setia Nabi Isa meminta kepada Nabi Isa agar Allah menurunkan untuk mereka al-m\u0101\u2019idah (hidangan makanan) dari langit (ayat 112). Dinamakan dengan al-\u2018Uq\u016bd (perjanjian), karena kata itu terdapat pada ayat pertama Surah ini, Allah menyuruh agar hamba-hamba-Nya memenuhi janji prasetia mereka terhadap Allah dan perjanjian-perjanjian yang mereka buat sesamanya.\nDinamakan juga al-Munqi\u017c (yang menyelamatkan), karena akhir surah ini mengandung kisah tentang Nabi Isa sebagai penyelamat pengikut-pengikut setianya dari azab Allah.\n\nPokok-pokok Isinya\n1.\tKeimanan:\n\tBantahan terhadap orang yang menganggap Nabi Isa sebagai Tuhan.\n2.\tHukum-hukum:\nKeharusan memenuhi perjanjian, melanggar syiar Allah, makanan yang dihalalkan dan yang diharamkan, hukum mengawini perempuan Ahli Kitab, wudu, tayamum, mandi, hukum membunuh orang, mengacau dan mengganggu keamanan, melanggar sumpah dan kafaratnya, berjudi, berkorban untuk berhala, mengundi nasib, membunuh binatang waktu ihram dan persaksian dalam berwasiat.\n3. \tKisah-kisah:\nNabi Musa menyuruh kaumnya memasuki Palestina, kisah Habil dan Qabil, dan kisah Nabi Isa.\n4.\tLain-lain:\nKeharusan bersikap lemah-lembut terhadap sesama mukmin, bersikap keras terhadap orang-orang kafir, penyempurnaan agama Islam di zaman Nabi Muhammad saw, keharusan jujur dan berlaku adil, sikap dalam menghadapi berita-berita bohong, akibat berteman akrab dengan orang yang bukan Muslim; kutukan Allah terhadap orang-orang Yahudi, kewajiban rasul hanya menyampaikan agama, sikap Yahudi dan Nasrani terhadap Islam, Ka\u2019bah sakaguru kehidupan manusia, peringatan Allah supaya meninggalkan adat jahiliah dan larangan-larangan terhadap pertanyaan-pertanyaan yang mengakibatkan kesulitan menjalankan agama.",
        "outro_surah": null,
        "munasabah_prev_surah": "Hubungan Surah an-Nis\u0101\u2019 dengan al-M\u0101\u2019idah:\n1.\tSurah an-Nis\u0101\u2019 menerangkan beberapa macam akad, seperti perkawinan, perceraian, warisan, perjanjian, wasiat dan sebagainya, sedang permulaan Surah al-M\u0101\u2019idah menyatakan supaya hamba-hamba Allah memenuhi segala macam akad yang telah dilakukan, baik terhadap Allah, maupun terhadap sesama manusia, di samping menerangkan akad-akad yang lain.\n2.\tSurah an-Nis\u0101\u2019 mengemukakan hukum secara umum dan mendapat jalan untuk menetapkan suatu hukum, kemudian Surah al-M\u0101\u2019idah menjelaskan dan menegaskan hukum-hukum itu.\n3.\tSebagaimana halnya Surah al-Baqarah dan Surah \u0100li \u2018Imr\u0101n mengemukakan hal-hal yang berhubungan dengan pokok-pokok ajaran, seperti keesaan Allah dan kenabian, maka Surah an-Nis\u0101\u2019 dan al-M\u0101\u2019idah menerangkan tentang fur\u016b\u2019 agama (hukum fiqh), seperti hal-hal yang berhubungan dengan hukum keluarga dan sebagainya.\n4.\tAkhir Surah an-Nis\u0101\u2019 mengemukakan hujah-hujah atas kekeliruan orang-orang Yahudi dan Nasrani, serta kekeliruan kaum musyrik dan munafik. Hal yang serupa diterangkan secara panjang lebar dalam Surah al-M\u0101\u2019idah.\n5.\tSurah an-Nis\u0101\u2019 dimulai dengan Y\u0101 ayyuhan-n\u0101s (wahai manusia) yang nadanya sama dengan surah Makiyah, sedang Surah al-M\u0101\u2019idah seperti surah-surah Madaniyah, dimulai dengan Y\u0101 ayyuhalla\u017c\u012bna \u0101man\u016b (wahai orang yang beriman) Hal ini menyatakan sekalipun nadanya berbeda, tetapi yang dituju oleh kedua surah itu ialah semua manusia.",
        "munasabah_prev_theme": "Setelah beberapa ayat yang lalu melarang orang-orang mukmin menjadikan orang-orang Yahudi dan Nasrani sebagai teman akrab, pelindung dan penolong dengan menerangkan sebab-sebabnya, kemudian menyatakan bahwa pelindung dan penolong mereka hanyalah Allah, Rasul-Nya dan orang-orang yang beriman, maka pada ayat ini Allah melarang pula orang-orang mukmin menjadikan orang-orang kafir pada umumnya sebagai pelindung dan penolong, baik kafir asli, seperti para penyembah api dan sebagainya, maupun kafir yang berasal dari Ahli Kitab dan lain-lainnya.",
        "theme_group": "LARANGAN MENJADIKAN ORANG KAFIR\nSEBAGAI PELINDUNG DAN PENOLONG",
        "kosakata": "Kosakata: Tanqim\u016bn \u062a\u064e\u0646\u0652\u0642\u0650\u0645\u064f\u0648\u0652\u0646\u064e (al-M\u0101\u2019idah/5: 59)\nTanqim\u016bn berasal dari kata kerja naqama-yanqimu masdarnya an-niqmah yang artinya \u201cmengingkari\u201d, dan \u201cmencela baik dengan perkataan maupun dengan hukuman\u201d. Dalam ayat ini kata tanqim\u016bn dipergunakan untuk arti menganggap salah dan mencela. Ahli Kitab mencela umat Islam karena mengikuti syariat yang diwahyukan kepada Rasulullah saw., dan tidak mengikuti syariat mereka. Celaan Ahli Kitab ini pada dasarnya dilandasi ketidaksenangan mereka terhadap Nabi saw., yang membawa syariat baru untuk menggantikan syariat yang mereka anut. Keadaan demikian mereka tunjukkan dengan selalu menyalahkan sikap dan kegiatan yang dilakukan umat Islam.",
        "sabab_nuzul": null,
        "conclusion": null
    }
}