{
    "id": 692,
    "surah_id": 5,
    "ayah": 23,
    "page": 111,
    "quarter_hizb": 11.75,
    "juz": 6,
    "manzil": 2,
    "arabic": "\u0642\u064e\u0627\u0644\u064e \u0631\u064e\u062c\u064f\u0644\u064e\u0627\u0646\u0650 \u0645\u0650\u0646\u064e \u0627\u0644\u0651\u064e\u0630\u0650\u064a\u0652\u0646\u064e \u064a\u064e\u062e\u064e\u0627\u0641\u064f\u0648\u0652\u0646\u064e \u0627\u064e\u0646\u0652\u0639\u064e\u0645\u064e \u0627\u0644\u0644\u0651\u0670\u0647\u064f \u0639\u064e\u0644\u064e\u064a\u0652\u0647\u0650\u0645\u064e\u0627 \u0627\u062f\u0652\u062e\u064f\u0644\u064f\u0648\u0652\u0627 \u0639\u064e\u0644\u064e\u064a\u0652\u0647\u0650\u0645\u064f \u0627\u0644\u0652\u0628\u064e\u0627\u0628\u064e\u06da \u0641\u064e\u0627\u0650\u0630\u064e\u0627 \u062f\u064e\u062e\u064e\u0644\u0652\u062a\u064f\u0645\u064f\u0648\u0652\u0647\u064f \u0641\u064e\u0627\u0650\u0646\u0651\u064e\u0643\u064f\u0645\u0652 \u063a\u0670\u0644\u0650\u0628\u064f\u0648\u0652\u0646\u064e \u06d5\u06d9 \u0648\u064e\u0639\u064e\u0644\u064e\u0649 \u0627\u0644\u0644\u0651\u0670\u0647\u0650 \u0641\u064e\u062a\u064e\u0648\u064e\u0643\u0651\u064e\u0644\u064f\u0648\u0652\u0653\u0627 \u0627\u0650\u0646\u0652 \u0643\u064f\u0646\u0652\u062a\u064f\u0645\u0652 \u0645\u0651\u064f\u0624\u0652\u0645\u0650\u0646\u0650\u064a\u0652\u0646\u064e",
    "latin": "Q\u0101la rajul\u0101ni minal-la\u017c\u012bna yakh\u0101f\u016bna an\u2018amall\u0101hu \u2018alaihimadkhul\u016b \u2018alaihimul-b\u0101b(a), fa i\u017c\u0101 dakhaltum\u016bhu fa innakum g\u0101lib\u016bn(a), wa \u2018alall\u0101hi fa tawakkal\u016b in kuntum mu'min\u012bn(a).",
    "translation": "Berkatalah dua orang laki-laki di antara mereka yang bertakwa, yang keduanya telah diberi nikmat oleh Allah, \u201cMasukilah pintu gerbang negeri itu untuk (menyerang) mereka (penduduk Baitulmaqdis). Jika kamu memasukinya, kamu pasti akan menang. Bertawakallah hanya kepada Allah, jika kamu orang-orang mukmin.\u201d",
    "no_footnote": null,
    "footnotes": null,
    "surah": {
        "id": 5,
        "arabic": " \u0627\u0644\u0645\u0627\u06e4\u0626\u062f\u0629",
        "latin": "Al-M\u0101'idah",
        "transliteration": "Al-Ma'idah",
        "translation": "Hidangan",
        "num_ayah": 120,
        "page": 106,
        "location": "Madaniyah"
    },
    "tafsir": {
        "wajiz": "Di antara orang-orang Bani Israil itu ada dua orang yang setia dan taat kepada perintah Nabi Musa, yaitu Yosua bin Nun dan Kalaeb bin Yefune, keduanya adalah pemimpin-pemimpin Bani Israil yang semuanya ada dua belas orang sebagaimana disebut dalam ayat 12 surah ini. Berkatalah dua orang laki-laki di antara mereka yang bertakwa, orang yang takut kepada Allah, atau di antara mereka yang takut kepada para penjahat yang perkasa itu, yang telah diberi nikmat oleh Allah, dengan penuh semangat, \u201cSerbulah mereka melalui pintu gerbang negeri itu. Jika kamu memasukinya niscaya kamu akan menang. Dan Allah telah menjanjikan kemenangan itu, maka bertawakallah kamu hanya kepada Allah, jika kamu orang-orang yang beriman dengan sebenar-benar iman kepada Allah.\u201d",
        "tahlili": "Setelah terungkap sikap kaum Nabi Musa dalam hal memasuki tanah suci dan berdiam di dalamnya, maka dua orang utusan dari kaum Nabi Musa yang memang bertakwa kepada Allah dan telah diberi kenikmatan dan memperoleh keridaan-Nya, menganjurkan kepada teman-temannya agar mereka segera memasuki pintu Baitulmakdis.(Kedua orang yang saleh ini ialah Yosua bin Nun dan Kalaeb bin Yefune yang diceritakan panjang lebar dalam Kitab Bilangan 13 dan 14). Apabila mereka telah memasukinya pasti mereka akan menang dan dapat mengusir penduduknya yang kuat itu. Karena kemenangan itu diperoleh atas pertolongan Allah yang telah dijanjikan, yang pasti akan ditepatinya. ",
        "intro_surah": "Surah al-M\u0101\u2019idah terdiri dari 120 ayat, termasuk golongan surah Madaniyah. Sekalipun ada ayatnya yang turun di Mekah namun ayat ini diturunkan sesudah Nabi Muhammad saw, hijrah ke Medinah pada waktu haji wada\u2019.\nSurah ini dinamakan al-M\u0101\u2019idah (Hidangan), karena menurut kisah, pengikut-pengikut setia Nabi Isa meminta kepada Nabi Isa agar Allah menurunkan untuk mereka al-m\u0101\u2019idah (hidangan makanan) dari langit (ayat 112). Dinamakan dengan al-\u2018Uq\u016bd (perjanjian), karena kata itu terdapat pada ayat pertama Surah ini, Allah menyuruh agar hamba-hamba-Nya memenuhi janji prasetia mereka terhadap Allah dan perjanjian-perjanjian yang mereka buat sesamanya.\nDinamakan juga al-Munqi\u017c (yang menyelamatkan), karena akhir surah ini mengandung kisah tentang Nabi Isa sebagai penyelamat pengikut-pengikut setianya dari azab Allah.\n\nPokok-pokok Isinya\n1.\tKeimanan:\n\tBantahan terhadap orang yang menganggap Nabi Isa sebagai Tuhan.\n2.\tHukum-hukum:\nKeharusan memenuhi perjanjian, melanggar syiar Allah, makanan yang dihalalkan dan yang diharamkan, hukum mengawini perempuan Ahli Kitab, wudu, tayamum, mandi, hukum membunuh orang, mengacau dan mengganggu keamanan, melanggar sumpah dan kafaratnya, berjudi, berkorban untuk berhala, mengundi nasib, membunuh binatang waktu ihram dan persaksian dalam berwasiat.\n3. \tKisah-kisah:\nNabi Musa menyuruh kaumnya memasuki Palestina, kisah Habil dan Qabil, dan kisah Nabi Isa.\n4.\tLain-lain:\nKeharusan bersikap lemah-lembut terhadap sesama mukmin, bersikap keras terhadap orang-orang kafir, penyempurnaan agama Islam di zaman Nabi Muhammad saw, keharusan jujur dan berlaku adil, sikap dalam menghadapi berita-berita bohong, akibat berteman akrab dengan orang yang bukan Muslim; kutukan Allah terhadap orang-orang Yahudi, kewajiban rasul hanya menyampaikan agama, sikap Yahudi dan Nasrani terhadap Islam, Ka\u2019bah sakaguru kehidupan manusia, peringatan Allah supaya meninggalkan adat jahiliah dan larangan-larangan terhadap pertanyaan-pertanyaan yang mengakibatkan kesulitan menjalankan agama.",
        "outro_surah": null,
        "munasabah_prev_surah": "Hubungan Surah an-Nis\u0101\u2019 dengan al-M\u0101\u2019idah:\n1.\tSurah an-Nis\u0101\u2019 menerangkan beberapa macam akad, seperti perkawinan, perceraian, warisan, perjanjian, wasiat dan sebagainya, sedang permulaan Surah al-M\u0101\u2019idah menyatakan supaya hamba-hamba Allah memenuhi segala macam akad yang telah dilakukan, baik terhadap Allah, maupun terhadap sesama manusia, di samping menerangkan akad-akad yang lain.\n2.\tSurah an-Nis\u0101\u2019 mengemukakan hukum secara umum dan mendapat jalan untuk menetapkan suatu hukum, kemudian Surah al-M\u0101\u2019idah menjelaskan dan menegaskan hukum-hukum itu.\n3.\tSebagaimana halnya Surah al-Baqarah dan Surah \u0100li \u2018Imr\u0101n mengemukakan hal-hal yang berhubungan dengan pokok-pokok ajaran, seperti keesaan Allah dan kenabian, maka Surah an-Nis\u0101\u2019 dan al-M\u0101\u2019idah menerangkan tentang fur\u016b\u2019 agama (hukum fiqh), seperti hal-hal yang berhubungan dengan hukum keluarga dan sebagainya.\n4.\tAkhir Surah an-Nis\u0101\u2019 mengemukakan hujah-hujah atas kekeliruan orang-orang Yahudi dan Nasrani, serta kekeliruan kaum musyrik dan munafik. Hal yang serupa diterangkan secara panjang lebar dalam Surah al-M\u0101\u2019idah.\n5.\tSurah an-Nis\u0101\u2019 dimulai dengan Y\u0101 ayyuhan-n\u0101s (wahai manusia) yang nadanya sama dengan surah Makiyah, sedang Surah al-M\u0101\u2019idah seperti surah-surah Madaniyah, dimulai dengan Y\u0101 ayyuhalla\u017c\u012bna \u0101man\u016b (wahai orang yang beriman) Hal ini menyatakan sekalipun nadanya berbeda, tetapi yang dituju oleh kedua surah itu ialah semua manusia.",
        "munasabah_prev_theme": "Pada ayat-ayat yang lalu dikemukakan kepada orang-orang Bani Israil bukti-bukti sebagai hujah bagi kebenaran kenabian dan kerasulan Nabi Muhammad yang sebagian telah diubah-ubah dan sebagian lagi telah dilupakan. Kemudian disebutkan pula keadaan mereka yang telah menerima berita gembira tentang kedatangan Muhammad yang ditanggapi dengan tidak wajar karena telah dikalahkan oleh tipu daya mereka sendiri. Karena itu mereka tetap dalam kekafiran. \nPada ayat-ayat ini diterangkan keadaan Nabi Musa yang menyelamatkan mereka dan perbudakan Firaun dan membawa mereka kepada kebebasan dan kemerdekaan. Meskipun demikian, mereka tidak juga taat kepada Nabi Musa. Hal ini patut diketahui oleh Rasulullah saw, untuk dijadikan perbandingan agar beliau dapat mengetahui bagaimana sikap umat-umat yang terdahulu terhadap Nabi mereka. Dengan demikian terhiburlah hati \nbeliau dalam menghadapi keingkaran dan kesombongan kaumnya sendiri.",
        "theme_group": "KEENGGANAN YAHUDI MENAATI\nPERINGATAN NABI MUSA A.S. MEMASUKI PALESTINA\nDAN AKIBATNYA",
        "kosakata": "Kosakata: Al-Jabb\u0101r \u0627\u064e\u0644\u0652\u062c\u064e\u0628\u0651\u064e\u0627\u0631\u0652 (al-M\u0101\u2019idah/5: 22)\nAl-jabb\u0101r terambil dari kata al-jabr artinya \u201cyang kuat\u201d, \u201cyang suka memaksa\u201d, karena orang yang kuat selalu memaksa orang lain untuk melakukan apa yang diinginkannya. Sedangkan al-jabb\u0101r adalah \u201corang-orang yang bersifat suka memaksa, baik karena ketinggian kedudukannya atau kesombongannya\u201d. Kata ini hanya digunakan untuk mencela para penguasa yang zalim karena mereka menolak kebenaran dan tidak percaya pada kebenaran itu. Dalam ayat ini, Musa menghimbau Bani Israil untuk memerangi orang-orang Kan\u2019an dengan lebih dahulu mengingatkan mereka bahwa semua kenikmatan yang diberikan oleh Allah adalah untuk menyiapkan mental menerima perintah tersebut, demi mencapai kemenangan yang dijanjikan Allah, jika mereka benar-benar berperang dengan tulus ikhlas dan tidak lari dari peperangan. Orang-orang Israil menolak perintah Musa dengan alasan takut kepada orang-orang jabb\u0101r\u012bn dari suku Kanaan. Mereka baru mau masuk ke daerah tersebut jika orang-orang jabb\u0101r\u012bn, penguasa zalim itu, telah pergi. Ini menunjukkan pembangkangan Bani Israil terhadap perintah Allah dan Nabi Musa. ",
        "sabab_nuzul": null,
        "conclusion": null
    }
}