{
    "id": 720,
    "surah_id": 5,
    "ayah": 51,
    "page": 117,
    "quarter_hizb": 12.5,
    "juz": 6,
    "manzil": 2,
    "arabic": "\u06de \u064a\u0670\u0653\u0627\u064e\u064a\u0651\u064f\u0647\u064e\u0627 \u0627\u0644\u0651\u064e\u0630\u0650\u064a\u0652\u0646\u064e \u0627\u0670\u0645\u064e\u0646\u064f\u0648\u0652\u0627 \u0644\u064e\u0627 \u062a\u064e\u062a\u0651\u064e\u062e\u0650\u0630\u064f\u0648\u0627 \u0627\u0644\u0652\u064a\u064e\u0647\u064f\u0648\u0652\u062f\u064e \u0648\u064e\u0627\u0644\u0646\u0651\u064e\u0635\u0670\u0631\u0670\u0653\u0649 \u0627\u064e\u0648\u0652\u0644\u0650\u064a\u064e\u0627\u06e4\u0621\u064e \u06d8 \u0628\u064e\u0639\u0652\u0636\u064f\u0647\u064f\u0645\u0652 \u0627\u064e\u0648\u0652\u0644\u0650\u064a\u064e\u0627\u06e4\u0621\u064f \u0628\u064e\u0639\u0652\u0636\u064d\u06d7 \u0648\u064e\u0645\u064e\u0646\u0652 \u064a\u0651\u064e\u062a\u064e\u0648\u064e\u0644\u0651\u064e\u0647\u064f\u0645\u0652 \u0645\u0651\u0650\u0646\u0652\u0643\u064f\u0645\u0652 \u0641\u064e\u0627\u0650\u0646\u0651\u064e\u0647\u0657 \u0645\u0650\u0646\u0652\u0647\u064f\u0645\u0652 \u06d7 \u0627\u0650\u0646\u0651\u064e \u0627\u0644\u0644\u0651\u0670\u0647\u064e \u0644\u064e\u0627 \u064a\u064e\u0647\u0652\u062f\u0650\u0649 \u0627\u0644\u0652\u0642\u064e\u0648\u0652\u0645\u064e \u0627\u0644\u0638\u0651\u0670\u0644\u0650\u0645\u0650\u064a\u0652\u0646\u064e",
    "latin": "Y\u0101 ayyuhal-la\u017c\u012bna \u0101man\u016b l\u0101 tattakhi\u017cul-yah\u016bda wan-na\u1e63\u0101r\u0101 auliy\u0101'(a), ba\u2018\u1e0duhum auliy\u0101'u ba\u2018\u1e0d(in), wa may yatawallahum minkum fa innah\u016b minhum, innall\u0101ha l\u0101 yahdil-qauma\u1e93-\u1e93\u0101lim\u012bn(a).",
    "translation": "Wahai orang-orang yang beriman, janganlah kamu menjadikan orang Yahudi dan Nasrani sebagai teman setia(-mu).215) Sebagian mereka menjadi teman setia bagi sebagian yang lain. Siapa di antara kamu yang menjadikan mereka teman setia, maka sesungguhnya dia termasuk golongan mereka. Sesungguhnya Allah tidak memberi petunjuk kepada kaum yang zalim.",
    "no_footnote": "215",
    "footnotes": "215) Lihat catatan kaki surah \u0100li \u2018Imr\u0101n (3): 28.",
    "surah": {
        "id": 5,
        "arabic": " \u0627\u0644\u0645\u0627\u06e4\u0626\u062f\u0629",
        "latin": "Al-M\u0101'idah",
        "transliteration": "Al-Ma'idah",
        "translation": "Hidangan",
        "num_ayah": 120,
        "page": 106,
        "location": "Madaniyah"
    },
    "tafsir": {
        "wajiz": "Wahai orang-orang yang beriman! Ingatlah kamu semua, janganlah sekali-kali kamu menjadikan orang Yahudi dan Nasrani sebagai teman setia-mu karena akibat negatifnya lebih banyak ketimbang positifnya. Selain itu, mereka satu sama lain saling melindungi karena adanya persamaan kepentingan di antara mereka. Oleh karena itu, barang siapa di antara kamu yang tetap saja memilih dan menjadikan mereka sebagai teman setia dengan mengabaikan umat Islam, maka sesungguhnya dia termasuk golongan mereka yang sering kali mengabaikan ajaran-ajaran Allah. Sungguh, karena keingkaran mereka, Allah tidak akan memberi petunjuk kepada orang-orang yang ingkar dan zalim karena selalu mengabaikan tuntunan-Nya.",
        "tahlili": "Ada beberapa riwayat yang menerangkan sebab turunnya ayat ini. Antara lain ialah riwayat dari Ibnu Syaibah dan Ibnu Jar\u012br dan A\u1e6diyah bin S\u0101d menceritakan, bahwa \u2018Ubadah bin \u1e62\u0101mit dari Bani Khazraj datang menghadap Rasulullah saw seraya berkata, \u201cYa Rasulullah, saya ini orang yang mempunyai ikatan persahabatan dengan orang-orang Yahudi dan merupakan kawan yang akrab sekali, bukan dengan beberapa orang saja, tapi dengan jumlah yang banyak. Saya ingin mendekatkan diri kepada Allah dan Rasul-Nya dengan meninggalkan hubungan saya yang akrab selama ini dengan orang-orang Yahudi.\u201d Mendengar ucapan \u2018Ubadah itu lalu Abdullah bin Ubay berkata, \u201cSaya adalah orang penakut, saya takut kalau-kalau nanti mendapat bahaya dari orang-orang Yahudi bila hubungan yang akrab dengan mereka diputuskan.\u201d Maka Rasulullah saw berkata kepada Abdullah bin Ubay, \u201cPerasaan yang terkandung dalam hati mengenai hubungan orang-orang Yahudi dengan \u2018Ubadah, biarlah untuk kau saja, bukan untuk orang lain.\u201d Lalu Abdullah bin Ubay menjawab, \u201cKalau begitu, akan saya terima.\u201d",
        "intro_surah": "Surah al-M\u0101\u2019idah terdiri dari 120 ayat, termasuk golongan surah Madaniyah. Sekalipun ada ayatnya yang turun di Mekah namun ayat ini diturunkan sesudah Nabi Muhammad saw, hijrah ke Medinah pada waktu haji wada\u2019.\nSurah ini dinamakan al-M\u0101\u2019idah (Hidangan), karena menurut kisah, pengikut-pengikut setia Nabi Isa meminta kepada Nabi Isa agar Allah menurunkan untuk mereka al-m\u0101\u2019idah (hidangan makanan) dari langit (ayat 112). Dinamakan dengan al-\u2018Uq\u016bd (perjanjian), karena kata itu terdapat pada ayat pertama Surah ini, Allah menyuruh agar hamba-hamba-Nya memenuhi janji prasetia mereka terhadap Allah dan perjanjian-perjanjian yang mereka buat sesamanya.\nDinamakan juga al-Munqi\u017c (yang menyelamatkan), karena akhir surah ini mengandung kisah tentang Nabi Isa sebagai penyelamat pengikut-pengikut setianya dari azab Allah.\n\nPokok-pokok Isinya\n1.\tKeimanan:\n\tBantahan terhadap orang yang menganggap Nabi Isa sebagai Tuhan.\n2.\tHukum-hukum:\nKeharusan memenuhi perjanjian, melanggar syiar Allah, makanan yang dihalalkan dan yang diharamkan, hukum mengawini perempuan Ahli Kitab, wudu, tayamum, mandi, hukum membunuh orang, mengacau dan mengganggu keamanan, melanggar sumpah dan kafaratnya, berjudi, berkorban untuk berhala, mengundi nasib, membunuh binatang waktu ihram dan persaksian dalam berwasiat.\n3. \tKisah-kisah:\nNabi Musa menyuruh kaumnya memasuki Palestina, kisah Habil dan Qabil, dan kisah Nabi Isa.\n4.\tLain-lain:\nKeharusan bersikap lemah-lembut terhadap sesama mukmin, bersikap keras terhadap orang-orang kafir, penyempurnaan agama Islam di zaman Nabi Muhammad saw, keharusan jujur dan berlaku adil, sikap dalam menghadapi berita-berita bohong, akibat berteman akrab dengan orang yang bukan Muslim; kutukan Allah terhadap orang-orang Yahudi, kewajiban rasul hanya menyampaikan agama, sikap Yahudi dan Nasrani terhadap Islam, Ka\u2019bah sakaguru kehidupan manusia, peringatan Allah supaya meninggalkan adat jahiliah dan larangan-larangan terhadap pertanyaan-pertanyaan yang mengakibatkan kesulitan menjalankan agama.",
        "outro_surah": null,
        "munasabah_prev_surah": "Hubungan Surah an-Nis\u0101\u2019 dengan al-M\u0101\u2019idah:\n1.\tSurah an-Nis\u0101\u2019 menerangkan beberapa macam akad, seperti perkawinan, perceraian, warisan, perjanjian, wasiat dan sebagainya, sedang permulaan Surah al-M\u0101\u2019idah menyatakan supaya hamba-hamba Allah memenuhi segala macam akad yang telah dilakukan, baik terhadap Allah, maupun terhadap sesama manusia, di samping menerangkan akad-akad yang lain.\n2.\tSurah an-Nis\u0101\u2019 mengemukakan hukum secara umum dan mendapat jalan untuk menetapkan suatu hukum, kemudian Surah al-M\u0101\u2019idah menjelaskan dan menegaskan hukum-hukum itu.\n3.\tSebagaimana halnya Surah al-Baqarah dan Surah \u0100li \u2018Imr\u0101n mengemukakan hal-hal yang berhubungan dengan pokok-pokok ajaran, seperti keesaan Allah dan kenabian, maka Surah an-Nis\u0101\u2019 dan al-M\u0101\u2019idah menerangkan tentang fur\u016b\u2019 agama (hukum fiqh), seperti hal-hal yang berhubungan dengan hukum keluarga dan sebagainya.\n4.\tAkhir Surah an-Nis\u0101\u2019 mengemukakan hujah-hujah atas kekeliruan orang-orang Yahudi dan Nasrani, serta kekeliruan kaum musyrik dan munafik. Hal yang serupa diterangkan secara panjang lebar dalam Surah al-M\u0101\u2019idah.\n5.\tSurah an-Nis\u0101\u2019 dimulai dengan Y\u0101 ayyuhan-n\u0101s (wahai manusia) yang nadanya sama dengan surah Makiyah, sedang Surah al-M\u0101\u2019idah seperti surah-surah Madaniyah, dimulai dengan Y\u0101 ayyuhalla\u017c\u012bna \u0101man\u016b (wahai orang yang beriman) Hal ini menyatakan sekalipun nadanya berbeda, tetapi yang dituju oleh kedua surah itu ialah semua manusia.",
        "munasabah_prev_theme": "Pada ayat-ayat yang lalu Allah memerintahkan kepada Muhammad supaya menjalankan hukum sesuai dengan apa yang telah diturunkan Allah dalam Al-Qur\u2019an dan tidak boleh mengikuti hawa nafsu mereka. Jangan sampai terpengaruh oleh hukum-hukum yang lain, lebih-lebih oleh hukum-hukum yang berlaku pada zaman jahiliah, karena tidak ada hukum yang lebih jelas dan tegas daripada hukum-hukum Allah. Maka ayat ini melarang orang mukmin mengambil orang Yahudi dan Nasrani sebagai pelindung dan teman setia.",
        "theme_group": "LARANGAN BERTEMAN SETIA DENGAN ORANG-ORANG\nYAHUDI DAN NASRANI",
        "kosakata": "Kosakata: D\u0101\u2019irah \u062f\u064e\u0627\u0626\u0650\u0631\u064e\u0629\u0652 (al-M\u0101\u2019idah/5: 52)\nD\u0101\u2019irah berasal dari kata kerja d\u0101ra artinya berbalik dari arah yang sedang dituju, sedangkan d\u0101\u2019irah adalah \u201cperubahan situasi\u201d, biasanya digunakan pada perubahan dari baik ke jelek, (at-Taubah/9:98). Dalam ayat ini, ungkapan tersebut mengandung arti bahwa orang-orang munafik beranggapan lebih baik mendekatkan hubungannya dengan orang-orang Yahudi dan Nasrani karena mereka takut akan tertimpa musibah dan malapetaka apabila bergabung dengan umat Islam, karena perubahan situasi dan kondisi. Hal itu karena kurang yakinnya mereka akan kejayaan dan kebesaran Islam serta keberpihakkan Allah kepada umat Islam.",
        "sabab_nuzul": null,
        "conclusion": null
    }
}