{
    "id": 748,
    "surah_id": 5,
    "ayah": 79,
    "page": 121,
    "quarter_hizb": 12.75,
    "juz": 6,
    "manzil": 2,
    "arabic": "\u0643\u064e\u0627\u0646\u064f\u0648\u0652\u0627 \u0644\u064e\u0627 \u064a\u064e\u062a\u064e\u0646\u064e\u0627\u0647\u064e\u0648\u0652\u0646\u064e \u0639\u064e\u0646\u0652 \u0645\u0651\u064f\u0646\u0652\u0643\u064e\u0631\u064d \u0641\u064e\u0639\u064e\u0644\u064f\u0648\u0652\u0647\u064f\u06d7  \u0644\u064e\u0628\u0650\u0626\u0652\u0633\u064e \u0645\u064e\u0627 \u0643\u064e\u0627\u0646\u064f\u0648\u0652\u0627 \u064a\u064e\u0641\u0652\u0639\u064e\u0644\u064f\u0648\u0652\u0646\u064e",
    "latin": "K\u0101n\u016b l\u0101 yatan\u0101hauna \u2018am munkarin fa\u2018al\u016bh(u), labi'sa m\u0101 k\u0101n\u016b yaf\u2018al\u016bn(a).",
    "translation": "Mereka tidak saling mencegah perbuatan mungkar yang mereka lakukan. Sungguh, itulah seburuk-buruk apa yang selalu mereka lakukan.",
    "no_footnote": null,
    "footnotes": null,
    "surah": {
        "id": 5,
        "arabic": " \u0627\u0644\u0645\u0627\u06e4\u0626\u062f\u0629",
        "latin": "Al-M\u0101'idah",
        "transliteration": "Al-Ma'idah",
        "translation": "Hidangan",
        "num_ayah": 120,
        "page": 106,
        "location": "Madaniyah"
    },
    "tafsir": {
        "wajiz": "Kebanyakan dari umat Yahudi itu bersikap melampaui batas, sehingga mereka tidak berbeda satu sama lain, dan mereka juga tidak saling mencegah dari perbuatan mungkar atau penyimpangan yang selalu mereka perbuat. Sesungguhnya keadaan seperti ini mengisyaratkan betapa sangat buruk apa yang selalu mereka perbuat selama itu.",
        "tahlili": "Ayat ini menerangkan bahwa kebiasan Yahudi ialah membiarkan kemungkaran terjadi di hadapan mereka disebabkan mereka tidak melaksanakan amar makruf dan nahi mungkar. Demikianlah buruknya perbuatan mereka itu, sehingga hal itu menjadi sebab adanya kutukan Allah pada mereka. Dalam hubungan ayat ini Nabi Muhammad bersabda,\n\u0639\u064e\u0646\u0652 \u0639\u064e\u0628\u0652\u062f\u0650 \u0627\u0644\u0644\u0647\u0650 \u0628\u0652\u0646\u0650 \u0645\u064e\u0633\u0652\u0639\u064f\u0648\u0652\u062f\u064d \u0642\u064e\u0627\u0644\u064e \u0642\u064e\u0627\u0644\u064e \u0631\u064e\u0633\u064f\u0648\u0652\u0644\u064f \u0627\u0644\u0644\u0647\u0650 \u0635\u064e\u0644\u0651\u064e\u0649 \u0627\u0644\u0644\u0647\u064f \u0639\u064e\u0644\u064e\u064a\u0652\u0647\u0650 \u0648\u064e\u0633\u064e\u0644\u0651\u064e\u0645\u064e \u0644\u0645\u064e\u0627\u0651\u064e \u0648\u064e\u0642\u064e\u0639\u064e\u062a\u0652 \u0628\u064e\u0646\u064f\u0648 \u0650\u0627\u0633\u0652\u0631\u064e\u0627\u0626\u0650\u064a\u0652\u0644\u064e \u0650\u0641\u0649 \u0627\u0644\u0652\u0645\u064e\u0639\u064e\u0627\u0650\u0635\u0649 \u0646\u064e\u0647\u064e\u062a\u0652\u0647\u064f\u0645\u0652 \u0639\u064f\u0644\u064e\u0645\u064e\u0627\u0624\u064f\u0647\u064f\u0645\u0652 \u0641\u064e\u0644\u064e\u0645\u0652 \u064a\u064e\u0646\u0652\u062a\u064e\u0647\u064f\u0648\u0652\u0627 \u0641\u064e\u062c\u064e\u0627\u0644\u064e\u0633\u064f\u0648\u0652\u0647\u064f\u0645\u0652 \u0641\u0650\u0649 \u0645\u064e\u062c\u064e\u0627\u0644\u0650\u0633\u0650\u0647\u0650\u0645\u0652 \u0648\u064e\u0648\u064e\u0627\u0643\u064e\u0644\u064f\u0648\u0652\u0647\u064f\u0645\u0652 \u0648\u064e\u0634\u064e\u0627\u0631\u064e\u0628\u064f\u0648\u0652\u0647\u064f\u0645\u0652 \u0641\u064e\u0636\u064e\u0631\u064e\u0628\u064e \u0627\u0644\u0644\u0647\u064f \u0642\u064f\u0644\u064f\u0648\u0652\u0628\u064e \u0628\u064e\u0639\u0652\u0636\u0650\u0647\u0650\u0645\u0652 \u0639\u064e\u0644\u064e\u0649 \u0628\u064e\u0639\u0652\u0636\u064d \u0648\u064e\u0644\u064e\u0639\u064e\u0646\u064e\u0647\u064f\u0645\u0652 \u0639\u064e\u0644\u064e\u0649 \u0650\u0644\u0633\u064e\u0627\u0646\u0650 \u062f\u064e\u0627\u0648\u064f\u062f\u064e \u0648\u064e\u0639\u0650\u064a\u0652\u0633\u064e \u0628\u0652\u0646\u0650 \u0645\u064e\u0631\u0652\u064a\u064e\u0645\u064e \u0630\u064e\u0644\u0650\u0643\u064e \u0628\u0650\u0645\u064e\u0627 \u0639\u064e\u0635\u064e\u0648\u0652\u0627 \u0648\u064e\u0643\u064e\u0627\u0646\u064f\u0648\u0652\u0627 \u064a\u064e\u0639\u0652\u062a\u064e\u062f\u064f\u0648\u0652\u0646\u064e \u0642\u064e\u0627\u0644\u064e \u0641\u064e\u062c\u064e\u0644\u064e\u0633\u064e \u0631\u064e\u0633\u064f\u0648\u0652\u0644\u064f \u0627\u0644\u0644\u0647\u0650 \u0635\u064e\u0644\u0651\u064e\u0649 \u0627\u0644\u0644\u0647\u064f \u0639\u064e\u0644\u064e\u064a\u0652\u0647\u0650 \u0648\u064e\u0633\u064e\u0644\u0651\u064e\u0645\u064e \u0648\u064e\u0643\u064e\u0627\u0646\u064e \u0645\u064f\u062a\u0651\u064e\u0643\u0650\u0626\u064b\u0627 \u0641\u064e\u0642\u064e\u0627\u0644\u064e \u0644\u0627\u064e \u0648\u064e\u0627\u0644\u0651\u064e\u0630\u0650\u064a \u0646\u064e\u0641\u0652\u0633\u0650\u064a\u0652 \u0628\u0650\u064a\u064e\u062f\u0650\u0647\u0650 \u062d\u064e\u062a\u0649\u0651\u064e \u062a\u064e\u0623\u0652\u0637\u064f\u0631\u064f\u0648\u0652\u0647\u064f\u0645\u0652 \u0639\u064e\u0644\u064e\u0649 \u0627\u0644\u0652\u062d\u064e\u0642\u0651\u0650 \u0623\u064e\u0637\u0652\u0631\u064b\u0627 (\u0631\u0648\u0627\u0647 \u0627\u0628\u0648 \u062f\u0627\u0648\u062f \u0648\u0627\u0644\u062a\u0631\u0645\u0630\u0649 \u0648\u0627\u0628\u0646 \u0645\u0627\u062c\u0647 \u0648\u0642\u0627\u0644 \u0627\u0644\u062a\u0631\u0645\u0630\u064a \u062d\u062f\u064a\u062b \u062d\u0633\u0646) \nDari Abdullah bin Mas\u2019ud r.a. katanya, Rasulullah SAW bersabda : \u201cKetika orang-orang Bani Israil terjerumus di lembah maksiat, kemudian mereka dilarang oleh ulama mereka dan mereka tidak mau berhenti, maka para ulama itu mengakrabi mereka, duduk-duduk, makan-makan dan minum-minum bersama. Allah SWT kemudian membikin hati-hati mereka saling akrab dan melaknat mereka semua melalui lisan Dawud dan Isa bin Maryam. Hal itu karena mereka bermaksiat dan melampaui batas.\u201d Kata Abdullah bin Mas\u2019ud selanjutnya : Nabi SAW kemudian duduk, sebelumnya dia bersandar, lalu bersabda: \u201cTidak demi Dzat yang menguasai diriku, sampai kamu benar-benar menundukkan mereka kepada kebenaran.\u201d (Riwayat Abu D\u0101wud, at-Tirmiz\u012b dan Ibnu M\u0101jah. Menurut at-Tirmiz\u012b, hadis ini hasan)",
        "intro_surah": "Surah al-M\u0101\u2019idah terdiri dari 120 ayat, termasuk golongan surah Madaniyah. Sekalipun ada ayatnya yang turun di Mekah namun ayat ini diturunkan sesudah Nabi Muhammad saw, hijrah ke Medinah pada waktu haji wada\u2019.\nSurah ini dinamakan al-M\u0101\u2019idah (Hidangan), karena menurut kisah, pengikut-pengikut setia Nabi Isa meminta kepada Nabi Isa agar Allah menurunkan untuk mereka al-m\u0101\u2019idah (hidangan makanan) dari langit (ayat 112). Dinamakan dengan al-\u2018Uq\u016bd (perjanjian), karena kata itu terdapat pada ayat pertama Surah ini, Allah menyuruh agar hamba-hamba-Nya memenuhi janji prasetia mereka terhadap Allah dan perjanjian-perjanjian yang mereka buat sesamanya.\nDinamakan juga al-Munqi\u017c (yang menyelamatkan), karena akhir surah ini mengandung kisah tentang Nabi Isa sebagai penyelamat pengikut-pengikut setianya dari azab Allah.\n\nPokok-pokok Isinya\n1.\tKeimanan:\n\tBantahan terhadap orang yang menganggap Nabi Isa sebagai Tuhan.\n2.\tHukum-hukum:\nKeharusan memenuhi perjanjian, melanggar syiar Allah, makanan yang dihalalkan dan yang diharamkan, hukum mengawini perempuan Ahli Kitab, wudu, tayamum, mandi, hukum membunuh orang, mengacau dan mengganggu keamanan, melanggar sumpah dan kafaratnya, berjudi, berkorban untuk berhala, mengundi nasib, membunuh binatang waktu ihram dan persaksian dalam berwasiat.\n3. \tKisah-kisah:\nNabi Musa menyuruh kaumnya memasuki Palestina, kisah Habil dan Qabil, dan kisah Nabi Isa.\n4.\tLain-lain:\nKeharusan bersikap lemah-lembut terhadap sesama mukmin, bersikap keras terhadap orang-orang kafir, penyempurnaan agama Islam di zaman Nabi Muhammad saw, keharusan jujur dan berlaku adil, sikap dalam menghadapi berita-berita bohong, akibat berteman akrab dengan orang yang bukan Muslim; kutukan Allah terhadap orang-orang Yahudi, kewajiban rasul hanya menyampaikan agama, sikap Yahudi dan Nasrani terhadap Islam, Ka\u2019bah sakaguru kehidupan manusia, peringatan Allah supaya meninggalkan adat jahiliah dan larangan-larangan terhadap pertanyaan-pertanyaan yang mengakibatkan kesulitan menjalankan agama.",
        "outro_surah": null,
        "munasabah_prev_surah": "Hubungan Surah an-Nis\u0101\u2019 dengan al-M\u0101\u2019idah:\n1.\tSurah an-Nis\u0101\u2019 menerangkan beberapa macam akad, seperti perkawinan, perceraian, warisan, perjanjian, wasiat dan sebagainya, sedang permulaan Surah al-M\u0101\u2019idah menyatakan supaya hamba-hamba Allah memenuhi segala macam akad yang telah dilakukan, baik terhadap Allah, maupun terhadap sesama manusia, di samping menerangkan akad-akad yang lain.\n2.\tSurah an-Nis\u0101\u2019 mengemukakan hukum secara umum dan mendapat jalan untuk menetapkan suatu hukum, kemudian Surah al-M\u0101\u2019idah menjelaskan dan menegaskan hukum-hukum itu.\n3.\tSebagaimana halnya Surah al-Baqarah dan Surah \u0100li \u2018Imr\u0101n mengemukakan hal-hal yang berhubungan dengan pokok-pokok ajaran, seperti keesaan Allah dan kenabian, maka Surah an-Nis\u0101\u2019 dan al-M\u0101\u2019idah menerangkan tentang fur\u016b\u2019 agama (hukum fiqh), seperti hal-hal yang berhubungan dengan hukum keluarga dan sebagainya.\n4.\tAkhir Surah an-Nis\u0101\u2019 mengemukakan hujah-hujah atas kekeliruan orang-orang Yahudi dan Nasrani, serta kekeliruan kaum musyrik dan munafik. Hal yang serupa diterangkan secara panjang lebar dalam Surah al-M\u0101\u2019idah.\n5.\tSurah an-Nis\u0101\u2019 dimulai dengan Y\u0101 ayyuhan-n\u0101s (wahai manusia) yang nadanya sama dengan surah Makiyah, sedang Surah al-M\u0101\u2019idah seperti surah-surah Madaniyah, dimulai dengan Y\u0101 ayyuhalla\u017c\u012bna \u0101man\u016b (wahai orang yang beriman) Hal ini menyatakan sekalipun nadanya berbeda, tetapi yang dituju oleh kedua surah itu ialah semua manusia.",
        "munasabah_prev_theme": "Ayat-ayat yang lalu menerangkan keburukan tingkah laku orang orang yang menganggap Almasih adalah tuhan. Mereka mengikuti hawa nafsu dan membunuh nabi-nabi. Mereka terus menerus berbuat kesesatan. Kemudian dalam ayat ini Allah menerangkan kutukan-Nya terhadap orang Yahudi yang kafir.",
        "theme_group": "SEBAB-SEBAB KUTUKAN ALLAH \nTERHADAP ORANG YAHUDI",
        "kosakata": "Kosakata: Ya\u2019tad\u016bn \u064a\u064e\u0639\u0652\u062a\u064e\u062f\u064f\u0648\u0652\u0646\u064e (al-M\u0101\u2019idah/5: 78)\nYa\u2019tad\u016bn terambil dari fi\u2019il m\u0101\u1e0d\u012b i\u2019tada, masdarnya i\u2019tid\u0101\u2019 artinya \u201cmelampaui batas\u201d (al-Baqarah/2:190). Dalam ayat 78 dinyatakan bahwa orang-orang kafir dari Bani Israil telah dikutuk melalui dua nabi Allah (Dawud a.s. dan Isa bin Maryam) akibat mereka melakukan perbuatan dosa kepada Allah dan Rasul-Nya serta selalu melampaui batas. Ya\u2019tad\u016bn datang dalam bentuk kata kerja kini dan yang akan datang (\u1e25\u0101l dan mustaqbal), hal ini memberikan pengertian bahwa perbuatan Yahudi yang melampaui batas tersebut bukan saja dilakukan pada saat turunnya ayat ini, tetapi terus-menerus mereka lakukan sampai akhir zaman.",
        "sabab_nuzul": null,
        "conclusion": null
    }
}