{
    "id": 713,
    "surah_id": 5,
    "ayah": 44,
    "page": 115,
    "quarter_hizb": 12.25,
    "juz": 6,
    "manzil": 2,
    "arabic": "\u0627\u0650\u0646\u0651\u064e\u0627\u0653 \u0627\u064e\u0646\u0652\u0632\u064e\u0644\u0652\u0646\u064e\u0627 \u0627\u0644\u062a\u0651\u064e\u0648\u0652\u0631\u0670\u0649\u0629\u064e \u0641\u0650\u064a\u0652\u0647\u064e\u0627 \u0647\u064f\u062f\u064b\u0649 \u0648\u0651\u064e\u0646\u064f\u0648\u0652\u0631\u064c\u06da \u064a\u064e\u062d\u0652\u0643\u064f\u0645\u064f \u0628\u0650\u0647\u064e\u0627 \u0627\u0644\u0646\u0651\u064e\u0628\u0650\u064a\u0651\u064f\u0648\u0652\u0646\u064e \u0627\u0644\u0651\u064e\u0630\u0650\u064a\u0652\u0646\u064e \u0627\u064e\u0633\u0652\u0644\u064e\u0645\u064f\u0648\u0652\u0627 \u0644\u0650\u0644\u0651\u064e\u0630\u0650\u064a\u0652\u0646\u064e \u0647\u064e\u0627\u062f\u064f\u0648\u0652\u0627 \u0648\u064e\u0627\u0644\u0631\u0651\u064e\u0628\u0651\u0670\u0646\u0650\u064a\u0651\u064f\u0648\u0652\u0646\u064e \u0648\u064e\u0627\u0644\u0652\u0627\u064e\u062d\u0652\u0628\u064e\u0627\u0631\u064f \u0628\u0650\u0645\u064e\u0627 \u0627\u0633\u0652\u062a\u064f\u062d\u0652\u0641\u0650\u0638\u064f\u0648\u0652\u0627 \u0645\u0650\u0646\u0652 \u0643\u0650\u062a\u0670\u0628\u0650 \u0627\u0644\u0644\u0651\u0670\u0647\u0650 \u0648\u064e\u0643\u064e\u0627\u0646\u064f\u0648\u0652\u0627 \u0639\u064e\u0644\u064e\u064a\u0652\u0647\u0650 \u0634\u064f\u0647\u064e\u062f\u064e\u0627\u06e4\u0621\u064e\u06da \u0641\u064e\u0644\u064e\u0627 \u062a\u064e\u062e\u0652\u0634\u064e\u0648\u064f\u0627 \u0627\u0644\u0646\u0651\u064e\u0627\u0633\u064e \u0648\u064e\u0627\u062e\u0652\u0634\u064e\u0648\u0652\u0646\u0650 \u0648\u064e\u0644\u064e\u0627 \u062a\u064e\u0634\u0652\u062a\u064e\u0631\u064f\u0648\u0652\u0627 \u0628\u0650\u0627\u0670\u064a\u0670\u062a\u0650\u064a\u0652 \u062b\u064e\u0645\u064e\u0646\u064b\u0627 \u0642\u064e\u0644\u0650\u064a\u0652\u0644\u064b\u0627 \u06d7\u0648\u064e\u0645\u064e\u0646\u0652 \u0644\u0651\u064e\u0645\u0652 \u064a\u064e\u062d\u0652\u0643\u064f\u0645\u0652 \u0628\u0650\u0645\u064e\u0627\u0653 \u0627\u064e\u0646\u0652\u0632\u064e\u0644\u064e \u0627\u0644\u0644\u0651\u0670\u0647\u064f \u0641\u064e\u0627\u064f\u0648\u0644\u0670\u06e4\u0649\u0655\u0650\u0643\u064e \u0647\u064f\u0645\u064f \u0627\u0644\u0652\u0643\u0670\u0641\u0650\u0631\u064f\u0648\u0652\u0646\u064e",
    "latin": "Inn\u0101 anzalnat-taur\u0101ta f\u012bh\u0101 hudaw wa n\u016br(un), ya\u1e25kumu bihan-nabiyy\u016bnal-la\u017c\u012bna aslam\u016b lil-la\u017c\u012bna h\u0101d\u016b war-rabb\u0101niyy\u016bna wal-a\u1e25b\u0101ru bimastu\u1e25fi\u1e93\u016b min kit\u0101bill\u0101hi wa k\u0101n\u016b \u2018alaihi syuhad\u0101'(a), fal\u0101 takhsyawun-n\u0101sa wakhsyauni wa l\u0101 tasytar\u016b bi'\u0101y\u0101t\u012b \u1e61amanan qal\u012bl\u0101(n), wa mal lam ya\u1e25kum bim\u0101 anzalall\u0101hu fa ul\u0101'ika humul-k\u0101fir\u016bn(a).",
    "translation": "Sesungguhnya Kami telah menurunkan Taurat. Di dalamnya ada petunjuk dan cahaya. Dengannya para nabi, yang berserah diri (kepada Allah), memberi putusan atas perkara orang Yahudi. Demikian pula para rabi dan ulama-ulama mereka (juga memberi putusan) sebab mereka diperintahkan (oleh Allah untuk) menjaga kitab Allah dan mereka merupakan saksi-saksi terhadapnya. Oleh karena itu, janganlah kamu takut kepada manusia, (tetapi) takutlah kepada-Ku. Janganlah kamu menukar ayat-ayat-Ku dengan harga yang murah. Siapa yang tidak memutuskan (suatu urusan) menurut ketentuan yang diturunkan Allah, maka mereka itulah orang-orang kafir.213)",
    "no_footnote": "213",
    "footnotes": "213) Orang yang tidak memutuskan perkara menurut hukum Allah Swt. ada tiga macam: (a) karena benci dan ingkarnya kepada hukum Allah Swt., orang yang semacam ini kafir (surah al-M\u0101\u2019idah [5]: 44); (b) karena menuruti hawa nafsu dan merugikan orang lain, dinamakan zalim (surah al-M\u0101\u2019idah [5]: 45); dan (c) karena fasik, sebagaimana terdapat dalam ayat 47 surah ini.",
    "surah": {
        "id": 5,
        "arabic": " \u0627\u0644\u0645\u0627\u06e4\u0626\u062f\u0629",
        "latin": "Al-M\u0101'idah",
        "transliteration": "Al-Ma'idah",
        "translation": "Hidangan",
        "num_ayah": 120,
        "page": 106,
        "location": "Madaniyah"
    },
    "tafsir": {
        "wajiz": "Pada ayat yang lalu dijelaskan sikap orang Yahudi terhadap Taurat dan hukum yang terdapat di dalamnya. Pada ayat ini diterangkan bahwa Taurat diwahyukan sebagai petunjuk bagi Bani Israil, tetapi sebagian hukumnya mereka tinggalkan. Penjelasan ini diawali dengan suatu ungkapan untuk meyakinkan. \"Sungguh, Kami yang menurunkan Kitab Taurat kepada Nabi Musa; di dalamnya ada petunjuk untuk membimbing mereka ke jalan yang lurus dan cahaya yang akan menerangi jalan hidup mereka. Yang dengan Kitab itu para nabi yang berserah diri kepada Allah dari Bani Israil telah memberi putusan atas perkara yang terjadi di antara orang Yahudi, demikian juga yang diperbuat oleh para ulama dan pendeta-pendeta mereka, yang sedemikian ini sebab mereka memang diperintahkan untuk memelihara kitab-kitab Allah dengan melaksanakan hukum-hukumnya, dan mereka siap untuk menjadi saksi terhadapnya. Karena itu, wahai Muhammad, janganlah kamu takut kepada manusia, tetapi takutlah hanya kepada-Ku. Dan janganlah pula kamu jual ayat-ayat-Ku dengan harga murah dengan mengharap imbalan duniawi yang sedikit. Barang siapa tidak memutuskan hukum suatu perkara dengan apa yang diturunkan Allah, maka ketahuilah bahwa mereka itulah termasuk orang-orang kafir.",
        "tahlili": "Kitab Taurat yang diturunkan Allah kepada Nabi Musa, berisi bimbingan dan petunjuk bagi manusia kepada yang hak, sehingga mereka dapat keluar dan selamat dari kesesatan dan penyembahan berhala, dan juga merupakan cahaya yang menerangi hal-hal yang masih samar-samar ataupun yang masih gelap bagi mereka, sehingga mereka dapat melihat jalan yang benar, baik dalam urusan agama, maupun duniawi.\nKitab Taurat menjadi petunjuk bagi nabi-nabi yang telah menyerahkan diri kepada Allah dengan penuh keikhlasan, yaitu Nabi Musa dan nabi-nabi dari Bani Israil sesudahnya, sampai kepada Nabi Isa. Kitab ini telah digunakan untuk memutuskan perkara orang-orang Yahudi saja, karena memang Taurat itu diturunkan khusus untuk orang-orang Yahudi. Begitu juga tokoh-tokoh dan pendeta-pendeta mereka, telah menggunakan Taurat itu sebagai undang-undang di kala tidak ada nabi bersama mereka, karena mereka itu semua telah diperintahkan Allah supaya memelihara kitab Taurat, dan menjadi saksi serta bertanggung jawab atas pelaksanaannya. Jangan sampai mereka menyelewengkan hukum-hukum yang ada di dalamnya, dan menyembunyikan karena bertentangan dengan keinginan hawa nafsu mereka, atau karena takut kepada pembesarnya sehingga tidak berani menegakkan hukum terhadap mereka, seakan-akan mereka itu lebih takut kepada sesama manusia daripada kepada Allah. Lain halnya dengan Abdullah bin Salam yang hidup sampai masa al-Khulaf\u0101 ar-R\u0101syid\u016bn. Dia seorang Yahudi yang benar-benar menegakkan hukum Allah, sehingga mengakibatkan orang lain benci dan tidak senang kepadanya. Dia menegakkan hukum rajam kepada siapa saja yang harus dihukum karena perbuatan zina, sekalipun kepada pemimpin atau pembesar mereka.\nJangan sampai mereka tidak menyebarkan dan tidak menjelaskan hukum-hukum itu karena keuntungan dunia atau keuntungan yang diterimanya dari orang-orang yang berkepentingan, misalnya uang sogok, atau pangkat yang dijanjikan kepadanya, karena semuanya ini tidak ada arti dan nilainya jika dibandingkan dengan pahala yang akan mereka peroleh di akhirat, Firman Allah:\n\u064a\u064e\u0648\u0652\u0645\u064e \u0644\u064e\u0627 \u064a\u064e\u0646\u0652\u0641\u064e\u0639\u064f \u0645\u064e\u0627\u0644\u064c \u0648\u0651\u064e\u0644\u064e\u0627 \u0628\u064e\u0646\u064f\u0648\u0652\u0646\u064e \u06d9 \u0668\u0668 \u0627\u0650\u0644\u0651\u064e\u0627 \u0645\u064e\u0646\u0652 \u0627\u064e\u062a\u064e\u0649 \u0627\u0644\u0644\u0651\u0670\u0647\u064e \u0628\u0650\u0642\u064e\u0644\u0652\u0628\u064d \u0633\u064e\u0644\u0650\u064a\u0652\u0645\u064d \u06d7 \u0668\u0669\n\u201d(Yaitu) di hari (ketika) harta dan anak-anak tidak berguna, kecuali orang-orang yang menghadap Allah dengan hati yang bersih.\u201d (asy-Syu\u2019ara\u2019/26: 88 dan 89).\n\nBarang siapa menghukum atau memutuskan suatu perkara tidak sesuai dengan hukum Allah, seperti halnya orang-orang Yahudi yang menyembunyikan hukum rajam terhadap orang berzina yang bersuami atau beristri dan menggantinya dengan hukuman dera dan menghitamkan mukanya, lalu diarak berkeliling supaya disaksikan oleh masyarakat, dan lain-lainnya, berarti mereka melakukan penyelewengan hukum. Ketahuilah bahwa mereka itu adalah orang-orang yang ingkar.",
        "intro_surah": "Surah al-M\u0101\u2019idah terdiri dari 120 ayat, termasuk golongan surah Madaniyah. Sekalipun ada ayatnya yang turun di Mekah namun ayat ini diturunkan sesudah Nabi Muhammad saw, hijrah ke Medinah pada waktu haji wada\u2019.\nSurah ini dinamakan al-M\u0101\u2019idah (Hidangan), karena menurut kisah, pengikut-pengikut setia Nabi Isa meminta kepada Nabi Isa agar Allah menurunkan untuk mereka al-m\u0101\u2019idah (hidangan makanan) dari langit (ayat 112). Dinamakan dengan al-\u2018Uq\u016bd (perjanjian), karena kata itu terdapat pada ayat pertama Surah ini, Allah menyuruh agar hamba-hamba-Nya memenuhi janji prasetia mereka terhadap Allah dan perjanjian-perjanjian yang mereka buat sesamanya.\nDinamakan juga al-Munqi\u017c (yang menyelamatkan), karena akhir surah ini mengandung kisah tentang Nabi Isa sebagai penyelamat pengikut-pengikut setianya dari azab Allah.\n\nPokok-pokok Isinya\n1.\tKeimanan:\n\tBantahan terhadap orang yang menganggap Nabi Isa sebagai Tuhan.\n2.\tHukum-hukum:\nKeharusan memenuhi perjanjian, melanggar syiar Allah, makanan yang dihalalkan dan yang diharamkan, hukum mengawini perempuan Ahli Kitab, wudu, tayamum, mandi, hukum membunuh orang, mengacau dan mengganggu keamanan, melanggar sumpah dan kafaratnya, berjudi, berkorban untuk berhala, mengundi nasib, membunuh binatang waktu ihram dan persaksian dalam berwasiat.\n3. \tKisah-kisah:\nNabi Musa menyuruh kaumnya memasuki Palestina, kisah Habil dan Qabil, dan kisah Nabi Isa.\n4.\tLain-lain:\nKeharusan bersikap lemah-lembut terhadap sesama mukmin, bersikap keras terhadap orang-orang kafir, penyempurnaan agama Islam di zaman Nabi Muhammad saw, keharusan jujur dan berlaku adil, sikap dalam menghadapi berita-berita bohong, akibat berteman akrab dengan orang yang bukan Muslim; kutukan Allah terhadap orang-orang Yahudi, kewajiban rasul hanya menyampaikan agama, sikap Yahudi dan Nasrani terhadap Islam, Ka\u2019bah sakaguru kehidupan manusia, peringatan Allah supaya meninggalkan adat jahiliah dan larangan-larangan terhadap pertanyaan-pertanyaan yang mengakibatkan kesulitan menjalankan agama.",
        "outro_surah": null,
        "munasabah_prev_surah": "Hubungan Surah an-Nis\u0101\u2019 dengan al-M\u0101\u2019idah:\n1.\tSurah an-Nis\u0101\u2019 menerangkan beberapa macam akad, seperti perkawinan, perceraian, warisan, perjanjian, wasiat dan sebagainya, sedang permulaan Surah al-M\u0101\u2019idah menyatakan supaya hamba-hamba Allah memenuhi segala macam akad yang telah dilakukan, baik terhadap Allah, maupun terhadap sesama manusia, di samping menerangkan akad-akad yang lain.\n2.\tSurah an-Nis\u0101\u2019 mengemukakan hukum secara umum dan mendapat jalan untuk menetapkan suatu hukum, kemudian Surah al-M\u0101\u2019idah menjelaskan dan menegaskan hukum-hukum itu.\n3.\tSebagaimana halnya Surah al-Baqarah dan Surah \u0100li \u2018Imr\u0101n mengemukakan hal-hal yang berhubungan dengan pokok-pokok ajaran, seperti keesaan Allah dan kenabian, maka Surah an-Nis\u0101\u2019 dan al-M\u0101\u2019idah menerangkan tentang fur\u016b\u2019 agama (hukum fiqh), seperti hal-hal yang berhubungan dengan hukum keluarga dan sebagainya.\n4.\tAkhir Surah an-Nis\u0101\u2019 mengemukakan hujah-hujah atas kekeliruan orang-orang Yahudi dan Nasrani, serta kekeliruan kaum musyrik dan munafik. Hal yang serupa diterangkan secara panjang lebar dalam Surah al-M\u0101\u2019idah.\n5.\tSurah an-Nis\u0101\u2019 dimulai dengan Y\u0101 ayyuhan-n\u0101s (wahai manusia) yang nadanya sama dengan surah Makiyah, sedang Surah al-M\u0101\u2019idah seperti surah-surah Madaniyah, dimulai dengan Y\u0101 ayyuhalla\u017c\u012bna \u0101man\u016b (wahai orang yang beriman) Hal ini menyatakan sekalipun nadanya berbeda, tetapi yang dituju oleh kedua surah itu ialah semua manusia.",
        "munasabah_prev_theme": "Ayat-ayat yang lalu menerangkan keadaan orang-orang Yahudi yang meninggalkan isi kitab Taurat dan meminta kepada Nabi Muhammad, untuk memutus perkara mereka, tetapi mereka hanya mau menerima putusan Nabi apabila sesuai dengan keinginan mereka, dan kalau tidak maka mereka menolaknya. Ayat ini menerangkan bahwa kitab Taurat itu diturunkan untuk membimbing dan memberi petunjuk kepada Bani Israil, tetapi sebagiannya mereka tinggalkan, karena mereka menganggap bahwa mengikuti isi Taurat itu merugikan mereka.",
        "theme_group": "PENGINGKARAN ORANG YAHUDI TERHADAP\nHUKUM TAURAT",
        "kosakata": "1. Qi\u1e61\u0101\u1e61 \u0642\u0650\u0635\u064e\u0627\u0635\u0652 (al-M\u0101\u2019idah/5: 45)\nKata qi\u1e61\u0101\u1e61 di dalam Al-Qur\u2019an disebut empat kali, semuanya dalam bentuk ism (kata benda). Dua di antaranya ism ma\u2019rifah (kata benda definitif), dan dua yang lain ism nakirah (kata benda indefinitif). Secara bahasa, al-qa\u1e61\u1e61 artinya \u201cmengikuti jejak\u201d, dari sini muncul istilah kisah yang berarti kabar atau berita yang diikuti (al-akhbar al-mutataba\u2019ah) qi\u1e61a\u1e61 ialah tatabbu\u2019, qi\u1e61\u0101\u1e61 berarti tatabbu\u2019 ad-dam bi al-qawad (mengikuti/membalas penumpahan darah dengan al-qawad). Dalam Lis\u0101n al-\u2019Arab disebutkan: Al-qawad huwa al-qatl bi al-qatl yang maksudnya \u201csuatu hukuman yang ditetapkan dengan cara mengikuti bentuk tindak pidana yang dilakukan,\u201d seperti bunuh dibalas bunuh. Hukuman mati dan sejenisnya disebut qi\u1e61\u0101\u1e61 karena hukuman ini sama/sebanding dengan tindak pidana yang dilakukan yang mengakibatkan jatuhnya hukuman qi\u1e61\u0101\u1e61 tersebut. Al-Qur\u2019an sendiri melalui ayat ini dan juga surah al-Baqarah ayat 178-179 memberikan isyarat bahwa yang dimaksud dengan qi\u1e61\u0101\u1e61 ialah sanksi hukum yang ditetapkan dengan adil semirip mungkin (relatif sama) dengan tindak pidana yang dilakukan sebelumnya.\n2. \u2018al\u0101 \u0101\u1e61\u0101rihim \u0639\u064e\u0644\u0670\u0649 \u0627\u0670\u062b\u064e\u0627\u0631\u0650\u0647\u0650\u0645\u0652 (al-M\u0101\u2019idah/5: 46)\n\u0100\u1e61\u0101r bentuk jamak dari kata a\u1e61ar artinya bekas sebagaimana dalam firman Allah dalam surah al-M\u0101\u2019idah/5:46 dan al-\u1e24ad\u012bd/57:27, \u0101\u1e61\u0101r berarti bekas-bekas. Sedangkan pada surah ar-R\u016bm/30:50, \u0101\u1e61\u0101r bisa berarti cara atau petunjuk. \u0100\u1e61\u0101r dalam surah a\u1e61-\u1e62aff\u0101t/37:70 berarti jejak orang-orang terdahulu. Dalam ayat ini (al-M\u0101\u2019idah/5:46) dijelaskan bahwa sesudah Allah menurunkan Taurat kepada Nabi Musa, sebagai hidayah bagi mereka (al-M\u0101\u2019idah/5:44) Allah mengutus Nabi Isa untuk mengikuti jejak para Nabi sebelumnya, melaksanakan dan mendakwahkan Taurat dan Injil yang khusus diturunkan kepada Nabi Isa sebagai petunjuk bagi Bani Israil. Sebagian Ulama menerjemahkan arti \u0101\u1e61\u0101rihim dengan jalan atau hidayah para nabi, artinya Allah mengutus Nabi Isa untuk mengikuti petunjuk dan hidayah yang didakwahkan nabi-nabi sebelumnya yang tercantum dalam Taurat",
        "sabab_nuzul": null,
        "conclusion": null
    }
}