{
    "id": 698,
    "surah_id": 5,
    "ayah": 29,
    "page": 112,
    "quarter_hizb": 12,
    "juz": 6,
    "manzil": 2,
    "arabic": "\u0627\u0650\u0646\u0651\u0650\u064a\u0652\u0653 \u0627\u064f\u0631\u0650\u064a\u0652\u062f\u064f \u0627\u064e\u0646\u0652 \u062a\u064e\u0628\u064f\u0648\u0652\u06e4\u0627\u064e \u0628\u0650\u0627\u0650\u062b\u0652\u0645\u0650\u064a\u0652 \u0648\u064e\u0627\u0650\u062b\u0652\u0645\u0650\u0643\u064e \u0641\u064e\u062a\u064e\u0643\u064f\u0648\u0652\u0646\u064e \u0645\u0650\u0646\u0652 \u0627\u064e\u0635\u0652\u062d\u0670\u0628\u0650 \u0627\u0644\u0646\u0651\u064e\u0627\u0631\u0650\u06da \u0648\u064e\u0630\u0670\u0644\u0650\u0643\u064e \u062c\u064e\u0632\u0670\u06e4\u0624\u064f\u0627 \u0627\u0644\u0638\u0651\u0670\u0644\u0650\u0645\u0650\u064a\u0652\u0646\u06da\u064e ",
    "latin": "Inn\u012b ur\u012bdu an tab\u016b'a bi'i\u1e61m\u012b wa i\u1e61mika fa tak\u016bna min a\u1e63\u1e25\u0101bin-n\u0101r(i), wa \u017c\u0101lika jaz\u0101'u\u1e93-\u1e93\u0101lim\u012bn(a).",
    "translation": "Sesungguhnya aku ingin engkau kembali (kepada-Nya) dengan (membawa) dosa (karena membunuh)-ku dan dosamu (sebelum itu) sehingga engkau akan termasuk penghuni neraka. Itulah balasan bagi orang-orang yang zalim.\u201d",
    "no_footnote": null,
    "footnotes": null,
    "surah": {
        "id": 5,
        "arabic": " \u0627\u0644\u0645\u0627\u06e4\u0626\u062f\u0629",
        "latin": "Al-M\u0101'idah",
        "transliteration": "Al-Ma'idah",
        "translation": "Hidangan",
        "num_ayah": 120,
        "page": 106,
        "location": "Madaniyah"
    },
    "tafsir": {
        "wajiz": "Sesudah mengungkapkan sikapnya, kemudian Habil mengatakan, \u201cSesungguhnya, dengan perbuatanmu yang zalim ini, aku ingin agar engkau kelak di akhirat akan kembali dengan membawa dosa karena telah membunuh-ku dan dosamu sendiri sebagai akibat dari ketidakikhlasanmu, maka engkau kelak akan menjadi penghuni neraka yang abadi, dan itulah balasan yang ditetapkan Allah bagi orang yang zalim.\u201d",
        "tahlili": "Pada ayat ini Habil memberi jawaban kepada Qabil bahwa Habil berserah diri kepada Allah dan tidak mau menantangnya agar semua dosa, baik dosa Qabil maupun dosa-dosa yang lain sesudah itu, dipikul oleh Qabil sendiri. Habil mendasarkan pernyataannya pada tiga hal yang sangat penting. Pertama, bahwa amal yang dapat diterima itu hanya dari orang yang bertakwa. Kedua, Habil tidak akan membunuh orang, karena takut kepada Allah dan ketiga, Habil tidak melawan, karena takut berdosa yang mengakibatkan akan masuk neraka.",
        "intro_surah": "Surah al-M\u0101\u2019idah terdiri dari 120 ayat, termasuk golongan surah Madaniyah. Sekalipun ada ayatnya yang turun di Mekah namun ayat ini diturunkan sesudah Nabi Muhammad saw, hijrah ke Medinah pada waktu haji wada\u2019.\nSurah ini dinamakan al-M\u0101\u2019idah (Hidangan), karena menurut kisah, pengikut-pengikut setia Nabi Isa meminta kepada Nabi Isa agar Allah menurunkan untuk mereka al-m\u0101\u2019idah (hidangan makanan) dari langit (ayat 112). Dinamakan dengan al-\u2018Uq\u016bd (perjanjian), karena kata itu terdapat pada ayat pertama Surah ini, Allah menyuruh agar hamba-hamba-Nya memenuhi janji prasetia mereka terhadap Allah dan perjanjian-perjanjian yang mereka buat sesamanya.\nDinamakan juga al-Munqi\u017c (yang menyelamatkan), karena akhir surah ini mengandung kisah tentang Nabi Isa sebagai penyelamat pengikut-pengikut setianya dari azab Allah.\n\nPokok-pokok Isinya\n1.\tKeimanan:\n\tBantahan terhadap orang yang menganggap Nabi Isa sebagai Tuhan.\n2.\tHukum-hukum:\nKeharusan memenuhi perjanjian, melanggar syiar Allah, makanan yang dihalalkan dan yang diharamkan, hukum mengawini perempuan Ahli Kitab, wudu, tayamum, mandi, hukum membunuh orang, mengacau dan mengganggu keamanan, melanggar sumpah dan kafaratnya, berjudi, berkorban untuk berhala, mengundi nasib, membunuh binatang waktu ihram dan persaksian dalam berwasiat.\n3. \tKisah-kisah:\nNabi Musa menyuruh kaumnya memasuki Palestina, kisah Habil dan Qabil, dan kisah Nabi Isa.\n4.\tLain-lain:\nKeharusan bersikap lemah-lembut terhadap sesama mukmin, bersikap keras terhadap orang-orang kafir, penyempurnaan agama Islam di zaman Nabi Muhammad saw, keharusan jujur dan berlaku adil, sikap dalam menghadapi berita-berita bohong, akibat berteman akrab dengan orang yang bukan Muslim; kutukan Allah terhadap orang-orang Yahudi, kewajiban rasul hanya menyampaikan agama, sikap Yahudi dan Nasrani terhadap Islam, Ka\u2019bah sakaguru kehidupan manusia, peringatan Allah supaya meninggalkan adat jahiliah dan larangan-larangan terhadap pertanyaan-pertanyaan yang mengakibatkan kesulitan menjalankan agama.",
        "outro_surah": null,
        "munasabah_prev_surah": "Hubungan Surah an-Nis\u0101\u2019 dengan al-M\u0101\u2019idah:\n1.\tSurah an-Nis\u0101\u2019 menerangkan beberapa macam akad, seperti perkawinan, perceraian, warisan, perjanjian, wasiat dan sebagainya, sedang permulaan Surah al-M\u0101\u2019idah menyatakan supaya hamba-hamba Allah memenuhi segala macam akad yang telah dilakukan, baik terhadap Allah, maupun terhadap sesama manusia, di samping menerangkan akad-akad yang lain.\n2.\tSurah an-Nis\u0101\u2019 mengemukakan hukum secara umum dan mendapat jalan untuk menetapkan suatu hukum, kemudian Surah al-M\u0101\u2019idah menjelaskan dan menegaskan hukum-hukum itu.\n3.\tSebagaimana halnya Surah al-Baqarah dan Surah \u0100li \u2018Imr\u0101n mengemukakan hal-hal yang berhubungan dengan pokok-pokok ajaran, seperti keesaan Allah dan kenabian, maka Surah an-Nis\u0101\u2019 dan al-M\u0101\u2019idah menerangkan tentang fur\u016b\u2019 agama (hukum fiqh), seperti hal-hal yang berhubungan dengan hukum keluarga dan sebagainya.\n4.\tAkhir Surah an-Nis\u0101\u2019 mengemukakan hujah-hujah atas kekeliruan orang-orang Yahudi dan Nasrani, serta kekeliruan kaum musyrik dan munafik. Hal yang serupa diterangkan secara panjang lebar dalam Surah al-M\u0101\u2019idah.\n5.\tSurah an-Nis\u0101\u2019 dimulai dengan Y\u0101 ayyuhan-n\u0101s (wahai manusia) yang nadanya sama dengan surah Makiyah, sedang Surah al-M\u0101\u2019idah seperti surah-surah Madaniyah, dimulai dengan Y\u0101 ayyuhalla\u017c\u012bna \u0101man\u016b (wahai orang yang beriman) Hal ini menyatakan sekalipun nadanya berbeda, tetapi yang dituju oleh kedua surah itu ialah semua manusia.",
        "munasabah_prev_theme": "Setelah pada ayat yang lalu diterangkan tentang kedengkian orang Yahudi kepada Nabi Muhammad dengan menentang ajakannya meskipun bukti-bukti telah cukup atas kerasulan, kenabian dan kebenarannya. Puncak kedengkian itu sampai kepada ancaman akan membunuh para sahabat Nabi saw terutama oleh pembesar mereka sebagaimana digambarkan dalam firman Allah:\n\u0627\u0650\u0630\u0652 \u0647\u064e\u0645\u0651\u064e \u0642\u064e\u0648\u0652\u0645\u064c \u0627\u064e\u0646\u0652 \u064a\u0651\u064e\u0628\u0652\u0633\u064f\u0637\u064f\u0648\u0652\u0653\u0627 \u0627\u0650\u0644\u064e\u064a\u0652\u0643\u064f\u0645\u0652 \u0627\u064e\u064a\u0652\u062f\u0650\u064a\u064e\u0647\u064f\u0645\u0652 \u0641\u064e\u0643\u064e\u0641\u0651\u064e \u0627\u064e\u064a\u0652\u062f\u0650\u064a\u064e\u0647\u064f\u0645\u0652 \u0639\u064e\u0646\u0652\u0643\u064f\u0645\u0652\n\u201cKetika suatu kaum bermaksud hendak menyerangmu dengan tangannya lalu Allah menahan tangan mereka dari kamu.\u201d (al-M\u0101\u2019idah/5:11).\nPada ayat ini diterangkan bahwa salah seorang putra Adam membunuh saudaranya, karena kurbannya tidak diterima Allah dan kurban saudaranya diterima.",
        "theme_group": "KISAH PEMBUNUHAN PERTAMA DAN BESARNYA\nMALAPETAKA AKIBAT PEMBUNUHAN",
        "kosakata": "Kosakata: Tab\u016b\u2019a \u062a\u064e\u0628\u064f\u0648\u0652\u0621\u064e (al-M\u0101\u2019idah/5: 29)\nArti kata tab\u016b\u2019a adalah \u201ckembali\u201d. Kemudian arti kata ini digunakan secara metafora dalam memperoleh akibat dari suatu tindakan atau perbuatan. Dalam ayat ini Habil mengatakan kepada saudaranya Qabil yang berupaya untuk membunuhnya bahwa dia tidak akan melawan saudaranya ketika akan membunuhnya, yang dia inginkan hanyalah semua dosa-dosanya ditanggung oleh saudaranya yang akan membunuhnya ketika dia kembali menghadap Allah. Di balik perkataan Habil ini terkandung maksud menasehati, mengingatkan dan menyadarkan saudaranya bahwa pembunuhan merupakan dosa besar. Pelaku pembunuhan akan menanggung dosa tindakan tersebut bahkan menanggung dosa orang yang dibunuhnya.",
        "sabab_nuzul": null,
        "conclusion": null
    }
}