{
    "id": 765,
    "surah_id": 5,
    "ayah": 96,
    "page": 124,
    "quarter_hizb": 13,
    "juz": 7,
    "manzil": 2,
    "arabic": "\u0627\u064f\u062d\u0650\u0644\u0651\u064e \u0644\u064e\u0643\u064f\u0645\u0652 \u0635\u064e\u064a\u0652\u062f\u064f \u0627\u0644\u0652\u0628\u064e\u062d\u0652\u0631\u0650 \u0648\u064e\u0637\u064e\u0639\u064e\u0627\u0645\u064f\u0647\u0657 \u0645\u064e\u062a\u064e\u0627\u0639\u064b\u0627 \u0644\u0651\u064e\u0643\u064f\u0645\u0652 \u0648\u064e\u0644\u0650\u0644\u0633\u0651\u064e\u064a\u0651\u064e\u0627\u0631\u064e\u0629\u0650 \u06da\u0648\u064e\u062d\u064f\u0631\u0651\u0650\u0645\u064e \u0639\u064e\u0644\u064e\u064a\u0652\u0643\u064f\u0645\u0652 \u0635\u064e\u064a\u0652\u062f\u064f \u0627\u0644\u0652\u0628\u064e\u0631\u0651\u0650 \u0645\u064e\u0627 \u062f\u064f\u0645\u0652\u062a\u064f\u0645\u0652 \u062d\u064f\u0631\u064f\u0645\u064b\u0627 \u06d7\u0648\u064e\u0627\u062a\u0651\u064e\u0642\u064f\u0648\u0627 \u0627\u0644\u0644\u0651\u0670\u0647\u064e \u0627\u0644\u0651\u064e\u0630\u0650\u064a\u0653\u0652 \u0627\u0650\u0644\u064e\u064a\u0652\u0647\u0650 \u062a\u064f\u062d\u0652\u0634\u064e\u0631\u064f\u0648\u0652\u0646\u064e ",
    "latin": "U\u1e25illa lakum \u1e63aidul-ba\u1e25ri wa \u1e6da\u2018\u0101muh\u016b mat\u0101\u2018al lakum wa lis-sayy\u0101rah(ti), wa \u1e25urrima \u2018alaikum \u1e63aidul-barri m\u0101 dumtum \u1e25urum\u0101(n), wattaqull\u0101hal-la\u017c\u012b ilaihi tu\u1e25syar\u016bn(a).",
    "translation": "Dihalalkan bagi kamu hewan buruan laut228) dan makanan (yang berasal dari) laut sebagai kesenangan bagimu, dan bagi orang-orang yang dalam perjalanan; dan diharamkan atasmu (menangkap) hewan buruan darat selama kamu dalam keadaan ihram. Bertakwalah kepada Allah yang hanya kepada-Nya kamu akan dikumpulkan.",
    "no_footnote": "228",
    "footnotes": "228) Termasuk dalam pengertian laut di sini adalah sungai, danau, kolam, dan sebagainya.",
    "surah": {
        "id": 5,
        "arabic": " \u0627\u0644\u0645\u0627\u06e4\u0626\u062f\u0629",
        "latin": "Al-M\u0101'idah",
        "transliteration": "Al-Ma'idah",
        "translation": "Hidangan",
        "num_ayah": 120,
        "page": 106,
        "location": "Madaniyah"
    },
    "tafsir": {
        "wajiz": "Allah membolehkan kaum mukmin untuk memakan hewan buruan yang hidup di laut. Dihalalkan bagimu orang-orang beriman memakan hewan buruan laut yang diperoleh dengan berbagai cara seperti memancing, menjala, atau memukat. Termasuk dalam pengertian laut di sini ialah sungai, danau, kolam, dan sebagainya. Dan dihalalkan pula makanan yang berasal dari laut, ikan atau hewan laut yang diperoleh dengan mudah, karena telah mati terapung atau terdampar di pantai sebagai makanan yang lezat bagimu dan makanan yang lezat bagi orang-orang yang dalam perjalanan di laut. Dan tetap diharamkan atasmu menangkap hewan darat yang hidup di tanah haram selama kamu sedang berihram untuk haji atau umrah. Dan bertakwalah kepada Allah dengan mengerjakan apa yang diperintahkan Allah dan menjauhi laranganNya, yang hanya kepada-Nya kamu sekalian akan dikumpulkan kembali pada hari kiamat di padang mahsyar.",
        "tahlili": "Dalam ayat ini Allah menerangkan, bahwa Dia menghalalkan bagi orang-orang mukmin, baik yang berihram, maupun tidak, untuk makan daging buruan laut, termasuk binatang sungai, danau dan sebagainya dan yang diperoleh dengan mudah, misalnya ikan-ikan yang baru mati dan terapung atau ikan yang terdampar di pantai dan sebagainya.\nSemua itu dikaruniakan Allah sebagai makanan yang lezat bagi mereka dan bagi orang-orang yang berada dalam perjalanan. Kemudian Allah menegaskan kembali bahwa Dia mengharamkan bagi orang-orang mukmin menangkap binatang buruan darat, selama mereka berihram.\nPada akhir ayat tersebut diperingatkan-Nya kepada orang-orang mukmin agar mereka senantiasa bertakwa kepada Allah yang kepada-Nya-lah mereka akan dikumpulkan kelak di hari Kiamat, untuk mempertanggungjawabkan segala amalan mereka dan kemudian diberi-Nya balasan dengan pahala ataupun siksa yang setimpal dengan amalan tersebut.",
        "intro_surah": "Surah al-M\u0101\u2019idah terdiri dari 120 ayat, termasuk golongan surah Madaniyah. Sekalipun ada ayatnya yang turun di Mekah namun ayat ini diturunkan sesudah Nabi Muhammad saw, hijrah ke Medinah pada waktu haji wada\u2019.\nSurah ini dinamakan al-M\u0101\u2019idah (Hidangan), karena menurut kisah, pengikut-pengikut setia Nabi Isa meminta kepada Nabi Isa agar Allah menurunkan untuk mereka al-m\u0101\u2019idah (hidangan makanan) dari langit (ayat 112). Dinamakan dengan al-\u2018Uq\u016bd (perjanjian), karena kata itu terdapat pada ayat pertama Surah ini, Allah menyuruh agar hamba-hamba-Nya memenuhi janji prasetia mereka terhadap Allah dan perjanjian-perjanjian yang mereka buat sesamanya.\nDinamakan juga al-Munqi\u017c (yang menyelamatkan), karena akhir surah ini mengandung kisah tentang Nabi Isa sebagai penyelamat pengikut-pengikut setianya dari azab Allah.\n\nPokok-pokok Isinya\n1.\tKeimanan:\n\tBantahan terhadap orang yang menganggap Nabi Isa sebagai Tuhan.\n2.\tHukum-hukum:\nKeharusan memenuhi perjanjian, melanggar syiar Allah, makanan yang dihalalkan dan yang diharamkan, hukum mengawini perempuan Ahli Kitab, wudu, tayamum, mandi, hukum membunuh orang, mengacau dan mengganggu keamanan, melanggar sumpah dan kafaratnya, berjudi, berkorban untuk berhala, mengundi nasib, membunuh binatang waktu ihram dan persaksian dalam berwasiat.\n3. \tKisah-kisah:\nNabi Musa menyuruh kaumnya memasuki Palestina, kisah Habil dan Qabil, dan kisah Nabi Isa.\n4.\tLain-lain:\nKeharusan bersikap lemah-lembut terhadap sesama mukmin, bersikap keras terhadap orang-orang kafir, penyempurnaan agama Islam di zaman Nabi Muhammad saw, keharusan jujur dan berlaku adil, sikap dalam menghadapi berita-berita bohong, akibat berteman akrab dengan orang yang bukan Muslim; kutukan Allah terhadap orang-orang Yahudi, kewajiban rasul hanya menyampaikan agama, sikap Yahudi dan Nasrani terhadap Islam, Ka\u2019bah sakaguru kehidupan manusia, peringatan Allah supaya meninggalkan adat jahiliah dan larangan-larangan terhadap pertanyaan-pertanyaan yang mengakibatkan kesulitan menjalankan agama.",
        "outro_surah": null,
        "munasabah_prev_surah": "Hubungan Surah an-Nis\u0101\u2019 dengan al-M\u0101\u2019idah:\n1.\tSurah an-Nis\u0101\u2019 menerangkan beberapa macam akad, seperti perkawinan, perceraian, warisan, perjanjian, wasiat dan sebagainya, sedang permulaan Surah al-M\u0101\u2019idah menyatakan supaya hamba-hamba Allah memenuhi segala macam akad yang telah dilakukan, baik terhadap Allah, maupun terhadap sesama manusia, di samping menerangkan akad-akad yang lain.\n2.\tSurah an-Nis\u0101\u2019 mengemukakan hukum secara umum dan mendapat jalan untuk menetapkan suatu hukum, kemudian Surah al-M\u0101\u2019idah menjelaskan dan menegaskan hukum-hukum itu.\n3.\tSebagaimana halnya Surah al-Baqarah dan Surah \u0100li \u2018Imr\u0101n mengemukakan hal-hal yang berhubungan dengan pokok-pokok ajaran, seperti keesaan Allah dan kenabian, maka Surah an-Nis\u0101\u2019 dan al-M\u0101\u2019idah menerangkan tentang fur\u016b\u2019 agama (hukum fiqh), seperti hal-hal yang berhubungan dengan hukum keluarga dan sebagainya.\n4.\tAkhir Surah an-Nis\u0101\u2019 mengemukakan hujah-hujah atas kekeliruan orang-orang Yahudi dan Nasrani, serta kekeliruan kaum musyrik dan munafik. Hal yang serupa diterangkan secara panjang lebar dalam Surah al-M\u0101\u2019idah.\n5.\tSurah an-Nis\u0101\u2019 dimulai dengan Y\u0101 ayyuhan-n\u0101s (wahai manusia) yang nadanya sama dengan surah Makiyah, sedang Surah al-M\u0101\u2019idah seperti surah-surah Madaniyah, dimulai dengan Y\u0101 ayyuhalla\u017c\u012bna \u0101man\u016b (wahai orang yang beriman) Hal ini menyatakan sekalipun nadanya berbeda, tetapi yang dituju oleh kedua surah itu ialah semua manusia.",
        "munasabah_prev_theme": "Pada ayat-ayat yang lalu Allah telah menetapkan haramnya minuman keras, berjudi, berkurban untuk berhala dan mengundi nasib. Pada ayat-ayat ini Allah melarang berburu binatang buruan bagi orang yang mengerjakan ibadah haji (sedang berihram).",
        "theme_group": "LARANGAN BERBURU \nPADA WAKTU IHRAM DAN DENDANYA\n",
        "kosakata": "1. Liya\u017c\u016bqa wab\u0101la Amrih \u0650\u0644\u064a\u064e\u0630\u064f\u0648\u0652\u0642\u064e \u0648\u064e\u0628\u064e\u0627\u0644\u064e \u0627\u064e\u0645\u0652\u0631\u0650\u0647(al-M\u0101\u2019idah/5: 95)\nLiya\u017c\u016bqa adalah bentuk Mu\u1e0dari\u2019 dari \u017c\u0101qa artinya mencicipi. Kata wab\u0101l artinya jeleknya kesudahan atau akibat yang buruk. Al-mar\u2019a al-wab\u012bl artinya ladang gembalaan yang berakibat buruk bagi hewan yang makan dari tempat tersebut. Asal arti kata dari al-wab\u0101l adalah beratnya sesuatu pada hal yang tidak menyenangkan (\u1e61iqalusy-syai fi al-makruh) atau sesuatu yang berat dan dikhawatirkan membahayakan.\nPada ayat ini sangsi yang dikenakan kepada mereka yang melanggar aturan pada waktu sedang berihram membunuh binatang buruan, yaitu mengganti dengan binatang ternak atau membayar kifarat atau berpuasa adalah sesuatu yang terasa berat bagi seseorang. Penggunaan kata liya\u017c\u016bqa atau mencicipi sangsi merupakan ungkapan sastera yang tinggi, seakan-akan sangsi tersebut berupa makanan yang bisa dicicipi agar pelanggar mengetahui sendiri beratnya sangsi tersebut.\nAl-Qur\u2019an memakai kata ini (wab\u0101l) pada 8 tempat. Penggunaannya berkisar antara hujan yang lebat (al-Baqarah/2: 264, 265) atau siksaan (al-Muzzammil/73: 16) atau akibat buruk (al-M\u0101\u2019idah/5: 95, al-\u1e24asyr/59: 15, at-Tag\u0101bun/64: 5).\n2. Sayy\u0101rah \u0633\u064e\u064a\u0651\u064e\u0627\u0631\u064e\u0629(al-M\u0101\u2019idah/5: 96)\nKata ini bentuk tak\u1e61ir/memperbanyak dari as-s\u0101\u2019ir artinya orang yang berjalan, terambil dari kata as-sayr yaitu perjalanan. Jadi sayy\u0101rah yaitu orang yang banyak berjalannya, maksudnya adalah para musafir atau kafilah. Pada saat ini kata sayy\u0101rah digunakan untuk kendaraan mobil yang bisa berjalan dengan cepat.\nAl-Qur\u2019an menggunakan kata ini di tiga tempat yaitu pada surah al-M\u0101\u2019idah/5: 96, Yusuf/12: 10, 19, semuanya digunakan untuk arti para musafir atau kafilah.",
        "sabab_nuzul": null,
        "conclusion": "1. \tAllah menguji keimanan dan ketaatan orang-orang yang sedang berihram dengan melarang mereka menangkap, menyembelih dan makan binatang buruan. Larangan ini berlaku bagi mereka yang sedang berihram untuk haji atau ihram untuk umrah.\n2. \tDengan ujian tersebut akan tampak dengan jelas siapa yang benar-benar beriman dan taat kepada Allah dan siapa pula yang ingkar. \n3. \tTerhadap orang yang melanggar larangan itu, dikenakan denda yang urutannya sebagai tersebut di atas. Hikmahnya adalah untuk membersihkan jiwa, konsentrasi dalam beribadah dan memelihara lingkungan.\n4. \tAllah menghalalkan untuk orang-orang yang sedang berihram dan orang yang sedang berpergian makan daging binatang laut. Sebaliknya, Allah mengharamkan makan daging binatang buruan darat, selagi mereka berihram."
    }
}