{
    "id": 735,
    "surah_id": 5,
    "ayah": 66,
    "page": 119,
    "quarter_hizb": 12.5,
    "juz": 6,
    "manzil": 2,
    "arabic": "\u0648\u064e\u0644\u064e\u0648\u0652 \u0627\u064e\u0646\u0651\u064e\u0647\u064f\u0645\u0652 \u0627\u064e\u0642\u064e\u0627\u0645\u064f\u0648\u0627 \u0627\u0644\u062a\u0651\u064e\u0648\u0652\u0631\u0670\u0649\u0629\u064e \u0648\u064e\u0627\u0644\u0652\u0627\u0650\u0646\u0652\u062c\u0650\u064a\u0652\u0644\u064e \u0648\u064e\u0645\u064e\u0627\u0653 \u0627\u064f\u0646\u0652\u0632\u0650\u0644\u064e \u0627\u0650\u0644\u064e\u064a\u0652\u0647\u0650\u0645\u0652 \u0645\u0651\u0650\u0646\u0652 \u0631\u0651\u064e\u0628\u0651\u0650\u0647\u0650\u0645\u0652 \u0644\u064e\u0627\u064e\u0643\u064e\u0644\u064f\u0648\u0652\u0627 \u0645\u0650\u0646\u0652 \u0641\u064e\u0648\u0652\u0642\u0650\u0647\u0650\u0645\u0652 \u0648\u064e\u0645\u0650\u0646\u0652 \u062a\u064e\u062d\u0652\u062a\u0650 \u0627\u064e\u0631\u0652\u062c\u064f\u0644\u0650\u0647\u0650\u0645\u0652\u06d7 \u0645\u0650\u0646\u0652\u0647\u064f\u0645\u0652 \u0627\u064f\u0645\u0651\u064e\u0629\u064c \u0645\u0651\u064f\u0642\u0652\u062a\u064e\u0635\u0650\u062f\u064e\u0629\u064c  \u06d7 \u0648\u064e\u0643\u064e\u062b\u0650\u064a\u0652\u0631\u064c \u0645\u0651\u0650\u0646\u0652\u0647\u064f\u0645\u0652 \u0633\u064e\u0627\u06e4\u0621\u064e \u0645\u064e\u0627 \u064a\u064e\u0639\u0652\u0645\u064e\u0644\u064f\u0648\u0652\u0646\u064e \u08d6 ",
    "latin": "Wa lau annahum aq\u0101mut-taur\u0101ta wal-inj\u012bla wa m\u0101 unzila ilaihim mir rabbihim la'akal\u016b min fauqihim wa min ta\u1e25ti arjulihim, minhum ummatum muqta\u1e63idah(tun), wa ka\u1e61\u012brum minhum s\u0101'a m\u0101 ya\u2018mal\u016bn(a).",
    "translation": "Seandainya mereka menegakkan (hukum) Taurat, Injil, dan (Al-Qur\u2019an) yang diturunkan kepada mereka dari Tuhan mereka, niscaya mereka akan mendapat makanan dari atas mereka dan dari bawah kaki mereka.219) Di antara mereka ada umat yang menempuh jalan yang lurus. Sementara itu, banyak di antara mereka sangat buruk apa yang mereka kerjakan.",
    "no_footnote": "219",
    "footnotes": "219) Sebagai pahalanya, Allah Swt. akan memberikan rahmat-Nya dengan menurunkan hujan dan menghidupkan tumbuh-tumbuhan yang buahnya berlimpah ruah.",
    "surah": {
        "id": 5,
        "arabic": " \u0627\u0644\u0645\u0627\u06e4\u0626\u062f\u0629",
        "latin": "Al-M\u0101'idah",
        "transliteration": "Al-Ma'idah",
        "translation": "Hidangan",
        "num_ayah": 120,
        "page": 106,
        "location": "Madaniyah"
    },
    "tafsir": {
        "wajiz": "Selanjutnya Allah juga menjelaskan tentang keadaan mereka yang berkaitan dengan ketaatan itu, dan sekiranya mereka, yaitu umat Yahudi dan Nasrani, sungguh-sungguh menjalankan hukum dan tuntunan yang terdapat dalam Taurat dan Injil dan percaya pula pada Al-Qur'an yang diturunkan kepada Nabi Muhammad yang ada di tengah mereka dari Tuhannya, niscaya mereka akan mendapat rahmat berupa rezeki atau makanan yang berasal dari atas mereka, yaitu berupa manna dan salwa atau hujan yang dapat menumbuhkan tanaman, dan dari bawah kaki mereka berupa hasil bumi yang melimpah. Sesungguhnya di antara mereka itu masih ada sekelompok yang jujur dan taat, yaitu yang selalu menelaah kitab suci dan tidak fanatik pada ajaran pendeta yang dinilai tidak sesuai serta selalu bersikap lurus, dan banyak di antara mereka sangat buruk apa yang mereka kerjakan dan telah menyimpang dari tuntunan kitab sucinya.",
        "tahlili": "Ayat ini menerangkan bahwa apabila Ahli Kitab itu benar-benar menjalankan hukum Taurat dan Injil seperti mengesakan Allah dan berpegang kepada berita gembira yang terdapat dalam Taurat dan Injil tentang kenabian Muhammad, tentulah Allah akan melapangkan kehidupan mereka. Jadi jika pada ayat yang lalu Allah menjanjikan kebahagiaan akhirat kepada Ahli Kitab, apabila mereka beriman dan bertakwa, akan mendapat kebahagiaan duniawi dan kelapangan rezeki serta limpahan rahmat-Nya dari langit, dengan menumbuhkan berbagai tanaman. Meskipun demikian mereka tetap durhaka dan menentang rasul-rasul Allah.\nAyat ini juga menerangkan bahwa di antara orang-orang Yahudi ada golongan yang bimbang dalam beragama, tidak berpegang secara fanatik kepada pendapat-pendapat pendeta-pendetanya dan tidak pula memandang enteng. Memang mayoritas orang Yahudi itu sangat fanatik kepada pendapat-pendapat pendetanya. Golongan inilah yang buruk tingkah lakunya. Hal serupa itu terjadi dalam kalangan kaum Nasrani.\nMenurut kebiasaan, meskipun golongan pertengahan dari masing-masing agama itu tidak banyak pengikutnya, namun dari kalangan mereka timbul orang-orang yang suka memperbaiki keadaan dan mengikuti perkembangan serta menerima kebenaran. Orang-orang seperti ini terdapat pada setiap umat dan tiap-tiap masa. Umpamanya Abdullah bin Salam dan kawan-kawannya dari kalangan Yahudi menjadi pengikut Nabi Muhammad yang setia. Demikian pula Najasyi dan kawan-kawan dari kalangan Nasrani menjadi mengikut Nabi Muhammad yang setia pula. Hal tersebut menunjukkan bahwa fungsi pemeluk agama adalah mencari kebenaran. Maka jika pemeluk suatu agama berpegang kepada petunjuk-petunjuk agama secara benar, tentulah dia tidak akan menjadi fanatik, kaku dan menerima agama yang dibenarkan di dalam kitab-kitabnya. Dalam mencari kebenaran itu modal utama adalah keikhlasan yang disertai ilmu pengetahuan. Mencari kebenaran dengan modal ini terdapat di dalam agama Islam. Pemeluk Islam sendiri yang tidak mengamalkan petunjuk-petunjuk Islam, tentulah kebenaran yang ada pada Islam itu tidak dapat diperolehnya. Sehubungan dengan ayat ini terdapat hadis Nabi yang diriwayatkan Ziad bin Labid yaitu:\n\u0639\u064e\u0646\u0652 \u0632\u0650\u064a\u064e\u0627\u062f\u0650 \u0628\u0652\u0646\u0650 \u0644\u064e\u0628\u0650\u064a\u0652\u062f\u064c \u0642\u064e\u0627\u0644\u064e \u0630\u064e\u0643\u064e\u0631\u064e \u0627\u0644\u0646\u0651\u064e\u0628\u0650\u064a\u0651\u064f \u0635\u064e\u0644\u0651\u064e\u0649 \u0627\u0644\u0644\u0647 \u064f\u0639\u064e\u0644\u064e\u064a\u0652\u0647\u0650 \u0648\u064e\u0633\u064e\u0644\u0651\u064e\u0645\u064e \u0634\u064e\u064a\u0652\u0626\u064b\u0627 \u0641\u064e\u0642\u064e\u0627\u0644\u064e \u0648\u064e\u0630\u0670\u0644\u0650\u0643\u064e \u0639\u0650\u0646\u0652\u062f\u064e \u0627\u064e\u0648\u064e\u0627\u0646\u0650 \u0630\u0650\u0647\u064e\u0627\u0628\u0650 \u0627\u0644\u0652\u0639\u0650\u0644\u0652\u0645\u0650 \u0642\u064e\u0627\u0644\u064e \u0642\u064f\u0644\u0652\u0646\u064e\u0627 \u064a\u064e\u0627 \u0631\u064e\u0633\u064f\u0648\u0652\u0644\u064e \u0627\u0644\u0644\u0647\u0650! \u0648\u064e\u0643\u064e\u064a\u0652\u0641\u064e \u064a\u064e\u0630\u0652\u0647\u064e\u0628\u064f \u0627\u0644\u0652\u0639\u0650\u0644\u0652\u0645\u064f \u0648\u064e\u0646\u064e\u062d\u0652\u0646\u064f \u0646\u064e\u0642\u0652\u0631\u064e\u0623\u064f \u0627\u0644\u0652\u0642\u064f\u0631\u0652\u0627\u0670\u0646\u064e \u0648\u064e\u0646\u064f\u0642\u0652\u0631\u0650\u0626\u064f\u0647\u064f \u0627\u064e\u0628\u0652\u0646\u064e\u0627\u0621\u064e\u0646\u064e\u0627 \u0648\u064e\u064a\u064f\u0642\u0652\u0631\u0650\u0624\u064f\u0647\u064f \u0627\u064e\u0628\u0652\u0646\u064e\u0627\u0624\u064f\u0646\u064e\u0627 \u0627\u064e\u0628\u0652\u0646\u064e\u0627\u0621\u064e\u0647\u064f\u0645\u0652 \u0627\u0650\u0644\u064e\u0649 \u064a\u064e\u0648\u0652\u0645\u0650 \u0627\u0644\u0652\u0642\u0650\u064a\u064e\u0627\u0645\u064e\u0629\u0650\u061f \u0642\u064e\u0627\u0644\u064e: \u062b\u064e\u0643\u0650\u0644\u064e\u062a\u0652\u0643\u064e \u0627\u064f\u0645\u0651\u064f\u0643\u064e \u064a\u064e\u0627 \u0627\u0628\u0652\u0646\u064e \u0627\u064f\u0645\u0651\u064e \u0644\u064e\u0628\u0650\u064a\u0652\u062f\u064d\u060c \u0627\u0650\u0646\u0652 \u0643\u064f\u0646\u0652\u062a\u064f \u064e\u0644\u0627\u064e\u0631\u064e\u0627\u0643\u064e \u0645\u0650\u0646\u0652 \u0627\u064e\u0641\u0652\u0642\u064e\u0647\u0650 \u0631\u064e\u062c\u064f\u0644\u064d \u0628\u0650\u0627\u0644\u0652\u0645\u064e\u062f\u0650\u064a\u0652\u0646\u064e\u0629\u0650 \u0627\u064e\u0648\u064e\u0644\u064e\u064a\u0652\u0633\u064e \u0647\u0670\u0630\u0650\u0647\u0650 \u0627\u0644\u0652\u064a\u064e\u0647\u064f\u0648\u0652\u062f\u064f \u0648\u064e\u0627\u0644\u0646\u0651\u064e\u0635\u064e\u0627\u0631\u064e\u0649 \u064a\u064e\u0642\u0652\u0631\u064e\u0621\u064f\u0648\u0652\u0646\u064e \u0627\u0644\u062a\u0651\u064e\u0648\u0652\u0631\u064e\u0627\u0629\u064e \u0648\u064e\u0627\u0652\u0644\u0627\u0650\u0646\u0652\u062c\u0650\u064a\u0652\u0644\u064e \u0648\u064e\u0644\u0627\u064e \u064a\u064e\u0646\u0652\u062a\u064e\u0641\u0650\u0639\u064f\u0648\u0652\u0646\u064e \u0645\u0650\u0645\u0651\u064e\u0627 \u0641\u0650\u064a\u0652\u0647\u0650\u0645\u064e\u0627 \u0628\u0650\u0634\u064e\u064a\u0652\u0621\u064d (\u0631\u0648\u0627\u0647 \u0623\u062d\u0645\u062f) \nDari Ziad bin Labid, ia berkata, \u201cNabi Muhammad saw, membicarakan sesuatu lalu beliau berkata, \u201cHal demikian itu adalah pada waktu ilmu pengetahuan telah lenyap. Ziad berkata, \u201cKami (para sahabat) berkata \u201cWahai Rasulullah bagaimanakah ilmu pengetahuan bisa lenyap, sedangkan kami membaca Al-Qur\u2019an dan kami membacakannya pula kepada anak-anak kami dan anak-anak kami itu membacakannya pula kepada anak-anak mereka sampai hari Kiamat.\u201d Rasulullah. saw menjawab, \u201cCelakalah engkau hai anak Ibnu Labid, jika aku mengetahui engkau adalah orang-orang yang paling banyak ilmunya di antara penduduk Medinah, tidakkah orang-orang Yahudi dan Nasrani itu membaca Taurat dan Injil, sedangkan mereka tidak mendapat manfaatnya sedikit pun.\u201d (Riwayat A\u1e25mad).\n\nJelaslah dari hadis ini bahwa kaum Muslimin yang tidak mengamalkan petunjuk agamanya, mereka serupa dengan orang Yahudi dan Nasrani. Menurut riwayat Ibnu Ab\u012b \u1e24\u0101tim, setelah pembicaraan itu maka turunlah ayat 66 ini.",
        "intro_surah": "Surah al-M\u0101\u2019idah terdiri dari 120 ayat, termasuk golongan surah Madaniyah. Sekalipun ada ayatnya yang turun di Mekah namun ayat ini diturunkan sesudah Nabi Muhammad saw, hijrah ke Medinah pada waktu haji wada\u2019.\nSurah ini dinamakan al-M\u0101\u2019idah (Hidangan), karena menurut kisah, pengikut-pengikut setia Nabi Isa meminta kepada Nabi Isa agar Allah menurunkan untuk mereka al-m\u0101\u2019idah (hidangan makanan) dari langit (ayat 112). Dinamakan dengan al-\u2018Uq\u016bd (perjanjian), karena kata itu terdapat pada ayat pertama Surah ini, Allah menyuruh agar hamba-hamba-Nya memenuhi janji prasetia mereka terhadap Allah dan perjanjian-perjanjian yang mereka buat sesamanya.\nDinamakan juga al-Munqi\u017c (yang menyelamatkan), karena akhir surah ini mengandung kisah tentang Nabi Isa sebagai penyelamat pengikut-pengikut setianya dari azab Allah.\n\nPokok-pokok Isinya\n1.\tKeimanan:\n\tBantahan terhadap orang yang menganggap Nabi Isa sebagai Tuhan.\n2.\tHukum-hukum:\nKeharusan memenuhi perjanjian, melanggar syiar Allah, makanan yang dihalalkan dan yang diharamkan, hukum mengawini perempuan Ahli Kitab, wudu, tayamum, mandi, hukum membunuh orang, mengacau dan mengganggu keamanan, melanggar sumpah dan kafaratnya, berjudi, berkorban untuk berhala, mengundi nasib, membunuh binatang waktu ihram dan persaksian dalam berwasiat.\n3. \tKisah-kisah:\nNabi Musa menyuruh kaumnya memasuki Palestina, kisah Habil dan Qabil, dan kisah Nabi Isa.\n4.\tLain-lain:\nKeharusan bersikap lemah-lembut terhadap sesama mukmin, bersikap keras terhadap orang-orang kafir, penyempurnaan agama Islam di zaman Nabi Muhammad saw, keharusan jujur dan berlaku adil, sikap dalam menghadapi berita-berita bohong, akibat berteman akrab dengan orang yang bukan Muslim; kutukan Allah terhadap orang-orang Yahudi, kewajiban rasul hanya menyampaikan agama, sikap Yahudi dan Nasrani terhadap Islam, Ka\u2019bah sakaguru kehidupan manusia, peringatan Allah supaya meninggalkan adat jahiliah dan larangan-larangan terhadap pertanyaan-pertanyaan yang mengakibatkan kesulitan menjalankan agama.",
        "outro_surah": null,
        "munasabah_prev_surah": "Hubungan Surah an-Nis\u0101\u2019 dengan al-M\u0101\u2019idah:\n1.\tSurah an-Nis\u0101\u2019 menerangkan beberapa macam akad, seperti perkawinan, perceraian, warisan, perjanjian, wasiat dan sebagainya, sedang permulaan Surah al-M\u0101\u2019idah menyatakan supaya hamba-hamba Allah memenuhi segala macam akad yang telah dilakukan, baik terhadap Allah, maupun terhadap sesama manusia, di samping menerangkan akad-akad yang lain.\n2.\tSurah an-Nis\u0101\u2019 mengemukakan hukum secara umum dan mendapat jalan untuk menetapkan suatu hukum, kemudian Surah al-M\u0101\u2019idah menjelaskan dan menegaskan hukum-hukum itu.\n3.\tSebagaimana halnya Surah al-Baqarah dan Surah \u0100li \u2018Imr\u0101n mengemukakan hal-hal yang berhubungan dengan pokok-pokok ajaran, seperti keesaan Allah dan kenabian, maka Surah an-Nis\u0101\u2019 dan al-M\u0101\u2019idah menerangkan tentang fur\u016b\u2019 agama (hukum fiqh), seperti hal-hal yang berhubungan dengan hukum keluarga dan sebagainya.\n4.\tAkhir Surah an-Nis\u0101\u2019 mengemukakan hujah-hujah atas kekeliruan orang-orang Yahudi dan Nasrani, serta kekeliruan kaum musyrik dan munafik. Hal yang serupa diterangkan secara panjang lebar dalam Surah al-M\u0101\u2019idah.\n5.\tSurah an-Nis\u0101\u2019 dimulai dengan Y\u0101 ayyuhan-n\u0101s (wahai manusia) yang nadanya sama dengan surah Makiyah, sedang Surah al-M\u0101\u2019idah seperti surah-surah Madaniyah, dimulai dengan Y\u0101 ayyuhalla\u017c\u012bna \u0101man\u016b (wahai orang yang beriman) Hal ini menyatakan sekalipun nadanya berbeda, tetapi yang dituju oleh kedua surah itu ialah semua manusia.",
        "munasabah_prev_theme": "Ayat-ayat yang lalu mengemukakan keburukan-keburukan orang Yahudi, antara lain, kelancangan mereka melakukan perbuatan dosa dan mencari-cari permusuhan serta makan makanan yang haram, karena mereka memandang bahwa segala cara boleh ditempuh asal apa yang mereka inginkan dapat dicapai, maka ayat ini menerangkan perbuatan mereka yang lebih keji seperti kelancangan mereka membuat-buat sifat Allah menurut dugaan dan khayalan mereka. ",
        "theme_group": "KUTUKAN TERHADAP ORANG YAHUDI",
        "kosakata": "Kosakata: Yadull\u0101h \u064a\u064e\u062f\u064f \u0627\u0644\u0644\u0647\u0650 (al-M\u0101\u2019idah/5: 64)\nYadull\u0101h adalah bentuk kata i\u1e0d\u0101fah yad dan Allah, yad dalam terminologi Arab mempunyai beberapa pengertian, di antaranya \u201canggota tubuh (tangan)\u201d, \u201cnikmat/anugerah\u201d, \u201ckekuatan\u201d, \u201ckekuasaan\u201d, dan \u201ckerajaan\u201d. Kata yadull\u0101h dalam ayat 64 di atas, tidak mungkin untuk diartikan dengan anggota tubuh (tangan) yang serupa dengan tangan makhluk-Nya. Karena tidak ada satu pun yang serupa dengan Allah (laisa kami\u1e61lih\u012b syai\u2019). Barangkali yang lebih mendekati kebenaran kata yad dalam konteks ayat 64 di atas adalah anugerah dan nikmat Allah. Terlebih-lebih bila dikaitkan dengan ungkapan kata selanjutnya yaitu bal yad\u0101hu mabs\u016b\u1e6dat\u0101n yang artinya kedua tangan-Nya yang terbuka. Ungkapan ini merupakan kiasan atas gambaran akan kemurahan Allah terhadap makhluk-Nya yang tiada tara. Ayat-ayat yang menyebutkan anggota tubuh dan dinisbatkan kepada Allah seperti tangan, wajah dan mata adalah ayat-ayat mutasyabihat yang hanya diketahui arti lafaznya, tetapi hakikatnya hanya Allah yang mengetahui.",
        "sabab_nuzul": null,
        "conclusion": "Ayat ini menerangkan bahwa apabila Ahli Kitab itu benar-benar menjalankan hukum Taurat dan Injil seperti mengesakan Allah dan berpegang kepada berita gembira yang terdapat dalam Taurat dan Injil tentang kenabian Muhammad, tentulah Allah akan melapangkan kehidupan mereka. Jadi jika pada ayat yang lalu Allah menjanjikan kebahagiaan akhirat kepada Ahli Kitab, apabila mereka beriman dan bertakwa, akan mendapat kebahagiaan duniawi dan kelapangan rezeki serta limpahan rahmat-Nya dari langit, dengan menumbuhkan berbagai tanaman. Meskipun demikian mereka tetap durhaka dan menentang rasul-rasul Allah.\nAyat ini juga menerangkan bahwa di antara orang-orang Yahudi ada golongan yang bimbang dalam beragama, tidak berpegang secara fanatik kepada pendapat-pendapat pendeta-pendetanya dan tidak pula memandang enteng. Memang mayoritas orang Yahudi itu sangat fanatik kepada pendapat-pendapat pendetanya. Golongan inilah yang buruk tingkah lakunya. Hal serupa itu terjadi dalam kalangan kaum Nasrani.\nMenurut kebiasaan, meskipun golongan pertengahan dari masing-masing agama itu tidak banyak pengikutnya, namun dari kalangan mereka timbul orang-orang yang suka memperbaiki keadaan dan mengikuti perkembangan serta menerima kebenaran. Orang-orang seperti ini terdapat pada setiap umat dan tiap-tiap masa. Umpamanya Abdullah bin Salam dan kawan-kawannya dari kalangan Yahudi menjadi pengikut Nabi Muhammad yang setia. Demikian pula Najasyi dan kawan-kawan dari kalangan Nasrani menjadi mengikut Nabi Muhammad yang setia pula. Hal tersebut menunjukkan bahwa fungsi pemeluk agama adalah mencari kebenaran. Maka jika pemeluk suatu agama berpegang kepada petunjuk-petunjuk agama secara benar, tentulah dia tidak akan menjadi fanatik, kaku dan menerima agama yang dibenarkan di dalam kitab-kitabnya. Dalam mencari kebenaran itu modal utama adalah keikhlasan yang disertai ilmu pengetahuan. Mencari kebenaran dengan modal ini terdapat di dalam agama Islam. Pemeluk Islam sendiri yang tidak mengamalkan petunjuk-petunjuk Islam, tentulah kebenaran yang ada pada Islam itu tidak dapat diperolehnya. Sehubungan dengan ayat ini terdapat hadis Nabi yang diriwayatkan Ziad bin Labid yaitu:\n\u0639\u064e\u0646\u0652 \u0632\u0650\u064a\u064e\u0627\u062f\u0650 \u0628\u0652\u0646\u0650 \u0644\u064e\u0628\u0650\u064a\u0652\u062f\u064c \u0642\u064e\u0627\u0644\u064e \u0630\u064e\u0643\u064e\u0631\u064e \u0627\u0644\u0646\u0651\u064e\u0628\u0650\u064a\u0651\u064f \u0635\u064e\u0644\u0651\u064e\u0649 \u0627\u0644\u0644\u0647 \u064f\u0639\u064e\u0644\u064e\u064a\u0652\u0647\u0650 \u0648\u064e\u0633\u064e\u0644\u0651\u064e\u0645\u064e \u0634\u064e\u064a\u0652\u0626\u064b\u0627 \u0641\u064e\u0642\u064e\u0627\u0644\u064e \u0648\u064e\u0630\u0670\u0644\u0650\u0643\u064e \u0639\u0650\u0646\u0652\u062f\u064e \u0627\u064e\u0648\u064e\u0627\u0646\u0650 \u0630\u0650\u0647\u064e\u0627\u0628\u0650 \u0627\u0644\u0652\u0639\u0650\u0644\u0652\u0645\u0650 \u0642\u064e\u0627\u0644\u064e \u0642\u064f\u0644\u0652\u0646\u064e\u0627 \u064a\u064e\u0627 \u0631\u064e\u0633\u064f\u0648\u0652\u0644\u064e \u0627\u0644\u0644\u0647\u0650! \u0648\u064e\u0643\u064e\u064a\u0652\u0641\u064e \u064a\u064e\u0630\u0652\u0647\u064e\u0628\u064f \u0627\u0644\u0652\u0639\u0650\u0644\u0652\u0645\u064f \u0648\u064e\u0646\u064e\u062d\u0652\u0646\u064f \u0646\u064e\u0642\u0652\u0631\u064e\u0623\u064f \u0627\u0644\u0652\u0642\u064f\u0631\u0652\u0627\u0670\u0646\u064e \u0648\u064e\u0646\u064f\u0642\u0652\u0631\u0650\u0626\u064f\u0647\u064f \u0627\u064e\u0628\u0652\u0646\u064e\u0627\u0621\u064e\u0646\u064e\u0627 \u0648\u064e\u064a\u064f\u0642\u0652\u0631\u0650\u0624\u064f\u0647\u064f \u0627\u064e\u0628\u0652\u0646\u064e\u0627\u0624\u064f\u0646\u064e\u0627 \u0627\u064e\u0628\u0652\u0646\u064e\u0627\u0621\u064e\u0647\u064f\u0645\u0652 \u0627\u0650\u0644\u064e\u0649 \u064a\u064e\u0648\u0652\u0645\u0650 \u0627\u0644\u0652\u0642\u0650\u064a\u064e\u0627\u0645\u064e\u0629\u0650\u061f \u0642\u064e\u0627\u0644\u064e: \u062b\u064e\u0643\u0650\u0644\u064e\u062a\u0652\u0643\u064e \u0627\u064f\u0645\u0651\u064f\u0643\u064e \u064a\u064e\u0627 \u0627\u0628\u0652\u0646\u064e \u0627\u064f\u0645\u0651\u064e \u0644\u064e\u0628\u0650\u064a\u0652\u062f\u064d\u060c \u0627\u0650\u0646\u0652 \u0643\u064f\u0646\u0652\u062a\u064f \u064e\u0644\u0627\u064e\u0631\u064e\u0627\u0643\u064e \u0645\u0650\u0646\u0652 \u0627\u064e\u0641\u0652\u0642\u064e\u0647\u0650 \u0631\u064e\u062c\u064f\u0644\u064d \u0628\u0650\u0627\u0644\u0652\u0645\u064e\u062f\u0650\u064a\u0652\u0646\u064e\u0629\u0650 \u0627\u064e\u0648\u064e\u0644\u064e\u064a\u0652\u0633\u064e \u0647\u0670\u0630\u0650\u0647\u0650 \u0627\u0644\u0652\u064a\u064e\u0647\u064f\u0648\u0652\u062f\u064f \u0648\u064e\u0627\u0644\u0646\u0651\u064e\u0635\u064e\u0627\u0631\u064e\u0649 \u064a\u064e\u0642\u0652\u0631\u064e\u0621\u064f\u0648\u0652\u0646\u064e \u0627\u0644\u062a\u0651\u064e\u0648\u0652\u0631\u064e\u0627\u0629\u064e \u0648\u064e\u0627\u0652\u0644\u0627\u0650\u0646\u0652\u062c\u0650\u064a\u0652\u0644\u064e \u0648\u064e\u0644\u0627\u064e \u064a\u064e\u0646\u0652\u062a\u064e\u0641\u0650\u0639\u064f\u0648\u0652\u0646\u064e \u0645\u0650\u0645\u0651\u064e\u0627 \u0641\u0650\u064a\u0652\u0647\u0650\u0645\u064e\u0627 \u0628\u0650\u0634\u064e\u064a\u0652\u0621\u064d (\u0631\u0648\u0627\u0647 \u0623\u062d\u0645\u062f) \nDari Ziad bin Labid, ia berkata, \u201cNabi Muhammad saw, membicarakan sesuatu lalu beliau berkata, \u201cHal demikian itu adalah pada waktu ilmu pengetahuan telah lenyap. Ziad berkata, \u201cKami (para sahabat) berkata \u201cWahai Rasulullah bagaimanakah ilmu pengetahuan bisa lenyap, sedangkan kami membaca Al-Qur\u2019an dan kami membacakannya pula kepada anak-anak kami dan anak-anak kami itu membacakannya pula kepada anak-anak mereka sampai hari Kiamat.\u201d Rasulullah. saw menjawab, \u201cCelakalah engkau hai anak Ibnu Labid, jika aku mengetahui engkau adalah orang-orang yang paling banyak ilmunya di antara penduduk Medinah, tidakkah orang-orang Yahudi dan Nasrani itu membaca Taurat dan Injil, sedangkan mereka tidak mendapat manfaatnya sedikit pun.\u201d (Riwayat A\u1e25mad).\n\nJelaslah dari hadis ini bahwa kaum Muslimin yang tidak mengamalkan petunjuk agamanya, mereka serupa dengan orang Yahudi dan Nasrani. Menurut riwayat Ibnu Ab\u012b \u1e24\u0101tim, setelah pembicaraan itu maka turunlah ayat 66 ini."
    }
}