{
    "id": 760,
    "surah_id": 5,
    "ayah": 91,
    "page": 123,
    "quarter_hizb": 13,
    "juz": 7,
    "manzil": 2,
    "arabic": "\u0627\u0650\u0646\u0651\u064e\u0645\u064e\u0627 \u064a\u064f\u0631\u0650\u064a\u0652\u062f\u064f \u0627\u0644\u0634\u0651\u064e\u064a\u0652\u0637\u0670\u0646\u064f \u0627\u064e\u0646\u0652 \u064a\u0651\u064f\u0648\u0652\u0642\u0650\u0639\u064e \u0628\u064e\u064a\u0652\u0646\u064e\u0643\u064f\u0645\u064f \u0627\u0644\u0652\u0639\u064e\u062f\u064e\u0627\u0648\u064e\u0629\u064e \u0648\u064e\u0627\u0644\u0652\u0628\u064e\u063a\u0652\u0636\u064e\u0627\u06e4\u0621\u064e \u0641\u0650\u0649 \u0627\u0644\u0652\u062e\u064e\u0645\u0652\u0631\u0650 \u0648\u064e\u0627\u0644\u0652\u0645\u064e\u064a\u0652\u0633\u0650\u0631\u0650 \u0648\u064e\u064a\u064e\u0635\u064f\u062f\u0651\u064e\u0643\u064f\u0645\u0652 \u0639\u064e\u0646\u0652 \u0630\u0650\u0643\u0652\u0631\u0650 \u0627\u0644\u0644\u0651\u0670\u0647\u0650 \u0648\u064e\u0639\u064e\u0646\u0650 \u0627\u0644\u0635\u0651\u064e\u0644\u0670\u0648\u0629\u0650 \u0641\u064e\u0647\u064e\u0644\u0652 \u0627\u064e\u0646\u0652\u062a\u064f\u0645\u0652 \u0645\u0651\u064f\u0646\u0652\u062a\u064e\u0647\u064f\u0648\u0652\u0646\u064e ",
    "latin": "Innam\u0101 yur\u012bdusy-syai\u1e6d\u0101nu ay y\u016bqi\u2018a bainakumul-\u2018ad\u0101wata wal-bag\u1e0d\u0101'a fil-khamri wal-maisiri wa ya\u1e63uddakum \u2018an \u017cikrill\u0101hi wa \u2018ani\u1e63-\u1e63al\u0101ti fahal antum muntah\u016bn(a).",
    "translation": "Sesungguhnya setan hanya bermaksud menimbulkan permusuhan dan kebencian di antara kamu melalui minuman keras dan judi serta (bermaksud) menghalangi kamu dari mengingat Allah dan (melaksanakan) salat, maka tidakkah kamu mau berhenti?",
    "no_footnote": null,
    "footnotes": null,
    "surah": {
        "id": 5,
        "arabic": " \u0627\u0644\u0645\u0627\u06e4\u0626\u062f\u0629",
        "latin": "Al-M\u0101'idah",
        "transliteration": "Al-Ma'idah",
        "translation": "Hidangan",
        "num_ayah": 120,
        "page": 106,
        "location": "Madaniyah"
    },
    "tafsir": {
        "wajiz": "Allah menegaskan bahwa setan itu bertujuan menciptakan permusuhan dan kebencian di antara manusia. Dengan membujuk kamu meneguk minuman keras dan mendorong kamu mencoba-coba berjudi, setan hanyalah bermaksud dengan sangat cerdik menimbulkan permusuhan akibat kamu dipengaruhi minuman keras dan kecanduan judi. Minuman keras dan judi juga menimbulkan kebencian antara kamu dengan anak, istri, saudara, tetangga, dan teman temanmu. Di samping itu, minuman keras dan judi itu menghalang-halangi kamu dari mengingat Allah dan melaksanakan salat, karena pikiranmu menjadi kusut, hatimu menjadi kusam, dan jiwamu menjadi kotor; maka tidakkah kamu mau berpikir jernih dan sadar, serta bertekad untuk berhenti dari kebiasaan meneguk minuman keras dan berjudi itu?",
        "tahlili": "Ayat ini menyebutkan alasan mengapa Allah mengharamkan meminum khamar dan berjudi bagi orang-orang mukmin. Alasan yang disebutkan dalam ayat ini ada dua macam, Pertama, karena dengan kedua perbuatan itu setan ingin menimbulkan permusuhan dan rasa saling membenci di antara sesama manusia. Kedua, karena akan melalaikan mereka dari mengingat Allah dan salat.\nPada ayat yang lain telah disebutkan bahwa minum khamar dan berjudi adalah perbuatan keji dan termasuk perbuatan setan. Artinya setanlah yang menggoda manusia untuk melakukannya agar timbul permusuhan dan rasa saling membenci antara mereka.\nTimbulnya berbagai bahaya tersebut pada orang yang suka minum khamar dan berjudi, tak dapat dipungkiri. Kenyataan yang dialami oleh orang-orang semacam itu cukup menjadi bukti. Peminum khamar tentulah pemabuk. Orang yang mabuk tentu kehilangan kesadaran. Orang yang hilang kesadarannya mudah melakukan perbuatan yang tidak layak, atau mengucapkan kata-kata yang seharusnya tidak diucapkannya. Perbuatan dan perkataannya itu sering kali merugikan orang lain, sehingga menimbulkan permusuhan antara mereka. Di sisi lain, orang yang sedang mabuk tentu tidak ingat untuk melakukan ibadah dan zikir atau apabila ia melakukannya, tentu dengan cara yang tidak benar dan tidak khusyuk. Apalagi minum minuman keras menimbulkan kecanduan bahkan bisa menjadikan seseorang tergantung, yaitu ia tidak dapat bekerja jika tidak minum lebih dulu.\nOrang yang suka berjudi biasanya selalu berharap akan menang. Oleh karena itu, ia tidak pernah jera dari perbuatan itu, selagi ia masih mempunyai uang, atau barang yang akan dipertaruhkannya. Ketika uang atau barangnya telah habis, ia akan berusaha untuk mengambil hak orang lain dengan jalan yang tidak sah. Betapa banyak ditemui pegawai atau karyawan perusahaan yang telah mengkorup uang yang dihabiskannya di meja judi. Di antara penjudi-penjudi itu sendiri timbul rasa permusuhan, karena masing-masing ingin mengalahkan lawannya, atau ingin membalas dendam kepada lawan yang telah mengalahkannya. Seorang penjudi tentu sering melupakan ibadah, karena mereka yang sedang asyik berjudi, tidak akan menghentikan permainannya untuk melakukan ibadah, sebab hati mereka sudah tunduk kepada setan yang senantiasa berusaha untuk menghalang-halangi manusia beribadah kepada Allah dan menghendakinya ke meja judi.\nPada ayat ini Allah hanya menyebutkan bahaya khamar dan berjudi, sedang bahaya mempersembahkan korban untuk berhala serta mengundi nasib tidak lagi disebutkan. Bila kita teliti, dapatlah dikatakan bahwa hal itu disebabkan oleh dua hal.\nPertama, karena kurban untuk patung dan mengundi nasib itu telah disebutkan hukumnya dalam firman Allah:\n\u0648\u064e\u0645\u064e\u0627 \u0630\u064f\u0628\u0650\u062d\u064e \u0639\u064e\u0644\u064e\u0649 \u0627\u0644\u0646\u0651\u064f\u0635\u064f\u0628\u0650 \u0648\u064e\u0627\u064e\u0646\u0652 \u062a\u064e\u0633\u0652\u062a\u064e\u0642\u0652\u0633\u0650\u0645\u064f\u0648\u0652\u0627 \u0628\u0650\u0627\u0644\u0652\u0627\u064e\u0632\u0652\u0644\u064e\u0627\u0645\u0650\u06d7 \u0630\u0670\u0644\u0650\u0643\u064f\u0645\u0652 \u0641\u0650\u0633\u0652\u0642\u064c\n\n\u2026 dan (diharamkan pula) yang disembelih untuk berhala. Dan (diharamkan pula) mengundi nasib dengan azlam (anak panah), (karena) itu suatu perbuatan fasik. (al-M\u0101\u2032idah/5: 3).\n\nKedua perbuatan itu, dalam ayat tersebut telah dinyatakan sebagai \u201cKefasikan\u201d.\nKedua, ialah karena khamar dan judi itu amat besar bahayanya. Itulah yang diutamakan pengharamannya dalam ayat ini, karena sebagian kaum Muslimin masih saja melakukannya sesudah turunnya ayat 219 Surah al-Baqarah/2 dan ayat 43 Surah an-Nis\u0101\u2032/4, terutama mengenai khamar.\nSetelah menjelaskan bahaya-bahaya yang ditimbulkan oleh khamar dan judi, maka Allah, dengan nada bertanya memperingatkan orang-orang mukmin. \u201capakah mereka mau berhenti (dari mengerjakan pekerjaan itu)?\u201d Maksudnya ialah bahwa setelah mereka diberi tahu tentang bahaya yang demikian besar dari perbuatan-perbuatan itu, maka hendaklah mereka menghentikannya, karena mereka sendirilah yang akan menanggung akibatnya, yaitu kerugian di dunia dan di akhirat. Di dunia ini mereka akan mengalami kerugian harta benda dan kesehatan badan serta permusuhan dan kebencian orang lain terhadap mereka; sedangkan di akhirat mereka akan ditimpa kemurkaan dan azab dari Allah.\nDi samping minuman khamar yang memabukkan, kita juga dilarang mengkonsumsi beberapa zat yang memabukkan, seperti narkotika dan obat-obat berbahaya (narkoba) serta obat-obat adiktif lainnya, karena dapat merusak jaringan tubuh, menimbulkan ketergantungan dan menghilangkan kesadaran pada pelakunya.\nDi dalam kitab hadis Musnad A\u1e25mad, dan Sunan Ab\u012b D\u0101ud serta at-Tirmi\u017c\u012b disebutkan satu riwayat bahwa \u2018Umar bin Kha\u1e6d\u1e6dab pernah berdoa kepada Allah, \u201cYa Allah, berilah kami penjelasan yang memuaskan mengenai masalah khamar.\u201d Maka setelah turun ayat 219 Surah al-Baqarah/2, Rasulullah, membacakan ayat itu kepadanya, tetapi beliau masih saja belum merasa puas, dan beliau tetap berdoa seperti tersebut di atas. Demikian pula setelah turun ayat (43) Surah an-Nis\u0101\u2032/4. Tetapi setelah turun ayat-ayat 90 dan 91 Surah al-M\u0101\u2032idah/5 ini, beliau dipanggil dan dibacakan kepadanya ayat-ayat tersebut. Beliau merasa puas. Setelah bacaan itu sampai kepada firman Allah:\n\u0641\u064e\u0647\u064e\u0644\u0652 \u0623\u064e\u0646\u0652\u062a\u064f\u0645\u0652 \u0645\u064f\u0646\u0652\u062a\u064e\u0647\u064f\u0648\u0652\u0646\u064e\nMaka maukah kamu berhenti (dari mengerjakan pekerjaan itu)? \nPara sahabat termasuk \u2018Umar bin Kha\u1e6d\u1e6d\u0101b menjawab \u0627\u0650\u0646\u0652\u062a\u064e\u0647\u064e\u064a\u0652\u0646\u064e\u0627\u060c \u0627\u0650\u0646\u0652\u062a\u064e\u0647\u064e\u064a\u0652\u0646\u064e\u0627 Artinya: \u201cKami berhenti, kami berhenti.\u201d",
        "intro_surah": "Surah al-M\u0101\u2019idah terdiri dari 120 ayat, termasuk golongan surah Madaniyah. Sekalipun ada ayatnya yang turun di Mekah namun ayat ini diturunkan sesudah Nabi Muhammad saw, hijrah ke Medinah pada waktu haji wada\u2019.\nSurah ini dinamakan al-M\u0101\u2019idah (Hidangan), karena menurut kisah, pengikut-pengikut setia Nabi Isa meminta kepada Nabi Isa agar Allah menurunkan untuk mereka al-m\u0101\u2019idah (hidangan makanan) dari langit (ayat 112). Dinamakan dengan al-\u2018Uq\u016bd (perjanjian), karena kata itu terdapat pada ayat pertama Surah ini, Allah menyuruh agar hamba-hamba-Nya memenuhi janji prasetia mereka terhadap Allah dan perjanjian-perjanjian yang mereka buat sesamanya.\nDinamakan juga al-Munqi\u017c (yang menyelamatkan), karena akhir surah ini mengandung kisah tentang Nabi Isa sebagai penyelamat pengikut-pengikut setianya dari azab Allah.\n\nPokok-pokok Isinya\n1.\tKeimanan:\n\tBantahan terhadap orang yang menganggap Nabi Isa sebagai Tuhan.\n2.\tHukum-hukum:\nKeharusan memenuhi perjanjian, melanggar syiar Allah, makanan yang dihalalkan dan yang diharamkan, hukum mengawini perempuan Ahli Kitab, wudu, tayamum, mandi, hukum membunuh orang, mengacau dan mengganggu keamanan, melanggar sumpah dan kafaratnya, berjudi, berkorban untuk berhala, mengundi nasib, membunuh binatang waktu ihram dan persaksian dalam berwasiat.\n3. \tKisah-kisah:\nNabi Musa menyuruh kaumnya memasuki Palestina, kisah Habil dan Qabil, dan kisah Nabi Isa.\n4.\tLain-lain:\nKeharusan bersikap lemah-lembut terhadap sesama mukmin, bersikap keras terhadap orang-orang kafir, penyempurnaan agama Islam di zaman Nabi Muhammad saw, keharusan jujur dan berlaku adil, sikap dalam menghadapi berita-berita bohong, akibat berteman akrab dengan orang yang bukan Muslim; kutukan Allah terhadap orang-orang Yahudi, kewajiban rasul hanya menyampaikan agama, sikap Yahudi dan Nasrani terhadap Islam, Ka\u2019bah sakaguru kehidupan manusia, peringatan Allah supaya meninggalkan adat jahiliah dan larangan-larangan terhadap pertanyaan-pertanyaan yang mengakibatkan kesulitan menjalankan agama.",
        "outro_surah": null,
        "munasabah_prev_surah": "Hubungan Surah an-Nis\u0101\u2019 dengan al-M\u0101\u2019idah:\n1.\tSurah an-Nis\u0101\u2019 menerangkan beberapa macam akad, seperti perkawinan, perceraian, warisan, perjanjian, wasiat dan sebagainya, sedang permulaan Surah al-M\u0101\u2019idah menyatakan supaya hamba-hamba Allah memenuhi segala macam akad yang telah dilakukan, baik terhadap Allah, maupun terhadap sesama manusia, di samping menerangkan akad-akad yang lain.\n2.\tSurah an-Nis\u0101\u2019 mengemukakan hukum secara umum dan mendapat jalan untuk menetapkan suatu hukum, kemudian Surah al-M\u0101\u2019idah menjelaskan dan menegaskan hukum-hukum itu.\n3.\tSebagaimana halnya Surah al-Baqarah dan Surah \u0100li \u2018Imr\u0101n mengemukakan hal-hal yang berhubungan dengan pokok-pokok ajaran, seperti keesaan Allah dan kenabian, maka Surah an-Nis\u0101\u2019 dan al-M\u0101\u2019idah menerangkan tentang fur\u016b\u2019 agama (hukum fiqh), seperti hal-hal yang berhubungan dengan hukum keluarga dan sebagainya.\n4.\tAkhir Surah an-Nis\u0101\u2019 mengemukakan hujah-hujah atas kekeliruan orang-orang Yahudi dan Nasrani, serta kekeliruan kaum musyrik dan munafik. Hal yang serupa diterangkan secara panjang lebar dalam Surah al-M\u0101\u2019idah.\n5.\tSurah an-Nis\u0101\u2019 dimulai dengan Y\u0101 ayyuhan-n\u0101s (wahai manusia) yang nadanya sama dengan surah Makiyah, sedang Surah al-M\u0101\u2019idah seperti surah-surah Madaniyah, dimulai dengan Y\u0101 ayyuhalla\u017c\u012bna \u0101man\u016b (wahai orang yang beriman) Hal ini menyatakan sekalipun nadanya berbeda, tetapi yang dituju oleh kedua surah itu ialah semua manusia.",
        "munasabah_prev_theme": "Pada ayat-ayat yang lalu, Allah telah melarang orang mukmin mengharamkan apa yang baik yang telah dihalalkan-Nya untuk mereka; Allah menyuruh mereka makan apa yang halal dan yang baik yang telah dikaruniakan-Nya. Maka dalam ayat-ayat ini dijelaskan hukum minum khamar, berjudi, berkorban untuk berhala dan mengundi nasib, karena perbuatan-perbuatan tersebut telah menjadi kegemaran dan kebiasaan bangsa Arab di zaman jahiliah.",
        "theme_group": "LARANGAN MINUM KHAMAR, BERJUDI, \nBERKORBAN UNTUK BERHALA DAN MENGUNDI NASIB",
        "kosakata": "1. Rijs \u0631\u0650\u062c\u0652\u0633 (al-M\u0101\u2019idah/5: 90)\nRijs secara bahasa bentuk masdar (kata jadian) dari rajasa/rajisa-yarjisu artinya sesuatu yang kotor (khabi\u1e61) dan menjijikkan (mustaq\u017car) dari sebuah pekerjaan yang jelek. Asalnya terambil dari kata ar-rajs yaitu suara guruh yang sangat keras. Kotor dan menjijikkan itu baik dilihat dari segi akal atau syara\u2019 atau kedua-duanya. Berhala yang disembah disebut juga rijs karena menyembah sesuatu yang tidak punya pengaruh apa-apa dalam kehidupan, baik mendatangkan manfaat atau menolak kemudaratan. Begitu juga dengan khamr, judi, berkorban untuk berhala dan mengundi nasib dengan panah.\nAl-Qur\u2019an menggunakan kata rijs dalam 10 tempat. Penggunaannya berkisar pada kekufuran (At-Taubah/9: 125) siksaan (al-An\u2018\u0101m/6: 125, al-A\u2018r\u0101f/7: 71) najis maknawi, atau keji (al-M\u0101\u2019idah/5: 90), kotor (al-An\u2018\u0101m/6: 145) dosa (al-A\u1e25z\u0101b/33: 33).\n2. F\u012bm\u0101 \u1e6ca\u2019im\u016b \u0641\u0650\u064a\u0652\u0645\u064e\u0627 \u0637\u064e\u0639\u0650\u0645\u064f\u0648\u0652\u0627(al-M\u0101\u2019idah/5: 92)\nKata \u1e6da\u2019imu terambilkan dari kata \u1e6da\u2019\u0101m yang artinya makanan. Orang arab menggunakan kata \u1e6da\u2019\u0101m baik untuk makanan atau minuman, sebagaimana perkataan mereka, \u201clam a\u1e6d\u2019am khubzan wa la m\u0101\u2019an wa la nauman,\u201dartinya Aku belum makan roti, air dan belum tidur. Al-Qur\u2019an sendiri menggunakan kata \u1e6da\u2019\u0101ma untuk arti minum (al-Baqarah/2: 249). Dalam ayat yang sedang ditafsirkan ini, kata \u1e6da\u2019imu mencakup segala macam makanan atau minuman yang lezat, baik berupa khamr (minuman keras) atau hasil perjudian, yang dilakukan sebelum turun pelarangan khamr secara tegas.",
        "sabab_nuzul": null,
        "conclusion": null
    }
}