{
    "id": 674,
    "surah_id": 5,
    "ayah": 5,
    "page": 107,
    "quarter_hizb": 11.5,
    "juz": 6,
    "manzil": 2,
    "arabic": "\u0627\u064e\u0644\u0652\u064a\u064e\u0648\u0652\u0645\u064e \u0627\u064f\u062d\u0650\u0644\u0651\u064e \u0644\u064e\u0643\u064f\u0645\u064f \u0627\u0644\u0637\u0651\u064e\u064a\u0651\u0650\u0628\u0670\u062a\u064f\u06d7 \u0648\u064e\u0637\u064e\u0639\u064e\u0627\u0645\u064f \u0627\u0644\u0651\u064e\u0630\u0650\u064a\u0652\u0646\u064e \u0627\u064f\u0648\u0652\u062a\u064f\u0648\u0627 \u0627\u0644\u0652\u0643\u0650\u062a\u0670\u0628\u064e \u062d\u0650\u0644\u0651\u064c \u0644\u0651\u064e\u0643\u064f\u0645\u0652 \u06d6\u0648\u064e\u0637\u064e\u0639\u064e\u0627\u0645\u064f\u0643\u064f\u0645\u0652 \u062d\u0650\u0644\u0651\u064c \u0644\u0651\u064e\u0647\u064f\u0645\u0652 \u06d6\u0648\u064e\u0627\u0644\u0652\u0645\u064f\u062d\u0652\u0635\u064e\u0646\u0670\u062a\u064f \u0645\u0650\u0646\u064e \u0627\u0644\u0652\u0645\u064f\u0624\u0652\u0645\u0650\u0646\u0670\u062a\u0650 \u0648\u064e\u0627\u0644\u0652\u0645\u064f\u062d\u0652\u0635\u064e\u0646\u0670\u062a\u064f \u0645\u0650\u0646\u064e \u0627\u0644\u0651\u064e\u0630\u0650\u064a\u0652\u0646\u064e \u0627\u064f\u0648\u0652\u062a\u064f\u0648\u0627 \u0627\u0644\u0652\u0643\u0650\u062a\u0670\u0628\u064e \u0645\u0650\u0646\u0652 \u0642\u064e\u0628\u0652\u0644\u0650\u0643\u064f\u0645\u0652 \u0627\u0650\u0630\u064e\u0627\u0653 \u0627\u0670\u062a\u064e\u064a\u0652\u062a\u064f\u0645\u064f\u0648\u0652\u0647\u064f\u0646\u0651\u064e \u0627\u064f\u062c\u064f\u0648\u0652\u0631\u064e\u0647\u064f\u0646\u0651\u064e \u0645\u064f\u062d\u0652\u0635\u0650\u0646\u0650\u064a\u0652\u0646\u064e \u063a\u064e\u064a\u0652\u0631\u064e \u0645\u064f\u0633\u0670\u0641\u0650\u062d\u0650\u064a\u0652\u0646\u064e \u0648\u064e\u0644\u064e\u0627 \u0645\u064f\u062a\u0651\u064e\u062e\u0650\u0630\u0650\u064a\u0652\u0653 \u0627\u064e\u062e\u0652\u062f\u064e\u0627\u0646\u064d\u06d7 \u0648\u064e\u0645\u064e\u0646\u0652 \u064a\u0651\u064e\u0643\u0652\u0641\u064f\u0631\u0652 \u0628\u0650\u0627\u0644\u0652\u0627\u0650\u064a\u0652\u0645\u064e\u0627\u0646\u0650 \u0641\u064e\u0642\u064e\u062f\u0652 \u062d\u064e\u0628\u0650\u0637\u064e \u0639\u064e\u0645\u064e\u0644\u064f\u0647\u0657 \u06d6\u0648\u064e\u0647\u064f\u0648\u064e \u0641\u0650\u0649 \u0627\u0644\u0652\u0627\u0670\u062e\u0650\u0631\u064e\u0629\u0650 \u0645\u0650\u0646\u064e \u0627\u0644\u0652\u062e\u0670\u0633\u0650\u0631\u0650\u064a\u0652\u0646\u064e \u08d6 ",
    "latin": "Al-yauma u\u1e25illa lakumu\u1e6d-\u1e6dayyib\u0101t(u), wa \u1e6da\u2018\u0101mul-la\u017c\u012bna \u016btul-kit\u0101ba \u1e25illul lakum, wa \u1e6da\u2018\u0101mukum \u1e25illul lahum, wal-mu\u1e25\u1e63an\u0101tu minal-mu'min\u0101ti wal-mu\u1e25\u1e63an\u0101tu minal-la\u017c\u012bna \u016btul-kit\u0101ba min qablikum i\u017c\u0101 \u0101taitum\u016bhunna uj\u016brahunna mu\u1e25\u1e63in\u012bna gaira mus\u0101fi\u1e25\u012bna wa l\u0101 muttakhi\u017c\u012b akhd\u0101n(in), wa may yakfur bil-\u012bm\u0101ni faqad \u1e25abi\u1e6da \u2018amaluh(\u016b), wa huwa fil-\u0101khirati minal-kh\u0101sir\u012bn(a).",
    "translation": "Pada hari ini dihalalkan bagimu segala (makanan) yang baik. Makanan (sembelihan) Ahlulkitab itu halal bagimu dan makananmu halal (juga) bagi mereka. (Dihalalkan bagimu menikahi) perempuan-perempuan yang menjaga kehormatan di antara perempuan-perempuan yang beriman dan perempuan-perempuan yang menjaga kehormatan di antara orang-orang yang diberi kitab suci sebelum kamu, apabila kamu membayar maskawin mereka untuk menikahinya, tidak dengan maksud berzina, dan tidak untuk menjadikan (mereka) pasangan gelap (gundik). Siapa yang kufur setelah beriman, maka sungguh sia-sia amalnya dan di akhirat dia termasuk orang-orang yang rugi.",
    "no_footnote": null,
    "footnotes": null,
    "surah": {
        "id": 5,
        "arabic": " \u0627\u0644\u0645\u0627\u06e4\u0626\u062f\u0629",
        "latin": "Al-M\u0101'idah",
        "transliteration": "Al-Ma'idah",
        "translation": "Hidangan",
        "num_ayah": 120,
        "page": 106,
        "location": "Madaniyah"
    },
    "tafsir": {
        "wajiz": "Ayat ini masih berkaitan dengan ayat yang lalu memberikan jawaban atas pertanyaan orang yang beriman tentang apa saja yang dihalalkan bagi mereka. Pada hari ini dihalalkan bagimu segala yang baik-baik. Makanan, yakni binatang halal yang disembelih Ahli Kitab itu halal bagimu selagi tidak bercampur dengan barang-barang yang haram, dan makananmu halal pula bagi mereka, maka kamu tidak berdosa memberikannya kepada mereka. Dan dihalalkan bagimu menikahi perempuan-perempuan yang menjaga kehormatan di antara perempuan-perempuan yang beriman dan halal pula menikahi perempuan-perempuan yang menjaga kehormatan di antara orang-orang yang diberi kitab sebelum kamu, yaitu orang-orang Yahudi dan Nasrani, apabila kamu membayar maskawin mereka untuk menikahinya, yakni melangsungkan akad nikah secara sah, tidak dengan maksud berzina dan bukan untuk menjadikan perempuan piaraan. Demikian Allah menetapkan hukum-hukum-Nya untuk dijadikan tuntunan bagi orang-orang yang beriman. Barang siapa kafir setelah beriman, maka sungguh, sia-sia amal mereka, dan di akhirat dia termasuk orang-orang yang rugi.",
        "tahlili": "Ayat ini menerangkan tiga macam hal yang halal bagi orang mukmin, yaitu:\n1. \tMakanan yang baik-baik, seperti dimaksud pada ayat keempat. Kemudian disebutkan kembali pada ayat ini untuk menguatkan arti baik itu dan menerangkan bahwa diperbolehkannya memakan makanan yang baik-baik itu tidak berubah.\n2. \tMakanan Ahli Kitab. Makanan di sini menurut jumhur ulama ialah sembelihan orang-orang Yahudi dan Nasrani karena mereka pada waktu itu mempunyai kepercayaan bahwa haram hukumnya memakan binatang yang disembelih dengan menyebut nama selain Allah. Selama mereka masih mempunyai kepercayaan seperti itu, maka sembelihan mereka tetap halal. Sedangkan makanan lainnya seperti buah-buahan, dan sebagainya dikembalikan saja hukumnya kepada jenis yang pertama yaitu \u1e6dayyib\u0101t, apabila termasuk golongan makanan yang baik-baik boleh dimakan, kalau tidak (khab\u0101\u2019i\u1e61), haram dimakan. Adapun sembelihan orang kafir yang bukan Ahli Kitab haram dimakan.\n3.\tMengawini perempuan-perempuan merdeka (bukan budak) dan perempuan-perempuan mukmin dan perempuan Ahli Kitab hukumnya halal. Menurut sebagian mufasir yang dimaksud al-mu\u1e25\u1e61an\u0101t ialah perempuan-perempuan yang menjaga kehormatan dirinya.\nLaki-laki boleh mengawini perempuan-perempuan tersebut dengan kewajiban memberi nafkah, asalkan tidak ada maksud-maksud lain yang terkandung dalam hati seperti mengambil mereka untuk berzina dan tidak pula untuk dijadikan gundik. Ringkasnya laki-laki mukmin boleh mengawini perempuan-perempuan Ahli Kitab dengan syarat-syarat seperti tersebut di atas. Tetapi perempuan-perempuan Islam tidak boleh kawin dengan laki-laki Ahli Kitab apalagi dengan laki-laki kafir yang bukan Ahli Kitab. Kemudian akhir ayat kelima ini memperingatkan, bahwa barang siapa yang kafir sesudah beriman, maka semua amal baik yang pernah dikerjakannya akan hapus semuanya dan di akhirat termasuk orang yang rugi.",
        "intro_surah": "Surah al-M\u0101\u2019idah terdiri dari 120 ayat, termasuk golongan surah Madaniyah. Sekalipun ada ayatnya yang turun di Mekah namun ayat ini diturunkan sesudah Nabi Muhammad saw, hijrah ke Medinah pada waktu haji wada\u2019.\nSurah ini dinamakan al-M\u0101\u2019idah (Hidangan), karena menurut kisah, pengikut-pengikut setia Nabi Isa meminta kepada Nabi Isa agar Allah menurunkan untuk mereka al-m\u0101\u2019idah (hidangan makanan) dari langit (ayat 112). Dinamakan dengan al-\u2018Uq\u016bd (perjanjian), karena kata itu terdapat pada ayat pertama Surah ini, Allah menyuruh agar hamba-hamba-Nya memenuhi janji prasetia mereka terhadap Allah dan perjanjian-perjanjian yang mereka buat sesamanya.\nDinamakan juga al-Munqi\u017c (yang menyelamatkan), karena akhir surah ini mengandung kisah tentang Nabi Isa sebagai penyelamat pengikut-pengikut setianya dari azab Allah.\n\nPokok-pokok Isinya\n1.\tKeimanan:\n\tBantahan terhadap orang yang menganggap Nabi Isa sebagai Tuhan.\n2.\tHukum-hukum:\nKeharusan memenuhi perjanjian, melanggar syiar Allah, makanan yang dihalalkan dan yang diharamkan, hukum mengawini perempuan Ahli Kitab, wudu, tayamum, mandi, hukum membunuh orang, mengacau dan mengganggu keamanan, melanggar sumpah dan kafaratnya, berjudi, berkorban untuk berhala, mengundi nasib, membunuh binatang waktu ihram dan persaksian dalam berwasiat.\n3. \tKisah-kisah:\nNabi Musa menyuruh kaumnya memasuki Palestina, kisah Habil dan Qabil, dan kisah Nabi Isa.\n4.\tLain-lain:\nKeharusan bersikap lemah-lembut terhadap sesama mukmin, bersikap keras terhadap orang-orang kafir, penyempurnaan agama Islam di zaman Nabi Muhammad saw, keharusan jujur dan berlaku adil, sikap dalam menghadapi berita-berita bohong, akibat berteman akrab dengan orang yang bukan Muslim; kutukan Allah terhadap orang-orang Yahudi, kewajiban rasul hanya menyampaikan agama, sikap Yahudi dan Nasrani terhadap Islam, Ka\u2019bah sakaguru kehidupan manusia, peringatan Allah supaya meninggalkan adat jahiliah dan larangan-larangan terhadap pertanyaan-pertanyaan yang mengakibatkan kesulitan menjalankan agama.",
        "outro_surah": null,
        "munasabah_prev_surah": "Hubungan Surah an-Nis\u0101\u2019 dengan al-M\u0101\u2019idah:\n1.\tSurah an-Nis\u0101\u2019 menerangkan beberapa macam akad, seperti perkawinan, perceraian, warisan, perjanjian, wasiat dan sebagainya, sedang permulaan Surah al-M\u0101\u2019idah menyatakan supaya hamba-hamba Allah memenuhi segala macam akad yang telah dilakukan, baik terhadap Allah, maupun terhadap sesama manusia, di samping menerangkan akad-akad yang lain.\n2.\tSurah an-Nis\u0101\u2019 mengemukakan hukum secara umum dan mendapat jalan untuk menetapkan suatu hukum, kemudian Surah al-M\u0101\u2019idah menjelaskan dan menegaskan hukum-hukum itu.\n3.\tSebagaimana halnya Surah al-Baqarah dan Surah \u0100li \u2018Imr\u0101n mengemukakan hal-hal yang berhubungan dengan pokok-pokok ajaran, seperti keesaan Allah dan kenabian, maka Surah an-Nis\u0101\u2019 dan al-M\u0101\u2019idah menerangkan tentang fur\u016b\u2019 agama (hukum fiqh), seperti hal-hal yang berhubungan dengan hukum keluarga dan sebagainya.\n4.\tAkhir Surah an-Nis\u0101\u2019 mengemukakan hujah-hujah atas kekeliruan orang-orang Yahudi dan Nasrani, serta kekeliruan kaum musyrik dan munafik. Hal yang serupa diterangkan secara panjang lebar dalam Surah al-M\u0101\u2019idah.\n5.\tSurah an-Nis\u0101\u2019 dimulai dengan Y\u0101 ayyuhan-n\u0101s (wahai manusia) yang nadanya sama dengan surah Makiyah, sedang Surah al-M\u0101\u2019idah seperti surah-surah Madaniyah, dimulai dengan Y\u0101 ayyuhalla\u017c\u012bna \u0101man\u016b (wahai orang yang beriman) Hal ini menyatakan sekalipun nadanya berbeda, tetapi yang dituju oleh kedua surah itu ialah semua manusia.",
        "munasabah_prev_theme": "Setelah ayat yang lalu menerangkan tentang makanan yang diharamkan, maka ayat ini menerangkan tentang makanan yang dihalalkan. ",
        "theme_group": "MAKANAN YANG DIHALALKAN",
        "kosakata": "Kosakata: Mukallib\u012bn \u0645\u064f\u0643\u064e\u0644\u0651\u0650\u0628\u0650\u064a\u0652\u0646\u064e (al-M\u0101\u2019idah/5: 4)\nMukallib\u012bn jamak dari al-mukallib adalah \u201corang-orang yang biasa melatih anjing-anjing pemburu, meskipun kadang-kadang mereka melatih binatang lain seperti: burung rajawali dan lain-lain\u201d. Ciri-ciri binatang terlatih berburu tidak akan memakan korban buruannya. Kalau anjing yang dilepas untuk berburu masih memakan daging buruannya, berarti anjing itu belum terlatih. Dalam ayat ini binatang-binatang yang diburu oleh binatang lain seperti anjing dan burung rajawali dihalalkan, dengan syarat sebelum melepas anjing pemburu itu, pemilik anjing membaca Bismill\u0101h All\u0101hu Akbar.",
        "sabab_nuzul": null,
        "conclusion": "1.\tDihalalkan semua makanan yang baik-baik (\u1e6dayyib\u0101t) jika tidak ada nas yang tegas mengharamkannya.\n2.\tDihalalkan memakan buruan yang ditangkap oleh binatang pemburu yang sudah terlatih.\n3.\tDihalalkan memakan sembelihan Ahli Kitab.\n4.\tDihalalkan bagi laki-laki mukmin menikahi perempuan Ahli Kitab dan tidak dihalalkan menikahi perempuan kafir lainnya. Dan tidak dihalalkan bagi perempuan-perempuan mukmin menikah dengan laki-laki Ahli Kitab dan laki-laki kafir lainnya."
    }
}