{
    "id": 677,
    "surah_id": 5,
    "ayah": 8,
    "page": 108,
    "quarter_hizb": 11.5,
    "juz": 6,
    "manzil": 2,
    "arabic": "\u064a\u0670\u0653\u0627\u064e\u064a\u0651\u064f\u0647\u064e\u0627 \u0627\u0644\u0651\u064e\u0630\u0650\u064a\u0652\u0646\u064e \u0627\u0670\u0645\u064e\u0646\u064f\u0648\u0652\u0627 \u0643\u064f\u0648\u0652\u0646\u064f\u0648\u0652\u0627 \u0642\u064e\u0648\u0651\u064e\u0627\u0645\u0650\u064a\u0652\u0646\u064e \u0644\u0650\u0644\u0651\u0670\u0647\u0650 \u0634\u064f\u0647\u064e\u062f\u064e\u0627\u06e4\u0621\u064e \u0628\u0650\u0627\u0644\u0652\u0642\u0650\u0633\u0652\u0637\u0650\u06d6 \u0648\u064e\u0644\u064e\u0627 \u064a\u064e\u062c\u0652\u0631\u0650\u0645\u064e\u0646\u0651\u064e\u0643\u064f\u0645\u0652 \u0634\u064e\u0646\u064e\u0627\u0670\u0646\u064f \u0642\u064e\u0648\u0652\u0645\u064d \u0639\u064e\u0644\u0670\u0653\u0649 \u0627\u064e\u0644\u0651\u064e\u0627 \u062a\u064e\u0639\u0652\u062f\u0650\u0644\u064f\u0648\u0652\u0627 \u06d7\u0627\u0650\u0639\u0652\u062f\u0650\u0644\u064f\u0648\u0652\u0627\u06d7 \u0647\u064f\u0648\u064e \u0627\u064e\u0642\u0652\u0631\u064e\u0628\u064f \u0644\u0650\u0644\u062a\u0651\u064e\u0642\u0652\u0648\u0670\u0649\u06d6 \u0648\u064e\u0627\u062a\u0651\u064e\u0642\u064f\u0648\u0627 \u0627\u0644\u0644\u0651\u0670\u0647\u064e \u06d7\u0627\u0650\u0646\u0651\u064e \u0627\u0644\u0644\u0651\u0670\u0647\u064e \u062e\u064e\u0628\u0650\u064a\u0652\u0631\u064c\u06e2 \u0628\u0650\u0645\u064e\u0627 \u062a\u064e\u0639\u0652\u0645\u064e\u0644\u064f\u0648\u0652\u0646\u064e",
    "latin": "Y\u0101 ayyuhal-la\u017c\u012bna \u0101man\u016b k\u016bn\u016b qaww\u0101m\u012bna lill\u0101hi syuhad\u0101'a bil-qis\u1e6di wa l\u0101 yajrimannakum syana'\u0101nu qamin \u2018al\u0101 all\u0101 ta\u2018dil\u016b, i\u2018dil\u016b, huwa aqrabu lit-taqw\u0101 wattaqull\u0101h(a), innall\u0101ha khab\u012brum bim\u0101 ta\u2018mal\u016bn(a).",
    "translation": " Wahai orang-orang yang beriman, jadilah kamu penegak (kebenaran) karena Allah (dan) saksi-saksi (yang bertindak) dengan adil. Janganlah kebencianmu terhadap suatu kaum mendorong kamu untuk berlaku tidak adil. Berlakulah adil karena (adil) itu lebih dekat pada takwa. Bertakwalah kepada Allah. Sesungguhnya Allah Maha Teliti terhadap apa yang kamu kerjakan.",
    "no_footnote": null,
    "footnotes": null,
    "surah": {
        "id": 5,
        "arabic": " \u0627\u0644\u0645\u0627\u06e4\u0626\u062f\u0629",
        "latin": "Al-M\u0101'idah",
        "transliteration": "Al-Ma'idah",
        "translation": "Hidangan",
        "num_ayah": 120,
        "page": 106,
        "location": "Madaniyah"
    },
    "tafsir": {
        "wajiz": "Ayat selanjutnya memberikan tuntunan agar umat Islam berlaku adil, tidak hanya kepada sesama umat Islam, tetapi juga kepada siapa saja walaupun kepada orang-orang yang tidak disukai. Wahai orangorang yang beriman! Jadilah kamu sebagai penegak keadilan, yakni orang yang selalu dan bersungguh-sungguh menegakkan kebenaran, karena Allah, ketika kalian menjadi saksi maka bersaksilah dengan adil. Dan janganlah kebencianmu terhadap suatu kaum, yakni kepada orang-orang kafir dan kepada siapa pun, mendorong kamu untuk berlaku tidak adil terhadap mereka. Berlaku adillah kepada siapa pun, karena adil itu lebih dekat kepada takwa. Dan bertakwalah kepada Allah dengan mengerjakan perintah-Nya dan meninggalkan larangan-Nya, sungguh, Allah Mahateliti, Maha Mengetahui apa yang kamu kerjakan, baik yang kamu lahirkan maupun yang kamu sembunyikan.",
        "tahlili": "Ayat ini memerintahkan kepada orang mukmin agar melaksanakan amal dan pekerjaan mereka dengan cermat, jujur dan ikhlas karena Allah, baik pekerjaan yang bertalian dengan urusan agama maupun pekerjaan yang bertalian dengan urusan kehidupan duniawi. Karena hanya dengan demikianlah mereka bisa sukses dan memperoleh hasil atau balasan yang mereka harapkan. Dalam persaksian, mereka harus adil menerangkan apa yang sebenarnya, tanpa memandang siapa orangnya, sekalipun akan menguntungkan lawan dan merugikan sahabat dan kerabat. Ayat ini senafas dan seirama dengan Surah an-Nis\u0101\u2019/4:135 yaitu sama-sama menerangkan tentang seseorang yang berlaku adil dan jujur dalam persaksian. Perbedaannya ialah dalam ayat tersebut diterangkan kewajiban berlaku adil dan jujur dalam persaksian walaupun kesaksian itu akan merugikan diri sendiri, ibu, bapak dan kerabat, sedang dalam ayat ini diterangkan bahwa kebencian terhadap sesuatu kaum tidak boleh mendorong seseorang untuk memberikan persaksian yang tidak adil dan tidak jujur, walaupun terhadap lawan.\nSelanjutnya secara luas dan menyeluruh, Allah memerintahkan kepada orang-orang yang beriman supaya berlaku adil, karena keadilan dibutuhkan dalam segala hal, untuk mencapai dan memperoleh ketenteraman, kemakmuran dan kebahagiaan dunia dan akhirat. Oleh karena itu, berlaku adil adalah jalan yang terdekat untuk mencapai tujuan bertakwa kepada Allah.\nAkhir ayat ini menyatakan janji Allah bahwa kepada orang yang beriman yang banyak beramal saleh akan diberikan ampunan dan pahala yang besar. Janji Allah pasti ditepati-Nya sebagaimana tersebut dalam firman-Nya:\n\u0627\u0650\u0646\u0651\u064e \u0627\u0644\u0644\u0651\u0670\u0647\u064e \u0644\u064e\u0627 \u064a\u064f\u062e\u0652\u0644\u0650\u0641\u064f \u0627\u0644\u0652\u0645\u0650\u064a\u0652\u0639\u064e\u0627\u062f\u064e\n\u201cSesungguhnya Allah tidak menyalahi janji.\u201d (\u0100li \u2018Imr\u0101n/3:9).\n\nAmal saleh ialah setiap pekerjaan yang baik, bermanfaat dan patut dikerjakan, baik pekerjaan ubudiyah seperti salat dan lain-lain, maupun pekerjaan seperti menolong fakir miskin, menyantuni anak yatim, dan perbuatan sosial lainnya.",
        "intro_surah": "Surah al-M\u0101\u2019idah terdiri dari 120 ayat, termasuk golongan surah Madaniyah. Sekalipun ada ayatnya yang turun di Mekah namun ayat ini diturunkan sesudah Nabi Muhammad saw, hijrah ke Medinah pada waktu haji wada\u2019.\nSurah ini dinamakan al-M\u0101\u2019idah (Hidangan), karena menurut kisah, pengikut-pengikut setia Nabi Isa meminta kepada Nabi Isa agar Allah menurunkan untuk mereka al-m\u0101\u2019idah (hidangan makanan) dari langit (ayat 112). Dinamakan dengan al-\u2018Uq\u016bd (perjanjian), karena kata itu terdapat pada ayat pertama Surah ini, Allah menyuruh agar hamba-hamba-Nya memenuhi janji prasetia mereka terhadap Allah dan perjanjian-perjanjian yang mereka buat sesamanya.\nDinamakan juga al-Munqi\u017c (yang menyelamatkan), karena akhir surah ini mengandung kisah tentang Nabi Isa sebagai penyelamat pengikut-pengikut setianya dari azab Allah.\n\nPokok-pokok Isinya\n1.\tKeimanan:\n\tBantahan terhadap orang yang menganggap Nabi Isa sebagai Tuhan.\n2.\tHukum-hukum:\nKeharusan memenuhi perjanjian, melanggar syiar Allah, makanan yang dihalalkan dan yang diharamkan, hukum mengawini perempuan Ahli Kitab, wudu, tayamum, mandi, hukum membunuh orang, mengacau dan mengganggu keamanan, melanggar sumpah dan kafaratnya, berjudi, berkorban untuk berhala, mengundi nasib, membunuh binatang waktu ihram dan persaksian dalam berwasiat.\n3. \tKisah-kisah:\nNabi Musa menyuruh kaumnya memasuki Palestina, kisah Habil dan Qabil, dan kisah Nabi Isa.\n4.\tLain-lain:\nKeharusan bersikap lemah-lembut terhadap sesama mukmin, bersikap keras terhadap orang-orang kafir, penyempurnaan agama Islam di zaman Nabi Muhammad saw, keharusan jujur dan berlaku adil, sikap dalam menghadapi berita-berita bohong, akibat berteman akrab dengan orang yang bukan Muslim; kutukan Allah terhadap orang-orang Yahudi, kewajiban rasul hanya menyampaikan agama, sikap Yahudi dan Nasrani terhadap Islam, Ka\u2019bah sakaguru kehidupan manusia, peringatan Allah supaya meninggalkan adat jahiliah dan larangan-larangan terhadap pertanyaan-pertanyaan yang mengakibatkan kesulitan menjalankan agama.",
        "outro_surah": null,
        "munasabah_prev_surah": "Hubungan Surah an-Nis\u0101\u2019 dengan al-M\u0101\u2019idah:\n1.\tSurah an-Nis\u0101\u2019 menerangkan beberapa macam akad, seperti perkawinan, perceraian, warisan, perjanjian, wasiat dan sebagainya, sedang permulaan Surah al-M\u0101\u2019idah menyatakan supaya hamba-hamba Allah memenuhi segala macam akad yang telah dilakukan, baik terhadap Allah, maupun terhadap sesama manusia, di samping menerangkan akad-akad yang lain.\n2.\tSurah an-Nis\u0101\u2019 mengemukakan hukum secara umum dan mendapat jalan untuk menetapkan suatu hukum, kemudian Surah al-M\u0101\u2019idah menjelaskan dan menegaskan hukum-hukum itu.\n3.\tSebagaimana halnya Surah al-Baqarah dan Surah \u0100li \u2018Imr\u0101n mengemukakan hal-hal yang berhubungan dengan pokok-pokok ajaran, seperti keesaan Allah dan kenabian, maka Surah an-Nis\u0101\u2019 dan al-M\u0101\u2019idah menerangkan tentang fur\u016b\u2019 agama (hukum fiqh), seperti hal-hal yang berhubungan dengan hukum keluarga dan sebagainya.\n4.\tAkhir Surah an-Nis\u0101\u2019 mengemukakan hujah-hujah atas kekeliruan orang-orang Yahudi dan Nasrani, serta kekeliruan kaum musyrik dan munafik. Hal yang serupa diterangkan secara panjang lebar dalam Surah al-M\u0101\u2019idah.\n5.\tSurah an-Nis\u0101\u2019 dimulai dengan Y\u0101 ayyuhan-n\u0101s (wahai manusia) yang nadanya sama dengan surah Makiyah, sedang Surah al-M\u0101\u2019idah seperti surah-surah Madaniyah, dimulai dengan Y\u0101 ayyuhalla\u017c\u012bna \u0101man\u016b (wahai orang yang beriman) Hal ini menyatakan sekalipun nadanya berbeda, tetapi yang dituju oleh kedua surah itu ialah semua manusia.",
        "munasabah_prev_theme": "Setelah Allah memerintahkan kepada hamba-Nya yang mukmin supaya memenuhi janji secara umum, kemudian menyebutkan karunia-Nya dengan menghalalkan bagi mereka makanan yang baik dan mengharamkan makanan yang tidak baik serta membolehkan mereka makan sembelihan Ahli Kitab dan mengawini wanita-wanitanya, maka pada ayat ini Allah menerangkan tentang bagaimana sebaiknya atau seharusnya kita berlaku terhadap orang lain, baik mereka Ahli Kitab, musuh, maupun sahabat dan kerabat.",
        "theme_group": "KEWAJIBAN BERLAKU ADIL DAN JUJUR",
        "kosakata": "Kosakata: Yatawakkal (5:11) \u064a\u064e\u062a\u064e\u0648\u064e\u0643\u0651\u064e\u0644\u0652 \nAt-tawakkul artinya \u201cmenggantungkan/mengandalkan orang lain dan menjadikannya wakil dari dirinya\u201d. Ayat ini memerintahkan orang-orang mukmin untuk menyerahkan urusan mereka kepada Allah. Kata tawakkul atau penyerahan urusan ini terkait dengan urusan mematuhi perintah, dan menjauhi larangan sehingga tawakkul terkait erat dengan takwa. Orang boleh berserah diri pada Allah dalam suatu perbuatan sesudah menyempurnakan berbagai faktor yang menjadi penyebab diperolehnya keberhasilan dari tindakannya tersebut, dengan kata lain anggota tubuh bekerja dengan sungguh-sungguh sedangkan hati terpaut dengan berserah diri kepada Allah.",
        "sabab_nuzul": null,
        "conclusion": null
    }
}