{
    "id": 680,
    "surah_id": 5,
    "ayah": 11,
    "page": 109,
    "quarter_hizb": 11.5,
    "juz": 6,
    "manzil": 2,
    "arabic": "\u064a\u0670\u0653\u0627\u064e\u064a\u0651\u064f\u0647\u064e\u0627 \u0627\u0644\u0651\u064e\u0630\u0650\u064a\u0652\u0646\u064e \u0627\u0670\u0645\u064e\u0646\u064f\u0648\u0627 \u0627\u0630\u0652\u0643\u064f\u0631\u064f\u0648\u0652\u0627 \u0646\u0650\u0639\u0652\u0645\u064e\u062a\u064e \u0627\u0644\u0644\u0651\u0670\u0647\u0650 \u0639\u064e\u0644\u064e\u064a\u0652\u0643\u064f\u0645\u0652 \u0627\u0650\u0630\u0652 \u0647\u064e\u0645\u0651\u064e \u0642\u064e\u0648\u0652\u0645\u064c \u0627\u064e\u0646\u0652 \u064a\u0651\u064e\u0628\u0652\u0633\u064f\u0637\u064f\u0648\u0652\u0653\u0627 \u0627\u0650\u0644\u064e\u064a\u0652\u0643\u064f\u0645\u0652 \u0627\u064e\u064a\u0652\u062f\u0650\u064a\u064e\u0647\u064f\u0645\u0652 \u0641\u064e\u0643\u064e\u0641\u0651\u064e \u0627\u064e\u064a\u0652\u062f\u0650\u064a\u064e\u0647\u064f\u0645\u0652 \u0639\u064e\u0646\u0652\u0643\u064f\u0645\u0652\u06da \u0648\u064e\u0627\u062a\u0651\u064e\u0642\u064f\u0648\u0627 \u0627\u0644\u0644\u0651\u0670\u0647\u064e \u06d7\u0648\u064e\u0639\u064e\u0644\u064e\u0649 \u0627\u0644\u0644\u0651\u0670\u0647\u0650 \u0641\u064e\u0644\u0652\u064a\u064e\u062a\u064e\u0648\u064e\u0643\u0651\u064e\u0644\u0650 \u0627\u0644\u0652\u0645\u064f\u0624\u0652\u0645\u0650\u0646\u064f\u0648\u0652\u0646\u064e \u08d6 ",
    "latin": "Y\u0101 ayyuhal-la\u017c\u012bna \u0101manu\u017ckur\u016b ni\u2018matall\u0101hi \u2018alaikum i\u017c hamma qaumun ay yabsu\u1e6d\u016b ilaikum aidiyahum fa kaffa aidiyahum \u2018ankum, wattaqull\u0101h(a), wa \u2018alall\u0101hi falyatawakkalil-mu'min\u016bn(a).",
    "translation": "Wahai orang-orang yang beriman, ingatlah nikmat Allah (yang dianugerahkan) kepadamu ketika suatu kaum bermaksud hendak menyerangmu dengan tangannya, lalu Dia menahan tangan (mencegah) mereka dari kamu. Bertakwalah kepada Allah dan hanya kepada Allahlah hendaknya orang-orang mukmin itu bertawakal.",
    "no_footnote": null,
    "footnotes": null,
    "surah": {
        "id": 5,
        "arabic": " \u0627\u0644\u0645\u0627\u06e4\u0626\u062f\u0629",
        "latin": "Al-M\u0101'idah",
        "transliteration": "Al-Ma'idah",
        "translation": "Hidangan",
        "num_ayah": 120,
        "page": 106,
        "location": "Madaniyah"
    },
    "tafsir": {
        "wajiz": "Ayat ini sekali lagi mengingatkan orang-orang beriman agar mensyukuri anugerah keselamatan dari gangguan musuh. Wahai orangorang yang beriman! Ingatlah nikmat Allah yang dianugerahkan kepadamu, ketika suatu kaum, yakni orang-orang kafir Mekah dan orangorang Yahudi Bani Nadir, bermaksud hendak menyerangmu dengan tangannya untuk membunuhmu dan para sahabat yang bersamamu dengan cara yang licik, lalu Allah menahan tangan mereka dari kamu sehingga mereka tidak dapat melaksanakan niatnya berbuat jahat kepadamu. Dan bertakwalah kepada Allah pada setiap waktu dan dalam segala keadaan, dan hanya kepada Allah-lah, tidak kepada selain-Nya, hendaknya orang-orang beriman itu bertawakal, menyerahkan segala keputusan kepada Allah yang memutuskan segala sesuatu sesuai ilmu-Nya yang mahaluas dan kekuasaan-Nya yang mahabesar.",
        "tahlili": "Orang-orang yang beriman harus mengingat kembali nikmat yang sangat besar yang diberikan kepada mereka dengan kekuasaan-Nya, Allah telah menahan dan membebaskan mereka dari suatu kejahatan yang sangat berbahaya yang direncanakan oleh orang-orang kafir.\nBanyak riwayat yang menceritakan tentang sebab turunnya ayat ini yang pada umumnya berkisar di sekitar seorang laki-laki dari suku Muharib yang diutus oleh kaumnya untuk membunuh Nabi Muhammad saw. Riwayat yang terkuat ialah yang dikuatkan oleh al-Hakim dari hadis Jabir, yaitu seorang laki-laki dari suku Muharib bernama Gauras bin Haris datang dan berdiri di hadapan Rasulullah saw seraya (menghunus pedang) dan berkata, \u201cSiapakah yang dapat membelamu?\u201d Rasulullah saw menjawab, \u201cAllah\u201d maka terjatuhlah pedang itu dari tangannya lalu diambil oleh Rasulullah saw seraya berkata, \u201cSiapakah yang dapat membelamu?\u201d, laki-laki itu menjawab, \u201cJadilah engkau sebaik-baik orang yang bertindak.\u201d Rasulullah bertanya, \u201cMaukah engkau mengakui bahwa tiada tuhan selain Allah dan sesungguhnya aku adalah Rasul-Nya ?\u201d Laki-laki itu menjawab, \u201cSaya berjanji bahwa saya tidak akan memerangimu dan tidak akan turut dengan kaum yang akan memerangimu.\u201d Lalu Rasulullah saw membebaskannya, setelah ia kembali kepada kaumnya ia berkata kepada mereka: \u201cSaya baru saja datang menjumpai seorang manusia yang paling baik yaitu Rasulullah saw.\u201d\nAyat ini mengajak orang-orang yang beriman untuk mengingat kembali nikmat yang akan diberikan kepada mereka pada waktu menghadapi kaum yang bermaksud jahat, Allah menahan dan melepaskan mereka dari bahaya kejahatan musuh.\nMenurut sebagian ahli tafsir yang dimaksud dengan kejahatan dalam ayat ini ialah kejahatan Gauras yang tersebut di atas. Sebagian lain berpendapat bahwa yang dimaksud, ialah semua kejahatan yang dilakukan oleh orang kafir kepada Rasulullah dan para sahabatnya pada permulaan lahirnya Islam dan mereka selalu dilindungi Allah.\nMengingat hal-hal serupa itu sangat besar manfaatnya bagi kehidupan orang-orang yang beriman, akan lebih memperteguh imannya kepada Allah dan kekuasaan-Nya dan menimbulkan semangat dan kepercayaan kepada diri sendiri dalam menghadapi kesusahan dan penderitaan untuk menegakkan kebenaran. Pada akhir ayat ini, Allah memerintahkan kepada orang-orang mukmin supaya tetap bertakwa kepada-Nya yang telah memperlihatkan kekuasaan-Nya dalam menolong dan melindungi mereka dari kejahatan musuh. Allah menyuruh kaum Muslimin bertawakal kepada-Nya, setelah mereka melakukan usaha dan ikhtiar menurut kemampuan mereka, dan melarang mereka bertawakal selain kepada Allah.",
        "intro_surah": "Surah al-M\u0101\u2019idah terdiri dari 120 ayat, termasuk golongan surah Madaniyah. Sekalipun ada ayatnya yang turun di Mekah namun ayat ini diturunkan sesudah Nabi Muhammad saw, hijrah ke Medinah pada waktu haji wada\u2019.\nSurah ini dinamakan al-M\u0101\u2019idah (Hidangan), karena menurut kisah, pengikut-pengikut setia Nabi Isa meminta kepada Nabi Isa agar Allah menurunkan untuk mereka al-m\u0101\u2019idah (hidangan makanan) dari langit (ayat 112). Dinamakan dengan al-\u2018Uq\u016bd (perjanjian), karena kata itu terdapat pada ayat pertama Surah ini, Allah menyuruh agar hamba-hamba-Nya memenuhi janji prasetia mereka terhadap Allah dan perjanjian-perjanjian yang mereka buat sesamanya.\nDinamakan juga al-Munqi\u017c (yang menyelamatkan), karena akhir surah ini mengandung kisah tentang Nabi Isa sebagai penyelamat pengikut-pengikut setianya dari azab Allah.\n\nPokok-pokok Isinya\n1.\tKeimanan:\n\tBantahan terhadap orang yang menganggap Nabi Isa sebagai Tuhan.\n2.\tHukum-hukum:\nKeharusan memenuhi perjanjian, melanggar syiar Allah, makanan yang dihalalkan dan yang diharamkan, hukum mengawini perempuan Ahli Kitab, wudu, tayamum, mandi, hukum membunuh orang, mengacau dan mengganggu keamanan, melanggar sumpah dan kafaratnya, berjudi, berkorban untuk berhala, mengundi nasib, membunuh binatang waktu ihram dan persaksian dalam berwasiat.\n3. \tKisah-kisah:\nNabi Musa menyuruh kaumnya memasuki Palestina, kisah Habil dan Qabil, dan kisah Nabi Isa.\n4.\tLain-lain:\nKeharusan bersikap lemah-lembut terhadap sesama mukmin, bersikap keras terhadap orang-orang kafir, penyempurnaan agama Islam di zaman Nabi Muhammad saw, keharusan jujur dan berlaku adil, sikap dalam menghadapi berita-berita bohong, akibat berteman akrab dengan orang yang bukan Muslim; kutukan Allah terhadap orang-orang Yahudi, kewajiban rasul hanya menyampaikan agama, sikap Yahudi dan Nasrani terhadap Islam, Ka\u2019bah sakaguru kehidupan manusia, peringatan Allah supaya meninggalkan adat jahiliah dan larangan-larangan terhadap pertanyaan-pertanyaan yang mengakibatkan kesulitan menjalankan agama.",
        "outro_surah": null,
        "munasabah_prev_surah": "Hubungan Surah an-Nis\u0101\u2019 dengan al-M\u0101\u2019idah:\n1.\tSurah an-Nis\u0101\u2019 menerangkan beberapa macam akad, seperti perkawinan, perceraian, warisan, perjanjian, wasiat dan sebagainya, sedang permulaan Surah al-M\u0101\u2019idah menyatakan supaya hamba-hamba Allah memenuhi segala macam akad yang telah dilakukan, baik terhadap Allah, maupun terhadap sesama manusia, di samping menerangkan akad-akad yang lain.\n2.\tSurah an-Nis\u0101\u2019 mengemukakan hukum secara umum dan mendapat jalan untuk menetapkan suatu hukum, kemudian Surah al-M\u0101\u2019idah menjelaskan dan menegaskan hukum-hukum itu.\n3.\tSebagaimana halnya Surah al-Baqarah dan Surah \u0100li \u2018Imr\u0101n mengemukakan hal-hal yang berhubungan dengan pokok-pokok ajaran, seperti keesaan Allah dan kenabian, maka Surah an-Nis\u0101\u2019 dan al-M\u0101\u2019idah menerangkan tentang fur\u016b\u2019 agama (hukum fiqh), seperti hal-hal yang berhubungan dengan hukum keluarga dan sebagainya.\n4.\tAkhir Surah an-Nis\u0101\u2019 mengemukakan hujah-hujah atas kekeliruan orang-orang Yahudi dan Nasrani, serta kekeliruan kaum musyrik dan munafik. Hal yang serupa diterangkan secara panjang lebar dalam Surah al-M\u0101\u2019idah.\n5.\tSurah an-Nis\u0101\u2019 dimulai dengan Y\u0101 ayyuhan-n\u0101s (wahai manusia) yang nadanya sama dengan surah Makiyah, sedang Surah al-M\u0101\u2019idah seperti surah-surah Madaniyah, dimulai dengan Y\u0101 ayyuhalla\u017c\u012bna \u0101man\u016b (wahai orang yang beriman) Hal ini menyatakan sekalipun nadanya berbeda, tetapi yang dituju oleh kedua surah itu ialah semua manusia.",
        "munasabah_prev_theme": "Setelah Allah memerintahkan kepada hamba-Nya yang mukmin supaya memenuhi janji secara umum, kemudian menyebutkan karunia-Nya dengan menghalalkan bagi mereka makanan yang baik dan mengharamkan makanan yang tidak baik serta membolehkan mereka makan sembelihan Ahli Kitab dan mengawini wanita-wanitanya, maka pada ayat ini Allah menerangkan tentang bagaimana sebaiknya atau seharusnya kita berlaku terhadap orang lain, baik mereka Ahli Kitab, musuh, maupun sahabat dan kerabat.",
        "theme_group": "KEWAJIBAN BERLAKU ADIL DAN JUJUR",
        "kosakata": "Kosakata: Yatawakkal (5:11) \u064a\u064e\u062a\u064e\u0648\u064e\u0643\u0651\u064e\u0644\u0652 \nAt-tawakkul artinya \u201cmenggantungkan/mengandalkan orang lain dan menjadikannya wakil dari dirinya\u201d. Ayat ini memerintahkan orang-orang mukmin untuk menyerahkan urusan mereka kepada Allah. Kata tawakkul atau penyerahan urusan ini terkait dengan urusan mematuhi perintah, dan menjauhi larangan sehingga tawakkul terkait erat dengan takwa. Orang boleh berserah diri pada Allah dalam suatu perbuatan sesudah menyempurnakan berbagai faktor yang menjadi penyebab diperolehnya keberhasilan dari tindakannya tersebut, dengan kata lain anggota tubuh bekerja dengan sungguh-sungguh sedangkan hati terpaut dengan berserah diri kepada Allah.",
        "sabab_nuzul": null,
        "conclusion": "1.\tAllah memerintahkan kepada orang-orang yang beriman supaya selalu cermat, jujur dan ikhlas karena Allah, baik dalam mengerjakan pekerjaan yang bertalian dengan agama Allah maupun dengan urusan duniawi.\n2.\tKebencian terhadap suatu kaum, tidak boleh mendorong seseorang untuk tidak berbuat jujur atau berlaku tidak adil.\n3.\tHarus adil dalam memberikan persaksian tanpa melihat siapa orangnya, walaupun akan merugikan diri sendiri, sahabat dan kerabat.\n4.\tKeadilan wajib ditegakkan dalam segala hal, karena keadilan menimbulkan ketenteraman, kemakmuran dan kebahagiaan, dan ketidak- adilan akan menimbulkan sebaliknya.\n5.\tJanji Allah berupa ampunan dan pahala yang besar bagi orang beriman yang banyak beramal saleh.\n6.\tOrang kafir yang mendustakan ayat-ayat-Nya adalah penghuni neraka.\n7.\tAllah memerintahkan kepada orang beriman supaya tetap mengingat nikmat yang dikaruniakan kepada mereka."
    }
}