{
    "id": 785,
    "surah_id": 5,
    "ayah": 116,
    "page": 127,
    "quarter_hizb": 13.5,
    "juz": 7,
    "manzil": 2,
    "arabic": "\u0648\u064e\u0627\u0650\u0630\u0652 \u0642\u064e\u0627\u0644\u064e \u0627\u0644\u0644\u0651\u0670\u0647\u064f \u064a\u0670\u0639\u0650\u064a\u0652\u0633\u064e\u0649 \u0627\u0628\u0652\u0646\u064e \u0645\u064e\u0631\u0652\u064a\u064e\u0645\u064e \u0621\u064e\u0627\u064e\u0646\u0652\u062a\u064e \u0642\u064f\u0644\u0652\u062a\u064e \u0644\u0650\u0644\u0646\u0651\u064e\u0627\u0633\u0650 \u0627\u062a\u0651\u064e\u062e\u0650\u0630\u064f\u0648\u0652\u0646\u0650\u064a\u0652 \u0648\u064e\u0627\u064f\u0645\u0651\u0650\u064a\u064e \u0627\u0650\u0644\u0670\u0647\u064e\u064a\u0652\u0646\u0650 \u0645\u0650\u0646\u0652 \u062f\u064f\u0648\u0652\u0646\u0650 \u0627\u0644\u0644\u0651\u0670\u0647\u0650 \u06d7\u0642\u064e\u0627\u0644\u064e \u0633\u064f\u0628\u0652\u062d\u0670\u0646\u064e\u0643\u064e \u0645\u064e\u0627 \u064a\u064e\u0643\u064f\u0648\u0652\u0646\u064f \u0644\u0650\u064a\u0652\u0653 \u0627\u064e\u0646\u0652 \u0627\u064e\u0642\u064f\u0648\u0652\u0644\u064e \u0645\u064e\u0627 \u0644\u064e\u064a\u0652\u0633\u064e \u0644\u0650\u064a\u0652 \u0628\u0650\u062d\u064e\u0642\u0651\u064d \u06d7\u0627\u0650\u0646\u0652 \u0643\u064f\u0646\u0652\u062a\u064f \u0642\u064f\u0644\u0652\u062a\u064f\u0647\u0657 \u0641\u064e\u0642\u064e\u062f\u0652 \u0639\u064e\u0644\u0650\u0645\u0652\u062a\u064e\u0647\u0657 \u06d7\u062a\u064e\u0639\u0652\u0644\u064e\u0645\u064f \u0645\u064e\u0627 \u0641\u0650\u064a\u0652 \u0646\u064e\u0641\u0652\u0633\u0650\u064a\u0652 \u0648\u064e\u0644\u064e\u0627\u0653 \u0627\u064e\u0639\u0652\u0644\u064e\u0645\u064f \u0645\u064e\u0627 \u0641\u0650\u064a\u0652 \u0646\u064e\u0641\u0652\u0633\u0650\u0643\u064e \u06d7\u0627\u0650\u0646\u0651\u064e\u0643\u064e \u0627\u064e\u0646\u0652\u062a\u064e \u0639\u064e\u0644\u0651\u064e\u0627\u0645\u064f \u0627\u0644\u0652\u063a\u064f\u064a\u064f\u0648\u0652\u0628\u0650",
    "latin": "Wa i\u017c q\u0101lall\u0101hu y\u0101 \u2018\u012bsabna maryama a'anta qulta lin-n\u0101sittakhi\u017c\u016bn\u012b wa ummiya il\u0101haini min d\u016bnillah(i), q\u0101la sub\u1e25\u0101naka m\u0101 yak\u016bnu l\u012b an aq\u016bla m\u0101 laisa l\u012b bi\u1e25aqq(in), in kuntu qultuh\u016b faqad \u2018alimtah(\u016b), ta\u2018lamu m\u0101 f\u012b nafs\u012b wa l\u0101 a\u2018lamu m\u0101 f\u012b nafsik(a), innaka anta \u2018all\u0101mul-guy\u016bb(i).",
    "translation": "(Ingatlah) ketika Allah berfirman, \u201cWahai Isa putra Maryam, apakah engkau mengatakan kepada orang-orang, \u2018Jadikanlah aku dan ibuku sebagai dua tuhan selain Allah?\u2019\u201d Dia (Isa) menjawab, \u201cMaha Suci Engkau, tidak patut bagiku mengatakan apa pun yang bukan hakku. Jika aku pernah mengatakannya tentulah Engkau telah mengetahuinya. Engkau mengetahui apa pun yang ada pada diriku dan aku tidak mengetahui apa pun yang ada pada diri-Mu. Sungguh, Engkaulah Yang Maha Mengetahui segala yang gaib.\u201d",
    "no_footnote": null,
    "footnotes": null,
    "surah": {
        "id": 5,
        "arabic": " \u0627\u0644\u0645\u0627\u06e4\u0626\u062f\u0629",
        "latin": "Al-M\u0101'idah",
        "transliteration": "Al-Ma'idah",
        "translation": "Hidangan",
        "num_ayah": 120,
        "page": 106,
        "location": "Madaniyah"
    },
    "tafsir": {
        "wajiz": "Beberapa ayat sebelumnya menjelaskan nikmat Allah yang dianugerahkan kepada Nabi Isa, termasuk nikmat mendapat pengikut setia dan turunnya hidangan dari langit. Pada ayat ini, Allah meminta pertanggungjawaban Nabi Isa tentang sikap Bani Israil yang mempertuhankan dirinya dan ibunya. Dan ingatlah, wahai Nabi Muhammad apa yang akan terjadi pada hari kiamat, ketika Allah berfirman kepada Nabi Isa, \u201cWahai Isa putra Maryam! Apa engkau pernah mengatakan kepada orang-orang, jadikanlah aku dan ibuku sebagai dua tuhan selain Allah yang menyebabkan mereka meyakini trinitas, tiga tuhan, hingga menyimpang dari ajaran tauhid?\u201d Nabi Isa menjawab di hadapan Allah di akhirat, \u201cMahasuci Engkau dari apa yang mereka nisbahkan kepadaMu; tidak patut bagiku sebagai hamba-Mu dan Rasul-Mu, mengatakan kepada manusia yang bukan kebenaran, yakni mempertuhankan manusia dan menyembahnya sehingga menyimpang dari ajaran tauhid. Jika aku, selama hidupku yang singkat di dunia, pernah mengatakannya, menjadikan aku dan ibuku dua tuhan selain Engkau, ya Allah, tentulah Engkau telah mengetahuinya. Sebab, Engkau mengetahui apa yang ada pada diriku, yang tampak dan yang tersembunyi, dan aku sebagai manusia sangat terbatas, tidak mengetahui apa yang ada pada-Mu. Sungguh merupakan keharusan yang mutlak, Engkaulah, Tuhan, Yang Maha Mengetahui segala yang gaib, tersembunyi dari pandangan dan pengetahuan manusia.\u201d",
        "tahlili": "Pada ayat ini, Allah berkata, apakah Isa dan ibunya telah menyatakan dirinya sebagai tuhan. Isa menyatakan bahwa pernyataan di atas adalah tidak benar, karena dia tidaklah berhak menyatakan sesuatu yang tidak patut bagi dirinya dan ibunya. Allah menanyakan hal demikian itu kepada Isa walaupun Allah mengetahui apa yang sebenarnya terjadi, agar Isa di hari Kiamat itu menyatakan di hadapan para rasul dan umat manusia bahwa hanya Allah-lah yang berhak disembah, serta dia menjelaskan kesalahan umatnya yang memandang dirinya dan ibunya sebagai Tuhan. Semua ibadah hanya ditujukan kepada Allah. Ayat ini memberikan peringatan kepada orang-orang Nasrani yang hidup kemudian atas kesalahan dan kekeliruan akidah mereka. Banyak macam ibadah dan doa yang dilakukan oleh orang Nasrani ditujukan kepada Isa dan ibunya, baik yang khusus untuk Isa dan ibunya masing-masing, maupun ibadah mempersekutukan mereka dengan Allah. Semua ibadah seperti itu tidak dapat dibenarkan, karena segala ibadah itu haruslah ditujukan kepada Allah saja. Firman Allah:\n\u0648\u064e\u0645\u064e\u0627\u0653 \u0627\u064f\u0645\u0650\u0631\u064f\u0648\u0652\u0653\u0627 \u0627\u0650\u0644\u0651\u064e\u0627 \u0644\u0650\u064a\u064e\u0639\u0652\u0628\u064f\u062f\u064f\u0648\u0627 \u0627\u0644\u0644\u0651\u0670\u0647\u064e \u0645\u064f\u062e\u0652\u0644\u0650\u0635\u0650\u064a\u0652\u0646\u064e \u0644\u064e\u0647\u064f \u0627\u0644\u062f\u0651\u0650\u064a\u0652\u0646\u064e\nPadahal mereka hanya diperintah menyembah Allah dengan ikhlas menaati-Nya semata-mata karena (menjalankan) agama\u2026 (al-Bayyinah/98: 5)\nTiada Tuhan selain Allah yang berhak disembah hamba. Nabi Isa menjawab pertanyaan Allah tentang ibadah dan kepercayaan yang ditujukan kepada dirinya dan ibunya dengan jawaban yang diawali kata \u201cSubh\u0101naka\u201d artinya \u201cEngkau Mahasuci\u201d, maksudnya mustahil ada Tuhan selain Allah.\nNabi Isa menegaskan baik dirinya sendiri atau orang lain, tidaklah berhak untuk mengatakan sesuatu yang tidak patut bagi dirinya dan ibunya. Tidak terlintas sedikit pun dalam pikiran Nabi Isa untuk menyatakan dirinya atau ibunya sebagai tuhan, karena ia diutus kepada manusia untuk membimbing mereka ke jalan yang lurus yakni agama tauhid. Sekiranya Nabi Isa menyatakan pengakuannya sebagai Tuhan, atau terlintas dalam pikirannya, tentulah Allah lebih mengetahuinya, karena Dia Maha Mengetahui apa yang tersembunyi dalam pikiran manusia, terlebih apa yang diungkapkannya. Manusia tidak mengetahui apa yang disembunyikan Allah kecuali jika Dia memberitahukannya dengan perantaraan wahyu. Sesungguhnya hanya Allah sendiri yang Maha Mengetahui segala yang gaib; Ilmu-Nya meliputi segala yang pernah terjadi, yang sedang terjadi, dan yang akan terjadi.\nAllah menanyakan apakah Nabi Isa menyatakan diri dan ibunya sebagai Tuhan, karena orang-orang Nasrani di Najran banyak yang menganggap Isa dan ibunya sebagai Tuhan (Al\u016bs\u012b V;94). Yang penting ayat ini merupakan jawaban Nabi Isa yang dengan tegas tidak pernah menyatakan diri dan ibunya sebagai Tuhan. Jawaban ini perlu untuk diketahui oleh murid-murid Nabi Isa maupun semua pengikutnya.",
        "intro_surah": "Surah al-M\u0101\u2019idah terdiri dari 120 ayat, termasuk golongan surah Madaniyah. Sekalipun ada ayatnya yang turun di Mekah namun ayat ini diturunkan sesudah Nabi Muhammad saw, hijrah ke Medinah pada waktu haji wada\u2019.\nSurah ini dinamakan al-M\u0101\u2019idah (Hidangan), karena menurut kisah, pengikut-pengikut setia Nabi Isa meminta kepada Nabi Isa agar Allah menurunkan untuk mereka al-m\u0101\u2019idah (hidangan makanan) dari langit (ayat 112). Dinamakan dengan al-\u2018Uq\u016bd (perjanjian), karena kata itu terdapat pada ayat pertama Surah ini, Allah menyuruh agar hamba-hamba-Nya memenuhi janji prasetia mereka terhadap Allah dan perjanjian-perjanjian yang mereka buat sesamanya.\nDinamakan juga al-Munqi\u017c (yang menyelamatkan), karena akhir surah ini mengandung kisah tentang Nabi Isa sebagai penyelamat pengikut-pengikut setianya dari azab Allah.\n\nPokok-pokok Isinya\n1.\tKeimanan:\n\tBantahan terhadap orang yang menganggap Nabi Isa sebagai Tuhan.\n2.\tHukum-hukum:\nKeharusan memenuhi perjanjian, melanggar syiar Allah, makanan yang dihalalkan dan yang diharamkan, hukum mengawini perempuan Ahli Kitab, wudu, tayamum, mandi, hukum membunuh orang, mengacau dan mengganggu keamanan, melanggar sumpah dan kafaratnya, berjudi, berkorban untuk berhala, mengundi nasib, membunuh binatang waktu ihram dan persaksian dalam berwasiat.\n3. \tKisah-kisah:\nNabi Musa menyuruh kaumnya memasuki Palestina, kisah Habil dan Qabil, dan kisah Nabi Isa.\n4.\tLain-lain:\nKeharusan bersikap lemah-lembut terhadap sesama mukmin, bersikap keras terhadap orang-orang kafir, penyempurnaan agama Islam di zaman Nabi Muhammad saw, keharusan jujur dan berlaku adil, sikap dalam menghadapi berita-berita bohong, akibat berteman akrab dengan orang yang bukan Muslim; kutukan Allah terhadap orang-orang Yahudi, kewajiban rasul hanya menyampaikan agama, sikap Yahudi dan Nasrani terhadap Islam, Ka\u2019bah sakaguru kehidupan manusia, peringatan Allah supaya meninggalkan adat jahiliah dan larangan-larangan terhadap pertanyaan-pertanyaan yang mengakibatkan kesulitan menjalankan agama.",
        "outro_surah": null,
        "munasabah_prev_surah": "Hubungan Surah an-Nis\u0101\u2019 dengan al-M\u0101\u2019idah:\n1.\tSurah an-Nis\u0101\u2019 menerangkan beberapa macam akad, seperti perkawinan, perceraian, warisan, perjanjian, wasiat dan sebagainya, sedang permulaan Surah al-M\u0101\u2019idah menyatakan supaya hamba-hamba Allah memenuhi segala macam akad yang telah dilakukan, baik terhadap Allah, maupun terhadap sesama manusia, di samping menerangkan akad-akad yang lain.\n2.\tSurah an-Nis\u0101\u2019 mengemukakan hukum secara umum dan mendapat jalan untuk menetapkan suatu hukum, kemudian Surah al-M\u0101\u2019idah menjelaskan dan menegaskan hukum-hukum itu.\n3.\tSebagaimana halnya Surah al-Baqarah dan Surah \u0100li \u2018Imr\u0101n mengemukakan hal-hal yang berhubungan dengan pokok-pokok ajaran, seperti keesaan Allah dan kenabian, maka Surah an-Nis\u0101\u2019 dan al-M\u0101\u2019idah menerangkan tentang fur\u016b\u2019 agama (hukum fiqh), seperti hal-hal yang berhubungan dengan hukum keluarga dan sebagainya.\n4.\tAkhir Surah an-Nis\u0101\u2019 mengemukakan hujah-hujah atas kekeliruan orang-orang Yahudi dan Nasrani, serta kekeliruan kaum musyrik dan munafik. Hal yang serupa diterangkan secara panjang lebar dalam Surah al-M\u0101\u2019idah.\n5.\tSurah an-Nis\u0101\u2019 dimulai dengan Y\u0101 ayyuhan-n\u0101s (wahai manusia) yang nadanya sama dengan surah Makiyah, sedang Surah al-M\u0101\u2019idah seperti surah-surah Madaniyah, dimulai dengan Y\u0101 ayyuhalla\u017c\u012bna \u0101man\u016b (wahai orang yang beriman) Hal ini menyatakan sekalipun nadanya berbeda, tetapi yang dituju oleh kedua surah itu ialah semua manusia.",
        "munasabah_prev_theme": "Pada ayat yang lalu dijelaskan nikmat-nikmat yang telah dianugerahkan Allah kepada Isa dan kaumnya untuk menunjukkan bahwa Isa adalah hamba-Nya. Pada ayat ini dikemukakan kembali bukti bahwa Isa benar-benar hamba-Nya, yaitu dengan penjelasan bahwa pada hari Kiamat, Allah akan menanyakan kepada Isa apakah benar dia menyatakan dirinya dan ibunya sebagai tuhan selain Allah di hadapan kaumnya.",
        "theme_group": "\nNABI ISA LEPAS TANGAN \nDARI TUDUHAN KAUMNYA",
        "kosakata": "Kosakata: \u2018Isa Almasih \u0639\u0650\u064a\u0652\u0633\u0649\u064e \u0627\u064e\u0644\u0652\u0645\u064e\u0633\u0650\u064a\u0652\u062d (al-M\u0101\u2019idah/5: 116)\nDi dalam Al-Qur\u2019an, nama Isa atau Isa anak Maryam, sering juga diikuti dengan nama gelar, Isa Almasih, yang disebutkan dalam 33 ayat dalam 13 surah. \nPada mulanya kata Almas\u012b\u1e25 dari kata bahasa Arab masa\u1e25a, dalam arti istilah berarti mengurapi minyak ke badan untuk memberi berkah bagi seorang raja atau nabi, yang sudah menjadi adat di kalangan orang Yahudi dan Kristiani. Almasih, orang yang diurapi. Dalam Bibel berarti diurapi dengan minyak suci; dari bahasa Ibrani, masakh, mengurapi, Mash\u012bach (dalam ejaan bahasa Inggris), atau Messiah, Mesias, \u201cyang diurapi oleh Tuhan,\u201d yakni Kristus dalam bahasa Yunani, dari asal kata iesus dalam bahasa Latin atau yeshua dalam bahasa Ibrani.\nSejarah permulaan hidup Isa Almasih memang tidak banyak diketahui. Selain yang sudah disebutkan di dalam Al-Qur\u2019an, satu-satunya sumber informasi tentang Yesus terdapat dalam Perjanjian Baru, terutama dalam tiga Kitab pertama, yakni Matius, Lukas dan Markus, meskipun ada juga tambahan data yang dapat dikumpulkan dari Yohanes, Surat-surat Paulus dan Kisah Para Rasul. Dalam Injil Matius (1:1-125) disebutkan bahwa Yesus keturunan Daud sampai kepada Ibrahim. Dalam Injil Lukas (2:23-38) disebutkan bahwa \u201cKetika Yesus memulai pekerjaan-Nya, Ia berumur kira-kira tiga puluh tahun, dan menurut anggapan orang, Ia anak Yusuf, anak Eli, anak Matat,\u2026\u201d dan seterusnya sampai pada \u201canak Enos, anak Set, anak Adam, anak Allah.\u201d\nTentang nasab ini antara Injil Matius dengan Injil Lukas memang terdapat perbedaan, kendati keduanya bermuara pada Ibrahim. Matius mengatakan Yusuf anak Yakub dan seterusnya; kata Lukas ia anak Eli dan seterusnya. Begitu juga mengenai silsilah Yesus, Matius mengatakan bahwa Yesus dari cabang Sulaiman anak Daud, Lukas mengatakan ia dari cabang Natan anak Daud. \u201cDan ketika genap delapan hari Ia harus disunatkan, Ia diberi nama Yesus, yaitu nama yang disebut oleh malaikat sebelum Ia dikandung ibu-Nya.\u201d (Lukas 2:21). Dalam syariat agama Yahudi bayi delapan tahun sudah harus dikhitan, seperti yang sudah berlaku sebelumnya terhadap Ibrahim.\nDalam versi Kristen, Yesus lahir di Betlehem, 6 mil selatan Yerusalem, diperkirakan dalam bulan Desember tahun 5 sebelum Masehi. Ketika itu Kaisar Augustus (versi lain mengatakan Tiberius) adalah maharaja Roma. Ibu Yesus, Maria telah mengandungnya melalui Roh Kudus, yang pada masanya ia dikenal sebagai anak Yusuf, seorang tukang kayu, suami Maria. Kedua orang tuanya di Nazaret, Galelea. \nDalam Perjanjian Baru diceritakan, bahwa orang-orang majusi dari Timur datang ke Yerusalem mencari raja orang Yahudi yang baru dilahirkan. Mereka telah melihat bintang-Nya di Timur dan datang untuk menyembah Dia. Raja Herodes, penguasa Yudea di bawah Roma, terkejut sekali mendengar berita itu, dan mengumpulkan semua imam kepala dan ahli Taurat bangsa Yahudi untuk dimintai keterangan di mana Mesias akan dilahirkan. Mereka menjawab di Betlehem, tanah Yudea, karena sudah tertulis dalam kitab nabi. Diam-diam Herodes memanggil orang majus itu dan menanyakan bilamana bintang itu nampak. Ia menyuruh mereka ke Betlehem untuk menyelidiki Anak itu karena raja Herodes juga akan menyembah Dia. Mereka berangkat, dan terlihatlah bintang yang mereka lihat di Timur itu sudah mendahului mereka dan berhenti di tempat Anak itu berada. Mereka melihat Anak itu bersama Maria, ibu-Nya, lalu mereka sujud menyembah Anak itu. Mereka mempersembahkan harta kepada-Nya, yaitu emas, kemenyan dan mur. Karena dalam suatu mimpi mereka diperingatkan agar jangan kembali kepada Herodes, maka mereka pulang ke negerinya melalui jalan lain. (Matius 2: 1-12).\nTak lama setelah itu Yesus dibawa ke Mesir untuk menghindari pembantaian bayi oleh raja Herodes. Dalam usia 12 tahun oleh ibunya ia dipersembahkan kepada rumah ibadah di Yerusalem. Ia dibaptis oleh Yohanes Pembaptis, mungkin sekitar tahun 26 Masehi, dan mulai berkhotbah di depan umum, menyembuhkan orang sakit dan membentuk kelompok kecil menjadi pengikut-pengikutnya di kalangan bawah masyarakat Palestina, nelayan dan sebagainya. Ajarannya ditafsirkan oleh kalangan pemuka agama Yahudi sebagai bentuk permusuhan terhadap lembaga yang sah, dan dengan pengkhianatan salah seorang dari dua belas orang muridnya, yakni Yudas Iskariot (Matius 26:14-16; 48-50) dan dengan kerjasama dengan penguasa-penguasa Yahudi dilaporkan kepada Pontius Pilatus, wali negeri itu. Ketika itu umur Yesus sudah mencapai 33 tahun, yang berakhir dengan penyaliban (Matius 27. 45-56).Demikian versi Kristen. \nKelahiran Nabi Isa di dunia sama dengan akhir hayatnya, banyak mengandung rahasia, dan menimbulkan berbagai perselisihan. Seperti dikatakan oleh Yusuf Ali dalam menafsirkan Surah an-Nis\u0101\u2019/4: 157-158, bahwa membicarakan segi-segi yang masih banyak menimbulkan keraguan di kalangan sekte-sekte Kristen dahulu dan juga di kalangan ahli-ahli ilmu kalam kaum Muslimin, kurang ada manfaatnya. Di kalangan gereja Kristen Ortodoks hal ini menjadi dasar utama yang mengatakan bahwa Yesus mati di tiang salib dan dimakamkan, dan bahwa pada hari ketiga dia bangkit dengan keadaan tubuh yang masih utuh dengan lukanya, berjalan dan bercakap-cakap, dan makan bersama dengan murid-muridnya dan kemudian jasadnya diangkat ke langit. Untuk ajaran teologis mengenai pengorbanan darah dan penebusan dosa atas namanya itu adalah suatu keharusan, yang oleh Islam jelas ditolak. Tetapi ada beberapa sekte Kristen terdahulu yang memang tidak percaya bahwa Kristus mati di tiang salib. Kaum Basilides percaya bahwa ada orang lain yang telah menggantikan Yesus. \u2026Injil Barnabas mendukung teori substitusi (penggantian oleh orang lain) di atas Salib. Menurut ajaran Al-Qur\u2019an, Almasih tidak disalib dan tidak pula dibunuh oleh orang-orang Yahudi, meskipun karena keadaan tertentu, dalam pikiran musuhnya memang demikian yang terbayang. Ada paham yang berpendapat, bahwa dia tidak mati seperti matinya manusia biasa, melainkan masih hidup dengan jasadnya di langit; yang lain berpendapat bahwa dia mati (\u0100li \u2018Imr\u0101n/3: 55, an-Nis\u0101\u2019/4: 159, al-M\u0101\u2019idah/5: 117), tetapi bukan pada waktu dia disalib seperti yang diduga; dan bahwa dia \u201cdiangkat naik\u201d ke hadirat Tuhan itu berarti, bahwa sebaliknya daripada dicemarkan dan dihina sebagai penjahat, sebagaimana dikehendaki oleh orang Yahudi; tetapi sebaliknya ia dimuliakan oleh Allah sebagai Rasul-Nya seperti dalam ayat berikutnya (an-Nis\u0101\u20194: 158). Kata yang sama raja`a itu juga dipakai dalam surah al-Insyirah/94: 4 sehubungan dengan kemuliaan yang diberikan kepada Rasulullah. \u201cOleh pihak Yahudi Isa dituduh menghina Tuhan karena mengaku dan mendakwakan diri Allah atau anak Allah. Oleh golongan Nasrani (kecuali sebagian kecil pada sekte yang mula-mula, yang telah dibasmi dengan cara penyiksaan, dan sekte yang sekarang Unitarianisme, mereka hampir sama dengan kaum Muslimin), inti pengakuan itu diambilnya dan dijadikannya dasar keimanan mereka. Allah membersihkan Isa dari tuduhan atau pengakuan semacam itu,\u201d demikian A. Y. Ali.\nDalam Surah Maryam/19: 16-33) dan Surah \u0100li \u2018Imr\u0101n/3: 45-53) Allah berfirman bahwa kelahiran Isa dimulai ketika para malaikat berkata kepada Maryam, bahwa Allah telah mengutamakannya dan menyucikannya di atas semua perempuan seluruh alam, dan dia akan melahirkan seorang anak laki-laki yang bersih. Dan dilukiskan Maryam yang keheranan, karena ia tak pernah bersentuhan dengan laki-laki, ketika malaikat menyampaikan berita gembira kepadanya dari Allah, bahwa ia akan mendapat anak bernama Isa, terhormat di dunia dan di akhirat dan termasuk orang yang saleh dan dekat kepada Allah, berbicara ketika masih dalam buaian dan sesudah dewasa. Allah akan mengajarkan kebijakan kepadanya, Taurat dan Injil, dan selaku rasul kepada Bani Israil, disertai mukjizat-mukjizat, menyuruh menyembah hanya kepada Allah. Setelah Isa menyadari akan kekafiran mereka ia bertanya, siapakah yang akan menjadi pembelanya di jalan Allah. Para muridnya berkata, bahwa mereka pembela-pembela Allah. Mereka bersaksi bahwa beriman kepada Allah, tunduk, dan beriman pada Kitab yang diwahyukan Allah dan mengikuti Isa Rasul-Nya. \nTugas Nabi Isa ditegaskan dalam dua cara: (1) dia akan menjadi bukti kepada manusia. Kelahiran dan cara hidupnya yang ajaib akan membuat dunia tak bertuhan kembali kepada Tuhan; dan (2) tugasnya akan menjadi hiburan dan penyelamat bagi orang yang bertobat. Ini memang sudah menjadi salah satu cara bagi semua utusan Allah, dan cara yang paling menonjol ialah pada Muhammad Rasulullah. Tetapi di sini pokok persoalannya ialah, karena orang-orang Israil itu, yang menjadi sasaran diutusnya Nabi Isa kepada mereka, adalah ras yang keras kepala; maka misi Nabi Isa akan menjadi rahmat bagi mereka.\nDemikian ringkasan kisah Isa Almasih dan Maryam dalam Al-Qur\u2019an dan kisah Yesus dalam Perjanjian Baru. ",
        "sabab_nuzul": null,
        "conclusion": null
    }
}