{
    "id": 776,
    "surah_id": 5,
    "ayah": 107,
    "page": 125,
    "quarter_hizb": 13.25,
    "juz": 7,
    "manzil": 2,
    "arabic": "\u0641\u064e\u0627\u0650\u0646\u0652 \u0639\u064f\u062b\u0650\u0631\u064e \u0639\u064e\u0644\u0670\u0653\u0649 \u0627\u064e\u0646\u0651\u064e\u0647\u064f\u0645\u064e\u0627 \u0627\u0633\u0652\u062a\u064e\u062d\u064e\u0642\u0651\u064e\u0627\u0653 \u0627\u0650\u062b\u0652\u0645\u064b\u0627 \u0641\u064e\u0627\u0670\u062e\u064e\u0631\u0670\u0646\u0650 \u064a\u064e\u0642\u064f\u0648\u0652\u0645\u0670\u0646\u0650 \u0645\u064e\u0642\u064e\u0627\u0645\u064e\u0647\u064f\u0645\u064e\u0627 \u0645\u0650\u0646\u064e \u0627\u0644\u0651\u064e\u0630\u0650\u064a\u0652\u0646\u064e \u0627\u0633\u0652\u062a\u064e\u062d\u064e\u0642\u0651\u064e \u0639\u064e\u0644\u064e\u064a\u0652\u0647\u0650\u0645\u064f \u0627\u0644\u0652\u0627\u064e\u0648\u0652\u0644\u064e\u064a\u0670\u0646\u0650 \u0641\u064e\u064a\u064f\u0642\u0652\u0633\u0650\u0645\u0670\u0646\u0650 \u0628\u0650\u0627\u0644\u0644\u0651\u0670\u0647\u0650 \u0644\u064e\u0634\u064e\u0647\u064e\u0627\u062f\u064e\u062a\u064f\u0646\u064e\u0627\u0653 \u0627\u064e\u062d\u064e\u0642\u0651\u064f \u0645\u0650\u0646\u0652 \u0634\u064e\u0647\u064e\u0627\u062f\u064e\u062a\u0650\u0647\u0650\u0645\u064e\u0627 \u0648\u064e\u0645\u064e\u0627 \u0627\u0639\u0652\u062a\u064e\u062f\u064e\u064a\u0652\u0646\u064e\u0627\u0653 \u06d6\u0627\u0650\u0646\u0651\u064e\u0627\u0653 \u0627\u0650\u0630\u064b\u0627 \u0644\u0651\u064e\u0645\u0650\u0646\u064e \u0627\u0644\u0638\u0651\u0670\u0644\u0650\u0645\u0650\u064a\u0652\u0646\u064e ",
    "latin": "Fa in \u2018u\u1e61ira \u2018al\u0101 annahumasta\u1e25aqq\u0101 i\u1e61man fa \u0101khar\u0101ni yaq\u016bm\u0101ni maq\u0101mahum\u0101 minal-la\u017c\u012bnasta\u1e25aqqa \u2018alaihimul-aulay\u0101ni fa yuqsim\u0101ni bill\u0101hi lasyah\u0101datun\u0101 a\u1e25aqqu min syah\u0101datihim\u0101 wa ma\u2018tadain\u0101, inn\u0101 i\u017cal lamina\u1e93-\u1e93\u0101lim\u012bn(a).",
    "translation": "Jika terbukti kedua saksi itu berbuat dosa,234) maka dua orang yang lain menggantikan kedudukannya, yaitu di antara ahli waris yang berhak dan lebih dekat kepada orang yang meninggal, lalu keduanya bersumpah dengan nama Allah, \u201cSungguh, kesaksian kami lebih layak diterima daripada kesaksian kedua saksi itu, dan kami tidak melanggar batas. Sesungguhnya jika (berbuat) demikian, tentu kami termasuk orang-orang yang zalim.\u201d",
    "no_footnote": "234",
    "footnotes": "234) Berbuat dosa di sini maksudnya adalah melakukan kecurangan dalam persaksiannya yang diketahui setelah dia bersumpah.",
    "surah": {
        "id": 5,
        "arabic": " \u0627\u0644\u0645\u0627\u06e4\u0626\u062f\u0629",
        "latin": "Al-M\u0101'idah",
        "transliteration": "Al-Ma'idah",
        "translation": "Hidangan",
        "num_ayah": 120,
        "page": 106,
        "location": "Madaniyah"
    },
    "tafsir": {
        "wajiz": "Jika terbukti kedua saksi itu berbuat dosa, ini berkaitan dengan dua orang Nasrani, Tamim ad-Dariy dan \u2018Adiy bin Badda, yang menerima wasiat dari Budail yang wafat waktu berdagang di Syam dan berbohong dalam persaksiannya dengan bersumpah palsu di hadapan Nabi Muhammad; maka dua orang yang lain, yaitu dua orang saksi dari keluarga yang meninggal, menggantikan kedudukannya menjadi dua saksi, yaitu dua saksi yang termasuk di antara ahli waris yang berhak menjadi saksi dan lebih dekat hubungan nasabnya kepada yang meninggal, lalu keduanya bersumpah dengan nama Allah, dengan disaksikan oleh orang banyak, \u201cSungguh, kesaksian kami lebih layak diterima daripada kesaksian kedua saksi itu, Tamim ad-Dariy dan \u2018Adiy bin Badda yang berbeda agama dan menyembunyikan barang milik Budail, dan kami, dua saksi dari keluarga yang meninggal, tidak melanggar batas dalam kesaksian ini. Sesungguhnya jika kami berbuat demikian, curang dan tidak adil, tentu kami termasuk orang-orang zalim terhadap diri sendiri.\u201d",
        "tahlili": "Selanjutnya dalam ayat ini dijelaskan, bahwa apabila dikemudian hari, setelah wafatnya orang yang berwasiat itu, tampak tanda-tanda ketidakjujuran para saksi itu, misalnya sewaktu diminta kesaksiannya mereka lalu memberikan kesaksian yang tidak benar, atau mengaku tidak menyembunyikan sesuatu dari harta peninggalan yang dipercayakan kepada mereka oleh orang yang berwasiat itu, maka untuk mencari penyelesaian dalam keadaan itu kewajiban untuk bersumpah dialihkan kepada ahli waris dari orang yang telah meninggal yang memberikan wasiat itu. Untuk itu harus dicarikan dua orang lain yang terdekat hubungan kekeluargaannya dengan orang yang berwasiat, yaitu yang paling berhak untuk menerima warisannya, apabila ia memenuhi persyaratan untuk dapat menerima warisan. Seperti tidak berlainan agama atau tidak tersangkut dalam kasus pembunuhan orang yang berwasiat.\nApabila kerabatnya yang terdekat itu ternyata tidak memenuhi persyaratan untuk dapat menerima warisan, misalnya karena perbedaan agama dengan orang yang meninggalkan warisan, atau karena ia tersangkut dalam kasus terbunuhnya yang berwasiat, maka dicarilah dua orang lainnya di antara ahli waris itu yang paling utama untuk melakukan sumpah tersebut, dengan melihat usia, sifat, pengetahuan, dan sebagainya.\nSumpah yang diucapkan oleh kedua orang ahli waris ini dimaksudkan untuk menguatkan tuduhan terhadap kedua orang yang menerima wasiat itu, bahwa mereka telah berkhianat mengenai wasiat itu. Juga untuk menguatkan, bahwa mereka adalah benar dalam melakukan tuduhan itu, dan tidak melampaui batas; artinya: tuduhan itu bukan tuduhan sembarangan dan tidak beralasan. Kemudian diakhiri pula dengan penegasan, bahwa apabila mereka melakukan tuduhan atau kesaksian yang tidak benar, maka niscaya mereka termasuk orang-orang yang zalim.\nDalam ayat lain dijelaskan kedudukan saksi yang semula wajib kemudian menjadi sunah.\n\u0643\u064f\u062a\u0650\u0628\u064e \u0639\u064e\u0644\u064e\u064a\u0652\u0643\u064f\u0645\u0652 \u0627\u0650\u0630\u064e\u0627 \u062d\u064e\u0636\u064e\u0631\u064e \u0627\u064e\u062d\u064e\u062f\u064e\u0643\u064f\u0645\u064f \u0627\u0644\u0652\u0645\u064e\u0648\u0652\u062a\u064f \u0627\u0650\u0646\u0652 \u062a\u064e\u0631\u064e\u0643\u064e \u062e\u064e\u064a\u0652\u0631\u064b\u0627 \u06d6 \u06e8\u0627\u0644\u0652\u0648\u064e\u0635\u0650\u064a\u0651\u064e\u0629\u064f \u0644\u0650\u0644\u0652\u0648\u064e\u0627\u0644\u0650\u062f\u064e\u064a\u0652\u0646\u0650 \u0648\u064e\u0627\u0644\u0652\u0627\u064e\u0642\u0652\u0631\u064e\u0628\u0650\u064a\u0652\u0646\u064e \u0628\u0650\u0627\u0644\u0652\u0645\u064e\u0639\u0652\u0631\u064f\u0648\u0652\u0641\u0650\u06da \u062d\u064e\u0642\u0651\u064b\u0627 \u0639\u064e\u0644\u064e\u0649 \u0627\u0644\u0652\u0645\u064f\u062a\u0651\u064e\u0642\u0650\u064a\u0652\u0646\u064e \u06d7 \u0661\u0668\u0660\nDiwajibkan atas kamu, apabila maut hendak menjemput seseorang di antara kamu, jika dia meninggalkan harta, berwasiat untuk kedua orang tua dan karib kerabat dengan cara yang baik, (sebagai) kewajiban bagi orang-orang yang bertakwa. (al-Baqarah/2: 180).",
        "intro_surah": "Surah al-M\u0101\u2019idah terdiri dari 120 ayat, termasuk golongan surah Madaniyah. Sekalipun ada ayatnya yang turun di Mekah namun ayat ini diturunkan sesudah Nabi Muhammad saw, hijrah ke Medinah pada waktu haji wada\u2019.\nSurah ini dinamakan al-M\u0101\u2019idah (Hidangan), karena menurut kisah, pengikut-pengikut setia Nabi Isa meminta kepada Nabi Isa agar Allah menurunkan untuk mereka al-m\u0101\u2019idah (hidangan makanan) dari langit (ayat 112). Dinamakan dengan al-\u2018Uq\u016bd (perjanjian), karena kata itu terdapat pada ayat pertama Surah ini, Allah menyuruh agar hamba-hamba-Nya memenuhi janji prasetia mereka terhadap Allah dan perjanjian-perjanjian yang mereka buat sesamanya.\nDinamakan juga al-Munqi\u017c (yang menyelamatkan), karena akhir surah ini mengandung kisah tentang Nabi Isa sebagai penyelamat pengikut-pengikut setianya dari azab Allah.\n\nPokok-pokok Isinya\n1.\tKeimanan:\n\tBantahan terhadap orang yang menganggap Nabi Isa sebagai Tuhan.\n2.\tHukum-hukum:\nKeharusan memenuhi perjanjian, melanggar syiar Allah, makanan yang dihalalkan dan yang diharamkan, hukum mengawini perempuan Ahli Kitab, wudu, tayamum, mandi, hukum membunuh orang, mengacau dan mengganggu keamanan, melanggar sumpah dan kafaratnya, berjudi, berkorban untuk berhala, mengundi nasib, membunuh binatang waktu ihram dan persaksian dalam berwasiat.\n3. \tKisah-kisah:\nNabi Musa menyuruh kaumnya memasuki Palestina, kisah Habil dan Qabil, dan kisah Nabi Isa.\n4.\tLain-lain:\nKeharusan bersikap lemah-lembut terhadap sesama mukmin, bersikap keras terhadap orang-orang kafir, penyempurnaan agama Islam di zaman Nabi Muhammad saw, keharusan jujur dan berlaku adil, sikap dalam menghadapi berita-berita bohong, akibat berteman akrab dengan orang yang bukan Muslim; kutukan Allah terhadap orang-orang Yahudi, kewajiban rasul hanya menyampaikan agama, sikap Yahudi dan Nasrani terhadap Islam, Ka\u2019bah sakaguru kehidupan manusia, peringatan Allah supaya meninggalkan adat jahiliah dan larangan-larangan terhadap pertanyaan-pertanyaan yang mengakibatkan kesulitan menjalankan agama.",
        "outro_surah": null,
        "munasabah_prev_surah": "Hubungan Surah an-Nis\u0101\u2019 dengan al-M\u0101\u2019idah:\n1.\tSurah an-Nis\u0101\u2019 menerangkan beberapa macam akad, seperti perkawinan, perceraian, warisan, perjanjian, wasiat dan sebagainya, sedang permulaan Surah al-M\u0101\u2019idah menyatakan supaya hamba-hamba Allah memenuhi segala macam akad yang telah dilakukan, baik terhadap Allah, maupun terhadap sesama manusia, di samping menerangkan akad-akad yang lain.\n2.\tSurah an-Nis\u0101\u2019 mengemukakan hukum secara umum dan mendapat jalan untuk menetapkan suatu hukum, kemudian Surah al-M\u0101\u2019idah menjelaskan dan menegaskan hukum-hukum itu.\n3.\tSebagaimana halnya Surah al-Baqarah dan Surah \u0100li \u2018Imr\u0101n mengemukakan hal-hal yang berhubungan dengan pokok-pokok ajaran, seperti keesaan Allah dan kenabian, maka Surah an-Nis\u0101\u2019 dan al-M\u0101\u2019idah menerangkan tentang fur\u016b\u2019 agama (hukum fiqh), seperti hal-hal yang berhubungan dengan hukum keluarga dan sebagainya.\n4.\tAkhir Surah an-Nis\u0101\u2019 mengemukakan hujah-hujah atas kekeliruan orang-orang Yahudi dan Nasrani, serta kekeliruan kaum musyrik dan munafik. Hal yang serupa diterangkan secara panjang lebar dalam Surah al-M\u0101\u2019idah.\n5.\tSurah an-Nis\u0101\u2019 dimulai dengan Y\u0101 ayyuhan-n\u0101s (wahai manusia) yang nadanya sama dengan surah Makiyah, sedang Surah al-M\u0101\u2019idah seperti surah-surah Madaniyah, dimulai dengan Y\u0101 ayyuhalla\u017c\u012bna \u0101man\u016b (wahai orang yang beriman) Hal ini menyatakan sekalipun nadanya berbeda, tetapi yang dituju oleh kedua surah itu ialah semua manusia.",
        "munasabah_prev_theme": "Ayat-ayat yang lalu menerangkan bahwa semua makhluk akan kembali kepada Allah, dan bahwa Dia akan memberikan balasan kepada setiap makhluk-Nya setimpal dengan perbuatannya masing-masing. Ayat-ayat ini memberikan tuntunan kepada orang beriman, agar sebelum wafat hendaknya berwasiat mengenai harta benda, dan wasiat itu harus disaksikan oleh saksi-saksi yang mukmin dan dapat dipercaya, dan ditunjukkan pula bagaimana cara melaksanakan kesaksian tersebut.",
        "theme_group": "SAKSI DALAM BERWASIAT",
        "kosakata": "Kosakata: \u2018U\u1e61ira \u0639\u064f\u062b\u0650\u0631\u064e(al-M\u0101\u2019idah/5: 108)\nKata ini terambilkan dari kata \u2018u\u1e61\u016br artinya menyergap/menyerang (al-huj\u016bm) sesuatu yang tidak dilakukan orang lain. Lalu digunakan untuk mengetahui sesuatu yang tampak bagi seseorang yang tidak diketahui oleh orang lain, sehingga kata \u2018u\u1e61ira bisa diartikan diketahui.\nAl-Qur\u2019an memakai kata ini sebanyak dua kali saja yaitu pada surah ini dan surah al-Kahf/18: 21.",
        "sabab_nuzul": null,
        "conclusion": null
    }
}