{
    "id": 811,
    "surah_id": 6,
    "ayah": 22,
    "page": 130,
    "quarter_hizb": 13.75,
    "juz": 7,
    "manzil": 2,
    "arabic": "\u0648\u064e\u064a\u064e\u0648\u0652\u0645\u064e \u0646\u064e\u062d\u0652\u0634\u064f\u0631\u064f\u0647\u064f\u0645\u0652 \u062c\u064e\u0645\u0650\u064a\u0652\u0639\u064b\u0627 \u062b\u064f\u0645\u0651\u064e \u0646\u064e\u0642\u064f\u0648\u0652\u0644\u064f \u0644\u0650\u0644\u0651\u064e\u0630\u0650\u064a\u0652\u0646\u064e \u0627\u064e\u0634\u0652\u0631\u064e\u0643\u064f\u0648\u0652\u0653\u0627 \u0627\u064e\u064a\u0652\u0646\u064e \u0634\u064f\u0631\u064e\u0643\u064e\u0627\u06e4\u0624\u064f\u0643\u064f\u0645\u064f \u0627\u0644\u0651\u064e\u0630\u0650\u064a\u0652\u0646\u064e \u0643\u064f\u0646\u0652\u062a\u064f\u0645\u0652 \u062a\u064e\u0632\u0652\u0639\u064f\u0645\u064f\u0648\u0652\u0646\u064e ",
    "latin": "Wa yauma na\u1e25syuruhum jam\u012b\u2018an \u1e61umma naq\u016blu lil-la\u017c\u012bna asyrak\u016b aina syurak\u0101'ukumul-la\u017c\u012bna kuntum taz\u2018um\u016bn(a).",
    "translation": "(Ingatlah) tatkala Kami kumpulkan mereka semua kemudian Kami berfirman kepada orang-orang yang mempersekutukan Kami, \u201cManakah sekutu-sekutumu yang kamu sangkakan?\u201d",
    "no_footnote": null,
    "footnotes": null,
    "surah": {
        "id": 6,
        "arabic": " \u0627\u0644\u0627\u0646\u0639\u0627\u0645",
        "latin": "Al-An\u2018\u0101m ",
        "transliteration": "Al-An\u2018am",
        "translation": "Binatang Ternak",
        "num_ayah": 165,
        "page": 128,
        "location": "Makkiyah"
    },
    "tafsir": {
        "wajiz": "Dan ingatlah, pada hari ketika Kami mengumpulkan mereka semua, seluruh manusia sejak zaman Adam hingga akhir zaman di Padang Mahsyar, kemudian Kami berfirman kepada orang-orang yang menyekutukan Allah, sebagai pertanggungjawaban, \u201cDi manakah sembahan-sembahanmu yang dahulu kamu sangka sebagai sekutu-sekutu Kami yang kamu perlakukan sebagai tuhan?\u201d",
        "tahlili": "Dalam ayat ini, Allah memperingatkan orang musyrik tentang hari kebangkitan, ketika seluruh umat manusia dikumpulkan. Pada hari itu manusia hanya terbagi menjadi dua golongan: mereka yang rugi dan mereka yang beruntung. Kemudian Allah berkata kepada orang-orang musyrik, \u201cDi manakah sembahan-sembahanmu yang dahulu kamu katakan sekutu Allah?\u201d Allah bertanya demikian karena pada saat di dunia, mereka meminta pertolongan dan memanjatkan doa kepada sembahan selain Allah, yang mereka jadikan sebagai pelindung atau pengantar untuk mendekatkan diri kepada Allah atau untuk memberi syafaat kepada mereka pada hari Kiamat. Mengapa sembahan-sembahan itu menghilang dan tidak tampak bersama mereka pada hari itu? Seperti difirmankan Allah:\n\u0648\u064e\u0645\u064e\u0627 \u0646\u064e\u0631\u0670\u0649 \u0645\u064e\u0639\u064e\u0643\u064f\u0645\u0652 \u0634\u064f\u0641\u064e\u0639\u064e\u0627\u06e4\u0621\u064e\u0643\u064f\u0645\u064f \u0627\u0644\u0651\u064e\u0630\u0650\u064a\u0652\u0646\u064e \u0632\u064e\u0639\u064e\u0645\u0652\u062a\u064f\u0645\u0652 \u0627\u064e\u0646\u0651\u064e\u0647\u064f\u0645\u0652 \u0641\u0650\u064a\u0652\u0643\u064f\u0645\u0652 \u0634\u064f\u0631\u064e\u0643\u0670\u06e4\u0624\u064f\u0627 \u06d7 \u0644\u064e\u0642\u064e\u062f\u0652 \u062a\u0651\u064e\u0642\u064e\u0637\u0651\u064e\u0639\u064e \u0628\u064e\u064a\u0652\u0646\u064e\u0643\u064f\u0645\u0652 \u0648\u064e\u0636\u064e\u0644\u0651\u064e \u0639\u064e\u0646\u0652\u0643\u064f\u0645\u0652 \u0645\u0651\u064e\u0627 \u0643\u064f\u0646\u0652\u062a\u064f\u0645\u0652 \u062a\u064e\u0632\u0652\u0639\u064f\u0645\u064f\u0648\u0652\u0646\u064e \u08d6 \u0669\u0664\nKami tidak melihat pemberi syafa\u2019at (pertolongan) besertamu yang kamu anggap bahwa mereka itu sekutu-sekutu (bagi Allah). Sungguh, telah terputuslah (semua pertalian) antara kamu dan telah lenyap dari kamu apa yang dahulu kamu sangka (sebagai sekutu Allah). (al-An\u2018\u0101m/6: 94)",
        "intro_surah": "Surah yang ke-6, al-An\u2018\u0101m yang berarti hewan ternak terdiri atas 165 ayat. Surah ini termasuk golongan Surah Makiyah. Dinamai al-An\u2018\u0101m (hewan ternak) karena surah ini banyak menerangkan hukum-hukum yang berhubungan dengan hewan ternak dan juga hubungan hewan tersebut dengan adat istiadat serta kepercayaan orang-orang musyrik. Menurut kepercayaan mereka, hewan tersebut dapat disembelih sebagai kurban untuk mendekatkan diri kepada sembahan mereka. Allah memulai surah ini dengan \u201cAlhamdulill\u0101h\u201d. Surah-surah lain yang juga diawali dengan lafaz \u201cAlhamdulill\u0101h\u201d ialah Surah al-Kahf/18, Surah Saba\u2019/34 dan Surah F\u0101\u1e6dir/35.\nSemua Surah Makiyah berisi seruan kepada keimanan, agama tauhid, dan menegaskan batalnya kepercayaan syirik. Banyak hadis yang meriwayatkan bahwa Surah al-An\u2018\u0101m/6 ini diturunkan sekaligus, disebabkan isinya yang antara lain mengandung dalil-dalil ketauhidan, keadilan, kenabian, hari Kiamat dan bantahan terhadap il\u1e25\u0101d (atheisme).\n\nPOKOK-POKOK ISINYA\n1.\tKeimanan\nBukti-bukti keesaan Allah serta kesempurnaan sifat-sifat-Nya; tentang kenabian Muhammad; penegasan Allah atas kenabian Ibrahim, Ishak, Ya\u2019kub, Nuh, Daud, Sulaiman, Ayyub, Yusuf, Musa, Harun, Zakaria, Yahya, Isa, Ilyas, Alyasa\u2019, Yunus, Lu\u1e6d; penegasan tentang adanya risalah dan wahyu serta hari pembalasan dan hari kebangkitan; sesatnya kepercayaan orang musyrik dan keingkaran mereka terhadap hari Kiamat.\n2.\tBeberapa Hukum\nLarangan mengikuti adat istiadat yang dibuat-buat oleh kaum jahiliah; makanan yang halal dan yang haram; sepuluh wasiat dalam Al-Qur\u2019an; tauhid, keadilan dan hukum; dan larangan mencaci maki berhala.\n3.\tKisah\nKisah umat-umat terdahulu yang menentang rasul-rasul; kisah pengalaman Nabi Muhammad dan para nabi; dan cerita Nabi Ibrahim membimbing kaumnya kepada agama tauhid.\n4.\tLain-lain\nSikap keras kepala kaum musyrik; cara nabi memimpin umatnya; bidang-bidang kerasulan dan tugas-tugasnya. Tantangan kaum musyrik untuk melemahkan rasul; kepercayaan orang-orang musyrik terhadap jin, setan dan malaikat; beberapa prinsip keagamaan dan kemasyarakatan; dan lain-lain.",
        "outro_surah": null,
        "munasabah_prev_surah": "HUBUNGAN SURAH AL-M\u0100\u2019IDAH \nDENGAN SURAH AL-An\u2018\u0101m\n\nPada akhir Surah al-M\u0101\u2019idah/5, beberapa kali Allah menegaskan bahwa Nabi Isa dan ibunya bukanlah tuhan sebagaimana anggapan banyak orang Nasrani di Najran. Nabi Isa adalah seperti rasul-rasul yang lain yang bertugas mengajak Bani Israil untuk mengesakan Allah dan menaati perintah-perintah-Nya. Maka pada Surah al-An\u2018\u0101m/6, Allah menjelaskan kekuasaan-Nya dalam penciptaan langit, bumi dan semua isinya, termasuk manusia. Allah juga memberi petunjuk kepada manusia untuk memilih jalan yang terang, yaitu cahaya keimanan, serta meninggalkan jalan yang sesat, yaitu jalan kegelapan.\n\nPada akhir Surah al-M\u0101\u2019idah/5 ditegaskan bahwa milik Allahlah kerajaan langit dan bumi dan segala apa yang terdapat di dalamnya, Dia Mahakuasa atas segala sesuatu. Pada ayat awal surah ini, al-An\u2018\u0101m/6, Allah menegaskan pula bahwa segala puji adalah milik-Nya yang menciptakan seluruh jagat raya beserta segala isinya, dan Dia pula yang menjadikan gelap dan terang dalam kehidupan manusia.",
        "munasabah_prev_theme": "Pada ayat-ayat yang lalu diterangkan sikap ingkar orang-orang musyrik terhadap kemahaesaan Allah, kerasulan Muhammad dan hari kebangkitan. Pada ayat-ayat ini dijelaskan tentang nasib mereka pada hari Kiamat dalam mempertanggungjawabkan sikap ingkar dan kemusyrikan mereka, serta azab yang akan mereka terima.",
        "theme_group": "KESAKSIAN KAUM MUSYRIK TERHADAP DIRINYA SENDIRI DAN KEADAAN MEREKA PADA HARI KIAMAT\n",
        "kosakata": "1. Akinnah wa waqr   \u0627\u064e\u0643\u0650\u0646\u0651\u064e\u0629\u064b \u0648\u064e \u0648\u064e\u0642\u0652\u0631\u064b\u0627 (al-An\u2018\u0101m/6: 25)\nAkinnah bentuk jamak dari kinan yaitu wadah yang bisa mengumpulkan sesuatu (al-wi\u2019\u0101\u2019 al-jami\u2019), atau penutup (al-gi\u1e6da\u2019 as-satir). Yang ditutupi bisa berupa benda atau sesuatu yang terlihat dalam diri seseorang. Untuk pertama dipakai ungkapan kanantu (\u1e61ula\u1e61i) yang kedua  dipakai Aknantu (ruba\u2019i) seperti kata kitab maknun artinya kitab yang terpelihara karena berada pada tempat yang tertutup, tidak bisa dijamah oleh siapapun kecuali para malaikat yang suci. Waqr arti kata ini kembali kepada dua hal yaitu berat dan keteguhan atau ketenangan. Rajulun waqur artinya lelaki yang tenang, terhormat dan berwibawa. Al-Wiqr adalah muatan pada punggung keledai dan begal atau juga unta. Arti yang pertama (berat) inilah yang tepat untuk ayat di atas. Jika dikaitkan dengan telinga, maka telinga ini berat ntuk mendengarkan sesuatu.\n2. Farra\u1e6dn\u0101 \u0641\u064e\u0631\u0651\u064e\u0637\u0652\u0646\u064e\u0627 (al-An\u2018\u0101m/6: 31)\nKata yang berasal dari (\u0641- \u0631- \u0637) berarti menghilangkan atau menyingkirkan sesuatu dari tempatnya. Ifra\u1e6d ialah hal melampaui batas. Karena melampaui batas berarti menyingkirkannya dari arah tujuan semula. Tafr\u012b\u1e6d berarti lalai, lengah atau gegabah, yaitu tidak mengerjakan sesuatu  padahal dia bisa melakukannya. Lalai berarti tidak melakukan sesuatu yang semestinya dikerjakan.\n3. Awz\u0101rahum \u0627\u064e\u0648\u0652\u0632\u064e\u0627\u0631\u064e\u0647\u064f\u0645\u0652  (al-An\u2018\u0101m /6:31)\nAkar katanya (\u0648- \u0632- \u0631) mempunyai dua arti yaitu tempat berlindung atau pelarian (malja\u2019) di gunung (lihat: al-Qiyamah/75: 11) dan berat (a\u1e61-\u1e61iqal fisy-syai\u2019). Al-Wizr ialah bawaan seseorang berupa kain yang diisi barang-barang. Dari sini lalu muncul kata  al-wizr yang berarti dosa, karena bebannya yang berat. Jamaknya awz\u0101r. Al-Waz\u012br atau menteri karena tanggung jawabnya yang berat.  \n4. Al-La\u2019b- Al-Lahw   \u0627\u064e\u0644\u0644\u0651\u064e\u0639\u0652\u0628\u064f - \u0627\u064e\u0644\u0644\u0651\u064e\u0647\u0652\u0648\u064f(al-An\u2018\u0101m/6: 32)\nAl-La\u2019b terambil dari kata al-lu\u2019ab yaitu air liur atau ludah yang keluar dari mulut anak kecil. Biasanya  keluar tanpa sengaja. Dari sini kata al-la\u2019b diartikan dengan pekerjaan yang tidak diniatkan untuk tujuan yang benar. atau sesuatu yang melengahkan seseorang dari hal yang bermanfaat baginya. Al-Lahw, hal yang membelokkan seseorang dari kesungguhan ke senda gurau, kelakar, dan main-main.",
        "sabab_nuzul": null,
        "conclusion": null
    }
}