{
    "id": 806,
    "surah_id": 6,
    "ayah": 17,
    "page": 129,
    "quarter_hizb": 13.75,
    "juz": 7,
    "manzil": 2,
    "arabic": "\u0648\u064e\u0627\u0650\u0646\u0652 \u064a\u0651\u064e\u0645\u0652\u0633\u064e\u0633\u0652\u0643\u064e \u0627\u0644\u0644\u0651\u0670\u0647\u064f \u0628\u0650\u0636\u064f\u0631\u0651\u064d \u0641\u064e\u0644\u064e\u0627 \u0643\u064e\u0627\u0634\u0650\u0641\u064e \u0644\u064e\u0647\u0657\u0653 \u0627\u0650\u0644\u0651\u064e\u0627 \u0647\u064f\u0648\u064e \u06d7\u0648\u064e\u0627\u0650\u0646\u0652 \u064a\u0651\u064e\u0645\u0652\u0633\u064e\u0633\u0652\u0643\u064e \u0628\u0650\u062e\u064e\u064a\u0652\u0631\u064d \u0641\u064e\u0647\u064f\u0648\u064e \u0639\u064e\u0644\u0670\u0649 \u0643\u064f\u0644\u0651\u0650 \u0634\u064e\u064a\u0652\u0621\u064d \u0642\u064e\u062f\u0650\u064a\u0652\u0631\u064c",
    "latin": "Iy yamsaskall\u0101hu bi\u1e0durrin fal\u0101 k\u0101syifa lah\u016b ill\u0101 huw(a), wa iy yamsaska bikhairin fa huwa \u2018al\u0101 kulli syai'in qad\u012br(un).",
    "translation": "Jika Allah menimpakan kemudaratan kepadamu, tidak ada yang dapat menghilangkannya selain Dia; dan jika Dia memberikan kebaikan kepadamu, Dia Maha Kuasa atas segala sesuatu.",
    "no_footnote": null,
    "footnotes": null,
    "surah": {
        "id": 6,
        "arabic": " \u0627\u0644\u0627\u0646\u0639\u0627\u0645",
        "latin": "Al-An\u2018\u0101m ",
        "transliteration": "Al-An\u2018am",
        "translation": "Binatang Ternak",
        "num_ayah": 165,
        "page": 128,
        "location": "Makkiyah"
    },
    "tafsir": {
        "wajiz": "Dan jika Allah menimpakan kepadamu, wahai manusia, suatu bencana yang terasa pahit dalam kehidupan kamu seperti gempa bumi, gunung meletus, penyakit, dan berbagai krisis, maka tidak ada yang dapat menghilangkannya selain Dia, karena Allah Maha Berkuasa atas segala sesuatu. Dan jika Dia mendatangkan kebaikan kepadamu, seperti sehat, kaya, dan sukses dalam hidup, maka Dia Mahakuasa atas segala sesuatu untuk mewujudkan, mengurangi, bahkan menghilangkan kebaikan tersebut.",
        "tahlili": "Dalam ayat ini ditegaskan lagi tentang kemahakuasaan Allah, bahwa tidak ada seorang pun yang dapat melenyapkan suatu kemudaratan yang ditimpakan Allah kepada seseorang kecuali Allah sendiri, seperti sakit, kemiskinan, duka cita, kehinaan dan lain sebagainya yang mengakibatkan penderitaan pada manusia baik lahir maupun batin. Bukanlah berhala-berhala, dukun-dukun atau pelindung lainnya selain Allah yang acap kali dipandang oleh orang musyrik, dapat menghilangkan kemudaratan tersebut. Demikian pula halnya tak ada seorang pun yang dapat mencegah suatu kebaikan yang dianugerahkan Allah kepada seseorang seperti kekayaan, kesehatan, kemuliaan, kekuatan dan lain sebagainya yang menimbulkan kebahagiaan baik lahir maupun batin. Allah Mahakuasa memelihara segala kebaikan agar seseorang tetap sebagaimana yang Dia kehendaki.\nSetiap selesai melaksanakan salat lima waktu, Nabi Muhammad selalu membaca doa, antara lain:\n\u0627\u0644\u0644\u0651\u0647\u064f\u0645\u0651\u064e \u0644\u0627\u064e \u0645\u064e\u0627\u0646\u0650\u0639\u064e \u0644\u0650\u0645\u064e\u0627 \u0623\u064e\u0639\u0652\u0637\u064e\u064a\u0652\u062a\u064e \u0648\u064e\u0644\u0627\u064e \u0645\u064f\u0639\u0652\u0637\u0650\u064a\u064e \u0644\u0650\u0645\u064e\u0627 \u0645\u064e\u0646\u064e\u0639\u0652\u062a\u064e \u0648\u064e\u0644\u0627\u064e \u064a\u064e\u0646\u0652\u0641\u064e\u0639\u064f \u0630\u064e\u0627 \u0627\u0644\u0652\u062c\u064e\u062f\u0651\u0650 \u0645\u0650\u0646\u0652\u0643\u064e \u0627\u0644\u0652\u062c\u064e\u062f\u0651\u064f (\u0631\u0648\u0627\u0647 \u0627\u0644\u0628\u062e\u0627\u0631\u064a \u0639\u0646 \u0627\u0644\u0648\u0631\u0627\u062f)\nYa Allah, tak ada yang mencegah terhadap apa yang Engkau berikan, tak ada yang memberi terhadap apa yang Engkau cegah dan tidak bermanfaat kejayaan seseorang atas siksaan-Mu. (Riwayat al-Bukh\u0101r\u012b dari al-Warr\u0101d).\nAyat ini menunjukkan pula bahwa setiap manusia baik yang menginginkan kebaikan atau yang menghindari kemudaratan, haruslah meminta pertolongan kepada Allah semata-mata dengan berusaha menurut Sunnah-Nya yang berlaku dalam alam ini dan dengan memanjatkan doa sepenuhnya kepada-Nya.\nFirman Allah:\n\u0627\u062f\u0652\u0639\u064f\u0648\u0652\u0646\u0650\u064a\u0652\u0653 \u0627\u064e\u0633\u0652\u062a\u064e\u062c\u0650\u0628\u0652 \u0644\u064e\u0643\u064f\u0645\u0652\nBerdoalah kepada-Ku, niscaya akan Aku perkenankan bagimu. (G\u0101fir/40: 60)",
        "intro_surah": "Surah yang ke-6, al-An\u2018\u0101m yang berarti hewan ternak terdiri atas 165 ayat. Surah ini termasuk golongan Surah Makiyah. Dinamai al-An\u2018\u0101m (hewan ternak) karena surah ini banyak menerangkan hukum-hukum yang berhubungan dengan hewan ternak dan juga hubungan hewan tersebut dengan adat istiadat serta kepercayaan orang-orang musyrik. Menurut kepercayaan mereka, hewan tersebut dapat disembelih sebagai kurban untuk mendekatkan diri kepada sembahan mereka. Allah memulai surah ini dengan \u201cAlhamdulill\u0101h\u201d. Surah-surah lain yang juga diawali dengan lafaz \u201cAlhamdulill\u0101h\u201d ialah Surah al-Kahf/18, Surah Saba\u2019/34 dan Surah F\u0101\u1e6dir/35.\nSemua Surah Makiyah berisi seruan kepada keimanan, agama tauhid, dan menegaskan batalnya kepercayaan syirik. Banyak hadis yang meriwayatkan bahwa Surah al-An\u2018\u0101m/6 ini diturunkan sekaligus, disebabkan isinya yang antara lain mengandung dalil-dalil ketauhidan, keadilan, kenabian, hari Kiamat dan bantahan terhadap il\u1e25\u0101d (atheisme).\n\nPOKOK-POKOK ISINYA\n1.\tKeimanan\nBukti-bukti keesaan Allah serta kesempurnaan sifat-sifat-Nya; tentang kenabian Muhammad; penegasan Allah atas kenabian Ibrahim, Ishak, Ya\u2019kub, Nuh, Daud, Sulaiman, Ayyub, Yusuf, Musa, Harun, Zakaria, Yahya, Isa, Ilyas, Alyasa\u2019, Yunus, Lu\u1e6d; penegasan tentang adanya risalah dan wahyu serta hari pembalasan dan hari kebangkitan; sesatnya kepercayaan orang musyrik dan keingkaran mereka terhadap hari Kiamat.\n2.\tBeberapa Hukum\nLarangan mengikuti adat istiadat yang dibuat-buat oleh kaum jahiliah; makanan yang halal dan yang haram; sepuluh wasiat dalam Al-Qur\u2019an; tauhid, keadilan dan hukum; dan larangan mencaci maki berhala.\n3.\tKisah\nKisah umat-umat terdahulu yang menentang rasul-rasul; kisah pengalaman Nabi Muhammad dan para nabi; dan cerita Nabi Ibrahim membimbing kaumnya kepada agama tauhid.\n4.\tLain-lain\nSikap keras kepala kaum musyrik; cara nabi memimpin umatnya; bidang-bidang kerasulan dan tugas-tugasnya. Tantangan kaum musyrik untuk melemahkan rasul; kepercayaan orang-orang musyrik terhadap jin, setan dan malaikat; beberapa prinsip keagamaan dan kemasyarakatan; dan lain-lain.",
        "outro_surah": null,
        "munasabah_prev_surah": "HUBUNGAN SURAH AL-M\u0100\u2019IDAH \nDENGAN SURAH AL-An\u2018\u0101m\n\nPada akhir Surah al-M\u0101\u2019idah/5, beberapa kali Allah menegaskan bahwa Nabi Isa dan ibunya bukanlah tuhan sebagaimana anggapan banyak orang Nasrani di Najran. Nabi Isa adalah seperti rasul-rasul yang lain yang bertugas mengajak Bani Israil untuk mengesakan Allah dan menaati perintah-perintah-Nya. Maka pada Surah al-An\u2018\u0101m/6, Allah menjelaskan kekuasaan-Nya dalam penciptaan langit, bumi dan semua isinya, termasuk manusia. Allah juga memberi petunjuk kepada manusia untuk memilih jalan yang terang, yaitu cahaya keimanan, serta meninggalkan jalan yang sesat, yaitu jalan kegelapan.\n\nPada akhir Surah al-M\u0101\u2019idah/5 ditegaskan bahwa milik Allahlah kerajaan langit dan bumi dan segala apa yang terdapat di dalamnya, Dia Mahakuasa atas segala sesuatu. Pada ayat awal surah ini, al-An\u2018\u0101m/6, Allah menegaskan pula bahwa segala puji adalah milik-Nya yang menciptakan seluruh jagat raya beserta segala isinya, dan Dia pula yang menjadikan gelap dan terang dalam kehidupan manusia.",
        "munasabah_prev_theme": "Pada ayat-ayat yang lalu telah dijelaskan tentang dasar-dasar agama, yakni ketauhidan, kerasulan, serta dalil-dalilnya. Keraguan orang-orang kafir tentang kerasulan itu sendiri dan tentang hukum sejarah yang berlaku pada umat-umat terdahulu dengan rasul-rasul mereka pada masa yang silam. Pada ayat-ayat ini dijelaskan kembali berbagai alasan untuk memperkuat isi kandungan ayat-ayat itu. Dalam ayat-ayat ini digunakan gaya bahasa tanya jawab untuk lebih menjelaskan semua pokok permasalahan. Walaupun sifatnya berupa pengulangan, namun pengulangan itu mengandung faedah, yaitu adanya variasi dalam memberikan alasan-alasan untuk menegakkan suatu kebenaran. Cara demikian penting sekali untuk mengajak manusia beriman kepada Allah.",
        "theme_group": "KEAGUNGAN ALLAH DAN KESAKSIAN-NYA\nATAS KENABIAN MUHAMMAD ",
        "kosakata": "1. F\u0101\u1e6dir  \u0641\u064e\u0627\u0637\u0650\u0631\u0652(al-An\u2018\u0101m/6: 14)\nAsal katanya (\u0641- \u0637- \u0631 ) artinya membuka sesuatu dan melahirkannya. If\u1e6dar adalah makan pada pagi hari (sarapan). Af\u1e6dara a\u1e63-\u1e63\u0101\u2019im artinya orang itu berbuka puasa.  Lalu muncul arti menciptakan. Ungkapan ana fa\u1e6dartu al-bi\u2019r artinya saya yang pertama menggali sumur itu. Fi\u1e6drah adalah sifat asal atau pengetahuan awal yang menancap pada diri manusia. Selanjutnya kata f\u0101\u1e6dir diartikan dengan menciptakan sesuatu yang sama sekali baru yang tidak mencontoh pada yang lainnya. \n2. B\u0101ri\u2019  \u0628\u064e\u0627\u0631\u0650\u0626(al-An\u2018\u0101m/6: 19)\nArti asalnya adalah pertama menciptakan. Kedua, menjauh. Ungkapan \u201cbara\u2019a minal-mara\u1e0di\u201d artinya ia terjauh dari sakit atau dia telah sembuh. Dari arti kedua muncul arti berlepas diri, bebas dan lain sebagainya. Arti inilah yang dimaksud dengan kata b\u0101ri\u2019 pada ayat ini. Dikatakan juga bara\u2019 sebagaimana sering digunakan oleh Ahli Hijaz, Mekah-Medinah (lihat                az-Zukhruf/43: 26)",
        "sabab_nuzul": null,
        "conclusion": null
    }
}