{
    "id": 870,
    "surah_id": 6,
    "ayah": 81,
    "page": 137,
    "quarter_hizb": 14.5,
    "juz": 7,
    "manzil": 2,
    "arabic": "\u0648\u064e\u0643\u064e\u064a\u0652\u0641\u064e \u0627\u064e\u062e\u064e\u0627\u0641\u064f \u0645\u064e\u0627\u0653 \u0627\u064e\u0634\u0652\u0631\u064e\u0643\u0652\u062a\u064f\u0645\u0652 \u0648\u064e\u0644\u064e\u0627 \u062a\u064e\u062e\u064e\u0627\u0641\u064f\u0648\u0652\u0646\u064e \u0627\u064e\u0646\u0651\u064e\u0643\u064f\u0645\u0652 \u0627\u064e\u0634\u0652\u0631\u064e\u0643\u0652\u062a\u064f\u0645\u0652 \u0628\u0650\u0627\u0644\u0644\u0651\u0670\u0647\u0650 \u0645\u064e\u0627 \u0644\u064e\u0645\u0652 \u064a\u064f\u0646\u064e\u0632\u0651\u0650\u0644\u0652 \u0628\u0650\u0647\u0656 \u0639\u064e\u0644\u064e\u064a\u0652\u0643\u064f\u0645\u0652 \u0633\u064f\u0644\u0652\u0637\u0670\u0646\u064b\u0627 \u06d7\u0641\u064e\u0627\u064e\u064a\u0651\u064f \u0627\u0644\u0652\u0641\u064e\u0631\u0650\u064a\u0652\u0642\u064e\u064a\u0652\u0646\u0650 \u0627\u064e\u062d\u064e\u0642\u0651\u064f \u0628\u0650\u0627\u0644\u0652\u0627\u064e\u0645\u0652\u0646\u0650\u06da \u0627\u0650\u0646\u0652 \u0643\u064f\u0646\u0652\u062a\u064f\u0645\u0652 \u062a\u064e\u0639\u0652\u0644\u064e\u0645\u064f\u0648\u0652\u0646\u064e\u06d8 ",
    "latin": "Wa kaifa akh\u0101fu m\u0101 asyraktum wa l\u0101 takh\u0101f\u016bna annakum asyraktum bill\u0101hi m\u0101 lam yunazzil bih\u012b \u2018alaikum sul\u1e6d\u0101n\u0101(n), fa ayyul-far\u012bqaini a\u1e25aqqu bil-amn(i), in kuntum ta\u2018lam\u016bn(a).",
    "translation": "Bagaimana mungkin aku takut kepada yang kamu sekutukan (dengan Allah), padahal kamu tidak takut menyekutukan sesuatu dengan Allah yang Dia (sendiri) tidak pernah menurunkan kepadamu alasan apa pun. Maka, golongan yang manakah dari keduanya yang lebih berhak mendapat keamanan (dari malapetaka) jika kamu mengetahui?\u201d252)",
    "no_footnote": "252",
    "footnotes": "252) Setelah Allah Swt. memperlihatkan tanda-tanda keagungan-Nya kepada Nabi Ibrahim a.s. sehingga imannya kepada Allah Swt. makin teguh (ayat 75), ia menuntun kaumnya menuju tauhid dengan mengikuti logika berpikir mereka.",
    "surah": {
        "id": 6,
        "arabic": " \u0627\u0644\u0627\u0646\u0639\u0627\u0645",
        "latin": "Al-An\u2018\u0101m ",
        "transliteration": "Al-An\u2018am",
        "translation": "Binatang Ternak",
        "num_ayah": 165,
        "page": 128,
        "location": "Makkiyah"
    },
    "tafsir": {
        "wajiz": "Terhadap ketegaran sikap Nabi Ibrahim tersebut kaumnya terus menantang dan mengancamnya. Maka Nabi Ibrahim pun menjawab, \u201cBagaimana aku takut kepada apa yang kamu persekutukan dengan Allah, baik benda-benda angkasa maupun berhala-berhala yang sama sekali tidak memiliki kekuasaan apa pun selain apa yang diizinkan oleh Allah, padahal kamu tidak takut dengan apa yang Allah sendiri tidak menurunkan keterangan kepadamu untuk mempersekutukan-Nya. Kalau demikian, manakah dari kedua golongan itu, yakni kami yang mengesakan Allah atau kalian yang mempersekutukan-Nya, yang lebih berhak mendapat keamanan dari siksa dan malapetaka, jika kamu mengetahui coba jelaskan kepada kami?\u201d",
        "tahlili": "Ibrahim menegaskan bahwa ia tidak takut kepada sesembahan mereka, akan tetapi hanya takut kepada Allah. Sikap Ibrahim yang demikian itu menarik perhatian mereka. Nabi Ibrahim mengatakan bahwa mengapa ia harus takut kepada sembahan-sembahan yang mereka persekutukan dengan Allah dan dijadikan perantara yang dianggap dapat memberikan manfaat dan menolak madarat? Sedang mereka itu tidak takut mempersekutukan Allah dengan sembahan-sembahan ciptaan mereka sendiri.\nSeharusnya yang ditakuti adalah pembangkangan mereka terhadap Allah dan dugaan mereka yang salah, yaitu menganggap patung-patung dan bintang-bintang sebagai Tuhan. Itulah sebabnya Allah mencela sikap mereka. Allah menjelaskan kepada mereka bahwa agama yang dapat diterima ialah agama yang mempunyai alasan-alasan yang kuat dan bukti-bukti yang dapat diterima, apalagi mereka hanya memeluk agama dengan jalan taklid saja kepada nenek moyang mereka. Perbuatan demikian tidak didasarkan pada hidayah dan ilmu. Kemudian mereka dihadapkan pada dua pilihan, yaitu memeluk agama tauhid atau kemusyrikan. Sedangkan mereka sudah mengetahui bahwa Allah mempunyai kekuasaan menciptakan dan memusnahkan, menghidupkan dan mematikan, sedangkan patung-patung itu tidak dapat memberikan manfaat dan madarat sedikit pun. Di akhir ayat ini Allah menyuruh Nabi Ibrahim agar meminta jawaban kepada mereka apabila mereka sanggup menjawabnya.",
        "intro_surah": "Surah yang ke-6, al-An\u2018\u0101m yang berarti hewan ternak terdiri atas 165 ayat. Surah ini termasuk golongan Surah Makiyah. Dinamai al-An\u2018\u0101m (hewan ternak) karena surah ini banyak menerangkan hukum-hukum yang berhubungan dengan hewan ternak dan juga hubungan hewan tersebut dengan adat istiadat serta kepercayaan orang-orang musyrik. Menurut kepercayaan mereka, hewan tersebut dapat disembelih sebagai kurban untuk mendekatkan diri kepada sembahan mereka. Allah memulai surah ini dengan \u201cAlhamdulill\u0101h\u201d. Surah-surah lain yang juga diawali dengan lafaz \u201cAlhamdulill\u0101h\u201d ialah Surah al-Kahf/18, Surah Saba\u2019/34 dan Surah F\u0101\u1e6dir/35.\nSemua Surah Makiyah berisi seruan kepada keimanan, agama tauhid, dan menegaskan batalnya kepercayaan syirik. Banyak hadis yang meriwayatkan bahwa Surah al-An\u2018\u0101m/6 ini diturunkan sekaligus, disebabkan isinya yang antara lain mengandung dalil-dalil ketauhidan, keadilan, kenabian, hari Kiamat dan bantahan terhadap il\u1e25\u0101d (atheisme).\n\nPOKOK-POKOK ISINYA\n1.\tKeimanan\nBukti-bukti keesaan Allah serta kesempurnaan sifat-sifat-Nya; tentang kenabian Muhammad; penegasan Allah atas kenabian Ibrahim, Ishak, Ya\u2019kub, Nuh, Daud, Sulaiman, Ayyub, Yusuf, Musa, Harun, Zakaria, Yahya, Isa, Ilyas, Alyasa\u2019, Yunus, Lu\u1e6d; penegasan tentang adanya risalah dan wahyu serta hari pembalasan dan hari kebangkitan; sesatnya kepercayaan orang musyrik dan keingkaran mereka terhadap hari Kiamat.\n2.\tBeberapa Hukum\nLarangan mengikuti adat istiadat yang dibuat-buat oleh kaum jahiliah; makanan yang halal dan yang haram; sepuluh wasiat dalam Al-Qur\u2019an; tauhid, keadilan dan hukum; dan larangan mencaci maki berhala.\n3.\tKisah\nKisah umat-umat terdahulu yang menentang rasul-rasul; kisah pengalaman Nabi Muhammad dan para nabi; dan cerita Nabi Ibrahim membimbing kaumnya kepada agama tauhid.\n4.\tLain-lain\nSikap keras kepala kaum musyrik; cara nabi memimpin umatnya; bidang-bidang kerasulan dan tugas-tugasnya. Tantangan kaum musyrik untuk melemahkan rasul; kepercayaan orang-orang musyrik terhadap jin, setan dan malaikat; beberapa prinsip keagamaan dan kemasyarakatan; dan lain-lain.",
        "outro_surah": null,
        "munasabah_prev_surah": "HUBUNGAN SURAH AL-M\u0100\u2019IDAH \nDENGAN SURAH AL-An\u2018\u0101m\n\nPada akhir Surah al-M\u0101\u2019idah/5, beberapa kali Allah menegaskan bahwa Nabi Isa dan ibunya bukanlah tuhan sebagaimana anggapan banyak orang Nasrani di Najran. Nabi Isa adalah seperti rasul-rasul yang lain yang bertugas mengajak Bani Israil untuk mengesakan Allah dan menaati perintah-perintah-Nya. Maka pada Surah al-An\u2018\u0101m/6, Allah menjelaskan kekuasaan-Nya dalam penciptaan langit, bumi dan semua isinya, termasuk manusia. Allah juga memberi petunjuk kepada manusia untuk memilih jalan yang terang, yaitu cahaya keimanan, serta meninggalkan jalan yang sesat, yaitu jalan kegelapan.\n\nPada akhir Surah al-M\u0101\u2019idah/5 ditegaskan bahwa milik Allahlah kerajaan langit dan bumi dan segala apa yang terdapat di dalamnya, Dia Mahakuasa atas segala sesuatu. Pada ayat awal surah ini, al-An\u2018\u0101m/6, Allah menegaskan pula bahwa segala puji adalah milik-Nya yang menciptakan seluruh jagat raya beserta segala isinya, dan Dia pula yang menjadikan gelap dan terang dalam kehidupan manusia.",
        "munasabah_prev_theme": "Dalam ayat-ayat yang lalu dikisahkan tentang cara Nabi Ibrahim memberikan bukti-bukti kebenaran agama tauhid kepada kaumnya dengan jalan memperhatikan ciptaan Allah. Dalam ayat-ayat ini sekali lagi dikisahkan bagaimana Nabi Ibrahim mempertahankan kebenaran agama tauhid itu di tengah-tengah kaumnya yang menentang tauhid dan mempertahankan kemusyrikan. ",
        "theme_group": "BUKTI KEBENARAN AGAMA TAUHID\nDAN BATILNYA KEMUSYRIKAN",
        "kosakata": "Kosakata: \u1e24ujjatun\u0101  \u062d\u064f\u062c\u0651\u064e\u062a\u064f\u0646\u064e\u0627(al-An\u2018\u0101m/6: 83)\nPada mulanya kata \u1e25ajj ( \u062d\u062c ) mempunyai arti bermaksud atau menyengaja untuk mendatangi (berziarah). Haji adalah menyengaja datang ke Baitullah untuk melakukan ibadah. \u1e24ujjah adalah petunjuk yang menjelaskan tentang maksud yang benar (al-maq\u1e63ad al-mustaqim) yang bisa  menetapkan kesahihan salah satu dari dua hal yang bertentangan. ",
        "sabab_nuzul": null,
        "conclusion": null
    }
}