{
    "id": 799,
    "surah_id": 6,
    "ayah": 10,
    "page": 129,
    "quarter_hizb": 13.5,
    "juz": 7,
    "manzil": 2,
    "arabic": "\u0648\u064e\u0644\u064e\u0642\u064e\u062f\u0650 \u0627\u0633\u0652\u062a\u064f\u0647\u0652\u0632\u0650\u0626\u064e \u0628\u0650\u0631\u064f\u0633\u064f\u0644\u064d \u0645\u0651\u0650\u0646\u0652 \u0642\u064e\u0628\u0652\u0644\u0650\u0643\u064e \u0641\u064e\u062d\u064e\u0627\u0642\u064e \u0628\u0650\u0627\u0644\u0651\u064e\u0630\u0650\u064a\u0652\u0646\u064e \u0633\u064e\u062e\u0650\u0631\u064f\u0648\u0652\u0627 \u0645\u0650\u0646\u0652\u0647\u064f\u0645\u0652 \u0645\u0651\u064e\u0627 \u0643\u064e\u0627\u0646\u064f\u0648\u0652\u0627 \u0628\u0650\u0647\u0656 \u064a\u064e\u0633\u0652\u062a\u064e\u0647\u0652\u0632\u0650\u0621\u064f\u0648\u0652\u0646\u064e \u08d6",
    "latin": "Wa laqadistuhzi'a birusulim min qablika  fa \u1e25\u0101qa bil-la\u017c\u012bna sakhir\u016b minhum m\u0101 k\u0101n\u016b bih\u012b yastahzi'\u016bn(a).",
    "translation": "Sungguh, rasul-rasul sebelum engkau (Nabi Muhammad) benar-benar telah diperolok-olokkan, maka turunlah kepada orang-orang yang mencemooh mereka (rasul-rasul) apa (azab) yang selalu mereka perolok-olokkan.",
    "no_footnote": null,
    "footnotes": null,
    "surah": {
        "id": 6,
        "arabic": " \u0627\u0644\u0627\u0646\u0639\u0627\u0645",
        "latin": "Al-An\u2018\u0101m ",
        "transliteration": "Al-An\u2018am",
        "translation": "Binatang Ternak",
        "num_ayah": 165,
        "page": 128,
        "location": "Makkiyah"
    },
    "tafsir": {
        "wajiz": "Allah menjelaskan bahwa ajaran para rasul cenderung ditolak dan rasulnya dicemoohkan oleh manusia yang sombong. Dan sungguh, beberapa rasul sebelum engkau, Muhammad, telah diperolok-olokkan, oleh kaumnya yang sombong dan keras kepala, sehingga turunlah azab berupa bencana alam dan kejadian luar biasa kepada orang-orang yang mencemoohkan itu, supaya mereka menyadari kesalahannya dan mengubah sikapnya. Azab itu ditimpakan sebagai balasan atas olok-olokan mereka terhadap para rasul yang mengajak mereka kepada jalan Allah.",
        "tahlili": "Sesudah Allah menerangkan kekacauan pikiran orang-orang kafir tentang kerasulan dimana mereka terus menerus mengingkarinya, maka ayat ini menjelaskan, bahwa sikap perlawanan mereka terhadap kerasulan Muhammad serupa dengan perlawanan orang-orang kafir terhadap rasul-rasul Allah pada zaman dahulu. Permusuhan dan penghinaan yang dialami Nabi Muhammad dialami pula oleh rasul-rasul sebelum beliau. Firman Allah:\n\u064a\u0670\u062d\u064e\u0633\u0652\u0631\u064e\u0629\u064b \u0639\u064e\u0644\u064e\u0649 \u0627\u0644\u0652\u0639\u0650\u0628\u064e\u0627\u062f\u0650\u06da \u0645\u064e\u0627 \u064a\u064e\u0623\u0652\u062a\u0650\u064a\u0652\u0647\u0650\u0645\u0652 \u0645\u0651\u0650\u0646\u0652 \u0631\u0651\u064e\u0633\u064f\u0648\u0652\u0644\u064d \u0627\u0650\u0644\u0651\u064e\u0627 \u0643\u064e\u0627\u0646\u064f\u0648\u0652\u0627 \u0628\u0650\u0647\u0656 \u064a\u064e\u0633\u0652\u062a\u064e\u0647\u0652\u0632\u0650\u0621\u064f\u0648\u0652\u0646\u064e \u0663\u0660\nAlangkah besar penyesalan terhadap hamba-hamba itu, setiap datang seorang rasul kepada mereka, mereka selalu memperolok-olokkannya. (Y\u0101s\u012bn/36: 30).\n Penghinaan orang-orang kafir Quraisy terhadap Nabi Muhammad merupakan kelanjutan dari permusuhan manusia terhadap para rasul sejak zaman dahulu, maka akibat yang mereka hadapi tentulah sama dengan akibat yang dihadapi oleh umat terdahulu. Ayat ini menjelaskan bahwa mereka yang mencemoohkan dan menghinakan para rasul akan ditimpa azab.\nAyat ini menerangkan sunatullah yang berlaku bagi umat manusia di masa dahulu dengan para rasul Allah. Ayat ini juga sebagai penghibur dan pelipur hati Nabi Muhammad, karena penghinaan kaumnya kepadanya, yaitu berita kemenangan terakhir kelak bagi Nabi dan pengikut-pengikut beliau, dan kekalahan musuhnya. Hanya saja kaum Nabi Muhammad tidak akan menerima azab seperti umat-umat yang lalu, yakni kemusnahan dan kebinasaan hidup. Azab yang dijatuhkan kepada mereka tidaklah mengakibatkan kemusnahan dan kehancuran karena Nabi Muhammad adalah \u201cNabiyyurra\u1e25mah\u201d, nabi yang membawa rahmat kepada umat manusia.",
        "intro_surah": "Surah yang ke-6, al-An\u2018\u0101m yang berarti hewan ternak terdiri atas 165 ayat. Surah ini termasuk golongan Surah Makiyah. Dinamai al-An\u2018\u0101m (hewan ternak) karena surah ini banyak menerangkan hukum-hukum yang berhubungan dengan hewan ternak dan juga hubungan hewan tersebut dengan adat istiadat serta kepercayaan orang-orang musyrik. Menurut kepercayaan mereka, hewan tersebut dapat disembelih sebagai kurban untuk mendekatkan diri kepada sembahan mereka. Allah memulai surah ini dengan \u201cAlhamdulill\u0101h\u201d. Surah-surah lain yang juga diawali dengan lafaz \u201cAlhamdulill\u0101h\u201d ialah Surah al-Kahf/18, Surah Saba\u2019/34 dan Surah F\u0101\u1e6dir/35.\nSemua Surah Makiyah berisi seruan kepada keimanan, agama tauhid, dan menegaskan batalnya kepercayaan syirik. Banyak hadis yang meriwayatkan bahwa Surah al-An\u2018\u0101m/6 ini diturunkan sekaligus, disebabkan isinya yang antara lain mengandung dalil-dalil ketauhidan, keadilan, kenabian, hari Kiamat dan bantahan terhadap il\u1e25\u0101d (atheisme).\n\nPOKOK-POKOK ISINYA\n1.\tKeimanan\nBukti-bukti keesaan Allah serta kesempurnaan sifat-sifat-Nya; tentang kenabian Muhammad; penegasan Allah atas kenabian Ibrahim, Ishak, Ya\u2019kub, Nuh, Daud, Sulaiman, Ayyub, Yusuf, Musa, Harun, Zakaria, Yahya, Isa, Ilyas, Alyasa\u2019, Yunus, Lu\u1e6d; penegasan tentang adanya risalah dan wahyu serta hari pembalasan dan hari kebangkitan; sesatnya kepercayaan orang musyrik dan keingkaran mereka terhadap hari Kiamat.\n2.\tBeberapa Hukum\nLarangan mengikuti adat istiadat yang dibuat-buat oleh kaum jahiliah; makanan yang halal dan yang haram; sepuluh wasiat dalam Al-Qur\u2019an; tauhid, keadilan dan hukum; dan larangan mencaci maki berhala.\n3.\tKisah\nKisah umat-umat terdahulu yang menentang rasul-rasul; kisah pengalaman Nabi Muhammad dan para nabi; dan cerita Nabi Ibrahim membimbing kaumnya kepada agama tauhid.\n4.\tLain-lain\nSikap keras kepala kaum musyrik; cara nabi memimpin umatnya; bidang-bidang kerasulan dan tugas-tugasnya. Tantangan kaum musyrik untuk melemahkan rasul; kepercayaan orang-orang musyrik terhadap jin, setan dan malaikat; beberapa prinsip keagamaan dan kemasyarakatan; dan lain-lain.",
        "outro_surah": null,
        "munasabah_prev_surah": "HUBUNGAN SURAH AL-M\u0100\u2019IDAH \nDENGAN SURAH AL-An\u2018\u0101m\n\nPada akhir Surah al-M\u0101\u2019idah/5, beberapa kali Allah menegaskan bahwa Nabi Isa dan ibunya bukanlah tuhan sebagaimana anggapan banyak orang Nasrani di Najran. Nabi Isa adalah seperti rasul-rasul yang lain yang bertugas mengajak Bani Israil untuk mengesakan Allah dan menaati perintah-perintah-Nya. Maka pada Surah al-An\u2018\u0101m/6, Allah menjelaskan kekuasaan-Nya dalam penciptaan langit, bumi dan semua isinya, termasuk manusia. Allah juga memberi petunjuk kepada manusia untuk memilih jalan yang terang, yaitu cahaya keimanan, serta meninggalkan jalan yang sesat, yaitu jalan kegelapan.\n\nPada akhir Surah al-M\u0101\u2019idah/5 ditegaskan bahwa milik Allahlah kerajaan langit dan bumi dan segala apa yang terdapat di dalamnya, Dia Mahakuasa atas segala sesuatu. Pada ayat awal surah ini, al-An\u2018\u0101m/6, Allah menegaskan pula bahwa segala puji adalah milik-Nya yang menciptakan seluruh jagat raya beserta segala isinya, dan Dia pula yang menjadikan gelap dan terang dalam kehidupan manusia.",
        "munasabah_prev_theme": "Pada tiga ayat yang lalu, Allah menunjukkan tanda keesaan-Nya dalam memelihara alam semesta, kekuasaan-Nya membangkitkan orang mati pada hari Kiamat dan keluasan ilmu-Nya. Tetapi orang musyrik masih tetap dalam kekufurannya. Pada ayat-ayat ini, Allah memberikan penjelasan tentang sebab-sebab mereka tidak mendapat petunjuk, bahkan mendapatkan berbagai ancaman karena mereka mendustakan kebenaran. Kemudian mengungkapkan tentang keraguan mereka terhadap wahyu dan kerasulan Nabi Muhammad.",
        "theme_group": "SEBAB-SEBAB KEINGKARAN KAUM MUSYRIK\nDAN ANCAMAN TERHADAP MEREKA",
        "kosakata": "1. Qarn   \u0642\u064e\u0631\u0652\u0646 (al-An\u2018\u0101m/6: 6)\nQarn secara etimologi berarti  berkumpulnya dua macam/hal atau lebih  dalam hal tertentu. Dari sini lalu muncul arti generasi, atau sekumpulan dari manusia (ummah minan-n\u0101s), karena mereka hidup bersamaan dalam satu masa. Tentang jangka waktunya, ada yang mengatakan 40 tahun, 60 tahun, 80 tahun, 100 tahun, 120 tahun. Yang masyhur adalah 100 tahun. \n2. Makkann\u0101hum  \u0645\u064e\u0643\u0651\u064e\u0646\u0651\u064e\u0627\u0647\u064f\u0645\u0652(al-An\u2018\u0101m/6: 6)\n Akar katanya (\u0645- \u0643- \u0646) yang berarti tempat untuk mewadahi sesuatu. Dari pengertian ini lalu muncul arti tetap, kokoh, teguh, kuat dan lain sebagainya. Kata makkann\u0101 bisa diartikan Kami memberikan tempat, peran, pengaruh, kedudukan kepada mereka.\n3. Midr\u0101r \u0645\u0650\u062f\u0652\u0631\u064e\u0627\u0631 (al-An\u2018\u0101m/6: 6)\nAsalnya dari Ad-Darr yaitu air susu yang melimpah. Jika dikaitkan dengan hujan berarti hujan yang lebat, atau terus menerus. ",
        "sabab_nuzul": null,
        "conclusion": null
    }
}