{
    "id": 835,
    "surah_id": 6,
    "ayah": 46,
    "page": 133,
    "quarter_hizb": 14,
    "juz": 7,
    "manzil": 2,
    "arabic": "\u0642\u064f\u0644\u0652 \u0627\u064e\u0631\u064e\u0627\u064e\u064a\u0652\u062a\u064f\u0645\u0652 \u0627\u0650\u0646\u0652 \u0627\u064e\u062e\u064e\u0630\u064e \u0627\u0644\u0644\u0651\u0670\u0647\u064f \u0633\u064e\u0645\u0652\u0639\u064e\u0643\u064f\u0645\u0652 \u0648\u064e\u0627\u064e\u0628\u0652\u0635\u064e\u0627\u0631\u064e\u0643\u064f\u0645\u0652 \u0648\u064e\u062e\u064e\u062a\u064e\u0645\u064e \u0639\u064e\u0644\u0670\u0649 \u0642\u064f\u0644\u064f\u0648\u0652\u0628\u0650\u0643\u064f\u0645\u0652 \u0645\u0651\u064e\u0646\u0652 \u0627\u0650\u0644\u0670\u0647\u064c \u063a\u064e\u064a\u0652\u0631\u064f \u0627\u0644\u0644\u0651\u0670\u0647\u0650 \u064a\u064e\u0623\u0652\u062a\u0650\u064a\u0652\u0643\u064f\u0645\u0652 \u0628\u0650\u0647\u0656\u06d7 \u0627\u064f\u0646\u0652\u0638\u064f\u0631\u0652 \u0643\u064e\u064a\u0652\u0641\u064e \u0646\u064f\u0635\u064e\u0631\u0651\u0650\u0641\u064f \u0627\u0644\u0652\u0627\u0670\u064a\u0670\u062a\u0650 \u062b\u064f\u0645\u0651\u064e \u0647\u064f\u0645\u0652 \u064a\u064e\u0635\u0652\u062f\u0650\u0641\u064f\u0648\u0652\u0646\u064e ",
    "latin": "Qul ara'aitum in akha\u017call\u0101hu sam\u2018akum wa ab\u1e63\u0101rakum wa khatama \u2018al\u0101 qul\u016bbikum man il\u0101hun gairull\u0101hi ya't\u012bkum bih(\u012b), un\u1e93ur kaifa nu\u1e63arriful-\u0101y\u0101ti \u1e61umma hum ya\u1e63dif\u016bn(a).",
    "translation": "Katakanlah (Nabi Muhammad), \u201cTerangkanlah kepadaku jika Allah mencabut pendengaran dan penglihatan serta menutup hatimu, siapakah tuhan selain Allah yang kuasa mengembalikannya kepadamu?\u201d Perhatikanlah, bagaimana Kami menjelaskan berulang-ulang (kepada mereka) tanda-tanda kekuasaan (Kami), tetapi mereka tetap berpaling.",
    "no_footnote": null,
    "footnotes": null,
    "surah": {
        "id": 6,
        "arabic": " \u0627\u0644\u0627\u0646\u0639\u0627\u0645",
        "latin": "Al-An\u2018\u0101m ",
        "transliteration": "Al-An\u2018am",
        "translation": "Binatang Ternak",
        "num_ayah": 165,
        "page": 128,
        "location": "Makkiyah"
    },
    "tafsir": {
        "wajiz": "Kalau masih ada juga yang enggan untuk mengikuti petunjuk Allah, sedangkan berbagai macam bentuk peringatan sudah disampaikan, maka katakanlah, wahai Nabi Muhammad, \u201cTerangkanlah atau beritahukanlah kepadaku jika Allah Yang Mahakuasa itu mencabut pendengaran dan penglihatan serta menutup hatimu, sehingga semuanya tidak berfungsi sebagaimana mestinya, maka siapakah tuhan selain Allah yang kuasa mengembalikannya kepadamu?\u201d Tidak akan ada yang sanggup sama sekali. Maka perhatikanlah, bagaimana Kami, melalui berbagai sarana dan cara, telah menjelaskan berulang-ulang kepada mereka ayat-ayat, yakni tanda-tanda kekuasaan Kami, yang amat jelas dan sempurna, tetapi mereka tetap dan selalu berpaling.",
        "tahlili": "Allah memerintahkan kepada Nabi Muhammad agar menyampaikan kepada orang-orang kafir, bahwa Allah-lah yang memberi manusia pendengaran, penglihatan serta memberi hati dan perasaan. Bagaimanakah seandainya Allah mengambil semua yang telah diberikan-Nya itu dari mereka. Dapatkah mereka meminta kepada tuhan-tuhan mereka atau sembahan-sembahan yang mereka sembah selain Allah untuk mengembalikannya? Oleh karena Allah yang memberi penglihatan dan pendengaran, maka semuanya hendaknya digunakan untuk memperdalam keimanan.\nDengan ayat ini Allah membuktikan bahwa berhala-berhala, sembahan-sembahan dan tuhan-tuhan selain Allah yang disembah orang-orang musyrik tidak mempunyai kekuasaan dan kesanggupan sedikit pun untuk memenuhi atau menolak permintaan orang-orang yang menyembahnya. Patung-patung dan berhala-berhala itu adalah benda-benda mati yang dibuat manusia untuk dijadikan sembahan. Yang dapat memperkenankan seruan, menolong dan melindungi mereka hanyalah Allah Yang Mahakuasa; tidak ada yang lain. mengapa mereka masih memuja dan meminta pertolongan kepada berhala-berhala itu?\nDemikianlah Allah mengemukakan segala macam bukti dan keterangan kepada orang-orang musyrik, dengan menjadikan sembahan-sembahan dan berhala-berhala yang mereka sembah sebagai dalil dan keterangan bagi kesesatan mereka, tetapi mereka tetap ingkar dan tidak beriman.",
        "intro_surah": "Surah yang ke-6, al-An\u2018\u0101m yang berarti hewan ternak terdiri atas 165 ayat. Surah ini termasuk golongan Surah Makiyah. Dinamai al-An\u2018\u0101m (hewan ternak) karena surah ini banyak menerangkan hukum-hukum yang berhubungan dengan hewan ternak dan juga hubungan hewan tersebut dengan adat istiadat serta kepercayaan orang-orang musyrik. Menurut kepercayaan mereka, hewan tersebut dapat disembelih sebagai kurban untuk mendekatkan diri kepada sembahan mereka. Allah memulai surah ini dengan \u201cAlhamdulill\u0101h\u201d. Surah-surah lain yang juga diawali dengan lafaz \u201cAlhamdulill\u0101h\u201d ialah Surah al-Kahf/18, Surah Saba\u2019/34 dan Surah F\u0101\u1e6dir/35.\nSemua Surah Makiyah berisi seruan kepada keimanan, agama tauhid, dan menegaskan batalnya kepercayaan syirik. Banyak hadis yang meriwayatkan bahwa Surah al-An\u2018\u0101m/6 ini diturunkan sekaligus, disebabkan isinya yang antara lain mengandung dalil-dalil ketauhidan, keadilan, kenabian, hari Kiamat dan bantahan terhadap il\u1e25\u0101d (atheisme).\n\nPOKOK-POKOK ISINYA\n1.\tKeimanan\nBukti-bukti keesaan Allah serta kesempurnaan sifat-sifat-Nya; tentang kenabian Muhammad; penegasan Allah atas kenabian Ibrahim, Ishak, Ya\u2019kub, Nuh, Daud, Sulaiman, Ayyub, Yusuf, Musa, Harun, Zakaria, Yahya, Isa, Ilyas, Alyasa\u2019, Yunus, Lu\u1e6d; penegasan tentang adanya risalah dan wahyu serta hari pembalasan dan hari kebangkitan; sesatnya kepercayaan orang musyrik dan keingkaran mereka terhadap hari Kiamat.\n2.\tBeberapa Hukum\nLarangan mengikuti adat istiadat yang dibuat-buat oleh kaum jahiliah; makanan yang halal dan yang haram; sepuluh wasiat dalam Al-Qur\u2019an; tauhid, keadilan dan hukum; dan larangan mencaci maki berhala.\n3.\tKisah\nKisah umat-umat terdahulu yang menentang rasul-rasul; kisah pengalaman Nabi Muhammad dan para nabi; dan cerita Nabi Ibrahim membimbing kaumnya kepada agama tauhid.\n4.\tLain-lain\nSikap keras kepala kaum musyrik; cara nabi memimpin umatnya; bidang-bidang kerasulan dan tugas-tugasnya. Tantangan kaum musyrik untuk melemahkan rasul; kepercayaan orang-orang musyrik terhadap jin, setan dan malaikat; beberapa prinsip keagamaan dan kemasyarakatan; dan lain-lain.",
        "outro_surah": null,
        "munasabah_prev_surah": "HUBUNGAN SURAH AL-M\u0100\u2019IDAH \nDENGAN SURAH AL-An\u2018\u0101m\n\nPada akhir Surah al-M\u0101\u2019idah/5, beberapa kali Allah menegaskan bahwa Nabi Isa dan ibunya bukanlah tuhan sebagaimana anggapan banyak orang Nasrani di Najran. Nabi Isa adalah seperti rasul-rasul yang lain yang bertugas mengajak Bani Israil untuk mengesakan Allah dan menaati perintah-perintah-Nya. Maka pada Surah al-An\u2018\u0101m/6, Allah menjelaskan kekuasaan-Nya dalam penciptaan langit, bumi dan semua isinya, termasuk manusia. Allah juga memberi petunjuk kepada manusia untuk memilih jalan yang terang, yaitu cahaya keimanan, serta meninggalkan jalan yang sesat, yaitu jalan kegelapan.\n\nPada akhir Surah al-M\u0101\u2019idah/5 ditegaskan bahwa milik Allahlah kerajaan langit dan bumi dan segala apa yang terdapat di dalamnya, Dia Mahakuasa atas segala sesuatu. Pada ayat awal surah ini, al-An\u2018\u0101m/6, Allah menegaskan pula bahwa segala puji adalah milik-Nya yang menciptakan seluruh jagat raya beserta segala isinya, dan Dia pula yang menjadikan gelap dan terang dalam kehidupan manusia.",
        "munasabah_prev_theme": "Ayat sebelumnya menjelaskan, bahwa orang-orang kafir yang melupakan peringatan Allah dan mengingkarinya akan dibukakan segala pintu kesenangan dan mereka boleh bergembira dengan kesenangan itu sebagai cobaan, tapi Allah akan menyiksa mereka dengan tiba-tiba sehingga mereka berputus asa dan berdiam seribu bahasa. Allah justru akan memusnahkan orang-orang yang zalim. Pada ayat-ayat ini dijelaskan bahwa Allah-lah Penguasa dan Penentu terhadap makhluk-Nya dan mengutus para Rasul-Nya untuk menyampaikan kabar gembira dan memberi peringatan sehingga bagi orang-orang yang beriman tidak perlu merasa khawatir dan bersedih hati.",
        "theme_group": "ALLAH MENGUASAI DAN MENENTUKAN\nKEADAAN MAKHLUKNYA",
        "kosakata": "Kosakata: Ya\u1e63dif\u016bn   \u064a\u064e\u0635\u0652\u062f\u0650\u0641\u064f\u0648\u0652\u0646\u064e(al-An\u2018\u0101m/6: 46)\nTerambil dari akar kata (\u0635- \u062f- \u0641) artinya miring, condong. \u1e62adaf al-jabal artinya sisi gunung. Bagian dari sisi gunung biasanya miring. Dari arti ini lalu muncul arti berpaling.",
        "sabab_nuzul": null,
        "conclusion": null
    }
}