{
    "id": 853,
    "surah_id": 6,
    "ayah": 64,
    "page": 135,
    "quarter_hizb": 14.25,
    "juz": 7,
    "manzil": 2,
    "arabic": "\u0642\u064f\u0644\u0650 \u0627\u0644\u0644\u0651\u0670\u0647\u064f \u064a\u064f\u0646\u064e\u062c\u0651\u0650\u064a\u0652\u0643\u064f\u0645\u0652 \u0645\u0651\u0650\u0646\u0652\u0647\u064e\u0627 \u0648\u064e\u0645\u0650\u0646\u0652 \u0643\u064f\u0644\u0651\u0650 \u0643\u064e\u0631\u0652\u0628\u064d \u062b\u064f\u0645\u0651\u064e \u0627\u064e\u0646\u0652\u062a\u064f\u0645\u0652 \u062a\u064f\u0634\u0652\u0631\u0650\u0643\u064f\u0648\u0652\u0646\u064e ",
    "latin": "Qulill\u0101hu yunajj\u012bkum minh\u0101 wa min kulli karbin \u1e61umma antum tusyrik\u016bn(a).",
    "translation": "Katakanlah (Nabi Muhammad), \u201cAllah yang menyelamatkanmu darinya (bencana itu) dan dari segala macam kesusahan. Kemudian, kamu (kembali) mempersekutukan-Nya.\u201d",
    "no_footnote": null,
    "footnotes": null,
    "surah": {
        "id": 6,
        "arabic": " \u0627\u0644\u0627\u0646\u0639\u0627\u0645",
        "latin": "Al-An\u2018\u0101m ",
        "transliteration": "Al-An\u2018am",
        "translation": "Binatang Ternak",
        "num_ayah": 165,
        "page": 128,
        "location": "Makkiyah"
    },
    "tafsir": {
        "wajiz": "Allah Maha Mengetahui realitas hidup manusia, termasuk yang diselamatkan dari keadaan yang mengancam jiwanya, di mana pada akhirnya janji-janji itu dilupakan. Katakanlah, wahai Nabi Muhammad, \u201cAllah yang menyelamatkan kamu dari bencana itu dan dari segala macam kesusahan, namun kemudian kamu kembali mempersekutukan-Nya.\u201d Sungguh buruk perilaku manusia itu. Mereka sendiri yang berjanji untuk taat kepada Allah, dan mereka sendiri pula yang mengingkarinya.",
        "tahlili": "Allah menegaskan bahwa hanya Allah-lah yang menyelamatkan dan melepaskan manusia dari segala macam kesusahan dan penderitaan, bukan sembahan-sembahan atau berhala-berhala yang mereka sembah itu, karena sembahan-sembahan dan berhala-berhala itu tidak mampu sedikit pun menjauhkan kesusahan dan penderitaan dari mereka. Tetapi orang kafir itu setelah selamat dan terlepas dari bahaya mereka kembali mempersekutukan Allah.",
        "intro_surah": "Surah yang ke-6, al-An\u2018\u0101m yang berarti hewan ternak terdiri atas 165 ayat. Surah ini termasuk golongan Surah Makiyah. Dinamai al-An\u2018\u0101m (hewan ternak) karena surah ini banyak menerangkan hukum-hukum yang berhubungan dengan hewan ternak dan juga hubungan hewan tersebut dengan adat istiadat serta kepercayaan orang-orang musyrik. Menurut kepercayaan mereka, hewan tersebut dapat disembelih sebagai kurban untuk mendekatkan diri kepada sembahan mereka. Allah memulai surah ini dengan \u201cAlhamdulill\u0101h\u201d. Surah-surah lain yang juga diawali dengan lafaz \u201cAlhamdulill\u0101h\u201d ialah Surah al-Kahf/18, Surah Saba\u2019/34 dan Surah F\u0101\u1e6dir/35.\nSemua Surah Makiyah berisi seruan kepada keimanan, agama tauhid, dan menegaskan batalnya kepercayaan syirik. Banyak hadis yang meriwayatkan bahwa Surah al-An\u2018\u0101m/6 ini diturunkan sekaligus, disebabkan isinya yang antara lain mengandung dalil-dalil ketauhidan, keadilan, kenabian, hari Kiamat dan bantahan terhadap il\u1e25\u0101d (atheisme).\n\nPOKOK-POKOK ISINYA\n1.\tKeimanan\nBukti-bukti keesaan Allah serta kesempurnaan sifat-sifat-Nya; tentang kenabian Muhammad; penegasan Allah atas kenabian Ibrahim, Ishak, Ya\u2019kub, Nuh, Daud, Sulaiman, Ayyub, Yusuf, Musa, Harun, Zakaria, Yahya, Isa, Ilyas, Alyasa\u2019, Yunus, Lu\u1e6d; penegasan tentang adanya risalah dan wahyu serta hari pembalasan dan hari kebangkitan; sesatnya kepercayaan orang musyrik dan keingkaran mereka terhadap hari Kiamat.\n2.\tBeberapa Hukum\nLarangan mengikuti adat istiadat yang dibuat-buat oleh kaum jahiliah; makanan yang halal dan yang haram; sepuluh wasiat dalam Al-Qur\u2019an; tauhid, keadilan dan hukum; dan larangan mencaci maki berhala.\n3.\tKisah\nKisah umat-umat terdahulu yang menentang rasul-rasul; kisah pengalaman Nabi Muhammad dan para nabi; dan cerita Nabi Ibrahim membimbing kaumnya kepada agama tauhid.\n4.\tLain-lain\nSikap keras kepala kaum musyrik; cara nabi memimpin umatnya; bidang-bidang kerasulan dan tugas-tugasnya. Tantangan kaum musyrik untuk melemahkan rasul; kepercayaan orang-orang musyrik terhadap jin, setan dan malaikat; beberapa prinsip keagamaan dan kemasyarakatan; dan lain-lain.",
        "outro_surah": null,
        "munasabah_prev_surah": "HUBUNGAN SURAH AL-M\u0100\u2019IDAH \nDENGAN SURAH AL-An\u2018\u0101m\n\nPada akhir Surah al-M\u0101\u2019idah/5, beberapa kali Allah menegaskan bahwa Nabi Isa dan ibunya bukanlah tuhan sebagaimana anggapan banyak orang Nasrani di Najran. Nabi Isa adalah seperti rasul-rasul yang lain yang bertugas mengajak Bani Israil untuk mengesakan Allah dan menaati perintah-perintah-Nya. Maka pada Surah al-An\u2018\u0101m/6, Allah menjelaskan kekuasaan-Nya dalam penciptaan langit, bumi dan semua isinya, termasuk manusia. Allah juga memberi petunjuk kepada manusia untuk memilih jalan yang terang, yaitu cahaya keimanan, serta meninggalkan jalan yang sesat, yaitu jalan kegelapan.\n\nPada akhir Surah al-M\u0101\u2019idah/5 ditegaskan bahwa milik Allahlah kerajaan langit dan bumi dan segala apa yang terdapat di dalamnya, Dia Mahakuasa atas segala sesuatu. Pada ayat awal surah ini, al-An\u2018\u0101m/6, Allah menegaskan pula bahwa segala puji adalah milik-Nya yang menciptakan seluruh jagat raya beserta segala isinya, dan Dia pula yang menjadikan gelap dan terang dalam kehidupan manusia.",
        "munasabah_prev_theme": "Pada ayat-ayat yang lalu Allah menerangkan bahwa ilmu-Nya meliputi segala sesuatu. Tanda kekuasaan dan kebesaran-Nya dapat dilihat pada diri sendiri dan pada alam  semesta. Dialah yang menghidupkan dan mematikan semua yang bernyawa, dan Dialah yang menghidupkannya kembali serta mengumpulkannya kepada-Nya, kasih sayang-Nya kepada hamba-hamba-Nya dengan melimpahkan rahmat dan karunia yang tidak terhingga kepada mereka. Pada ayat-ayat ini Dia juga berkuasa untuk mengazab orang-orang yang mengingkari-Nya, dengan azab yang keras, yang belum pernah terbayang dalam pikiran mereka tentang kedahsyatan azab itu.",
        "theme_group": "BUKTI-BUKTI KEBESARAN DAN KASIH SAYANG \nALLAH KEPADA HAMBA-NYA\nBUKTI-BUKTI KEBESARAN DAN KASIH SAYANG \nALLAH KEPADA HAMBA-NYA\n",
        "kosakata": "1. Yunajj\u012bkum  \u064a\u064f\u0646\u064e\u062c\u0651\u0650\u064a\u0652\u0643\u064f\u0645\u0652 (al-An\u2018\u0101m/6: 63)\nBentuk mu\u1e0dari\u2019 dari najj\u0101. Kata ini terambilkan dari kata \u201can-najwah\u201d artinya tempat yang tinggi. Jika dikatakan \u201cyunajj\u012b\u201d berarti melemparkan sesuatu ketempat yang tinggi, sehingga terhindar dari banjir dan lainnya. Lalu digunakan untuk perihal penyelamatan dari segala mara bahaya.\n2. Yalbisakum Syiya\u2019an \u064a\u064e\u0644\u0652\u0628\u0650\u0633\u064e\u0643\u064f\u0645\u0652 \u0634\u0650\u064a\u064e\u0639\u064b\u0627 (al-An\u2018\u0101m/6: 65)\nYalbisakum bentuk mu\u1e0dari\u2019 dari labasa yang artinya mencampurkan, membuat sesuatu menjadi tidak jelas. Jika mu\u1e0dari\u2019nya yalbasu seperti pada kata talbas\u016bnah\u0101 (an-Na\u1e25l/16: 14) maka ma\u1e0dinya labisa yang artinya memakai dan menutupi. Akar kata dari keduanya  adalah (\u0644- \u0628- \u0633) yang berarti percampuran atau saling merasuki (mukhala\u1e6dah wa mudakhalah). Pakaian dikatakan libas karena benda itu melekat dan bercampur dengan pemakaianya. Malam juga disebut lib\u0101s (al-Furq\u0101n/25: 47) karena kegelapan malam telah meliputi seseorang seperti juga pakaian. Suami atau isteri juga dikatakan lib\u0101s (al-Baqarah/2: 187) karena keduanya sudah bercampur atau saling menutupi kejelekan masing-masing. Ketakwaan juga disebut lib\u0101s  (al-A\u2018r\u0101f/7: 26) karena ketakwaan sangat mempengaruhi pribadinya dari seluruh sisi. Ketakutan dan kelaparan juga disebut lib\u0101s (an-Na\u1e25l/16: 112) karena keduanya telah meliputi kehidupan orang-orang yang ingkar terhadap Allah.    \nSedangkan kata syiya\u2019an adalah jamak dari syi\u2019ah yang artinya sekumpulan orang yang mempunyai tujuan yang sama. Kata dasarnya adalah (\u0634- \u064a- \u0639) yang mempunyai dua arti. Pertama, saling memperkuat (mu\u2019a\u1e0dadah). Kedua, menyebar (al-ba\u1e61\u1e61).\nDari penjelasan di atas maka ungkapan yalbisakum syiya\u2019an berarti \u201cmencampurkan kamu atau memecah belah kamu dalam golongan (yang saling bertentangan).\u201d Bisa juga diartikan \u201cDia (Allah) menggelapkan urusanmu, akhirnya kemauanmu saling bertentangan, sedangkan kamu terpecah dalam kelompok-kelompok, maka semakin menjadikan kamu bercerai berai.\u201d",
        "sabab_nuzul": null,
        "conclusion": null
    }
}