{
    "id": 891,
    "surah_id": 6,
    "ayah": 102,
    "page": 141,
    "quarter_hizb": 14.75,
    "juz": 7,
    "manzil": 2,
    "arabic": "\u0630\u0670\u0644\u0650\u0643\u064f\u0645\u064f \u0627\u0644\u0644\u0651\u0670\u0647\u064f \u0631\u064e\u0628\u0651\u064f\u0643\u064f\u0645\u0652\u06da  \u0644\u064e\u0627\u0653 \u0627\u0650\u0644\u0670\u0647\u064e \u0627\u0650\u0644\u0651\u064e\u0627 \u0647\u064f\u0648\u064e\u06da \u062e\u064e\u0627\u0644\u0650\u0642\u064f \u0643\u064f\u0644\u0651\u0650 \u0634\u064e\u064a\u0652\u0621\u064d \u0641\u064e\u0627\u0639\u0652\u0628\u064f\u062f\u064f\u0648\u0652\u0647\u064f \u06da\u0648\u064e\u0647\u064f\u0648\u064e \u0639\u064e\u0644\u0670\u0649 \u0643\u064f\u0644\u0651\u0650 \u0634\u064e\u064a\u0652\u0621\u064d \u0648\u0651\u064e\u0643\u0650\u064a\u0652\u0644\u064c  ",
    "latin": "\u017b\u0101likumull\u0101hu rabbukum, l\u0101 il\u0101ha ill\u0101 huw(a), kh\u0101liqu kulli syai'in fa\u2018bud\u016bh(u), wa huwa \u2018al\u0101 kulli syai'iw wak\u012bl(un).",
    "translation": "Itulah Allah Tuhanmu. Tidak ada tuhan selain Dia, pencipta segala sesuatu. Maka, sembahlah Dia. Dialah pemelihara segala sesuatu.",
    "no_footnote": null,
    "footnotes": null,
    "surah": {
        "id": 6,
        "arabic": " \u0627\u0644\u0627\u0646\u0639\u0627\u0645",
        "latin": "Al-An\u2018\u0101m ",
        "transliteration": "Al-An\u2018am",
        "translation": "Binatang Ternak",
        "num_ayah": 165,
        "page": 128,
        "location": "Makkiyah"
    },
    "tafsir": {
        "wajiz": "Setelah terbukti bahwa keyakinan mereka itu salah dan sesat, ayat ini sampai kepada kesimpulan bahwa yang memiliki sifat-sifat yang demikian mulia itulah Allah Yang Maha Esa, Tuhan pemelihara kamu; tidak ada tuhan yang berhak disembah selain Dia; pencipta segala sesuatu, karena itu maka sembahlah Dia; Dialah pemelihara segala sesuatu.",
        "tahlili": "Allah menerangkan kepada orang-orang musyrik, bahwa Allah memiliki sifat-sifat seperti disebutkan dalam ayat yang lalu. Itulah sebenarnya Tuhan yang wajib mereka sembah. Yang menciptakan segala sesuatu, tidak ada tuhan yang lain kecuali Dia, bukan tuhan-tuhan yang mereka ciptakan seperti berhala-berhala, atau malaikat-malaikat yang dianggap sebagai anak Tuhan; karena semuanya itu adalah makhluk ciptaan Allah yang tidak pantas diperserikatkan kepada Dia.\nDi akhir ayat ini Allah menegaskan bahwa Dialah pemelihara segala sesuatu yaitu menguasai segala urusan, mengurusi jagat raya dan isinya dengan ilmu, hikmat dan kekuasaan-Nya.",
        "intro_surah": "Surah yang ke-6, al-An\u2018\u0101m yang berarti hewan ternak terdiri atas 165 ayat. Surah ini termasuk golongan Surah Makiyah. Dinamai al-An\u2018\u0101m (hewan ternak) karena surah ini banyak menerangkan hukum-hukum yang berhubungan dengan hewan ternak dan juga hubungan hewan tersebut dengan adat istiadat serta kepercayaan orang-orang musyrik. Menurut kepercayaan mereka, hewan tersebut dapat disembelih sebagai kurban untuk mendekatkan diri kepada sembahan mereka. Allah memulai surah ini dengan \u201cAlhamdulill\u0101h\u201d. Surah-surah lain yang juga diawali dengan lafaz \u201cAlhamdulill\u0101h\u201d ialah Surah al-Kahf/18, Surah Saba\u2019/34 dan Surah F\u0101\u1e6dir/35.\nSemua Surah Makiyah berisi seruan kepada keimanan, agama tauhid, dan menegaskan batalnya kepercayaan syirik. Banyak hadis yang meriwayatkan bahwa Surah al-An\u2018\u0101m/6 ini diturunkan sekaligus, disebabkan isinya yang antara lain mengandung dalil-dalil ketauhidan, keadilan, kenabian, hari Kiamat dan bantahan terhadap il\u1e25\u0101d (atheisme).\n\nPOKOK-POKOK ISINYA\n1.\tKeimanan\nBukti-bukti keesaan Allah serta kesempurnaan sifat-sifat-Nya; tentang kenabian Muhammad; penegasan Allah atas kenabian Ibrahim, Ishak, Ya\u2019kub, Nuh, Daud, Sulaiman, Ayyub, Yusuf, Musa, Harun, Zakaria, Yahya, Isa, Ilyas, Alyasa\u2019, Yunus, Lu\u1e6d; penegasan tentang adanya risalah dan wahyu serta hari pembalasan dan hari kebangkitan; sesatnya kepercayaan orang musyrik dan keingkaran mereka terhadap hari Kiamat.\n2.\tBeberapa Hukum\nLarangan mengikuti adat istiadat yang dibuat-buat oleh kaum jahiliah; makanan yang halal dan yang haram; sepuluh wasiat dalam Al-Qur\u2019an; tauhid, keadilan dan hukum; dan larangan mencaci maki berhala.\n3.\tKisah\nKisah umat-umat terdahulu yang menentang rasul-rasul; kisah pengalaman Nabi Muhammad dan para nabi; dan cerita Nabi Ibrahim membimbing kaumnya kepada agama tauhid.\n4.\tLain-lain\nSikap keras kepala kaum musyrik; cara nabi memimpin umatnya; bidang-bidang kerasulan dan tugas-tugasnya. Tantangan kaum musyrik untuk melemahkan rasul; kepercayaan orang-orang musyrik terhadap jin, setan dan malaikat; beberapa prinsip keagamaan dan kemasyarakatan; dan lain-lain.",
        "outro_surah": null,
        "munasabah_prev_surah": "HUBUNGAN SURAH AL-M\u0100\u2019IDAH \nDENGAN SURAH AL-An\u2018\u0101m\n\nPada akhir Surah al-M\u0101\u2019idah/5, beberapa kali Allah menegaskan bahwa Nabi Isa dan ibunya bukanlah tuhan sebagaimana anggapan banyak orang Nasrani di Najran. Nabi Isa adalah seperti rasul-rasul yang lain yang bertugas mengajak Bani Israil untuk mengesakan Allah dan menaati perintah-perintah-Nya. Maka pada Surah al-An\u2018\u0101m/6, Allah menjelaskan kekuasaan-Nya dalam penciptaan langit, bumi dan semua isinya, termasuk manusia. Allah juga memberi petunjuk kepada manusia untuk memilih jalan yang terang, yaitu cahaya keimanan, serta meninggalkan jalan yang sesat, yaitu jalan kegelapan.\n\nPada akhir Surah al-M\u0101\u2019idah/5 ditegaskan bahwa milik Allahlah kerajaan langit dan bumi dan segala apa yang terdapat di dalamnya, Dia Mahakuasa atas segala sesuatu. Pada ayat awal surah ini, al-An\u2018\u0101m/6, Allah menegaskan pula bahwa segala puji adalah milik-Nya yang menciptakan seluruh jagat raya beserta segala isinya, dan Dia pula yang menjadikan gelap dan terang dalam kehidupan manusia.",
        "munasabah_prev_theme": "Dalam ayat-ayat yang lalu Allah menunjukkan bukti keesaan-Nya dengan menerangkan sifat-sifat dan kejadian makhluk-Nya yang ada di langit ataupun di bumi. Dalam ayat-ayat ini Allah menerangkan bentuk-bentuk penyelewengan manusia. Di antara mereka ada yang menjadikan jin sebagai sekutu bagi Allah dan ada yang beranggapan bahwa Allah mempunyai putera.",
        "theme_group": "SYIRIK ADALAH PENYELEWENGAN DARI FITRAH",
        "kosakata": "1. Kharaq\u016b   \u062e\u064e\u0631\u064e\u0642\u064f\u0648\u0652\u0627(al-An\u2018\u0101m/6: 100)\nArtinya mereka telah berbohong atau melakukan kebohongan. Kata dasarnya adalah  ( \u062e- \u0631- \u0642 )  yang berarti memotong  sesuatu  dengan tujuan merusak tanpa dipikir terlebih dahulu. Hal ini berbeda dengan kata (\u062e- \u0644- \u0642) yang menunjukkan arti melakukan sesuatu dengan perkiraan yang cermat, pelan-pelan,  dengan tujuan baik. Ungkapan kharaqa a\u1e61-\u1e61auba artinya dia merobek pakaian. Pekerjaan merobek adalah pekerjaan yang tidak beraturan. Dari arti kata dasar ini maka muncul arti  kebohongan, karena kaum musyrik melakukan sesuatu yang bersifat merusak tentang akidah terhadap Allah seperti perkataan mereka, \u201cAllah mempunyai anak lelaki dan perempuan.\u201d \n2. Bad\u012b\u2019  \u0628\u064e\u062f\u0650\u064a\u0639\u064f(al-An\u2018\u0101m/6: 101)\nAkar katanya (\u0628- \u062f- \u0639) artinya berkisar pada dua hal yaitu pertama, membuat sesuatu tanpa ada contoh sebelumnya. Kedua, keterputusan atau ketumpulan, keletihan, dan lesu.  Kata  bid\u2019ah juga mempunyai arti semisal yaitu suatu perbuatan yang tidak ada contoh  sebelumnya dari Nabi Muhammad. Allah menciptakan langit dan bumi tanpa meniru dan mencontoh  yang lain.  \n3. Darasta  \u062f\u064e\u0631\u064e\u0633\u0652\u062a\u064e(al-An\u2018\u0101m/6: 105)\nPada kalimat ini ada tiga bacaan, yaitu darasta, d\u0101rasta dan darasat. Bacaan pertama berarti kamu telah mempelajari (Al-Qur\u2019an dari orang lain). Bacaan kedua berarti kamu saling mengajarkan. Artinya kamu membacakan kepada ahli kitab dan mereka membacakannya kepada kamu. Bacaan ketiga berarti berita-berita yang telah kamu (Muhammad) bacakan kepada kami  telah kuno sehingga telah hilang dari peredaran dan sirna.  Arti umum dari kata (\u062f- \u0631- \u0633) ialah melakukan sesuatu berulangkali sehingga hal tersebut menjadi hilang/sirna atau mencapai puncaknya. Pakaian yang dipakai terus menerus lalu  rusak disebut daris. Ungkapan darasa al-kitab artinya dia membacanya berulang kali sehingga  membekas di otak dan dihapal.",
        "sabab_nuzul": null,
        "conclusion": null
    }
}