{
    "id": 908,
    "surah_id": 6,
    "ayah": 119,
    "page": 143,
    "quarter_hizb": 15,
    "juz": 8,
    "manzil": 2,
    "arabic": "\u0648\u064e\u0645\u064e\u0627 \u0644\u064e\u0643\u064f\u0645\u0652 \u0627\u064e\u0644\u0651\u064e\u0627 \u062a\u064e\u0623\u0652\u0643\u064f\u0644\u064f\u0648\u0652\u0627 \u0645\u0650\u0645\u0651\u064e\u0627 \u0630\u064f\u0643\u0650\u0631\u064e \u0627\u0633\u0652\u0645\u064f \u0627\u0644\u0644\u0651\u0670\u0647\u0650 \u0639\u064e\u0644\u064e\u064a\u0652\u0647\u0650 \u0648\u064e\u0642\u064e\u062f\u0652 \u0641\u064e\u0635\u0651\u064e\u0644\u064e \u0644\u064e\u0643\u064f\u0645\u0652 \u0645\u0651\u064e\u0627 \u062d\u064e\u0631\u0651\u064e\u0645\u064e \u0639\u064e\u0644\u064e\u064a\u0652\u0643\u064f\u0645\u0652 \u0627\u0650\u0644\u0651\u064e\u0627 \u0645\u064e\u0627 \u0627\u0636\u0652\u0637\u064f\u0631\u0650\u0631\u0652\u062a\u064f\u0645\u0652 \u0627\u0650\u0644\u064e\u064a\u0652\u0647\u0650 \u06d7\u0648\u064e\u0627\u0650\u0646\u0651\u064e \u0643\u064e\u062b\u0650\u064a\u0652\u0631\u064b\u0627 \u0644\u0651\u064e\u064a\u064f\u0636\u0650\u0644\u0651\u064f\u0648\u0652\u0646\u064e \u0628\u0650\u0627\u064e\u0647\u0652\u0648\u064e\u0627\u06e4\u0649\u0655\u0650\u0647\u0650\u0645\u0652 \u0628\u0650\u063a\u064e\u064a\u0652\u0631\u0650 \u0639\u0650\u0644\u0652\u0645\u064d \u06d7\u0627\u0650\u0646\u0651\u064e \u0631\u064e\u0628\u0651\u064e\u0643\u064e \u0647\u064f\u0648\u064e \u0627\u064e\u0639\u0652\u0644\u064e\u0645\u064f \u0628\u0650\u0627\u0644\u0652\u0645\u064f\u0639\u0652\u062a\u064e\u062f\u0650\u064a\u0652\u0646\u064e ",
    "latin": "Wa m\u0101 lakum all\u0101 ta'kul\u016b mimm\u0101 \u017cukirasmull\u0101hi \u2018alaihi wa qad fa\u1e63\u1e63ala lakum m\u0101 \u1e25arrama \u2018alaikum ill\u0101 ma\u1e0d\u1e6durirtum ilaih(i), wa inna ka\u1e61\u012bral layu\u1e0dill\u016bna bi'ahw\u0101'ihim bigairi \u2018ilm(in), inna rabbaka huwa a\u2018lamu bil-mu\u2018tad\u012bn(a).",
    "translation": "Mengapa kamu tidak mau memakan sesuatu (daging hewan) yang (ketika disembelih) disebut nama Allah. Padahal, Allah telah menjelaskan secara rinci kepadamu sesuatu yang Dia haramkan kepadamu, kecuali jika kamu dalam keadaan terpaksa. Sesungguhnya banyak yang menyesatkan (orang lain) dengan mengikuti hawa nafsunya tanpa dasar pengetahuan. Sesungguhnya Tuhanmu lebih mengetahui orang-orang yang melampaui batas.",
    "no_footnote": null,
    "footnotes": null,
    "surah": {
        "id": 6,
        "arabic": " \u0627\u0644\u0627\u0646\u0639\u0627\u0645",
        "latin": "Al-An\u2018\u0101m ",
        "transliteration": "Al-An\u2018am",
        "translation": "Binatang Ternak",
        "num_ayah": 165,
        "page": 128,
        "location": "Makkiyah"
    },
    "tafsir": {
        "wajiz": "Terhadap mereka yang masih ragu-ragu, Allah menjelaskan sebagai berikut. Dan mengapa kamu tidak mau memakan dari apa, yakni daging hewan, yang ketika disembelih disebut nama Allah-seperti dengan membaca \u201cBismillah\u201d atau \u201cBismillah, Allahu Akbar\u201d- padahal Allah telah menjelaskan kepadamu apa yang diharamkan-Nya kepadamu seperti mengonsumsi bangkai, darah yang mengalir, daging babi, dan apa yang disembelih bukan atas nama Allah (lihat: Surah al-An'am/6: 145) kecuali jika kamu dalam keadaan terpaksa seperti dalam keadaan sangat lapar yang jika dibiarkan akan berakibat kematian? Dalam keadaan terpaksa, seseorang boleh memakan apa yang sebelumnya diharamkan, tetapi sekadar untuk mempertahankan hidup, tidak melewati batas, tidak bersenang-senang, dan sebenarnya dia tidak menginginkan hal tersebut. Dan sungguh, banyak yang menyesatkan orang dengan keinginannya tanpa dasar pengetahuan, yaitu tanpa dasar dari wahyu Allah yang merupakan sumber kebenaran. Mereka sendiri sesat dengan menghalalkan dan mengharamkan makanan dengan semau mereka sendiri, dan menyesatkan orang lain. Tuhanmu lebih mengetahui orang-orang yang melampaui batas, dengan pengetahuan itu Allah akan memeberikan balasan kepada mereka secara adil.",
        "tahlili": "Dalam ayat ini, Allah mengajukan pertanyaan, apa halangan bagi kaum Muslimin untuk tidak makan hewan yang halal yang disebutkan nama Allah ketika menyembelihnya? Padahal Allah telah menjelaskan kepada mereka apa yang sesungguhnya diharamkan bagi mereka, sebagaimana firman-Nya: \n\u0642\u064f\u0644\u0652 \u0644\u0651\u064e\u0627\u0653 \u0627\u064e\u062c\u0650\u062f\u064f \u0641\u0650\u064a\u0652 \u0645\u064e\u0627\u0653 \u0627\u064f\u0648\u0652\u062d\u0650\u064a\u064e \u0627\u0650\u0644\u064e\u064a\u0651\u064e \u0645\u064f\u062d\u064e\u0631\u0651\u064e\u0645\u064b\u0627 \u0639\u064e\u0644\u0670\u0649 \u0637\u064e\u0627\u0639\u0650\u0645\u064d \u064a\u0651\u064e\u0637\u0652\u0639\u064e\u0645\u064f\u0647\u0657\u0653 \u0627\u0650\u0644\u0651\u064e\u0627\u0653 \u0627\u064e\u0646\u0652 \u064a\u0651\u064e\u0643\u064f\u0648\u0652\u0646\u064e \u0645\u064e\u064a\u0652\u062a\u064e\u0629\u064b \u0627\u064e\u0648\u0652 \u062f\u064e\u0645\u064b\u0627 \u0645\u0651\u064e\u0633\u0652\u0641\u064f\u0648\u0652\u062d\u064b\u0627 \u0627\u064e\u0648\u0652 \u0644\u064e\u062d\u0652\u0645\u064e \u062e\u0650\u0646\u0652\u0632\u0650\u064a\u0652\u0631\u064d \u0641\u064e\u0627\u0650\u0646\u0651\u064e\u0647\u0657 \u0631\u0650\u062c\u0652\u0633\u064c \u0627\u064e\u0648\u0652 \u0641\u0650\u0633\u0652\u0642\u064b\u0627 \u0627\u064f\u0647\u0650\u0644\u0651\u064e \u0644\u0650\u063a\u064e\u064a\u0652\u0631\u0650 \u0627\u0644\u0644\u0651\u0670\u0647\u0650 \u0628\u0650\u0647\u0656\u06da \u0641\u064e\u0645\u064e\u0646\u0650 \u0627\u0636\u0652\u0637\u064f\u0631\u0651\u064e \u063a\u064e\u064a\u0652\u0631\u064e \u0628\u064e\u0627\u063a\u064d \u0648\u0651\u064e\u0644\u064e\u0627 \u0639\u064e\u0627\u062f\u064d \u0641\u064e\u0627\u0650\u0646\u0651\u064e \u0631\u064e\u0628\u0651\u064e\u0643\u064e \u063a\u064e\u0641\u064f\u0648\u0652\u0631\u064c \u0631\u0651\u064e\u062d\u0650\u064a\u0652\u0645\u064c \u0661\u0664\u0665\nKatakanlah, \u201cTidak kudapati di dalam apa yang diwahyukan kepadaku, sesuatu yang diharamkan  makannya bagi yang ingin memakannya, kecuali daging hewan yang mati (bangkai), darah yang mengalir, daging babi \u2013 karena semua itu kotor \u2013 atau hewan yang disembelih bukan atas (nama) Allah. Tetapi barang siapa terpaksa bukan karena menginginkan dan tidak melebihi batas (darurat) maka sungguh, Tuhanmu Maha Pengampun, Maha Penyayang (al-An\u2018\u0101m/6: 145).\n\nTetapi Allah memberikan keringanan kepada kaum Muslimin untuk makan makanan yang diharamkan jika dalam keadaan terpaksa. Di dalam Ushul Fiqh ada sebuah kaidah yang berbunyi: \n\u0627\u0644\u0636\u0651\u064e\u0631\u064f\u0648\u0652\u0631\u064e\u0629\u064f \u062a\u064f\u0628\u0650\u064a\u0652\u062d\u064f \u0627\u0644\u0652\u0645\u064e\u062d\u0652\u0638\u064f\u0648\u0652\u0631\u064e\u0627\u062a\u0650\n\u201cKeadaan darurat (memaksa) membolehkan makan apa yang diharamkan\u201d\nTindakan sebagian besar manusia memang salah dan menyesatkan dengan cara penyembelihan yang mereka lakukan, sehingga mereka terperosok ke dalam tindakan syirik, dan jauh dari akidah yang benar, yaitu kepercayaan tauhid yang dibawa para nabi dan rasul yang diutus Allah untuk umat manusia seluruhnya.\nDi antara umat Nabi Nuh terdapat beberapa pemimpin yang saleh. Setelah mereka wafat, pengikut-pengikutnya mendirikan beberapa patung untuk mengenang jasa-jasa mereka dan untuk mereka jadikan teladan yang baik. Lama kelamaan para pengikutnya melampaui batas, sehingga mereka memberikan penghormatan kepada patung-patung itu dengan cara menyembelih hewan untuk dipersembahkan kepada patung-patung itu, bahkan mereka memohon berkah dari patung-patung itu. Keadaan ini berlangsung terus, generasi demi generasi, dan akhirnya menyebar kepada umat yang lainnya, sehingga penghormatan yang dimaksud berubah menjadi keyakinan bahwa patung-patung itu pantas dihormati dan disembah.",
        "intro_surah": "Surah yang ke-6, al-An\u2018\u0101m yang berarti hewan ternak terdiri atas 165 ayat. Surah ini termasuk golongan Surah Makiyah. Dinamai al-An\u2018\u0101m (hewan ternak) karena surah ini banyak menerangkan hukum-hukum yang berhubungan dengan hewan ternak dan juga hubungan hewan tersebut dengan adat istiadat serta kepercayaan orang-orang musyrik. Menurut kepercayaan mereka, hewan tersebut dapat disembelih sebagai kurban untuk mendekatkan diri kepada sembahan mereka. Allah memulai surah ini dengan \u201cAlhamdulill\u0101h\u201d. Surah-surah lain yang juga diawali dengan lafaz \u201cAlhamdulill\u0101h\u201d ialah Surah al-Kahf/18, Surah Saba\u2019/34 dan Surah F\u0101\u1e6dir/35.\nSemua Surah Makiyah berisi seruan kepada keimanan, agama tauhid, dan menegaskan batalnya kepercayaan syirik. Banyak hadis yang meriwayatkan bahwa Surah al-An\u2018\u0101m/6 ini diturunkan sekaligus, disebabkan isinya yang antara lain mengandung dalil-dalil ketauhidan, keadilan, kenabian, hari Kiamat dan bantahan terhadap il\u1e25\u0101d (atheisme).\n\nPOKOK-POKOK ISINYA\n1.\tKeimanan\nBukti-bukti keesaan Allah serta kesempurnaan sifat-sifat-Nya; tentang kenabian Muhammad; penegasan Allah atas kenabian Ibrahim, Ishak, Ya\u2019kub, Nuh, Daud, Sulaiman, Ayyub, Yusuf, Musa, Harun, Zakaria, Yahya, Isa, Ilyas, Alyasa\u2019, Yunus, Lu\u1e6d; penegasan tentang adanya risalah dan wahyu serta hari pembalasan dan hari kebangkitan; sesatnya kepercayaan orang musyrik dan keingkaran mereka terhadap hari Kiamat.\n2.\tBeberapa Hukum\nLarangan mengikuti adat istiadat yang dibuat-buat oleh kaum jahiliah; makanan yang halal dan yang haram; sepuluh wasiat dalam Al-Qur\u2019an; tauhid, keadilan dan hukum; dan larangan mencaci maki berhala.\n3.\tKisah\nKisah umat-umat terdahulu yang menentang rasul-rasul; kisah pengalaman Nabi Muhammad dan para nabi; dan cerita Nabi Ibrahim membimbing kaumnya kepada agama tauhid.\n4.\tLain-lain\nSikap keras kepala kaum musyrik; cara nabi memimpin umatnya; bidang-bidang kerasulan dan tugas-tugasnya. Tantangan kaum musyrik untuk melemahkan rasul; kepercayaan orang-orang musyrik terhadap jin, setan dan malaikat; beberapa prinsip keagamaan dan kemasyarakatan; dan lain-lain.",
        "outro_surah": null,
        "munasabah_prev_surah": "HUBUNGAN SURAH AL-M\u0100\u2019IDAH \nDENGAN SURAH AL-An\u2018\u0101m\n\nPada akhir Surah al-M\u0101\u2019idah/5, beberapa kali Allah menegaskan bahwa Nabi Isa dan ibunya bukanlah tuhan sebagaimana anggapan banyak orang Nasrani di Najran. Nabi Isa adalah seperti rasul-rasul yang lain yang bertugas mengajak Bani Israil untuk mengesakan Allah dan menaati perintah-perintah-Nya. Maka pada Surah al-An\u2018\u0101m/6, Allah menjelaskan kekuasaan-Nya dalam penciptaan langit, bumi dan semua isinya, termasuk manusia. Allah juga memberi petunjuk kepada manusia untuk memilih jalan yang terang, yaitu cahaya keimanan, serta meninggalkan jalan yang sesat, yaitu jalan kegelapan.\n\nPada akhir Surah al-M\u0101\u2019idah/5 ditegaskan bahwa milik Allahlah kerajaan langit dan bumi dan segala apa yang terdapat di dalamnya, Dia Mahakuasa atas segala sesuatu. Pada ayat awal surah ini, al-An\u2018\u0101m/6, Allah menegaskan pula bahwa segala puji adalah milik-Nya yang menciptakan seluruh jagat raya beserta segala isinya, dan Dia pula yang menjadikan gelap dan terang dalam kehidupan manusia.",
        "munasabah_prev_theme": "Setelah ayat-ayat yang lalu membatalkan alasan orang-orang musyrik dan memberikan bukti nyata atas kebenaran Nabi Muhammad saw, pada ayat-ayat ini Allah memperingatkan kaum Muslimin agar jangan terpengaruh oleh ucapan-ucapan mereka yang menempuh jalan yang sesat dan menyesatkan, yang hanya mengikuti prasangka yang tidak berdasar, yang timbul karena kebodohannya dan karena mendustakan Allah. ",
        "theme_group": "KESESATAN AKIDAH KAUM MUSYRIK\nDAN HARAMNYA SEMBELIHAN MEREKA",
        "kosakata": "Kosakata: Yakhru\u1e63\u016bn   \u064a\u064e\u062e\u0652\u0631\u064f\u0635\u064f\u0648\u0652\u0646\u064e (al-An\u2018\u0101m/6: 116)\nKata (\u062e-\u0631-\u0635) artinya mengira-ngira, seperti seorang yang memperkirakan banyaknya buah pada satu pohon. Ungkapan ini lalu digunakan untuk satu perkataan yang dilontarkan berdasarkan sangkaan dan dugaan saja sehingga tidak kuat/rapuh, karena tidak berdasarkan dalil yang kuat. Ada juga ulama yang mengartikannya dengan kebohongan. Namun yang lebih tepat dengan kontek ayat di atas adalah arti yang pertama, sebab kebanyakan orang-orang yang ada di muka bumi tidak semuanya berbohong, tapi ada juga yang tulus dalam beriman.",
        "sabab_nuzul": null,
        "conclusion": null
    }
}