{
    "id": 953,
    "surah_id": 6,
    "ayah": 164,
    "page": 150,
    "quarter_hizb": 15.75,
    "juz": 8,
    "manzil": 2,
    "arabic": "\u0642\u064f\u0644\u0652 \u0627\u064e\u063a\u064e\u064a\u0652\u0631\u064e \u0627\u0644\u0644\u0651\u0670\u0647\u0650 \u0627\u064e\u0628\u0652\u063a\u0650\u064a\u0652 \u0631\u064e\u0628\u0651\u064b\u0627 \u0648\u0651\u064e\u0647\u064f\u0648\u064e \u0631\u064e\u0628\u0651\u064f \u0643\u064f\u0644\u0651\u0650 \u0634\u064e\u064a\u0652\u0621\u064d\u06d7 \u0648\u064e\u0644\u064e\u0627 \u062a\u064e\u0643\u0652\u0633\u0650\u0628\u064f \u0643\u064f\u0644\u0651\u064f \u0646\u064e\u0641\u0652\u0633\u064d \u0627\u0650\u0644\u0651\u064e\u0627 \u0639\u064e\u0644\u064e\u064a\u0652\u0647\u064e\u0627\u06da \u0648\u064e\u0644\u064e\u0627 \u062a\u064e\u0632\u0650\u0631\u064f \u0648\u064e\u0627\u0632\u0650\u0631\u064e\u0629\u064c \u0648\u0651\u0650\u0632\u0652\u0631\u064e \u0627\u064f\u062e\u0652\u0631\u0670\u0649\u06da \u062b\u064f\u0645\u0651\u064e \u0627\u0650\u0644\u0670\u0649 \u0631\u064e\u0628\u0651\u0650\u0643\u064f\u0645\u0652 \u0645\u0651\u064e\u0631\u0652\u062c\u0650\u0639\u064f\u0643\u064f\u0645\u0652 \u0641\u064e\u064a\u064f\u0646\u064e\u0628\u0651\u0650\u0626\u064f\u0643\u064f\u0645\u0652 \u0628\u0650\u0645\u064e\u0627 \u0643\u064f\u0646\u0652\u062a\u064f\u0645\u0652 \u0641\u0650\u064a\u0652\u0647\u0650 \u062a\u064e\u062e\u0652\u062a\u064e\u0644\u0650\u0641\u064f\u0648\u0652\u0646\u064e ",
    "latin": "Qul agairall\u0101hi abg\u012b rabbaw wa huwa rabbu kulli syai'(in), wa l\u0101 taksibu kullu nafsin ill\u0101 \u2018alaih\u0101, wa l\u0101 taziru w\u0101ziratuw wizra ukhr\u0101, \u1e61umma il\u0101 rabbikum marji\u2018ukum fa yunabbi'ukum bim\u0101 kuntum f\u012bhi takhtalif\u016bn(a).",
    "translation": "Katakanlah (Nabi Muhammad), \u201cApakah aku (pantas) mencari tuhan selain Allah, padahal Dialah Tuhan bagi segala sesuatu. Setiap orang yang berbuat dosa, dirinya sendirilah yang akan bertanggung jawab. Seseorang tidak akan memikul beban dosa orang lain. Kemudian, kepada Tuhanmulah kamu kembali, lalu Dia akan memberitahukan kepadamu apa yang dahulu kamu perselisihkan.\u201d",
    "no_footnote": null,
    "footnotes": null,
    "surah": {
        "id": 6,
        "arabic": " \u0627\u0644\u0627\u0646\u0639\u0627\u0645",
        "latin": "Al-An\u2018\u0101m ",
        "transliteration": "Al-An\u2018am",
        "translation": "Binatang Ternak",
        "num_ayah": 165,
        "page": 128,
        "location": "Makkiyah"
    },
    "tafsir": {
        "wajiz": "Katakanlah, wahai Nabi Muhammad, dengan penuh keheranan, \u201cApakah patut aku mencari tuhan selain Allah, padahal Dialah Tuhan bagi segala sesuatu, pencipta jagat raya dan seisinya, pengatur, dan pemelihara bagi semua makhluk-Nya. Karena segala sesuatu selain Allah tidak mempunyai kekuasaan apa-apa, maka tidak patut untuk disembah. Setiap perbuatan dosa seseorang, pelanggaran ketentuan agama, baik besar maupun kecil, dirinya sendiri yang bertanggung jawab di hadapan Allah pada hari Kiamat nanti. Dan seseorang tidak akan memikul beban dosa orang lain, kecuali jika orang itu mengajak orang lain berbuat dosa. Kemudian kepada Tuhanmulah kamu kembali, karena semua makhluk adalah milik Allah, Allah-lah pewaris makhluk-Nya pada hari Kiamat. Dan, akan diberitahukan-Nya kepadamu apa yang dahulu kamu perselisihkan, dengan menjelaskan mana yang benar dan mana yang salah. Setiap orang akan dibalas sesuai dengan perbuatannya.\u201d",
        "tahlili": "Dalam ayat ini terdapat perintah kepada Nabi Muhammad agar mengatakan kepada kaumnya, bahwa mengapa ia akan mencari Allah yang lain dengan mempersekutukan-Nya dalam ibadah, berdoa untuk keperluan hidupnya agar Dia menolongnya atau melindunginya dari kesusahan dan bahaya? Mahasuci Allah dari persekutuan itu. Dialah Tuhan bagi segala sesuatu, Dialah yang menciptakan semesta alam. Selanjutnya pada ayat ini diterangkan, bahwa semua perbuatan manusia akan dipertangungjawabkan- nya sendiri, dan orang yang berbuat dosa akan menanggung sendiri dosanya itu, karena dosa seseorang tidak akan dipikul oleh orang lain. Masing-masing menerima pahala amal baiknya dan memikul dosa amal buruknya. Hal ini berulang-ulang disebutkan dalam Al-Qur\u2019an.\n Firman Allah: \n\u0627\u064e\u0644\u0651\u064e\u0627 \u062a\u064e\u0632\u0650\u0631\u064f \u0648\u064e\u0627\u0632\u0650\u0631\u064e\u0629\u064c \u0648\u0650\u0651\u0632\u0652\u0631\u064e \u0627\u064f\u062e\u0652\u0631\u0670\u0649\u06d9 \u0663\u0668 \u0648\u064e\u0627\u064e\u0646\u0652 \u0644\u0651\u064e\u064a\u0652\u0633\u064e \u0644\u0650\u0644\u0652\u0627\u0650\u0646\u0652\u0633\u064e\u0627\u0646\u0650 \u0627\u0650\u0644\u0651\u064e\u0627 \u0645\u064e\u0627 \u0633\u064e\u0639\u0670\u0649\u06d9 \u0663\u0669\n(Yaitu) bahwa seseorang yang berdosa tidak akan memikul dosa orang lain, dan bahwa manusia hanya memperoleh apa yang telah diusahakannya. (an-Najm/53: 38-39).\nAyat ini cukup memberi petunjuk dan jalan hidup yang bermutu tinggi dan praktis, karena di samping harus beramal dan bekerja harus pula diperhitungkan dengan cermat dan teliti setiap amal perbuatan yang dikerjakannya. Sebab amal pekerjaan atau perbuatan itu sangat besar pengaruhnya dalam membawa nasib keberuntungan dan keruntuhan seseorang, baik di dunia maupun di akhirat. Di akhirat, perselisihan manusia dalam beragama akan diselesaikan.",
        "intro_surah": "Surah yang ke-6, al-An\u2018\u0101m yang berarti hewan ternak terdiri atas 165 ayat. Surah ini termasuk golongan Surah Makiyah. Dinamai al-An\u2018\u0101m (hewan ternak) karena surah ini banyak menerangkan hukum-hukum yang berhubungan dengan hewan ternak dan juga hubungan hewan tersebut dengan adat istiadat serta kepercayaan orang-orang musyrik. Menurut kepercayaan mereka, hewan tersebut dapat disembelih sebagai kurban untuk mendekatkan diri kepada sembahan mereka. Allah memulai surah ini dengan \u201cAlhamdulill\u0101h\u201d. Surah-surah lain yang juga diawali dengan lafaz \u201cAlhamdulill\u0101h\u201d ialah Surah al-Kahf/18, Surah Saba\u2019/34 dan Surah F\u0101\u1e6dir/35.\nSemua Surah Makiyah berisi seruan kepada keimanan, agama tauhid, dan menegaskan batalnya kepercayaan syirik. Banyak hadis yang meriwayatkan bahwa Surah al-An\u2018\u0101m/6 ini diturunkan sekaligus, disebabkan isinya yang antara lain mengandung dalil-dalil ketauhidan, keadilan, kenabian, hari Kiamat dan bantahan terhadap il\u1e25\u0101d (atheisme).\n\nPOKOK-POKOK ISINYA\n1.\tKeimanan\nBukti-bukti keesaan Allah serta kesempurnaan sifat-sifat-Nya; tentang kenabian Muhammad; penegasan Allah atas kenabian Ibrahim, Ishak, Ya\u2019kub, Nuh, Daud, Sulaiman, Ayyub, Yusuf, Musa, Harun, Zakaria, Yahya, Isa, Ilyas, Alyasa\u2019, Yunus, Lu\u1e6d; penegasan tentang adanya risalah dan wahyu serta hari pembalasan dan hari kebangkitan; sesatnya kepercayaan orang musyrik dan keingkaran mereka terhadap hari Kiamat.\n2.\tBeberapa Hukum\nLarangan mengikuti adat istiadat yang dibuat-buat oleh kaum jahiliah; makanan yang halal dan yang haram; sepuluh wasiat dalam Al-Qur\u2019an; tauhid, keadilan dan hukum; dan larangan mencaci maki berhala.\n3.\tKisah\nKisah umat-umat terdahulu yang menentang rasul-rasul; kisah pengalaman Nabi Muhammad dan para nabi; dan cerita Nabi Ibrahim membimbing kaumnya kepada agama tauhid.\n4.\tLain-lain\nSikap keras kepala kaum musyrik; cara nabi memimpin umatnya; bidang-bidang kerasulan dan tugas-tugasnya. Tantangan kaum musyrik untuk melemahkan rasul; kepercayaan orang-orang musyrik terhadap jin, setan dan malaikat; beberapa prinsip keagamaan dan kemasyarakatan; dan lain-lain.",
        "outro_surah": null,
        "munasabah_prev_surah": "HUBUNGAN SURAH AL-M\u0100\u2019IDAH \nDENGAN SURAH AL-An\u2018\u0101m\n\nPada akhir Surah al-M\u0101\u2019idah/5, beberapa kali Allah menegaskan bahwa Nabi Isa dan ibunya bukanlah tuhan sebagaimana anggapan banyak orang Nasrani di Najran. Nabi Isa adalah seperti rasul-rasul yang lain yang bertugas mengajak Bani Israil untuk mengesakan Allah dan menaati perintah-perintah-Nya. Maka pada Surah al-An\u2018\u0101m/6, Allah menjelaskan kekuasaan-Nya dalam penciptaan langit, bumi dan semua isinya, termasuk manusia. Allah juga memberi petunjuk kepada manusia untuk memilih jalan yang terang, yaitu cahaya keimanan, serta meninggalkan jalan yang sesat, yaitu jalan kegelapan.\n\nPada akhir Surah al-M\u0101\u2019idah/5 ditegaskan bahwa milik Allahlah kerajaan langit dan bumi dan segala apa yang terdapat di dalamnya, Dia Mahakuasa atas segala sesuatu. Pada ayat awal surah ini, al-An\u2018\u0101m/6, Allah menegaskan pula bahwa segala puji adalah milik-Nya yang menciptakan seluruh jagat raya beserta segala isinya, dan Dia pula yang menjadikan gelap dan terang dalam kehidupan manusia.",
        "munasabah_prev_theme": "Dalam ayat yang lalu diterangkan bahwa siapa yang beramal baik akan dilipatgandakan pahalanya, maka pada ayat ini dijelaskan tentang keihklasan dalam beribadah dan beramal saleh karena ikhlas merupakan syarat diterimanya amal kebaikan, juga menjelaskan bahwa seseorang tidak bertanggungjawab atas dosa orang lain dan manusia sebagai khalifatullah masing-masing mempunyai posisi yang berbeda sebagai ujian bagi mereka.",
        "theme_group": "MENGIKUTI MILLAH IBRAHIM A.S. DALAM\nTAUHID DAN IKHLAS DALAM BERAMAL\n",
        "kosakata": "Kosakata: Taziru  \u062a\u064e\u0632\u0650\u0631\u064f(al-An\u2018\u0101m /6: 163)\nBentuk mu\u1e0dari\u2019 dari wazara. Akar kata yang terdiri dari (\u0648\u0632\u0631 )  berkisar pada dua arti yaitu tempat berlindung (malja\u2019) (al-Qiy\u0101mah/ 75:11) dan beban \npada sesuatu sebagaimana pada ayat ini. Menteri dinamakan wazir karena dia menanggung beban (tugas berat) sebagai pembantu raja. Dosa dinamakan wizr karena menjadi beban bagi  yang melakukannya.",
        "sabab_nuzul": null,
        "conclusion": null
    }
}