{
    "id": 922,
    "surah_id": 6,
    "ayah": 133,
    "page": 145,
    "quarter_hizb": 15.25,
    "juz": 8,
    "manzil": 2,
    "arabic": "\u0648\u064e\u0631\u064e\u0628\u0651\u064f\u0643\u064e \u0627\u0644\u0652\u063a\u064e\u0646\u0650\u064a\u0651\u064f \u0630\u064f\u0648 \u0627\u0644\u0631\u0651\u064e\u062d\u0652\u0645\u064e\u0629\u0650 \u06d7\u0627\u0650\u0646\u0652 \u064a\u0651\u064e\u0634\u064e\u0623\u0652 \u064a\u064f\u0630\u0652\u0647\u0650\u0628\u0652\u0643\u064f\u0645\u0652 \u0648\u064e\u064a\u064e\u0633\u0652\u062a\u064e\u062e\u0652\u0644\u0650\u0641\u0652 \u0645\u0650\u0646\u0652\u06e2  \u0628\u064e\u0639\u0652\u062f\u0650\u0643\u064f\u0645\u0652 \u0645\u0651\u064e\u0627 \u064a\u064e\u0634\u064e\u0627\u06e4\u0621\u064f \u0643\u064e\u0645\u064e\u0627\u0653 \u0627\u064e\u0646\u0652\u0634\u064e\u0627\u064e\u0643\u064f\u0645\u0652 \u0645\u0651\u0650\u0646\u0652 \u0630\u064f\u0631\u0651\u0650\u064a\u0651\u064e\u0629\u0650 \u0642\u064e\u0648\u0652\u0645\u064d \u0627\u0670\u062e\u064e\u0631\u0650\u064a\u0652\u0646\u064e ",
    "latin": "Wa rabbukal-ganiyyu \u017cur-ra\u1e25mah(ti), iy yasya' yu\u017chibkum wa yastakhlif mim ba\u2018dikum m\u0101 yasy\u0101'u kam\u0101 ansya'akum min \u017curriyyati qaumin \u0101khar\u012bn(a).",
    "translation": "Tuhanmulah Yang Maha Kaya lagi penuh rahmat. Jika menghendaki, Dia akan memusnahkanmu. Setelah itu, Dia akan menggantimu dengan yang dikehendaki-Nya, sebagaimana Dia menjadikan kamu dari keturunan kaum lain (sebelummu).",
    "no_footnote": null,
    "footnotes": null,
    "surah": {
        "id": 6,
        "arabic": " \u0627\u0644\u0627\u0646\u0639\u0627\u0645",
        "latin": "Al-An\u2018\u0101m ",
        "transliteration": "Al-An\u2018am",
        "translation": "Binatang Ternak",
        "num_ayah": 165,
        "page": 128,
        "location": "Makkiyah"
    },
    "tafsir": {
        "wajiz": "Dan Tuhanmu, wahai Nabi Muhammad, Mahakaya, sedikit pun Ia tidak butuh kepada semua makhluk-Nya, bahkan makhluk-Nyalah yang fakir kepada-Nya. Allah juga sangat penuh rahmat kepada hambahamba-Nya. Karena itu, Ia perintahkan hamba-Nya untuk senantiasa melakukan kebaikan dan menjauhi keburukan, agar hamba-Nya memperoleh keselamatan. Jika Dia menghendaki, Dia akan memusnahkan kamu, yaitu ketika kamu menyalahi perintah-Nya dan setelah kamu musnah akan Dia ganti dengan kaum lain yang Dia kehendaki, kaum itu senantiasa taat kepada Allah. Jika Allah mampu memusnahkan kaum-kaum terdahulu yang menentang-Nya kemudian digantikan dengan kaum lainnya, maka wahai Nabi Muhammad, Allah pun amat mampu melenyapkan kaummu sebagaimana Dia menjadikan kamu dari keturunan golongan lain.",
        "tahlili": "Ayat ini menegaskan bahwa Allah Mahakaya dan Mahaluas rahmat-Nya dan tidak memerlukan apa dan siapa pun; tetapi semua yang selain Allah membutuhkan bantuan dan pertolongan-Nya, baik keberadaannya maupun dalam kehidupannya. Bagaimanapun banyaknya kekayaan seorang manusia namun ia masih memerlukan pertolongan orang lain, misalnya pertolongan dari pembantu-pembantunya, buruhnya, dokternya, dan sebagainya. Ia pasti tetap memerlukan pertolongan Allah, Penciptanya dan Pencipta semua keperluan dan kebutuhan hidupnya, Allah berfirman: \n\u06de \u064a\u0670\u0653\u0627\u064e\u064a\u0651\u064f\u0647\u064e\u0627 \u0627\u0644\u0646\u0651\u064e\u0627\u0633\u064f \u0627\u064e\u0646\u0652\u062a\u064f\u0645\u064f \u0627\u0644\u0652\u0641\u064f\u0642\u064e\u0631\u064e\u0627\u06e4\u0621\u064f \u0627\u0650\u0644\u064e\u0649 \u0627\u0644\u0644\u0651\u0670\u0647\u0650 \u06da\u0648\u064e\u0627\u0644\u0644\u0651\u0670\u0647\u064f \u0647\u064f\u0648\u064e \u0627\u0644\u0652\u063a\u064e\u0646\u0650\u064a\u0651\u064f \u0627\u0644\u0652\u062d\u064e\u0645\u0650\u064a\u0652\u062f\u064f \u0661\u0665\nWahai manusia! Kamulah yang memerlukan Allah; dan Allah Dialah Yang Mahakaya (tidak memerlukan sesuatu), Maha Terpuji. (F\u0101\u1e6dir/35: 15)\nHal ini dijelaskan oleh sebuah hadis Qudsy yang diriwayatkan oleh Abu \u017bar dari Nabi saw; beliau menerima wahyu dari Tuhan sebagai berikut: \n\n\u064a\u064e\u0627 \u0639\u0650\u0628\u064e\u0627\u062f\u0650\u064a\u0652 \u0650\u0627\u0646\u0651\u0650\u064a\u0652 \u062d\u064e\u0631\u0651\u064e\u0645\u0652\u062a\u064f \u0627\u0644\u0638\u0651\u064f\u0644\u0652\u0645\u064e \u0639\u064e\u0644\u064e\u0649 \u0646\u064e\u0641\u0652\u0633\u0650\u064a \u0648\u064e\u062c\u064e\u0639\u064e\u0644\u0652\u062a\u064f\u0647\u064f \u0628\u064e\u064a\u0652\u0646\u064e\u0643\u064f\u0645\u0652 \u0645\u064f\u062d\u064e\u0631\u0651\u064e\u0645\u064b\u0627 \u0641\u064e\u0644\u0627\u064e \u062a\u064f\u0638\u064e\u0627\u0644\u0650\u0645\u064f\u0648\u0652\u0627\u060c \u064a\u064e\u0627 \u0639\u0650\u0628\u064e\u0627\u062f\u0650\u064a\u0652 \u0643\u064f\u0644\u0651\u064f\u0643\u064f\u0645\u0652 \u0636\u064e\u0627\u0644\u0651\u064c \u0627\u0650\u0644\u0627\u0651\u064e \u0645\u064e\u0646\u0652 \u0647\u064e\u062f\u064e\u064a\u0652\u062a\u064f\u0647\u064f \u0641\u064e\u0627\u0633\u0652\u062a\u064e\u0647\u0652\u062f\u064f\u0648\u0652\u0646\u0650\u064a\u0652 \u0623\u064e\u0647\u0652\u062f\u0650\u0643\u064f\u0645\u0652\u060c \u064a\u064e\u0627 \u0639\u0650\u0628\u064e\u0627\u062f\u0650\u064a\u0652 \u0643\u064f\u0644\u0651\u064f\u0643\u064f\u0645\u0652 \u062c\u064e\u0627\u0626\u0650\u0639\u064c \u0627\u0650\u0644\u0627\u0651\u064e \u0645\u064e\u0646\u0652 \u0623\u064e\u0646\u0652\u0639\u064e\u0645\u0652\u062a\u064f\u0647\u064f \u0641\u064e\u0627\u0633\u0652\u062a\u064e\u0637\u0652\u0639\u0650\u0645\u064f\u0648\u0652\u0646\u0650\u064a\u0652 \u0623\u064f\u0637\u0652\u0639\u0650\u0645\u0652\u0643\u064f\u0645\u0652\u060c \u064a\u064e\u0627 \u0639\u0650\u0628\u064e\u0627\u062f\u0650\u064a\u0652 \u0643\u064f\u0644\u0651\u064f\u0643\u064f\u0645\u0652 \u0639\u064e\u0627\u0631\u064d \u0627\u0650\u0644\u0627\u0651\u064e \u0645\u064e\u0646\u0652 \u0643\u064e\u0633\u064e\u0648\u0652\u062a\u064f\u0647\u064f \u0641\u064e\u0627\u0633\u0652\u062a\u064e\u0643\u0652\u0633\u064f\u0648\u0652\u0646\u0650\u064a\u0652 \u0623\u064e\u0643\u0652\u0633\u064f\u0643\u064f\u0645\u0652\u060c \u064a\u064e\u0627 \u0639\u0650\u0628\u064e\u0627\u062f\u0650\u064a\u0652 \u0625\u0650\u0646\u0651\u064e\u0643\u064f\u0645\u0652 \u062a\u064f\u062e\u0652\u0637\u0650\u0626\u064f\u0648\u0652\u0646\u064e \u0628\u0650\u0627\u0644\u0644\u0651\u064e\u064a\u0652\u0644\u0650 \u0648\u064e\u0627\u0644\u0646\u0651\u064e\u0647\u064e\u0627\u0631\u0650 \u0648\u064e\u0627\u064e\u0646\u064e\u0627 \u0623\u064e\u063a\u0652\u0641\u0650\u0631\u064f \u0627\u0644\u0630\u0651\u064f\u0646\u064f\u0648\u0652\u0628\u064e \u062c\u064e\u0645\u0650\u064a\u0652\u0639\u064b\u0627 \u0641\u064e\u0627\u0633\u0652\u062a\u064e\u063a\u0652\u0641\u0650\u0631\u064f\u0648\u0652\u0646\u0650\u064a\u0652 \u0623\u064e\u063a\u0652\u0641\u0650\u0631\u0652 \u0644\u064e\u0643\u064f\u0645\u0652\u060c \u064a\u064e\u0627 \u0639\u0650\u0628\u064e\u0627\u062f\u0650\u064a\u0652 \u0625\u0650\u0646\u0651\u064e\u0643\u064f\u0645\u0652 \u0644\u064e\u0646\u0652 \u062a\u064e\u0628\u0652\u0644\u064f\u063a\u064f\u0648\u0652\u0627 \u0636\u064f\u0631\u0651\u0650\u064a\u0652 \u0641\u064e\u062a\u064e\u0636\u064f\u0631\u0651\u064f\u0648\u0652\u0646\u0650\u064a\u0652 \u0648\u064e\u0644\u064e\u0646\u0652 \u062a\u064e\u0628\u0652\u0644\u064f\u063a\u064f\u0648\u0652\u0627 \u0646\u064e\u0641\u0652\u0639\u0650\u064a\u0652 \u0641\u064e\u062a\u064e\u0646\u0652\u0641\u064e\u0639\u064f\u0648\u0652\u0646\u0650\u064a\u060c \u064a\u064e\u0627 \u0639\u0650\u0628\u064e\u0627\u062f\u0650\u064a\u0652 \u0644\u064e\u0648\u0652 \u0623\u064e\u0646\u0651\u064e \u0623\u064e\u0648\u0651\u064e\u0644\u064e\u0643\u064f\u0645\u0652 \u0648\u064e\u0627\u0670\u062e\u0650\u0631\u064e\u0643\u064f\u0645\u0652 \u0648\u064e\u0625\u0650\u0646\u0652\u0633\u064e\u0643\u064f\u0645\u0652 \u0648\u064e\u062c\u0650\u0646\u0651\u064e\u0643\u064f\u0645\u0652 \u0643\u064e\u0627\u0646\u064f\u0648\u0652\u0627 \u0639\u064e\u0644\u064e\u0649 \u0623\u064e\u062a\u0652\u0642\u0670\u0649 \u0642\u064e\u0644\u0652\u0628\u0650 \u0631\u064e\u062c\u064f\u0644\u064d \u0648\u064e\u0627\u062d\u0650\u062f\u064d \u0645\u0650\u0646\u0652\u0643\u064f\u0645\u0652 \u0645\u064e\u0627 \u0632\u064e\u0627\u062f\u064e \u0630\u0670\u0644\u0650\u0643\u064e \u0641\u0650\u064a \u0645\u064f\u0644\u0652\u0643\u0650\u064a\u0652 \u0634\u064e\u064a\u0652\u0626\u064b\u0627\u060c \u064a\u064e\u0627 \u0639\u0650\u0628\u064e\u0627\u062f\u0650\u064a\u0652 \u0644\u064e\u0648\u0652 \u0623\u064e\u0646\u0651\u064e \u0623\u064e\u0648\u0651\u064e\u0644\u064e\u0643\u064f\u0645\u0652 \u0648\u064e\u0627\u0670\u062e\u0650\u0631\u064e\u0643\u064f\u0645\u0652 \u0648\u064e\u0625\u0650\u0646\u0652\u0633\u064e\u0643\u064f\u0645\u0652 \u0648\u064e\u062c\u0650\u0646\u0651\u064e\u0643\u064f\u0645\u0652 \u0643\u064e\u0627\u0646\u064f\u0648\u0652\u0627 \u0639\u064e\u0644\u064e\u0649 \u0623\u064e\u0641\u0652\u062c\u064e\u0631\u0650 \u0642\u064e\u0644\u0652\u0628\u0650 \u0631\u064e\u062c\u064f\u0644\u064d \u0648\u064e\u0627\u062d\u0650\u062f\u064d \u0645\u0650\u0646\u0652\u0643\u064f\u0645\u0652 \u0645\u064e\u0627 \u0646\u064e\u0642\u064e\u0635\u064e \u0630\u0670\u0644\u0650\u0643\u064e \u0645\u0650\u0646\u0652 \u0645\u064f\u0644\u0652\u0643\u0650\u064a\u0652 \u0634\u064e\u064a\u0652\u0626\u064b\u0627\u060c \u064a\u064e\u0627 \u0639\u0650\u0628\u064e\u0627\u062f\u0650\u064a\u0652 \u0644\u064e\u0648\u0652 \u0623\u064e\u0646\u0651\u064e \u0623\u064e\u0648\u0651\u064e\u0644\u064e\u0643\u064f\u0645\u0652 \u0648\u064e\u0627\u0670\u062e\u0650\u0631\u064e\u0643\u064f\u0645\u0652 \u0648\u064e\u0625\u0650\u0646\u0652\u0633\u064e\u0643\u064f\u0645\u0652 \u0648\u064e\u062c\u0650\u0646\u0651\u064e\u0643\u064f\u0645\u0652 \u0643\u064e\u0627\u0646\u064f\u0648\u0652\u0627 \u0642\u064e\u0627\u0645\u064f\u0648\u0652\u0627 \u0641\u0650\u064a\u0652 \u0635\u064e\u0639\u0650\u064a\u0652\u062f\u064d \u0648\u064e\u0627\u062d\u0650\u062f\u064d \u0641\u064e\u0633\u064e\u0623\u064e\u0644\u064f\u0648\u0652\u0646\u0650\u064a\u0652 \u0641\u064e\u0623\u064e\u0639\u0652\u0637\u064e\u064a\u0652\u062a\u064f \u0643\u064f\u0644\u0651\u064e \u0648\u064e\u0627\u062d\u0650\u062f\u064d \u0645\u064e\u0633\u0652\u0623\u064e\u0644\u064e\u062a\u064e\u0647\u064f \u0645\u0627\u064e \u0646\u064e\u0642\u064e\u0635\u064e \u0630\u0670\u0644\u0650\u0643\u064e \u0645\u0650\u0645\u0651\u064e\u0627 \u0639\u0650\u0646\u0652\u062f\u0650\u064a\u0652 \u0625\u0650\u0644\u0627\u0651\u064e \u0643\u064e\u0645\u064e\u0627 \u064a\u064e\u0646\u0652\u0642\u064f\u0635\u064f \u0627\u0644\u0652\u0645\u064f\u062e\u0650\u064a\u0652\u0637\u064f \u0625\u0650\u0630\u064e\u0627 \u0623\u064f\u062f\u0652\u062e\u0650\u0644\u064e \u0627\u0644\u0652\u0628\u064e\u062d\u0652\u0631\u064e\u060c \u064a\u064e\u0627 \u0639\u0650\u0628\u064e\u0627\u062f\u0650\u064a\u0652 \u0625\u0650\u0646\u0651\u064e\u0645\u064e\u0627 \u0647\u0650\u064a\u064e \u0623\u064e\u0639\u0652\u0645\u064e\u0627\u0644\u064f\u0643\u064f\u0645\u0652 \u0623\u064f\u062d\u0652\u0635\u0650\u064a\u0652\u0647\u064e\u0627 \u0644\u064e\u0643\u064f\u0645\u0652 \u062b\u064f\u0645\u0651\u064e \u0623\u064f\u0648\u0652\u0641\u0650\u064a\u0652\u0643\u064f\u0645\u0652 \u0625\u0650\u064a\u0651\u064e\u0627\u0647\u064e\u0627 \u0641\u064e\u0645\u064e\u0646\u0652 \u0648\u064e\u062c\u064e\u062f\u064e \u062e\u064e\u064a\u0652\u0631\u064b\u0627 \u0641\u064e\u0644\u0652\u064a\u064e\u062d\u0652\u0645\u064e\u062f\u0650 \u0627\u0644\u0644\u0647 \u064e\u0648\u064e\u0645\u064e\u0646\u0652 \u0648\u064e\u062c\u064e\u062f\u064e \u063a\u064e\u064a\u0652\u0631\u064e \u0630\u0670\u0644\u0650\u0643\u064e \u0641\u064e\u0644\u0627\u064e \u064a\u064e\u0644\u064f\u0648\u0652\u0645\u064e\u0646\u0651\u064e \u0625\u0650\u0644\u0627\u0651\u064e \u0646\u064e\u0641\u0652\u0633\u064e\u0647\u064f (\u0631\u0648\u0627\u0647 \u0623\u062d\u0645\u062f \u0648\u0645\u0633\u0644\u0645 \u0648\u0627\u0644\u062a\u0631\u0645\u0630\u064a \u0648\u0627\u0628\u0646 \u0645\u0627\u062c\u0647 \u0639\u0646 \u0623\u0628\u064a \u0630\u0631)\nArtinya: \nHai hamba-hamba-Ku, Aku mengharamkan terhadap diriku berbuat zalim, dan Aku jadikan perbuatan zalim itu haram pula di antara kamu, maka janganlah kamu melakukan kezaliman terhadap sesamamu. Hai hamba-hamba-Ku, semua kamu berada dalam kesesatan kecuali orang-orang yang telah Aku beri petunjuk, maka mintalah selalu petunjuk-Ku tentu Aku akan menunjukimu. Hai hamba-hamba-Ku, semua kamu lapar kecuali orang-orang yang Aku beri makanan maka mintalah kepada-Ku makanan niscaya Aku akan memberimu makanan. Hai hamba-hamba-Ku, kamu semua dalam keadaan telanjang kecuali orang-orang yang telah Aku beri pakaian, maka mintalah kepada-Ku niscaya akan Aku berikan pakaian. Hai hamba-hamba-Ku, kamu senantiasa melakukan kesalahan pada siang dan malam sedang Aku mengampuni semua dosa, maka mintalah ampun kepada-Ku, niscaya Aku akan mengampuni. Hai hamba-hambaKu, kamu sekali-kali tidak akan memberi mudarat kepada-Ku sehingga Aku mendapat mudarat karenamu dan kamu sekali-kali tidak akan memberikan manfaat kepada-Ku, sehingga Aku mendapat manfaat karenamu. Hai hamba-hamba-Ku, andaikata orang-orang dahulu, orang-orang yang kemudian, manusia dan jin semuanya sangat bertakwa kepada-Ku, maka hal itu tidak akan menambah apa-apa kepada kerajaan-Ku. Hai hamba-hamba-Ku, sekiranya orang-orang dahulu, orang-orang yang kemudian, manusia dan jin semuanya bersifat jahat maka hal itu tidak akan mengurangi sesuatu apapun dari kerajaan-Ku. Hai hamba-hamba-Ku, andaikata orang-orang dahulu, orang-orang kemudian, jin dan manusia berada pada suatu tempat, lalu mereka meminta kepada-Ku dan Aku kabulkan semua permintaan itu, maka hal itu tidak akan mengurangi sedikitpun perbendaharaan yang ada pada-Ku, kecuali seperti jarum licin mengurangi air lautan bila dimasukkan ke dalamnya (dan diangkat kembali). Hai hamba-hamba-Ku, sesungguhnya Aku mencatat semua amalan kamu dan akan Kubalasi dengan sempurna, maka barang siapa mendapat balasan yang baik, hendaklah ia memuji Allah, dan barang siapa mendapat balasan yang buruk, maka janganlah ia mencela, kecuali dirinya sendiri. (Riwayat A\u1e25mad, Muslim, at-Tirmi\u1e93\u012b dan Ibnu M\u0101jah dari Ab\u016b \u017bar)\nDemikianlah sebagian kekayaan Allah. Adapun rahmat dan karunia-Nya yang amat luas dan tidak terhingga, dapat dilihat pada kenyataan alam semesta, ciptaan-Nya dan tidak seorang pun yang dapat mengingkarinya. Dalam sebuah hadis yang diriwayatkan dari Abu Hurairah diterangkan bahwa Rasulullah saw bersabda: \n\u062c\u064e\u0639\u064e\u0644\u064e \u0627\u0644\u0644\u0647 \u064f\u0627\u0644\u0631\u0651\u064e\u062d\u0652\u0645\u064e\u0629\u064e \u0641\u0650\u064a\u0652 \u0645\u0650\u0627\u0626\u064e\u0629\u0650 \u062c\u064f\u0632\u0652\u0621\u064d \u0641\u064e\u0623\u064e\u0645\u0652\u0633\u064e\u0643\u064e \u0639\u0650\u0646\u0652\u062f\u064e\u0647\u064f \u062a\u0650\u0633\u0652\u0639\u064e\u0629\u064b \u0648\u064e\u062a\u0650\u0633\u0652\u0639\u0650\u064a\u0652\u0646\u064e \u062c\u064f\u0632\u0652\u0621\u064b\u0627. \u0648\u064e\u0623\u064e\u0646\u0652\u0632\u064e\u0644\u064e \u0641\u0650\u0649 \u0627\u0652\u0644\u0623\u064e\u0631\u0652\u0636\u0650 \u062c\u064f\u0632\u0652\u0621\u064b\u0627 \u0648\u064e\u0627\u062d\u0650\u062f\u064b\u0627 \u0641\u064e\u0645\u0650\u0646\u0652 \u0630\u0670\u0644\u0650\u0643\u064e \u0627\u0644\u0652\u062c\u064f\u0632\u0652\u0621\u0650 \u064a\u064e\u062a\u064e\u0631\u064e\u0627\u062d\u064e\u0645\u064f \u0627\u0644\u0652\u062e\u064e\u0644\u0652\u0642\u064f \u062d\u064e\u062a\u0651\u064e\u0649 \u062a\u064e\u0631\u0652\u0641\u064e\u0639\u064e \u0627\u0644\u0652\u0641\u064e\u0631\u064e\u0633\u064f \u062d\u064e\u0627\u0641\u0650\u0631\u064e\u0647\u064e\u0627 \u0639\u064e\u0646\u0652 \u0648\u064e\u0644\u064e\u062f\u0650\u0647\u064e\u0627 \u062e\u064e\u0634\u0652\u064a\u064e\u0629\u064b \u0623\u064e\u0646\u0652 \u064a\u064f\u0635\u0650\u064a\u0652\u0628\u064e\u0647\u064f (\u0631\u0648\u0627\u0647 \u0627\u0644\u0628\u062e\u0627\u0631\u064a \u0648\u0645\u0633\u0644\u0645 \u0639\u0646 \u0623\u0628\u064a \u0647\u0631\u064a\u0631\u0629)\n\u201cAllah membagi rahmat-Nya menjadi seratus bagian. Maka yang sembilan puluh sembilan bagian ditahan-Nya di sisi-Nya dan yang satu bagian diturunkan-Nya ke bumi. Dari rahmat yang satu bagian itulah semua makhluk sayang menyayangi, sehingga seekor kuda akan mengangkat telapak kakinya karena takut anaknya terinjak olehnya\u201d. (Riwayat al-Bukh\u0101r\u012b dan Muslim dari Abu Hurairah)\nAllah Yang Mahakaya, Mahaluas rahmat-Nya mengharamkan bagi diri-Nya sifat aniaya, jika Allah bertindak menimpakan siksa kepada hamba-Nya yang durhaka maka tindakan-Nya itu tidaklah bertentangan dengan sifat-sifat tersebut. Maka dengan ayat ini Allah menegaskan kepada musuh-musuh Nabi Muhammad bahwa jika Allah menghendaki, Dia pasti dapat membinasakan mereka dan mengganti mereka dengan kaum lain yang diciptakan-Nya sebagaimana Dia menciptakan mereka dari keturunan yang lain. Janji Allah terbukti dengan binasanya musuh-musuh Nabi Muhammad dalam Perang Badar, sehingga pada akhirnya tidak ada lagi kaum musyrik di Mekah. Mereka digantikan oleh orang-orang yang beriman dan bertakwa, berjuang meninggikan kalimat Allah dengan jiwa raga dan harta benda mereka. Meskipun dalam mempertahankan kebenaran mereka terpaksa mengangkat senjata dan memasuki medan pertempuran tetapi dalam setiap pertempuran itu mereka menjadi teladan dalam sikap santun dalam memperlakukan musuh-musuh mereka, sehingga para ahli sejarah barat mengakui bahwa tidak ada suatu bangsa yang tidak menaklukkan bangsa lain dengan penuh rasa keadilan dan kasih sayang seperti bangsa Arab yang telah beragama Islam.",
        "intro_surah": "Surah yang ke-6, al-An\u2018\u0101m yang berarti hewan ternak terdiri atas 165 ayat. Surah ini termasuk golongan Surah Makiyah. Dinamai al-An\u2018\u0101m (hewan ternak) karena surah ini banyak menerangkan hukum-hukum yang berhubungan dengan hewan ternak dan juga hubungan hewan tersebut dengan adat istiadat serta kepercayaan orang-orang musyrik. Menurut kepercayaan mereka, hewan tersebut dapat disembelih sebagai kurban untuk mendekatkan diri kepada sembahan mereka. Allah memulai surah ini dengan \u201cAlhamdulill\u0101h\u201d. Surah-surah lain yang juga diawali dengan lafaz \u201cAlhamdulill\u0101h\u201d ialah Surah al-Kahf/18, Surah Saba\u2019/34 dan Surah F\u0101\u1e6dir/35.\nSemua Surah Makiyah berisi seruan kepada keimanan, agama tauhid, dan menegaskan batalnya kepercayaan syirik. Banyak hadis yang meriwayatkan bahwa Surah al-An\u2018\u0101m/6 ini diturunkan sekaligus, disebabkan isinya yang antara lain mengandung dalil-dalil ketauhidan, keadilan, kenabian, hari Kiamat dan bantahan terhadap il\u1e25\u0101d (atheisme).\n\nPOKOK-POKOK ISINYA\n1.\tKeimanan\nBukti-bukti keesaan Allah serta kesempurnaan sifat-sifat-Nya; tentang kenabian Muhammad; penegasan Allah atas kenabian Ibrahim, Ishak, Ya\u2019kub, Nuh, Daud, Sulaiman, Ayyub, Yusuf, Musa, Harun, Zakaria, Yahya, Isa, Ilyas, Alyasa\u2019, Yunus, Lu\u1e6d; penegasan tentang adanya risalah dan wahyu serta hari pembalasan dan hari kebangkitan; sesatnya kepercayaan orang musyrik dan keingkaran mereka terhadap hari Kiamat.\n2.\tBeberapa Hukum\nLarangan mengikuti adat istiadat yang dibuat-buat oleh kaum jahiliah; makanan yang halal dan yang haram; sepuluh wasiat dalam Al-Qur\u2019an; tauhid, keadilan dan hukum; dan larangan mencaci maki berhala.\n3.\tKisah\nKisah umat-umat terdahulu yang menentang rasul-rasul; kisah pengalaman Nabi Muhammad dan para nabi; dan cerita Nabi Ibrahim membimbing kaumnya kepada agama tauhid.\n4.\tLain-lain\nSikap keras kepala kaum musyrik; cara nabi memimpin umatnya; bidang-bidang kerasulan dan tugas-tugasnya. Tantangan kaum musyrik untuk melemahkan rasul; kepercayaan orang-orang musyrik terhadap jin, setan dan malaikat; beberapa prinsip keagamaan dan kemasyarakatan; dan lain-lain.",
        "outro_surah": null,
        "munasabah_prev_surah": "HUBUNGAN SURAH AL-M\u0100\u2019IDAH \nDENGAN SURAH AL-An\u2018\u0101m\n\nPada akhir Surah al-M\u0101\u2019idah/5, beberapa kali Allah menegaskan bahwa Nabi Isa dan ibunya bukanlah tuhan sebagaimana anggapan banyak orang Nasrani di Najran. Nabi Isa adalah seperti rasul-rasul yang lain yang bertugas mengajak Bani Israil untuk mengesakan Allah dan menaati perintah-perintah-Nya. Maka pada Surah al-An\u2018\u0101m/6, Allah menjelaskan kekuasaan-Nya dalam penciptaan langit, bumi dan semua isinya, termasuk manusia. Allah juga memberi petunjuk kepada manusia untuk memilih jalan yang terang, yaitu cahaya keimanan, serta meninggalkan jalan yang sesat, yaitu jalan kegelapan.\n\nPada akhir Surah al-M\u0101\u2019idah/5 ditegaskan bahwa milik Allahlah kerajaan langit dan bumi dan segala apa yang terdapat di dalamnya, Dia Mahakuasa atas segala sesuatu. Pada ayat awal surah ini, al-An\u2018\u0101m/6, Allah menegaskan pula bahwa segala puji adalah milik-Nya yang menciptakan seluruh jagat raya beserta segala isinya, dan Dia pula yang menjadikan gelap dan terang dalam kehidupan manusia.",
        "munasabah_prev_theme": "Pada ayat-ayat yang lalu diterangkan bahwa di antara sunah dan ketetapan Allah ialah menjadikan golongan-golongan yang jahat di antara manusia dan jin cenderung untuk bersekutu dan bekerja sama dalam melakukan kejahatan terhadap golongan lain yang dianggap lemah dan tidak berdaya. Diterangkan pula bagaimana nasib mereka di akhirat nanti ketika menghadapi pengadilan Tuhan. \nPada ayat-ayat ini Allah menguatkan keterangan di atas dengan menjelaskan bahwa di antara siksa yang ditimpakan kepada kaum yang zalim ialah memusnahkan mereka dan menggantinya dengan kaum yang lain, dan memastikan bahwa siksa yang diancamkan-Nya kepada kaum yang zalim itu benar-benar akan terlaksana. Kemudian Allah menganjurkan kepada Nabi Muhammad untuk bekerja menurut keinginan dan kemauannya.",
        "theme_group": "ALLAH MAHAKAYA DAN MAHALUAS RAHMATNYA",
        "kosakata": "Kosakata: Mak\u0101natikum \u0645\u064e\u0643\u064e\u0627\u0646\u064e\u062a\u0650\u0643\u064f\u0645\u0652    (al-An\u2018\u0101m/6: 135)\nBisa berupa ma\u1e63dar dari fi\u2019il m\u0101\u1e0d\u012b makkana \u2013 mumakanatan, yang artinya betul-betul mantap, bisa juga berarti sama dengan kata al-Makan, seperti juga Maq\u0101m dan Maq\u0101mah yang berarti tempat. Atas dasar ini maka arti ayat di atas bisa berarti kerjakanlah sepenuh kesanggupanmu, atau kerjakanlah sesuai dengan  keadaanmu sekarang. ",
        "sabab_nuzul": null,
        "conclusion": null
    }
}