{
    "id": 893,
    "surah_id": 6,
    "ayah": 104,
    "page": 141,
    "quarter_hizb": 14.75,
    "juz": 7,
    "manzil": 2,
    "arabic": "\u0642\u064e\u062f\u0652 \u062c\u064e\u0627\u06e4\u0621\u064e\u0643\u064f\u0645\u0652 \u0628\u064e\u0635\u064e\u0627\u06e4\u0649\u0655\u0650\u0631\u064f \u0645\u0650\u0646\u0652 \u0631\u0651\u064e\u0628\u0651\u0650\u0643\u064f\u0645\u0652\u06da \u0641\u064e\u0645\u064e\u0646\u0652 \u0627\u064e\u0628\u0652\u0635\u064e\u0631\u064e \u0641\u064e\u0644\u0650\u0646\u064e\u0641\u0652\u0633\u0650\u0647\u0656\u06da \u0648\u064e\u0645\u064e\u0646\u0652 \u0639\u064e\u0645\u0650\u064a\u064e \u0641\u064e\u0639\u064e\u0644\u064e\u064a\u0652\u0647\u064e\u0627\u06d7 \u0648\u064e\u0645\u064e\u0627\u0653 \u0627\u064e\u0646\u064e\u0627\u06e0 \u0639\u064e\u0644\u064e\u064a\u0652\u0643\u064f\u0645\u0652 \u0628\u0650\u062d\u064e\u0641\u0650\u064a\u0652\u0638\u064d  ",
    "latin": "Qad j\u0101'akum ba\u1e63\u0101'iru mir rabbikum, faman ab\u1e63ara fa linafsih(\u012b), wa man \u2018amiya fa \u2018alaih\u0101, wa m\u0101 ana \u2018alaikum bi\u1e25af\u012b\u1e93(in).",
    "translation": "Sungguh, telah datang kepadamu bukti-bukti yang nyata dari Tuhanmu. Siapa yang melihat (bukti-bukti itu),256) maka (manfaatnya) bagi dirinya sendiri dan siapa yang buta (tidak melihat bukti-bukti itu), maka (akibat buruknya) bagi dirinya sendiri, sedangkan aku (Nabi Muhammad) bukanlah pengawas(-mu).",
    "no_footnote": "256",
    "footnotes": "256) Siapa yang mengetahui kebenaran dan mengerjakan kebajikan serta memperoleh petunjuk, dia telah mencapai puncak kebahagiaan.",
    "surah": {
        "id": 6,
        "arabic": " \u0627\u0644\u0627\u0646\u0639\u0627\u0645",
        "latin": "Al-An\u2018\u0101m ",
        "transliteration": "Al-An\u2018am",
        "translation": "Binatang Ternak",
        "num_ayah": 165,
        "page": 128,
        "location": "Makkiyah"
    },
    "tafsir": {
        "wajiz": "Kemampuan penglihatan manusia amat terbatas seperti diisyaratkan oleh ayat sebelum ini. Namun demikian, manusia dianugerahi oleh Allah dengan mata batin. Ayat ini menegaskan bahwa sungguh, bukti-bukti yang nyata dan sangat jelas telah datang dari Tuhanmu yang disampaikan melalui wahyu. Barang siapa melihat kebenaran itu dengan mata hatinya, maka manfaatnya bagi dirinya sendiri, bukan untuk orang lain, dan barang siapa buta mata batinnya dan tidak melihat kebenaran itu, maka dia sendiri-lah yang akan rugi, bukan orang lain. Dan aku, yakni Nabi Muhammad, bukanlah penjaga-mu, tetapi aku hanya sekadar menyampaikan nasihat.",
        "tahlili": "Allah menjelaskan kepada kaum Muslimin bahwasanya tanda-tanda bukti kebenaran dan dalil-dalil yang kuat telah datang kepada mereka dari-Nya. Tanda-tanda bukti kebenaran dan dalil-dalil yang kuat itu dapat diketahui oleh mereka baik berupa tanda-tanda kekuasaan Allah di jagat raya maupun petunjuk Allah yang diberikan kepada mereka dengan perantaraan Nabi Muhammad berupa wahyu. Kedua bukti itu dapat memperkuat keyakinan mereka tentang adanya Allah. Sesudah itu Allah menandaskan bahwa barang siapa yang dapat melihat kebenaran dengan jalan memperhatikan kedua bukti itu, dan meyakini adanya Allah serta melakukan amal yang baik, maka manfaat dari semuanya itu adalah untuk dirinya sendiri. Akan tetapi sebaliknya barang siapa yang tidak mau melihat kebenaran atau berpura-pura tidak mengerti, maka akibat buruk dari sikapnya itu akan menimpa dirinya sendiri.\nAllah berfirman:\n\u0645\u064e\u0646\u0652 \u0639\u064e\u0645\u0650\u0644\u064e \u0635\u064e\u0627\u0644\u0650\u062d\u064b\u0627 \u0641\u064e\u0644\u0650\u0646\u064e\u0641\u0652\u0633\u0650\u0647\u0656 \u0648\u064e\u0645\u064e\u0646\u0652 \u0627\u064e\u0633\u064e\u0627\u06e4\u0621\u064e \u0641\u064e\u0639\u064e\u0644\u064e\u064a\u0652\u0647\u064e\u0627\nBarang siapa mengerjakan kebajikan maka (pahalanya) untuk dirinya sendiri dan barang siapa berbuat jahat maka (dosanya) menjadi tanggungan dirinya sendiri. (Fu\u1e63\u1e63ilat/41: 46. Perhatikan pula Fu\u1e63\u1e63ilat/41: 46).\n\nDi akhir ayat ini Allah memerintahkan Nabi Muhammad untuk mengatakan kepada kaumnya bahwa Muhammad sekali-kali bukanlah pemelihara mereka, yakni Nabi Muhammad sekali-kali tidak ditugaskan mengawasi amal-amal mereka dan tidak dapat membuat mereka menjadi mukmin. Dia hanyalah seorang utusan Allah yang ditugaskan untuk menyampaikan wahyu yang telah diterimanya. Sebenarnya yang mengawasi amal mereka ialah Allah. Dia mempunyai pengawasan yang tak terbatas terhadap semua amal mereka baik yang mereka lakukan secara terang-terangan ataupun yang mereka lakukan secara sembunyi-sembunyi. Semua amal itu akan diberi balasan yang setimpal.",
        "intro_surah": "Surah yang ke-6, al-An\u2018\u0101m yang berarti hewan ternak terdiri atas 165 ayat. Surah ini termasuk golongan Surah Makiyah. Dinamai al-An\u2018\u0101m (hewan ternak) karena surah ini banyak menerangkan hukum-hukum yang berhubungan dengan hewan ternak dan juga hubungan hewan tersebut dengan adat istiadat serta kepercayaan orang-orang musyrik. Menurut kepercayaan mereka, hewan tersebut dapat disembelih sebagai kurban untuk mendekatkan diri kepada sembahan mereka. Allah memulai surah ini dengan \u201cAlhamdulill\u0101h\u201d. Surah-surah lain yang juga diawali dengan lafaz \u201cAlhamdulill\u0101h\u201d ialah Surah al-Kahf/18, Surah Saba\u2019/34 dan Surah F\u0101\u1e6dir/35.\nSemua Surah Makiyah berisi seruan kepada keimanan, agama tauhid, dan menegaskan batalnya kepercayaan syirik. Banyak hadis yang meriwayatkan bahwa Surah al-An\u2018\u0101m/6 ini diturunkan sekaligus, disebabkan isinya yang antara lain mengandung dalil-dalil ketauhidan, keadilan, kenabian, hari Kiamat dan bantahan terhadap il\u1e25\u0101d (atheisme).\n\nPOKOK-POKOK ISINYA\n1.\tKeimanan\nBukti-bukti keesaan Allah serta kesempurnaan sifat-sifat-Nya; tentang kenabian Muhammad; penegasan Allah atas kenabian Ibrahim, Ishak, Ya\u2019kub, Nuh, Daud, Sulaiman, Ayyub, Yusuf, Musa, Harun, Zakaria, Yahya, Isa, Ilyas, Alyasa\u2019, Yunus, Lu\u1e6d; penegasan tentang adanya risalah dan wahyu serta hari pembalasan dan hari kebangkitan; sesatnya kepercayaan orang musyrik dan keingkaran mereka terhadap hari Kiamat.\n2.\tBeberapa Hukum\nLarangan mengikuti adat istiadat yang dibuat-buat oleh kaum jahiliah; makanan yang halal dan yang haram; sepuluh wasiat dalam Al-Qur\u2019an; tauhid, keadilan dan hukum; dan larangan mencaci maki berhala.\n3.\tKisah\nKisah umat-umat terdahulu yang menentang rasul-rasul; kisah pengalaman Nabi Muhammad dan para nabi; dan cerita Nabi Ibrahim membimbing kaumnya kepada agama tauhid.\n4.\tLain-lain\nSikap keras kepala kaum musyrik; cara nabi memimpin umatnya; bidang-bidang kerasulan dan tugas-tugasnya. Tantangan kaum musyrik untuk melemahkan rasul; kepercayaan orang-orang musyrik terhadap jin, setan dan malaikat; beberapa prinsip keagamaan dan kemasyarakatan; dan lain-lain.",
        "outro_surah": null,
        "munasabah_prev_surah": "HUBUNGAN SURAH AL-M\u0100\u2019IDAH \nDENGAN SURAH AL-An\u2018\u0101m\n\nPada akhir Surah al-M\u0101\u2019idah/5, beberapa kali Allah menegaskan bahwa Nabi Isa dan ibunya bukanlah tuhan sebagaimana anggapan banyak orang Nasrani di Najran. Nabi Isa adalah seperti rasul-rasul yang lain yang bertugas mengajak Bani Israil untuk mengesakan Allah dan menaati perintah-perintah-Nya. Maka pada Surah al-An\u2018\u0101m/6, Allah menjelaskan kekuasaan-Nya dalam penciptaan langit, bumi dan semua isinya, termasuk manusia. Allah juga memberi petunjuk kepada manusia untuk memilih jalan yang terang, yaitu cahaya keimanan, serta meninggalkan jalan yang sesat, yaitu jalan kegelapan.\n\nPada akhir Surah al-M\u0101\u2019idah/5 ditegaskan bahwa milik Allahlah kerajaan langit dan bumi dan segala apa yang terdapat di dalamnya, Dia Mahakuasa atas segala sesuatu. Pada ayat awal surah ini, al-An\u2018\u0101m/6, Allah menegaskan pula bahwa segala puji adalah milik-Nya yang menciptakan seluruh jagat raya beserta segala isinya, dan Dia pula yang menjadikan gelap dan terang dalam kehidupan manusia.",
        "munasabah_prev_theme": "Dalam ayat-ayat yang lalu Allah menunjukkan bukti keesaan-Nya dengan menerangkan sifat-sifat dan kejadian makhluk-Nya yang ada di langit ataupun di bumi. Dalam ayat-ayat ini Allah menerangkan bentuk-bentuk penyelewengan manusia. Di antara mereka ada yang menjadikan jin sebagai sekutu bagi Allah dan ada yang beranggapan bahwa Allah mempunyai putera.",
        "theme_group": "SYIRIK ADALAH PENYELEWENGAN DARI FITRAH",
        "kosakata": "1. Kharaq\u016b   \u062e\u064e\u0631\u064e\u0642\u064f\u0648\u0652\u0627(al-An\u2018\u0101m/6: 100)\nArtinya mereka telah berbohong atau melakukan kebohongan. Kata dasarnya adalah  ( \u062e- \u0631- \u0642 )  yang berarti memotong  sesuatu  dengan tujuan merusak tanpa dipikir terlebih dahulu. Hal ini berbeda dengan kata (\u062e- \u0644- \u0642) yang menunjukkan arti melakukan sesuatu dengan perkiraan yang cermat, pelan-pelan,  dengan tujuan baik. Ungkapan kharaqa a\u1e61-\u1e61auba artinya dia merobek pakaian. Pekerjaan merobek adalah pekerjaan yang tidak beraturan. Dari arti kata dasar ini maka muncul arti  kebohongan, karena kaum musyrik melakukan sesuatu yang bersifat merusak tentang akidah terhadap Allah seperti perkataan mereka, \u201cAllah mempunyai anak lelaki dan perempuan.\u201d \n2. Bad\u012b\u2019  \u0628\u064e\u062f\u0650\u064a\u0639\u064f(al-An\u2018\u0101m/6: 101)\nAkar katanya (\u0628- \u062f- \u0639) artinya berkisar pada dua hal yaitu pertama, membuat sesuatu tanpa ada contoh sebelumnya. Kedua, keterputusan atau ketumpulan, keletihan, dan lesu.  Kata  bid\u2019ah juga mempunyai arti semisal yaitu suatu perbuatan yang tidak ada contoh  sebelumnya dari Nabi Muhammad. Allah menciptakan langit dan bumi tanpa meniru dan mencontoh  yang lain.  \n3. Darasta  \u062f\u064e\u0631\u064e\u0633\u0652\u062a\u064e(al-An\u2018\u0101m/6: 105)\nPada kalimat ini ada tiga bacaan, yaitu darasta, d\u0101rasta dan darasat. Bacaan pertama berarti kamu telah mempelajari (Al-Qur\u2019an dari orang lain). Bacaan kedua berarti kamu saling mengajarkan. Artinya kamu membacakan kepada ahli kitab dan mereka membacakannya kepada kamu. Bacaan ketiga berarti berita-berita yang telah kamu (Muhammad) bacakan kepada kami  telah kuno sehingga telah hilang dari peredaran dan sirna.  Arti umum dari kata (\u062f- \u0631- \u0633) ialah melakukan sesuatu berulangkali sehingga hal tersebut menjadi hilang/sirna atau mencapai puncaknya. Pakaian yang dipakai terus menerus lalu  rusak disebut daris. Ungkapan darasa al-kitab artinya dia membacanya berulang kali sehingga  membekas di otak dan dihapal.",
        "sabab_nuzul": null,
        "conclusion": null
    }
}