{
    "id": 936,
    "surah_id": 6,
    "ayah": 147,
    "page": 148,
    "quarter_hizb": 15.5,
    "juz": 8,
    "manzil": 2,
    "arabic": "\u0641\u064e\u0627\u0650\u0646\u0652 \u0643\u064e\u0630\u0651\u064e\u0628\u064f\u0648\u0652\u0643\u064e \u0641\u064e\u0642\u064f\u0644\u0652 \u0631\u0651\u064e\u0628\u0651\u064f\u0643\u064f\u0645\u0652 \u0630\u064f\u0648\u0652 \u0631\u064e\u062d\u0652\u0645\u064e\u0629\u064d \u0648\u0651\u064e\u0627\u0633\u0650\u0639\u064e\u0629\u064d\u06da \u0648\u064e\u0644\u064e\u0627 \u064a\u064f\u0631\u064e\u062f\u0651\u064f \u0628\u064e\u0623\u0652\u0633\u064f\u0647\u0657 \u0639\u064e\u0646\u0650 \u0627\u0644\u0652\u0642\u064e\u0648\u0652\u0645\u0650 \u0627\u0644\u0652\u0645\u064f\u062c\u0652\u0631\u0650\u0645\u0650\u064a\u0652\u0646\u064e ",
    "latin": "Fa in ka\u017c\u017cab\u016bka faqur rabbukum \u017c\u016b ra\u1e25matiw w\u0101si\u2018ah(tin), wa l\u0101 yuraddu ba'suh\u016b \u2018anil-qaumil-mujrim\u012bn(a).",
    "translation": "Maka, jika mereka mendustakanmu, katakanlah, \u201cTuhanmu mempunyai rahmat yang luas dan siksa-Nya tidak dapat dielakkan dari orang-orang yang berdosa.\u201d",
    "no_footnote": null,
    "footnotes": null,
    "surah": {
        "id": 6,
        "arabic": " \u0627\u0644\u0627\u0646\u0639\u0627\u0645",
        "latin": "Al-An\u2018\u0101m ",
        "transliteration": "Al-An\u2018am",
        "translation": "Binatang Ternak",
        "num_ayah": 165,
        "page": 128,
        "location": "Makkiyah"
    },
    "tafsir": {
        "wajiz": "Maka jika mereka mendustakan kebenaran mengenai makanan yang halal dan haram yang telah kamu jelaskan, wahai Nabi Muhammad, katakanlah, \u201cDemikianlah ketetapan Tuhanmu yang mempunyai rahmat yang luas. Dan siksa yang dijatuhkan atau diberikan-Nya kepada orang-orang yang berdosa tidak dapat dielakkan.\u201d",
        "tahlili": "Pada ayat ini Allah memerintahkan kepada Nabi Muhammad, jika orang kafir itu mendustakan kebenaran yang dijelaskannya mengenai makanan yang halal dan haram, baik untuk kaum Muslimin maupun yang diharamkan khusus untuk kaum Yahudi, hendaklah Nabi saw, menjawab dengan mengatakan bahwa demikianlah ketetapan Allah Yang Maha Pemurah lagi Maha Penyayang, yang amat luas rahmat-Nya dan Mahabijaksana, yang tidak enggan menimpakan siksa-Nya kepada kaum yang durhaka.\nAyat ini menurut pendapat Mujahid dan as-Suddy ditujukan kepada orang-orang Yahudi, dan menurut pendapat sebagian ahli tafsir ditujukan kepada kaum musyrikin Mekah, karena Surah al-An\u2018\u0101m ini adalah surah Makkiyah. Menurut pendapat pertama maka maksud ayat ini adalah sebagai berikut: \nJika orang-orang Yahudi mendustakanmu, hai Muhammad, karena mereka menyangkal bahwa syariat yang diturunkan kepada mereka yang mengharamkan sebagian makanan sebagai balasan dan siksaan atas kedurhakaan mereka, maka katakanlah kepada mereka bahwa meskipun Allah Mahaluas rahmat-Nya dan Maha Pengasih terhadap hamba-Nya, tetapi hal ini tidak bertentangan dengan kebijaksanaan-Nya karena Dia sebagai Yang Mahakuasa, Mahabijaksana dan Mahaadil tetap akan menjatuhkan siksaan dan balasan-Nya kepada orang-orang yang zalim dan durhaka. Menimpakan siksaan kepada orang yang ingkar dan membangkang dapat dianggap sebagai tindakan kasih sayang, karena dengan demikian orang yang bersalah akan menginsafi kesalahannya dan kembali kepada yang benar. Dan mungkin juga sebagai pelajaran bagi siapa saja agar mereka jangan berbuat kezaliman seperti orang yang telah ditimpa azab Allah itu.\nMenurut pendapat kedua, dimana ayat ini ditujukan kepada musyrikin Mekah, maka pengertiannya adalah sebagai berikut: \nBila kaum musyrikin itu mendustakanmu tentang kesesatan mereka mengharamkan dan menghalalkan sesuatu, katakanlah kepada mereka bahwa Tuhanmu adalah Maha Pengasih dan amat luas rahmat-Nya, karena itu Dia tidak segan menimpakan siksa-Nya di dunia kepadamu atas kesesatan dan kesalahan itu. Maka janganlah kamu teperdaya karena hal itu hanya penangguhan untuk sementara bukan karena Dia tidak akan menyiksamu. Ini adalah ancaman yang keras terhadap mereka apabila mereka tetap membangkang dan tetap mengada-ada kebohongan terhadap Allah dengan mengharamkan apa yang dihalalkan Allah, namun harapan masih diberikan kepada mereka bahwa mereka akan diampuni dengan rahmat dan kasih sayang-Nya bila mereka menghentikan pembangkangan itu bertobat dan beriman kepada-Nya dan kepada Rasul-Nya. Dengan demikian mereka akan berbahagia di dunia dengan menikmati apa yang dihalalkan-Nya dan berbahagia pula di akhirat dengan terhindar dari masuk neraka dan masuk surga yang disediakan-Nya bagi orang-orang yang beriman.",
        "intro_surah": "Surah yang ke-6, al-An\u2018\u0101m yang berarti hewan ternak terdiri atas 165 ayat. Surah ini termasuk golongan Surah Makiyah. Dinamai al-An\u2018\u0101m (hewan ternak) karena surah ini banyak menerangkan hukum-hukum yang berhubungan dengan hewan ternak dan juga hubungan hewan tersebut dengan adat istiadat serta kepercayaan orang-orang musyrik. Menurut kepercayaan mereka, hewan tersebut dapat disembelih sebagai kurban untuk mendekatkan diri kepada sembahan mereka. Allah memulai surah ini dengan \u201cAlhamdulill\u0101h\u201d. Surah-surah lain yang juga diawali dengan lafaz \u201cAlhamdulill\u0101h\u201d ialah Surah al-Kahf/18, Surah Saba\u2019/34 dan Surah F\u0101\u1e6dir/35.\nSemua Surah Makiyah berisi seruan kepada keimanan, agama tauhid, dan menegaskan batalnya kepercayaan syirik. Banyak hadis yang meriwayatkan bahwa Surah al-An\u2018\u0101m/6 ini diturunkan sekaligus, disebabkan isinya yang antara lain mengandung dalil-dalil ketauhidan, keadilan, kenabian, hari Kiamat dan bantahan terhadap il\u1e25\u0101d (atheisme).\n\nPOKOK-POKOK ISINYA\n1.\tKeimanan\nBukti-bukti keesaan Allah serta kesempurnaan sifat-sifat-Nya; tentang kenabian Muhammad; penegasan Allah atas kenabian Ibrahim, Ishak, Ya\u2019kub, Nuh, Daud, Sulaiman, Ayyub, Yusuf, Musa, Harun, Zakaria, Yahya, Isa, Ilyas, Alyasa\u2019, Yunus, Lu\u1e6d; penegasan tentang adanya risalah dan wahyu serta hari pembalasan dan hari kebangkitan; sesatnya kepercayaan orang musyrik dan keingkaran mereka terhadap hari Kiamat.\n2.\tBeberapa Hukum\nLarangan mengikuti adat istiadat yang dibuat-buat oleh kaum jahiliah; makanan yang halal dan yang haram; sepuluh wasiat dalam Al-Qur\u2019an; tauhid, keadilan dan hukum; dan larangan mencaci maki berhala.\n3.\tKisah\nKisah umat-umat terdahulu yang menentang rasul-rasul; kisah pengalaman Nabi Muhammad dan para nabi; dan cerita Nabi Ibrahim membimbing kaumnya kepada agama tauhid.\n4.\tLain-lain\nSikap keras kepala kaum musyrik; cara nabi memimpin umatnya; bidang-bidang kerasulan dan tugas-tugasnya. Tantangan kaum musyrik untuk melemahkan rasul; kepercayaan orang-orang musyrik terhadap jin, setan dan malaikat; beberapa prinsip keagamaan dan kemasyarakatan; dan lain-lain.",
        "outro_surah": null,
        "munasabah_prev_surah": "HUBUNGAN SURAH AL-M\u0100\u2019IDAH \nDENGAN SURAH AL-An\u2018\u0101m\n\nPada akhir Surah al-M\u0101\u2019idah/5, beberapa kali Allah menegaskan bahwa Nabi Isa dan ibunya bukanlah tuhan sebagaimana anggapan banyak orang Nasrani di Najran. Nabi Isa adalah seperti rasul-rasul yang lain yang bertugas mengajak Bani Israil untuk mengesakan Allah dan menaati perintah-perintah-Nya. Maka pada Surah al-An\u2018\u0101m/6, Allah menjelaskan kekuasaan-Nya dalam penciptaan langit, bumi dan semua isinya, termasuk manusia. Allah juga memberi petunjuk kepada manusia untuk memilih jalan yang terang, yaitu cahaya keimanan, serta meninggalkan jalan yang sesat, yaitu jalan kegelapan.\n\nPada akhir Surah al-M\u0101\u2019idah/5 ditegaskan bahwa milik Allahlah kerajaan langit dan bumi dan segala apa yang terdapat di dalamnya, Dia Mahakuasa atas segala sesuatu. Pada ayat awal surah ini, al-An\u2018\u0101m/6, Allah menegaskan pula bahwa segala puji adalah milik-Nya yang menciptakan seluruh jagat raya beserta segala isinya, dan Dia pula yang menjadikan gelap dan terang dalam kehidupan manusia.",
        "munasabah_prev_theme": "Pada ayat-ayat yang lalu kaum musyrik dikritik dengan celaan yang tajam karena mereka mengharamkan sebagian dari hewan ternak tanpa petunjuk dari nabi-nabi atau larangan dari Allah, hanya semata-mata mengikuti hawa nafsu dan menerima saja tradisi yang berlaku pada nenek moyang mereka. Pada ayat-ayat ini dijelaskan makanan-makanan yang diharamkan untuk kaum Muslimin dan makanan-makanan yang khusus diharamkan untuk kaum Yahudi.",
        "theme_group": "MAKANAN YANG HARAM BAGI KAUM MUSLIMIN \nDAN KAUM YAHUDI",
        "kosakata": "Kosakata: Uhilla \u0627\u064f\u0647\u0650\u0644\u0651\u064e  (al-An\u2018\u0101m/6: 145)\nTerambil dari kata hilal yaitu bulan sabit yang terbit diawal bulan qamari. Disaat muncul bulan sabit orang saling berteriak. Kata ihlal akhirnya digunakan untuk teriakan atau bersuara. Bayi yang baru keluar dari perut ibu dan menjerit menangis juga dinamakan ihlal. Pada saat orang menyembelih hewan dia membaca L\u0101 ilaha illall\u0101h. Pekerjaan ini dinamakan dengan ihlal atau tahallul. Dari sini kata uhilla digunakan untuk menyembelih disertai dengan suara atau teriakan. Jika pada saat menyembelih hewan seseorang  menyebut nama selain Allah maka hewan tersebut dikatakan m\u0101 uhilla ligairill\u0101h. Sembelihannya haram dimakan.",
        "sabab_nuzul": null,
        "conclusion": "1.\tMakanan yang diharamkan Allah dalam Al-Qur\u2019an hanya empat macam, yaitu: \na.\tBangkai hewan yang halal yang tidak disembelih menurut syariat Islam.\nb.\tDarah yang mengalir akibat luka atau disembelih.\nc.\tDaging babi dan semua bagian tubuh dan bulunya.\nd.\tHewan yang disembelih dengan menyebut nama selain Allah. Hewan-hewan yang tidak boleh dimakan sebagaimana yang tersebut dalam hadis, menurut Jumhur Ulama termasuk haram dimakan.\n2.\tAda beberapa macam makanan yang diharamkan khusus untuk kaum Yahudi sebagai hukuman atas kedurhakaan mereka seperti lemak sapi, lemak kambing dan lain-lain sebagainya.\n3.\tAllah Mahaluas rahmat-Nya dan di antara rahmat-Nya ialah menangguhkan siksa di dunia terhadap kaum musyrikin yang selalu mendustakan Nabi Muhammad saw dan membuat-buat kebohongan terhadap Allah swt."
    }
}