{
    "id": 949,
    "surah_id": 6,
    "ayah": 160,
    "page": 150,
    "quarter_hizb": 15.75,
    "juz": 8,
    "manzil": 2,
    "arabic": "\u0645\u064e\u0646\u0652 \u062c\u064e\u0627\u06e4\u0621\u064e \u0628\u0650\u0627\u0644\u0652\u062d\u064e\u0633\u064e\u0646\u064e\u0629\u0650 \u0641\u064e\u0644\u064e\u0647\u0657 \u0639\u064e\u0634\u0652\u0631\u064f \u0627\u064e\u0645\u0652\u062b\u064e\u0627\u0644\u0650\u0647\u064e\u0627 \u06da\u0648\u064e\u0645\u064e\u0646\u0652 \u062c\u064e\u0627\u06e4\u0621\u064e \u0628\u0650\u0627\u0644\u0633\u0651\u064e\u064a\u0651\u0650\u0626\u064e\u0629\u0650 \u0641\u064e\u0644\u064e\u0627 \u064a\u064f\u062c\u0652\u0632\u0670\u0653\u0649 \u0627\u0650\u0644\u0651\u064e\u0627 \u0645\u0650\u062b\u0652\u0644\u064e\u0647\u064e\u0627 \u0648\u064e\u0647\u064f\u0645\u0652 \u0644\u064e\u0627 \u064a\u064f\u0638\u0652\u0644\u064e\u0645\u064f\u0648\u0652\u0646\u064e",
    "latin": "Man j\u0101'a bil-\u1e25asanati fa lah\u016b \u2018asyru am\u1e61\u0101lih\u0101, wa man j\u0101'a bis-sayyi'ati fal\u0101 yujz\u0101 ill\u0101 mi\u1e61lah\u0101 wa hum l\u0101 yu\u1e93lam\u016bn(a).",
    "translation": "Siapa yang berbuat kebaikan, dia akan mendapat balasan sepuluh kali lipatnya. Siapa yang berbuat keburukan, dia tidak akan diberi balasan melainkan yang seimbang dengannya. Mereka (sedikit pun) tidak dizalimi (dirugikan).",
    "no_footnote": null,
    "footnotes": null,
    "surah": {
        "id": 6,
        "arabic": " \u0627\u0644\u0627\u0646\u0639\u0627\u0645",
        "latin": "Al-An\u2018\u0101m ",
        "transliteration": "Al-An\u2018am",
        "translation": "Binatang Ternak",
        "num_ayah": 165,
        "page": 128,
        "location": "Makkiyah"
    },
    "tafsir": {
        "wajiz": "Berkaitan dengan hari pembalasan, Allah menjelaskan tentang anugerah-Nya yang agung terhadap orang mukmin yang berbuat baik. Barang siapa berbuat kebaikan, walaupun sedikit, akan men-dapat balasan sepuluh kali lipat, bahkan bisa lebih dari itu sampai tujuh ratus kali lipat dari amalnya, karena Allah Mahakaya. Hal itu jika amal baik tersebut disertai dengan keikhlasan dan sesuai dengan aturan agama Islam. Dan barang siapa berbuat kejahatan dibalas seimbang dengan kejahatannya sebagai bentuk keadilan Allah. Mereka sedikit pun tidak dirugikan atau dizalimi. Allah tidak akan berbuat zalim sedikit pun terhadap hambahamba-Nya, seperti mengurangi pahala atau menambahkan dosa yang tidak diperbuat. Dialah Yang Maha Pemurah, Maha Penyayang.",
        "tahlili": "Pada ayat ini diterangkan dengan jelas, bahwa siapa berbuat amal baik, maka Allah akan memberikan pahala balasannya di hari akhirat dengan sepuluh kali lipat amalnya. Barang siapa berbuat kejahatan hanya dibalas setimpal dengan kejahatannya, sebab Allah tidak akan menganiaya sedikitpun atau merugikan mereka. Yang dimaksud dengan orang yang beramal baik di sini ialah orang-orang mukmin, karena amal baik orang kafir sebelum masuk Islam tidak akan bermanfaat bagi mereka di akhirat, seperti yang diterangkan di dalam firman Allah: \n\u0630\u0670\u0644\u0650\u0643\u064e \u0647\u064f\u062f\u064e\u0649 \u0627\u0644\u0644\u0651\u0670\u0647\u0650 \u064a\u064e\u0647\u0652\u062f\u0650\u064a\u0652 \u0628\u0650\u0647\u0656 \u0645\u064e\u0646\u0652 \u064a\u0651\u064e\u0634\u064e\u0627\u06e4\u0621\u064f \u0645\u0650\u0646\u0652 \u0639\u0650\u0628\u064e\u0627\u062f\u0650\u0647\u0656 \u06d7\u0648\u064e\u0644\u064e\u0648\u0652 \u0627\u064e\u0634\u0652\u0631\u064e\u0643\u064f\u0648\u0652\u0627 \u0644\u064e\u062d\u064e\u0628\u0650\u0637\u064e \u0639\u064e\u0646\u0652\u0647\u064f\u0645\u0652 \u0645\u0651\u064e\u0627 \u0643\u064e\u0627\u0646\u064f\u0648\u0652\u0627 \u064a\u064e\u0639\u0652\u0645\u064e\u0644\u064f\u0648\u0652\u0646\u064e \u0668\u0668\nItulah petunjuk Allah, dengan itu Dia memberi petunjuk kepada siapa saja di antara hamba-hamba-Nya yang Dia kehendaki. Sekiranya mereka mempersekutukan Allah, pasti lenyaplah amalan yang telah mereka kerjakan. (al-An\u2018\u0101m/6: 88).\nMaksud dari ungkapan \u201cbalasan sepuluh kali lipat\u201d di sini belum termasuk apa yang dijanjikan Allah dengan balasan yang jauh lebih banyak dan berlipat ganda kepada orang-orang yang membelanjakan hartanya di jalan Allah sampai 700 kali lipat.\n\u0627\u0650\u0646\u0652 \u062a\u064f\u0642\u0652\u0631\u0650\u0636\u064f\u0648\u0627 \u0627\u0644\u0644\u0651\u0670\u0647\u064e \u0642\u064e\u0631\u0652\u0636\u064b\u0627 \u062d\u064e\u0633\u064e\u0646\u064b\u0627 \u064a\u0651\u064f\u0636\u0670\u0639\u0650\u0641\u0652\u0647\u064f \u0644\u064e\u0643\u064f\u0645\u0652 \u0648\u064e\u064a\u064e\u063a\u0652\u0641\u0650\u0631\u0652 \u0644\u064e\u0643\u064f\u0645\u0652\u06d7 \u0648\u064e\u0627\u0644\u0644\u0651\u0670\u0647\u064f \u0634\u064e\u0643\u064f\u0648\u0652\u0631\u064c \u062d\u064e\u0644\u0650\u064a\u0652\u0645\u064c\u06d9 \u0661\u0667\nJika kamu meminjamkan kepada Allah dengan pinjaman yang baik, niscaya Dia melipatgandakan (balasan) kepadamu dan mengampuni kamu. Dan Allah Maha Mensyukuri, Maha Penyantun. (at-Tag\u0101bun/64: 17).\nDi dalam hadis Nabi Muhammad, banyak dijumpai tentang balasan amal baik dan amal jahat bahkan diterangkan  pahala bagi orang yang belum mengerjakan suatu perbuatan baik tapi hanya sekadar niat atau ketetapan hati untuk meluluhkannya. Hal ini tersebut dalam sebuah hadis qudsi yang diriwayatkan oleh al-Bukh\u0101r\u012b dan Muslim dari Abu Hurairah yang menceritakan sebagai berikut: \n\u0642\u064e\u0627\u0644\u064e \u0631\u064e\u0633\u064f\u0648\u0652\u0644\u064f \u0627\u0644\u0644\u0647 \u064f\u0635\u064e\u0644\u0651\u064e\u0649 \u0627\u0644\u0644\u0647 \u064f\u0639\u064e\u0644\u064e\u064a\u0652\u0647\u0650 \u0648\u064e\u0633\u064e\u0644\u0651\u064e\u0645\u064e \u0642\u064e\u0627\u0644\u064e \u0627\u0644\u0644\u0647\u064f \u0639\u064e\u0632\u0651\u064e \u0648\u064e\u062c\u064e\u0644\u0651\u064e \u0627\u0650\u0630\u064e\u0627 \u0647\u064e\u0645\u0651\u064e \u0639\u064e\u0628\u0652\u062f\u0650\u064a \u0628\u0650\u062d\u064e\u0633\u064e\u0646\u064e\u0629\u064d \u0641\u064e\u0644\u064e\u0645\u0652 \u064a\u064e\u0639\u0652\u0645\u064e\u0644\u0652\u0647\u064e\u0627 \u0643\u064e\u062a\u064e\u0628\u0652\u062a\u064f\u0647\u064e\u0627 \u0644\u064e\u0647\u064f \u062d\u064e\u0633\u064e\u0646\u064e\u0629\u064b \u0641\u064e\u0627\u0650\u0646\u0652 \u0639\u064e\u0645\u0650\u0644\u064e\u0647\u064e\u0627 \u0643\u064e\u062a\u064e\u0628\u0652\u062a\u064f\u0647\u064e\u0627 \u0639\u064e\u0634\u0652\u0631\u064e \u062d\u064e\u0633\u064e\u0646\u064e\u0627\u062a\u064d \u0650\u0627\u0644\u064e\u0649 \u0633\u064e\u0628\u0652\u0639\u064e\u0645\u0650\u0627\u0626\u064e\u0629\u064e \u0636\u064e\u0639\u0652\u0641\u0650 \u0648\u064e\u0627\u0650\u0630\u064e\u0627 \u0647\u064e\u0645\u0651\u064e \u0628\u0650\u0633\u064e\u064a\u0651\u0650\u0626\u064e\u0629\u064d  \u0648\u064e\u0644\u064e\u0645\u0652 \u064a\u064e\u0639\u0652\u0645\u064e\u0644\u0652\u0647\u064e\u0627 \u0644\u064e\u0645\u0652 \u0623\u064e\u0643\u0652\u062a\u064f\u0628\u0652\u0647\u064e\u0627 \u0639\u064e\u0644\u064e\u064a\u0652\u0647\u0650 \u0641\u064e\u0627\u0650\u0646\u0652 \u0639\u064e\u0645\u0650\u0644\u064e\u0647\u064e\u0627 \u0643\u064e\u062a\u064e\u0628\u0652\u062a\u064f\u0647\u064e\u0627 \u0633\u064e\u064a\u0651\u0650\u0626\u064e\u0629\u064b \u0648\u064e\u0627\u062d\u0650\u062f\u064e\u0629\u064b (\u0631\u0648\u0627\u0647 \u0627\u0644\u0628\u062e\u0627\u0631\u0649 \u0648\u0645\u0633\u0644\u0645)\nSesungguhnya Rasulullah saw bersabda, \u201cAllah berfirman, apabila hamba-Ku hendak mengerjakan kebaikan dan tidak dikerjakannya, maka tulislah baginya satu pahala kebajikan. Dan apabila dikerjakannya, maka tulislah sepuluh sampai tujuh ratus kali lipat pahala kebaikan. Dan apabila hamba-Ku hendak mengerjakan suatu pekerjaan jahat, janganlah dituliskan (jangan dicatat) sebagai suatu kesalahan sebelum dikerjakannya. Dan apabila dikerjakannya, catatlah baginya satu kesalahan (kejahatan).\u201d (Riwayat al-Bukh\u0101r\u012b dan Muslim).\nSesungguhnya Rasulullah saw bersabda, \u201cAllah berfirman kepada malaikat-Nya, apabila hamba-Ku hendak mengerjakan suatu pekerjaan jahat, janganlah dituliskan (jangan dicatat) sebagai suatu kesalahan sebelum dikerjakannya. Dan apabila dikerjakannya, catatlah baginya satu kesalahan (kejahatan). Dan jika ditinggalkannya (tidak jadi diperbuatnya) karena Aku (karena Allah), maka tulislah baginya satu kebajikan. Dan apabila ia hendak mengerjakan kebaikan dan tidak dikerjakannya, maka tulislah baginya satu pahala kebajikan. Dan apabila dikerjakannya, maka tulislah sampai tujuh ratus kali lipat pahala kebaikan baginya.\u201d",
        "intro_surah": "Surah yang ke-6, al-An\u2018\u0101m yang berarti hewan ternak terdiri atas 165 ayat. Surah ini termasuk golongan Surah Makiyah. Dinamai al-An\u2018\u0101m (hewan ternak) karena surah ini banyak menerangkan hukum-hukum yang berhubungan dengan hewan ternak dan juga hubungan hewan tersebut dengan adat istiadat serta kepercayaan orang-orang musyrik. Menurut kepercayaan mereka, hewan tersebut dapat disembelih sebagai kurban untuk mendekatkan diri kepada sembahan mereka. Allah memulai surah ini dengan \u201cAlhamdulill\u0101h\u201d. Surah-surah lain yang juga diawali dengan lafaz \u201cAlhamdulill\u0101h\u201d ialah Surah al-Kahf/18, Surah Saba\u2019/34 dan Surah F\u0101\u1e6dir/35.\nSemua Surah Makiyah berisi seruan kepada keimanan, agama tauhid, dan menegaskan batalnya kepercayaan syirik. Banyak hadis yang meriwayatkan bahwa Surah al-An\u2018\u0101m/6 ini diturunkan sekaligus, disebabkan isinya yang antara lain mengandung dalil-dalil ketauhidan, keadilan, kenabian, hari Kiamat dan bantahan terhadap il\u1e25\u0101d (atheisme).\n\nPOKOK-POKOK ISINYA\n1.\tKeimanan\nBukti-bukti keesaan Allah serta kesempurnaan sifat-sifat-Nya; tentang kenabian Muhammad; penegasan Allah atas kenabian Ibrahim, Ishak, Ya\u2019kub, Nuh, Daud, Sulaiman, Ayyub, Yusuf, Musa, Harun, Zakaria, Yahya, Isa, Ilyas, Alyasa\u2019, Yunus, Lu\u1e6d; penegasan tentang adanya risalah dan wahyu serta hari pembalasan dan hari kebangkitan; sesatnya kepercayaan orang musyrik dan keingkaran mereka terhadap hari Kiamat.\n2.\tBeberapa Hukum\nLarangan mengikuti adat istiadat yang dibuat-buat oleh kaum jahiliah; makanan yang halal dan yang haram; sepuluh wasiat dalam Al-Qur\u2019an; tauhid, keadilan dan hukum; dan larangan mencaci maki berhala.\n3.\tKisah\nKisah umat-umat terdahulu yang menentang rasul-rasul; kisah pengalaman Nabi Muhammad dan para nabi; dan cerita Nabi Ibrahim membimbing kaumnya kepada agama tauhid.\n4.\tLain-lain\nSikap keras kepala kaum musyrik; cara nabi memimpin umatnya; bidang-bidang kerasulan dan tugas-tugasnya. Tantangan kaum musyrik untuk melemahkan rasul; kepercayaan orang-orang musyrik terhadap jin, setan dan malaikat; beberapa prinsip keagamaan dan kemasyarakatan; dan lain-lain.",
        "outro_surah": null,
        "munasabah_prev_surah": "HUBUNGAN SURAH AL-M\u0100\u2019IDAH \nDENGAN SURAH AL-An\u2018\u0101m\n\nPada akhir Surah al-M\u0101\u2019idah/5, beberapa kali Allah menegaskan bahwa Nabi Isa dan ibunya bukanlah tuhan sebagaimana anggapan banyak orang Nasrani di Najran. Nabi Isa adalah seperti rasul-rasul yang lain yang bertugas mengajak Bani Israil untuk mengesakan Allah dan menaati perintah-perintah-Nya. Maka pada Surah al-An\u2018\u0101m/6, Allah menjelaskan kekuasaan-Nya dalam penciptaan langit, bumi dan semua isinya, termasuk manusia. Allah juga memberi petunjuk kepada manusia untuk memilih jalan yang terang, yaitu cahaya keimanan, serta meninggalkan jalan yang sesat, yaitu jalan kegelapan.\n\nPada akhir Surah al-M\u0101\u2019idah/5 ditegaskan bahwa milik Allahlah kerajaan langit dan bumi dan segala apa yang terdapat di dalamnya, Dia Mahakuasa atas segala sesuatu. Pada ayat awal surah ini, al-An\u2018\u0101m/6, Allah menegaskan pula bahwa segala puji adalah milik-Nya yang menciptakan seluruh jagat raya beserta segala isinya, dan Dia pula yang menjadikan gelap dan terang dalam kehidupan manusia.",
        "munasabah_prev_theme": "Pada ayat-ayat yang lalu Allah menjelaskan bahwa iman seseorang tidak berguna apabila telah datang tanda-tanda hari Kiamat, pada ayat-ayat ini Allah memperingatkan umat Nabi Muhammad saw tentang bahaya perpecahan dalam memahami ajaran agama yang timbul di kalangan umat Islam.",
        "theme_group": "BAHAYA PERPECAHAN DALAM AGAMA \nDAN PAHALA BAGI ORANG YANG BERAMAL",
        "kosakata": "Kosakata: Syiya\u2019an   \u0634\u0650\u064a\u064e\u0639\u064b\u0627(al-An\u2018\u0101m/6: 159)\nSyiya\u2019 bentuk plural dari kata Syi\u2019ah. Kata yang terambilkan dari   \u0634 \u064a \u0639  ini bermuara pada dua arti yaitu menyebar dan menguatkan (intisyar wa taqwiyah) seperti berita yang menyebar sampai  banyak akhirnya  mempunyai kekuatan. Seorang pemberani juga dinamakan Musyayyi\u2019 karena dengan kekuatannya itu dia diikuti yang lain. Syi\u2019ah sering diartikan dengan pengikut karena dengan adanya pengikut dia menjadi semakin kuat atau saling menguatkan. Pada ayat di atas kata Syiya\u2019an diartikan dengan beberapa kelompok/golongan, karena anggota dari setiap kelompok akan saling menguatkan. ",
        "sabab_nuzul": null,
        "conclusion": "1.\tAllah melarang umat Islam berpecah belah dalam memahami agama mereka, sehingga menjadi beberapa golongan dan kelompok yang fanatik, akibatnya sangat buruk, yaitu kelemahan dan keruntuhan di dunia dan siksa yang sangat berat di akhirat.\n2.\tOrang mukmin yang beramal baik, akan dibalas sepuluh kali lipat. Ini belum termasuk pahala yang dijanjikan Allah yang lebih banyak lagi kepada orang yang membelanjakan hartanya di jalan Allah.\n3.\tOrang mukmin yang mengerjakan kejahatan hanya dibalas dengan siksa yang kadarnya seimbang dengan kejahatannya tanpa dilipat gandakan.\n4.\tOrang mukmin yang berniat hendak mengerjakan pekerjaan yang baik dan tidak dikerjakannya, mendapat satu pahala kebaikan, sebaliknya apabila ia berniat hendak mengerjakan kejahatan dan tidak dikerjakannya, ia tidak berdosa. Bahkan apabila tidak dikerjakan karena Allah (bukan karena ada halangan), maka ia mendapat satu pahala kebaikan."
    }
}