{
    "id": 920,
    "surah_id": 6,
    "ayah": 131,
    "page": 144,
    "quarter_hizb": 15.25,
    "juz": 8,
    "manzil": 2,
    "arabic": "\u0630\u0670\u0644\u0650\u0643\u064e \u0627\u064e\u0646\u0652 \u0644\u0651\u064e\u0645\u0652 \u064a\u064e\u0643\u064f\u0646\u0652 \u0631\u0651\u064e\u0628\u0651\u064f\u0643\u064e \u0645\u064f\u0647\u0652\u0644\u0650\u0643\u064e \u0627\u0644\u0652\u0642\u064f\u0631\u0670\u0649 \u0628\u0650\u0638\u064f\u0644\u0652\u0645\u064d \u0648\u0651\u064e\u0627\u064e\u0647\u0652\u0644\u064f\u0647\u064e\u0627 \u063a\u0670\u0641\u0650\u0644\u064f\u0648\u0652\u0646\u064e ",
    "latin": "\u017b\u0101lika allam yakur rabbuka muhlikal-qur\u0101 bi\u1e93ulmiw wa ahluh\u0101 g\u0101fil\u016bn(a).",
    "translation": "Demikian itu (pengutusan para rasul) karena Tuhanmu tidak akan membinasakan suatu negeri karena kezaliman (mereka), sedangkan penduduknya dalam keadaan belum tahu.",
    "no_footnote": null,
    "footnotes": null,
    "surah": {
        "id": 6,
        "arabic": " \u0627\u0644\u0627\u0646\u0639\u0627\u0645",
        "latin": "Al-An\u2018\u0101m ",
        "transliteration": "Al-An\u2018am",
        "translation": "Binatang Ternak",
        "num_ayah": 165,
        "page": 128,
        "location": "Makkiyah"
    },
    "tafsir": {
        "wajiz": "Setelah menghardik jin dan manusia tentang sikap mereka terhadap rasul yang diutus kepada mereka, ayat ini menjelaskan hikmah diutusnya rasul. Demikianlah, para rasul diutus karena Tuhanmu tidak akan membinasakan penduduk suatu negeri secara zalim, sedang penduduknya dalam keadaan lengah atau belum tahu. Allah terlebih dahulu mengutus rasul yang mengingatkan kepada mereka, tetapi mereka tetap membangkang. Inilah hakikat keadilan.",
        "tahlili": "Pada ayat ini Allah telah menjelaskan sunah dan ketetapan-Nya sesuai dengan hikmah kebijaksanaan dan keadilan-Nya, apabila Allah hendak membinasakan suatu umat karena kedurhakaan dan kezalimannya, terlebih dahulu Allah mengutus seorang rasul yang akan memberi peringatan kepada mereka. Allah tidak akan menurunkan azab dan siksa-Nya kepada suatu umat yang dalam keadaan lalai dan terlena sebelum mengirim rasul-Nya kepada mereka yang memberi tuntunan dan petunjuk, yang akan memperingatkan dan menimbulkan kesadaran dalam hati mereka bahwa mereka benar-benar telah sesat dari jalan yang lurus dan telah melakukan perbuatan-perbuatan tercela yang bertentangan dengan keadilan dan perikemanusiaan.\nSiksaan yang diturunkan Allah kepada hamba-Nya yang durhaka kepada rasul yang memberi peringatan kepada mereka, misalnya memusnahkan mereka seperti yang pernah terjadi pada kaum \u2018\u0100d dan \u1e60am\u016bd; atau siksaan yang menghinakan mereka dengan cara mengusir dan mencerai beraikan mereka, seperti yang diderita oleh Bani Israil; ada pula siksaan yang menghancurkan kekuatan mereka, seperti yang diderita oleh kaum musyrikin Mekah. Sesudah Nabi Muhammad diutus Allah kepada semua umat manusia, siksaan yang menghancurkan dan memusnahkan itu tidak ada lagi. Adapun malapetaka yang terjadi, seperti gempa, topan, banjir dan sebagainya, adalah cobaan dan ujian bagi umat manusia agar mereka insaf dan sadar akan kekuasaan Allah dan agar mereka selalu ingat kepada-Nya, dan tidak berpaling dari petunjuk dan ajaran yang diturunkan-Nya dengan perantara rasul-Nya.\nAllah sekali-kali tidak akan menganiaya hamba-Nya, tetapi merekalah yang menganiaya diri sendiri dengan melakukan perbuatan yang bertentangan dengan sunatullah dan melanggar norma-norma yang telah diberikan-Nya untuk kebahagiaan manusia di dunia dan akhirat. Mungkin ada beberapa umat yang nampaknya kuat dan jaya padahal umat itu telah berpaling dari norma-norma keadilan dan perikemanusiaan, bahkan ada yang mengingkari kekuasaan Allah dan menganggap agama sebagai racun yang membunuh manusia. Hal itu adalah istidr\u0101j dari Allah yang membiarkan mereka tenggelam dalam paham kebendaan, sombong dan takabur atas hasil yang mereka capai. Namun akhirnya mereka akan mengalami nasib seperti orang yang sombong dan takabur. Terserah kepada manusia itu sendiri apakah ia akan menjadi orang yang beriman, mematuhi dan menjalankan semua aturan dan ajaran yang diturunkan-Nya dengan perantaraan rasul-Nya, sehingga dia hidup berbahagia jasmani dan rohaninya, ataukah dia akan menganggap dirinya lebih berkuasa atau lebih pintar serta menganggap ajaran-ajaran agama itu sudah ketinggalan zaman. Manusia bebas berpikir, berbuat dan menetapkan sesuatu menurut kehendaknya dan akhirnya akan terombang-ambing antara teori-teori yang terus berubah dan tidak tentu ujung pangkalnya serta terjerumus ke jurang kehancuran, keonaran dan kerusakan. Allah telah membentangkan di hadapan manusia jalan yang baik dan jalan yang buruk; diserahkan kepada manusia untuk memilihnya, jalan mana yang akan ditempuhnya.",
        "intro_surah": "Surah yang ke-6, al-An\u2018\u0101m yang berarti hewan ternak terdiri atas 165 ayat. Surah ini termasuk golongan Surah Makiyah. Dinamai al-An\u2018\u0101m (hewan ternak) karena surah ini banyak menerangkan hukum-hukum yang berhubungan dengan hewan ternak dan juga hubungan hewan tersebut dengan adat istiadat serta kepercayaan orang-orang musyrik. Menurut kepercayaan mereka, hewan tersebut dapat disembelih sebagai kurban untuk mendekatkan diri kepada sembahan mereka. Allah memulai surah ini dengan \u201cAlhamdulill\u0101h\u201d. Surah-surah lain yang juga diawali dengan lafaz \u201cAlhamdulill\u0101h\u201d ialah Surah al-Kahf/18, Surah Saba\u2019/34 dan Surah F\u0101\u1e6dir/35.\nSemua Surah Makiyah berisi seruan kepada keimanan, agama tauhid, dan menegaskan batalnya kepercayaan syirik. Banyak hadis yang meriwayatkan bahwa Surah al-An\u2018\u0101m/6 ini diturunkan sekaligus, disebabkan isinya yang antara lain mengandung dalil-dalil ketauhidan, keadilan, kenabian, hari Kiamat dan bantahan terhadap il\u1e25\u0101d (atheisme).\n\nPOKOK-POKOK ISINYA\n1.\tKeimanan\nBukti-bukti keesaan Allah serta kesempurnaan sifat-sifat-Nya; tentang kenabian Muhammad; penegasan Allah atas kenabian Ibrahim, Ishak, Ya\u2019kub, Nuh, Daud, Sulaiman, Ayyub, Yusuf, Musa, Harun, Zakaria, Yahya, Isa, Ilyas, Alyasa\u2019, Yunus, Lu\u1e6d; penegasan tentang adanya risalah dan wahyu serta hari pembalasan dan hari kebangkitan; sesatnya kepercayaan orang musyrik dan keingkaran mereka terhadap hari Kiamat.\n2.\tBeberapa Hukum\nLarangan mengikuti adat istiadat yang dibuat-buat oleh kaum jahiliah; makanan yang halal dan yang haram; sepuluh wasiat dalam Al-Qur\u2019an; tauhid, keadilan dan hukum; dan larangan mencaci maki berhala.\n3.\tKisah\nKisah umat-umat terdahulu yang menentang rasul-rasul; kisah pengalaman Nabi Muhammad dan para nabi; dan cerita Nabi Ibrahim membimbing kaumnya kepada agama tauhid.\n4.\tLain-lain\nSikap keras kepala kaum musyrik; cara nabi memimpin umatnya; bidang-bidang kerasulan dan tugas-tugasnya. Tantangan kaum musyrik untuk melemahkan rasul; kepercayaan orang-orang musyrik terhadap jin, setan dan malaikat; beberapa prinsip keagamaan dan kemasyarakatan; dan lain-lain.",
        "outro_surah": null,
        "munasabah_prev_surah": "HUBUNGAN SURAH AL-M\u0100\u2019IDAH \nDENGAN SURAH AL-An\u2018\u0101m\n\nPada akhir Surah al-M\u0101\u2019idah/5, beberapa kali Allah menegaskan bahwa Nabi Isa dan ibunya bukanlah tuhan sebagaimana anggapan banyak orang Nasrani di Najran. Nabi Isa adalah seperti rasul-rasul yang lain yang bertugas mengajak Bani Israil untuk mengesakan Allah dan menaati perintah-perintah-Nya. Maka pada Surah al-An\u2018\u0101m/6, Allah menjelaskan kekuasaan-Nya dalam penciptaan langit, bumi dan semua isinya, termasuk manusia. Allah juga memberi petunjuk kepada manusia untuk memilih jalan yang terang, yaitu cahaya keimanan, serta meninggalkan jalan yang sesat, yaitu jalan kegelapan.\n\nPada akhir Surah al-M\u0101\u2019idah/5 ditegaskan bahwa milik Allahlah kerajaan langit dan bumi dan segala apa yang terdapat di dalamnya, Dia Mahakuasa atas segala sesuatu. Pada ayat awal surah ini, al-An\u2018\u0101m/6, Allah menegaskan pula bahwa segala puji adalah milik-Nya yang menciptakan seluruh jagat raya beserta segala isinya, dan Dia pula yang menjadikan gelap dan terang dalam kehidupan manusia.",
        "munasabah_prev_theme": "Pada ayat yang lalu diterangkan, bahwa jin dan manusia dalam kehidupan di dunia hidup berkelompok-kelompok. Ada kelompok yang sesat, serta menyesatkan, dan ada pula golongan yang beriman yang selalu menempuh jalan yang lurus. Masing-masing golongan itu saling bantu membantu dan saling tolong menolong antara sesama mereka, pada ayat-ayat berikut ini dijelaskan, bahwa kehidupan seperti itu telah menjadi sunatullah dan tetap berlaku di kalangan umat manusia sampai akhir zaman.",
        "theme_group": "DERAJAT SESEORANG SEBANDING\nDENGAN AMALNYA",
        "kosakata": "Kosakata: G\u0101fil\u016bn   \u063a\u064e\u0627\u0641\u0650\u0644\u064f\u0648\u0652\u0646\u064e(al-An\u2018\u0101m/6: 131)\nMerupakan bentuk kata pelaku (ism f\u0101\u2019il) dari kata gafala yang berarti lalai, acuh, tak peduli; g\u0101fil berarti orang yang lalai, jamaknya adalah g\u0101fil\u016bn. Di dalam Al-Qur\u2019an kata g\u0101fil\u016bn itu terulang enam kali (selain al-g\u0101fil\u016bn, g\u0101fil\u012bn, lag\u0101fil\u016bn, lag\u0101fil\u012bn, dan sebagainya.). Sebagai contoh adalah surah Y\u016bsuf/12: 13 dimana Nabi Yakub menyatakan kepada anak-anaknya bahwa ia sesungguhnya merasa berat melepas Yusuf untuk ikut mereka menggembala sambil bermain-main, karena khawatir Yusuf dimakan serigala karena kakak-kakaknya itu \u201clalai\u201d, yaitu asyik bermain sehingga lupa menjaga Yusuf yang masih kecil. \nDalam al-An\u2018\u0101m/6: 131 dinyatakan bahwa Allah tidak akan menghancurkan satu negeri karena kezaliman (keingkaran) penduduknya sedangkan penduduk itu dalam keadaan lalai, yaitu tidak mengerti mengenai buruk dan baik karena nabi atau ajaran tentang hal itu tidak sampai kepada mereka; hukuman baru bisa dijatuhkan bila mereka tetap tidak mengindahkan ajaran Nabi yang dikirim atau ajaran itu sampai kepada mereka. \nDalam Y\u016bnus/10: 7 diterangkan empat ciri orang-orang yang akan dijebloskan ke dalam neraka, yaitu, pertama tidak ingin berjumpa dengan Allah, yang berarti tidak mengharapkan karunia-Nya, dan berarti mereka di dunia tidak mengindahkan perintah dan larangan Allah; kedua, senang dengan apa yang telah diperolehnya di dunia yang diperolehnya dengan cara yang tidak wajar; ketiga, puas dengan apa yang telah diperolehnya itu yang berarti bahwa ia juga tidak mengharapkan adanya kehidupan sesudah mati karena mereka menyangsikan nasib mereka pada waktu itu; keempat, lalai terhadap ayat-ayat Allah, baik ayat-ayat itu berupa alam semesta ini sehingga tidak dijadikan sebagai bukti adanya Allah dan kekuasan-Nya, maupun lalai terhadap ajaran-ajaran agama, sehingga tidak dipatuhi.\nDan dalam al-A\u1e25q\u0101f/46: 5 diungkapkan dalam bentuk kalimat tanya, siapa lagi yang lebih sesat dari pada seorang yang memohon kepada sesuatu (berhala) yang tidak akan bisa mengabulkannya sampai kiamat sekalipun. Jawabannya tentulah bahwa tidak ada lagi yang lebih bodoh selain orang yang berdoa kepada berhala. \nDari contoh-contoh di atas terlihat bahwa g\u0101fil\u016bn \u201clalai\u201d digunakan dalam arti \u201clengah\u201d, tidak mengindahkan ayat-ayat Allah dan ketentuan-ketentuan agama, dan dalam arti \u201ctidak mampu mendengar/memahami\u201d.",
        "sabab_nuzul": null,
        "conclusion": null
    }
}