{
    "id": 918,
    "surah_id": 6,
    "ayah": 129,
    "page": 144,
    "quarter_hizb": 15.25,
    "juz": 8,
    "manzil": 2,
    "arabic": "\u0648\u064e\u0643\u064e\u0630\u0670\u0644\u0650\u0643\u064e \u0646\u064f\u0648\u064e\u0644\u0651\u0650\u064a\u0652 \u0628\u064e\u0639\u0652\u0636\u064e \u0627\u0644\u0638\u0651\u0670\u0644\u0650\u0645\u0650\u064a\u0652\u0646\u064e \u0628\u064e\u0639\u0652\u0636\u064b\u0627\u06e2 \u0628\u0650\u0645\u064e\u0627 \u0643\u064e\u0627\u0646\u064f\u0648\u0652\u0627 \u064a\u064e\u0643\u0652\u0633\u0650\u0628\u064f\u0648\u0652\u0646\u064e \u08d6 ",
    "latin": "Wa ka\u017c\u0101lika nuwall\u012b ba\u2018\u1e0da\u1e93-\u1e93\u0101lim\u012bna ba\u2018\u1e0dam bim\u0101 k\u0101n\u016b yaksib\u016bn(a).",
    "translation": "Demikianlah Kami jadikan sebagian orang-orang zalim berteman dengan sebagian lainnya, sebagai balasan atas apa yang selalu mereka kerjakan.",
    "no_footnote": null,
    "footnotes": null,
    "surah": {
        "id": 6,
        "arabic": " \u0627\u0644\u0627\u0646\u0639\u0627\u0645",
        "latin": "Al-An\u2018\u0101m ",
        "transliteration": "Al-An\u2018am",
        "translation": "Binatang Ternak",
        "num_ayah": 165,
        "page": 128,
        "location": "Makkiyah"
    },
    "tafsir": {
        "wajiz": "Jika pada ayat sebelumnya diinformasikan bahwa antara jin dan manusia terdapat hubungan saling memanfaatkan, maka pada ayat ini dijelaskan hubungan antara orang-orang yang berbuat zalim. Dan demikianlah Kami jadikan sebagian orang-orang zalim berteman dengan sesamanya, karena seseorang akan mencari teman sesama yang sejiwa dan seirama dalam hidup, atau orang yang zalim akan dikuasai oleh pelaku kezaliman lainnya, sesuai dengan apa yang mereka kerjakan yaitu kekafiran dan kemaksiatan.",
        "tahlili": "Pada ayat ini ditegaskan bahwa hidup berkelompok antara orang yang sama tujuan, cita-cita dan kepentingannya terutama dalam hal yang jahat dan menyesatkan telah menjadi kebiasaan dari sebagian makhluk hidup, tidak ada bedanya antara jin dan manusia. Mereka selalu tolong menolong dan bantu membantu dalam berbagai usaha dan upaya agar keinginan dan usaha mereka terpenuhi sesuai dengan rencana mereka. Mereka tidak segan-segan melakukan tindak kekerasan, kezaliman dan penganiayaan serupa dan tidak menghiraukan norma-norma kemanusiaan, keadilan, dan sifat kasih sayang, asal mereka dapat memenuhi nafsu mereka dalam menikmati kehidupan dunia ini dengan sepuas-puasnya. Hal ini dapat dibuktikan dari berbagai peristiwa dalam sejarah sejak zaman dahulu kala sampai sekarang ini. Betapa banyak nabi dan rasul pembawa kebenaran, penyeru kepada akidah tauhid, mendapat tantangan yang hebat dan keras dari penyembah berhala dan pembela kebatilan dan kesesatan karena para nabi dan rasul itu tetap dalam pendiriannya, mantap dalam dakwahnya sehingga Allah memberi hukuman kaumnya yang sesat dan durhaka seperti kaum \u2018\u0100d dan \u1e60am\u016bd. Betapa banyak bangsa-bangsa yang merasa dirinya kuat dan perkasa dengan terang-terangan merampas hak bangsa-bangsa yang lemah tanpa memperdulikan rasa keadilan dan perikemanusiaan. Tetapi bangsa yang tertindas dan terjajah itu tidak tinggal diam, mereka berjuang dengan berbagai cara untuk merebut kembali kemerdekaannya. Memang telah menjadi sunatullah bahwa kebenaran pasti menang selama kebenaran itu tetap dibela dan diperjuangkan.\nAllah berfirman: \n\u0648\u064e\u0642\u064f\u0644\u0652 \u062c\u064e\u0627\u06e4\u0621\u064e \u0627\u0644\u0652\u062d\u064e\u0642\u0651\u064f \u0648\u064e\u0632\u064e\u0647\u064e\u0642\u064e \u0627\u0644\u0652\u0628\u064e\u0627\u0637\u0650\u0644\u064f \u06d6\u0627\u0650\u0646\u0651\u064e \u0627\u0644\u0652\u0628\u064e\u0627\u0637\u0650\u0644\u064e \u0643\u064e\u0627\u0646\u064e \u0632\u064e\u0647\u064f\u0648\u0652\u0642\u064b\u0627 \u0668\u0661\nDan katakanlah, \u201cKebenaran telah datang dan yang batil telah lenyap.\u201d Sungguh, yang batil itu pasti lenyap. (al-Isr\u0101\u2019/17: 81).\nAllah tidak menyuruh manusia atau jin bersatu dan berkelompok untuk berbuat kejahatan, melakukan yang batil dan berbuat yang mungkar, tetapi hal ini adalah tabiat manusia dan masyarakat sendiri, mereka lebih tertarik untuk bergabung dan bertolong-tolongan dengan kelompok yang sama arah dan tujuan hidupnya, walaupun hal itu ditujukan untuk melakukan kezaliman dan bertindak sewenang-wenang terhadap masyarakat yang lain. Allah berfirman: \n\u0627\u064e\u0644\u0652\u0645\u064f\u0646\u0670\u0641\u0650\u0642\u064f\u0648\u0652\u0646\u064e \u0648\u064e\u0627\u0644\u0652\u0645\u064f\u0646\u0670\u0641\u0650\u0642\u0670\u062a\u064f \u0628\u064e\u0639\u0652\u0636\u064f\u0647\u064f\u0645\u0652 \u0645\u0651\u0650\u0646\u0652\u06e2 \u0628\u064e\u0639\u0652\u0636\u064d\u06d8 \u064a\u064e\u0623\u0652\u0645\u064f\u0631\u064f\u0648\u0652\u0646\u064e \u0628\u0650\u0627\u0644\u0652\u0645\u064f\u0646\u0652\u0643\u064e\u0631\u0650 \u0648\u064e\u064a\u064e\u0646\u0652\u0647\u064e\u0648\u0652\u0646\u064e \u0639\u064e\u0646\u0650 \u0627\u0644\u0652\u0645\u064e\u0639\u0652\u0631\u064f\u0648\u0652\u0641\u0650 \u0648\u064e\u064a\u064e\u0642\u0652\u0628\u0650\u0636\u064f\u0648\u0652\u0646\u064e \u0627\u064e\u064a\u0652\u062f\u0650\u064a\u064e\u0647\u064f\u0645\u0652\u06d7 \u0646\u064e\u0633\u064f\u0648\u0627 \u0627\u0644\u0644\u0651\u0670\u0647\u064e \u0641\u064e\u0646\u064e\u0633\u0650\u064a\u064e\u0647\u064f\u0645\u0652 \u06d7 \u0627\u0650\u0646\u0651\u064e \u0627\u0644\u0652\u0645\u064f\u0646\u0670\u0641\u0650\u0642\u0650\u064a\u0652\u0646\u064e \u0647\u064f\u0645\u064f \u0627\u0644\u0652\u0641\u0670\u0633\u0650\u0642\u064f\u0648\u0652\u0646\u064e \u0666\u0667\nOrang-orang munafik laki-laki dan perempuan, satu dengan yang lain adalah (sama), mereka menyuruh (berbuat) yang mungkar dan mencegah (perbuatan) yang makruf dan mereka menggenggamkan tangannya (kikir). Mereka telah melupakan kepada Allah, maka Allah melupakan mereka (pula). Sesungguhnya orang-orang munafik itulah orang-orang yang fasik. (at-Taubah/9: 67).\nDalam menafsirkan ayat ini, Qatadah berkata, \u201cSesungguhnya Allah menjadikan manusia berteman akrab karena masing-masing memiliki kecenderungan yang sama; seorang mukmin adalah wali (teman akrab) bagi orang mukmin lain, kapan dan dimana dia berada. Seorang kafir adalah wali orang kafir lainnya, kapan dan di manapun ia berada. Iman itu bukan hanya dengan angan-angan dan bukan pula hanya berupa simbol atau tanda. Demi Allah yang memiliki umurku! Bila engkau berbuat taat kepada Allah, sedang engkau tidak mengenal seorang pun diantara orang yang taat kepada-Nya, maka hal itu tidak membahayakan kepadamu. Dan bila engkau berbuat durhaka dan maksiat yang dilarang Allah sedang engkau berteman akrab dengan orang yang taat dan takwa kepada-Nya, maka hal itu tidak akan berguna sedikit pun bagimu.\u201d\nAbu Syaikh meriwayatkan dari Mansur bin Abi al-Aswad ia berkata, \u201cAku bertanya kepada al-A\u2019masy tentang maksud ayat 129 ini: \u2018Apakah yang engkau dengar dari para sahabat dan ulama tabi\u2019in?\u201d Al-A\u2019masy menjawab, \u201cAku dengar mereka berkata, \u201cApabila akhlak manusia telah rusak, maka mereka akan mudah diperintah oleh manusia-manusia yang jahat.\u201d Allah berfirman: \n\u0648\u064e\u0627\u0650\u0630\u064e\u0627\u0653 \u0627\u064e\u0631\u064e\u062f\u0652\u0646\u064e\u0627\u0653 \u0627\u064e\u0646\u0652 \u0646\u0651\u064f\u0647\u0652\u0644\u0650\u0643\u064e \u0642\u064e\u0631\u0652\u064a\u064e\u0629\u064b \u0627\u064e\u0645\u064e\u0631\u0652\u0646\u064e\u0627 \u0645\u064f\u062a\u0652\u0631\u064e\u0641\u0650\u064a\u0652\u0647\u064e\u0627 \u0641\u064e\u0641\u064e\u0633\u064e\u0642\u064f\u0648\u0652\u0627 \u0641\u0650\u064a\u0652\u0647\u064e\u0627 \u0641\u064e\u062d\u064e\u0642\u0651\u064e \u0639\u064e\u0644\u064e\u064a\u0652\u0647\u064e\u0627 \u0627\u0644\u0652\u0642\u064e\u0648\u0652\u0644\u064f \u0641\u064e\u062f\u064e\u0645\u0651\u064e\u0631\u0652\u0646\u0670\u0647\u064e\u0627 \u062a\u064e\u062f\u0652\u0645\u0650\u064a\u0652\u0631\u064b\u0627 \u0661\u0666\nDan jika Kami hendak membinasakan suatu negeri, maka Kami perintahkan kepada orang yang hidup mewah di negeri itu (agar menaati Allah), tetapi bila mereka melakukan kedurhakaan di dalam (negeri) itu, maka sepantasnya berlakulah terhadapnya perkataan (hukuman Kami), kemudian Kami binasakan sama sekali (negeri itu). (al-Isr\u0101\u2019/17: 16).\nDi pihak lain, orang-orang mukmin bersatu dan memiliki pemimpin dan orang kepercayaan yang terdiri dari orang-orang yang baik, jujur dan bertakwa kepada Allah.\nFirman Allah: \n\u0648\u064e\u0627\u0644\u0652\u0645\u064f\u0624\u0652\u0645\u0650\u0646\u064f\u0648\u0652\u0646\u064e \u0648\u064e\u0627\u0644\u0652\u0645\u064f\u0624\u0652\u0645\u0650\u0646\u0670\u062a\u064f \u0628\u064e\u0639\u0652\u0636\u064f\u0647\u064f\u0645\u0652 \u0627\u064e\u0648\u0652\u0644\u0650\u064a\u064e\u0627\u06e4\u0621\u064f \u0628\u064e\u0639\u0652\u0636\u064d\u06d8 \u064a\u064e\u0623\u0652\u0645\u064f\u0631\u064f\u0648\u0652\u0646\u064e \u0628\u0650\u0627\u0644\u0652\u0645\u064e\u0639\u0652\u0631\u064f\u0648\u0652\u0641\u0650 \u0648\u064e\u064a\u064e\u0646\u0652\u0647\u064e\u0648\u0652\u0646\u064e \u0639\u064e\u0646\u0650 \u0627\u0644\u0652\u0645\u064f\u0646\u0652\u0643\u064e\u0631\u0650 \u0648\u064e\u064a\u064f\u0642\u0650\u064a\u0652\u0645\u064f\u0648\u0652\u0646\u064e \u0627\u0644\u0635\u0651\u064e\u0644\u0670\u0648\u0629\u064e \u0648\u064e\u064a\u064f\u0624\u0652\u062a\u064f\u0648\u0652\u0646\u064e \u0627\u0644\u0632\u0651\u064e\u0643\u0670\u0648\u0629\u064e \u0648\u064e\u064a\u064f\u0637\u0650\u064a\u0652\u0639\u064f\u0648\u0652\u0646\u064e \u0627\u0644\u0644\u0651\u0670\u0647\u064e \u0648\u064e\u0631\u064e\u0633\u064f\u0648\u0652\u0644\u064e\u0647\u0657 \u06d7\u0627\u064f\u0648\u0644\u0670\u06e4\u0649\u0655\u0650\u0643\u064e \u0633\u064e\u064a\u064e\u0631\u0652\u062d\u064e\u0645\u064f\u0647\u064f\u0645\u064f \u0627\u0644\u0644\u0651\u0670\u0647\u064f \u06d7\u0627\u0650\u0646\u0651\u064e \u0627\u0644\u0644\u0651\u0670\u0647\u064e \u0639\u064e\u0632\u0650\u064a\u0652\u0632\u064c \u062d\u064e\u0643\u0650\u064a\u0652\u0645\u064c \u0667\u0661\nDan orang-orang yang beriman, laki-laki dan perempuan, sebagian mereka menjadi penolong bagi sebagian yang lain. Mereka menyuruh (berbuat) yang makruf, dan mencegah dari yang mungkar, melaksanakan salat, menunaikan zakat, dan taat kepada Allah dan Rasul-Nya. Mereka akan diberi rahmat oleh Allah. Sungguh, Allah Mahaperkasa, Mahabijaksana. (at-Taubah/9: 71)",
        "intro_surah": "Surah yang ke-6, al-An\u2018\u0101m yang berarti hewan ternak terdiri atas 165 ayat. Surah ini termasuk golongan Surah Makiyah. Dinamai al-An\u2018\u0101m (hewan ternak) karena surah ini banyak menerangkan hukum-hukum yang berhubungan dengan hewan ternak dan juga hubungan hewan tersebut dengan adat istiadat serta kepercayaan orang-orang musyrik. Menurut kepercayaan mereka, hewan tersebut dapat disembelih sebagai kurban untuk mendekatkan diri kepada sembahan mereka. Allah memulai surah ini dengan \u201cAlhamdulill\u0101h\u201d. Surah-surah lain yang juga diawali dengan lafaz \u201cAlhamdulill\u0101h\u201d ialah Surah al-Kahf/18, Surah Saba\u2019/34 dan Surah F\u0101\u1e6dir/35.\nSemua Surah Makiyah berisi seruan kepada keimanan, agama tauhid, dan menegaskan batalnya kepercayaan syirik. Banyak hadis yang meriwayatkan bahwa Surah al-An\u2018\u0101m/6 ini diturunkan sekaligus, disebabkan isinya yang antara lain mengandung dalil-dalil ketauhidan, keadilan, kenabian, hari Kiamat dan bantahan terhadap il\u1e25\u0101d (atheisme).\n\nPOKOK-POKOK ISINYA\n1.\tKeimanan\nBukti-bukti keesaan Allah serta kesempurnaan sifat-sifat-Nya; tentang kenabian Muhammad; penegasan Allah atas kenabian Ibrahim, Ishak, Ya\u2019kub, Nuh, Daud, Sulaiman, Ayyub, Yusuf, Musa, Harun, Zakaria, Yahya, Isa, Ilyas, Alyasa\u2019, Yunus, Lu\u1e6d; penegasan tentang adanya risalah dan wahyu serta hari pembalasan dan hari kebangkitan; sesatnya kepercayaan orang musyrik dan keingkaran mereka terhadap hari Kiamat.\n2.\tBeberapa Hukum\nLarangan mengikuti adat istiadat yang dibuat-buat oleh kaum jahiliah; makanan yang halal dan yang haram; sepuluh wasiat dalam Al-Qur\u2019an; tauhid, keadilan dan hukum; dan larangan mencaci maki berhala.\n3.\tKisah\nKisah umat-umat terdahulu yang menentang rasul-rasul; kisah pengalaman Nabi Muhammad dan para nabi; dan cerita Nabi Ibrahim membimbing kaumnya kepada agama tauhid.\n4.\tLain-lain\nSikap keras kepala kaum musyrik; cara nabi memimpin umatnya; bidang-bidang kerasulan dan tugas-tugasnya. Tantangan kaum musyrik untuk melemahkan rasul; kepercayaan orang-orang musyrik terhadap jin, setan dan malaikat; beberapa prinsip keagamaan dan kemasyarakatan; dan lain-lain.",
        "outro_surah": null,
        "munasabah_prev_surah": "HUBUNGAN SURAH AL-M\u0100\u2019IDAH \nDENGAN SURAH AL-An\u2018\u0101m\n\nPada akhir Surah al-M\u0101\u2019idah/5, beberapa kali Allah menegaskan bahwa Nabi Isa dan ibunya bukanlah tuhan sebagaimana anggapan banyak orang Nasrani di Najran. Nabi Isa adalah seperti rasul-rasul yang lain yang bertugas mengajak Bani Israil untuk mengesakan Allah dan menaati perintah-perintah-Nya. Maka pada Surah al-An\u2018\u0101m/6, Allah menjelaskan kekuasaan-Nya dalam penciptaan langit, bumi dan semua isinya, termasuk manusia. Allah juga memberi petunjuk kepada manusia untuk memilih jalan yang terang, yaitu cahaya keimanan, serta meninggalkan jalan yang sesat, yaitu jalan kegelapan.\n\nPada akhir Surah al-M\u0101\u2019idah/5 ditegaskan bahwa milik Allahlah kerajaan langit dan bumi dan segala apa yang terdapat di dalamnya, Dia Mahakuasa atas segala sesuatu. Pada ayat awal surah ini, al-An\u2018\u0101m/6, Allah menegaskan pula bahwa segala puji adalah milik-Nya yang menciptakan seluruh jagat raya beserta segala isinya, dan Dia pula yang menjadikan gelap dan terang dalam kehidupan manusia.",
        "munasabah_prev_theme": "Pada ayat yang lalu diterangkan, bahwa jin dan manusia dalam kehidupan di dunia hidup berkelompok-kelompok. Ada kelompok yang sesat, serta menyesatkan, dan ada pula golongan yang beriman yang selalu menempuh jalan yang lurus. Masing-masing golongan itu saling bantu membantu dan saling tolong menolong antara sesama mereka, pada ayat-ayat berikut ini dijelaskan, bahwa kehidupan seperti itu telah menjadi sunatullah dan tetap berlaku di kalangan umat manusia sampai akhir zaman.",
        "theme_group": "DERAJAT SESEORANG SEBANDING\nDENGAN AMALNYA",
        "kosakata": "Kosakata: G\u0101fil\u016bn   \u063a\u064e\u0627\u0641\u0650\u0644\u064f\u0648\u0652\u0646\u064e(al-An\u2018\u0101m/6: 131)\nMerupakan bentuk kata pelaku (ism f\u0101\u2019il) dari kata gafala yang berarti lalai, acuh, tak peduli; g\u0101fil berarti orang yang lalai, jamaknya adalah g\u0101fil\u016bn. Di dalam Al-Qur\u2019an kata g\u0101fil\u016bn itu terulang enam kali (selain al-g\u0101fil\u016bn, g\u0101fil\u012bn, lag\u0101fil\u016bn, lag\u0101fil\u012bn, dan sebagainya.). Sebagai contoh adalah surah Y\u016bsuf/12: 13 dimana Nabi Yakub menyatakan kepada anak-anaknya bahwa ia sesungguhnya merasa berat melepas Yusuf untuk ikut mereka menggembala sambil bermain-main, karena khawatir Yusuf dimakan serigala karena kakak-kakaknya itu \u201clalai\u201d, yaitu asyik bermain sehingga lupa menjaga Yusuf yang masih kecil. \nDalam al-An\u2018\u0101m/6: 131 dinyatakan bahwa Allah tidak akan menghancurkan satu negeri karena kezaliman (keingkaran) penduduknya sedangkan penduduk itu dalam keadaan lalai, yaitu tidak mengerti mengenai buruk dan baik karena nabi atau ajaran tentang hal itu tidak sampai kepada mereka; hukuman baru bisa dijatuhkan bila mereka tetap tidak mengindahkan ajaran Nabi yang dikirim atau ajaran itu sampai kepada mereka. \nDalam Y\u016bnus/10: 7 diterangkan empat ciri orang-orang yang akan dijebloskan ke dalam neraka, yaitu, pertama tidak ingin berjumpa dengan Allah, yang berarti tidak mengharapkan karunia-Nya, dan berarti mereka di dunia tidak mengindahkan perintah dan larangan Allah; kedua, senang dengan apa yang telah diperolehnya di dunia yang diperolehnya dengan cara yang tidak wajar; ketiga, puas dengan apa yang telah diperolehnya itu yang berarti bahwa ia juga tidak mengharapkan adanya kehidupan sesudah mati karena mereka menyangsikan nasib mereka pada waktu itu; keempat, lalai terhadap ayat-ayat Allah, baik ayat-ayat itu berupa alam semesta ini sehingga tidak dijadikan sebagai bukti adanya Allah dan kekuasan-Nya, maupun lalai terhadap ajaran-ajaran agama, sehingga tidak dipatuhi.\nDan dalam al-A\u1e25q\u0101f/46: 5 diungkapkan dalam bentuk kalimat tanya, siapa lagi yang lebih sesat dari pada seorang yang memohon kepada sesuatu (berhala) yang tidak akan bisa mengabulkannya sampai kiamat sekalipun. Jawabannya tentulah bahwa tidak ada lagi yang lebih bodoh selain orang yang berdoa kepada berhala. \nDari contoh-contoh di atas terlihat bahwa g\u0101fil\u016bn \u201clalai\u201d digunakan dalam arti \u201clengah\u201d, tidak mengindahkan ayat-ayat Allah dan ketentuan-ketentuan agama, dan dalam arti \u201ctidak mampu mendengar/memahami\u201d.",
        "sabab_nuzul": null,
        "conclusion": null
    }
}