{
    "id": 984,
    "surah_id": 7,
    "ayah": 30,
    "page": 153,
    "quarter_hizb": 16,
    "juz": 8,
    "manzil": 2,
    "arabic": "\u0641\u064e\u0631\u0650\u064a\u0652\u0642\u064b\u0627 \u0647\u064e\u062f\u0670\u0649 \u0648\u064e\u0641\u064e\u0631\u0650\u064a\u0652\u0642\u064b\u0627 \u062d\u064e\u0642\u0651\u064e \u0639\u064e\u0644\u064e\u064a\u0652\u0647\u0650\u0645\u064f \u0627\u0644\u0636\u0651\u064e\u0644\u0670\u0644\u064e\u0629\u064f  \u06d7\u0627\u0650\u0646\u0651\u064e\u0647\u064f\u0645\u064f \u0627\u062a\u0651\u064e\u062e\u064e\u0630\u064f\u0648\u0627 \u0627\u0644\u0634\u0651\u064e\u064a\u0670\u0637\u0650\u064a\u0652\u0646\u064e \u0627\u064e\u0648\u0652\u0644\u0650\u064a\u064e\u0627\u06e4\u0621\u064e \u0645\u0650\u0646\u0652 \u062f\u064f\u0648\u0652\u0646\u0650 \u0627\u0644\u0644\u0651\u0670\u0647\u0650 \u0648\u064e\u064a\u064e\u062d\u0652\u0633\u064e\u0628\u064f\u0648\u0652\u0646\u064e \u0627\u064e\u0646\u0651\u064e\u0647\u064f\u0645\u0652 \u0645\u0651\u064f\u0647\u0652\u062a\u064e\u062f\u064f\u0648\u0652\u0646\u064e ",
    "latin": "Far\u012bqan had\u0101 wa far\u012bqan \u1e25aqqa \u2018alaihimu\u1e0d-\u1e0dal\u0101lah(tu), innahumuttakha\u017cusy-syay\u0101\u1e6d\u012bna auliy\u0101'a min d\u016bnill\u0101hi wa ya\u1e25sab\u016bna annahum muhtad\u016bn(a).",
    "translation": "Sekelompok (manusia) telah diberi-Nya petunjuk dan sekelompok (lainnya) telah pasti kesesatan atas mereka. Sesungguhnya mereka menjadikan setan-setan sebagai pelindung270) selain Allah. Mereka mengira bahwa mereka adalah orang-orang yang mendapat petunjuk.",
    "no_footnote": "270",
    "footnotes": "270) Lihat catatan kaki surah \u0100li \u2018Imr\u0101n (3): 28.",
    "surah": {
        "id": 7,
        "arabic": " \u0627\u0644\u0627\u0639\u0631\u0627\u0641",
        "latin": "Al-A\u2018r\u0101f",
        "transliteration": "Al-A\u2018raf",
        "translation": "Tempat Tertinggi",
        "num_ayah": 206,
        "page": 151,
        "location": "Makkiyah"
    },
    "tafsir": {
        "wajiz": "Ketika dibangkitkan, manusia akan menemui Allah dalam dua kelompok besar. Sebagian kelompok manusia meru-pakan golongan yang telah diberi-Nya petunjuk di dunia, yaitu dengan beribadah kepada Allah dengan penuh ikhlas, inilah yang mengantarkan mereka menuju kebahagiaan, dan sebagian kelompok lagi, merupakan kelompok yang telah pasti dan sepantasnya menjadi sesat karena memilih sendiri jalan kesesatan itu dan enggan memanfaatkan petunjuk. Sebab kesesatan kelompok yang kedua ini adalah karena mereka menjadikan setan-setan sebagai pelindung dan pembimbing mereka selain Allah, se-hingga mereka menuruti segala seruan setan. Dan dengan kebodohan mereka, mereka mengira bahwa mereka mendapat petunjuk.",
        "tahlili": "Manusia terbagi atas dua golongan. Golongan pertama adalah golongan yang telah diberi petunjuk oleh Allah di dunia ini untuk mengerjakan salat, menyembah-Nya dengan ikhlas dan tidak mempersekutukan-Nya dengan sesuatu yang lain. Sedang golongan kedua, adalah golongan yang telah sesat karena mengikuti ajakan setan dan meninggalkan perintah Allah Penciptanya. Setan itulah yang dijadikan pelindungnya, bukan Allah. Anehnya mereka sudah sesat dengan menempuh jalan yang dilarang oleh Allah mengerjakan perbuatan yang tidak diridai-Nya, tetapi masih menyangka bahwa mereka memperoleh petunjuk. Orang yang demikian adalah orang yang paling merugi, sebagaimana firman Allah: \n\u0642\u064f\u0644\u0652 \u0647\u064e\u0644\u0652 \u0646\u064f\u0646\u064e\u0628\u0651\u0650\u0626\u064f\u0643\u064f\u0645\u0652 \u0628\u0650\u0627\u0644\u0652\u0627\u064e\u062e\u0652\u0633\u064e\u0631\u0650\u064a\u0652\u0646\u064e \u0627\u064e\u0639\u0652\u0645\u064e\u0627\u0644\u064b\u0627 \u06d7\u0661\u0660\u0663\u0627\u064e\u0644\u0651\u064e\u0630\u0650\u064a\u0652\u0646\u064e \u0636\u064e\u0644\u0651\u064e \u0633\u064e\u0639\u0652\u064a\u064f\u0647\u064f\u0645\u0652 \u0641\u0650\u0649 \u0627\u0644\u0652\u062d\u064e\u064a\u0670\u0648\u0629\u0650 \u0627\u0644\u062f\u0651\u064f\u0646\u0652\u064a\u064e\u0627 \u0648\u064e\u0647\u064f\u0645\u0652 \u064a\u064e\u062d\u0652\u0633\u064e\u0628\u064f\u0648\u0652\u0646\u064e \u0627\u064e\u0646\u0651\u064e\u0647\u064f\u0645\u0652 \u064a\u064f\u062d\u0652\u0633\u0650\u0646\u064f\u0648\u0652\u0646\u064e \u0635\u064f\u0646\u0652\u0639\u064b\u0627 \u0661\u0660\u0664\nKatakanlah (Muhammad), \u201cApakah perlu Kami beritahukan kepadamu tentang orang yang paling rugi perbuatannya?\u201d (Yaitu) orang yang sia-sia perbuatannya dalam kehidupan dunia, sedangkan mereka mengira telah berbuat sebaik-baiknya. (al-Kahf/18: 103-104)",
        "intro_surah": "Surah 7 al-A\u2018r\u0101f yang berjumlah 206 ayat termasuk golongan surah Makkiyah (kecuali ayat 163-167 Madaniyah), diturunkan sebelum turunnya Surah al-An\u2018\u0101m yang termasuk golongan Surah as-sab\u2019 a\u1e6d-\u1e6diw\u0101l (tujuh surah yang panjang). Dinamakan al-A\u2018r\u0101f karena terdapat dalam surah ini yaitu dalam ayat 46 yang mengemukakan tentang keadaan orang-orang yang berada di tempat yang tertinggi antara surga dan neraka.\nPOKOK-POKOK ISINYA: \n1.    Keimanan: \nMengesakan (tauhid) Allah baik dalam berdoa maupun ketika beribadah hanya Allah sendiri yang mengatur dan menjaga alam, menciptakan undang-undang dan hukum-hukum, mengatur kehidupan manusia di dunia dan di akhirat; Allah bersemayam di atas \u2018Arsy; bantahan terhadap kebenaran syirik; ketauhidan adalah sesuai dengan fitrah manusia; Musa berbicara dengan Allah; tentang melihat Allah; perintah beribadah sambil merendahkan diri kepada Allah; dan al-asm\u2019ul \u1e25usn\u0101.\n2.\tHukum: \nLarangan mengikuti perbuatan dan adat istiadat yang buruk; kewajiban mengikuti Allah dan Rasul, perintah memakai pakaian yang baik waktu salat; bantahan terhadap orang yang mengharamkan perhiasan yang dikaruniakan Allah; perintah makan makanan yang halal dan baik dan larangan makan yang sebaliknya.\n3.\tKisah-kisah: \nKisah Nabi Adam dengan Iblis; kisah Nabi Nuh dan kaumnya; kisah Nabi Saleh dengan kaumnya; kisah Nabi Syu\u2019aib dengan kaumnya; kisah Nabi Musa dengan Fir\u2018aun.\n4.\tLain-lain: \nAl-Qur\u2032an diturunkan kepada Nabi yang terakhir berisi perintah untuk mengikuti petunjuknya; Nabi Muhammad saw, diutus kepada semua umat manusia; adab-adab orang mukmin; adab mendengarkan Al-Qur\u2032an ketika dibaca dan berzikir; Rasul bertanggung jawab menyampaikan seruan Allah; balasan terhadap orang yang mengikuti Rasul; Dakwah Rasul yang utama dan pertama kali ialah mengesakan Allah; tentang a\u1e63\u1e25\u0101bul a\u2019r\u0101f yang berada antara surga dengan neraka; Allah pencipta manusia, makhluk yang terbaik yang punya potensi untuk menjadi baik atau buruk; permusuhan setan terhadap anak cucu Adam; manusia khalifah Allah di bumi; kehancuran suatu kaum adalah karena perbuatan mereka sendiri; tiap-tiap bangsa mempunyai masa jaya dan masa kehancuran; Allah menguji manusia dengan kekayaan dan kemiskinan; Allah menarik orang-orang yang mendustakan ayat-ayat-Nya dengan berangsur-angsur ke arah kebinasaan.",
        "outro_surah": null,
        "munasabah_prev_surah": "HUBUNGAN SURAH AL-An\u2018\u0101m \nDENGAN SURAH AL-A\u2019R\u0100F\nHubungan Surah al-An\u2018\u0101m dengan Surah al-A\u2018r\u0101f adalah sebagai berikut: \n1.\tKedua surah tersebut termasuk di antara tujuh surah yang panjang (as-sab\u2019 a\u1e6d-\u1e6diw\u0101l), keduanya sama-sama membicarakan pokok akidah agama. Dalam Surah al-An\u2018\u0101m dikemukakan garis-garis besar akidah-akidah itu, sedangkan Surah al-A\u2018r\u0101f menjelaskannya.\n2.\tDalam Surah al-An\u2018\u0101m diterangkan asal usul kejadian manusia, dari tanah serta menjelaskan tentang beberapa generasi manusia yang telah dibinasakan Allah, kemudian disinggung pula tentang para Rasul dengan menyebut beberapa nama mereka dan kisahnya secara garis besarnya, sedang Surah al-A\u2018r\u0101f menjelaskannya.\n3.\tPada bagian terakhir Surah al-An\u2018\u0101m, dinyatakan bahwa Allah menjadikan manusia khalifah di bumi serta mengangkat derajat sebagian mereka, maka pada permulaan Surah al-A\u2018r\u0101f dikemukakan tentang penciptaan Adam dan anak cucunya kemudian dijadikan-Nya khalifah di bumi, begitu juga anak cucunya.\n4.\tMengenai hubungan bagian akhir Surah al-An\u2018\u0101m dengan bagian permulaan Surah sl-Ar\u2019\u0101f adalah sebagai berikut: \na.\tBagian akhir Surah al-An\u2018\u0101m menjelaskan bahwa Al-Qur\u2032an adalah kitab pedoman yang benar ke jalan yang lurus dan diberkahi, maka umat manusia diperintahkan mengikutinya. Pada bagian permulaan Surah al-A\u2018r\u0101f perintah itu diulang dan dikemukakan pula larangan mengikuti selainnya.\nb.\tPada bagian akhir Surah al-An\u2018\u0101m dijelaskan, bahwa Allah akan memberikan keterangan tentang apa yang seharusnya dilakukan manusia dan menjadi perselisihan mereka. Maka pada bagian permulaan Surah al-A\u2018r\u0101f, dijelaskan apa yang dimaksud dengan \u201cAllah memberi keterangan\u201d yaitu para rasul yang diutus bertugas memberi keterangan dan mereka masing-masing akan dimintai pertanggungjawaban.\nc.\tPada bagian akhir Surah al-An\u2018\u0101m, dinyatakan bahwa orang yang berbuat kebajikan akan diganjar sepuluh kali lipat dan yang berbuat kejahatan akan dibalas seimbang dengan perbuatannya. Untuk menentukan kadar kebajikan dan kejahatan itu ada timbangannya. Maka di bagian muka Surah al-A\u2018r\u0101f, dikemukakan bahwa timbangan pada hari itu ialah kebenaran dan keadilan. Siapa yang berat timbangannya dialah orang yang beruntung dan siapa yang ringan timbangannya dialah yang merugi. Kemudian diceritakan keadaan nasib a\u1e63h\u0101bul a\u2019r\u0101f.",
        "munasabah_prev_theme": "Pada ayat-ayat yang lalu diterangkan bahwa Allah telah menjadikan setan itu teman bagi orang-orang yang ingkar yang berhasil dipengaruhi dan dikuasai oleh setan. Pada ayat-ayat berikut ini diterangkan tentang orang yang mengikuti tradisi nenek moyang mereka meskipun tradisi itu salah. Ayat ini juga menjelaskan pengaruh kekuasaan setan kepada mereka, dengan menuruti kemauan setan itu dengan tidak disadarinya.",
        "theme_group": "KEGAGALAN KAUM MUSYRIK\nDAN ALASAN-ALASAN MEREKA YANG LEMAH",
        "kosakata": "Kosakata: F\u0101\u1e25isyah \u0641\u064e\u0627\u062d\u0650\u0634\u064e\u0629\u064b   (al-A\u2018r\u0101f/7: 28)\nKata f\u0101\u1e25isyah adalah isim fa\u2019il dari kata fa\u1e25isya\u2014yaf\u1e25asyu\u2014fa\u1e25syan. Kalimat f\u0101\u1e25isyal-amru berarti perkara itu melampaui batas. Kata f\u0101hisyah dalam istilah Al-Qur\u2019an berarti setiap ucapan dan perbuatan yang buruk. Bentuk jamaknya adalah faw\u0101\u1e25isy. Selain kata f\u0101\u1e25isyah, Al-Qur\u2019an juga sering menggunakan kata fa\u1e25sy\u0101\u2019. Kedua kata ini di dalam Al-Qur\u2019an digunakan untuk beberapa makna. Di antaranya adalah kikir sebagaimana dalam firman Allah, \u201cSetan menjanjikan (menakut-nakuti) kamu dengan kemiskinan dan menyuruh kamu berbuat kejahatan (kikir)\u2026\u201d (al-Baqarah /2: 268); zina sebagaimana dalam firman Allah, \u201cDan (terhadap) para wanita yang mengerjakan perbuatan keji\u2026\u201d (an-Nis\u0101\u2019/4: 15); syirik sebagaimana dalam firman Allah Ta\u2019ala, \u201c\u2026Sesungguhnya Allah tidak menyuruh (mengerjakan) perbuatan yang keji\u2026\u201d (al-A\u2018r\u0101f/7: 28). Dan lain sebagainya.",
        "sabab_nuzul": null,
        "conclusion": "1.\tOrang-orang yang tidak beriman apabila dicela karena perbuatannya yang keji, mereka berdalih bahwa perbuatan mereka berasal dari nenek moyang mereka, bahkan menuduh bahwa Allah yang memerintahkan mereka berbuat demikian, padahal Allah tidak menyuruhnya.\n2. Allah menyuruh berbuat baik, adil, mengerjakan salat dan beribadah kepada-Nya dengan ikhlas.\n3. Manusia di hari kemudian terbagi dua golongan. Golongan yang satu mendapat taufik di dunia dan mereka berbahagia, dan golongan yang lain adalah golongan yang sesat karena mengikuti bujukan setan dan meninggalkan perintah Allah dan mereka merugi."
    }
}