{
    "id": 976,
    "surah_id": 7,
    "ayah": 22,
    "page": 152,
    "quarter_hizb": 16,
    "juz": 8,
    "manzil": 2,
    "arabic": "\u0641\u064e\u062f\u064e\u0644\u0651\u0670\u0649\u0647\u064f\u0645\u064e\u0627 \u0628\u0650\u063a\u064f\u0631\u064f\u0648\u0652\u0631\u064d\u06da \u0641\u064e\u0644\u064e\u0645\u0651\u064e\u0627 \u0630\u064e\u0627\u0642\u064e\u0627 \u0627\u0644\u0634\u0651\u064e\u062c\u064e\u0631\u064e\u0629\u064e \u0628\u064e\u062f\u064e\u062a\u0652 \u0644\u064e\u0647\u064f\u0645\u064e\u0627 \u0633\u064e\u0648\u0652\u0621\u0670\u062a\u064f\u0647\u064f\u0645\u064e\u0627 \u0648\u064e\u0637\u064e\u0641\u0650\u0642\u064e\u0627 \u064a\u064e\u062e\u0652\u0635\u0650\u0641\u0670\u0646\u0650 \u0639\u064e\u0644\u064e\u064a\u0652\u0647\u0650\u0645\u064e\u0627 \u0645\u0650\u0646\u0652 \u0648\u0651\u064e\u0631\u064e\u0642\u0650 \u0627\u0644\u0652\u062c\u064e\u0646\u0651\u064e\u0629\u0650\u06d7 \u0648\u064e\u0646\u064e\u0627\u062f\u0670\u0649\u0647\u064f\u0645\u064e\u0627 \u0631\u064e\u0628\u0651\u064f\u0647\u064f\u0645\u064e\u0627\u0653 \u0627\u064e\u0644\u064e\u0645\u0652 \u0627\u064e\u0646\u0652\u0647\u064e\u0643\u064f\u0645\u064e\u0627 \u0639\u064e\u0646\u0652 \u062a\u0650\u0644\u0652\u0643\u064f\u0645\u064e\u0627 \u0627\u0644\u0634\u0651\u064e\u062c\u064e\u0631\u064e\u0629\u0650 \u0648\u064e\u0627\u064e\u0642\u064f\u0644\u0652 \u0644\u0651\u064e\u0643\u064f\u0645\u064e\u0627\u0653 \u0627\u0650\u0646\u0651\u064e \u0627\u0644\u0634\u0651\u064e\u064a\u0652\u0637\u0670\u0646\u064e \u0644\u064e\u0643\u064f\u0645\u064e\u0627 \u0639\u064e\u062f\u064f\u0648\u0651\u064c \u0645\u0651\u064f\u0628\u0650\u064a\u0652\u0646\u064c ",
    "latin": "Fa dall\u0101hum\u0101 bigur\u016br(in), falamm\u0101 \u017c\u0101qasy-syajarata badat lahum\u0101 sau'\u0101tuhum\u0101 wa \u1e6dafiq\u0101 yakh\u1e63if\u0101ni \u2018alaihim\u0101 miw waraqil-jannah(ti), wa n\u0101d\u0101hum\u0101 rabbuhum\u0101 alam anhakum\u0101 \u2018an tilkumasy-syajarati wa aqul lakum\u0101 innasy-syai\u1e6d\u0101na lakum\u0101 \u2018aduwwum mub\u012bn(un).",
    "translation": "Ia (setan) menjerumuskan keduanya dengan tipu daya. Maka, ketika keduanya telah mencicipi (buah) pohon itu, tampaklah pada keduanya auratnya dan mulailah keduanya menutupinya dengan daun-daun (di) surga. Tuhan mereka menyeru mereka, \u201cBukankah Aku telah melarang kamu berdua dari pohon itu dan Aku telah mengatakan bahwa sesungguhnya setan adalah musuh yang nyata bagi kamu berdua?\u201d",
    "no_footnote": null,
    "footnotes": null,
    "surah": {
        "id": 7,
        "arabic": " \u0627\u0644\u0627\u0639\u0631\u0627\u0641",
        "latin": "Al-A\u2018r\u0101f",
        "transliteration": "Al-A\u2018raf",
        "translation": "Tempat Tertinggi",
        "num_ayah": 206,
        "page": 151,
        "location": "Makkiyah"
    },
    "tafsir": {
        "wajiz": "Dia, setan, pun tak henti-hentinya membujuk mereka dengan berbagai macam tipu daya. Hal tersebut membuat Adam dan istrinya lupa akan larangan Allah, sehingga mereka memakan buah pohon itu. Ketika mereka mencicipi dan belum memakan buah pohon itu secara sempurna, tampaklah oleh mereka auratnya masing-masing dan tampak pula bagi masing-masing aurat pasangannya. Hal ini membuat keduanya merasa malu, aurat yang senantiasa tertutup kini tersingkap. Maka mulailah mereka menutupinya, yakni menutupi auratnya, dengan daun-daun surga. Dan ketika itu juga Tuhan menyeru mereka sambil mengecam perbuatan mereka, \u201cHai kedua hamba-Ku! Bukankah Aku telah melarang kamu dari mendekati pohon itu dan Aku telah mengatakan bahwa sesungguhnya setan adalah musuh yang nyata bagi kamu berdua?\u201d Ayat ini menunjukkan bahwa tersingkapnya aurat seseorang merupakan perkara yang melawan tabiat manusia, karena sejak manusia diciptakan aurat adalah hal yang harus ditutupi.",
        "tahlili": "Iblis menunjukkan kesungguhannya, sehingga Adam tidak melihat sedikit pun sesuatu yang mencurigakan. Apa yang dikemukakan Iblis dan dianjurkannya itu adalah bohong atau tipu daya belaka, maka keduanya terpengaruh dengan bujukan Iblis penipu itu, lalu mereka makan buah pohon yang dilarang oleh Allah untuk mendekatinya. Lalu keduanya lupa sama sekali akan kedudukan mereka dan larangan Allah kepada mereka, sebagaimana firman Allah: \n\u0648\u064e\u0644\u064e\u0642\u064e\u062f\u0652 \u0639\u064e\u0647\u0650\u062f\u0652\u0646\u064e\u0627\u0653 \u0627\u0650\u0644\u0670\u0653\u0649 \u0627\u0670\u062f\u064e\u0645\u064e \u0645\u0650\u0646\u0652 \u0642\u064e\u0628\u0652\u0644\u064f \u0641\u064e\u0646\u064e\u0633\u0650\u064a\u064e \u0648\u064e\u0644\u064e\u0645\u0652 \u0646\u064e\u062c\u0650\u062f\u0652 \u0644\u064e\u0647\u0657 \u0639\u064e\u0632\u0652\u0645\u064b\u0627 \u08d6 \u0661\u0661\u0665\nDan sungguh telah Kami pesankan kepada Adam dahulu, tetapi dia lupa, dan Kami tidak dapati kemauan yang kuat padanya. (\u1e6c\u0101h\u0101/20: 115).\nAl-Qur\u2019an tidak menyebutkan siapa yang terlebih dahulu makan buah larangan itu, apakah Adam atau Hawa. Untuk itu pencarian informasi tentang hal ini tidaklah penting.\nSetelah kejadian tersebut, Allah mencela Adam karena tidak mengindahkan larangan-Nya dan tidak mematuhi-Nya, sehingga ia terperdaya dan menuruti bujukan Iblis penipu itu. Lalu Allah memperingatkannya, \u201cBukankah Aku telah melarang kamu berdua mendekati pohon itu dan makan buahnya, dan Aku telah menandaskan kepadamu bahwa setan itu adalah musuhmu yang nyata, apabila kamu menuruti kemauan dan kehendaknya, Aku akan mengeluarkan kamu dari kehidupan yang lapang, senang dan bahagia kepada kehidupan yang penuh kesulitan, penderitaan dan kesusahan.\u201d Sejalan dengan hal tersebut, Allah berfirman: \n\u0641\u064e\u0642\u064f\u0644\u0652\u0646\u064e\u0627 \u064a\u0670\u0653\u0627\u0670\u062f\u064e\u0645\u064f \u0627\u0650\u0646\u0651\u064e \u0647\u0670\u0630\u064e\u0627 \u0639\u064e\u062f\u064f\u0648\u0651\u064c \u0644\u0651\u064e\u0643\u064e \u0648\u064e\u0644\u0650\u0632\u064e\u0648\u0652\u062c\u0650\u0643\u064e \u0641\u064e\u0644\u064e\u0627 \u064a\u064f\u062e\u0652\u0631\u0650\u062c\u064e\u0646\u0651\u064e\u0643\u064f\u0645\u064e\u0627 \u0645\u0650\u0646\u064e \u0627\u0644\u0652\u062c\u064e\u0646\u0651\u064e\u0629\u0650 \u0641\u064e\u062a\u064e\u0634\u0652\u0642\u0670\u0649 \u0661\u0661\u0667\nKemudian Kami berfirman, \u201cWahai Adam! Sungguh ini (Iblis) musuh bagimu dan bagi istrimu, maka sekali-kali jangan sampai dia mengeluarkan kamu berdua dari surga, nanti kamu celaka.\u201d  (\u1e6c\u0101h\u0101/20: 117).",
        "intro_surah": "Surah 7 al-A\u2018r\u0101f yang berjumlah 206 ayat termasuk golongan surah Makkiyah (kecuali ayat 163-167 Madaniyah), diturunkan sebelum turunnya Surah al-An\u2018\u0101m yang termasuk golongan Surah as-sab\u2019 a\u1e6d-\u1e6diw\u0101l (tujuh surah yang panjang). Dinamakan al-A\u2018r\u0101f karena terdapat dalam surah ini yaitu dalam ayat 46 yang mengemukakan tentang keadaan orang-orang yang berada di tempat yang tertinggi antara surga dan neraka.\nPOKOK-POKOK ISINYA: \n1.    Keimanan: \nMengesakan (tauhid) Allah baik dalam berdoa maupun ketika beribadah hanya Allah sendiri yang mengatur dan menjaga alam, menciptakan undang-undang dan hukum-hukum, mengatur kehidupan manusia di dunia dan di akhirat; Allah bersemayam di atas \u2018Arsy; bantahan terhadap kebenaran syirik; ketauhidan adalah sesuai dengan fitrah manusia; Musa berbicara dengan Allah; tentang melihat Allah; perintah beribadah sambil merendahkan diri kepada Allah; dan al-asm\u2019ul \u1e25usn\u0101.\n2.\tHukum: \nLarangan mengikuti perbuatan dan adat istiadat yang buruk; kewajiban mengikuti Allah dan Rasul, perintah memakai pakaian yang baik waktu salat; bantahan terhadap orang yang mengharamkan perhiasan yang dikaruniakan Allah; perintah makan makanan yang halal dan baik dan larangan makan yang sebaliknya.\n3.\tKisah-kisah: \nKisah Nabi Adam dengan Iblis; kisah Nabi Nuh dan kaumnya; kisah Nabi Saleh dengan kaumnya; kisah Nabi Syu\u2019aib dengan kaumnya; kisah Nabi Musa dengan Fir\u2018aun.\n4.\tLain-lain: \nAl-Qur\u2032an diturunkan kepada Nabi yang terakhir berisi perintah untuk mengikuti petunjuknya; Nabi Muhammad saw, diutus kepada semua umat manusia; adab-adab orang mukmin; adab mendengarkan Al-Qur\u2032an ketika dibaca dan berzikir; Rasul bertanggung jawab menyampaikan seruan Allah; balasan terhadap orang yang mengikuti Rasul; Dakwah Rasul yang utama dan pertama kali ialah mengesakan Allah; tentang a\u1e63\u1e25\u0101bul a\u2019r\u0101f yang berada antara surga dengan neraka; Allah pencipta manusia, makhluk yang terbaik yang punya potensi untuk menjadi baik atau buruk; permusuhan setan terhadap anak cucu Adam; manusia khalifah Allah di bumi; kehancuran suatu kaum adalah karena perbuatan mereka sendiri; tiap-tiap bangsa mempunyai masa jaya dan masa kehancuran; Allah menguji manusia dengan kekayaan dan kemiskinan; Allah menarik orang-orang yang mendustakan ayat-ayat-Nya dengan berangsur-angsur ke arah kebinasaan.",
        "outro_surah": null,
        "munasabah_prev_surah": "HUBUNGAN SURAH AL-An\u2018\u0101m \nDENGAN SURAH AL-A\u2019R\u0100F\nHubungan Surah al-An\u2018\u0101m dengan Surah al-A\u2018r\u0101f adalah sebagai berikut: \n1.\tKedua surah tersebut termasuk di antara tujuh surah yang panjang (as-sab\u2019 a\u1e6d-\u1e6diw\u0101l), keduanya sama-sama membicarakan pokok akidah agama. Dalam Surah al-An\u2018\u0101m dikemukakan garis-garis besar akidah-akidah itu, sedangkan Surah al-A\u2018r\u0101f menjelaskannya.\n2.\tDalam Surah al-An\u2018\u0101m diterangkan asal usul kejadian manusia, dari tanah serta menjelaskan tentang beberapa generasi manusia yang telah dibinasakan Allah, kemudian disinggung pula tentang para Rasul dengan menyebut beberapa nama mereka dan kisahnya secara garis besarnya, sedang Surah al-A\u2018r\u0101f menjelaskannya.\n3.\tPada bagian terakhir Surah al-An\u2018\u0101m, dinyatakan bahwa Allah menjadikan manusia khalifah di bumi serta mengangkat derajat sebagian mereka, maka pada permulaan Surah al-A\u2018r\u0101f dikemukakan tentang penciptaan Adam dan anak cucunya kemudian dijadikan-Nya khalifah di bumi, begitu juga anak cucunya.\n4.\tMengenai hubungan bagian akhir Surah al-An\u2018\u0101m dengan bagian permulaan Surah sl-Ar\u2019\u0101f adalah sebagai berikut: \na.\tBagian akhir Surah al-An\u2018\u0101m menjelaskan bahwa Al-Qur\u2032an adalah kitab pedoman yang benar ke jalan yang lurus dan diberkahi, maka umat manusia diperintahkan mengikutinya. Pada bagian permulaan Surah al-A\u2018r\u0101f perintah itu diulang dan dikemukakan pula larangan mengikuti selainnya.\nb.\tPada bagian akhir Surah al-An\u2018\u0101m dijelaskan, bahwa Allah akan memberikan keterangan tentang apa yang seharusnya dilakukan manusia dan menjadi perselisihan mereka. Maka pada bagian permulaan Surah al-A\u2018r\u0101f, dijelaskan apa yang dimaksud dengan \u201cAllah memberi keterangan\u201d yaitu para rasul yang diutus bertugas memberi keterangan dan mereka masing-masing akan dimintai pertanggungjawaban.\nc.\tPada bagian akhir Surah al-An\u2018\u0101m, dinyatakan bahwa orang yang berbuat kebajikan akan diganjar sepuluh kali lipat dan yang berbuat kejahatan akan dibalas seimbang dengan perbuatannya. Untuk menentukan kadar kebajikan dan kejahatan itu ada timbangannya. Maka di bagian muka Surah al-A\u2018r\u0101f, dikemukakan bahwa timbangan pada hari itu ialah kebenaran dan keadilan. Siapa yang berat timbangannya dialah orang yang beruntung dan siapa yang ringan timbangannya dialah yang merugi. Kemudian diceritakan keadaan nasib a\u1e63h\u0101bul a\u2019r\u0101f.",
        "munasabah_prev_theme": "Pada ayat-ayat yang lalu diterangkan tentang penciptaan Adam a.s, lalu Allah menyuruh malaikat sujud kepada Adam, maka sujudlah para malaikat kecuali Iblis, maka pada ayat-ayat berikut ini diterangkan kisah hidup antara Adam dan Hawa selama bertempat tinggal di surga dan keluarnya dari surga itu.",
        "theme_group": "KISAH ADAM KELUAR DARI SURGA",
        "kosakata": "1. Waswasa  \u0648\u064e\u0633\u0652\u0648\u064e\u0633\u064e(al-A\u2018r\u0101f/7: 20)\nPada mulanya ungkapan ini digunakan untuk suara gesekan perhiasan. Kemudian digunakan untuk bisikan setan kepada manusia secara terus menerus.     \n2. Yakh\u1e63if\u0101n  \u064a\u064e\u062e\u0652\u0635\u0650\u0641\u064e\u0627\u0646\u0650 (al-A\u2018r\u0101f/7: 22)\nMu\u1e0dari\u2019 dari kha\u1e63afa. Akar kata yang terdiri dari huruf-huruf  (\u062e- \u0635- \u0641) mempunyai arti berkumpulnya sesuatu pada sesuatu yang lain. Dari arti ini kemudian muncul  arti menempelkan sesuatu kepada sesuatu. Perbuatan menambal terompah disebut dengan kha\u1e63f an-na\u2019l karena dia telah meletakkan atau menempelkan sepotong kulit pada terompah yang ditambal. Kata yakhshif\u0101n pada ayat di atas menggambarkan bahwa keduanya (Nabi Adam dan Siti Hawa) menempelkan daun-daun yang ada di surga, satu sama lain dengan maksud menutupi aurat mereka, ketika setan berhasil menipu mereka untuk makan buah larangan.",
        "sabab_nuzul": null,
        "conclusion": null
    }
}