{
    "id": 1039,
    "surah_id": 7,
    "ayah": 85,
    "page": 161,
    "quarter_hizb": 16.75,
    "juz": 8,
    "manzil": 2,
    "arabic": "\u0648\u064e\u0627\u0650\u0644\u0670\u0649 \u0645\u064e\u062f\u0652\u064a\u064e\u0646\u064e \u0627\u064e\u062e\u064e\u0627\u0647\u064f\u0645\u0652 \u0634\u064f\u0639\u064e\u064a\u0652\u0628\u064b\u0627\u06d7 \u0642\u064e\u0627\u0644\u064e \u064a\u0670\u0642\u064e\u0648\u0652\u0645\u0650 \u0627\u0639\u0652\u0628\u064f\u062f\u064f\u0648\u0627 \u0627\u0644\u0644\u0651\u0670\u0647\u064e \u0645\u064e\u0627 \u0644\u064e\u0643\u064f\u0645\u0652 \u0645\u0651\u0650\u0646\u0652 \u0627\u0650\u0644\u0670\u0647\u064d \u063a\u064e\u064a\u0652\u0631\u064f\u0647\u0657\u06d7 \u0642\u064e\u062f\u0652 \u062c\u064e\u0627\u06e4\u0621\u064e\u062a\u0652\u0643\u064f\u0645\u0652 \u0628\u064e\u064a\u0651\u0650\u0646\u064e\u0629\u064c \u0645\u0651\u0650\u0646\u0652 \u0631\u0651\u064e\u0628\u0651\u0650\u0643\u064f\u0645\u0652 \u0641\u064e\u0627\u064e\u0648\u0652\u0641\u064f\u0648\u0627 \u0627\u0644\u0652\u0643\u064e\u064a\u0652\u0644\u064e \u0648\u064e\u0627\u0644\u0652\u0645\u0650\u064a\u0652\u0632\u064e\u0627\u0646\u064e \u0648\u064e\u0644\u064e\u0627 \u062a\u064e\u0628\u0652\u062e\u064e\u0633\u064f\u0648\u0627 \u0627\u0644\u0646\u0651\u064e\u0627\u0633\u064e \u0627\u064e\u0634\u0652\u064a\u064e\u0627\u06e4\u0621\u064e\u0647\u064f\u0645\u0652 \u0648\u064e\u0644\u064e\u0627 \u062a\u064f\u0641\u0652\u0633\u0650\u062f\u064f\u0648\u0652\u0627 \u0641\u0650\u0649 \u0627\u0644\u0652\u0627\u064e\u0631\u0652\u0636\u0650 \u0628\u064e\u0639\u0652\u062f\u064e \u0627\u0650\u0635\u0652\u0644\u064e\u0627\u062d\u0650\u0647\u064e\u0627\u06d7 \u0630\u0670\u0644\u0650\u0643\u064f\u0645\u0652 \u062e\u064e\u064a\u0652\u0631\u064c \u0644\u0651\u064e\u0643\u064f\u0645\u0652 \u0627\u0650\u0646\u0652 \u0643\u064f\u0646\u0652\u062a\u064f\u0645\u0652 \u0645\u0651\u064f\u0624\u0652\u0645\u0650\u0646\u0650\u064a\u0652\u0646\u06da\u064e ",
    "latin": "Wa il\u0101 madyana akh\u0101hum syu\u2018aib\u0101(n), q\u0101la y\u0101 qaumi\u2018budull\u0101ha m\u0101 lakum min il\u0101hin gairuh(\u016b), qad j\u0101'atkum bayyinatum mir rabbikum fa auful-kaila wal-m\u012bz\u0101na wa l\u0101 tabkhasun-n\u0101sa asy-y\u0101'ahum wa l\u0101 tufsid\u016b fil-ar\u1e0di ba\u2018da i\u1e63l\u0101\u1e25ih\u0101, \u017c\u0101likum khairul lakum in kuntum mu'min\u012bn(a).",
    "translation": "Kepada penduduk Madyan,276) Kami (utus) saudara mereka, Syu\u02bbaib. Dia berkata, \u201cWahai kaumku, sembahlah Allah. Tidak ada bagimu tuhan (yang disembah) selain Dia. Sungguh, telah datang kepadamu bukti yang nyata dari Tuhanmu. Maka, sempurnakanlah takaran dan timbangan, dan janganlah merugikan (hak-hak) orang lain sedikit pun. Jangan (pula) berbuat kerusakan di bumi setelah perbaikannya.277) Itulah lebih baik bagimu, jika kamu beriman.\u201d",
    "no_footnote": "276, 277",
    "footnotes": "276) Madyan pada mulanya adalah nama putra Nabi Ibrahim a.s. dari istri beliau yang ketiga, Qatura. Madyan menikah dengan putri Nabi Lut a.s. Selanjutnya, kata Madyan dipakai sebagai sebutan bagi suku yang berasal dari keturunan Madyan. Mereka tinggal di pantai Laut Merah sebelah tenggara Gurun Sinai, yaitu antara Hijaz, tepatnya Tabuk Saudi Arabia dan Teluk Aqabah.\n277) Yakni perbaikan melalui syariat dan aturan yang dibawa oleh para nabi dan dilanjutkan oleh para penerusnya.",
    "surah": {
        "id": 7,
        "arabic": " \u0627\u0644\u0627\u0639\u0631\u0627\u0641",
        "latin": "Al-A\u2018r\u0101f",
        "transliteration": "Al-A\u2018raf",
        "translation": "Tempat Tertinggi",
        "num_ayah": 206,
        "page": 151,
        "location": "Makkiyah"
    },
    "tafsir": {
        "wajiz": "Setelah dijelaskan kisah kedurhakaan kaum Nabi Lut, kerusakan akhlak mereka karena melakukan perbuatan homoseksual, dan azab yang mereka terima, selanjutnya pembicaraan beralih kepada kisah Nabi Syuaib dan kaumnya. Dan kepada penduduk negeri dan suku Madyan, Kami utus Nabi Syuaib, saudara mereka sendiri yang terkenal sebagai orator para nabi. Dia berkata, \u201cWahai kaumku! Sembahlah Allah Tuhan Yang Maha Esa. Tidak ada tuhan sembahan yang patut disembah bagimu selain Dia. Sesungguhnya telah datang kepadamu bukti yang nyata, yang membuktikan kebenaranku sebagai utusan-Nya. Bukti itu dari Tuhan yang senantiasa memilihara-mu. Maka, karena itu patuhilah tuntunan yang aku sampaikan kepadamu. Sempurnakanlah takaran dan yang ditakar dan timbangan serta yang ditimbang, dan jangan kamu merugikan orang sedikit pun dengan mengurangi takaran dan timbangan. Janganlah kamu berbuat kerusakan di bumi dalam bentuk apa pun setelah diciptakan dengan baik. Itulah yang lebih baik bagimu dan anak keturunan serta generasi sesudahmu jika kamu benar-benar orang beriman kepada Allah dan hari akhir.\u201d",
        "tahlili": "Ayat ini menceritakan bahwa kaum Madyan yaitu kaum Nabi Syu\u2019aib tidak bersyukur kepada Allah disamping mereka mempersekutukan-Nya. Akhlak mereka sangat buruk sehingga kehidupan mereka bergelimang dalam penipuan, sampai kepada urusan tukar-menukar, timbang-menimbang. Menurut suatu riwayat jika orang asing datang berkunjung, mereka sepakat menuduh bahwa uang yang dibawa orang asing itu palsu, dengan demikian mereka menukarnya dengan harga (kurs) yang rendah sekali. Kepada kaum ini Allah mengutus Nabi Syu\u2019aib agar dia menunjukkan kepada mereka jalan yang benar dan meninggalkan kecurangan dalam takaran dan timbangan.\nSebagaimana biasanya bahwa Allah memperkuat kenabian setiap Nabi-Nya dengan mukjizat seperti diketahui dari hadis Abu Hurairah, yaitu: \n\u0645\u064e\u0627 \u0645\u0650\u0646\u064e \u0627\u0652\u0644\u0623\u064e\u0646\u0652\u0628\u0650\u064a\u064e\u0627\u0621\u0650 \u0646\u0628\u0650\u064a\u0651\u064c \u0625\u0650\u0644\u0627\u0651\u064e \u0623\u064f\u0639\u0652\u0637\u0650\u064a\u064e \u0645\u0650\u0646\u064e \u0627\u0644\u0627\u0670\u064a\u064e\u0627\u062a\u0650 \u0645\u0650\u062b\u0652\u0644\u064f\u0647\u064e\u0627 \u0627\u0670\u0645\u064e\u0646\u064e \u0639\u064e\u0644\u064e\u064a\u0652\u0647\u0650 \u0627\u0644\u0652\u0628\u064e\u0634\u064e\u0631\u064f \u0648\u064e\u0625\u0650\u0646\u0651\u064e\u0645\u064e\u0627 \u0643\u064e\u0627\u0646\u064e \u0627\u0644\u0651\u064e\u0630\u0650\u064a\u0652 \u0623\u064f\u0648\u0652\u062a\u0650\u064a\u0652\u062a\u064f \u0648\u064e\u062d\u0652\u064a\u064b\u0627 \u0623\u064e\u0648\u0652\u062d\u064e\u0649 \u0627\u0644\u0644\u0651\u0670\u0647\u064f\u0625\u0650\u0644\u064e\u064a\u0651\u064e \u0641\u064e\u0623\u064e\u0631\u0652\u062c\u064f\u0648\u0652 \u0623\u064e\u0646\u0652 \u0623\u064e\u0643\u064f\u0648\u0652\u0646\u064e \u0623\u064e\u0643\u0652\u062b\u064e\u0631\u064e\u0647\u064f\u0645\u0652 \u062a\u064e\u0627\u0628\u0650\u0639\u064b\u0627 \u064a\u064e\u0648\u0652\u0645\u064e \u0627\u0644\u0652\u0642\u0650\u064a\u064e\u0627\u0645\u064e\u0629\u0650 (\u0631\u0648\u0627\u0647 \u0627\u0644\u0628\u062e\u0627\u0631\u064a \u0648\u0645\u0633\u0644\u0645)\n\u201cTidak seorang Nabi pun dari kalangan nabi-nabi kecuali diberikan kepadanya tanda-tanda kenabiannya yang menjadikan manusia percaya kepadanya. Sesungguhnya yang diberikan kepadaku ialah wahyu yang disampaikan kepadaku yaitu (Al-Qur\u2032an). Maka aku mengharap bahwa aku akan mempunyai pengikut yang lebih banyak dari pada pengikut-pengikut nabi-nabi pada hari Kiamat\u201d. (Riwayat al-Bukh\u0101r\u012b dan Muslim).\nTidak terdapat satu ayat pun dalam Al-Qur\u2032an yang menerangkan tentang mukjizat yang diberikan kepada Nabi Syu\u2019aib. Fakhrur Razi dalam tafsirnya, mengutip az-Zamakhsyari dalam tafsirnya \u201cAl-Kasysy\u0101f\u201d mengatakan bahwa di antara mukjizat Nabi Syu\u2019aib, yaitu dia memberikan tongkatnya kepada Nabi Musa. Tongkat itulah membinasakan ular-ular besar milik tukang-tukang sihir Fir\u2018aun. Juga dia berkata kepada Nabi Musa, bahwa kambing-kambing ini akan beranak semuanya berbulu hitam putih, kemudian ternyata benar sebagaimana yang diucapkannya itu.",
        "intro_surah": "Surah 7 al-A\u2018r\u0101f yang berjumlah 206 ayat termasuk golongan surah Makkiyah (kecuali ayat 163-167 Madaniyah), diturunkan sebelum turunnya Surah al-An\u2018\u0101m yang termasuk golongan Surah as-sab\u2019 a\u1e6d-\u1e6diw\u0101l (tujuh surah yang panjang). Dinamakan al-A\u2018r\u0101f karena terdapat dalam surah ini yaitu dalam ayat 46 yang mengemukakan tentang keadaan orang-orang yang berada di tempat yang tertinggi antara surga dan neraka.\nPOKOK-POKOK ISINYA: \n1.    Keimanan: \nMengesakan (tauhid) Allah baik dalam berdoa maupun ketika beribadah hanya Allah sendiri yang mengatur dan menjaga alam, menciptakan undang-undang dan hukum-hukum, mengatur kehidupan manusia di dunia dan di akhirat; Allah bersemayam di atas \u2018Arsy; bantahan terhadap kebenaran syirik; ketauhidan adalah sesuai dengan fitrah manusia; Musa berbicara dengan Allah; tentang melihat Allah; perintah beribadah sambil merendahkan diri kepada Allah; dan al-asm\u2019ul \u1e25usn\u0101.\n2.\tHukum: \nLarangan mengikuti perbuatan dan adat istiadat yang buruk; kewajiban mengikuti Allah dan Rasul, perintah memakai pakaian yang baik waktu salat; bantahan terhadap orang yang mengharamkan perhiasan yang dikaruniakan Allah; perintah makan makanan yang halal dan baik dan larangan makan yang sebaliknya.\n3.\tKisah-kisah: \nKisah Nabi Adam dengan Iblis; kisah Nabi Nuh dan kaumnya; kisah Nabi Saleh dengan kaumnya; kisah Nabi Syu\u2019aib dengan kaumnya; kisah Nabi Musa dengan Fir\u2018aun.\n4.\tLain-lain: \nAl-Qur\u2032an diturunkan kepada Nabi yang terakhir berisi perintah untuk mengikuti petunjuknya; Nabi Muhammad saw, diutus kepada semua umat manusia; adab-adab orang mukmin; adab mendengarkan Al-Qur\u2032an ketika dibaca dan berzikir; Rasul bertanggung jawab menyampaikan seruan Allah; balasan terhadap orang yang mengikuti Rasul; Dakwah Rasul yang utama dan pertama kali ialah mengesakan Allah; tentang a\u1e63\u1e25\u0101bul a\u2019r\u0101f yang berada antara surga dengan neraka; Allah pencipta manusia, makhluk yang terbaik yang punya potensi untuk menjadi baik atau buruk; permusuhan setan terhadap anak cucu Adam; manusia khalifah Allah di bumi; kehancuran suatu kaum adalah karena perbuatan mereka sendiri; tiap-tiap bangsa mempunyai masa jaya dan masa kehancuran; Allah menguji manusia dengan kekayaan dan kemiskinan; Allah menarik orang-orang yang mendustakan ayat-ayat-Nya dengan berangsur-angsur ke arah kebinasaan.",
        "outro_surah": null,
        "munasabah_prev_surah": "HUBUNGAN SURAH AL-An\u2018\u0101m \nDENGAN SURAH AL-A\u2019R\u0100F\nHubungan Surah al-An\u2018\u0101m dengan Surah al-A\u2018r\u0101f adalah sebagai berikut: \n1.\tKedua surah tersebut termasuk di antara tujuh surah yang panjang (as-sab\u2019 a\u1e6d-\u1e6diw\u0101l), keduanya sama-sama membicarakan pokok akidah agama. Dalam Surah al-An\u2018\u0101m dikemukakan garis-garis besar akidah-akidah itu, sedangkan Surah al-A\u2018r\u0101f menjelaskannya.\n2.\tDalam Surah al-An\u2018\u0101m diterangkan asal usul kejadian manusia, dari tanah serta menjelaskan tentang beberapa generasi manusia yang telah dibinasakan Allah, kemudian disinggung pula tentang para Rasul dengan menyebut beberapa nama mereka dan kisahnya secara garis besarnya, sedang Surah al-A\u2018r\u0101f menjelaskannya.\n3.\tPada bagian terakhir Surah al-An\u2018\u0101m, dinyatakan bahwa Allah menjadikan manusia khalifah di bumi serta mengangkat derajat sebagian mereka, maka pada permulaan Surah al-A\u2018r\u0101f dikemukakan tentang penciptaan Adam dan anak cucunya kemudian dijadikan-Nya khalifah di bumi, begitu juga anak cucunya.\n4.\tMengenai hubungan bagian akhir Surah al-An\u2018\u0101m dengan bagian permulaan Surah sl-Ar\u2019\u0101f adalah sebagai berikut: \na.\tBagian akhir Surah al-An\u2018\u0101m menjelaskan bahwa Al-Qur\u2032an adalah kitab pedoman yang benar ke jalan yang lurus dan diberkahi, maka umat manusia diperintahkan mengikutinya. Pada bagian permulaan Surah al-A\u2018r\u0101f perintah itu diulang dan dikemukakan pula larangan mengikuti selainnya.\nb.\tPada bagian akhir Surah al-An\u2018\u0101m dijelaskan, bahwa Allah akan memberikan keterangan tentang apa yang seharusnya dilakukan manusia dan menjadi perselisihan mereka. Maka pada bagian permulaan Surah al-A\u2018r\u0101f, dijelaskan apa yang dimaksud dengan \u201cAllah memberi keterangan\u201d yaitu para rasul yang diutus bertugas memberi keterangan dan mereka masing-masing akan dimintai pertanggungjawaban.\nc.\tPada bagian akhir Surah al-An\u2018\u0101m, dinyatakan bahwa orang yang berbuat kebajikan akan diganjar sepuluh kali lipat dan yang berbuat kejahatan akan dibalas seimbang dengan perbuatannya. Untuk menentukan kadar kebajikan dan kejahatan itu ada timbangannya. Maka di bagian muka Surah al-A\u2018r\u0101f, dikemukakan bahwa timbangan pada hari itu ialah kebenaran dan keadilan. Siapa yang berat timbangannya dialah orang yang beruntung dan siapa yang ringan timbangannya dialah yang merugi. Kemudian diceritakan keadaan nasib a\u1e63h\u0101bul a\u2019r\u0101f.",
        "munasabah_prev_theme": "Pada ayat-ayat yang lalu diceritakan tentang kisah kaum Nabi Lut yang sangat rusak akhlaknya sebab mereka mengerjakan perbuatan yang sangat terkutuk yang bertentangan dengan keluhuran budi pekerti, kesehatan, bahkan lebih dari itu bertentangan dengan sunatullah yaitu perbuatan homoseks (sodomi) yang akibatnya mereka dibinasakan oleh Allah setelah mereka semakin hanyut dalam kesesatan. Karena kasih sayang-Nya, Allah telah mengutus seorang nabi, yakni Lut, namun mereka tetap membangkang. Pada ayat-ayat ini diceritakan kisah kaum Madyan, sikapnya dan akibat perbuatannya.",
        "theme_group": "KISAH NABI SYU\u2019AIB",
        "kosakata": "Kosakata: Wal\u0101 Tabkhas\u016b  \u0648\u064e\u0644\u0627\u064e \u062a\u064e\u0628\u0652\u062e\u064e\u0633\u064f\u0648\u0652\u0627(al-A\u2018r\u0101f/7: 85)\nArtinya jangan kamu kurangi. Akar katanya adalah (\u0628- \u062e- \u0633) berarti kurang (naq\u1e63).",
        "sabab_nuzul": null,
        "conclusion": null
    }
}