{
    "id": 1033,
    "surah_id": 7,
    "ayah": 79,
    "page": 160,
    "quarter_hizb": 16.75,
    "juz": 8,
    "manzil": 2,
    "arabic": "\u0641\u064e\u062a\u064e\u0648\u064e\u0644\u0651\u0670\u0649 \u0639\u064e\u0646\u0652\u0647\u064f\u0645\u0652 \u0648\u064e\u0642\u064e\u0627\u0644\u064e \u064a\u0670\u0642\u064e\u0648\u0652\u0645\u0650 \u0644\u064e\u0642\u064e\u062f\u0652 \u0627\u064e\u0628\u0652\u0644\u064e\u063a\u0652\u062a\u064f\u0643\u064f\u0645\u0652 \u0631\u0650\u0633\u064e\u0627\u0644\u064e\u0629\u064e \u0631\u064e\u0628\u0651\u0650\u064a\u0652 \u0648\u064e\u0646\u064e\u0635\u064e\u062d\u0652\u062a\u064f \u0644\u064e\u0643\u064f\u0645\u0652 \u0648\u064e\u0644\u0670\u0643\u0650\u0646\u0652 \u0644\u0651\u064e\u0627 \u062a\u064f\u062d\u0650\u0628\u0651\u064f\u0648\u0652\u0646\u064e \u0627\u0644\u0646\u0651\u0670\u0635\u0650\u062d\u0650\u064a\u0652\u0646\u064e ",
    "latin": "Fa tawall\u0101 \u2018anhum wa q\u0101la y\u0101 qaumi laqad ablagtukum ris\u0101lata rabb\u012b wa na\u1e63a\u1e25tu lakum wa l\u0101kil l\u0101 tu\u1e25ibb\u016bnan-n\u0101\u1e63i\u1e25\u012bn(a).",
    "translation": "Maka, dia (Saleh) meninggalkan mereka seraya berkata, \u201cWahai kaumku, sungguh aku telah menyampaikan kepadamu risalah (amanat) Tuhanku dan aku telah menasihatimu, tetapi kamu tidak menyukai para pemberi nasihat.\u201d ",
    "no_footnote": null,
    "footnotes": null,
    "surah": {
        "id": 7,
        "arabic": " \u0627\u0644\u0627\u0639\u0631\u0627\u0641",
        "latin": "Al-A\u2018r\u0101f",
        "transliteration": "Al-A\u2018raf",
        "translation": "Tempat Tertinggi",
        "num_ayah": 206,
        "page": 151,
        "location": "Makkiyah"
    },
    "tafsir": {
        "wajiz": "Setelah melihat kebinasaan yang menimpa kaumnya akibat disambar petir dan gempa, kemudian dia, Nabi Saleh, pergi dengan berat hati, sedih dan rasa haru meninggalkan mereka yang sudah mati sambil berkata dengan penuh penyesalan dan rasa iba, \u201cWahai kaumku! Sungguh, aku telah menyampaikan amanat Tuhanku berupa pesan dan peringatan-Nya, kepadamu dan aku telah cukup menasihati kamu dengan melarangmu melakukan perbuatan yang akan membawa bencana bagimu. Tetapi kamu tidak menghiraukan seruanku, bahkan tidak menyukai orang yang memberi nasihat, siapa pun dia.\u201d Seruan Nabi Saleh ini menunjukkan cintanya yang sa-ngat besar kepada kaumnya.",
        "tahlili": "Setelah kaum \u1e62am\u016bd binasa akibat disambar petir, ayat ini menerangkan bahwa Nabi Saleh dengan rasa haru dan sedih berkata kepada mereka yang sudah mati, bahwa dia sesungguhnya telah menyampaikan amanat Tuhannya dan telah cukup memberi nasihat kepada mereka namun mereka tidak suka menerima nasihat. Seruan Nabi Saleh ini yang ditujukan kepada kaumnya yang telah mati itu menunjukkan betapa cintanya kepada kaumnya. Hal mana mengingatkan kita kepada seruan Nabi Muhammad terhadap sebagian orang-orang Quraisy yang telah mati dan sudah dikuburkan dalam Perang Badar. Rasulullah berkata: \n \u064a\u064e\u0627 \u0627\u064e\u0628\u064e\u0627 \u062c\u064e\u0647\u0652\u0644\u0650 \u0628\u0652\u0646\u0650 \u0647\u0650\u0634\u064e\u0627\u0645\u064d\u060c \u064a\u064e\u0627 \u0639\u064f\u062a\u0652\u0628\u064e\u0629\u064f \u0628\u0652\u0646\u0650 \u0631\u064e\u0628\u0650\u064a\u0652\u0639\u064e\u0629\u064e \u064a\u064e\u0627 \u0634\u064e\u064a\u0652\u0628\u064e\u0629\u064f \u0628\u0652\u0646\u0650 \u0631\u064e\u0628\u0650\u064a\u0652\u0639\u064e\u0629\u064e \u0648\u064e\u064a\u064e\u0627 \u0641\u064f\u0644\u0627\u064e\u0646\u064f \u0628\u0652\u0646\u0650 \u0641\u064f\u0644\u0627\u064e\u0646\u064d \u0648\u064e\u0641\u064f\u0644\u0627\u064e\u0646\u064f \u0628\u0652\u0646\u0650 \u0641\u064f\u0644\u0627\u064e\u0646\u064d: \u0647\u064e\u0644\u0652 \u0648\u064e\u062c\u064e\u062f\u0652\u062a\u064f\u0645\u0652 \u0645\u064e\u0627 \u0648\u064e\u0639\u064e\u062f\u064e \u0631\u064e\u0628\u0651\u064f\u0643\u064f\u0645\u0652 \u062d\u064e\u0642\u0651\u064b\u0627 \u0641\u064e\u0627\u0650\u0646\u0651\u0650\u0649 \u0648\u064e\u062c\u064e\u062f\u0652\u062a\u064f \u0645\u064e\u0627 \u0648\u064e\u0639\u064e\u062f\u064e\u0646\u0650\u0649 \u0631\u064e\u0628\u0651\u0650\u0649 \u062d\u064e\u0642\u0651\u064b\u0627\u061f \u0641\u064e\u0642\u064e\u0627\u0644\u064e \u0644\u064e\u0647\u064f \u0639\u064f\u0645\u064e\u0631\u064f: \u064a\u064e\u0627 \u0631\u064e\u0633\u064f\u0648\u0652\u0644\u064e \u0627\u0644\u0644\u0651\u0670\u0647\u0650\u060c \u0645\u064e\u0627 \u062a\u064f\u0643\u064e\u0644\u0651\u0650\u0645\u064f \u0645\u0650\u0646\u0652 \u0623\u064e\u0642\u0652\u0648\u064e\u0627\u0645\u064d \u0642\u064e\u062f\u0652 \u062c\u064e\u064a\u0651\u064e\u0641\u064f\u0648\u0652\u0627 \u061f \u0641\u064e\u0642\u064e\u0627\u0644\u064e \u0631\u064e\u0633\u064f\u0648\u0652\u0644\u064f \u0627\u0644\u0644\u0651\u0670\u0647\u0650 \u0635\u064e\u0644\u0649\u0651\u064e \u0627\u0644\u0644\u0651\u0670\u0647\u064f\u0639\u064e\u0644\u064e\u064a\u0652\u0647\u0650 \u0648\u064e\u0633\u064e\u0644\u0651\u064e\u0645\u0651\u064e: \u0648\u064e\u0627\u0644\u0651\u064e\u0630\u0650\u064a\u0652 \u0646\u064e\u0641\u0652\u0633\u0650\u064a\u0652 \u0628\u0650\u064a\u064e\u062f\u0650\u0647\u0650 \u0645\u064e\u0627 \u0623\u064e\u0646\u0652\u062a\u064f\u0645\u0652 \u0628\u0650\u0623\u064e\u0633\u0652\u0645\u064e\u0639\u064e \u0644\u0650\u0645\u064e\u0627 \u0623\u064e\u0642\u064f\u0648\u0652\u0644\u064f \u0645\u0650\u0646\u0652\u0647\u064f\u0645\u0652 \u0648\u064e\u0644\u064e\u0643\u0650\u0646\u0652 \u0644\u0627\u064e \u064a\u064f\u062c\u0650\u064a\u0652\u0628\u064f\u0648\u0652\u0646\u064e (\u0631\u0648\u0627\u0647 \u0627\u0644\u0628\u062e\u0627\u0631\u064a \u0648\u0645\u0633\u0644\u0645 \u0639\u0646 \u0627\u0628\u064a \u0637\u0644\u062d\u0629 \u0627\u0644\u0627\u0646\u0635\u0627\u0631\u064a ).\n\u201cWahai Abu Jahal bin Hisyam, wahai Utbah bin Rabi\u2019ah. Wahai Syaibah bin Rabi\u2019ah dan wahai Fulan anak Fulan, Adakah sekarang ini kamu menemukan apa-apa yang dijanjikan Allah itu benar? Karena aku telah menemukan apa yang dijanjikan Tuhanku itu benar. Umar berkata, \u201cYa Rasulullah, apa guna berbicara dengan tubuh yang tidak bernyawa?\u201d Rasulullah menjawab, \u201cDemi Tuhan dimana diriku tergantung pada-Nya. Kamu tidaklah lebih mendengar dari mereka terhadap apa yang aku katakan. Tetapi mereka tidak dapat menjawab.\u201d (Riwayat al-Bukh\u0101r\u012b dan Muslim dari Abu \u1e6dal\u1e25ah al-An\u1e63ari).\nAyat 79 ini tidak mengutarakan bahwa Nabi Saleh menghindar dari kaumnya sebelum datang azab Allah, demikian juga tidak mengutarakan tentang nasib sebagian kaum \u1e62am\u016bd yang beriman kepada Nabi Saleh. Namun ayat 79 ini jelas mengutarakan bahwa Nabi Saleh diselamatkan oleh Allah. Ibnu Ka\u1e61\u012br menerangkan bahwa Allah menyelamatkan Nabi Saleh dan pengikutnya dari azab tersebut kemudian pergi dan tinggal di Haran.",
        "intro_surah": "Surah 7 al-A\u2018r\u0101f yang berjumlah 206 ayat termasuk golongan surah Makkiyah (kecuali ayat 163-167 Madaniyah), diturunkan sebelum turunnya Surah al-An\u2018\u0101m yang termasuk golongan Surah as-sab\u2019 a\u1e6d-\u1e6diw\u0101l (tujuh surah yang panjang). Dinamakan al-A\u2018r\u0101f karena terdapat dalam surah ini yaitu dalam ayat 46 yang mengemukakan tentang keadaan orang-orang yang berada di tempat yang tertinggi antara surga dan neraka.\nPOKOK-POKOK ISINYA: \n1.    Keimanan: \nMengesakan (tauhid) Allah baik dalam berdoa maupun ketika beribadah hanya Allah sendiri yang mengatur dan menjaga alam, menciptakan undang-undang dan hukum-hukum, mengatur kehidupan manusia di dunia dan di akhirat; Allah bersemayam di atas \u2018Arsy; bantahan terhadap kebenaran syirik; ketauhidan adalah sesuai dengan fitrah manusia; Musa berbicara dengan Allah; tentang melihat Allah; perintah beribadah sambil merendahkan diri kepada Allah; dan al-asm\u2019ul \u1e25usn\u0101.\n2.\tHukum: \nLarangan mengikuti perbuatan dan adat istiadat yang buruk; kewajiban mengikuti Allah dan Rasul, perintah memakai pakaian yang baik waktu salat; bantahan terhadap orang yang mengharamkan perhiasan yang dikaruniakan Allah; perintah makan makanan yang halal dan baik dan larangan makan yang sebaliknya.\n3.\tKisah-kisah: \nKisah Nabi Adam dengan Iblis; kisah Nabi Nuh dan kaumnya; kisah Nabi Saleh dengan kaumnya; kisah Nabi Syu\u2019aib dengan kaumnya; kisah Nabi Musa dengan Fir\u2018aun.\n4.\tLain-lain: \nAl-Qur\u2032an diturunkan kepada Nabi yang terakhir berisi perintah untuk mengikuti petunjuknya; Nabi Muhammad saw, diutus kepada semua umat manusia; adab-adab orang mukmin; adab mendengarkan Al-Qur\u2032an ketika dibaca dan berzikir; Rasul bertanggung jawab menyampaikan seruan Allah; balasan terhadap orang yang mengikuti Rasul; Dakwah Rasul yang utama dan pertama kali ialah mengesakan Allah; tentang a\u1e63\u1e25\u0101bul a\u2019r\u0101f yang berada antara surga dengan neraka; Allah pencipta manusia, makhluk yang terbaik yang punya potensi untuk menjadi baik atau buruk; permusuhan setan terhadap anak cucu Adam; manusia khalifah Allah di bumi; kehancuran suatu kaum adalah karena perbuatan mereka sendiri; tiap-tiap bangsa mempunyai masa jaya dan masa kehancuran; Allah menguji manusia dengan kekayaan dan kemiskinan; Allah menarik orang-orang yang mendustakan ayat-ayat-Nya dengan berangsur-angsur ke arah kebinasaan.",
        "outro_surah": null,
        "munasabah_prev_surah": "HUBUNGAN SURAH AL-An\u2018\u0101m \nDENGAN SURAH AL-A\u2019R\u0100F\nHubungan Surah al-An\u2018\u0101m dengan Surah al-A\u2018r\u0101f adalah sebagai berikut: \n1.\tKedua surah tersebut termasuk di antara tujuh surah yang panjang (as-sab\u2019 a\u1e6d-\u1e6diw\u0101l), keduanya sama-sama membicarakan pokok akidah agama. Dalam Surah al-An\u2018\u0101m dikemukakan garis-garis besar akidah-akidah itu, sedangkan Surah al-A\u2018r\u0101f menjelaskannya.\n2.\tDalam Surah al-An\u2018\u0101m diterangkan asal usul kejadian manusia, dari tanah serta menjelaskan tentang beberapa generasi manusia yang telah dibinasakan Allah, kemudian disinggung pula tentang para Rasul dengan menyebut beberapa nama mereka dan kisahnya secara garis besarnya, sedang Surah al-A\u2018r\u0101f menjelaskannya.\n3.\tPada bagian terakhir Surah al-An\u2018\u0101m, dinyatakan bahwa Allah menjadikan manusia khalifah di bumi serta mengangkat derajat sebagian mereka, maka pada permulaan Surah al-A\u2018r\u0101f dikemukakan tentang penciptaan Adam dan anak cucunya kemudian dijadikan-Nya khalifah di bumi, begitu juga anak cucunya.\n4.\tMengenai hubungan bagian akhir Surah al-An\u2018\u0101m dengan bagian permulaan Surah sl-Ar\u2019\u0101f adalah sebagai berikut: \na.\tBagian akhir Surah al-An\u2018\u0101m menjelaskan bahwa Al-Qur\u2032an adalah kitab pedoman yang benar ke jalan yang lurus dan diberkahi, maka umat manusia diperintahkan mengikutinya. Pada bagian permulaan Surah al-A\u2018r\u0101f perintah itu diulang dan dikemukakan pula larangan mengikuti selainnya.\nb.\tPada bagian akhir Surah al-An\u2018\u0101m dijelaskan, bahwa Allah akan memberikan keterangan tentang apa yang seharusnya dilakukan manusia dan menjadi perselisihan mereka. Maka pada bagian permulaan Surah al-A\u2018r\u0101f, dijelaskan apa yang dimaksud dengan \u201cAllah memberi keterangan\u201d yaitu para rasul yang diutus bertugas memberi keterangan dan mereka masing-masing akan dimintai pertanggungjawaban.\nc.\tPada bagian akhir Surah al-An\u2018\u0101m, dinyatakan bahwa orang yang berbuat kebajikan akan diganjar sepuluh kali lipat dan yang berbuat kejahatan akan dibalas seimbang dengan perbuatannya. Untuk menentukan kadar kebajikan dan kejahatan itu ada timbangannya. Maka di bagian muka Surah al-A\u2018r\u0101f, dikemukakan bahwa timbangan pada hari itu ialah kebenaran dan keadilan. Siapa yang berat timbangannya dialah orang yang beruntung dan siapa yang ringan timbangannya dialah yang merugi. Kemudian diceritakan keadaan nasib a\u1e63h\u0101bul a\u2019r\u0101f.",
        "munasabah_prev_theme": "Pada ayat-ayat yang lalu diceritakan kisah kaum \u2018\u0100d yang melakukan kezaliman di atas bumi dan Allah mengutus Nabi Hud dari kalangan mereka yang berakhir dengan datangnya azab Allah berupa angin yang melenyapkan mereka dari muka bumi akibat kekufuran mereka kepada Allah. Pada ayat-ayat ini diceritakan kisah kaum \u1e62am\u016bd yang durhaka dan tidak bersyukur atas nikmat yang dilimpahkan Allah kepada mereka.",
        "theme_group": "KISAH NABI SALEH",
        "kosakata": "1. Fa\u017car\u016bh\u0101  \u0641\u064e\u0630\u064e\u0631\u064f\u0648\u0652\u0647\u064e\u0627(al-A\u2018r\u0101f/7: 73)\nKata \u017car merupakan fi\u2019il amar dari fi\u2019il m\u0101\u1e0d\u012b wa\u017cira-ya\u017caru yang artinya tinggalkanlah atau biarkanlah. Yang dipergunakan dari kalimat ini hanya fi\u2019il mu\u1e0d\u0101ri\u2019 dan fi\u2019il amarnya saja. Arti dari akar kata ini adalah meninggalkan sesuatu dan melemparkannya begitu saja dengan tidak mempedulikannya.\n2. Bawwa\u2019akum  \u0628\u064e\u0648\u0651\u064e\u0627\u064e\u0643\u064f\u0645\u0652 (al-A\u2018r\u0101f/7: 74)\nArtinya menempatkan kamu. Akar katanya adalah (\u0628- \u0648- \u0621) yang berarti kembali dengan membawa kebaikan atau keburukan. Kata b\u0101\u2019a ( \u0628\u0627\u0621 )  dalam Al-Qur\u2019an selalu berkonotasi buruk. (lih. \u0100li \u2018Imr\u0101n/3: 162, al-Baqarah/2: 61, al-M\u0101\u2019idah/5: 29). Sedangkan kata bawwa\u2019a  (\u0628\u0648\u0623 ) sebagaimana pada ayat ini berarti menjadikan tempat tinggal mereka sebagai tempat kembali yang layak untuk istirahat. (Y\u016bnus/10: 93, al-\u1e24ajj/22: 26).\n3. \u2018Aqaru an-N\u0101qah wa \u2018ataw  \u0639\u064e\u0642\u064e\u0631\u064f\u0648\u0627 \u0627\u0644\u0646\u0651\u064e\u0627\u0642\u064e\u0629\u064e \u0648\u064e\u0639\u064e\u062a\u064e\u0648\u0652\u0627(al-A\u2018r\u0101f/7: 77)\nKata \u2018aqara pada mulanya berarti pokok sesuatu. Bagian tengah dari rumah yang merupakan bagian terindah darinya disebut \u2018uqur. Wanita mandul disebut \u2018aq\u012br karena dia terkena masalah dengan asal keberadaannya (a\u1e63l wuj\u016bdih\u0101) seakan-akan wanita itu ditelikung atau diikat sehingga tidak berdaya atau dia menelikung sperma laki-laki. Ibnu Faris mengembalikan   arti \u2018aqara kepada arti melukai (jar\u1e25) atau membikin sesuatu tidak berdaya. Kata \u2018aqara dinisbatkan khusus untuk onta. Onta yang mau disembelih terlebih dahulu dipukul kaki-kakinya yang menjadi pokok kehidupannya, setelah roboh dan tidak berdaya baru disembelih.   \nKata \u2018ataw berarti melampaui batas dalam kebatilan, berlaku angkuh dan sombong terhadap  kebenaran. Akar katanya (\u0639- \u062a- \u0648; huruf ilat) berarti sombong.\n4. J\u0101\u1e61im\u012bn  \u062c\u064e\u0627\u062b\u0650\u0645\u0650\u064a\u0652\u0646\u064e(al-A\u2018r\u0101f/7: 78)\nArtinya bergelimpangan. Kata ju\u1e61um bagi burung adalah keadaan ketika dia mendekam mau tidur di malam hari. Juga untuk onta yang menderum di tempatnya. Bagi manusia adalah keadaan dimana seseorang duduk malas. Arti dari semua itu ialah keberadaan tak bergerak sesuai dengan keadaan masing-masing ketika datangnya siksa.",
        "sabab_nuzul": null,
        "conclusion": "1.\tKaum \u1e62am\u016bd adalah umat Nabi Saleh. Mereka meninggalkan agama yang benar dan tidak mensyukuri nikmat Allah, bahkan berbuat durhaka, maka Allah mengutus Nabi Saleh untuk menyeru mereka kepada agama yang benar.\n2.\tMereka menantang Nabi Saleh meskipun Nabi Saleh dapat memberikan bukti kerasulannya sebagai mukjizat sesuai dengan permintaan kaumnya. Mukjizat tersebut berupa seekor unta yang diciptakan Allah tidak menurut kebiasaan, namun kaumnya tetap menantangnya, bahkan mereka menyembelih unta tersebut.\n3.\tKarena kedurhakaan kaum \u1e62am\u016bd sudah melampaui batas, bahkan mereka menuntut azab yang dijanjikan oleh Nabi Saleh, maka Allah menurunkan azabnya berupa petir yang dahsyat sehingga mereka binasa, kecuali orang yang beriman."
    }
}