{
    "id": 1019,
    "surah_id": 7,
    "ayah": 65,
    "page": 158,
    "quarter_hizb": 16.75,
    "juz": 8,
    "manzil": 2,
    "arabic": "\u06de \u0648\u064e\u0627\u0650\u0644\u0670\u0649 \u0639\u064e\u0627\u062f\u064d \u0627\u064e\u062e\u064e\u0627\u0647\u064f\u0645\u0652 \u0647\u064f\u0648\u0652\u062f\u064b\u0627\u06d7 \u0642\u064e\u0627\u0644\u064e \u064a\u0670\u0642\u064e\u0648\u0652\u0645\u0650 \u0627\u0639\u0652\u0628\u064f\u062f\u064f\u0648\u0627 \u0627\u0644\u0644\u0651\u0670\u0647\u064e \u0645\u064e\u0627 \u0644\u064e\u0643\u064f\u0645\u0652 \u0645\u0651\u0650\u0646\u0652 \u0627\u0650\u0644\u0670\u0647\u064d \u063a\u064e\u064a\u0652\u0631\u064f\u0647\u0657\u06d7 \u0627\u064e\u0641\u064e\u0644\u064e\u0627 \u062a\u064e\u062a\u0651\u064e\u0642\u064f\u0648\u0652\u0646\u064e ",
    "latin": "Wa il\u0101 \u2018\u0101din akh\u0101\u1e25um h\u016bd\u0101(n), q\u0101la y\u0101 qaumi\u2018budull\u0101ha m\u0101 lakum min il\u0101hin gairuh(\u016b), afal\u0101 tattaq\u016bn(a).",
    "translation": "(Kami telah mengutus) kepada (kaum) \u2018Ad saudara mereka, Hud. Dia berkata, \u201cWahai kaumku, sembahlah Allah, tidak ada tuhan bagimu selain Dia. Tidakkah kamu bertakwa?\u201d",
    "no_footnote": null,
    "footnotes": null,
    "surah": {
        "id": 7,
        "arabic": " \u0627\u0644\u0627\u0639\u0631\u0627\u0641",
        "latin": "Al-A\u2018r\u0101f",
        "transliteration": "Al-A\u2018raf",
        "translation": "Tempat Tertinggi",
        "num_ayah": 206,
        "page": 151,
        "location": "Makkiyah"
    },
    "tafsir": {
        "wajiz": "Setelah Nabi Nuh wafat, Allah mengutus Nabi Hud kepada kaum 'Ad untuk meneruskan ajaran tauhid yang telah disampaikan oleh Nabi Nuh. Dan kepada kaum \u2018Ad, Kami utus Nabi Hud, yang merupakan saudara seketurunan mereka agar mereka memahami ajaran yang ia sampaikan. Dia berkata sebagaimana ucapan Nabi Nuh kepada kaumnya, \u201cWahai kaumku! Sembahlah Allah! Tidak ada tuhan sembahan bagimu yang layak disembah selain Dia. Maka mengapa kamu tidak bertakwa dengan menjalankan perintah Allah dan tidak menyekutukan-Nya dengan yang lain sehingga kamu terhindar dari siksa-Nya?\u201d",
        "tahlili": "Ayat ini menerangkan bahwa Allah mengutus kepada kaum \u2018\u0100d Nabi Hud dari kalangan mereka sendiri dan memerintahkannya untuk menyeru kaumnya agar menyembah Allah Tuhan Yang Maha Esa dan meninggalkan segala sesuatu yang dituhankan mereka, karena selain Allah bukanlah Tuhan dan tidak patut disembah, segala ibadah hanya diperuntukkan kepada Allah. Oleh sebab itu, Nabi Hud menganjurkan kepada mereka agar bertakwa kepada Allah dan meninggalkan segala sesuatu yang dimurkai-Nya untuk menghindarkan diri dari siksaan-Nya. Pada waktu dan kesempatan yang lain, beliau memerintahkan kepada kaumnya agar mereka menggunakan akal pikirannya. Firman Allah: \n\u0648\u064e\u0627\u0650\u0644\u0670\u0649 \u0639\u064e\u0627\u062f\u064d \u0627\u064e\u062e\u064e\u0627\u0647\u064f\u0645\u0652 \u0647\u064f\u0648\u0652\u062f\u064b\u0627 \u06d7\u0642\u064e\u0627\u0644\u064e \u064a\u0670\u0642\u064e\u0648\u0652\u0645\u0650 \u0627\u0639\u0652\u0628\u064f\u062f\u064f\u0648\u0627 \u0627\u0644\u0644\u0651\u0670\u0647\u064e \u0645\u064e\u0627 \u0644\u064e\u0643\u064f\u0645\u0652 \u0645\u0650\u0651\u0646\u0652 \u0627\u0650\u0644\u0670\u0647\u064d \u063a\u064e\u064a\u0652\u0631\u064f\u0647\u0657 \u06d7\u0627\u0650\u0646\u0652 \u0627\u064e\u0646\u0652\u062a\u064f\u0645\u0652 \u0627\u0650\u0644\u0651\u064e\u0627 \u0645\u064f\u0641\u0652\u062a\u064e\u0631\u064f\u0648\u0652\u0646\u064e \u0665\u0660 \u064a\u0670\u0642\u064e\u0648\u0652\u0645\u0650 \u0644\u064e\u0627\u0653 \u0627\u064e\u0633\u0652\u0640\u0654\u064e\u0644\u064f\u0643\u064f\u0645\u0652 \u0639\u064e\u0644\u064e\u064a\u0652\u0647\u0650 \u0627\u064e\u062c\u0652\u0631\u064b\u0627 \u06d7\u0627\u0650\u0646\u0652 \u0627\u064e\u062c\u0652\u0631\u0650\u064a\u064e \u0627\u0650\u0644\u0651\u064e\u0627 \u0639\u064e\u0644\u064e\u0649 \u0627\u0644\u0651\u064e\u0630\u0650\u064a\u0652 \u0641\u064e\u0637\u064e\u0631\u064e\u0646\u0650\u064a\u0652 \u06d7 \u0627\u064e\u0641\u064e\u0644\u064e\u0627 \u062a\u064e\u0639\u0652\u0642\u0650\u0644\u064f\u0648\u0652\u0646\u064e \u0665\u0661\nDan kepada kaum \u2018\u0100d (Kami utus) saudara mereka, Hud. Dia berkata, \u201cWahai kaumku! Sembahlah Allah, tidak ada tuhan bagimu selain Dia. (Selama ini) kamu hanyalah mengada-ada. Wahai kaumku! Aku tidak meminta imbalan kepadamu atas (seruanku) ini. Imbalanku hanyalah dari Allah yang telah menciptakanku. Tidakkah kamu mengerti?\u201d (H\u016bd/11: 50-51).\n\u2018\u0100d adalah anak Iram bin Aus bin S\u0101m bin Nuh. Demikian diterangkan oleh Muhammad bin Ishak. Menurut Ibnu Ishak, bahwa al-Kalby berkata: kaum \u2018\u0100d adalah penyembah berhala sebagaimana halnya kaum Nabi Nuh yang mematungkan orang-orang yang dipandang keramat setelah mati. Kemudian patung-patung itu dianggap sebagai Tuhan. Kaum \u2018\u0100d pun membuat patung-patung, mereka namakan \u1e62am\u016bd dan yang lain lagi mereka namakan al-Hatar. Mereka tinggal di Yaman di daerah Ahqaf antara Oman dan Hadramaut. Mereka adalah kaum yang berbuat kerusakan di bumi ini karena mereka bangga dengan kekuatan fisik yang tidak dimiliki oleh kaum yang lain.\nKarena mereka memperlakukan penduduk bumi ini sekehendak mereka secara zalim, Allah mengutus Nabi Hud dari kalangan mereka sebab sudah menjadi ketetapan Allah bahwa rasul-rasul yang diutus itu diambil dari kaumnya sendiri yang lebih mengerti tentang kaumnya dan lebih dapat diterima seruannya karena mengetahui kepribadiannya. Akan tetapi ketika Nabi Hud menyampaikan risalahnya yaitu menyeru kaumnya agar menyembah Allah Tuhan Yang Maha Esa dan meninggalkan perbuatan yang zalim, seruan Nabi Hud tersebut mereka dustakan dan malahan mereka menentangnya, sebagaimana dijelaskan dalam firman Allah yaitu: \n\u0641\u064e\u0627\u064e\u0645\u0651\u064e\u0627 \u0639\u064e\u0627\u062f\u064c \u0641\u064e\u0627\u0633\u0652\u062a\u064e\u0643\u0652\u0628\u064e\u0631\u064f\u0648\u0652\u0627 \u0641\u0650\u0649 \u0627\u0644\u0652\u0627\u064e\u0631\u0652\u0636\u0650 \u0628\u0650\u063a\u064e\u064a\u0652\u0631\u0650 \u0627\u0644\u0652\u062d\u064e\u0642\u0651\u0650 \u0648\u064e\u0642\u064e\u0627\u0644\u064f\u0648\u0652\u0627 \u0645\u064e\u0646\u0652 \u0627\u064e\u0634\u064e\u062f\u0651\u064f \u0645\u0650\u0646\u0651\u064e\u0627 \u0642\u064f\u0648\u0651\u064e\u0629\u064b \u06d7 \u0627\u064e\u0648\u064e\u0644\u064e\u0645\u0652 \u064a\u064e\u0631\u064e\u0648\u0652\u0627 \u0627\u064e\u0646\u0651\u064e \u0627\u0644\u0644\u0651\u0670\u0647\u064e \u0627\u0644\u0651\u064e\u0630\u0650\u064a\u0652 \u062e\u064e\u0644\u064e\u0642\u064e\u0647\u064f\u0645\u0652 \u0647\u064f\u0648\u064e \u0627\u064e\u0634\u064e\u062f\u0651\u064f \u0645\u0650\u0646\u0652\u0647\u064f\u0645\u0652 \u0642\u064f\u0648\u0651\u064e\u0629\u064b \u06d7 \u0648\u064e\u0643\u064e\u0627\u0646\u064f\u0648\u0652\u0627 \u0628\u0650\u0627\u0670\u064a\u0670\u062a\u0650\u0646\u064e\u0627 \u064a\u064e\u062c\u0652\u062d\u064e\u062f\u064f\u0648\u0652\u0646\u064e \u0661\u0665\nMaka adapun kaum \u2018\u0100d, mereka menyombongkan diri di bumi tanpa (mengindahkan) kebenaran dan mereka berkata, \u201cSiapakah yang lebih hebat kekuatannya dari kami?\u201d Tidakkah mereka memperhatikan bahwa sesungguhnya Allah yang menciptakan mereka. Dia lebih hebat kekuatan-Nya dari mereka? Dan mereka telah mengingkari tanda-tanda (kebesaran) Kami. (Fu\u1e63\u1e63ilat/41: 15).",
        "intro_surah": "Surah 7 al-A\u2018r\u0101f yang berjumlah 206 ayat termasuk golongan surah Makkiyah (kecuali ayat 163-167 Madaniyah), diturunkan sebelum turunnya Surah al-An\u2018\u0101m yang termasuk golongan Surah as-sab\u2019 a\u1e6d-\u1e6diw\u0101l (tujuh surah yang panjang). Dinamakan al-A\u2018r\u0101f karena terdapat dalam surah ini yaitu dalam ayat 46 yang mengemukakan tentang keadaan orang-orang yang berada di tempat yang tertinggi antara surga dan neraka.\nPOKOK-POKOK ISINYA: \n1.    Keimanan: \nMengesakan (tauhid) Allah baik dalam berdoa maupun ketika beribadah hanya Allah sendiri yang mengatur dan menjaga alam, menciptakan undang-undang dan hukum-hukum, mengatur kehidupan manusia di dunia dan di akhirat; Allah bersemayam di atas \u2018Arsy; bantahan terhadap kebenaran syirik; ketauhidan adalah sesuai dengan fitrah manusia; Musa berbicara dengan Allah; tentang melihat Allah; perintah beribadah sambil merendahkan diri kepada Allah; dan al-asm\u2019ul \u1e25usn\u0101.\n2.\tHukum: \nLarangan mengikuti perbuatan dan adat istiadat yang buruk; kewajiban mengikuti Allah dan Rasul, perintah memakai pakaian yang baik waktu salat; bantahan terhadap orang yang mengharamkan perhiasan yang dikaruniakan Allah; perintah makan makanan yang halal dan baik dan larangan makan yang sebaliknya.\n3.\tKisah-kisah: \nKisah Nabi Adam dengan Iblis; kisah Nabi Nuh dan kaumnya; kisah Nabi Saleh dengan kaumnya; kisah Nabi Syu\u2019aib dengan kaumnya; kisah Nabi Musa dengan Fir\u2018aun.\n4.\tLain-lain: \nAl-Qur\u2032an diturunkan kepada Nabi yang terakhir berisi perintah untuk mengikuti petunjuknya; Nabi Muhammad saw, diutus kepada semua umat manusia; adab-adab orang mukmin; adab mendengarkan Al-Qur\u2032an ketika dibaca dan berzikir; Rasul bertanggung jawab menyampaikan seruan Allah; balasan terhadap orang yang mengikuti Rasul; Dakwah Rasul yang utama dan pertama kali ialah mengesakan Allah; tentang a\u1e63\u1e25\u0101bul a\u2019r\u0101f yang berada antara surga dengan neraka; Allah pencipta manusia, makhluk yang terbaik yang punya potensi untuk menjadi baik atau buruk; permusuhan setan terhadap anak cucu Adam; manusia khalifah Allah di bumi; kehancuran suatu kaum adalah karena perbuatan mereka sendiri; tiap-tiap bangsa mempunyai masa jaya dan masa kehancuran; Allah menguji manusia dengan kekayaan dan kemiskinan; Allah menarik orang-orang yang mendustakan ayat-ayat-Nya dengan berangsur-angsur ke arah kebinasaan.",
        "outro_surah": null,
        "munasabah_prev_surah": "HUBUNGAN SURAH AL-An\u2018\u0101m \nDENGAN SURAH AL-A\u2019R\u0100F\nHubungan Surah al-An\u2018\u0101m dengan Surah al-A\u2018r\u0101f adalah sebagai berikut: \n1.\tKedua surah tersebut termasuk di antara tujuh surah yang panjang (as-sab\u2019 a\u1e6d-\u1e6diw\u0101l), keduanya sama-sama membicarakan pokok akidah agama. Dalam Surah al-An\u2018\u0101m dikemukakan garis-garis besar akidah-akidah itu, sedangkan Surah al-A\u2018r\u0101f menjelaskannya.\n2.\tDalam Surah al-An\u2018\u0101m diterangkan asal usul kejadian manusia, dari tanah serta menjelaskan tentang beberapa generasi manusia yang telah dibinasakan Allah, kemudian disinggung pula tentang para Rasul dengan menyebut beberapa nama mereka dan kisahnya secara garis besarnya, sedang Surah al-A\u2018r\u0101f menjelaskannya.\n3.\tPada bagian terakhir Surah al-An\u2018\u0101m, dinyatakan bahwa Allah menjadikan manusia khalifah di bumi serta mengangkat derajat sebagian mereka, maka pada permulaan Surah al-A\u2018r\u0101f dikemukakan tentang penciptaan Adam dan anak cucunya kemudian dijadikan-Nya khalifah di bumi, begitu juga anak cucunya.\n4.\tMengenai hubungan bagian akhir Surah al-An\u2018\u0101m dengan bagian permulaan Surah sl-Ar\u2019\u0101f adalah sebagai berikut: \na.\tBagian akhir Surah al-An\u2018\u0101m menjelaskan bahwa Al-Qur\u2032an adalah kitab pedoman yang benar ke jalan yang lurus dan diberkahi, maka umat manusia diperintahkan mengikutinya. Pada bagian permulaan Surah al-A\u2018r\u0101f perintah itu diulang dan dikemukakan pula larangan mengikuti selainnya.\nb.\tPada bagian akhir Surah al-An\u2018\u0101m dijelaskan, bahwa Allah akan memberikan keterangan tentang apa yang seharusnya dilakukan manusia dan menjadi perselisihan mereka. Maka pada bagian permulaan Surah al-A\u2018r\u0101f, dijelaskan apa yang dimaksud dengan \u201cAllah memberi keterangan\u201d yaitu para rasul yang diutus bertugas memberi keterangan dan mereka masing-masing akan dimintai pertanggungjawaban.\nc.\tPada bagian akhir Surah al-An\u2018\u0101m, dinyatakan bahwa orang yang berbuat kebajikan akan diganjar sepuluh kali lipat dan yang berbuat kejahatan akan dibalas seimbang dengan perbuatannya. Untuk menentukan kadar kebajikan dan kejahatan itu ada timbangannya. Maka di bagian muka Surah al-A\u2018r\u0101f, dikemukakan bahwa timbangan pada hari itu ialah kebenaran dan keadilan. Siapa yang berat timbangannya dialah orang yang beruntung dan siapa yang ringan timbangannya dialah yang merugi. Kemudian diceritakan keadaan nasib a\u1e63h\u0101bul a\u2019r\u0101f.",
        "munasabah_prev_theme": "Pada ayat-ayat yang lalu diceritakan kisah Nabi Nuh dengan kaumnya untuk diketahui oleh Nabi Muhammad bahwa nabi-nabi sebelumnya dalam menjalankan risalahnya masing-masing tidak luput dari tantangan dan permusuhan kaumnya sebagaimana yang sedang dialami oleh Nabi Muhammad saw. Pada ayat-ayat ini dikisahkan riwayat Nabi Hud yang diutus oleh Allah kepada kaum \u2018\u0100d.",
        "theme_group": "KISAH NABI HUD",
        "kosakata": "1. Bas\u1e6dah  \u0628\u064e\u0635\u0652\u0637\u064e\u0629\u064b(al-A\u2018r\u0101f/7: 69)\nKata yang terdiri dari (\u0628- \u0635- \u0637) mempunyai arti melebarnya sesuatu, lapang, baik hissi maupun maknawi. Yang hissi contohnya pada ayat ini yaitu kaum \u2018Ad adalah kaum yang mempunyai perawakan tegar, besar  dan kuat. Yang maknawi seperti ungkapan ba\u1e63\u1e6d al-yad berarti pemurah, pemberi, seperti pada ayat 245 surah al-Baqarah, dan ayat 27 surah asy-Sy\u016bra. Bisa juga berarti menyerang dan memukul (\u1e63aulah, \u1e0darbah) seperti pada ayat 28/ al-M\u0101\u2019idah. \n2. Rijsun wa ga\u1e0dab  \u0631\u0650\u062c\u0652\u0633\u064c \u0648\u064e\u063a\u064e\u0636\u064e\u0628\u064c(al-A\u2018r\u0101f /7: 71)\nRijs pada awalnya untuk sesuatu yang buruk dan keji. Lalu dalam konteks ayat ini dipahami sebagai sangsi yang dijatuhkan oleh Allah karena keburukan hati kaum \u2018Ad.\nGa\u1e0dab artinya murka. Akar kata yang terdiri dari (\u063a- \u0636- \u0628) menunjukkan arti kuat dan keras (quwwah wa syiddah). Allah murka berarti Allah melakukan tindakan keras dan tegas bagi mereka yang melakukan pembangkangan terhadapNya.\n3. Qa\u1e6da\u2019n\u0101 d\u0101bir\u0101    \u0642\u064e\u0637\u064e\u0639\u0652\u0646\u064e\u0627 \u062f\u064e\u0627\u0628\u0650\u0631\u064e\u0627  (al-A\u2018r\u0101f/7: 73)\nQa\u1e6da\u2019\u0101 berarti memutus. D\u0101bir berarti belakang. Maksudnya adalah Allah menghancurkan habis kaum \u2018Ad sampai barisan yang ada di belakang pasukan mereka. ",
        "sabab_nuzul": null,
        "conclusion": null
    }
}