{
    "id": 1002,
    "surah_id": 7,
    "ayah": 48,
    "page": 156,
    "quarter_hizb": 16.5,
    "juz": 8,
    "manzil": 2,
    "arabic": "\u0648\u064e\u0646\u064e\u0627\u062f\u0670\u0653\u0649 \u0627\u064e\u0635\u0652\u062d\u0670\u0628\u064f \u0627\u0644\u0652\u0627\u064e\u0639\u0652\u0631\u064e\u0627\u0641\u0650 \u0631\u0650\u062c\u064e\u0627\u0644\u064b\u0627 \u064a\u0651\u064e\u0639\u0652\u0631\u0650\u0641\u064f\u0648\u0652\u0646\u064e\u0647\u064f\u0645\u0652 \u0628\u0650\u0633\u0650\u064a\u0652\u0645\u0670\u0649\u0647\u064f\u0645\u0652 \u0642\u064e\u0627\u0644\u064f\u0648\u0652\u0627 \u0645\u064e\u0627\u0653 \u0627\u064e\u063a\u0652\u0646\u0670\u0649 \u0639\u064e\u0646\u0652\u0643\u064f\u0645\u0652 \u062c\u064e\u0645\u0652\u0639\u064f\u0643\u064f\u0645\u0652 \u0648\u064e\u0645\u064e\u0627 \u0643\u064f\u0646\u0652\u062a\u064f\u0645\u0652 \u062a\u064e\u0633\u0652\u062a\u064e\u0643\u0652\u0628\u0650\u0631\u064f\u0648\u0652\u0646\u064e ",
    "latin": "Wa n\u0101d\u0101 a\u1e63\u1e25\u0101bul-a\u2018r\u0101fi rij\u0101lay ya\u2018rif\u016bnahum bis\u012bm\u0101hum q\u0101l\u016b m\u0101 agn\u0101 \u2018ankum jam\u2018ukum wa m\u0101 kuntum tastakbir\u016bn(a).",
    "translation": "Orang-orang di atas tempat yang tertinggi (al-a\u2018r\u0101f) menyeru orang-orang yang mereka kenal dengan tanda-tanda (khusus) sambil berkata, \u201cTidak ada manfaatnya bagimu (harta) yang kamu kumpulkan dan apa yang selalu kamu sombongkan.",
    "no_footnote": null,
    "footnotes": null,
    "surah": {
        "id": 7,
        "arabic": " \u0627\u0644\u0627\u0639\u0631\u0627\u0641",
        "latin": "Al-A\u2018r\u0101f",
        "transliteration": "Al-A\u2018raf",
        "translation": "Tempat Tertinggi",
        "num_ayah": 206,
        "page": 151,
        "location": "Makkiyah"
    },
    "tafsir": {
        "wajiz": "Dan orang-orang di atas A'raf, yaitu tempat yang tertinggi, menyeru penghuni neraka yang dahulu mendustakan ayat Allah dan Rasul-Nya dan senantiasa membanggakan harta bendanya, penghuni neraka tersebut adalah orang-orang yang mereka kenal dengan tanda-tandanya, mereka berkata, \u201cWahai penghuni neraka, rasakanlah pedihnya azab Allah. Harta yang kamu kumpulkan dan apa yang kamu sombongkan ketika di dunia, ternyata tidak ada manfaatnya sedikit pun buat kamu.\u201d",
        "tahlili": "Ayat ini menerangkan dialog penghuni A\u2018r\u0101f dengan penghuni neraka yang terdiri dari orang-orang yang sombong dan takabur pada masa hidup di dunia. Orang-orang yang merasa mulia karena kekayaan dan hartanya yang banyak, merasa bangga hidup di dunia, memandang hina terhadap orang-orang mukmin yang miskin dan lemah, yaitu lemah kekuatan dan lemah kedudukan, dan sedikit pengikutnya. Mereka selalu membanggakan, bahwa siapa yang hidup kaya dan mulia, serta berkuasa di dunia, itulah orang-orang yang akan berbahagia di akhirat dan terhindar dari azab Allah. Hal ini dijelaskan Allah dalam firman-Nya: \n\u0648\u064e\u0645\u064e\u0627\u0653 \u0627\u064e\u0631\u0652\u0633\u064e\u0644\u0652\u0646\u064e\u0627 \u0641\u0650\u064a\u0652 \u0642\u064e\u0631\u0652\u064a\u064e\u0629\u064d \u0645\u0650\u0651\u0646\u0652 \u0646\u0651\u064e\u0630\u0650\u064a\u0652\u0631\u064d \u0627\u0650\u0644\u0651\u064e\u0627 \u0642\u064e\u0627\u0644\u064e \u0645\u064f\u062a\u0652\u0631\u064e\u0641\u064f\u0648\u0652\u0647\u064e\u0627\u0653 \u06d9\u0627\u0650\u0646\u0651\u064e\u0627 \u0628\u0650\u0645\u064e\u0627\u0653 \u0627\u064f\u0631\u0652\u0633\u0650\u0644\u0652\u062a\u064f\u0645\u0652 \u0628\u0650\u0647\u0656 \u0643\u0670\u0641\u0650\u0631\u064f\u0648\u0652\u0646\u064e \u0663\u0664 \u0648\u064e\u0642\u064e\u0627\u0644\u064f\u0648\u0652\u0627 \u0646\u064e\u062d\u0652\u0646\u064f \u0627\u064e\u0643\u0652\u062b\u064e\u0631\u064f \u0627\u064e\u0645\u0652\u0648\u064e\u0627\u0644\u064b\u0627 \u0648\u0651\u064e\u0627\u064e\u0648\u0652\u0644\u064e\u0627\u062f\u064b\u0627\u06d9 \u0648\u0651\u064e\u0645\u064e\u0627 \u0646\u064e\u062d\u0652\u0646\u064f \u0628\u0650\u0645\u064f\u0639\u064e\u0630\u0651\u064e\u0628\u0650\u064a\u0652\u0646\u064e \u0663\u0665\nDan setiap Kami mengutus seorang pemberi peringatan kepada suatu negeri, orang-orang yang hidup mewah (di negeri itu) berkata, \u201cKami benar-benar mengingkari apa yang kamu sampaikan sebagai utusan.\u201d Dan mereka berkata, \u201cKami memiliki lebih banyak harta dan anak-anak (dari pada kamu) dan kami tidak akan diazab.\u201d (Sab\u0101/34: 34-35).\nPenghuni A\u2018r\u0101f mengenali mereka dengan tanda-tanda yang ada pada mereka, seperti yang bermuka hitam dan berdebu serta tanda-tanda yang dapat dikenal semasa hidup di dunia, seperti pemimpin Quraisy dan golongan-golongannya yang menjadi musuh Islam, dan selalu menindas dan menganiaya orang-orang Islam, di antaranya Abu Jahal, Walid bin Mugirah, A\u1e63 bin Wail dan lain-lain. Penghuni A\u2018r\u0101f mengatakan kepada mereka, \u201cTidakkah dapat menolongmu dari siksaan api neraka harta kekayaanmu yang banyak, kesombonganmu terhadap orang-orang mukmin yang kamu anggap lemah. Tidak adakah faedah dan pahala yang kamu harapkan, sehingga kamu terlepas dari siksa yang pedih.\u201d",
        "intro_surah": "Surah 7 al-A\u2018r\u0101f yang berjumlah 206 ayat termasuk golongan surah Makkiyah (kecuali ayat 163-167 Madaniyah), diturunkan sebelum turunnya Surah al-An\u2018\u0101m yang termasuk golongan Surah as-sab\u2019 a\u1e6d-\u1e6diw\u0101l (tujuh surah yang panjang). Dinamakan al-A\u2018r\u0101f karena terdapat dalam surah ini yaitu dalam ayat 46 yang mengemukakan tentang keadaan orang-orang yang berada di tempat yang tertinggi antara surga dan neraka.\nPOKOK-POKOK ISINYA: \n1.    Keimanan: \nMengesakan (tauhid) Allah baik dalam berdoa maupun ketika beribadah hanya Allah sendiri yang mengatur dan menjaga alam, menciptakan undang-undang dan hukum-hukum, mengatur kehidupan manusia di dunia dan di akhirat; Allah bersemayam di atas \u2018Arsy; bantahan terhadap kebenaran syirik; ketauhidan adalah sesuai dengan fitrah manusia; Musa berbicara dengan Allah; tentang melihat Allah; perintah beribadah sambil merendahkan diri kepada Allah; dan al-asm\u2019ul \u1e25usn\u0101.\n2.\tHukum: \nLarangan mengikuti perbuatan dan adat istiadat yang buruk; kewajiban mengikuti Allah dan Rasul, perintah memakai pakaian yang baik waktu salat; bantahan terhadap orang yang mengharamkan perhiasan yang dikaruniakan Allah; perintah makan makanan yang halal dan baik dan larangan makan yang sebaliknya.\n3.\tKisah-kisah: \nKisah Nabi Adam dengan Iblis; kisah Nabi Nuh dan kaumnya; kisah Nabi Saleh dengan kaumnya; kisah Nabi Syu\u2019aib dengan kaumnya; kisah Nabi Musa dengan Fir\u2018aun.\n4.\tLain-lain: \nAl-Qur\u2032an diturunkan kepada Nabi yang terakhir berisi perintah untuk mengikuti petunjuknya; Nabi Muhammad saw, diutus kepada semua umat manusia; adab-adab orang mukmin; adab mendengarkan Al-Qur\u2032an ketika dibaca dan berzikir; Rasul bertanggung jawab menyampaikan seruan Allah; balasan terhadap orang yang mengikuti Rasul; Dakwah Rasul yang utama dan pertama kali ialah mengesakan Allah; tentang a\u1e63\u1e25\u0101bul a\u2019r\u0101f yang berada antara surga dengan neraka; Allah pencipta manusia, makhluk yang terbaik yang punya potensi untuk menjadi baik atau buruk; permusuhan setan terhadap anak cucu Adam; manusia khalifah Allah di bumi; kehancuran suatu kaum adalah karena perbuatan mereka sendiri; tiap-tiap bangsa mempunyai masa jaya dan masa kehancuran; Allah menguji manusia dengan kekayaan dan kemiskinan; Allah menarik orang-orang yang mendustakan ayat-ayat-Nya dengan berangsur-angsur ke arah kebinasaan.",
        "outro_surah": null,
        "munasabah_prev_surah": "HUBUNGAN SURAH AL-An\u2018\u0101m \nDENGAN SURAH AL-A\u2019R\u0100F\nHubungan Surah al-An\u2018\u0101m dengan Surah al-A\u2018r\u0101f adalah sebagai berikut: \n1.\tKedua surah tersebut termasuk di antara tujuh surah yang panjang (as-sab\u2019 a\u1e6d-\u1e6diw\u0101l), keduanya sama-sama membicarakan pokok akidah agama. Dalam Surah al-An\u2018\u0101m dikemukakan garis-garis besar akidah-akidah itu, sedangkan Surah al-A\u2018r\u0101f menjelaskannya.\n2.\tDalam Surah al-An\u2018\u0101m diterangkan asal usul kejadian manusia, dari tanah serta menjelaskan tentang beberapa generasi manusia yang telah dibinasakan Allah, kemudian disinggung pula tentang para Rasul dengan menyebut beberapa nama mereka dan kisahnya secara garis besarnya, sedang Surah al-A\u2018r\u0101f menjelaskannya.\n3.\tPada bagian terakhir Surah al-An\u2018\u0101m, dinyatakan bahwa Allah menjadikan manusia khalifah di bumi serta mengangkat derajat sebagian mereka, maka pada permulaan Surah al-A\u2018r\u0101f dikemukakan tentang penciptaan Adam dan anak cucunya kemudian dijadikan-Nya khalifah di bumi, begitu juga anak cucunya.\n4.\tMengenai hubungan bagian akhir Surah al-An\u2018\u0101m dengan bagian permulaan Surah sl-Ar\u2019\u0101f adalah sebagai berikut: \na.\tBagian akhir Surah al-An\u2018\u0101m menjelaskan bahwa Al-Qur\u2032an adalah kitab pedoman yang benar ke jalan yang lurus dan diberkahi, maka umat manusia diperintahkan mengikutinya. Pada bagian permulaan Surah al-A\u2018r\u0101f perintah itu diulang dan dikemukakan pula larangan mengikuti selainnya.\nb.\tPada bagian akhir Surah al-An\u2018\u0101m dijelaskan, bahwa Allah akan memberikan keterangan tentang apa yang seharusnya dilakukan manusia dan menjadi perselisihan mereka. Maka pada bagian permulaan Surah al-A\u2018r\u0101f, dijelaskan apa yang dimaksud dengan \u201cAllah memberi keterangan\u201d yaitu para rasul yang diutus bertugas memberi keterangan dan mereka masing-masing akan dimintai pertanggungjawaban.\nc.\tPada bagian akhir Surah al-An\u2018\u0101m, dinyatakan bahwa orang yang berbuat kebajikan akan diganjar sepuluh kali lipat dan yang berbuat kejahatan akan dibalas seimbang dengan perbuatannya. Untuk menentukan kadar kebajikan dan kejahatan itu ada timbangannya. Maka di bagian muka Surah al-A\u2018r\u0101f, dikemukakan bahwa timbangan pada hari itu ialah kebenaran dan keadilan. Siapa yang berat timbangannya dialah orang yang beruntung dan siapa yang ringan timbangannya dialah yang merugi. Kemudian diceritakan keadaan nasib a\u1e63h\u0101bul a\u2019r\u0101f.",
        "munasabah_prev_theme": "Sesudah Allah swt menerangkan dialog penghuni surga dengan penghuni neraka pada ayat yang lalu yang cukup mengerikan dan menakutkan, maka pada ayat ini Allah menerangkan dialog penghuni A\u2018r\u0101f dengan penghuni neraka tentang harta yang mereka banggakan ketika hidup di dunia.",
        "theme_group": "DIALOG PENGHUNI A\u2019R\u0100F\nDENGAN PENGHUNI NERAKA",
        "kosakata": "Kosakata :  A\u1e63\u1e25\u0101bul A\u2018r\u0101f  \u0623\u064e\u0635\u0652\u062d\u064e\u0627\u0628\u064f \u0627\u0644\u0652\u0623\u064e\u0639\u0652\u0631\u064e\u0627\u0641\u0650 (al-A\u2018r\u0101f/7:  48)\n\tKata a\u1e63\u1e25\u0101b adalah bentuk jama\u2019 dari \u1e63a\u1e25iba-ya\u1e63\u1e25abu-\u1e63u\u1e25batan, yang artinya bersahabat, berteman, berkawan. A\u1e63\u1e25\u0101b adalah jama\u2019 dari \u1e63\u0101\u1e25ibun yang artinya : kawan, teman, sahabat.\n\tSedangkan al-A\u2018r\u0101f adalah bentuk jama\u2019 dari kata \u2018urf, yaitu\u201dtempat yang tertinggi dari sesuatu\u201d. Karena itu pula, maka rambut yang terdapat di leher kuda dinamai \u2018urf. Tempat yang tinggi dimana pengawas rumah tahanan mengawasi para tahanan juga dinamai \u2018urf. Dengan demikian, maka makna a\u1e63\u1e25\u0101bul a\u2019r\u0101f  adalah teman-teman atau orang-orang di atas tempat yang tertinggi. Tetapi makna yang lebih tepat dari A\u1e63\u1e25\u0101bul A\u2018r\u0101f  adalah teman-teman, atau orang-orang di atas a\u2019raf, karena a\u2019raf juga adalah nama suatu tempat.",
        "sabab_nuzul": null,
        "conclusion": null
    }
}