{
    "id": 1073,
    "surah_id": 7,
    "ayah": 119,
    "page": 164,
    "quarter_hizb": 17.25,
    "juz": 9,
    "manzil": 2,
    "arabic": "\u0641\u064e\u063a\u064f\u0644\u0650\u0628\u064f\u0648\u0652\u0627 \u0647\u064f\u0646\u064e\u0627\u0644\u0650\u0643\u064e \u0648\u064e\u0627\u0646\u0652\u0642\u064e\u0644\u064e\u0628\u064f\u0648\u0652\u0627 \u0635\u0670\u063a\u0650\u0631\u0650\u064a\u0652\u0646\u064e\u06da ",
    "latin": "Fa gulib\u016b hun\u0101lika wanqalab\u016b \u1e63\u0101gir\u012bn(a).",
    "translation": "Mereka dikalahkan di tempat itu dan jadilah mereka orang-orang yang hina.",
    "no_footnote": null,
    "footnotes": null,
    "surah": {
        "id": 7,
        "arabic": " \u0627\u0644\u0627\u0639\u0631\u0627\u0641",
        "latin": "Al-A\u2018r\u0101f",
        "transliteration": "Al-A\u2018raf",
        "translation": "Tempat Tertinggi",
        "num_ayah": 206,
        "page": 151,
        "location": "Makkiyah"
    },
    "tafsir": {
        "wajiz": "Dengan kejadian tersebut maka mereka, yakni para penyihir dikalahkan di tempat itu di hadapan orang banyak. Dan karena telah dipermalukan dengan kekalahan itu maka berbaliklah mereka menjadi orang-orang yang hina, setelah sebelumnya tampil dengan penuh kesombongan dan yakin akan meraih kemenangan dan kemuliaan. Mereka merasa sangat terhina dengan kekalahan ini.",
        "tahlili": "Dalam ayat ini Allah menegaskan bahwa pesihir itu telah dikalahkan di tempat itu, dan jadilah mereka orang-orang yang hina dina. Artinya bila sebelum peristiwa itu, para pesihir merasa bangga percaya diri secara berlebihan, maka setelah kekalahan itu tersingkaplah kebohongan dan kepalsuan mereka, karena sihir mereka tidak mempunyai kekuatan sama sekali. Di samping itu, karena kekalahan tersebut, sirnalah sudah harapan mereka untuk mendapatkan harta benda, pangkat dan kekayaan yang tadinya telah dijanjikan Fir\u2018aun kepada mereka.\nKekalahan para pesihir tersebut berarti kekalahan Fir\u2018aun dan para pembesarnya. Pada mulanya mereka percaya bahwa  para pesihir yang terpandai yang mereka kumpulkan dari berbagai tempat dalam wilayah kekuasaannya, dengan mudah dapat mengalahkan Nabi Musa. Karena itu ia mengobral janji, tetapi ternyata para pesihirnya itu mengalami kekalahan, dan Nabi Musa mendapat kemenangan, maka pudarlah harapan Fir\u2018aun dan pemuka-pemukanya untuk dapat mempertahankan kebesaran dan kekuasaannya. Hilanglah kehebatan mereka di mata orang banyak, dan jadilah mereka orang-orang yang hina. Apalagi peristiwa tersebut terjadi pada salah satu hari raya mereka dan tidak disaksikan orang banyak. Mengenai ini Allah berfirman dalam ayat lain:\n\u0642\u064e\u0627\u0644\u064e \u0645\u064e\u0648\u0652\u0639\u0650\u062f\u064f\u0643\u064f\u0645\u0652 \u064a\u064e\u0648\u0652\u0645\u064f \u0627\u0644\u0632\u0651\u0650\u064a\u0652\u0646\u064e\u0629\u0650 \u0648\u064e\u0627\u064e\u0646\u0652 \u064a\u0651\u064f\u062d\u0652\u0634\u064e\u0631\u064e \u0627\u0644\u0646\u0651\u064e\u0627\u0633\u064f \u0636\u064f\u062d\u064b\u0649 \u0665\u0669\nDia (Musa) berkata, \u201c(Perjanjian) waktu (untuk pertemuan kami dengan kamu itu) ialah pada hari raya dan hendaklah orang-orang dikumpulkan pada pagi hari (\u1e0du\u1e25\u0101).\u201d (\u1e6c\u0101h\u0101/20: 59).",
        "intro_surah": "Surah 7 al-A\u2018r\u0101f yang berjumlah 206 ayat termasuk golongan surah Makkiyah (kecuali ayat 163-167 Madaniyah), diturunkan sebelum turunnya Surah al-An\u2018\u0101m yang termasuk golongan Surah as-sab\u2019 a\u1e6d-\u1e6diw\u0101l (tujuh surah yang panjang). Dinamakan al-A\u2018r\u0101f karena terdapat dalam surah ini yaitu dalam ayat 46 yang mengemukakan tentang keadaan orang-orang yang berada di tempat yang tertinggi antara surga dan neraka.\nPOKOK-POKOK ISINYA: \n1.    Keimanan: \nMengesakan (tauhid) Allah baik dalam berdoa maupun ketika beribadah hanya Allah sendiri yang mengatur dan menjaga alam, menciptakan undang-undang dan hukum-hukum, mengatur kehidupan manusia di dunia dan di akhirat; Allah bersemayam di atas \u2018Arsy; bantahan terhadap kebenaran syirik; ketauhidan adalah sesuai dengan fitrah manusia; Musa berbicara dengan Allah; tentang melihat Allah; perintah beribadah sambil merendahkan diri kepada Allah; dan al-asm\u2019ul \u1e25usn\u0101.\n2.\tHukum: \nLarangan mengikuti perbuatan dan adat istiadat yang buruk; kewajiban mengikuti Allah dan Rasul, perintah memakai pakaian yang baik waktu salat; bantahan terhadap orang yang mengharamkan perhiasan yang dikaruniakan Allah; perintah makan makanan yang halal dan baik dan larangan makan yang sebaliknya.\n3.\tKisah-kisah: \nKisah Nabi Adam dengan Iblis; kisah Nabi Nuh dan kaumnya; kisah Nabi Saleh dengan kaumnya; kisah Nabi Syu\u2019aib dengan kaumnya; kisah Nabi Musa dengan Fir\u2018aun.\n4.\tLain-lain: \nAl-Qur\u2032an diturunkan kepada Nabi yang terakhir berisi perintah untuk mengikuti petunjuknya; Nabi Muhammad saw, diutus kepada semua umat manusia; adab-adab orang mukmin; adab mendengarkan Al-Qur\u2032an ketika dibaca dan berzikir; Rasul bertanggung jawab menyampaikan seruan Allah; balasan terhadap orang yang mengikuti Rasul; Dakwah Rasul yang utama dan pertama kali ialah mengesakan Allah; tentang a\u1e63\u1e25\u0101bul a\u2019r\u0101f yang berada antara surga dengan neraka; Allah pencipta manusia, makhluk yang terbaik yang punya potensi untuk menjadi baik atau buruk; permusuhan setan terhadap anak cucu Adam; manusia khalifah Allah di bumi; kehancuran suatu kaum adalah karena perbuatan mereka sendiri; tiap-tiap bangsa mempunyai masa jaya dan masa kehancuran; Allah menguji manusia dengan kekayaan dan kemiskinan; Allah menarik orang-orang yang mendustakan ayat-ayat-Nya dengan berangsur-angsur ke arah kebinasaan.",
        "outro_surah": null,
        "munasabah_prev_surah": "HUBUNGAN SURAH AL-An\u2018\u0101m \nDENGAN SURAH AL-A\u2019R\u0100F\nHubungan Surah al-An\u2018\u0101m dengan Surah al-A\u2018r\u0101f adalah sebagai berikut: \n1.\tKedua surah tersebut termasuk di antara tujuh surah yang panjang (as-sab\u2019 a\u1e6d-\u1e6diw\u0101l), keduanya sama-sama membicarakan pokok akidah agama. Dalam Surah al-An\u2018\u0101m dikemukakan garis-garis besar akidah-akidah itu, sedangkan Surah al-A\u2018r\u0101f menjelaskannya.\n2.\tDalam Surah al-An\u2018\u0101m diterangkan asal usul kejadian manusia, dari tanah serta menjelaskan tentang beberapa generasi manusia yang telah dibinasakan Allah, kemudian disinggung pula tentang para Rasul dengan menyebut beberapa nama mereka dan kisahnya secara garis besarnya, sedang Surah al-A\u2018r\u0101f menjelaskannya.\n3.\tPada bagian terakhir Surah al-An\u2018\u0101m, dinyatakan bahwa Allah menjadikan manusia khalifah di bumi serta mengangkat derajat sebagian mereka, maka pada permulaan Surah al-A\u2018r\u0101f dikemukakan tentang penciptaan Adam dan anak cucunya kemudian dijadikan-Nya khalifah di bumi, begitu juga anak cucunya.\n4.\tMengenai hubungan bagian akhir Surah al-An\u2018\u0101m dengan bagian permulaan Surah sl-Ar\u2019\u0101f adalah sebagai berikut: \na.\tBagian akhir Surah al-An\u2018\u0101m menjelaskan bahwa Al-Qur\u2032an adalah kitab pedoman yang benar ke jalan yang lurus dan diberkahi, maka umat manusia diperintahkan mengikutinya. Pada bagian permulaan Surah al-A\u2018r\u0101f perintah itu diulang dan dikemukakan pula larangan mengikuti selainnya.\nb.\tPada bagian akhir Surah al-An\u2018\u0101m dijelaskan, bahwa Allah akan memberikan keterangan tentang apa yang seharusnya dilakukan manusia dan menjadi perselisihan mereka. Maka pada bagian permulaan Surah al-A\u2018r\u0101f, dijelaskan apa yang dimaksud dengan \u201cAllah memberi keterangan\u201d yaitu para rasul yang diutus bertugas memberi keterangan dan mereka masing-masing akan dimintai pertanggungjawaban.\nc.\tPada bagian akhir Surah al-An\u2018\u0101m, dinyatakan bahwa orang yang berbuat kebajikan akan diganjar sepuluh kali lipat dan yang berbuat kejahatan akan dibalas seimbang dengan perbuatannya. Untuk menentukan kadar kebajikan dan kejahatan itu ada timbangannya. Maka di bagian muka Surah al-A\u2018r\u0101f, dikemukakan bahwa timbangan pada hari itu ialah kebenaran dan keadilan. Siapa yang berat timbangannya dialah orang yang beruntung dan siapa yang ringan timbangannya dialah yang merugi. Kemudian diceritakan keadaan nasib a\u1e63h\u0101bul a\u2019r\u0101f.",
        "munasabah_prev_theme": "Pada ayat-ayat yang telah lalu disebutkan bahwa ular besar yang menjelma dari tongkat Nabi Musa, yang merupakan salah satu dari mukjizatnya telah menelan semua ular-ular yang kelihatannya seperti menjelma dari tali-tali dan tongkat-tongkat yang dilemparkan oleh ahli-ahli sihir Fir\u2018aun. Pada ayat ini dijelaskan bahwa peristiwa tersebut merupakan kekalahan total bagi ahli-ahli sihir itu dan juga merupakan kekalahan yang sangat memalukan bagi Fir\u2018aun dan pembesarnya. Kemudian Allah swt menerangkan, bahwa ahli-ahli sihir tersebut akhirnya mengakui kekalahan mereka, dan segera menyatakan iman mereka kepada Allah swt.",
        "theme_group": "KEKALAHAN AHLI SIHIR Fir\u2018aun DAN\nPERNYATAAN IMAN MEREKA",
        "kosakata": "Kosakata: \u1e62\u0101gir\u012bn \u0635\u064e\u0627\u063a\u0650\u0631\u0650\u064a\u0652\u0646  (al-A\u2018r\u0101f/7: 119)\nDari kata tunggal) \u0635\u0627\u063a\u0631\u1e63\u0101gir) artinya hina, tunduk, rendah diri, yang biasanya timbul akibat perbuatan sendiri, seperti Iblis yang diusir dari surga  (7: 13), dan beberapa ayat lagi dengan makna yang sama (12: 32, 9: 29, 27: 37).",
        "sabab_nuzul": null,
        "conclusion": null
    }
}