{
    "id": 1056,
    "surah_id": 7,
    "ayah": 102,
    "page": 163,
    "quarter_hizb": 17,
    "juz": 9,
    "manzil": 2,
    "arabic": "\u0648\u064e\u0645\u064e\u0627 \u0648\u064e\u062c\u064e\u062f\u0652\u0646\u064e\u0627 \u0644\u0650\u0627\u064e\u0643\u0652\u062b\u064e\u0631\u0650\u0647\u0650\u0645\u0652 \u0645\u0651\u0650\u0646\u0652 \u0639\u064e\u0647\u0652\u062f\u064d\u06da \u0648\u064e\u0627\u0650\u0646\u0652 \u0648\u0651\u064e\u062c\u064e\u062f\u0652\u0646\u064e\u0627\u0653 \u0627\u064e\u0643\u0652\u062b\u064e\u0631\u064e\u0647\u064f\u0645\u0652 \u0644\u064e\u0641\u0670\u0633\u0650\u0642\u0650\u064a\u0652\u0646\u064e",
    "latin": "Wa m\u0101 wajadn\u0101 li'ak\u1e61arihim min \u2018ahd(in), wa iw wajadn\u0101 ak\u1e61arahum laf\u0101siq\u012bn(a).",
    "translation": "Kami tidak mendapati kebanyakan mereka memenuhi janji. Sesungguhnya Kami dapati kebanyakan mereka adalah orang-orang yang fasik.",
    "no_footnote": null,
    "footnotes": null,
    "surah": {
        "id": 7,
        "arabic": " \u0627\u0644\u0627\u0639\u0631\u0627\u0641",
        "latin": "Al-A\u2018r\u0101f",
        "transliteration": "Al-A\u2018raf",
        "translation": "Tempat Tertinggi",
        "num_ayah": 206,
        "page": 151,
        "location": "Makkiyah"
    },
    "tafsir": {
        "wajiz": "Dan Kami tidak mendapati kebanyakan mereka memenuhi janji sedikit pun, berupa komitmen terhadap keimanan yang Kami pesankan kepada mereka melalui para rasul dan nalar yang sehat (Lihat: Surah alA'raf/7: 172). Begitu juga dengan janji-janji yang lain. Sebaliknya yang Kami dapati kebanyakan mereka adalah orang-orang yang benar-benar fasik, menyimpang dan keluar dari ketaatan kepada Allah.",
        "tahlili": "Dalam ayat ini ditegaskan bahwa Allah mendapati kebanyakan umat-umat terdahulu tidak suka menepati janji, dan kebanyakan mereka adalah orang-orang fasik.\nMengenai \u201cjanji\u201d yang dimaksud dalam ayat ini, ada beberapa penafsiran para ulama. Di antaranya mengatakan bahwa yang dimaksud dengan janji tersebut ialah fitrah asli yang diberikan Allah kepada setiap insan, yaitu kecenderungan yang mendorong manusia untuk kembali kepada Tuhannya pada waktu ia menghadapi kesulitan; atau bersyukur kepada-Nya pada waktu terhindar dari kesulitan atau memperoleh kesenangan hidup. Akan tetapi mereka tetap dalam keingkaran dan kemaksiatan. Sebaliknya, kenikmatan dan kelapangan hidup tidak pula mendorong mereka untuk bersyukur kepada Allah, bahkan mereka tidak mengakui nikmat tersebut sebagai karunia dan rahmat daripada-Nya.\nPendapat lain mengatakan bahwa yang dimaksud dengan \u201cjanji\u201d dalam ayat tersebut ialah sifat yang asli atau fitrah yang diberikan Allah kepada setiap manusia, yaitu kecenderungan kepada kepercayaan tauhid, iman kepada kemahaesaan-Nya dan hanya menyembah kepada-Nya, serta tidak mempersekutukan-Nya dengan sesuatu pun juga. Akan tetapi kenyataannya, mereka telah meninggalkan fitrah, dan melemparkan kepercayaan tauhid, bahkan mempersekutukan Allah, tanpa menghiraukan seruan-seruan para rasul serta keterangan-keterangan dan bukti-bukti yang dikemukakan. Mereka hanya menuruti kehendak hawa nafsu, serta bisikan setan belaka, bertentangan dengan fitrahnya yang suci. Dalam hadis yang diriwayatkan oleh Imam Muslim disebutkan bahwa Rasulullah saw telah bersabda:\n\u064a\u0642\u064f\u0648\u0652\u0644\u064f  \u0627\u0644\u0644\u0651\u0670\u0647\u064f  \u0650\u0627\u0646\u0651\u0650\u0649 \u062e\u064e\u0644\u064e\u0642\u0652\u062a\u064f \u0639\u0650\u0628\u064e\u0627\u062f\u0650\u064a\u0652 \u062d\u064f\u0646\u064e\u0641\u064e\u0627\u0621\u064e \u0641\u064e\u062c\u064e\u0627\u0621\u064e\u062a\u0652\u0647\u064f\u0645\u064f \u0627\u0644\u0634\u0651\u064e\u064a\u064e\u0627\u0637\u0650\u064a\u0652\u0646\u064f \u0641\u064e\u0627\u062c\u0652\u062a\u064e\u0627\u0644\u064e\u062a\u0652\u0647\u064f\u0645\u0652 \u0639\u064e\u0646\u0652 \u062f\u0650\u064a\u0652\u0646\u0650\u0647\u0650\u0645\u0652 \u064e\u0648\u062d\u064e\u0631\u0651\u064e\u0645\u0652\u062a\u064f \u0639\u064e\u0644\u064e\u064a\u0652\u0647\u0650\u0645\u0652 \u0645\u064e\u0627 \u0627\u064e\u062d\u0652\u0644\u064e\u0644\u0652\u062a\u064f \u0644\u064e\u0647\u064f\u0645\u0652 (\u0631\u0648\u0627\u0647 \u0645\u0633\u0644\u0645)\nAllah swt berfirman: \u201cSesungguhnya Aku telah menciptakan hamba-hamba-Ku beragama tauhid; kemudian datanglah setan lalu memalingkan mereka dari agama semula, serta mengharamkan kepada mereka apa-apa yang telah dihalalkan bagi mereka\u201d. (Riwayat Muslim)\nDalam hadis lain yang diriwayatkan oleh Imam al-Bukh\u0101r\u012b dan Muslim, Rasulullaah saw bersabda:\n\u0643\u064f\u0644\u0651\u064f \u0645\u064e\u0648\u0652\u0644\u064f\u0648\u0652\u062f\u064d \u064a\u064f\u0648\u0652\u0644\u064e\u062f\u064f \u0639\u064e\u0644\u064e\u0649 \u0627\u0644\u0652\u0641\u0650\u0637\u0652\u0631\u064e\u0629\u0650 \u0641\u064e\u0623\u064e\u0628\u064e\u0648\u064e\u0627\u0647\u064f \u064a\u064f\u0647\u064e\u0648\u0651\u0650\u062f\u064e\u0627\u0646\u0650\u0647\u0650 \u0627\u064e\u0648\u0652\u064a\u064f\u0646\u064e\u0635\u0651\u0650\u0631\u064e\u0627\u0646\u0650\u0647\u0650 \u0627\u064e\u0648\u0652\u064a\u064f\u0645\u064e\u062c\u0651\u0650\u0633\u064e\u0627\u0646\u0650\u0647\u0650 (\u0631\u0648\u0627\u0647 \u0627\u0644\u0628\u062e\u0627\u0631\u0649 \u0648\u0645\u0633\u0644\u0645)\n\u201cSetiap anak dilahirkan dalam keadaan fitrah, kemudian ibu-bapaknyalah yang menjadikan ia seorang Yahudi, Nasrani atau Majusi\u201d. (Riwayat al-Bukh\u0101r\u012b dan Muslim)\nDengan demikian jelas apabila manusia telah menyimpang dari kepercayaan tauhid, maka hal itu adalah disebabkan pengaruh dari luar, bukan fitrah yang dibawa dari kandungan ibunya, yang dikaruniakan Allah pada setiap insan.\nAdapun sifat fasik yang disebut dalam ayat ini ialah seseorang melakukan berbagai maksiat secara berulang-ulang, tanpa menghiraukan nasihat dan ajaran agama serta hukum dan ancamannya.\nPerlu diperhatikan bahwa firman Allah dalam ayat ini mengatakan bahwa kebanyakan mereka itu fasik. Ini memberi pengertian bahwa umat-umat yang terdahulu itu tidak semuanya fasik dan meninggalkan kepercayaan tauhid yang merupakan fitrah suci yang dikaruniakan Allah kepada setiap hamba-Nya. Bahkan sebagian dari mereka tetap dalam fitrah sucinya, sehingga kedatangan para rasul yang membawa agama tauhid segera mereka sambut dengan baik, dan mereka senantiasa menjauhkan diri dari segala macam kemaksiatan dan kemusyrikan. Mereka inilah yang senantiasa mendampingi para rasul dalam menghadapi ancaman dan gangguan dari orang-orang kafir, dan mereka pulalah yang selalu diselamatkan Allah bersama Rasul-Nya dari azab dan malapetaka yang ditimpakan kepada kaum yang fasik itu.",
        "intro_surah": "Surah 7 al-A\u2018r\u0101f yang berjumlah 206 ayat termasuk golongan surah Makkiyah (kecuali ayat 163-167 Madaniyah), diturunkan sebelum turunnya Surah al-An\u2018\u0101m yang termasuk golongan Surah as-sab\u2019 a\u1e6d-\u1e6diw\u0101l (tujuh surah yang panjang). Dinamakan al-A\u2018r\u0101f karena terdapat dalam surah ini yaitu dalam ayat 46 yang mengemukakan tentang keadaan orang-orang yang berada di tempat yang tertinggi antara surga dan neraka.\nPOKOK-POKOK ISINYA: \n1.    Keimanan: \nMengesakan (tauhid) Allah baik dalam berdoa maupun ketika beribadah hanya Allah sendiri yang mengatur dan menjaga alam, menciptakan undang-undang dan hukum-hukum, mengatur kehidupan manusia di dunia dan di akhirat; Allah bersemayam di atas \u2018Arsy; bantahan terhadap kebenaran syirik; ketauhidan adalah sesuai dengan fitrah manusia; Musa berbicara dengan Allah; tentang melihat Allah; perintah beribadah sambil merendahkan diri kepada Allah; dan al-asm\u2019ul \u1e25usn\u0101.\n2.\tHukum: \nLarangan mengikuti perbuatan dan adat istiadat yang buruk; kewajiban mengikuti Allah dan Rasul, perintah memakai pakaian yang baik waktu salat; bantahan terhadap orang yang mengharamkan perhiasan yang dikaruniakan Allah; perintah makan makanan yang halal dan baik dan larangan makan yang sebaliknya.\n3.\tKisah-kisah: \nKisah Nabi Adam dengan Iblis; kisah Nabi Nuh dan kaumnya; kisah Nabi Saleh dengan kaumnya; kisah Nabi Syu\u2019aib dengan kaumnya; kisah Nabi Musa dengan Fir\u2018aun.\n4.\tLain-lain: \nAl-Qur\u2032an diturunkan kepada Nabi yang terakhir berisi perintah untuk mengikuti petunjuknya; Nabi Muhammad saw, diutus kepada semua umat manusia; adab-adab orang mukmin; adab mendengarkan Al-Qur\u2032an ketika dibaca dan berzikir; Rasul bertanggung jawab menyampaikan seruan Allah; balasan terhadap orang yang mengikuti Rasul; Dakwah Rasul yang utama dan pertama kali ialah mengesakan Allah; tentang a\u1e63\u1e25\u0101bul a\u2019r\u0101f yang berada antara surga dengan neraka; Allah pencipta manusia, makhluk yang terbaik yang punya potensi untuk menjadi baik atau buruk; permusuhan setan terhadap anak cucu Adam; manusia khalifah Allah di bumi; kehancuran suatu kaum adalah karena perbuatan mereka sendiri; tiap-tiap bangsa mempunyai masa jaya dan masa kehancuran; Allah menguji manusia dengan kekayaan dan kemiskinan; Allah menarik orang-orang yang mendustakan ayat-ayat-Nya dengan berangsur-angsur ke arah kebinasaan.",
        "outro_surah": null,
        "munasabah_prev_surah": "HUBUNGAN SURAH AL-An\u2018\u0101m \nDENGAN SURAH AL-A\u2019R\u0100F\nHubungan Surah al-An\u2018\u0101m dengan Surah al-A\u2018r\u0101f adalah sebagai berikut: \n1.\tKedua surah tersebut termasuk di antara tujuh surah yang panjang (as-sab\u2019 a\u1e6d-\u1e6diw\u0101l), keduanya sama-sama membicarakan pokok akidah agama. Dalam Surah al-An\u2018\u0101m dikemukakan garis-garis besar akidah-akidah itu, sedangkan Surah al-A\u2018r\u0101f menjelaskannya.\n2.\tDalam Surah al-An\u2018\u0101m diterangkan asal usul kejadian manusia, dari tanah serta menjelaskan tentang beberapa generasi manusia yang telah dibinasakan Allah, kemudian disinggung pula tentang para Rasul dengan menyebut beberapa nama mereka dan kisahnya secara garis besarnya, sedang Surah al-A\u2018r\u0101f menjelaskannya.\n3.\tPada bagian terakhir Surah al-An\u2018\u0101m, dinyatakan bahwa Allah menjadikan manusia khalifah di bumi serta mengangkat derajat sebagian mereka, maka pada permulaan Surah al-A\u2018r\u0101f dikemukakan tentang penciptaan Adam dan anak cucunya kemudian dijadikan-Nya khalifah di bumi, begitu juga anak cucunya.\n4.\tMengenai hubungan bagian akhir Surah al-An\u2018\u0101m dengan bagian permulaan Surah sl-Ar\u2019\u0101f adalah sebagai berikut: \na.\tBagian akhir Surah al-An\u2018\u0101m menjelaskan bahwa Al-Qur\u2032an adalah kitab pedoman yang benar ke jalan yang lurus dan diberkahi, maka umat manusia diperintahkan mengikutinya. Pada bagian permulaan Surah al-A\u2018r\u0101f perintah itu diulang dan dikemukakan pula larangan mengikuti selainnya.\nb.\tPada bagian akhir Surah al-An\u2018\u0101m dijelaskan, bahwa Allah akan memberikan keterangan tentang apa yang seharusnya dilakukan manusia dan menjadi perselisihan mereka. Maka pada bagian permulaan Surah al-A\u2018r\u0101f, dijelaskan apa yang dimaksud dengan \u201cAllah memberi keterangan\u201d yaitu para rasul yang diutus bertugas memberi keterangan dan mereka masing-masing akan dimintai pertanggungjawaban.\nc.\tPada bagian akhir Surah al-An\u2018\u0101m, dinyatakan bahwa orang yang berbuat kebajikan akan diganjar sepuluh kali lipat dan yang berbuat kejahatan akan dibalas seimbang dengan perbuatannya. Untuk menentukan kadar kebajikan dan kejahatan itu ada timbangannya. Maka di bagian muka Surah al-A\u2018r\u0101f, dikemukakan bahwa timbangan pada hari itu ialah kebenaran dan keadilan. Siapa yang berat timbangannya dialah orang yang beruntung dan siapa yang ringan timbangannya dialah yang merugi. Kemudian diceritakan keadaan nasib a\u1e63h\u0101bul a\u2019r\u0101f.",
        "munasabah_prev_theme": "Pada ayat-ayat yang lalu telah diceritakan kisah Nabi Syu\u2019aib beserta kaumnya, baik mereka yang telah beriman dan mengikuti agamanya, maupun mereka yang ingkar dan menyombongkan diri. Pada ayat ini dijelaskan sikap umat terdahulu kepada rasulnya dan akibatnya. Ayat ini merupakan hiburan bagi Rasulullah saw, agar memperkuat tekad dan mempertinggi kesabaran beliau dalam menjalankan risalah dan menghadapi sikap dan tingkah laku orang-orang musyrik dan kaum kafir pada masanya.",
        "theme_group": "AKHIR KISAH NABI SYU\u2019AIB",
        "kosakata": "Kosakata: Qul\u016bb  \u0642\u064f\u0644\u064f\u0648\u0652\u0628\u064f (al-A\u2018r\u0101f/7: 101)\nBentuk jamak dari kata \u0642\u064e\u0644\u0652\u0628  dalam bentuk tunggal (mufrad), secara harfiah berarti jantung, isi, inti, bagian tengah, biji, rohani, akal pikiran, akal budi, hati, hati nurani, perasaan batin, dan kalbu. Seperti dalam ayat ini dan beberapa ayat lain dalam Al-Qur\u2019an. Sedang \u201chati\u201d dalam bahasa Arab dalam arti benda, bentuk tunggal dan jamak:    \u0643\u0628\u062f  kabid, kabd, kibid, bentuk jamaknya akb\u0101d dan kub\u016bd, yang juga berati di tengah, pusat atau titik khayal di langit, zenith. Dalam Al-Qur\u2019an kata kabad hanya terdapat sekali, (al-Balad/90: 4) sebagai kata sifat kabad dalam pengertian kerja keras, susah payah, dan sukar.",
        "sabab_nuzul": null,
        "conclusion": "1. \tKisah-kisah yang terdapat dalam Al-Qur\u2019an mengandung pelajaran yang sangat berharga bagi orang-orang yang beriman.\n2. \tSikap dan tingkah laku orang-orang kafir sama pada setiap masa, yaitu senantiasa menolak agama yang dibawa para rasul, walaupun kepada mereka telah disampaikan keterangan, bukti dan dalil-dalil yang jelas.\n3. \tAllah telah mengunci mati hati orang kafir, sehingga mereka tidak bisa lagi menerima pelajaran dan nasihat dari agama yang benar.\n4. \tBanyak dari umat-umat terdahulu yang fasik. Oleh sebab itu, Allah telah menimpakan azab kepada mereka. Sedangkan sebagian dari mereka tetap dalam fitrah suci, selalu berpegang kepada agama tauhid, dan menyambut baik kedatangan para rasul. Mereka ini bersama para rasul telah diselamatkan dari azab tersebut."
    }
}