{
    "id": 1145,
    "surah_id": 7,
    "ayah": 191,
    "page": 175,
    "quarter_hizb": 18.25,
    "juz": 9,
    "manzil": 2,
    "arabic": "\u0627\u064e\u064a\u064f\u0634\u0652\u0631\u0650\u0643\u064f\u0648\u0652\u0646\u064e \u0645\u064e\u0627 \u0644\u064e\u0627 \u064a\u064e\u062e\u0652\u0644\u064f\u0642\u064f \u0634\u064e\u064a\u0652\u0640\u0654\u064b\u0627 \u0648\u0651\u064e\u0647\u064f\u0645\u0652 \u064a\u064f\u062e\u0652\u0644\u064e\u0642\u064f\u0648\u0652\u0646\u064e\u06d6 ",
    "latin": "Ayusyrik\u016bna m\u0101 l\u0101 yakhluqu syai'aw wa hum yukhlaq\u016bn(a).",
    "translation": "Apakah mereka mempersekutukan (Allah dengan) sesuatu (berhala) yang tidak dapat menciptakan sesuatu apa pun, padahal ia (berhala) sendiri diciptakan?",
    "no_footnote": null,
    "footnotes": null,
    "surah": {
        "id": 7,
        "arabic": " \u0627\u0644\u0627\u0639\u0631\u0627\u0641",
        "latin": "Al-A\u2018r\u0101f",
        "transliteration": "Al-A\u2018raf",
        "translation": "Tempat Tertinggi",
        "num_ayah": 206,
        "page": 151,
        "location": "Makkiyah"
    },
    "tafsir": {
        "wajiz": "Begitu banyak bukti-bukti keagungan, ketinggian, dan kesucian Allah dari segala kekurangan dan sekutu, lalu mengapa mereka terus berada dalam kesesatan dan selalu mempersekutukan Allah dengan sesuatu berhala yang tidak dapat menciptakan dan melakukan sesuatu apa pun? Padahal berhala itu sendiri diciptakan oleh manusia.",
        "tahlili": "Kemudian Allah dalam ayat ini mencela keras sikap, pikiran dan tingkah laku orang-orang yang menyembah berhala yang tidak dapat menciptakan sesuatu pun walaupun hanya benda-benda yang rendah nilainya, karena berhala-berhala itu sendiri dibikin oleh tangan manusia. Tidaklah wajar bagi orang-orang yang punya pikiran menjadikan berhala itu sebagai sembahan, baik dia dipandang sebagai sekutu Allah dalam menerima ibadah ataupun sebagai perantara antara manusia dengan Allah. Sebab segala pujian atau sembahan kepada selain Allah sedikitpun tidak ada faedahnya. Firman Allah swt:\n\u064a\u0670\u0653\u0627\u064e\u064a\u0651\u064f\u0647\u064e\u0627 \u0627\u0644\u0646\u0651\u064e\u0627\u0633\u064f \u0636\u064f\u0631\u0650\u0628\u064e \u0645\u064e\u062b\u064e\u0644\u064c \u0641\u064e\u0627\u0633\u0652\u062a\u064e\u0645\u0650\u0639\u064f\u0648\u0652\u0627 \u0644\u064e\u0647\u0657 \u06d7\u0627\u0650\u0646\u0651\u064e \u0627\u0644\u0651\u064e\u0630\u0650\u064a\u0652\u0646\u064e \u062a\u064e\u062f\u0652\u0639\u064f\u0648\u0652\u0646\u064e \u0645\u0650\u0646\u0652 \u062f\u064f\u0648\u0652\u0646\u0650 \u0627\u0644\u0644\u0651\u0670\u0647\u0650 \u0644\u064e\u0646\u0652 \u064a\u0651\u064e\u062e\u0652\u0644\u064f\u0642\u064f\u0648\u0652\u0627 \u0630\u064f\u0628\u064e\u0627\u0628\u064b\u0627 \u0648\u0651\u064e\u0644\u064e\u0648\u0650 \u0627\u062c\u0652\u062a\u064e\u0645\u064e\u0639\u064f\u0648\u0652\u0627 \u0644\u064e\u0647\u0657 \u06d7\u0648\u064e\u0627\u0650\u0646\u0652 \u064a\u0651\u064e\u0633\u0652\u0644\u064f\u0628\u0652\u0647\u064f\u0645\u064f \u0627\u0644\u0630\u0651\u064f\u0628\u064e\u0627\u0628\u064f \u0634\u064e\u064a\u0652\u0640\u0654\u064b\u0627 \u0644\u0651\u064e\u0627 \u064a\u064e\u0633\u0652\u062a\u064e\u0646\u0652\u0642\u0650\u0630\u064f\u0648\u0652\u0647\u064f \u0645\u0650\u0646\u0652\u0647\u064f\u06d7 \u0636\u064e\u0639\u064f\u0641\u064e \u0627\u0644\u0637\u0651\u064e\u0627\u0644\u0650\u0628\u064f \u0648\u064e\u0627\u0644\u0652\u0645\u064e\u0637\u0652\u0644\u064f\u0648\u0652\u0628\u064f \u0667\u0663\nWahai manusia! Telah dibuat suatu perumpamaan. Maka dengarkanlah! Sesungguhnya segala yang kamu seru selain Allah tidak dapat menciptakan seekor lalat pun, walaupun mereka bersatu untuk menciptakannya. Dan jika lalat itu merampas sesuatu dari mereka.  Mereka tidak dapat merebut kembali dari lalat itu. Sama lemahnya yang menyembah dan yang disembah. (al-\u1e24ajj/22: 73)",
        "intro_surah": "Surah 7 al-A\u2018r\u0101f yang berjumlah 206 ayat termasuk golongan surah Makkiyah (kecuali ayat 163-167 Madaniyah), diturunkan sebelum turunnya Surah al-An\u2018\u0101m yang termasuk golongan Surah as-sab\u2019 a\u1e6d-\u1e6diw\u0101l (tujuh surah yang panjang). Dinamakan al-A\u2018r\u0101f karena terdapat dalam surah ini yaitu dalam ayat 46 yang mengemukakan tentang keadaan orang-orang yang berada di tempat yang tertinggi antara surga dan neraka.\nPOKOK-POKOK ISINYA: \n1.    Keimanan: \nMengesakan (tauhid) Allah baik dalam berdoa maupun ketika beribadah hanya Allah sendiri yang mengatur dan menjaga alam, menciptakan undang-undang dan hukum-hukum, mengatur kehidupan manusia di dunia dan di akhirat; Allah bersemayam di atas \u2018Arsy; bantahan terhadap kebenaran syirik; ketauhidan adalah sesuai dengan fitrah manusia; Musa berbicara dengan Allah; tentang melihat Allah; perintah beribadah sambil merendahkan diri kepada Allah; dan al-asm\u2019ul \u1e25usn\u0101.\n2.\tHukum: \nLarangan mengikuti perbuatan dan adat istiadat yang buruk; kewajiban mengikuti Allah dan Rasul, perintah memakai pakaian yang baik waktu salat; bantahan terhadap orang yang mengharamkan perhiasan yang dikaruniakan Allah; perintah makan makanan yang halal dan baik dan larangan makan yang sebaliknya.\n3.\tKisah-kisah: \nKisah Nabi Adam dengan Iblis; kisah Nabi Nuh dan kaumnya; kisah Nabi Saleh dengan kaumnya; kisah Nabi Syu\u2019aib dengan kaumnya; kisah Nabi Musa dengan Fir\u2018aun.\n4.\tLain-lain: \nAl-Qur\u2032an diturunkan kepada Nabi yang terakhir berisi perintah untuk mengikuti petunjuknya; Nabi Muhammad saw, diutus kepada semua umat manusia; adab-adab orang mukmin; adab mendengarkan Al-Qur\u2032an ketika dibaca dan berzikir; Rasul bertanggung jawab menyampaikan seruan Allah; balasan terhadap orang yang mengikuti Rasul; Dakwah Rasul yang utama dan pertama kali ialah mengesakan Allah; tentang a\u1e63\u1e25\u0101bul a\u2019r\u0101f yang berada antara surga dengan neraka; Allah pencipta manusia, makhluk yang terbaik yang punya potensi untuk menjadi baik atau buruk; permusuhan setan terhadap anak cucu Adam; manusia khalifah Allah di bumi; kehancuran suatu kaum adalah karena perbuatan mereka sendiri; tiap-tiap bangsa mempunyai masa jaya dan masa kehancuran; Allah menguji manusia dengan kekayaan dan kemiskinan; Allah menarik orang-orang yang mendustakan ayat-ayat-Nya dengan berangsur-angsur ke arah kebinasaan.",
        "outro_surah": null,
        "munasabah_prev_surah": "HUBUNGAN SURAH AL-An\u2018\u0101m \nDENGAN SURAH AL-A\u2019R\u0100F\nHubungan Surah al-An\u2018\u0101m dengan Surah al-A\u2018r\u0101f adalah sebagai berikut: \n1.\tKedua surah tersebut termasuk di antara tujuh surah yang panjang (as-sab\u2019 a\u1e6d-\u1e6diw\u0101l), keduanya sama-sama membicarakan pokok akidah agama. Dalam Surah al-An\u2018\u0101m dikemukakan garis-garis besar akidah-akidah itu, sedangkan Surah al-A\u2018r\u0101f menjelaskannya.\n2.\tDalam Surah al-An\u2018\u0101m diterangkan asal usul kejadian manusia, dari tanah serta menjelaskan tentang beberapa generasi manusia yang telah dibinasakan Allah, kemudian disinggung pula tentang para Rasul dengan menyebut beberapa nama mereka dan kisahnya secara garis besarnya, sedang Surah al-A\u2018r\u0101f menjelaskannya.\n3.\tPada bagian terakhir Surah al-An\u2018\u0101m, dinyatakan bahwa Allah menjadikan manusia khalifah di bumi serta mengangkat derajat sebagian mereka, maka pada permulaan Surah al-A\u2018r\u0101f dikemukakan tentang penciptaan Adam dan anak cucunya kemudian dijadikan-Nya khalifah di bumi, begitu juga anak cucunya.\n4.\tMengenai hubungan bagian akhir Surah al-An\u2018\u0101m dengan bagian permulaan Surah sl-Ar\u2019\u0101f adalah sebagai berikut: \na.\tBagian akhir Surah al-An\u2018\u0101m menjelaskan bahwa Al-Qur\u2032an adalah kitab pedoman yang benar ke jalan yang lurus dan diberkahi, maka umat manusia diperintahkan mengikutinya. Pada bagian permulaan Surah al-A\u2018r\u0101f perintah itu diulang dan dikemukakan pula larangan mengikuti selainnya.\nb.\tPada bagian akhir Surah al-An\u2018\u0101m dijelaskan, bahwa Allah akan memberikan keterangan tentang apa yang seharusnya dilakukan manusia dan menjadi perselisihan mereka. Maka pada bagian permulaan Surah al-A\u2018r\u0101f, dijelaskan apa yang dimaksud dengan \u201cAllah memberi keterangan\u201d yaitu para rasul yang diutus bertugas memberi keterangan dan mereka masing-masing akan dimintai pertanggungjawaban.\nc.\tPada bagian akhir Surah al-An\u2018\u0101m, dinyatakan bahwa orang yang berbuat kebajikan akan diganjar sepuluh kali lipat dan yang berbuat kejahatan akan dibalas seimbang dengan perbuatannya. Untuk menentukan kadar kebajikan dan kejahatan itu ada timbangannya. Maka di bagian muka Surah al-A\u2018r\u0101f, dikemukakan bahwa timbangan pada hari itu ialah kebenaran dan keadilan. Siapa yang berat timbangannya dialah orang yang beruntung dan siapa yang ringan timbangannya dialah yang merugi. Kemudian diceritakan keadaan nasib a\u1e63h\u0101bul a\u2019r\u0101f.",
        "munasabah_prev_theme": "Pada ayat-ayat yang telah lalu Allah swt menerangkan tingkah laku dan sikap mental orang musyrik Mekah yang menyimpang dari fitrahnya. Mereka ingkar kepada keesaan Allah swt, kepada kenabian dan kepada hari Kiamat. Maka pada ayat-ayat ini Allah swt mengungkapkan sejarah penyimpangan manusia dari fitrahnya, yang sebenarnya telah ada jauh sebelum zaman Quraisy di Mekah itu.",
        "theme_group": "ALLAH MENGINGATKAN MANUSIA TENTANG\nASAL-USUL KEJADIANNYA",
        "kosakata": "Kosakata: Ja\u2019ala \u062c\u064e\u0639\u064e\u0644\u064e  (al-A\u2018r\u0101f /7: 189)\n       Ja`ala merupakan kata kerja dalam bentuk m\u0101\u1e0d\u012b (lampau), yang bentuk sekarang atau yang akan datang (mu\u1e0dari`) adalah yaj\u2019alu. Makna dari kata kerja ini adalah menjadikan atau mewujudkan sesuatu dari bahan yang telah ada sebelumnya sambil menekankan bahwa yang wujud itu sangat bermanfaat dan harus diraih faedahnya. Manfaat itu terutama diciptakan untuk manusia, karena seluruh makhluk yang ada di alam ini diadakan untuk kesejahteraan manusia. Karena itu, manusia harus dapat meraih manfaat dari segala yang ada. Selain ja`ala, kata yang hampir sama maknanya adalah khalaqa. Namun demikian, antara keduanya tetap ada perbedaan. Khalaqa maknanya mencipta. Dalam kata ini terkesan bahwa terciptanya sesuatu itu melalui bahan yang telah ada sebelumnya atau yang belum ada. Selain itu, pada kata ini juga terkesan bahwa wujud yang tercipta itu sangat hebat, dan akan menjadi lebih hebat lagi bila Allah yang mewujudkannya.",
        "sabab_nuzul": null,
        "conclusion": null
    }
}