{
    "id": 1097,
    "surah_id": 7,
    "ayah": 143,
    "page": 167,
    "quarter_hizb": 17.5,
    "juz": 9,
    "manzil": 2,
    "arabic": "\u0648\u064e\u0644\u064e\u0645\u0651\u064e\u0627 \u062c\u064e\u0627\u06e4\u0621\u064e \u0645\u064f\u0648\u0652\u0633\u0670\u0649 \u0644\u0650\u0645\u0650\u064a\u0652\u0642\u064e\u0627\u062a\u0650\u0646\u064e\u0627 \u0648\u064e\u0643\u064e\u0644\u0651\u064e\u0645\u064e\u0647\u0657 \u0631\u064e\u0628\u0651\u064f\u0647\u0657\u06d9 \u0642\u064e\u0627\u0644\u064e \u0631\u064e\u0628\u0651\u0650 \u0627\u064e\u0631\u0650\u0646\u0650\u064a\u0652\u0653 \u0627\u064e\u0646\u0652\u0638\u064f\u0631\u0652 \u0627\u0650\u0644\u064e\u064a\u0652\u0643\u064e\u06d7 \u0642\u064e\u0627\u0644\u064e \u0644\u064e\u0646\u0652 \u062a\u064e\u0631\u0670\u0649\u0646\u0650\u064a\u0652 \u0648\u064e\u0644\u0670\u0643\u0650\u0646\u0650 \u0627\u0646\u0652\u0638\u064f\u0631\u0652 \u0627\u0650\u0644\u064e\u0649 \u0627\u0644\u0652\u062c\u064e\u0628\u064e\u0644\u0650 \u0641\u064e\u0627\u0650\u0646\u0650 \u0627\u0633\u0652\u062a\u064e\u0642\u064e\u0631\u0651\u064e \u0645\u064e\u0643\u064e\u0627\u0646\u064e\u0647\u0657 \u0641\u064e\u0633\u064e\u0648\u0652\u0641\u064e \u062a\u064e\u0631\u0670\u0649\u0646\u0650\u064a\u0652\u06da \u0641\u064e\u0644\u064e\u0645\u0651\u064e\u0627 \u062a\u064e\u062c\u064e\u0644\u0651\u0670\u0649 \u0631\u064e\u0628\u0651\u064f\u0647\u0657 \u0644\u0650\u0644\u0652\u062c\u064e\u0628\u064e\u0644\u0650 \u062c\u064e\u0639\u064e\u0644\u064e\u0647\u0657 \u062f\u064e\u0643\u0651\u064b\u0627 \u0648\u0651\u064e\u062e\u064e\u0631\u0651\u064e \u0645\u064f\u0648\u0652\u0633\u0670\u0649 \u0635\u064e\u0639\u0650\u0642\u064b\u0627\u06da \u0641\u064e\u0644\u064e\u0645\u0651\u064e\u0627\u0653 \u0627\u064e\u0641\u064e\u0627\u0642\u064e \u0642\u064e\u0627\u0644\u064e \u0633\u064f\u0628\u0652\u062d\u0670\u0646\u064e\u0643\u064e \u062a\u064f\u0628\u0652\u062a\u064f \u0627\u0650\u0644\u064e\u064a\u0652\u0643\u064e \u0648\u064e\u0627\u064e\u0646\u064e\u0627\u06e0 \u0627\u064e\u0648\u0651\u064e\u0644\u064f \u0627\u0644\u0652\u0645\u064f\u0624\u0652\u0645\u0650\u0646\u0650\u064a\u0652\u0646\u064e",
    "latin": "Wa lamm\u0101 j\u0101'a m\u016bs\u0101 lim\u012bq\u0101tin\u0101 wa kallamah\u016b rabbuh(\u016b), q\u0101la rabbi arin\u012b an\u1e93ur ilaik(a), q\u0101la lan tar\u0101n\u012b wa l\u0101kinin\u1e93ur ilal-jabali fa inistaqarra mak\u0101nah\u016b fa saufa tar\u0101n\u012b, falamm\u0101 tajall\u0101 rabbuh\u016b lil-jabali ja\u2018alah\u016b dakkaw wa kharra m\u016bs\u0101 \u1e63a\u2018iq\u0101(n), falamm\u0101 af\u0101qa q\u0101la sub\u1e25\u0101naka tubtu ilaika wa ana awwalul-mu'min\u012bn(a).",
    "translation": "Ketika Musa datang untuk (bermunajat) pada waktu yang telah Kami tentukan (selama empat puluh hari) dan Tuhan telah berfirman (langsung) kepadanya, dia berkata, \u201cYa Tuhanku, tampakkanlah (diri-Mu) kepadaku agar aku dapat melihat Engkau.\u201d Dia berfirman, \u201cEngkau tidak akan (sanggup) melihat-Ku, namun lihatlah ke gunung itu. Jika ia tetap di tempatnya (seperti sediakala), niscaya engkau dapat melihat-Ku.\u201d Maka, ketika Tuhannya menampakkan (keagungan-Nya) pada gunung itu,281) gunung itu hancur luluh dan Musa pun jatuh pingsan. Setelah Musa sadar, dia berkata, \u201cMaha Suci Engkau. Aku bertobat kepada-Mu dan aku adalah orang yang pertama-tama beriman.\u201d",
    "no_footnote": "281",
    "footnotes": "281) Menurut sebagian mufasir, yang ditampakkan itu adalah kebesaran dan kekuasaan Allah Swt. Sementara itu, sebagian yang lain menafsirkan bahwa yang tampak itu adalah cahaya-Nya. Bagaimanapun juga, tampaknya Allah Swt. tidaklah seperti tampaknya makhluk. Tampaknya Allah mestilah sesuai dengan sifat-sifat-Nya yang tidak dapat diukur dengan pikiran manusia.",
    "surah": {
        "id": 7,
        "arabic": " \u0627\u0644\u0627\u0639\u0631\u0627\u0641",
        "latin": "Al-A\u2018r\u0101f",
        "transliteration": "Al-A\u2018raf",
        "translation": "Tempat Tertinggi",
        "num_ayah": 206,
        "page": 151,
        "location": "Makkiyah"
    },
    "tafsir": {
        "wajiz": "Dan ingatlah ketika Musa datang untuk bermunajat pada waktu yang telah Kami tentukan, yaitu empat puluh malam, dan Tuhan telah berfirman langsung kepadanya, menyampaikan wahyu melalui suatu dialog yang tidak sama dengan pembicaraan yang dilakukan manusia, Nabi Musa ingin mendapat lebih dari itu dan berkata, \u201cTuhan Pemeliharaku, tampakkanlah diri-Mu Yang Maha Suci kepadaku agar aku dapat-dengan potensi yang Engkau anugerahkan padaku-melihat Engkau.\u201d Dia, yakni Allah, berfirman, \u201cEngkau, wahai Nabi Musa, sekali-kali tidak akan sanggup melihat-Ku di dunia ini dengan mata telanjang.\u201d Kemudian Allah ingin Nabi Musa dapat menerima ketidaksanggupannya itu, dan berkata, \u201cNamun lihatlah ke gunung itu yang lebih kokoh bila dibandingkan dengan kondisimu, jika saat kemunculan-Ku ia tetap tegar di tempatnya sebagai sediakala ketika Aku ber-tajalli, menampakkan apa yang hendak Aku tampakkan, niscaya engkau dapat melihat-Ku saat Aku muncul di hadapanmu.\u201d Maka ketikaTuhannya ber-tajalli, menampakkan keagungan-Nya atau apa yang hendak ditampakkan-Nya kepada gunung itu, dijadikannya gunung itu hancur luluh, hingga sama rata dengan tanah, dan Nabi Musa pun jatuh pingsan tak sadarkan diri menyaksikan peristiwa dahsyat itu. Setelah Nabi Musa sadar kembali, dan yakin bahwa dia tidak dapat melihat-Nya di dunia ini dengan cara apa pun, dia berkata, \u201cMahasuci Engkau, lagi Maha Agung, aku bertobat kepada Engkau karena telah lancang meminta sesuatu yang tak Engkau izinkan, dan aku adalah orang yang pertama-tama beriman, yang percaya bahwa Engkau tidak dapat dilihat seperti yang kumohonkan.\u201d Para mufasir ada yang berpendapat, pengertian tampak ialah kebesaran dan kekuasaan Allah, dan ada pula yang menafsirkan bahwa yang tampak itu adalah cahaya Allah. Bagaimana pun juga tampaknya Allah itu bukanlah seperti tampaknya makhluk, hanya tampak yang sesuai sifat-sifat Allah yang tidak dapat diukur dengan ukuran manusia.",
        "tahlili": "Ayat ini menerangkan, manakala Musa as sampai ke tempat dan waktu yang dijanjikan Allah untuk menerima wahyu, Allah telah menyampaikan wahyu-Nya secara langsung tanpa perantara, maka timbul pada diri Musa keinginan untuk memperoleh kemuliaan lain di samping kemuliaan berkata-kata langsung dengan Allah yang baru saja diterimannya. Keinginan itu ialah mendapat kemuliaan melihat Allah dengan jelas, lalu Musa berkata, \u201cYa Tuhanku, perlihatkanlah zat Engkau yang suci dan berilah aku kekuatan untuk dapat melihat Engkau dengan jelas, karena aku tidak sanggup melihat dan mengetahui Engkau dengan sempurna. Allah menjawab, \u201cHai Musa kamu tidak akan dapat melihat-Ku.\u201d Dalam hadis Nabi saw, disebutkan:\n\u0639\u064e\u0646\u0652 \u0623\u064e\u0628\u0650\u064a\u0652 \u0645\u064f\u0648\u0652\u0633\u064e\u0649 \u0642\u064e\u0627\u0644\u064e: \u0642\u064e\u0627\u0644\u064e \u0635\u064e\u0644\u0651\u064e\u0649 \u0627\u0644\u0644\u0651\u0670\u0647\u064f \u0639\u064e\u0644\u064e\u064a\u0652\u0647\u0650 \u0648\u064e\u0633\u064e\u0644\u0651\u064e\u0645\u064e: \u062d\u0650\u062c\u064e\u0627\u0628\u064f\u0647\u064f \u0646\u064f\u0648\u0652\u0631\u064c\u060c \u0644\u064e\u0648\u0652 \u0643\u064e\u0634\u064e\u0641\u064e\u0647\u064f \u0644\u064e\u0623\u064e\u062d\u0652\u0631\u064e\u0642\u064e\u062a\u0652 \u0633\u064e\u0628\u0652\u062d\u064e\u0627\u062a\u064f \u0648\u064e\u062c\u0652\u0647\u0650\u0647\u0650 \u0645\u064e\u0627 \u0627\u0646\u0652\u062a\u064e\u0647\u0670\u0649 \u0628\u064e\u0635\u064e\u0631\u064f\u0647\u064f \u0645\u0650\u0646\u0652 \u062e\u064e\u0644\u0652\u0642\u0650\u0647\u0650 (\u0631\u0648\u0627\u0647 \u0645\u0633\u0644\u0645)\n\u201cDari Abu Musa, ia berkata: Rasulullah saw bersabda, \u201cHijab (pembatas) Allah ialah nur (cahaya). Sekiranya nur itu disingkapkan niscaya keagungan sinar wajahnya akan membakar seluruh makhluk yang sampai pandangan Tuhan kepadanya.\u201d  (Riwayat Muslim)\nSelanjutnya Allah berkata kepada Musa, \u201cMelihatlah ke bukit, jika bukit itu tetap kokoh dan kuat seperti sediakala setelah melihat-Ku, tentulah kamu dapat pula melihat-Ku, karena kamu dan gunung itu adalah sama-sama makhluk ciptaan-Ku. Tetapi jika bukit yang kokoh dan kuat itu tidak tahan dan hancur setelah melihat-Ku bagaimana pula kamu dapat melihat-Ku. Karena seluruh makhluk yang aku ciptakan tidak mampu dan tidak sanggup untuk melihat-Ku.\u201d\nDiriwayatkan dari Ibnu \u2018Abbas, ia berkata, \u201cKetika Musa as memohon kepada Tuhannya, \u201cPerlihatkanlah zat Engkau kepadaku\u201d Allah menjawab: \u201cKamu sekali-kali tidak akan dapat melihat-Ku.\u201d Kemudian Allah menegaskan lagi, \u201cKamu tidak akan dapat melihat-Ku untuk selama-lamanya hai Musa.\u201d Tidak seorang pun yang sanggup melihat-Ku, lalu sesudah itu ia tetap hidup.\u201d Akhirnya Allah berkata, \u201cMelihatlah ke bukit yang tinggi lagi besar itu, jika bukit itu tetap di tempatnya, tidak bergoncang dan hancur, tentulah ia melihat kebesaran-Ku, mudah-mudahan kamu dapat melihatnya pula, sedangkan kamu benar-benar lemah dan rendah. Sesungguhnya gunung itu berguncang dan hancur bagaimana pun juga kuat dan dahsyatnya, sedang kamu lebih lemah dan rendah.\u201d\nAda beberapa pendapat mufassir tentang yang dimaksud dengan ayat: \u201cKetika Tuhannya menampakkan diri kepada gunung-gunung itu\u201d sebagian mufassir mengatakan bahwa yang nampak bagai gunung itu ialah zat Allah. Bagaimana pun juga pendapat para mufassir, namun nampaknya Allah itu bukanlah seperti nampaknya makhluk. Namun penampakan Tuhan tidak sama dengan penampakan manusia sesuai dengan sifat-sifat Allah yang tidak dapat diukur dengan ukuran manusia. \nSetelah Musa as, sadar dari pingsannya, dan sadar pula bahwa ia telah meminta kepada Allah sesuatu yang dapat membahayakan dirinya, ia merasa telah berbuat dosa, karena itu ia memohon dan berdoa kepada Allah, Maha Suci Engkau, \u201cYa Tuhanku, aku berdosa karena meminta sesuatu kepada Engkau yang di luar batas kemampuanku menerimanya, karena itu aku bertaubat kepada Engkau dan tidak akan mengulangi kesalahan seperti yang telah lalu itu, dan aku termasuk orang-orang yang pertama beriman kepada-Mu.\u201d\nMujahid berkata, \u201cTubtu ilaika\u201d (Aku bertaubat kepada Engkau), maksudnya ialah: Aku bertaubat kepada Engkau, karena aku telah memohon kepada Engkau agar dapat melihat zat Engkau, \u201cwa ana awwalul mu\u2019minin\u201d, (Aku orang yang pertama beriman kepada Engkau) maksudnya aku adalah orang Bani Israil yang pertama beriman kepada Engkau. Sedang dalam suatu riwayat yang lain dari Ibnu \u2018Abbas, ialah orang yang pertama-tama beriman dan tidak seorang pun yang dapat melihat Engkau (di dunia).",
        "intro_surah": "Surah 7 al-A\u2018r\u0101f yang berjumlah 206 ayat termasuk golongan surah Makkiyah (kecuali ayat 163-167 Madaniyah), diturunkan sebelum turunnya Surah al-An\u2018\u0101m yang termasuk golongan Surah as-sab\u2019 a\u1e6d-\u1e6diw\u0101l (tujuh surah yang panjang). Dinamakan al-A\u2018r\u0101f karena terdapat dalam surah ini yaitu dalam ayat 46 yang mengemukakan tentang keadaan orang-orang yang berada di tempat yang tertinggi antara surga dan neraka.\nPOKOK-POKOK ISINYA: \n1.    Keimanan: \nMengesakan (tauhid) Allah baik dalam berdoa maupun ketika beribadah hanya Allah sendiri yang mengatur dan menjaga alam, menciptakan undang-undang dan hukum-hukum, mengatur kehidupan manusia di dunia dan di akhirat; Allah bersemayam di atas \u2018Arsy; bantahan terhadap kebenaran syirik; ketauhidan adalah sesuai dengan fitrah manusia; Musa berbicara dengan Allah; tentang melihat Allah; perintah beribadah sambil merendahkan diri kepada Allah; dan al-asm\u2019ul \u1e25usn\u0101.\n2.\tHukum: \nLarangan mengikuti perbuatan dan adat istiadat yang buruk; kewajiban mengikuti Allah dan Rasul, perintah memakai pakaian yang baik waktu salat; bantahan terhadap orang yang mengharamkan perhiasan yang dikaruniakan Allah; perintah makan makanan yang halal dan baik dan larangan makan yang sebaliknya.\n3.\tKisah-kisah: \nKisah Nabi Adam dengan Iblis; kisah Nabi Nuh dan kaumnya; kisah Nabi Saleh dengan kaumnya; kisah Nabi Syu\u2019aib dengan kaumnya; kisah Nabi Musa dengan Fir\u2018aun.\n4.\tLain-lain: \nAl-Qur\u2032an diturunkan kepada Nabi yang terakhir berisi perintah untuk mengikuti petunjuknya; Nabi Muhammad saw, diutus kepada semua umat manusia; adab-adab orang mukmin; adab mendengarkan Al-Qur\u2032an ketika dibaca dan berzikir; Rasul bertanggung jawab menyampaikan seruan Allah; balasan terhadap orang yang mengikuti Rasul; Dakwah Rasul yang utama dan pertama kali ialah mengesakan Allah; tentang a\u1e63\u1e25\u0101bul a\u2019r\u0101f yang berada antara surga dengan neraka; Allah pencipta manusia, makhluk yang terbaik yang punya potensi untuk menjadi baik atau buruk; permusuhan setan terhadap anak cucu Adam; manusia khalifah Allah di bumi; kehancuran suatu kaum adalah karena perbuatan mereka sendiri; tiap-tiap bangsa mempunyai masa jaya dan masa kehancuran; Allah menguji manusia dengan kekayaan dan kemiskinan; Allah menarik orang-orang yang mendustakan ayat-ayat-Nya dengan berangsur-angsur ke arah kebinasaan.",
        "outro_surah": null,
        "munasabah_prev_surah": "HUBUNGAN SURAH AL-An\u2018\u0101m \nDENGAN SURAH AL-A\u2019R\u0100F\nHubungan Surah al-An\u2018\u0101m dengan Surah al-A\u2018r\u0101f adalah sebagai berikut: \n1.\tKedua surah tersebut termasuk di antara tujuh surah yang panjang (as-sab\u2019 a\u1e6d-\u1e6diw\u0101l), keduanya sama-sama membicarakan pokok akidah agama. Dalam Surah al-An\u2018\u0101m dikemukakan garis-garis besar akidah-akidah itu, sedangkan Surah al-A\u2018r\u0101f menjelaskannya.\n2.\tDalam Surah al-An\u2018\u0101m diterangkan asal usul kejadian manusia, dari tanah serta menjelaskan tentang beberapa generasi manusia yang telah dibinasakan Allah, kemudian disinggung pula tentang para Rasul dengan menyebut beberapa nama mereka dan kisahnya secara garis besarnya, sedang Surah al-A\u2018r\u0101f menjelaskannya.\n3.\tPada bagian terakhir Surah al-An\u2018\u0101m, dinyatakan bahwa Allah menjadikan manusia khalifah di bumi serta mengangkat derajat sebagian mereka, maka pada permulaan Surah al-A\u2018r\u0101f dikemukakan tentang penciptaan Adam dan anak cucunya kemudian dijadikan-Nya khalifah di bumi, begitu juga anak cucunya.\n4.\tMengenai hubungan bagian akhir Surah al-An\u2018\u0101m dengan bagian permulaan Surah sl-Ar\u2019\u0101f adalah sebagai berikut: \na.\tBagian akhir Surah al-An\u2018\u0101m menjelaskan bahwa Al-Qur\u2032an adalah kitab pedoman yang benar ke jalan yang lurus dan diberkahi, maka umat manusia diperintahkan mengikutinya. Pada bagian permulaan Surah al-A\u2018r\u0101f perintah itu diulang dan dikemukakan pula larangan mengikuti selainnya.\nb.\tPada bagian akhir Surah al-An\u2018\u0101m dijelaskan, bahwa Allah akan memberikan keterangan tentang apa yang seharusnya dilakukan manusia dan menjadi perselisihan mereka. Maka pada bagian permulaan Surah al-A\u2018r\u0101f, dijelaskan apa yang dimaksud dengan \u201cAllah memberi keterangan\u201d yaitu para rasul yang diutus bertugas memberi keterangan dan mereka masing-masing akan dimintai pertanggungjawaban.\nc.\tPada bagian akhir Surah al-An\u2018\u0101m, dinyatakan bahwa orang yang berbuat kebajikan akan diganjar sepuluh kali lipat dan yang berbuat kejahatan akan dibalas seimbang dengan perbuatannya. Untuk menentukan kadar kebajikan dan kejahatan itu ada timbangannya. Maka di bagian muka Surah al-A\u2018r\u0101f, dikemukakan bahwa timbangan pada hari itu ialah kebenaran dan keadilan. Siapa yang berat timbangannya dialah orang yang beruntung dan siapa yang ringan timbangannya dialah yang merugi. Kemudian diceritakan keadaan nasib a\u1e63h\u0101bul a\u2019r\u0101f.",
        "munasabah_prev_theme": "Pada ayat-ayat yang lalu Allah swt menerangkan tentang nikmat-nikmat yang telah dilimpahkan-Nya kepada Bani Israil, yaitu lepasnya mereka dari perbudakan Fir\u2018aun, sehingga mereka menjadi umat yang telah mempunyai kesanggupan untuk melaksanakan perintah-perintah Allah dan menjauhi larangan-Nya. Pada ayat ini diterangkan turunnya wahyu Allah kepada Nabi Musa yang mengandung hukum-hukum ibadah dan muamalat yang berupa Kitab Taurat, sedang wahyu yang pertama kali diturunkan kepada Nabi Musa ialah waktu beliau hendak kembali ke Mesir dari Madyan bersama keluarganya. Wahyu pertama ini belum lagi memuat hukum-hukum, karena waktu itu Bani Israil masih di bawah perbudakan Fir\u2018aun yang harus melaksanakan semua kehendak Fir\u2018aun, sehingga mereka tidak mungkin melaksanakan hukum-hukum lain selain hukum-hukum Fir\u2018aun. Setelah Bani Israil merdeka dan lepas dari perbudakan Fir\u2018aun barulah diturunkan Kitab Taurat yang mengandung hukum-hukum sebagai pedoman hidup mereka. ",
        "theme_group": "MUSA AS  MENERIMA TAURAT",
        "kosakata": " Kosakata: Tajalla \u062a\u064e\u062c\u064e\u0644\u0651\u064e\u0649  (al-A\u2018r\u0101f/7: 143)\nDalam kaidah bahasa susunan kata ini termasuk kata kerja masa lampau, makna harfiah, \u201ctampak,\u201d yang pengertiannya menampakkan cahaya keagungan  Allah.",
        "sabab_nuzul": null,
        "conclusion": null
    }
}