{
    "id": 1108,
    "surah_id": 7,
    "ayah": 154,
    "page": 169,
    "quarter_hizb": 17.5,
    "juz": 9,
    "manzil": 2,
    "arabic": "\u0648\u064e\u0644\u064e\u0645\u0651\u064e\u0627 \u0633\u064e\u0643\u064e\u062a\u064e \u0639\u064e\u0646\u0652 \u0645\u0651\u064f\u0648\u0652\u0633\u064e\u0649 \u0627\u0644\u0652\u063a\u064e\u0636\u064e\u0628\u064f \u0627\u064e\u062e\u064e\u0630\u064e \u0627\u0644\u0652\u0627\u064e\u0644\u0652\u0648\u064e\u0627\u062d\u064e\u06d6 \u0648\u064e\u0641\u0650\u064a\u0652 \u0646\u064f\u0633\u0652\u062e\u064e\u062a\u0650\u0647\u064e\u0627 \u0647\u064f\u062f\u064b\u0649 \u0648\u0651\u064e\u0631\u064e\u062d\u0652\u0645\u064e\u0629\u064c \u0644\u0651\u0650\u0644\u0651\u064e\u0630\u0650\u064a\u0652\u0646\u064e \u0647\u064f\u0645\u0652 \u0644\u0650\u0631\u064e\u0628\u0651\u0650\u0647\u0650\u0645\u0652 \u064a\u064e\u0631\u0652\u0647\u064e\u0628\u064f\u0648\u0652\u0646\u064e",
    "latin": "Wa lamm\u0101 sakata \u2018am m\u016bsal-ga\u1e0dabu akha\u017cal-alw\u0101\u1e25(a), wa f\u012b nuskhatih\u0101 hudaw wa ra\u1e25matul lil-la\u017c\u012bna hum lirabbihim yarhab\u016bn(a).",
    "translation": "Setelah amarah Musa mereda, dia mengambil (kembali) lauh-lauh (Taurat) itu. Di dalam tulisannya terdapat petunjuk dan rahmat bagi orang-orang yang takut kepada Tuhannya.",
    "no_footnote": null,
    "footnotes": null,
    "surah": {
        "id": 7,
        "arabic": " \u0627\u0644\u0627\u0639\u0631\u0627\u0641",
        "latin": "Al-A\u2018r\u0101f",
        "transliteration": "Al-A\u2018raf",
        "translation": "Tempat Tertinggi",
        "num_ayah": 206,
        "page": 151,
        "location": "Makkiyah"
    },
    "tafsir": {
        "wajiz": "Setelah menjelaskan sikap masing-masing dan perlakuan Allah terhadap mereka, kisah penyembahan anak sapi diakhiri dengan firman-Nya, \u201cDan setelah amarah Nabi Musa mereda, dia mengambil kembali lauh-lauh Taurat yang tadi dilemparkannya ke tanah itu; dan di dalam tulisannya terdapat petunjuk menuju jalan kebahagiaan dan rahmat bagi orang-orang yang selalu takut kepada Tuhannya.\u201d",
        "tahlili": "Setelah Musa tenang kembali dan hilang amarahnya, akibat salah sangka kepada saudaranya Harun, dan setelah memohon rahmat dan ampunan dari Tuhannya, maka ia mengumpulkan kembali lauh-lauh yang dilemparkannya itu, dan dari padanya disalin Taurat yang mengandung petunjuk dan rahmat bagi kaumnya.",
        "intro_surah": "Surah 7 al-A\u2018r\u0101f yang berjumlah 206 ayat termasuk golongan surah Makkiyah (kecuali ayat 163-167 Madaniyah), diturunkan sebelum turunnya Surah al-An\u2018\u0101m yang termasuk golongan Surah as-sab\u2019 a\u1e6d-\u1e6diw\u0101l (tujuh surah yang panjang). Dinamakan al-A\u2018r\u0101f karena terdapat dalam surah ini yaitu dalam ayat 46 yang mengemukakan tentang keadaan orang-orang yang berada di tempat yang tertinggi antara surga dan neraka.\nPOKOK-POKOK ISINYA: \n1.    Keimanan: \nMengesakan (tauhid) Allah baik dalam berdoa maupun ketika beribadah hanya Allah sendiri yang mengatur dan menjaga alam, menciptakan undang-undang dan hukum-hukum, mengatur kehidupan manusia di dunia dan di akhirat; Allah bersemayam di atas \u2018Arsy; bantahan terhadap kebenaran syirik; ketauhidan adalah sesuai dengan fitrah manusia; Musa berbicara dengan Allah; tentang melihat Allah; perintah beribadah sambil merendahkan diri kepada Allah; dan al-asm\u2019ul \u1e25usn\u0101.\n2.\tHukum: \nLarangan mengikuti perbuatan dan adat istiadat yang buruk; kewajiban mengikuti Allah dan Rasul, perintah memakai pakaian yang baik waktu salat; bantahan terhadap orang yang mengharamkan perhiasan yang dikaruniakan Allah; perintah makan makanan yang halal dan baik dan larangan makan yang sebaliknya.\n3.\tKisah-kisah: \nKisah Nabi Adam dengan Iblis; kisah Nabi Nuh dan kaumnya; kisah Nabi Saleh dengan kaumnya; kisah Nabi Syu\u2019aib dengan kaumnya; kisah Nabi Musa dengan Fir\u2018aun.\n4.\tLain-lain: \nAl-Qur\u2032an diturunkan kepada Nabi yang terakhir berisi perintah untuk mengikuti petunjuknya; Nabi Muhammad saw, diutus kepada semua umat manusia; adab-adab orang mukmin; adab mendengarkan Al-Qur\u2032an ketika dibaca dan berzikir; Rasul bertanggung jawab menyampaikan seruan Allah; balasan terhadap orang yang mengikuti Rasul; Dakwah Rasul yang utama dan pertama kali ialah mengesakan Allah; tentang a\u1e63\u1e25\u0101bul a\u2019r\u0101f yang berada antara surga dengan neraka; Allah pencipta manusia, makhluk yang terbaik yang punya potensi untuk menjadi baik atau buruk; permusuhan setan terhadap anak cucu Adam; manusia khalifah Allah di bumi; kehancuran suatu kaum adalah karena perbuatan mereka sendiri; tiap-tiap bangsa mempunyai masa jaya dan masa kehancuran; Allah menguji manusia dengan kekayaan dan kemiskinan; Allah menarik orang-orang yang mendustakan ayat-ayat-Nya dengan berangsur-angsur ke arah kebinasaan.",
        "outro_surah": null,
        "munasabah_prev_surah": "HUBUNGAN SURAH AL-An\u2018\u0101m \nDENGAN SURAH AL-A\u2019R\u0100F\nHubungan Surah al-An\u2018\u0101m dengan Surah al-A\u2018r\u0101f adalah sebagai berikut: \n1.\tKedua surah tersebut termasuk di antara tujuh surah yang panjang (as-sab\u2019 a\u1e6d-\u1e6diw\u0101l), keduanya sama-sama membicarakan pokok akidah agama. Dalam Surah al-An\u2018\u0101m dikemukakan garis-garis besar akidah-akidah itu, sedangkan Surah al-A\u2018r\u0101f menjelaskannya.\n2.\tDalam Surah al-An\u2018\u0101m diterangkan asal usul kejadian manusia, dari tanah serta menjelaskan tentang beberapa generasi manusia yang telah dibinasakan Allah, kemudian disinggung pula tentang para Rasul dengan menyebut beberapa nama mereka dan kisahnya secara garis besarnya, sedang Surah al-A\u2018r\u0101f menjelaskannya.\n3.\tPada bagian terakhir Surah al-An\u2018\u0101m, dinyatakan bahwa Allah menjadikan manusia khalifah di bumi serta mengangkat derajat sebagian mereka, maka pada permulaan Surah al-A\u2018r\u0101f dikemukakan tentang penciptaan Adam dan anak cucunya kemudian dijadikan-Nya khalifah di bumi, begitu juga anak cucunya.\n4.\tMengenai hubungan bagian akhir Surah al-An\u2018\u0101m dengan bagian permulaan Surah sl-Ar\u2019\u0101f adalah sebagai berikut: \na.\tBagian akhir Surah al-An\u2018\u0101m menjelaskan bahwa Al-Qur\u2032an adalah kitab pedoman yang benar ke jalan yang lurus dan diberkahi, maka umat manusia diperintahkan mengikutinya. Pada bagian permulaan Surah al-A\u2018r\u0101f perintah itu diulang dan dikemukakan pula larangan mengikuti selainnya.\nb.\tPada bagian akhir Surah al-An\u2018\u0101m dijelaskan, bahwa Allah akan memberikan keterangan tentang apa yang seharusnya dilakukan manusia dan menjadi perselisihan mereka. Maka pada bagian permulaan Surah al-A\u2018r\u0101f, dijelaskan apa yang dimaksud dengan \u201cAllah memberi keterangan\u201d yaitu para rasul yang diutus bertugas memberi keterangan dan mereka masing-masing akan dimintai pertanggungjawaban.\nc.\tPada bagian akhir Surah al-An\u2018\u0101m, dinyatakan bahwa orang yang berbuat kebajikan akan diganjar sepuluh kali lipat dan yang berbuat kejahatan akan dibalas seimbang dengan perbuatannya. Untuk menentukan kadar kebajikan dan kejahatan itu ada timbangannya. Maka di bagian muka Surah al-A\u2018r\u0101f, dikemukakan bahwa timbangan pada hari itu ialah kebenaran dan keadilan. Siapa yang berat timbangannya dialah orang yang beruntung dan siapa yang ringan timbangannya dialah yang merugi. Kemudian diceritakan keadaan nasib a\u1e63h\u0101bul a\u2019r\u0101f.",
        "munasabah_prev_theme": "Pada ayat-ayat terdahulu telah diterangkan tentang kesedihan dan kemarahan Nabi Musa terhadap Nabi Harun Kemudian ia menyesali dirinya dan berdoa kepada Tuhan agar diampuni atas perbuatannya yang kurang baik itu. Pada ayat ini diterangkan akibat yang akan diterima oleh para penyembah patung anak sapi itu dan ampunan bagi mereka yang benar-benar bertobat kepada Allah. Dan Musa pun mengumpulkan kembali lauh-lauh yang telah dilemparkannya oleh sebab kemarahannya melihat perbuatan kaumnya menyembah anak sapi.",
        "theme_group": "AMPUNAN ALLAH  BAGI BANI ISRAIL\nYANG BERTOBAT",
        "kosakata": "Kosakata: \u2018ijl  \u0639\u0650\u062c\u0652\u0644\u064e (al-A\u2018r\u0101f/7: 152)\n \u2018Ijl,  kata benda tunggal, jamak \u2018uj\u016bl, \u2018ijalah \u0639\u064f\u062c\u064f\u0648\u0652\u0644 \u0639\u0650\u062c\u064e\u0644\u064e\u0629 anak sapi. Dalam ayat ini seperti dalam ayat-ayat yang lain anak sapi yang disebutkan, anak sapi sembahan yang terbuat dari emas.  Masyarakat  Israil yang sebelum itu tinggal di Mesir, mereka hidup dalam kebodohan, mereka samasekali tidak mengenal arti tauhid dan keimanan. Yang mereka kenal hanya orang Mesir yang  sangat mendewakan Apis, anak sapi yang menjadi sembahan masyarakat Mesir. Ketika Bani Israel  sudah keluar dari Mesir pengaruh ini sangat dalam pada mereka. Sementara Musa pergi ke Gunung Horeb (Sinai) untuk memenuhi janjinya dengan Tuhan, ada orang yang pandai dan lihai, yang oleh Al-Qur\u2019an disebut Samiri memanfaatkan kesempatan itu dengan membuat anak sapi dari emas yang dapat bersuara seperti suara sapi (melenguh) untuk menjadi sembahan mereka (al-A\u2018r\u0101f/7: 148, 20: 85-97). Bibel (Keluaran bab 32) menyebutkan bahwa anak sapi itu dibuat oleh Harun, padahal sebelum itu Harun telah mengatakan kepada kaumnya  bahwa yang patut disembah hanya Tuhan Yang Maha Esa (20: 90).",
        "sabab_nuzul": null,
        "conclusion": "1. \tAllah mengingatkan mereka yang menyembah patung anak sapi itu dengan azab yang berupa kehinaan di dunia, serta azab yang pedih di akhirat.\n2. \tAllah akan menerima tobat hamba-hamba-Nya yang telah melakukan kejahatan, asal mereka bertobat dengan sungguh-sungguh, dan melaksanakan syarat-syarat tobat yang diterima Allah.\n3. \tSetelah Musa hilang amarahnya ia pun mengumpulkan lauh-lauh yang dilemparkan karena kemarahannya itu."
    }
}