{
    "id": 1092,
    "surah_id": 7,
    "ayah": 138,
    "page": 167,
    "quarter_hizb": 17.25,
    "juz": 9,
    "manzil": 2,
    "arabic": "\u0648\u064e\u062c\u064e\u0627\u0648\u064e\u0632\u0652\u0646\u064e\u0627 \u0628\u0650\u0628\u064e\u0646\u0650\u064a\u0652\u0653 \u0627\u0650\u0633\u0652\u0631\u064e\u0627\u06e4\u0621\u0650\u064a\u0652\u0644\u064e \u0627\u0644\u0652\u0628\u064e\u062d\u0652\u0631\u064e \u0641\u064e\u0627\u064e\u062a\u064e\u0648\u0652\u0627 \u0639\u064e\u0644\u0670\u0649 \u0642\u064e\u0648\u0652\u0645\u064d \u064a\u0651\u064e\u0639\u0652\u0643\u064f\u0641\u064f\u0648\u0652\u0646\u064e \u0639\u064e\u0644\u0670\u0653\u0649 \u0627\u064e\u0635\u0652\u0646\u064e\u0627\u0645\u064d \u0644\u0651\u064e\u0647\u064f\u0645\u0652 \u06da\u0642\u064e\u0627\u0644\u064f\u0648\u0652\u0627 \u064a\u0670\u0645\u064f\u0648\u0652\u0633\u064e\u0649 \u0627\u062c\u0652\u0639\u064e\u0644\u0652 \u0644\u0651\u064e\u0646\u064e\u0627\u0653 \u0627\u0650\u0644\u0670\u0647\u064b\u0627 \u0643\u064e\u0645\u064e\u0627 \u0644\u064e\u0647\u064f\u0645\u0652 \u0627\u0670\u0644\u0650\u0647\u064e\u0629\u064c  \u06d7\u0642\u064e\u0627\u0644\u064e \u0627\u0650\u0646\u0651\u064e\u0643\u064f\u0645\u0652 \u0642\u064e\u0648\u0652\u0645\u064c \u062a\u064e\u062c\u0652\u0647\u064e\u0644\u064f\u0648\u0652\u0646\u064e",
    "latin": "Wa j\u0101wazn\u0101 biban\u012b isr\u0101'\u012blal-ba\u1e25ra fa atau \u2018al\u0101 qaumiy ya\u2018kuf\u016bna \u2018al\u0101 a\u1e63n\u0101mil lahum, q\u0101l\u016b y\u0101 m\u016bsaj\u2018al lan\u0101 il\u0101han kam\u0101 lahum \u0101lihah(tun), q\u0101la innakum qaumun tajhal\u016bn(a).",
    "translation": "Kami menyeberangkan Bani Israil (melintasi) laut itu (dengan selamat). Ketika mereka sampai kepada suatu kaum yang masih tetap menyembah berhala, mereka (Bani Israil) berkata, \u201cWahai Musa, buatlah untuk kami tuhan (berupa berhala) sebagaimana tuhan-tuhan mereka.\u201d (Musa) menjawab, \u201cSesungguhnya kamu adalah kaum yang bodoh.\u201d",
    "no_footnote": null,
    "footnotes": null,
    "surah": {
        "id": 7,
        "arabic": " \u0627\u0644\u0627\u0639\u0631\u0627\u0641",
        "latin": "Al-A\u2018r\u0101f",
        "transliteration": "Al-A\u2018raf",
        "translation": "Tempat Tertinggi",
        "num_ayah": 206,
        "page": 151,
        "location": "Makkiyah"
    },
    "tafsir": {
        "wajiz": "Dan setelah Kami menyelamatkan mereka dan menenggelamkan Fir'aun, Kami selamatkan Bani Israil menyeberangi laut itu, yaitu bagian utara dari Laut Merah. Ketika mereka sampai kepada suatu kaum yang tekun menyembah berhala, muncul keinginan untuk melakukan kebiasaan lama mereka, kebiasaan menyembah berhala yang dilakukan di Mesir. Mereka lalu meminta Nabi Musa untuk membuatkan patung berhala untuk disembah, seperti yang dilakukan oleh kaum yang mereka lihat itu. Mereka Bani Israil berkata, \u201cWahai Musa! Buatlah untuk kami sebuah tuhan berhala untuk kami sembah sebagaimana mereka mempunyai beberapa tuhan berhala.\u201d Nabi Musa berusaha mencegah keinginan mereka dan dengan nada mencela, dia menjawab, \u201cSungguh, kamu orang-orang yang bodoh, tidak memahami keagungan Allah dan tidak mengetahui bahwa yang patut disembah hanyalah Tuhan Yang Maha Esa.\u201d",
        "tahlili": "Ayat ini menerangkan bahwa dengan inayah (pertolongan) dan kekuasaan Allah, Bani Israil telah diselamatkan sampai ke seberang Laut Qulzum (laut merah) sehingga mereka terlepas dari penindasan Fir\u2018aun dan kaumnya. Dari ayat ini dipahami, bahwa Musa dan Bani Israil dengan mudah mengarungi laut merah karena pertolongan Allah, bukan karena hal-hal yang lain seperti karena air laut waktu sedang surut dan sebagainya. Peristiwa ini merupakan mukjizat bagi Nabi Musa.\nPada ayat yang lain diterangkan bahwa setelah penindasan Fir\u2018aun dan kaumnya kepada Bani Israil mencapai puncaknya, maka Allah memerintahkan Musa pergi pada suatu malam meninggalkan Mesir dengan membawa Bani Israil untuk melepaskan diri dari penindasan Fir\u2018aun. Maka Musa pun melaksanakan semua perintah Tuhan. Setelah mendengar kepergian Musa dan kaumnya, Fir\u2018aun pun marah, dan dalam waktu yang singkat bala tentaranya dikumpulkan dan langsung mengejar Musa dan Bani Israil malam itu juga. Pada pagi harinya, di kala matahari mulai memancarkan sinarnya, Fir\u2018aun pun dapat menyusul dari belakang, kedua belah pihak telah saling melihat, sedang Musa dan Bani Israil waktu itu sudah berada di pinggir laut. Mereka dihadapkan pada situasi yang sulit jika terus lari terhalang oleh laut, akan kembali, pedang musuh telah terhunus menanti. Pada saat itulah Allah memperlihatkan kekuasaan-Nya dengan memerintahkan Musa agar memukulkan tongkatnya ke laut. Musa pun memukulkannya, air laut pun terbelah, dan di antara belahan air itu terdapat jalan membentang sampai ke seberang. Maka Musa dan Bani Israil segera melaluinya, dan dari belakang Fir\u2018aun dan bala tentaranya terus mengikuti mereka. Akhirnya Musa dan Bani Israil selamat sampai di seberang, sedangkan Fir\u2018aun dan bala tentaranya yang mencoba meniti jalan yang dilalui Musa dan kaumnya disergap air laut yang tiba-tiba kembali bersatu, jalan yang membentangpun lenyap, sehingga Fir\u2018aun dan kaumnya mati tenggelam ke dasar laut.\nPeristiwa tenggelamnya Fir\u2018aun dan tentaranya ini, diterangkan pula oleh ayat-ayat yang lain. Allah berfirman:\n\u0648\u064e\u0644\u064e\u0642\u064e\u062f\u0652 \u0627\u064e\u0648\u0652\u062d\u064e\u064a\u0652\u0646\u064e\u0627\u0653 \u0627\u0650\u0644\u0670\u0649 \u0645\u064f\u0648\u0652\u0633\u0670\u0653\u0649 \u0627\u064e\u0646\u0652 \u0627\u064e\u0633\u0652\u0631\u0650 \u0628\u0650\u0639\u0650\u0628\u064e\u0627\u062f\u0650\u064a\u0652 \u0641\u064e\u0627\u0636\u0652\u0631\u0650\u0628\u0652 \u0644\u064e\u0647\u064f\u0645\u0652 \u0637\u064e\u0631\u0650\u064a\u0652\u0642\u064b\u0627 \u0641\u0650\u0649 \u0627\u0644\u0652\u0628\u064e\u062d\u0652\u0631\u0650 \u064a\u064e\u0628\u064e\u0633\u064b\u0627\u06d9 \u0644\u0651\u064e\u0627 \u062a\u064e\u062e\u0670\u0641\u064f \u062f\u064e\u0631\u064e\u0643\u064b\u0627 \u0648\u0651\u064e\u0644\u064e\u0627 \u062a\u064e\u062e\u0652\u0634\u0670\u0649 \u0667\u0667 \u0641\u064e\u0627\u064e\u062a\u0652\u0628\u064e\u0639\u064e\u0647\u064f\u0645\u0652 \u0641\u0650\u0631\u0652\u0639\u064e\u0648\u0652\u0646\u064f \u0628\u0650\u062c\u064f\u0646\u064f\u0648\u0652\u062f\u0650\u0647\u0656 \u0641\u064e\u063a\u064e\u0634\u0650\u064a\u064e\u0647\u064f\u0645\u0652 \u0645\u0651\u0650\u0646\u064e \u0627\u0644\u0652\u064a\u064e\u0645\u0651\u0650 \u0645\u064e\u0627 \u063a\u064e\u0634\u0650\u064a\u064e\u0647\u064f\u0645\u0652 \u06d7 \u0667\u0668\n\u201cDan sungguh, telah Kami wahyukan kepada Musa, \u201cPergilah bersama hamba-hamba-Ku (Bani Israil) pada malam hari, dan pukullah  (buatlah) untuk mereka jalan yang kering di laut itu, (engkau) tidak perlu takut akan tersusul dan tidak perlu khawatir (akan tenggelam).\u201d  Kemudian  Fir\u2018aun dengan bala tentaranya mengejar mereka, tetapi mereka digulung ombak  laut yang menenggelamkan mereka.\u201d (T\u0101h\u0101/20: 77-78).\nKisah tenggelamnya Fir\u2018aun dan bala tentaranya di laut Qulzum disebutkan pula dalam Perjanjian Lama, Kitab Keluaran XIV: 15-31.\nSetelah Musa dan Bani Israil selamat sampai ke seberang laut Qulzum, yaitu daerah sekitar tanah Arab yang terletak di ujung benua Asia di bagian Barat Daya, mereka pun meneruskan perjalanannya. Maka sampailah mereka ke suatu negeri yang penduduknya taat menyembah berhala. Melihat keadaan yang demikian, ingatan mereka kembali kepada adat kebiasaan dan kepercayaan nenek-moyang mereka, yang biasa mereka kerjakan bersama-sama dengan Fir\u2018aun, seperti menyembah sembahan selain Allah, baik yang berupa binatang, patung, batu, dan sebagainya. Karena itu dengan spontan mereka meminta kepada Nabi Musa, \u201cHai Musa, buatkanlah untuk kami sebuah berhala, sebagaimana mereka mempunyai beberapa tuhan ........\u201d.\nDari permintaan Bani Israil kepada Musa a.s, ini dipahami bahwa sekalipun Musa a.s, telah menyampaikan risalahnya dengan sebaik mungkin kepada Bani Israil, namun Bani Israil belum memahami dan menghayati betul agama tauhid yang disampaikan Musa. Adat istiadat dan kepercayaan nenek-moyang mereka, seperti menyembah berhala, masih sangat besar pengaruhnya pada diri mereka, sehingga kepercayaan tauhid yang baru ditanamkan Musa dengan mudah dapat digoyahkan.\nTelah diketahui bahwa orang-orang Bani Israil di zaman Fir\u2018aun termasuk golongan yang rendah dan kurang pengetahuannya. Hampir tidak ada cerdik-cendekiawan berasal dari mereka, semua cendekiawan berasal dari penduduk Mesir asli, turunan bangsawan. Kebanyakan Bani Israil pada waktu itu hidup sebagai rakyat biasa, pekerja-pekerja kasar, bahkan banyak hidup sebagai budak yang dipaksa membangun piramida dan kuburan raja-raja.\nKarena keadaan mereka yang demikian, timbul sifat apatis di antara mereka, tidak ada cita-cita untuk membebaskan diri dari perbudakan Fir\u2018aun, tidak ada keinginan yang kuat untuk merdeka. Tidak ada sikap yang tegas dan cita-cita yang kuat itu pada diri mereka, hal ini terlihat pada reaksi, tindak-tanduk dan sikap mereka dalam menerima ajakan Musa, sedikit saja halangan dan kesulitan yang mereka hadapi, dengan spontan mereka menyatakan rasa putus asa kepada Musa, bahkan menyatakan lebih suka hidup diperbudak dan penindasan Fir\u2018aun. \nSikap Bani Israil terhadap ajakan Musa a.s, untuk hidup sebagai bangsa yang merdeka tidak berbeda dengan sikap mereka terhadap ajakan Musa a.s, untuk mengikuti agama yang benar. Sekalipun Nabi Musa telah menerangkan dengan baik dan jelas agama tersebut, sehingga mereka memahami dan mengikutinya, namun begitu mereka melihat patung-patung, orang yang menyembah berhala, orang yang memuja dewa-dewa dan segala macam bentuk kemusyrikan, ingatan mereka kembali kepada kepercayaan mereka terdahulu, karena itu mereka dengan spontan meminta kepada Musa, agar dibuatkan berhala untuk sembahan mereka. Mereka lebih merasa mantap menyembah sesuatu yang dapat dilihat dan diraba, dihiasi dan sebagainya daripada menyembah sesuatu yang gaib, tidak nampak oleh mata dan tidak dapat diraba dengan tangan.\nBerbeda dengan pesihir yang beriman kepada Musa, setelah kepandaian ilmu sihirnya dikalahkan oleh mukjizat Musa. Mereka termasuk orang-orang yang mempunyai ilmu pengetahuan dan cerdik-cendekiawan pada waktu itu. Karena itu mereka bisa membedakan sesuatu yang salah dengan yang benar dengan pengetahuan mereka itu, sehingga dapat mengetahui mana tanda-tanda kekuasaan Allah dan mana yang bukan, mana yang dapat dicapai oleh panca indera dan mana yang tak dapat dicapai, dan sebagainya. Karena itu setelah mereka beriman kepada Allah dan Nabi Musa, mereka pun beriman dengan sepenuh hati, tidak dapat digoyahkan oleh keadaan apa pun dan oleh ancaman apa pun, termasuk ancaman Fir\u2018aun kepada mereka. Iman mereka telah mempunyai landasan yang kokoh, sehingga merupakan keyakinan yang kuat sebagai hasil dari pengetahuan, perasaan, pengalaman, dan apa yang ada pada mereka.\nBani Israil seperti yang diterangkan di atas adalah orang-orang yang tidak mengetahui sifat-sifat Tuhan, tidak mengetahui keharusan menyembah hanya kepada Allah semata dengan tidak menyekutukan-Nya dengan sesuatu pun tidak mengetahui akan keharusan beribadah langsung ditujukan kepada Allah tanpa mengambil perantara dengan sesuatu pun, seperti patung-patung, bangunan-bangunan, kuburan-kuburan, atau benda-benda yang lain yang mereka jadikan sebagai perantara dalam menyembah Allah. Mereka harus percaya bahwa hanya Allah Yang Maha Esa.\nJenis iman seperti iman Bani Israil yang disebabkan kebodohan dan pengaruh kepercayaan nenek-moyang itu, terdapat juga pada manusia umumnya, dan kaum Muslimin khususnya, serta dijumpai pula pada tiap-tiap periode dalam sejarah, sejak masa Nabi Muhammad sampai kepada zaman mutakhir ini, sebagaimana yang diisyaratkan hadis Nabi saw:\n\u0639\u064e\u0646\u0652 \u0623\u064e\u0628\u0650\u064a\u0652 \u0648\u064e\u0627\u0642\u0650\u062f\u064d \u0627\u064e\u0644\u0644\u0651\u064e\u064a\u0652\u062b\u0650\u064a\u0652 \u0642\u064e\u0627\u0644\u064e: \u062e\u064e\u0631\u064e\u062c\u0652\u0646\u064e\u0627 \u0645\u064e\u0639\u064e \u0631\u064e\u0633\u064f\u0648\u0652\u0644\u0650 \u0627\u0644\u0644\u0651\u0670\u0647\u0650 \u0635\u064e\u0644\u0651\u064e\u0649 \u0627\u0644\u0644\u0651\u0670\u0647\u064f \u0639\u064e\u0644\u064e\u064a\u0652\u0647\u0650 \u0648\u064e\u0633\u064e\u0644\u0651\u064e\u0645\u064e \u0642\u0650\u0628\u064e\u0644\u064e \u062d\u064f\u0646\u064e\u064a\u0652\u0646\u064d \u0641\u064e\u0645\u064e\u0631\u064e\u0631\u0652\u0646\u064e\u0627 \u0628\u0650\u0633\u0650\u062f\u0652\u0631\u064e\u0629\u064d \u0641\u064e\u0642\u064f\u0644\u0652\u062a\u064f: \u064a\u064e\u0627 \u0631\u064e\u0633\u064f\u0648\u0652\u0644\u064e \u0627\u0644\u0644\u0651\u0670\u0647\u0650 \u0627\u062c\u0652\u0639\u064e\u0644\u0652 \u0644\u064e\u0646\u064e\u0627 \u0647\u0670\u0630\u0650\u0647\u0650 \u0630\u064e\u0627\u062a\u064e \u0623\u064e\u0646\u0652\u0648\u064e\u0627\u0637\u064d \u0643\u064e\u0645\u064e\u0627 \u0644\u0650\u0644\u0652\u0643\u064f\u0641\u0651\u064e\u0627\u0631\u0650 \u0630\u064e\u0627\u062a\u064f \u0623\u064e\u0646\u0652\u0648\u064e\u0627\u0637\u064d. \u0641\u064e\u0642\u064e\u0627\u0644\u064e: \u1e0d\u0627\u064e\u0644\u0644\u0651\u0670\u0647\u064f \u0623\u064e\u0643\u0652\u0628\u064e\u0631\u064f\u00bb \u0647\u0670\u0630\u064e\u0627 \u0643\u064e\u0645\u064e\u0627 \u0642\u064e\u0627\u0644\u064e\u062a\u0652 \u0628\u064e\u0646\u064f\u0648\u0652\u0627 \u0625\u0650\u0633\u0652\u0631\u064e\u0627\u0626\u0650\u064a\u0652\u0644\u064e \u0644\u0650\u0645\u064f\u0648\u0652\u0633\u064e\u0649 \u1e0d\u0627\u0650\u062c\u0652\u0639\u064e\u0644\u0652 \u0644\u064e\u0646\u064e\u0627 \u0625\u0650\u0644\u0670\u0647\u064b\u0627 \u0643\u064e\u0645\u064e\u0627 \u0644\u064e\u0647\u064f\u0645\u0652 \u0627 \u0627\u0670\u0644\u0650\u0647\u064e\u0629\u064c\u00bb \u0625\u0650\u0646\u0651\u064e\u0643\u064f\u0645\u0652 \u062a\u064e\u0631\u0652\u0643\u064e\u0628\u064f\u0648\u0652\u0646\u064e \u0633\u064f\u0646\u064e\u0646\u064e \u0645\u064e\u0646\u0652 \u0642\u064e\u0628\u0652\u0644\u064e\u0643\u064f\u0645\u0652. )\u0631\u064e\u0648\u064e\u0627\u0647\u064f \u0623\u064e\u062d\u0652\u0645\u064e\u062f\u064f \u0648\u064e\u0627\u0644\u0646\u0651\u064e\u0633\u064e\u0627\u0626\u0650\u064a\u0652( \nAhmad dan An-Nasa\u2019i meriwayatkan dari Abi Waqid Al-Lai\u1e61y, ia berkata: \u201cKami keluar dari Medinah bersama Rasulullah saw menuju perang Hunain, maka kami melalui sebatang pohon sidrah, aku berkata: \u201cYa Rasulullah jadikanlah bagi kami pohon \u201c\u017b\u0101tu anw\u0101\u1e6d\u201d (pohon yang bisa menjadi gantungan) sebagaimana orang kafir mempunyai \u201c\u017b\u0101tu anw\u0101\u1e6d\u201d. Rasulullah menjawab: \u201c(Allah Maha Besar). Permintaanmu ini adalah seperti permintaan Bani Israil kepada Musa: (Jadikanlah bagi kami sebuah sembahan, sebagaimana mereka mempunyai sembahan), sesungguhnya kamu mengikuti kepercayaan orang sebelum kamu.\u201d (Riwayat Ahmad dan an-Nas\u0101\u2019i).\nKenyataan adanya kepercayaan itu diisyaratkan hadis di atas pada masa dahulu dan masa sekarang hendaknya merupakan peringatan bagi kaum Muslimin agar berusaha sekuat tenaga untuk memberi pengertian dan penerangan, sehingga seluruh kaum Muslimin mempunyai akidah dan kepercayaan sesuai dengan yang diajarkan agama Islam. Masih banyak di antara kaum Muslimin yang masih memuja kuburan, mempercayai adanya kekuatan gaib pada batu-batu, pohon-pohon, gua-gua, dan sebagainya. Karena itu mereka memuja dan menyembahnya dengan ketundukan dan kekhusyukan, yang kadang-kadang melebihi ketundukan dan kekhusyukan kepada Allah. Banyak juga di antara kaum Muslimin yang menggunakan perantara wa\u1e63ilah dalam beribadah, seakan-akan mereka tidak percaya bahwa Allah Maha dekat kepada hamba-Nya dan bahwa ibadah yang ditujukan kepada-Nya itu akan sampai tanpa perantara. Kepercayaan seperti ini tidak berbeda dengan kepercayaan syirik yang dianut oleh orang-orang Arab Jahiliyah dahulu, kemungkinan yang berbeda hanyalah namanya saja. Kepercayaan seperti ini bertentangan dengan ayat:\n\u0648\u064e\u0646\u064e\u062d\u0652\u0646\u064f \u0627\u064e\u0642\u0652\u0631\u064e\u0628\u064f \u0627\u0650\u0644\u064e\u064a\u0652\u0647\u0650 \u0645\u0650\u0646\u0652 \u062d\u064e\u0628\u0652\u0644\u0650 \u0627\u0644\u0652\u0648\u064e\u0631\u0650\u064a\u0652\u062f\u0650\n\u201c... dan Kami lebih dekat kepadanya daripada urat lehernya.\u201d (Q\u0101f/50:16)\n\tDan pengakuan Ibrahim as yang tersebut dalam firman-Nya:\n\u0627\u0650\u0646\u0651\u0650\u064a\u0652 \u0648\u064e\u062c\u0651\u064e\u0647\u0652\u062a\u064f \u0648\u064e\u062c\u0652\u0647\u0650\u064a\u064e \u0644\u0650\u0644\u0651\u064e\u0630\u0650\u064a\u0652 \u0641\u064e\u0637\u064e\u0631\u064e \u0627\u0644\u0633\u0651\u064e\u0645\u0670\u0648\u0670\u062a\u0650 \u0648\u064e\u0627\u0644\u0652\u0627\u064e\u0631\u0652\u0636\u064e \u062d\u064e\u0646\u0650\u064a\u0652\u0641\u064b\u0627 \u0648\u0651\u064e\u0645\u064e\u0627\u0653 \u0627\u064e\u0646\u064e\u0627\u06e0 \u0645\u0650\u0646\u064e \u0627\u0644\u0652\u0645\u064f\u0634\u0652\u0631\u0650\u0643\u0650\u064a\u0652\u0646\u064e\u06da \u0667\u0669\n\u201cAku hadapkan wajahku kepada (Allah) yang menciptakan langit dan bumi dengan penuh kepasrahan (mengikuti) agama yang benar, dan aku bukanlah termasuk orang-orang yang musrik.\u201d (al-An\u2019\u0101m/6: 79).\n\tBahkan Allah menegaskan dalam firman-Nya lagi:\n\u0648\u064e\u0627\u0650\u0630\u064e\u0627 \u0633\u064e\u0627\u064e\u0644\u064e\u0643\u064e \u0639\u0650\u0628\u064e\u0627\u062f\u0650\u064a\u0652 \u0639\u064e\u0646\u0651\u0650\u064a\u0652 \u0641\u064e\u0627\u0650\u0646\u0651\u0650\u064a\u0652 \u0642\u064e\u0631\u0650\u064a\u0652\u0628\u064c \u06d7 \u0627\u064f\u062c\u0650\u064a\u0652\u0628\u064f \u062f\u064e\u0639\u0652\u0648\u064e\u0629\u064e \u0627\u0644\u062f\u0651\u064e\u0627\u0639\u0650 \u0627\u0650\u0630\u064e\u0627 \u062f\u064e\u0639\u064e\u0627\u0646\u0650\u06d9 \u0641\u064e\u0644\u0652\u064a\u064e\u0633\u0652\u062a\u064e\u062c\u0650\u064a\u0652\u0628\u064f\u0648\u0652\u0627 \u0644\u0650\u064a\u0652 \u0648\u064e\u0644\u0652\u064a\u064f\u0624\u0652\u0645\u0650\u0646\u064f\u0648\u0652\u0627 \u0628\u0650\u064a\u0652 \u0644\u064e\u0639\u064e\u0644\u0651\u064e\u0647\u064f\u0645\u0652 \u064a\u064e\u0631\u0652\u0634\u064f\u062f\u064f\u0648\u0652\u0646\u064e \u0661\u0668\u0666\n\u201cDan apabila hamba-hamba-Ku bertanya kepadamu (Muhammad) tentang Aku, maka sesungguhnya Aku dekat. Aku kabulkan permohonan orang yang berdo\u2019a apabila dia berdo\u2019a kepada-Ku.  Hendaklah mereka itu memenuhi (perintah)-Ku dan beriman kepada-Ku, agar mereka memperoleh kebenaran.\u201d (al-Baqarah/2: 186).\nOrang yang menyembah suatu sembahan di samping Allah adalah orang yang memperbodoh dirinya sendiri, seperti firman Allah:\n\u0648\u064e\u0645\u064e\u0646\u0652 \u064a\u0651\u064e\u0631\u0652\u063a\u064e\u0628\u064f \u0639\u064e\u0646\u0652 \u0645\u0651\u0650\u0644\u0651\u064e\u0629\u0650 \u0627\u0650\u0628\u0652\u0631\u0670\u0647\u0656\u0645\u064e \u0627\u0650\u0644\u0651\u064e\u0627 \u0645\u064e\u0646\u0652 \u0633\u064e\u0641\u0650\u0647\u064e \u0646\u064e\u0641\u0652\u0633\u064e\u0647\u0657\nDan orang yang membenci agama Ibrahim, hanyalah orang yang memperbodoh dirinya sendiri... (al-Baqarah/2: 130).\nPermintaan Bani Israil itu dijawab oleh Nabi Musa: \u201cSesungguhnya kamu hai Bani Israil tidak mengetahui sifat-sifat Allah, apa yang wajib bagi-Nya dan apa yang mustahil bagi-Nya. Dia adalah Esa dan tidak ada sekutu bagi-Nya.\u201d\nAgama yang dibawa para rasul Allah sejak zaman dahulu sampai sekarang, yaitu agama yang dibawa oleh Nabi Muhammad saw, sebagai nabi dan rasul penutup adalah agama yang mengakui keesaan Allah dengan sebenar-benarnya, tidak ada di dalamnya unsur syirik sedikit pun juga. Hal ini adalah karena ibadah atau menyembah itu merupakan suatu perasaan yang timbul dari hati sanubari. Perasaan itu menimbulkan ketundukan hati dan jiwa kepada Yang Maha Agung, menumbuhkan keyakinan bahwa dia sajalah yang berhak disembah; sedangkan yang lain adalah makhluk ciptaan-Nya yang sama kedudukannya dengan ciptaan-Nya yang lain. Karena itu menyembah sembahan selain Allah akan merusak ketauhidan yang timbul dari perasaan yang ada dalam diri seorang, dan menunjukkan ketergantungan seseorang kepada sembahan, di samping tergantung kepada Allah. Karena itu Nabi Musa menolak dengan tegas permintaan kaumnya.",
        "intro_surah": "Surah 7 al-A\u2018r\u0101f yang berjumlah 206 ayat termasuk golongan surah Makkiyah (kecuali ayat 163-167 Madaniyah), diturunkan sebelum turunnya Surah al-An\u2018\u0101m yang termasuk golongan Surah as-sab\u2019 a\u1e6d-\u1e6diw\u0101l (tujuh surah yang panjang). Dinamakan al-A\u2018r\u0101f karena terdapat dalam surah ini yaitu dalam ayat 46 yang mengemukakan tentang keadaan orang-orang yang berada di tempat yang tertinggi antara surga dan neraka.\nPOKOK-POKOK ISINYA: \n1.    Keimanan: \nMengesakan (tauhid) Allah baik dalam berdoa maupun ketika beribadah hanya Allah sendiri yang mengatur dan menjaga alam, menciptakan undang-undang dan hukum-hukum, mengatur kehidupan manusia di dunia dan di akhirat; Allah bersemayam di atas \u2018Arsy; bantahan terhadap kebenaran syirik; ketauhidan adalah sesuai dengan fitrah manusia; Musa berbicara dengan Allah; tentang melihat Allah; perintah beribadah sambil merendahkan diri kepada Allah; dan al-asm\u2019ul \u1e25usn\u0101.\n2.\tHukum: \nLarangan mengikuti perbuatan dan adat istiadat yang buruk; kewajiban mengikuti Allah dan Rasul, perintah memakai pakaian yang baik waktu salat; bantahan terhadap orang yang mengharamkan perhiasan yang dikaruniakan Allah; perintah makan makanan yang halal dan baik dan larangan makan yang sebaliknya.\n3.\tKisah-kisah: \nKisah Nabi Adam dengan Iblis; kisah Nabi Nuh dan kaumnya; kisah Nabi Saleh dengan kaumnya; kisah Nabi Syu\u2019aib dengan kaumnya; kisah Nabi Musa dengan Fir\u2018aun.\n4.\tLain-lain: \nAl-Qur\u2032an diturunkan kepada Nabi yang terakhir berisi perintah untuk mengikuti petunjuknya; Nabi Muhammad saw, diutus kepada semua umat manusia; adab-adab orang mukmin; adab mendengarkan Al-Qur\u2032an ketika dibaca dan berzikir; Rasul bertanggung jawab menyampaikan seruan Allah; balasan terhadap orang yang mengikuti Rasul; Dakwah Rasul yang utama dan pertama kali ialah mengesakan Allah; tentang a\u1e63\u1e25\u0101bul a\u2019r\u0101f yang berada antara surga dengan neraka; Allah pencipta manusia, makhluk yang terbaik yang punya potensi untuk menjadi baik atau buruk; permusuhan setan terhadap anak cucu Adam; manusia khalifah Allah di bumi; kehancuran suatu kaum adalah karena perbuatan mereka sendiri; tiap-tiap bangsa mempunyai masa jaya dan masa kehancuran; Allah menguji manusia dengan kekayaan dan kemiskinan; Allah menarik orang-orang yang mendustakan ayat-ayat-Nya dengan berangsur-angsur ke arah kebinasaan.",
        "outro_surah": null,
        "munasabah_prev_surah": "HUBUNGAN SURAH AL-An\u2018\u0101m \nDENGAN SURAH AL-A\u2019R\u0100F\nHubungan Surah al-An\u2018\u0101m dengan Surah al-A\u2018r\u0101f adalah sebagai berikut: \n1.\tKedua surah tersebut termasuk di antara tujuh surah yang panjang (as-sab\u2019 a\u1e6d-\u1e6diw\u0101l), keduanya sama-sama membicarakan pokok akidah agama. Dalam Surah al-An\u2018\u0101m dikemukakan garis-garis besar akidah-akidah itu, sedangkan Surah al-A\u2018r\u0101f menjelaskannya.\n2.\tDalam Surah al-An\u2018\u0101m diterangkan asal usul kejadian manusia, dari tanah serta menjelaskan tentang beberapa generasi manusia yang telah dibinasakan Allah, kemudian disinggung pula tentang para Rasul dengan menyebut beberapa nama mereka dan kisahnya secara garis besarnya, sedang Surah al-A\u2018r\u0101f menjelaskannya.\n3.\tPada bagian terakhir Surah al-An\u2018\u0101m, dinyatakan bahwa Allah menjadikan manusia khalifah di bumi serta mengangkat derajat sebagian mereka, maka pada permulaan Surah al-A\u2018r\u0101f dikemukakan tentang penciptaan Adam dan anak cucunya kemudian dijadikan-Nya khalifah di bumi, begitu juga anak cucunya.\n4.\tMengenai hubungan bagian akhir Surah al-An\u2018\u0101m dengan bagian permulaan Surah sl-Ar\u2019\u0101f adalah sebagai berikut: \na.\tBagian akhir Surah al-An\u2018\u0101m menjelaskan bahwa Al-Qur\u2032an adalah kitab pedoman yang benar ke jalan yang lurus dan diberkahi, maka umat manusia diperintahkan mengikutinya. Pada bagian permulaan Surah al-A\u2018r\u0101f perintah itu diulang dan dikemukakan pula larangan mengikuti selainnya.\nb.\tPada bagian akhir Surah al-An\u2018\u0101m dijelaskan, bahwa Allah akan memberikan keterangan tentang apa yang seharusnya dilakukan manusia dan menjadi perselisihan mereka. Maka pada bagian permulaan Surah al-A\u2018r\u0101f, dijelaskan apa yang dimaksud dengan \u201cAllah memberi keterangan\u201d yaitu para rasul yang diutus bertugas memberi keterangan dan mereka masing-masing akan dimintai pertanggungjawaban.\nc.\tPada bagian akhir Surah al-An\u2018\u0101m, dinyatakan bahwa orang yang berbuat kebajikan akan diganjar sepuluh kali lipat dan yang berbuat kejahatan akan dibalas seimbang dengan perbuatannya. Untuk menentukan kadar kebajikan dan kejahatan itu ada timbangannya. Maka di bagian muka Surah al-A\u2018r\u0101f, dikemukakan bahwa timbangan pada hari itu ialah kebenaran dan keadilan. Siapa yang berat timbangannya dialah orang yang beruntung dan siapa yang ringan timbangannya dialah yang merugi. Kemudian diceritakan keadaan nasib a\u1e63h\u0101bul a\u2019r\u0101f.",
        "munasabah_prev_theme": "Pada ayat yang lalu diterangkan berbagai macam nikmat yang pernah diberikan Allah kepada Bani Israil, seperti telah mengalahkan musuh-musuh mereka, menganugerahkan negeri yang subur untuk mereka sebagai tempat kediaman. Pada ayat ini Allah menyebutkan  nikmat lainnya yang pernah dianugerahkan kepada Bani Israil, yaitu membebaskan mereka dari penindasan Fir\u2018aun dan kaumnya, dengan menyelamatkan mereka sampai ke seberang Laut Qulzum (Laut Merah), dan menenggelamkan Fir\u2018aun dan tentaranya ke dalam laut itu. Diterangkan pula sikap Bani Israil terhadap Musa as setelah mendapat berbagai nikmat yang besar itu, yaitu mereka murtad serta mengingkari Musa a.s dan Harun a.s, dengan meminta hal-hal yang aneh, seperti meminta agar dibuatkan sebuah patung yang akan mereka jadikan sebagai sembahan.",
        "theme_group": "SIKAP BANI ISRAIL KEPADA MUSA AS\nSETELAH TERBEBAS DARI PENINDASAN Fir\u2018aun",
        "kosakata": " Kosakata: Ya\u2019kuf\u016bna \u064a\u064e\u0639\u0652\u0643\u064f\u0641\u064f\u0648\u0652\u0646\u064e  (al- A\u2018r\u0101f/7: 138) \nDalam kaidah bahasa, makna harfiah kata ya\u2019kuf\u016bna  adalah \u201cmenekuni penyembahan, tekun beribadah.\u201d Kata i\u2019tikaf yang berarti berdiam diri di mesjid, juga satu akar kata dengan kata ini. Al-Qur\u2019an tidak menyebutkan siapa mereka. Kemungkinan mereka ini sekelompok kabilah Arab dari kaum Am\u0101l\u00efq (Amalek) yang tinggal di ujung selatan Palestina, di sekitar Semenanjung Sinai. Mereka banyak disebut-sebut dalam Bibel. ",
        "sabab_nuzul": null,
        "conclusion": null
    }
}