{
    "id": 1068,
    "surah_id": 7,
    "ayah": 114,
    "page": 164,
    "quarter_hizb": 17,
    "juz": 9,
    "manzil": 2,
    "arabic": "\u0642\u064e\u0627\u0644\u064e \u0646\u064e\u0639\u064e\u0645\u0652 \u0648\u064e\u0627\u0650\u0646\u0651\u064e\u0643\u064f\u0645\u0652 \u0644\u064e\u0645\u0650\u0646\u064e \u0627\u0644\u0652\u0645\u064f\u0642\u064e\u0631\u0651\u064e\u0628\u0650\u064a\u0652\u0646\u064e",
    "latin": "Q\u0101la na\u2018am wa innakum laminal-muqarrab\u012bn(a).",
    "translation": "Dia (Fir\u2018aun) menjawab, \u201cYa, bahkan sesungguhnya kamu pasti termasuk orang-orang yang didekatkan (kedudukannya kepadaku).\u201d",
    "no_footnote": null,
    "footnotes": null,
    "surah": {
        "id": 7,
        "arabic": " \u0627\u0644\u0627\u0639\u0631\u0627\u0641",
        "latin": "Al-A\u2018r\u0101f",
        "transliteration": "Al-A\u2018raf",
        "translation": "Tempat Tertinggi",
        "num_ayah": 206,
        "page": 151,
        "location": "Makkiyah"
    },
    "tafsir": {
        "wajiz": "Karena Fir'aun ingin menang dan mengalahkan sihir Nabi Musa, dia (Fir'aun) menjawab, \u201cYa, tentu bagi kalian imbalan yang besar, bahkan lebih dari itu sesungguhnya kamu pasti benar-benar akan termasuk orang-orang yang didekatkan kedudukannya padaku dan akan mendapatkan segala bentuk kesenangan.\u201d",
        "tahlili": "Fir\u2018aun menjawab pertanyaan mereka itu, \u201cYa kamu akan mendapat upah yang besar, dan di samping itu kamu akan menjadi orang-orang yang dekat dengan kami, sehingga kamu akan memperoleh pangkat dan harta benda yang akan memberikan kenikmatan dan kebahagiaan bagimu\u201d.\nJawaban Fir\u2018aun kepada para ahli sihir tersebut menunjukkan bahwa ia sangat memerlukan tenaga dan keahlian mereka, karena ia sangat khawatir akan kehilangan kedudukan dan kerajaannya, menurut pendapatnya akan timbul malapetaka baginya apabila ia tidak memenuhi permintaan mereka itu. Oleh sebab itu, imbalan jasa yang dijanjikan kepada mereka tidak hanya sekedar upah yang berwujud uang dan benda, melainkan ditambah pula dengan pangkat dan kedudukan sebagai orang yang dekat kepada raja. Ini adalah merupakan satu impian dan kebanggaan yang didambakan oleh banyak orang.",
        "intro_surah": "Surah 7 al-A\u2018r\u0101f yang berjumlah 206 ayat termasuk golongan surah Makkiyah (kecuali ayat 163-167 Madaniyah), diturunkan sebelum turunnya Surah al-An\u2018\u0101m yang termasuk golongan Surah as-sab\u2019 a\u1e6d-\u1e6diw\u0101l (tujuh surah yang panjang). Dinamakan al-A\u2018r\u0101f karena terdapat dalam surah ini yaitu dalam ayat 46 yang mengemukakan tentang keadaan orang-orang yang berada di tempat yang tertinggi antara surga dan neraka.\nPOKOK-POKOK ISINYA: \n1.    Keimanan: \nMengesakan (tauhid) Allah baik dalam berdoa maupun ketika beribadah hanya Allah sendiri yang mengatur dan menjaga alam, menciptakan undang-undang dan hukum-hukum, mengatur kehidupan manusia di dunia dan di akhirat; Allah bersemayam di atas \u2018Arsy; bantahan terhadap kebenaran syirik; ketauhidan adalah sesuai dengan fitrah manusia; Musa berbicara dengan Allah; tentang melihat Allah; perintah beribadah sambil merendahkan diri kepada Allah; dan al-asm\u2019ul \u1e25usn\u0101.\n2.\tHukum: \nLarangan mengikuti perbuatan dan adat istiadat yang buruk; kewajiban mengikuti Allah dan Rasul, perintah memakai pakaian yang baik waktu salat; bantahan terhadap orang yang mengharamkan perhiasan yang dikaruniakan Allah; perintah makan makanan yang halal dan baik dan larangan makan yang sebaliknya.\n3.\tKisah-kisah: \nKisah Nabi Adam dengan Iblis; kisah Nabi Nuh dan kaumnya; kisah Nabi Saleh dengan kaumnya; kisah Nabi Syu\u2019aib dengan kaumnya; kisah Nabi Musa dengan Fir\u2018aun.\n4.\tLain-lain: \nAl-Qur\u2032an diturunkan kepada Nabi yang terakhir berisi perintah untuk mengikuti petunjuknya; Nabi Muhammad saw, diutus kepada semua umat manusia; adab-adab orang mukmin; adab mendengarkan Al-Qur\u2032an ketika dibaca dan berzikir; Rasul bertanggung jawab menyampaikan seruan Allah; balasan terhadap orang yang mengikuti Rasul; Dakwah Rasul yang utama dan pertama kali ialah mengesakan Allah; tentang a\u1e63\u1e25\u0101bul a\u2019r\u0101f yang berada antara surga dengan neraka; Allah pencipta manusia, makhluk yang terbaik yang punya potensi untuk menjadi baik atau buruk; permusuhan setan terhadap anak cucu Adam; manusia khalifah Allah di bumi; kehancuran suatu kaum adalah karena perbuatan mereka sendiri; tiap-tiap bangsa mempunyai masa jaya dan masa kehancuran; Allah menguji manusia dengan kekayaan dan kemiskinan; Allah menarik orang-orang yang mendustakan ayat-ayat-Nya dengan berangsur-angsur ke arah kebinasaan.",
        "outro_surah": null,
        "munasabah_prev_surah": "HUBUNGAN SURAH AL-An\u2018\u0101m \nDENGAN SURAH AL-A\u2019R\u0100F\nHubungan Surah al-An\u2018\u0101m dengan Surah al-A\u2018r\u0101f adalah sebagai berikut: \n1.\tKedua surah tersebut termasuk di antara tujuh surah yang panjang (as-sab\u2019 a\u1e6d-\u1e6diw\u0101l), keduanya sama-sama membicarakan pokok akidah agama. Dalam Surah al-An\u2018\u0101m dikemukakan garis-garis besar akidah-akidah itu, sedangkan Surah al-A\u2018r\u0101f menjelaskannya.\n2.\tDalam Surah al-An\u2018\u0101m diterangkan asal usul kejadian manusia, dari tanah serta menjelaskan tentang beberapa generasi manusia yang telah dibinasakan Allah, kemudian disinggung pula tentang para Rasul dengan menyebut beberapa nama mereka dan kisahnya secara garis besarnya, sedang Surah al-A\u2018r\u0101f menjelaskannya.\n3.\tPada bagian terakhir Surah al-An\u2018\u0101m, dinyatakan bahwa Allah menjadikan manusia khalifah di bumi serta mengangkat derajat sebagian mereka, maka pada permulaan Surah al-A\u2018r\u0101f dikemukakan tentang penciptaan Adam dan anak cucunya kemudian dijadikan-Nya khalifah di bumi, begitu juga anak cucunya.\n4.\tMengenai hubungan bagian akhir Surah al-An\u2018\u0101m dengan bagian permulaan Surah sl-Ar\u2019\u0101f adalah sebagai berikut: \na.\tBagian akhir Surah al-An\u2018\u0101m menjelaskan bahwa Al-Qur\u2032an adalah kitab pedoman yang benar ke jalan yang lurus dan diberkahi, maka umat manusia diperintahkan mengikutinya. Pada bagian permulaan Surah al-A\u2018r\u0101f perintah itu diulang dan dikemukakan pula larangan mengikuti selainnya.\nb.\tPada bagian akhir Surah al-An\u2018\u0101m dijelaskan, bahwa Allah akan memberikan keterangan tentang apa yang seharusnya dilakukan manusia dan menjadi perselisihan mereka. Maka pada bagian permulaan Surah al-A\u2018r\u0101f, dijelaskan apa yang dimaksud dengan \u201cAllah memberi keterangan\u201d yaitu para rasul yang diutus bertugas memberi keterangan dan mereka masing-masing akan dimintai pertanggungjawaban.\nc.\tPada bagian akhir Surah al-An\u2018\u0101m, dinyatakan bahwa orang yang berbuat kebajikan akan diganjar sepuluh kali lipat dan yang berbuat kejahatan akan dibalas seimbang dengan perbuatannya. Untuk menentukan kadar kebajikan dan kejahatan itu ada timbangannya. Maka di bagian muka Surah al-A\u2018r\u0101f, dikemukakan bahwa timbangan pada hari itu ialah kebenaran dan keadilan. Siapa yang berat timbangannya dialah orang yang beruntung dan siapa yang ringan timbangannya dialah yang merugi. Kemudian diceritakan keadaan nasib a\u1e63h\u0101bul a\u2019r\u0101f.",
        "munasabah_prev_theme": "Pada ayat-ayat yang lalu telah dijelaskan bahwa Nabi Musa telah menjawab tantangan Fir\u2018aun untuk memperlihatkan bukti kerasulannya yaitu dengan memperlihatkan dua macam mukjizat yang telah dikaruniakan Allah swt kepadanya. Andaikata Fir\u2018aun dan para pengikutnya mau beriman, niscaya mereka puas dengan menyaksikan kedua macam mukjizat tersebut, lalu segera menyatakan iman kepadanya, Akan tetapi kenyataannya tidak demikian. Pada ayat-ayat ini Allah swt menceritakan tentang keingkaran dan kelicikan para pemuka Fir\u2018aun, dan bagaimana akhirnya Nabi Musa mengalahkan semua daya-upaya dan tipu muslihat sihir mereka itu.",
        "theme_group": "KELICIKAN PEMUKA-PEMUKA\nKAUM Fir\u2018aun",
        "kosakata": "Kosakata : \u2018A\u1e63\u0101ka \u0639\u064e\u0635\u064e\u0627\u0643\u064e (al-A\u2018r\u0101f/7: 117). \n\u2018A\u1e63\u0101 jamak \u0639\u0650\u0635\u0650\u064a\u0651\u064c \u2018i\u1e63iyun, \u2018u\u1e63iyyun artinya tongkat. Sama halnya dengan \u201cputih bersinar,\u201d yang dengan wahyu atau ilham dari Allah, mukjizat tongkat yang berubah menjadi ular oleh pembesar-pembesar Firaun dikira sihir juga, seperti perbuatan jahat mereka dengan mengumpulkan semua pakar pesihir yang piawai (al-A\u2018r\u0101f/7: 111).  Dalam dunia mereka, sihir bukan kejahatan, bukan tipu muslihat, tetapi sudah merupakan puncak kepiawaian dan kejayaan yang dapat menentukan kedudukan seseorang. ",
        "sabab_nuzul": null,
        "conclusion": null
    }
}