{
    "id": 1128,
    "surah_id": 7,
    "ayah": 174,
    "page": 173,
    "quarter_hizb": 18,
    "juz": 9,
    "manzil": 2,
    "arabic": "\u0648\u064e\u0643\u064e\u0630\u0670\u0644\u0650\u0643\u064e \u0646\u064f\u0641\u064e\u0635\u0651\u0650\u0644\u064f \u0627\u0644\u0652\u0627\u0670\u064a\u0670\u062a\u0650 \u0648\u064e\u0644\u064e\u0639\u064e\u0644\u0651\u064e\u0647\u064f\u0645\u0652 \u064a\u064e\u0631\u0652\u062c\u0650\u0639\u064f\u0648\u0652\u0646\u064e",
    "latin": "Wa ka\u017c\u0101lika nufa\u1e63\u1e63ilul-\u0101y\u0101ti wa la\u2018allahum yarji\u2018\u016bn(a).",
    "translation": "Demikianlah Kami menjelaskan secara terperinci ayat-ayat itu dan agar mereka kembali (kepada kebenaran).",
    "no_footnote": null,
    "footnotes": null,
    "surah": {
        "id": 7,
        "arabic": " \u0627\u0644\u0627\u0639\u0631\u0627\u0641",
        "latin": "Al-A\u2018r\u0101f",
        "transliteration": "Al-A\u2018raf",
        "translation": "Tempat Tertinggi",
        "num_ayah": 206,
        "page": 151,
        "location": "Makkiyah"
    },
    "tafsir": {
        "wajiz": "Dan demikianlah, dengan penjelasan yang rinci dan penuh hikmah, Kami menjelaskan ayat-ayat itu, berupa bukti-bukti keesaan kami dan semua tuntunan Kami agar mereka kembali kepada kebenaran, menyadari kesalahan mereka dan tidak menuruti begitu saja orang-orang yang berbuat kebatilan.",
        "tahlili": "Kemudian Allah menyatakan bahwa segala yang telah disebutkan di atas yaitu tentang diciptakannya manusia atas dasar fitrah yang cenderung kepada agama tauhid, dan kelemahan alasan-alasan mereka dalam menolak ajaran tauhid, adalah sebagai peringatan Allah kepada manusia, tentang ayat-ayatnya, agar mereka mempergunakan akal dan pikiran mereka dan kembali ke jalan tauhid, kembali kepada fitrahnya dan menjauhkan diri dari taklid kepada nenek-moyang mereka dan dari kealpaan dan kejahilan.",
        "intro_surah": "Surah 7 al-A\u2018r\u0101f yang berjumlah 206 ayat termasuk golongan surah Makkiyah (kecuali ayat 163-167 Madaniyah), diturunkan sebelum turunnya Surah al-An\u2018\u0101m yang termasuk golongan Surah as-sab\u2019 a\u1e6d-\u1e6diw\u0101l (tujuh surah yang panjang). Dinamakan al-A\u2018r\u0101f karena terdapat dalam surah ini yaitu dalam ayat 46 yang mengemukakan tentang keadaan orang-orang yang berada di tempat yang tertinggi antara surga dan neraka.\nPOKOK-POKOK ISINYA: \n1.    Keimanan: \nMengesakan (tauhid) Allah baik dalam berdoa maupun ketika beribadah hanya Allah sendiri yang mengatur dan menjaga alam, menciptakan undang-undang dan hukum-hukum, mengatur kehidupan manusia di dunia dan di akhirat; Allah bersemayam di atas \u2018Arsy; bantahan terhadap kebenaran syirik; ketauhidan adalah sesuai dengan fitrah manusia; Musa berbicara dengan Allah; tentang melihat Allah; perintah beribadah sambil merendahkan diri kepada Allah; dan al-asm\u2019ul \u1e25usn\u0101.\n2.\tHukum: \nLarangan mengikuti perbuatan dan adat istiadat yang buruk; kewajiban mengikuti Allah dan Rasul, perintah memakai pakaian yang baik waktu salat; bantahan terhadap orang yang mengharamkan perhiasan yang dikaruniakan Allah; perintah makan makanan yang halal dan baik dan larangan makan yang sebaliknya.\n3.\tKisah-kisah: \nKisah Nabi Adam dengan Iblis; kisah Nabi Nuh dan kaumnya; kisah Nabi Saleh dengan kaumnya; kisah Nabi Syu\u2019aib dengan kaumnya; kisah Nabi Musa dengan Fir\u2018aun.\n4.\tLain-lain: \nAl-Qur\u2032an diturunkan kepada Nabi yang terakhir berisi perintah untuk mengikuti petunjuknya; Nabi Muhammad saw, diutus kepada semua umat manusia; adab-adab orang mukmin; adab mendengarkan Al-Qur\u2032an ketika dibaca dan berzikir; Rasul bertanggung jawab menyampaikan seruan Allah; balasan terhadap orang yang mengikuti Rasul; Dakwah Rasul yang utama dan pertama kali ialah mengesakan Allah; tentang a\u1e63\u1e25\u0101bul a\u2019r\u0101f yang berada antara surga dengan neraka; Allah pencipta manusia, makhluk yang terbaik yang punya potensi untuk menjadi baik atau buruk; permusuhan setan terhadap anak cucu Adam; manusia khalifah Allah di bumi; kehancuran suatu kaum adalah karena perbuatan mereka sendiri; tiap-tiap bangsa mempunyai masa jaya dan masa kehancuran; Allah menguji manusia dengan kekayaan dan kemiskinan; Allah menarik orang-orang yang mendustakan ayat-ayat-Nya dengan berangsur-angsur ke arah kebinasaan.",
        "outro_surah": null,
        "munasabah_prev_surah": "HUBUNGAN SURAH AL-An\u2018\u0101m \nDENGAN SURAH AL-A\u2019R\u0100F\nHubungan Surah al-An\u2018\u0101m dengan Surah al-A\u2018r\u0101f adalah sebagai berikut: \n1.\tKedua surah tersebut termasuk di antara tujuh surah yang panjang (as-sab\u2019 a\u1e6d-\u1e6diw\u0101l), keduanya sama-sama membicarakan pokok akidah agama. Dalam Surah al-An\u2018\u0101m dikemukakan garis-garis besar akidah-akidah itu, sedangkan Surah al-A\u2018r\u0101f menjelaskannya.\n2.\tDalam Surah al-An\u2018\u0101m diterangkan asal usul kejadian manusia, dari tanah serta menjelaskan tentang beberapa generasi manusia yang telah dibinasakan Allah, kemudian disinggung pula tentang para Rasul dengan menyebut beberapa nama mereka dan kisahnya secara garis besarnya, sedang Surah al-A\u2018r\u0101f menjelaskannya.\n3.\tPada bagian terakhir Surah al-An\u2018\u0101m, dinyatakan bahwa Allah menjadikan manusia khalifah di bumi serta mengangkat derajat sebagian mereka, maka pada permulaan Surah al-A\u2018r\u0101f dikemukakan tentang penciptaan Adam dan anak cucunya kemudian dijadikan-Nya khalifah di bumi, begitu juga anak cucunya.\n4.\tMengenai hubungan bagian akhir Surah al-An\u2018\u0101m dengan bagian permulaan Surah sl-Ar\u2019\u0101f adalah sebagai berikut: \na.\tBagian akhir Surah al-An\u2018\u0101m menjelaskan bahwa Al-Qur\u2032an adalah kitab pedoman yang benar ke jalan yang lurus dan diberkahi, maka umat manusia diperintahkan mengikutinya. Pada bagian permulaan Surah al-A\u2018r\u0101f perintah itu diulang dan dikemukakan pula larangan mengikuti selainnya.\nb.\tPada bagian akhir Surah al-An\u2018\u0101m dijelaskan, bahwa Allah akan memberikan keterangan tentang apa yang seharusnya dilakukan manusia dan menjadi perselisihan mereka. Maka pada bagian permulaan Surah al-A\u2018r\u0101f, dijelaskan apa yang dimaksud dengan \u201cAllah memberi keterangan\u201d yaitu para rasul yang diutus bertugas memberi keterangan dan mereka masing-masing akan dimintai pertanggungjawaban.\nc.\tPada bagian akhir Surah al-An\u2018\u0101m, dinyatakan bahwa orang yang berbuat kebajikan akan diganjar sepuluh kali lipat dan yang berbuat kejahatan akan dibalas seimbang dengan perbuatannya. Untuk menentukan kadar kebajikan dan kejahatan itu ada timbangannya. Maka di bagian muka Surah al-A\u2018r\u0101f, dikemukakan bahwa timbangan pada hari itu ialah kebenaran dan keadilan. Siapa yang berat timbangannya dialah orang yang beruntung dan siapa yang ringan timbangannya dialah yang merugi. Kemudian diceritakan keadaan nasib a\u1e63h\u0101bul a\u2019r\u0101f.",
        "munasabah_prev_theme": "Pada ayat yang lalu Allah swt mengisahkan keingkaran dan penolakan orang Yahudi terhadap ajaran para Nabi, baik ajaran Nabi Musa ataupun ajaran Nabi Muhammad saw. Maka pada ayat ini Allah menerangkan bahwa fitrah manusia itu menerima ajaran Allah dan ini sudah mereka ikrarkan dalam diri mereka, seperti isi ayat ini.",
        "theme_group": "KETAUHIDAN SESUAI DENGAN FITRAH MANUSIA",
        "kosakata": "Kosakata: Asyhadahum \u0627\u064e\u0634\u0652\u0647\u064e\u062f\u064e\u0647\u064f\u0645\u0652 (al-A\u2018r\u0101f /7: 172)\n       Kata asyhada berasal dari kata syahida-yasyhadu-syuh\u016bdan wa sy\u0101h\u0101datan, yang artinya memberi khabar yang pasti atau bersumpah. Asyhada merupakan kata kerja yang mendapat imbuhan, sehingga maknanya adalah menjadikan seseorang bersaksi atau bersumpah. Kata ini dipergunakan dalam Al-Qur\u2019an untuk menegaskan bahwasanya manusia telah diambil ikrar atau sumpahnya tentang keesaan Tuhan. Persaksian ini dari mereka atas diri mereka sendiri, yaitu meminta pengakuan mereka masing-masing melalui potensi yang dianugerahkan Allah kepada mereka, seperti akal, hati nurani, dan hamparan bukti-bukti tentang keesaan Allah yang tersebar di alam raya. Tanda-tanda yang sedemikian banyak ini tampak sudah sangat mencukupi untuk digunakan sebagai dalil terhadap keesaan Allah.",
        "sabab_nuzul": null,
        "conclusion": "1. \tAllah menciptakan manusia atas dasar fitrah, yaitu tabiat dasar manusia yang cenderung kepada tauhid.\n2. \tKepercayaan akan adanya tuhan selain Allah bertentangan dengan tabiat kejadian manusia.\n3. \tManusia akan diminta pertanggungjawaban di hadapan Allah atas penyelewengan mereka dari tauhid."
    }
}