{
    "id": 1160,
    "surah_id": 7,
    "ayah": 206,
    "page": 176,
    "quarter_hizb": 18.25,
    "juz": 9,
    "manzil": 2,
    "arabic": "\u0627\u0650\u0646\u0651\u064e \u0627\u0644\u0651\u064e\u0630\u0650\u064a\u0652\u0646\u064e \u0639\u0650\u0646\u0652\u062f\u064e \u0631\u064e\u0628\u0651\u0650\u0643\u064e \u0644\u064e\u0627 \u064a\u064e\u0633\u0652\u062a\u064e\u0643\u0652\u0628\u0650\u0631\u064f\u0648\u0652\u0646\u064e \u0639\u064e\u0646\u0652 \u0639\u0650\u0628\u064e\u0627\u062f\u064e\u062a\u0650\u0647\u0656 \u0648\u064e\u064a\u064f\u0633\u064e\u0628\u0651\u0650\u062d\u064f\u0648\u0652\u0646\u064e\u0647\u0657 \u0648\u064e\u0644\u064e\u0647\u0657 \u064a\u064e\u0633\u0652\u062c\u064f\u062f\u064f\u0648\u0652\u0646\u064e \u08d6 \u06e9",
    "latin": "Innal-la\u017c\u012bna \u2018inda rabbika l\u0101 yastakbir\u016bna \u2018an \u2018ib\u0101datih\u012b wa yusabbi\u1e25\u016bnah\u016b wa lah\u016b yasjud\u016bn(a).",
    "translation": "Sesungguhnya (malaikat) yang ada di sisi Tuhanmu tidak menyombongkan diri dari ibadah kepada-Nya dan mereka menyucikan-Nya. Hanya kepada-Nya mereka bersujud.303)",
    "no_footnote": "303",
    "footnotes": "303) Ini adalah salah satu ayat sajdah yang disunahkan bagi kita untuk bersujud setelah membaca atau mendengarnya, baik di dalam salat maupun di luar salat. Sujud ini dinamakan sujud tilawah.",
    "surah": {
        "id": 7,
        "arabic": " \u0627\u0644\u0627\u0639\u0631\u0627\u0641",
        "latin": "Al-A\u2018r\u0101f",
        "transliteration": "Al-A\u2018raf",
        "translation": "Tempat Tertinggi",
        "num_ayah": 206,
        "page": 151,
        "location": "Makkiyah"
    },
    "tafsir": {
        "wajiz": "Jangan enggan berzikir mengingat Allah dan jangan pula enggan membaca serta mempelajari petunjuk-petunjuk Al-Qur'an, karena sesungguhnya mereka yang ada di sisi Tuhanmu, yakni para malaikat dan juga hamba-hamba Allah, tidak sesaat pun merasa enggan untuk menyembah Allah dan mereka terus-menerus bertasbih menyucikan-Nya dari sifat-sifat yang tidak layak bagi-Nya, dan hanya kepada-Nya semata mereka bersujud, maka tirulah mereka. Ayat ini adalah salah satu \u201cayat sajdah\u201d yang disunahkan kita bersujud setelah membacanya atau mendengarnya baik di dalam salat maupun di luar salat. Sujud ini dinamakan \u201csujud tilawah\u201d. []",
        "tahlili": "Dalam ayat ini Allah menjelaskan bahwa malaikat yang kedudukannya mulia di sisi Tuhan tiadalah merasa berat dan enggan menyembah Allah. Hendaklah manusia mencontoh ketaatan malaikat itu kepada Tuhan. Para malaikat itu selalu mensucikan Allah dari sifat-sifat yang tidak layak bagi-Nya, dan dari menyembah berhala-berhala. Para malaikat sujud dan salat kepada Allah swt.\n Ayat ini termasuk ayat sajadah yang pertama dalam Al-Qur\u2019an. Di sunatkan bagi orang Islam melakukan sujud setelah membaca atau mendengar ayat ini dibacakan.\nAbu Darda\u2019 meriwayatkan sebagai berikut:\n\u0625\u0650\u0646\u0651\u064e\u0647\u064f \u0635\u064e\u0644\u0651\u064e\u0649 \u0627\u0644\u0644\u0651\u0670\u0647\u064f\u0639\u064e\u0644\u064e\u064a\u0652\u0647\u0650 \u0648\u064e\u0633\u064e\u0644\u0651\u064e\u0645\u064e \u0639\u064e\u062f\u0651\u064e\u0647\u064e\u0627 \u0641\u0650\u064a\u0652 \u0633\u064e\u062c\u064e\u062f\u064e\u0627\u062a\u0650 \u0627\u0644\u0652\u0642\u064f\u0631\u0652\u0627\u0670\u0646\u0650 (\u0631\u0648\u0627\u0647 \u0627\u0628\u0646 \u0645\u0627\u062c\u0647)\n\u201cBahwasanya Rasulullah saw memandang ayat ini salah satu ayat sajadah dalam Al-Qur\u2019an\u201d. (Riwayat Ibnu M\u0101jah)",
        "intro_surah": "Surah 7 al-A\u2018r\u0101f yang berjumlah 206 ayat termasuk golongan surah Makkiyah (kecuali ayat 163-167 Madaniyah), diturunkan sebelum turunnya Surah al-An\u2018\u0101m yang termasuk golongan Surah as-sab\u2019 a\u1e6d-\u1e6diw\u0101l (tujuh surah yang panjang). Dinamakan al-A\u2018r\u0101f karena terdapat dalam surah ini yaitu dalam ayat 46 yang mengemukakan tentang keadaan orang-orang yang berada di tempat yang tertinggi antara surga dan neraka.\nPOKOK-POKOK ISINYA: \n1.    Keimanan: \nMengesakan (tauhid) Allah baik dalam berdoa maupun ketika beribadah hanya Allah sendiri yang mengatur dan menjaga alam, menciptakan undang-undang dan hukum-hukum, mengatur kehidupan manusia di dunia dan di akhirat; Allah bersemayam di atas \u2018Arsy; bantahan terhadap kebenaran syirik; ketauhidan adalah sesuai dengan fitrah manusia; Musa berbicara dengan Allah; tentang melihat Allah; perintah beribadah sambil merendahkan diri kepada Allah; dan al-asm\u2019ul \u1e25usn\u0101.\n2.\tHukum: \nLarangan mengikuti perbuatan dan adat istiadat yang buruk; kewajiban mengikuti Allah dan Rasul, perintah memakai pakaian yang baik waktu salat; bantahan terhadap orang yang mengharamkan perhiasan yang dikaruniakan Allah; perintah makan makanan yang halal dan baik dan larangan makan yang sebaliknya.\n3.\tKisah-kisah: \nKisah Nabi Adam dengan Iblis; kisah Nabi Nuh dan kaumnya; kisah Nabi Saleh dengan kaumnya; kisah Nabi Syu\u2019aib dengan kaumnya; kisah Nabi Musa dengan Fir\u2018aun.\n4.\tLain-lain: \nAl-Qur\u2032an diturunkan kepada Nabi yang terakhir berisi perintah untuk mengikuti petunjuknya; Nabi Muhammad saw, diutus kepada semua umat manusia; adab-adab orang mukmin; adab mendengarkan Al-Qur\u2032an ketika dibaca dan berzikir; Rasul bertanggung jawab menyampaikan seruan Allah; balasan terhadap orang yang mengikuti Rasul; Dakwah Rasul yang utama dan pertama kali ialah mengesakan Allah; tentang a\u1e63\u1e25\u0101bul a\u2019r\u0101f yang berada antara surga dengan neraka; Allah pencipta manusia, makhluk yang terbaik yang punya potensi untuk menjadi baik atau buruk; permusuhan setan terhadap anak cucu Adam; manusia khalifah Allah di bumi; kehancuran suatu kaum adalah karena perbuatan mereka sendiri; tiap-tiap bangsa mempunyai masa jaya dan masa kehancuran; Allah menguji manusia dengan kekayaan dan kemiskinan; Allah menarik orang-orang yang mendustakan ayat-ayat-Nya dengan berangsur-angsur ke arah kebinasaan.",
        "outro_surah": "Pokok-pokok kandungan dari Surah al-A\u2018r\u0101f ini dapat disimpulkan sebagai berikut:\n1. \tKetauhidan, meliputi mengesakan Allah swt, dalam berdoa, beribadah dan menetapkan hukum (tasyri\u2019).\n2. \tWahyu dan kitab, meliputi fungsi dan peranan Al-Qur\u2019an serta adab mendengar bacaan Al-Qur\u2019an.\n3. \tKerasulan, meliputi tujuan pengutusan Rasul-rasul kepada seluruh umat manusia.\n4. \tKehidupan akhirat, meliputi hari kebangkitan, penimbangan amal perbuatan, perdebatan antara ahli surga dengan ahli neraka, tabir antara isi surga dan isi neraka, dan lain-lain sebagainya.\n5. \tDasar tasyri\u2019, meliputi kewajiban mengikuti agama, larangan bertaklid, mengindahkan hasil-hasil pikiran manusia, berpikir secara ilmiyah dalam membina iman, keadilan dalam pemerintahan, penjelasan dasar moral dalam tasyri\u2019.\n6. \tBukti keesaan Allah, dalam alam semesta dan sunnah-Nya yang berjalan dalam alam ini.\n7. Sunnatullah dalam kehidupan, masyarakat dan penghidupan manusia, meliputi sebab-akibat dari kemakmuran dan kehancuran suatu umat, cobaan Allah kepada umat manusia.",
        "munasabah_prev_surah": "HUBUNGAN SURAH AL-An\u2018\u0101m \nDENGAN SURAH AL-A\u2019R\u0100F\nHubungan Surah al-An\u2018\u0101m dengan Surah al-A\u2018r\u0101f adalah sebagai berikut: \n1.\tKedua surah tersebut termasuk di antara tujuh surah yang panjang (as-sab\u2019 a\u1e6d-\u1e6diw\u0101l), keduanya sama-sama membicarakan pokok akidah agama. Dalam Surah al-An\u2018\u0101m dikemukakan garis-garis besar akidah-akidah itu, sedangkan Surah al-A\u2018r\u0101f menjelaskannya.\n2.\tDalam Surah al-An\u2018\u0101m diterangkan asal usul kejadian manusia, dari tanah serta menjelaskan tentang beberapa generasi manusia yang telah dibinasakan Allah, kemudian disinggung pula tentang para Rasul dengan menyebut beberapa nama mereka dan kisahnya secara garis besarnya, sedang Surah al-A\u2018r\u0101f menjelaskannya.\n3.\tPada bagian terakhir Surah al-An\u2018\u0101m, dinyatakan bahwa Allah menjadikan manusia khalifah di bumi serta mengangkat derajat sebagian mereka, maka pada permulaan Surah al-A\u2018r\u0101f dikemukakan tentang penciptaan Adam dan anak cucunya kemudian dijadikan-Nya khalifah di bumi, begitu juga anak cucunya.\n4.\tMengenai hubungan bagian akhir Surah al-An\u2018\u0101m dengan bagian permulaan Surah sl-Ar\u2019\u0101f adalah sebagai berikut: \na.\tBagian akhir Surah al-An\u2018\u0101m menjelaskan bahwa Al-Qur\u2032an adalah kitab pedoman yang benar ke jalan yang lurus dan diberkahi, maka umat manusia diperintahkan mengikutinya. Pada bagian permulaan Surah al-A\u2018r\u0101f perintah itu diulang dan dikemukakan pula larangan mengikuti selainnya.\nb.\tPada bagian akhir Surah al-An\u2018\u0101m dijelaskan, bahwa Allah akan memberikan keterangan tentang apa yang seharusnya dilakukan manusia dan menjadi perselisihan mereka. Maka pada bagian permulaan Surah al-A\u2018r\u0101f, dijelaskan apa yang dimaksud dengan \u201cAllah memberi keterangan\u201d yaitu para rasul yang diutus bertugas memberi keterangan dan mereka masing-masing akan dimintai pertanggungjawaban.\nc.\tPada bagian akhir Surah al-An\u2018\u0101m, dinyatakan bahwa orang yang berbuat kebajikan akan diganjar sepuluh kali lipat dan yang berbuat kejahatan akan dibalas seimbang dengan perbuatannya. Untuk menentukan kadar kebajikan dan kejahatan itu ada timbangannya. Maka di bagian muka Surah al-A\u2018r\u0101f, dikemukakan bahwa timbangan pada hari itu ialah kebenaran dan keadilan. Siapa yang berat timbangannya dialah orang yang beruntung dan siapa yang ringan timbangannya dialah yang merugi. Kemudian diceritakan keadaan nasib a\u1e63h\u0101bul a\u2019r\u0101f.",
        "munasabah_prev_theme": "Pada ayat-ayat yang lalu Allah memberikan petunjuk-petunjuk kepada Rasul-Nya dalam menghadapi umatnya, juga memperingatkan Rasul-Nya tentang godaan setan dan perbuatannya. Pada ayat-ayat ini Allah swt menjelaskan salah satu contoh tingkah laku perbuatan setan itu dan kemudian Allah swt menutup Surah al-A\u2018r\u0101f dengan perintah kepada umat-Nya, Nabi Muhammad saw untuk mendengarkan, memperhatikan Al-Qur\u2019an dan berzikir mengingat Allah terus menerus sebagai jalan untuk memelihara diri dari pengaruh setan dan kawan-kawannya.\nKemudian surah ini ditutup dengan menyebut malaikat yang terus menerus beribadah, bertasbih dan sujud kepada-Nya untuk dicontoh oleh manusia.",
        "theme_group": "ADAB MENDENGARKAN AL-QUR\u2019AN \nDAN BERZIKIR",
        "kosakata": "Kosakata: Ba\u1e63\u0101\u2019ir \u0628\u064e\u0635\u064e\u0627\u0626\u0650\u0631\u064f (al-A\u2018r\u0101f /7: 204)\n       Ba\u1e63\u0101\u2019ir merupakan bentuk jamak dari ba\u1e63\u012brah. Kata ini dipahami dalam arti bukti-bukti yang dengannya dapat dilihat sesuatu sebagaimana adanya. Dalam konteks uraian ayat ini, bashair diberi pengertian sebagai dalil-dalil yang dikandung ayat Al-Qur\u2019an, yang bila digunakan dengan baik dan benar akan mengantar penggunanya kepada pembenaran akal dan hati terhadap ajaran yang disampaikan Nabi. Selain ini, ada juga yang mengartikan bashirah dengan akal yang membuahkan kejelasan hakekat sesuatu. Ulama membedakan antara ba\u1e63\u012brah dan ba\u1e63ar. Yang pertama diartikan sebagai penglihatan dengan mata hati, dan yang kedua maknanya penglihatan dengan mata kepala. Terlepas dari perbedaan itu, yang jelas adalah bahwa bukti-bukti yang terhampar di alam raya atau tercantum dalam kitab suci  Al-Qur\u2019an hanya dapat berfungsi dengan baik jika mata hati digunakan, baik dalam arti akal pikiran maupun dalam makna intuisi dan kesucian jiwa.",
        "sabab_nuzul": null,
        "conclusion": "1. \tNabi Muhammad saw walaupun didesak oleh kaum musyrikin Arab, tidak akan menciptakan Al-Qur\u2019an. Sebab Al-Qur\u2019an adalah wahyu Allah swt.\n2. \tUmat Islam pasti hidup bahagia, bilamana mereka benar-benar menghayati Al-Qur\u2019an sebaik-baiknya, dan mengamalkannya.\n3. \tTiap-tiap orang Islam hendaklah melakukan zikir dengan penuh kerendahan hati, ikhlas, dan dengan suara yang lembut setiap waktu.\n4. \tMalaikat adalah contoh dari makhluk Allah swt yang taat beribadah kepada Allah swt dan terus menerus memujinya."
    }
}