{
    "id": 1224,
    "surah_id": 8,
    "ayah": 64,
    "page": 185,
    "quarter_hizb": 19.25,
    "juz": 10,
    "manzil": 2,
    "arabic": "\u064a\u0670\u0653\u0627\u064e\u064a\u0651\u064f\u0647\u064e\u0627 \u0627\u0644\u0646\u0651\u064e\u0628\u0650\u064a\u0651\u064f \u062d\u064e\u0633\u0652\u0628\u064f\u0643\u064e \u0627\u0644\u0644\u0651\u0670\u0647\u064f \u0648\u064e\u0645\u064e\u0646\u0650 \u0627\u062a\u0651\u064e\u0628\u064e\u0639\u064e\u0643\u064e \u0645\u0650\u0646\u064e \u0627\u0644\u0652\u0645\u064f\u0624\u0652\u0645\u0650\u0646\u0650\u064a\u0652\u0646\u064e \u08d6 ",
    "latin": "Y\u0101 ayyuhan-nabiyyu \u1e25asbukall\u0101hu wa manittaba\u2018aka minal-mu'min\u012bn(a). ",
    "translation": "Wahai Nabi (Muhammad), cukuplah Allah (menjadi pelindung) bagi engkau dan bagi orang-orang mukmin yang mengikutimu.",
    "no_footnote": null,
    "footnotes": null,
    "surah": {
        "id": 8,
        "arabic": " \u0627\u0644\u0627\u0646\u0641\u0627\u0644",
        "latin": "Al-Anf\u0101l",
        "transliteration": "Al-Anfal",
        "translation": "Rampasan Perang",
        "num_ayah": 75,
        "page": 177,
        "location": "Madaniyah"
    },
    "tafsir": {
        "wajiz": "Setelah ayat sebelumnya menegaskan kalau masuknya seseorang ke dalam Islam bukan semata-mata usaha manusia tetapi juga anugerah Allah, maka melalui ayat ini Allah hendak menguatkan jiwa Rasulullah dan kaum mukmin agar tetap konsisten dalam berdakwah dan tidak pernah merasa gentar dengan orang-orang kafir atau siapa pun yang menghalang-halangi dan bahkan memeranginya, sebab di belakangnya ada Yang Mahakuat, Allah. Karena itu, beliau diseru, wahai Nabi Muhammad! Tidak ada satu pun yang bisa diandalkan untuk melindungimu, cukuplah Allah menjadi pelindung bagimu dan dikuatkan dengan dukungan dari orang-orang mukmin yang mengikutimu.",
        "tahlili": "Pada ayat ini Allah mengulangi kembali jaminan-Nya kepada Nabi Muhammad, bahwa Allah akan menolongnya dengan bantuan kaum Muslimin yang benar-benar beriman dan yakin sepenuhnya bahwa Allah bersama mereka. Menurut riwayat dari Ibn Abbas, ayat ini turun sehubungan dengan masuk Islamnya Umar, menyusul Islamnya 33 orang laki- laki dan enam orang perempuan, seperti dikemukakan Jubair (lihat Tafsir al-Kab\u012br, Jilid VIII, hlm 197-198). Dengan keimanan dan keyakinan itu tekad mereka tak akan digoyahkan oleh kejadian atau ancaman apa pun. Keimanan dan keyakinan itu digambarkan Allah dalam firman-Nya:\n\u0627\u064e\u0644\u0651\u064e\u0630\u0650\u064a\u0652\u0646\u064e \u0642\u064e\u0627\u0644\u064e \u0644\u064e\u0647\u064f\u0645\u064f \u0627\u0644\u0646\u0651\u064e\u0627\u0633\u064f \u0627\u0650\u0646\u0651\u064e \u0627\u0644\u0646\u0651\u064e\u0627\u0633\u064e \u0642\u064e\u062f\u0652 \u062c\u064e\u0645\u064e\u0639\u064f\u0648\u0652\u0627 \u0644\u064e\u0643\u064f\u0645\u0652 \u0641\u064e\u0627\u062e\u0652\u0634\u064e\u0648\u0652\u0647\u064f\u0645\u0652 \u0641\u064e\u0632\u064e\u0627\u062f\u064e\u0647\u064f\u0645\u0652 \u0627\u0650\u064a\u0652\u0645\u064e\u0627\u0646\u064b\u0627\u06d6 \u0648\u0651\u064e\u0642\u064e\u0627\u0644\u064f\u0648\u0652\u0627 \u062d\u064e\u0633\u0652\u0628\u064f\u0646\u064e\u0627 \u0627\u0644\u0644\u0651\u0670\u0647\u064f \u0648\u064e\u0646\u0650\u0639\u0652\u0645\u064e \u0627\u0644\u0652\u0648\u064e\u0643\u0650\u064a\u0652\u0644\u064f \u0661\u0667\u0663\n(Yaitu) orang-orang (yang menaati Allah dan Rasul) yang ketika ada orang-orang mengatakan kepadanya, \u201dOrang-orang (Quraisy) telah mengumpul-kan pasukan untuk menyerang kamu, karena itu takutlah kepada mereka,\u201d ternyata (ucapan) itu menambah (kuat) iman mereka dan mereka menjawab, \u201dCukuplah Allah (menjadi penolong) bagi kami dan Dia sebaik-baik pelindung.\u201d (\u0100li \u2018Imr\u0101n/3: 173)\n\nMaka dengan keyakinan dan tekad yang bulat yang ditimbulkan oleh keimanan dan jaminan Allah, kaum Muslimin siap untuk menerima perintah Allah, bagaimana pun berat dan sulitnya, meskipun dengan perintah itu mereka akan menghadapi musuh yang banyak atau bahaya yang besar.",
        "intro_surah": "Surah 8, al-Anf\u0101l terdiri dari 75 ayat. Menurut perhitungan para ulama Kufah, jumlah ayatnya ada 75; sedang perhitungan para ulama Hijaz ada 76, tetapi menurut perhitungan ulama Syam ayatnya ada 77. (1631 kata-kata, 5294 huruf) dan termasuk kelompok Madaniyah. (ada riwayat yang mengecualikan ayat 30 s/d 36 Ayat ini termasuk kelompok Makiyah. Dan ada pula riwayat lain, yang mengecualikan ayat 64, bahwa ayat ini termasuk ayat Makiyah) karena seluruh ayat-ayatnya diturunkan di Medinah.\nSurah ini dinamakan al-Anf\u0101l (berarti harta rampasan perang), karena kata al-Anf\u0101l terdapat pada permulaan Surah ini, atau karena persoalan yang menonjol dalam surah ini ialah harta rampasan perang.\n Surah ini dinamakan juga surah \u201cBadarul Kubra\u201d, karena diturunkan berkenaan dengan Perang Badar kubra, yang terjadi pada tahun kedua Hijrah. Perang ini sangat penting artinya. Karena menentukan jalan sejarah perkembangan Islam. Pada waktu itu umat Islam dengan kekuatan kecil, dapat mengalahkan kaum musyrikin yang berjumlah besar, dengan perlengkapan yang cukup. Umat Islam dalam peperangan ini memperoleh harta rampasan yang tidak sedikit.\nOleh sebab itu, timbul masalah bagaimana membagi harta rampasan perang itu. Maka Allah menurunkan ayat pertama dari Surah ini.\n  Selain hal tersebut di atas, pokok-pokok isinya adalah sebagai berikut:\n\n1. Keimanan:\nAllah selalu menyertai orang-orang yang beriman dan melindungi mereka; Allah yang menentukan hukum-hukum agama; Allah menjamin kemenangan umat yang beriman; Allah melimpahkan inayah-Nya kepada orang-orang yang bertawakal; Allah sendiri yang dapat mempersatukan hati orang-orang yang beriman; Allah mendasarkan hukum-Nya atas kepentingan manusia; Allah mempunyai barisan malaikat; merekalah yang menolong barisan kaum Muslimin dalam Perang Badar.\n\n2. Hukum-hukum:\n Aturan pembagian harta rampasan perang; kebolehan makan harta rampasan perang; larangan lari (mundur) dalam peperangan; hukum mengenai tawanan perang; kewajiban taat kepada pemimpin dalam perang; keharusan mengusahakan perdamaian; kewajiban mempersiapkan diri dengan segala alat perlengkapan perang; ketahanan mental; sabar dalam Islam; larangan khianat pada Allah dan Rasul, dan larangan mengkhianati perjanjian.\n\n3. Kisah-kisah:\nKeengganan beberapa orang Islam ikut Perang Badar, suasana kaum Muslimin pada waktu Perang Badar sebelum dan sesudahnya serta saat sedang berlangsungnya peperangan; keadaan Nabi Muhammad saw sebelum hijrah serta permusuhan kaum musyrikin kepadanya; tentang orang-orang Yahudi yang membatalkan perjanjian damai dengan Nabi Muhammad saw; kisah orang kafir baik dari musyrikin dan ahli kitab serta keburukan orang munafikin.\n\n4. Dan lain-lain:\nPengertian iman; tanda-tanda dan sifat-sifat orang beriman; Sunnatullah yang berlaku pada perorangan dan masyarakat.",
        "outro_surah": null,
        "munasabah_prev_surah": "Hubungan Surah al-A\u2018r\u0101f  dengan Surah al-Anf\u0101l, ialah Dalam Surah al-A\u2018r\u0101f Allah swt memberikan petunjuk bagi Rasulullah saw untuk membina rohani dan petunjuk-petunjuk dalam menghadapi umat, maka dalam Surah al-Anf\u0101l, diterangkan bahwa Nabi Muhammad saw telah berada di tengah-tengah umatnya membawa mereka ke jalan agama Allah swt.",
        "munasabah_prev_theme": "Ayat yang lalu memerintahkan kepada Rasulullah saw, agar menerima uluran tangan dari musuh bila mereka ingin berdamai. Bila perdamaian sudah ditandatangani dan ternyata bahwa perdamaian itu hanya tipu-daya belaka untuk mengadakan persiapan perang yang lebih dahsyat, maka Rasulullah tak perlu khawatir, karena Allah akan membantunya dan membantu kaum Muslimin. Ayat ini menegaskan kembali bahwa Allah menjamin kemenangan bagi Nabi Muhammad dengan bantuan orang-orang mukmin yang kuat imannya, mental, dan tekadnya walaupun akan menghadapi musuh yang berlipat ganda.",
        "theme_group": "MOBILISASI UMUM DAN KEMAMPUAN\nKEKUATAN TENTARA ISLAM",
        "kosakata": "Kosakata: \u1e24arri\u1e0d \u062d\u064e\u0631\u0651\u0650\u0636\u0652 (al-Anf\u0101l/8: 65)\nKata \u1e25arri\u1e0d adalah bentuk fi\u2019il amr atau perintah dari \u1e25arra\u1e0da-yu\u1e25arri\u1e0du-\u1e25arri\u1e0d-ta\u1e25r\u012b\u1e0dan, artinya mendorong, menganjurkan. Dalam ayat 65 ini, Allah memerintahkan kepada Nabi agar mendorong dan mengobarkan semangat kaum Muslimin untuk berperang mempertahankan diri dan melindungi orang-orang Islam dari serangan orang-orang kafir dan musyrik dari Mekah. Dorongan Nabi dalam mengobarkan semangat dan keberanian berperang berhasil dengan baik sehingga kualitas sumber daya manusia orang-orang Islam mencapai sepuluh kali kualitas orang-orang kafir. Maka terjadilah Perang Badar pada tahun 2 H, Perang Uhud tahun 3 H, dan Perang Khandak tahun 5 H. Semua peperangan ini terjadi di dekat kota Medinah, karena memang orang-orang kafir Quraisy dari Mekah yang menyerang kaum Muslimin di Medinah. Hal ini sesuai dengan firman Allah dalam surah al-\u1e24ajj/22: 39, \u201cTelah diizinkan (berperang) bagi orang-orang yang diperangi, karena sesungguhnya mereka dizalimi. Dan sungguh, Allah Mahakuasa menolong mereka.\u201d Jadi perang yang terjadi pada masa Nabi adalah bersifat defensif yaitu mempertahankan diri dari serangan musuh.",
        "sabab_nuzul": null,
        "conclusion": null
    }
}