{
    "id": 1213,
    "surah_id": 8,
    "ayah": 53,
    "page": 184,
    "quarter_hizb": 19,
    "juz": 10,
    "manzil": 2,
    "arabic": "\u0630\u0670\u0644\u0650\u0643\u064e \u0628\u0650\u0627\u064e\u0646\u0651\u064e \u0627\u0644\u0644\u0651\u0670\u0647\u064e \u0644\u064e\u0645\u0652 \u064a\u064e\u0643\u064f \u0645\u064f\u063a\u064e\u064a\u0651\u0650\u0631\u064b\u0627 \u0646\u0651\u0650\u0639\u0652\u0645\u064e\u0629\u064b \u0627\u064e\u0646\u0652\u0639\u064e\u0645\u064e\u0647\u064e\u0627 \u0639\u064e\u0644\u0670\u0649 \u0642\u064e\u0648\u0652\u0645\u064d \u062d\u064e\u062a\u0651\u0670\u0649 \u064a\u064f\u063a\u064e\u064a\u0651\u0650\u0631\u064f\u0648\u0652\u0627 \u0645\u064e\u0627 \u0628\u0650\u0627\u064e\u0646\u0652\u0641\u064f\u0633\u0650\u0647\u0650\u0645\u0652\u06d9 \u0648\u064e\u0627\u064e\u0646\u0651\u064e \u0627\u0644\u0644\u0651\u0670\u0647\u064e \u0633\u064e\u0645\u0650\u064a\u0652\u0639\u064c \u0639\u064e\u0644\u0650\u064a\u0652\u0645\u064c\u06d9 ",
    "latin": "\u017b\u0101lika bi'annall\u0101ha lam yaku mugayyiran ni\u2018matan an\u2018amah\u0101 \u2018al\u0101 qaumin \u1e25att\u0101 yugayyir\u016b m\u0101 bi'anfusihim, wa annall\u0101ha sam\u012b\u2018un \u2018al\u012bm(un). ",
    "translation": "Yang demikian itu karena sesungguhnya Allah tidak akan mengubah suatu nikmat yang telah dianugerahkan-Nya kepada suatu kaum sehingga mereka mengubah apa yang ada pada diri mereka. Sesungguhnya Allah Maha Mendengar lagi Maha Mengetahui.",
    "no_footnote": null,
    "footnotes": null,
    "surah": {
        "id": 8,
        "arabic": " \u0627\u0644\u0627\u0646\u0641\u0627\u0644",
        "latin": "Al-Anf\u0101l",
        "transliteration": "Al-Anfal",
        "translation": "Rampasan Perang",
        "num_ayah": 75,
        "page": 177,
        "location": "Madaniyah"
    },
    "tafsir": {
        "wajiz": "Turunnya azab atas orang-orang kafir merupakan bukti keadilan Allah, sebab yang demikian itu, yakni turunnya azab, karena sesungguhnya Allah tidak akan mengubah suatu nikmat yang tampak pada penglihatan dan bisa dirasakan langsung, seperti rasa aman, kemakmuran, kesuburan, dan lain-lain, yang telah diberikan-Nya kepada suatu kaum, hingga kaum itu mengubah apa yang ada pada diri mereka sendiri menyangkut perubahan sikap mental dan perilaku, seperti dari peduli menjadi tidak peduli, adil menjadi tidak adil, berani berkorban menjadi serakah, dan lain-lain. Sungguh, Allah Maha Mendengar lagi Maha Mengetahui.",
        "tahlili": "Kejadian ini yaitu menyiksa orang-orang Quraisy adalah karena mereka mengingkari nikmat-nikmat Allah, ketika Allah mengutus seorang rasul dari kalangan mereka sendiri, yang membacakan ayat-ayat-Nya, lalu mereka mendustakan, bahkan mengusirnya dari negerinya, lalu memerangi terus-menerus. Allah menyiksa mereka disebabkan dosa-dosa mereka. Yang demikian ini membuktikan sunatullah yang telah berlaku sejak dahulu. Allah tidak mengubah suatu nikmat yang telah berlaku sejak dahulu. Allah tidak mengubah suatu nikmat yang telah dianugerahkan-Nya kepada suatu kaum, sehingga kaum itu mengubah apa yang ada pada diri mereka sendiri. Ayat ini mengandung isyarat, bahwa nikmat-nikmat pemberian Allah yang diberikan kepada umat atau perorangan, selalu dikaitkan kelangsungannya dengan akhlak dan amal mereka itu sendiri. Jika akhlak dan perbuatan mereka terpelihara baik, maka nikmat pemberian Allah itu pun tetap berada bersama mereka dan tidak akan dicabut. Allah tidak akan mencabutnya, tanpa kezaliman dan pelanggaran mereka. Akan tetapi, manakala mereka sudah mengubah nikmat-nikmat itu yang berbentuk akidah, akhlak, dan perbuatan baik, maka Allah akan mengubah keadaan mereka dan akan mencabut nikmat pemberian-Nya dari mereka sehingga yang kaya jadi miskin yang mulia jadi hina dan yang kuat jadi lemah. Dan bukanlah sekali-kali kebahagiaan umat itu dikaitkan dengan kekayaan atau jumlah anak yang banyak seperti disangka oleh sebagian besar kaum musyrikin yang diceritakan oleh Allah dengan firman-Nya:\n\u0648\u064e\u0642\u064e\u0627\u0644\u064f\u0648\u0652\u0627 \u0646\u064e\u062d\u0652\u0646\u064f \u0627\u064e\u0643\u0652\u062b\u064e\u0631\u064f \u0627\u064e\u0645\u0652\u0648\u064e\u0627\u0644\u064b\u0627 \u0648\u0651\u064e\u0627\u064e\u0648\u0652\u0644\u064e\u0627\u062f\u064b\u0627\u06d9 \u0648\u0651\u064e\u0645\u064e\u0627 \u0646\u064e\u062d\u0652\u0646\u064f \u0628\u0650\u0645\u064f\u0639\u064e\u0630\u0651\u064e\u0628\u0650\u064a\u0652\u0646\u064e\nDan mereka berkata, \u201dKami memiliki lebih banyak harta dan anak-anak (daripada kamu) dan kami tidak akan diazab.\u201d (Sab\u0101/34: 35)\n\nDemikian keluhuran suatu umat tidak dikaitkan dengan keturunannya atau keutamaan nenek moyangnya, seperti yang diakui oleh orang-orang Yahudi. Mereka tertipu dengan keangkuhannya bahwa mereka dijadikan Allah sebagai umat pilihan melebihi umat-umat yang lain, karena dikaitkan kepada kemuliaan Nabi Musa a.s. Allah Maha Mendengar lagi Maha Mengetahui apa yang diucapkan oleh orang-orang yang mendustakan rasul-rasul itu, Dia Maha Mengetahui apa yang mereka kerjakan, apa yang mereka tinggalkan dan pasti akan memberi balasan yang setimpal dengan perbuatannya.",
        "intro_surah": "Surah 8, al-Anf\u0101l terdiri dari 75 ayat. Menurut perhitungan para ulama Kufah, jumlah ayatnya ada 75; sedang perhitungan para ulama Hijaz ada 76, tetapi menurut perhitungan ulama Syam ayatnya ada 77. (1631 kata-kata, 5294 huruf) dan termasuk kelompok Madaniyah. (ada riwayat yang mengecualikan ayat 30 s/d 36 Ayat ini termasuk kelompok Makiyah. Dan ada pula riwayat lain, yang mengecualikan ayat 64, bahwa ayat ini termasuk ayat Makiyah) karena seluruh ayat-ayatnya diturunkan di Medinah.\nSurah ini dinamakan al-Anf\u0101l (berarti harta rampasan perang), karena kata al-Anf\u0101l terdapat pada permulaan Surah ini, atau karena persoalan yang menonjol dalam surah ini ialah harta rampasan perang.\n Surah ini dinamakan juga surah \u201cBadarul Kubra\u201d, karena diturunkan berkenaan dengan Perang Badar kubra, yang terjadi pada tahun kedua Hijrah. Perang ini sangat penting artinya. Karena menentukan jalan sejarah perkembangan Islam. Pada waktu itu umat Islam dengan kekuatan kecil, dapat mengalahkan kaum musyrikin yang berjumlah besar, dengan perlengkapan yang cukup. Umat Islam dalam peperangan ini memperoleh harta rampasan yang tidak sedikit.\nOleh sebab itu, timbul masalah bagaimana membagi harta rampasan perang itu. Maka Allah menurunkan ayat pertama dari Surah ini.\n  Selain hal tersebut di atas, pokok-pokok isinya adalah sebagai berikut:\n\n1. Keimanan:\nAllah selalu menyertai orang-orang yang beriman dan melindungi mereka; Allah yang menentukan hukum-hukum agama; Allah menjamin kemenangan umat yang beriman; Allah melimpahkan inayah-Nya kepada orang-orang yang bertawakal; Allah sendiri yang dapat mempersatukan hati orang-orang yang beriman; Allah mendasarkan hukum-Nya atas kepentingan manusia; Allah mempunyai barisan malaikat; merekalah yang menolong barisan kaum Muslimin dalam Perang Badar.\n\n2. Hukum-hukum:\n Aturan pembagian harta rampasan perang; kebolehan makan harta rampasan perang; larangan lari (mundur) dalam peperangan; hukum mengenai tawanan perang; kewajiban taat kepada pemimpin dalam perang; keharusan mengusahakan perdamaian; kewajiban mempersiapkan diri dengan segala alat perlengkapan perang; ketahanan mental; sabar dalam Islam; larangan khianat pada Allah dan Rasul, dan larangan mengkhianati perjanjian.\n\n3. Kisah-kisah:\nKeengganan beberapa orang Islam ikut Perang Badar, suasana kaum Muslimin pada waktu Perang Badar sebelum dan sesudahnya serta saat sedang berlangsungnya peperangan; keadaan Nabi Muhammad saw sebelum hijrah serta permusuhan kaum musyrikin kepadanya; tentang orang-orang Yahudi yang membatalkan perjanjian damai dengan Nabi Muhammad saw; kisah orang kafir baik dari musyrikin dan ahli kitab serta keburukan orang munafikin.\n\n4. Dan lain-lain:\nPengertian iman; tanda-tanda dan sifat-sifat orang beriman; Sunnatullah yang berlaku pada perorangan dan masyarakat.",
        "outro_surah": null,
        "munasabah_prev_surah": "Hubungan Surah al-A\u2018r\u0101f  dengan Surah al-Anf\u0101l, ialah Dalam Surah al-A\u2018r\u0101f Allah swt memberikan petunjuk bagi Rasulullah saw untuk membina rohani dan petunjuk-petunjuk dalam menghadapi umat, maka dalam Surah al-Anf\u0101l, diterangkan bahwa Nabi Muhammad saw telah berada di tengah-tengah umatnya membawa mereka ke jalan agama Allah swt.",
        "munasabah_prev_theme": "Pada ayat-ayat yang lalu Allah swt menerangkan tingkah laku orang-orang kafir Quraisy ketika keluar dari Mekah ke Badar dengan cara yang sombong dan congkak dan setelah Allah menerangkan pula tipuan setan kepada pengikutnya, maka pada ayat ini Allah menerangkan hal ihwal orang-orang kafir Quraisy ketika menghadapi sakaratulmaut dan azab yang mereka terima pada saat itu.",
        "theme_group": "KEBINASAAN SUATU KAUM\nAKIBAT PERBUATAN MEREKA SENDIRI",
        "kosakata": "Kosakata: Ni\u2019mah  \u0646\u0650\u0639\u0652\u0645\u064e\u0629  (al-Anf\u0101l/8: 52)\nKata ni\u2019mah merupakan ma\u1e63dar atau kata jadian dari kata na\u2019ima, yan\u2019amu-ni\u2019mah, yang memiliki akar makna senang, bahagia, dan baik. Kata na\u2019imar-rajulu berarti laki-laki itu senang. Kata an\u2019ama berarti memberi kesenangan dan kebahagiaan, atau dengan kata lain memberi anugerah. Kata na\u2019mah berarti kemewahan, seperti yang terdapat dalam al-Muzzammil/73: 11. Binatang  ternak  dalam  bahasa  Arab  disebut  na\u2019amun  dan  bentuk  jamaknya adalah An\u2018\u0101m, karena bagi masyarakat Arab binatang ternak merupakan nikmat materi yang paling besar. Namun terkadang kata na\u2019amun juga berarti binatang buruan, seperti yang disebutkan dalam Al-Qur\u2019an (Al-M\u0101\u2019idah/5: 1). Dari kata itu juga diambil kata ni\u2019ma yang berarti \u2018sebaik-baik\u2026\u2019 dan kata na\u2019am yang berarti jawaban \u2018ya\u2019.\nDi dalam Al-Qur\u2019an, kata An\u2018\u0101m disebut sebanyak 32 kali. Kata  ni\u2019ma disebut sebanyak 16 kali. Kata na\u2019am (ya) disebut sebanyak 4 kali. Dan kata-kata yang terambil dari kata ni\u2019mah yang berarti nikmat, kesenangan dan kebahagiaan disebut sebanyak 90 kali. ",
        "sabab_nuzul": null,
        "conclusion": null
    }
}