{
    "id": 1204,
    "surah_id": 8,
    "ayah": 44,
    "page": 182,
    "quarter_hizb": 19,
    "juz": 10,
    "manzil": 2,
    "arabic": "\u0648\u064e\u0627\u0650\u0630\u0652 \u064a\u064f\u0631\u0650\u064a\u0652\u0643\u064f\u0645\u064f\u0648\u0652\u0647\u064f\u0645\u0652 \u0627\u0650\u0630\u0650 \u0627\u0644\u0652\u062a\u064e\u0642\u064e\u064a\u0652\u062a\u064f\u0645\u0652 \u0641\u0650\u064a\u0652\u0653 \u0627\u064e\u0639\u0652\u064a\u064f\u0646\u0650\u0643\u064f\u0645\u0652 \u0642\u064e\u0644\u0650\u064a\u0652\u0644\u064b\u0627 \u0648\u0651\u064e\u064a\u064f\u0642\u064e\u0644\u0651\u0650\u0644\u064f\u0643\u064f\u0645\u0652 \u0641\u0650\u064a\u0652\u0653 \u0627\u064e\u0639\u0652\u064a\u064f\u0646\u0650\u0647\u0650\u0645\u0652 \u0644\u0650\u064a\u064e\u0642\u0652\u0636\u0650\u064a\u064e \u0627\u0644\u0644\u0651\u0670\u0647\u064f \u0627\u064e\u0645\u0652\u0631\u064b\u0627 \u0643\u064e\u0627\u0646\u064e \u0645\u064e\u0641\u0652\u0639\u064f\u0648\u0652\u0644\u064b\u0627 \u06d7\u0648\u064e\u0627\u0650\u0644\u064e\u0649 \u0627\u0644\u0644\u0651\u0670\u0647\u0650 \u062a\u064f\u0631\u0652\u062c\u064e\u0639\u064f \u0627\u0644\u0652\u0627\u064f\u0645\u064f\u0648\u0652\u0631\u064f \u08d6 ",
    "latin": "Wa i\u017c yur\u012bkum\u016bhum i\u017cil-taqaitum f\u012b a\u2018yunikum qal\u012blaw wa yuqallilukum f\u012b a\u2018yunihim liyaq\u1e0diyall\u0101hu amran k\u0101na maf\u2018\u016bl\u0101(n), wa ilall\u0101hi turja\u2018ul-um\u016br(u). ",
    "translation": "(Ingatlah) ketika Dia memperlihatkan mereka kepada kamu (orang-orang beriman), ketika kamu berjumpa dengan mereka (berjumlah) sedikit menurut penglihatan matamu dan Dia memperlihatkan kamu (berjumlah) sedikit dalam penglihatan mereka supaya Allah melaksanakan suatu urusan yang harus terjadi. Hanya kepada Allah segala urusan dikembalikan.",
    "no_footnote": null,
    "footnotes": null,
    "surah": {
        "id": 8,
        "arabic": " \u0627\u0644\u0627\u0646\u0641\u0627\u0644",
        "latin": "Al-Anf\u0101l",
        "transliteration": "Al-Anfal",
        "translation": "Rampasan Perang",
        "num_ayah": 75,
        "page": 177,
        "location": "Madaniyah"
    },
    "tafsir": {
        "wajiz": "Setelah menjelaskan apa yang dilihat oleh Nabi dalam mimpi, maka pada ayat ini dijelaskan apa yang dilihat kaum muslim dengan mata kepala sendiri di medan perang. Ingatlah ketika Allah memperlihatkan mereka, orang-orang kafir, kepada kalian ketika kalian berjumpa dengan mereka seakan-akan berjumlah sedikit menurut penglihatan mata kalian di medan perang; dan kalian, wahai orang-orang mukmin, diperlihatkan-Nya seakan-akan berjumlah sedikit menurut penglihatan mereka sebelum bertemu di medan pertempuran. Demikian itu karena Allah berkehendak melaksanakan suatu urusan yang harus dilaksanakan. Hanya kepada Allah segala urusan dikembalikan, sehingga tidak ada satu pun yang terlepas dari kehendak-Nya. Peristiwa Perang Badar seharusnya menguatkan mental dan keyakinan setiap orang mukmin bahwa Allah pasti menolong hamba-Nya yang memiliki keimanan yang benar, meski pertolongan itu datang dengan cara yang unik dan tidak masuk akal.",
        "tahlili": "Dalam ayat ini Allah memerintahkan Nabi agar mensyukuri nikmat-Nya, ketika Dia menampakkan musuh dalam jumlah yang sedikit pada penglihatan Nabi dan para sahabat, demikian pula Allah menampakkan jumlah tentara kaum Muslimin sedikit pada penglihatan mata musuhnya, agar kedua belah pihak maju perang dengan harapan dapat mencapai kemenangan. Kaum Muslimin berperang dengan penuh semangat karena hatinya penuh dengan keimanan dan kepercayaan atas janji Allah bahwa mereka akan mencapai kemenangan dan akan dibantu oleh malaikat. Orang-orang kafir maju ke depan karena terdorong oleh perasaan sombong dan menipu diri sendiri, sehingga Abu Jahal berkata, \u201cJumlah tentara Muhammad sedikit, cukup diberi makan dengan seekor unta saja.\u201d Karena masing-masing golongan mempunyai harapan untuk menang, maka terjadilah pertempuran sengit yang berakhir sesuai dengan ketentuan Allah yaitu kemenangan di pihak kaum Muslimin.",
        "intro_surah": "Surah 8, al-Anf\u0101l terdiri dari 75 ayat. Menurut perhitungan para ulama Kufah, jumlah ayatnya ada 75; sedang perhitungan para ulama Hijaz ada 76, tetapi menurut perhitungan ulama Syam ayatnya ada 77. (1631 kata-kata, 5294 huruf) dan termasuk kelompok Madaniyah. (ada riwayat yang mengecualikan ayat 30 s/d 36 Ayat ini termasuk kelompok Makiyah. Dan ada pula riwayat lain, yang mengecualikan ayat 64, bahwa ayat ini termasuk ayat Makiyah) karena seluruh ayat-ayatnya diturunkan di Medinah.\nSurah ini dinamakan al-Anf\u0101l (berarti harta rampasan perang), karena kata al-Anf\u0101l terdapat pada permulaan Surah ini, atau karena persoalan yang menonjol dalam surah ini ialah harta rampasan perang.\n Surah ini dinamakan juga surah \u201cBadarul Kubra\u201d, karena diturunkan berkenaan dengan Perang Badar kubra, yang terjadi pada tahun kedua Hijrah. Perang ini sangat penting artinya. Karena menentukan jalan sejarah perkembangan Islam. Pada waktu itu umat Islam dengan kekuatan kecil, dapat mengalahkan kaum musyrikin yang berjumlah besar, dengan perlengkapan yang cukup. Umat Islam dalam peperangan ini memperoleh harta rampasan yang tidak sedikit.\nOleh sebab itu, timbul masalah bagaimana membagi harta rampasan perang itu. Maka Allah menurunkan ayat pertama dari Surah ini.\n  Selain hal tersebut di atas, pokok-pokok isinya adalah sebagai berikut:\n\n1. Keimanan:\nAllah selalu menyertai orang-orang yang beriman dan melindungi mereka; Allah yang menentukan hukum-hukum agama; Allah menjamin kemenangan umat yang beriman; Allah melimpahkan inayah-Nya kepada orang-orang yang bertawakal; Allah sendiri yang dapat mempersatukan hati orang-orang yang beriman; Allah mendasarkan hukum-Nya atas kepentingan manusia; Allah mempunyai barisan malaikat; merekalah yang menolong barisan kaum Muslimin dalam Perang Badar.\n\n2. Hukum-hukum:\n Aturan pembagian harta rampasan perang; kebolehan makan harta rampasan perang; larangan lari (mundur) dalam peperangan; hukum mengenai tawanan perang; kewajiban taat kepada pemimpin dalam perang; keharusan mengusahakan perdamaian; kewajiban mempersiapkan diri dengan segala alat perlengkapan perang; ketahanan mental; sabar dalam Islam; larangan khianat pada Allah dan Rasul, dan larangan mengkhianati perjanjian.\n\n3. Kisah-kisah:\nKeengganan beberapa orang Islam ikut Perang Badar, suasana kaum Muslimin pada waktu Perang Badar sebelum dan sesudahnya serta saat sedang berlangsungnya peperangan; keadaan Nabi Muhammad saw sebelum hijrah serta permusuhan kaum musyrikin kepadanya; tentang orang-orang Yahudi yang membatalkan perjanjian damai dengan Nabi Muhammad saw; kisah orang kafir baik dari musyrikin dan ahli kitab serta keburukan orang munafikin.\n\n4. Dan lain-lain:\nPengertian iman; tanda-tanda dan sifat-sifat orang beriman; Sunnatullah yang berlaku pada perorangan dan masyarakat.",
        "outro_surah": null,
        "munasabah_prev_surah": "Hubungan Surah al-A\u2018r\u0101f  dengan Surah al-Anf\u0101l, ialah Dalam Surah al-A\u2018r\u0101f Allah swt memberikan petunjuk bagi Rasulullah saw untuk membina rohani dan petunjuk-petunjuk dalam menghadapi umat, maka dalam Surah al-Anf\u0101l, diterangkan bahwa Nabi Muhammad saw telah berada di tengah-tengah umatnya membawa mereka ke jalan agama Allah swt.",
        "munasabah_prev_theme": "Pada ayat yang lalu dijelaskan cara membagi harta rampasan Perang Badar sesuai syariat Islam, pada ayat ini dijelaskan tentang posisi tentara Muslim yang strategis dan pertolongan Allah agar mereka menang dalam Perang Badar.",
        "theme_group": "\nPERTOLONGAN DAN RAHMAT ALLAH KEPADA \nKAUM MUSLIMIN ALAM PEPERANGAN BADAR",
        "kosakata": "Kosakata: Al-\u2019Udwah  \u0627\u0652\u0644\u0639\u064f\u062f\u0652\u0648\u064e\u0629 (al-Anf\u0101l/8: 42)\nKata \u2018udwah adalah bentuk ma\u1e63dar atau kata jadian dari \u2018ad\u0101-ya\u2019d\u0101-\u2019adwan-\u2019udwah. Akar makna kata ini adalah taj\u0101wuz wa mun\u0101fatil ilti\u2019\u0101m (melewati batas dan menghilangkan keserasian). Bila ia mengambil bentuk \u201cberjalan\u201d, maka arti kata al-\u2019adwu adalah melangkahi. Bila ia mengambil bentuk \u201cperasaan hati\u201d, maka arti kata ini adalah permusuhan. Dari kata ini diambil kalimat dalam hadis l\u0101 \u2018adw\u0101, yang artinya: tidak ada penyakit yang menular kepada orang lain dengan sendirinya, tapi semuanya atas izin Allah.\n\u2018Udwah dalam ayat yang sedang ditafsirkan ini memiliki arti tepi lembah. Tampaknya arti ini memiliki keserasian dengan akar maknanya, yaitu mengandung kesan dua sisi yang berseberangan. ",
        "sabab_nuzul": null,
        "conclusion": "1. \tKaum Muslimin memilih berada di tempat yang strategis untuk melangsungkan peperangan, sehingga mudah memperoleh kemenangan.\n2. \tPertempuran sering terjadi tanpa perencanaan dari pihak-pihak yang berhadapan, untuk membuktikan adanya kehendak Allah swt,  Dia-lah yang menentukan.\n3. \tPerang Badar adalah perang yang pertama kali terjadi antara kaum Muslimin dan kaum musyrikin yang dimenangkan oleh kaum Muslimin, dan menjadi pemisah antara yang hak dengan yang batil."
    }
}