{
    "id": 1161,
    "surah_id": 8,
    "ayah": 1,
    "page": 177,
    "quarter_hizb": 18.5,
    "juz": 9,
    "manzil": 2,
    "arabic": "\u064a\u064e\u0633\u0652\u0640\u0654\u064e\u0644\u064f\u0648\u0652\u0646\u064e\u0643\u064e \u0639\u064e\u0646\u0650 \u0627\u0644\u0652\u0627\u064e\u0646\u0652\u0641\u064e\u0627\u0644\u0650\u06d7 \u0642\u064f\u0644\u0650 \u0627\u0644\u0652\u0627\u064e\u0646\u0652\u0641\u064e\u0627\u0644\u064f \u0644\u0650\u0644\u0651\u0670\u0647\u0650 \u0648\u064e\u0627\u0644\u0631\u0651\u064e\u0633\u064f\u0648\u0652\u0644\u0650\u06da \u0641\u064e\u0627\u062a\u0651\u064e\u0642\u064f\u0648\u0627 \u0627\u0644\u0644\u0651\u0670\u0647\u064e \u0648\u064e\u0627\u064e\u0635\u0652\u0644\u0650\u062d\u064f\u0648\u0652\u0627 \u0630\u064e\u0627\u062a\u064e \u0628\u064e\u064a\u0652\u0646\u0650\u0643\u064f\u0645\u0652 \u06d6\u0648\u064e\u0627\u064e\u0637\u0650\u064a\u0652\u0639\u064f\u0648\u0627 \u0627\u0644\u0644\u0651\u0670\u0647\u064e \u0648\u064e\u0631\u064e\u0633\u064f\u0648\u0652\u0644\u064e\u0647\u0657\u0653 \u0627\u0650\u0646\u0652 \u0643\u064f\u0646\u0652\u062a\u064f\u0645\u0652 \u0645\u0651\u064f\u0624\u0652\u0645\u0650\u0646\u0650\u064a\u0652\u0646\u064e",
    "latin": "Yas'al\u016bnaka \u2018anil-anf\u0101l(i), qulil-anf\u0101lu lill\u0101hi war-ras\u016bl(i), fattaqull\u0101ha wa a\u1e63li\u1e25\u016b \u017c\u0101ta bainikum, wa a\u1e6d\u012b\u2018ull\u0101ha wa ras\u016blah\u016b in kuntum mu'min\u012bn(a).",
    "translation": "Mereka bertanya kepadamu (Nabi Muhammad) tentang (pembagian) harta rampasan perang. Katakanlah, \u201cHarta rampasan perang itu milik Allah dan Rasul (menurut ketentuan Allah dan Rasul-Nya). Maka, bertakwalah kepada Allah dan perbaikilah hubungan di antara sesamamu dan taatlah kepada Allah dan Rasul-Nya jika kamu orang-orang mukmin.\u201d",
    "no_footnote": null,
    "footnotes": null,
    "surah": {
        "id": 8,
        "arabic": " \u0627\u0644\u0627\u0646\u0641\u0627\u0644",
        "latin": "Al-Anf\u0101l",
        "transliteration": "Al-Anfal",
        "translation": "Rampasan Perang",
        "num_ayah": 75,
        "page": 177,
        "location": "Madaniyah"
    },
    "tafsir": {
        "wajiz": "Ketika terjadi Perang Badar Besar, antara kaum mukmin dan pasukan musyrik, kemenangan yang gemilang ada di pihak orang-orang mukmin. Harta rampasan pun cukup banyak melimpah, sehingga sempat mengundang perselisihan menyangkut persoalan pembagiannya. Mereka para sahabat menanyakan kepadamu, wahai Nabi Muhammad, tentang bagaimana cara pembagian harta rampasan perang Badar. Sebagai jawaban, katakanlah kepada mereka, \u201cHarta rampasan perang itu adalah milik Allah dan Rasul, sehingga Rasul yang akan membagikannya menurut ketentuan Allah. Janganlah kalian berbeda pendapat menyangkut persoalan harta itu, cukuplah kalian menjadikan rasa takut dan taat pada Allah sebagai simbol kebanggaan kalian, maka bertakwalah kepada Allah. Hindari perselisihan yang akan terjadi akibat pembagian harta rampasan dan perbaikilah hubungan di antara sesamamu, serta jadikanlah rasa cinta kasih dan keadilan sebagai asas tali persaudaraan. Dan taatlah kepada Allah dalam segala perintah dan larangan-Nya dan demikian juga kepada Rasul-Nya jika memang kamu adalah orang-orang yang beriman yang telah mantap keimanan dalam hati.\"",
        "tahlili": "Ayat ini membicarakan persoalan harta rampasan perang yang diperoleh kaum Muslimin setelah usainya Perang Badar Kubra. Perang ini berakhir dengan kemenangan kaum Muslimin. Mereka memperoleh harta rampasan perang yang banyak.\nAl-Anf\u0101l (al-Ganimah) ialah segala macam harta yang diperoleh kaum Muslimin dari musuh dalam medan pertempuran. Harta rampasan perang ini dinamakan al-Anf\u0101l (bentuk jamak dari Nafal) karena harta-harta ini menjadi harta kekayaan kaum Muslimin.\nSetelah kaum Muslimin memperoleh harta rampasan perang itu, terjadilah perselisihan pendapat di antara mereka yang ikut berperang. Perselisihan itu mengenai cara-cara pembagiannya, dan pihak-pihak manakah yang berhak mendapatkan. Pihak pemuda ataukah pihak orang-orang tua, pihak-pihak orang Muhajirin atau pihak An\u1e63ar, ataukah pula masing-masing pihak sama-sama mendapat bagian. Persoalan itu dibawa kepada Rasulullah saw agar mendapat keputusan yang adil.\nSebagai jawaban atas pertanyan kaum Muslimin itu, Allah memerintahkan kepada Rasulullah saw untuk menetapkan hukumnya, bahwa harta rampasan perang itu adalah hak Allah dan Rasul-Nya. Oleh sebab itu yang menentukan pembagian harta rampasan itu bukan kelompok pemuda atau kelompok orang tua, bukan orang Muhajirin atau orang An\u1e63ar, bukan pula tim penyerang, tim pelindung, atau tim pengumpul harta rampasan perang, tetapi Allah-lah yang menentukan dengan wahyu yang diturunkan kepada Rasul-Nya. Rasulullah membagi harta rampasan perang itu secara merata di antara kaum Muslimin.\nDalam ketentuan ini terkandung pelajaran yang tinggi bagi kaum Muslimin agar mereka tidak beranggapan, bahwa harta rampasan perang yang mereka peroleh itu, merupakan imbalan jasa peperangan, tetapi semata-mata mereka peroleh karena karunia Allah. Kalau mereka beranggapan bahwa harta rampasan perang itu mereka peroleh sebagai imbalan jasa, maka perjuangan mereka tidak murni karena Allah dan mengikuti perintah Rasul-Nya. Ayat ini memberi dorongan pula kepada kaum Muslimin, agar mereka dalam menghadapi  tanggung jawab yang berat, hendaklah mereka hadapi secara  bersama-sama, dan apabila mendapat kenikmatan, agar dirasakan bersama-sama pula.\nMengenai pembagian harta rampasan perang secara rinci akan diuraikan penafsirannya pada ayat 41 surah ini. Allah memerintahkan pula kepada Rasulullah saw agar kaum Muslimin bertakwa, menjauhi perselisihan dan persengketaan yang menimbulkan kesusahan dan menjerumuskan mereka kepada kemurkaan Allah. Takwa diperlukan dalam setiap keadaan, terlebih dalam perang dan pembagian harta rampasan perang, akibat perselisihan dapat dirasakan, yaitu terganggunya persatuan dan timbulnya perpecahan yang mengakibatkan kekalahan.\nSesudah itu Allah memerintahkan agar kaum Muslimin memperbaiki hubungan sesama muslim, yaitu menjalin cinta kasih dan memperkokoh kesatuan pendapat. Hal inilah yang dapat mengikat mereka dalam kesatuan gerak dalam mencapai cita-cita bersama, yaitu mempertinggi kalimat Allah. Persatuan dan kesatuan ini menjadi dasar kekuatan umat dalam segala bidang. Itulah sebabnya, memperbaiki hubungan di antara sesama muslim diwajibkan, agar kaum Muslimin menyadari akan pentingnya menghindari bahaya yang mengancam mereka, bahaya keretakan yang menggoyahkan kesatuan umat. Hal ini jelas tergambar pada saat terjadinya perselisihan yang terjadi di antara kelompok-kelompok karena yang satu merasa lebih berjasa dari kelompok yang lain. Demikian pula hal ini terjadi karena mereka melupakan tugas mereka yang penting, yaitu bahwa tugas mempertahankan kebenaran itu adalah tugas bersama.\nPada akhir ayat, Allah menegaskan agar kaum Muslimin menaati Allah dan Rasul, dalam hal ini menaati ketentuan perang, yang disampaikan kepada Rasulullah saw dengan perantaraan wahyu. Ketentuan Allah wajib ditaati, Dia adalah Tuhan seru sekalian alam dan Yang Mahakuasa, sedang taat kepada Rasul, dalam urusan agama, berarti taat kepada Allah karena dialah yang menyampaikan agama itu dan memberikan penjelasan yang tertuang dalam perkataan, perbuatan serta keputusannya.\nPerintah ini ditegaskan pada saat kaum Muslimin dalam keadaan bersengketa mengenai pembagian harta rampasan perang, untuk mengingatkan mereka bahwa dalam saat-saat bagaimanapun juga kaum Muslimin harus tetap menaati Allah dan Rasul-Nya, agar mereka tidak menimbulkan perpecahan karena ambisi golongan dan kemauan hawa nafsu, yang biasanya menjerumuskan mereka kepada kehancuran.\nDi dalam ayat ini terdapat beberapa unsur penting yang dapat memelihara kesatuan umat yaitu; takwa, memperbaiki hubungan sesama muslim, dan menaati Allah dan Rasul di dalam setiap keadaan.",
        "intro_surah": "Surah 8, al-Anf\u0101l terdiri dari 75 ayat. Menurut perhitungan para ulama Kufah, jumlah ayatnya ada 75; sedang perhitungan para ulama Hijaz ada 76, tetapi menurut perhitungan ulama Syam ayatnya ada 77. (1631 kata-kata, 5294 huruf) dan termasuk kelompok Madaniyah. (ada riwayat yang mengecualikan ayat 30 s/d 36 Ayat ini termasuk kelompok Makiyah. Dan ada pula riwayat lain, yang mengecualikan ayat 64, bahwa ayat ini termasuk ayat Makiyah) karena seluruh ayat-ayatnya diturunkan di Medinah.\nSurah ini dinamakan al-Anf\u0101l (berarti harta rampasan perang), karena kata al-Anf\u0101l terdapat pada permulaan Surah ini, atau karena persoalan yang menonjol dalam surah ini ialah harta rampasan perang.\n Surah ini dinamakan juga surah \u201cBadarul Kubra\u201d, karena diturunkan berkenaan dengan Perang Badar kubra, yang terjadi pada tahun kedua Hijrah. Perang ini sangat penting artinya. Karena menentukan jalan sejarah perkembangan Islam. Pada waktu itu umat Islam dengan kekuatan kecil, dapat mengalahkan kaum musyrikin yang berjumlah besar, dengan perlengkapan yang cukup. Umat Islam dalam peperangan ini memperoleh harta rampasan yang tidak sedikit.\nOleh sebab itu, timbul masalah bagaimana membagi harta rampasan perang itu. Maka Allah menurunkan ayat pertama dari Surah ini.\n  Selain hal tersebut di atas, pokok-pokok isinya adalah sebagai berikut:\n\n1. Keimanan:\nAllah selalu menyertai orang-orang yang beriman dan melindungi mereka; Allah yang menentukan hukum-hukum agama; Allah menjamin kemenangan umat yang beriman; Allah melimpahkan inayah-Nya kepada orang-orang yang bertawakal; Allah sendiri yang dapat mempersatukan hati orang-orang yang beriman; Allah mendasarkan hukum-Nya atas kepentingan manusia; Allah mempunyai barisan malaikat; merekalah yang menolong barisan kaum Muslimin dalam Perang Badar.\n\n2. Hukum-hukum:\n Aturan pembagian harta rampasan perang; kebolehan makan harta rampasan perang; larangan lari (mundur) dalam peperangan; hukum mengenai tawanan perang; kewajiban taat kepada pemimpin dalam perang; keharusan mengusahakan perdamaian; kewajiban mempersiapkan diri dengan segala alat perlengkapan perang; ketahanan mental; sabar dalam Islam; larangan khianat pada Allah dan Rasul, dan larangan mengkhianati perjanjian.\n\n3. Kisah-kisah:\nKeengganan beberapa orang Islam ikut Perang Badar, suasana kaum Muslimin pada waktu Perang Badar sebelum dan sesudahnya serta saat sedang berlangsungnya peperangan; keadaan Nabi Muhammad saw sebelum hijrah serta permusuhan kaum musyrikin kepadanya; tentang orang-orang Yahudi yang membatalkan perjanjian damai dengan Nabi Muhammad saw; kisah orang kafir baik dari musyrikin dan ahli kitab serta keburukan orang munafikin.\n\n4. Dan lain-lain:\nPengertian iman; tanda-tanda dan sifat-sifat orang beriman; Sunnatullah yang berlaku pada perorangan dan masyarakat.",
        "outro_surah": null,
        "munasabah_prev_surah": "Hubungan Surah al-A\u2018r\u0101f  dengan Surah al-Anf\u0101l, ialah Dalam Surah al-A\u2018r\u0101f Allah swt memberikan petunjuk bagi Rasulullah saw untuk membina rohani dan petunjuk-petunjuk dalam menghadapi umat, maka dalam Surah al-Anf\u0101l, diterangkan bahwa Nabi Muhammad saw telah berada di tengah-tengah umatnya membawa mereka ke jalan agama Allah swt.",
        "munasabah_prev_theme": "Dalam surah al-A\u2018r\u0101f Allah swt menjelaskan keadaan beberapa orang Rasul pada waktu menghadapi kaumnya; sedang dalam Surah ini Allah swt menjelaskan keadaan Nabi Muhammad saw, dalam menghadapi umatnya. Dalam surah yang lalu, Allah swt menjelaskan permusuhan yang terjadi antara Nabi Adam dan Iblis di surga, yang dilanjutkan permusuhan yang terjadi antara Bani Adam, yaitu orang-orang yang menerima petunjuk Allah swt dan orang-orang yang mengingkarinya. Kemudian pada permulaan surah ini, Allah swt menjelaskan kejadian Perang Badar Kubra yang terjadi antara kedua golongan tersebut.",
        "theme_group": "CARA PEMBAGIAN RAMPASAN PERANG",
        "kosakata": "Kosakata: A\u1e63li\u1e25\u016b \u0623\u064e\u0635\u0652\u0644\u0650\u062d\u064f\u0648\u0652\u0627 (al-Anf\u0101l/8: 1)\nKata a\u1e63li\u1e25\u016b terambil dari kata a\u1e63la\u1e25a-yu\u1e63li\u1e25u-i\u1e63l\u0101\u1e25an, yang artinya membenahi sesuatu yang rusak, atau meningkatkan nilai dan mutu sesuatu. Akar kata ini adalah \u1e63al\u0101h yang berarti baik atau kepatutan. Kata \u1e63ulh yang berarti perjanjian damai. Di dalam Al-Qur\u2019an, kata yang terambil dari kata i\u1e63l\u0101h terdapat pada 27 tempat. Sebagian besarnya memiliki arti membenahi atau memperbaiki. Namun ada juga yang berarti memperlakukan dengan baik atau dengan patut. Di antaranya terdapat dalam surah Al-Baqarah ayat 220.",
        "sabab_nuzul": "Perselisihan kaum Muslimin tentang harta rampasan perang, yang menjadi latar belakang turunnya ayat ini diriwayatkan Ubadah bin \u1e62amit, katanya, \u201cKami pergi bersama-sama Rasulullah, dan saya turut menghadiri Perang Badar. Orang-orang pun telah berhadapan muka satu dengan yang lain. Maka Allah telah menghancurkan musuh-musuhnya. Kemudian satu kelompok mengejar sambil menyerang dan menggempur musuh, dan satu kelompok menghadapi barisan untuk menghimpun mereka, dan sekelompok lagi melindungi Rasulullah saw agar musuh tidak menyerang diri beliau secara tiba-tiba, (peristiwa ini berlangsung) hingga malam tiba dan orang-orang telah bergabung kembali satu dengan yang lain. Orang-orang yang bertugas mengumpulkan harta rampasan perang berkata, \u201cKamilah yang merampas dan mengumpulkannya maka tak ada seorangpun yang mendapat bagian selain kami. Sedang orang-orang yang maju mengejar musuh berkata, \u201dKamu tidak lebih berhak untuk mendapatkannya dari pada kami. Kamilah yang merampas dan mengumpulkannya maka tak ada seorangpun yang mendapat bagian selain kami. Sedang orang-orang yang maju mengejar musuh berkata, \u201cKamu tidak lebih berhak untuk mendapatkannya dari pada kami. Kamilah yang merampas harta rampasan perang itu dan kamilah yang menyerang mereka.\u201d Sedang orang-orang yang melindungi Rasulullah, berkata, \u201cKamu tiadalah lebih berhak untuk mendapatkannya dari pada kami, Kamilah yang melindungi Rasulullah, sedang kami khawatir kalau-kalau musuh menyerang beliau, kami sibuk melindungi beliau.\u201d Maka turunlah ayat ini. Setelah itu Rasulullah saw membagi harta rampasan itu di antara kelompok kaum Muslimin.\u201d (Riwayat A\u1e25mad dan al-Bukh\u0101r\u012b dari Ubadah bin \u1e62amit)",
        "conclusion": "1. \tKetentuan tentang pembagian harta rampasan perang adalah hak Allah dan Rasul-Nya.\n2. \tWajib atas kaum Muslimin menjalankan keputusan Allah dan Rasul-Nya dalam setiap urusan.\n3. \tKetakwaan, berbuat baik di antara sesama muslim, dan menaati Allah dan Rasul-Nya adalah tanda-tanda orang mukmin yang sempurna."
    }
}