{
    "id": 1185,
    "surah_id": 8,
    "ayah": 25,
    "page": 179,
    "quarter_hizb": 18.75,
    "juz": 9,
    "manzil": 2,
    "arabic": "\u0648\u064e\u0627\u062a\u0651\u064e\u0642\u064f\u0648\u0652\u0627 \u0641\u0650\u062a\u0652\u0646\u064e\u0629\u064b \u0644\u0651\u064e\u0627 \u062a\u064f\u0635\u0650\u064a\u0652\u0628\u064e\u0646\u0651\u064e \u0627\u0644\u0651\u064e\u0630\u0650\u064a\u0652\u0646\u064e \u0638\u064e\u0644\u064e\u0645\u064f\u0648\u0652\u0627 \u0645\u0650\u0646\u0652\u0643\u064f\u0645\u0652 \u062e\u064e\u0627\u06e4\u0635\u0651\u064e\u0629\u064b \u06da\u0648\u064e\u0627\u0639\u0652\u0644\u064e\u0645\u064f\u0648\u0652\u0653\u0627 \u0627\u064e\u0646\u0651\u064e \u0627\u0644\u0644\u0651\u0670\u0647\u064e \u0634\u064e\u062f\u0650\u064a\u0652\u062f\u064f \u0627\u0644\u0652\u0639\u0650\u0642\u064e\u0627\u0628\u0650",
    "latin": "Wattaq\u016b fitnatal l\u0101 tu\u1e63\u012bbannal-la\u017c\u012bna \u1e93alam\u016b minkum kh\u0101\u1e63\u1e63ah(tan), wa\u2018lam\u016b annall\u0101ha syad\u012bdul-\u2018iq\u0101b(i).",
    "translation": "Peliharalah dirimu dari siksaan yang tidak hanya menimpa orang-orang yang zalim saja di antara kamu. Ketahuilah bahwa Allah Maha Keras hukuman-Nya.",
    "no_footnote": null,
    "footnotes": null,
    "surah": {
        "id": 8,
        "arabic": " \u0627\u0644\u0627\u0646\u0641\u0627\u0644",
        "latin": "Al-Anf\u0101l",
        "transliteration": "Al-Anfal",
        "translation": "Rampasan Perang",
        "num_ayah": 75,
        "page": 177,
        "location": "Madaniyah"
    },
    "tafsir": {
        "wajiz": "Dan di samping kamu berkewajiban memenuhi panggilan Allah dan Rasul-Nya, peliharalah dirimu dari siksaan yang ketika datang sekali-kali tidak hanya menimpa secara khusus orang-orang yang zalim saja, yakni yang melanggar dan enggan memperkenankan seruan Rasul, di antara kamu, tetapi juga kepada mereka yang membiarkan kemungkaran merajalela. Lindungilah diri kalian dari dosa-dosa besar yang merusak tatanan masyarakat. Jauhilah sikap enggan berjihad di jalan Allah, perpecahan dan rasa malas melaksanakan kewajiban amar makruf nahi mungkar. Karena, akibat buruk dosa itu akan menimpa semua orang, tidak khusus hanya orang yang berbuat kejahatan saja. Ketahuilah bahwa Allah sangat keras siksa-Nya.",
        "tahlili": "Allah menyerukan kepada orang-orang beriman, agar memelihara diri mereka dari siksaan, yang tidak hanya khusus menimpa orang-orang zalim itu saja di antara orang-orang beriman. Maksudnya ialah apabila di dalam suatu kaum perbuatan maksiat telah merata maka Allah akan menyiksa mereka itu secara keseluruhan. Siksaan itu tidak hanya bagi orang yang melakukan kemaksiatan itu saja, akan tetapi siksaan itu akan menimpa mereka secara merata tanpa pilih kasih, meskipun di dalamnya terdapat juga orang-orang yang saleh yang berada di antara mereka itu.\n      Rasulullah saw bersabda:\n\u0645\u064e\u0627\u0645\u0650\u0646\u0652 \u0642\u064e\u0648\u0652\u0645\u064d \u064a\u064e\u0639\u0652\u0645\u064e\u0644\u064f \u0628\u0650\u0647\u0650\u0645\u0652 \u0628\u0650\u0627\u0644\u0652\u0645\u064e\u0639\u064e\u0627\u0635\u0650\u064a\u0652 \u0647\u064f\u0645\u0652 \u0623\u064e\u063a\u064e\u0631\u0651\u064f \u0648\u064e\u0623\u064e\u0643\u0652\u062b\u064e\u0631\u064f \u0645\u0650\u0645\u0651\u064e\u0646\u0652 \u0644\u0627\u064e \u064a\u064e\u0639\u0652\u0645\u064e\u0644\u064f\u0648\u0652\u0646\u064e \u062b\u064f\u0645\u0651\u064e \u0644\u064e\u0645\u0652 \u064a\u064f\u063a\u064e\u064a\u0651\u0650\u0631\u064f\u0648\u0652\u0647\u064f \u0625\u0650\u0644\u0627\u0651\u064e \u0639\u064e\u0645\u0651\u064e\u0647\u064f\u0645\u064f \u0627\u0644\u0644\u0651\u0670\u0647\u064f \u0628\u0650\u0639\u0650\u0642\u064e\u0627\u0628\u064d (\u0631\u0648\u0627\u0647 \u0623\u062d\u0645\u062f \u0639\u0646 \u062c\u0631\u064a\u0631)\n\u201cTidak ada suatu kaum yang sebagian besar orang-orangnya lebih terpedaya melakukan kemaksiatan dari yang tidak melakukan, kemudian mereka tidak mau mengubahnya selain Allah akan menyiksa mereka dengan siksaan yang merata.\u201d (Riwayat A\u1e25mad dari Jar\u012br)\n\n      Oleh sebab itulah di dalam masyarakat ada institusi yang mengurus kemaslahatan dan mengurus amar ma\u2019ruf dan nahi mungkar. Lembaga ini hendaknya bertugas meneliti kemaksiatan yang timbul dalam masyarakat, serta berusaha pula untuk mencari cara-cara pencegahannya. Juga lembaga ini berusaha untuk menggiatkan masyarakat melakukan segala yang diperintahkan oleh agama dan menghentikan segala sesuatu yang dilarang. Apabila kemaksiatan itu telah merata, dan masyarakat telah melupakan agama, maka bencana yang akan menimpa masyarakat itu tidak hanya akan menimpa suatu kelompok atas golongan tertentu saja, tetapi bencana itu akan dirasakan oleh anggota masyarakat, secara keseluruhan dan merata.\n      Di akhir ayat ini Allah memperingatkan orang-orang mukmin agar mereka itu mengetahui bahwa Allah amat pedih siksaan-Nya. Siksaan Allah ditimpakan atas siapa saja yang melanggar hukum-Nya. Ancaman Tuhan yang sangat keras ini akan berlaku apabila kejahatan itu telah merajalela dan merata di segenap anggota masyarakat itu tanpa pandang bulu. Sedangkan ancaman-ancamannya di akhirat ditimpakan kepada orang-orang, yang melakukannya sesuai dengan berat ringannya perbuatan yang dilakukan oleh orang itu.",
        "intro_surah": "Surah 8, al-Anf\u0101l terdiri dari 75 ayat. Menurut perhitungan para ulama Kufah, jumlah ayatnya ada 75; sedang perhitungan para ulama Hijaz ada 76, tetapi menurut perhitungan ulama Syam ayatnya ada 77. (1631 kata-kata, 5294 huruf) dan termasuk kelompok Madaniyah. (ada riwayat yang mengecualikan ayat 30 s/d 36 Ayat ini termasuk kelompok Makiyah. Dan ada pula riwayat lain, yang mengecualikan ayat 64, bahwa ayat ini termasuk ayat Makiyah) karena seluruh ayat-ayatnya diturunkan di Medinah.\nSurah ini dinamakan al-Anf\u0101l (berarti harta rampasan perang), karena kata al-Anf\u0101l terdapat pada permulaan Surah ini, atau karena persoalan yang menonjol dalam surah ini ialah harta rampasan perang.\n Surah ini dinamakan juga surah \u201cBadarul Kubra\u201d, karena diturunkan berkenaan dengan Perang Badar kubra, yang terjadi pada tahun kedua Hijrah. Perang ini sangat penting artinya. Karena menentukan jalan sejarah perkembangan Islam. Pada waktu itu umat Islam dengan kekuatan kecil, dapat mengalahkan kaum musyrikin yang berjumlah besar, dengan perlengkapan yang cukup. Umat Islam dalam peperangan ini memperoleh harta rampasan yang tidak sedikit.\nOleh sebab itu, timbul masalah bagaimana membagi harta rampasan perang itu. Maka Allah menurunkan ayat pertama dari Surah ini.\n  Selain hal tersebut di atas, pokok-pokok isinya adalah sebagai berikut:\n\n1. Keimanan:\nAllah selalu menyertai orang-orang yang beriman dan melindungi mereka; Allah yang menentukan hukum-hukum agama; Allah menjamin kemenangan umat yang beriman; Allah melimpahkan inayah-Nya kepada orang-orang yang bertawakal; Allah sendiri yang dapat mempersatukan hati orang-orang yang beriman; Allah mendasarkan hukum-Nya atas kepentingan manusia; Allah mempunyai barisan malaikat; merekalah yang menolong barisan kaum Muslimin dalam Perang Badar.\n\n2. Hukum-hukum:\n Aturan pembagian harta rampasan perang; kebolehan makan harta rampasan perang; larangan lari (mundur) dalam peperangan; hukum mengenai tawanan perang; kewajiban taat kepada pemimpin dalam perang; keharusan mengusahakan perdamaian; kewajiban mempersiapkan diri dengan segala alat perlengkapan perang; ketahanan mental; sabar dalam Islam; larangan khianat pada Allah dan Rasul, dan larangan mengkhianati perjanjian.\n\n3. Kisah-kisah:\nKeengganan beberapa orang Islam ikut Perang Badar, suasana kaum Muslimin pada waktu Perang Badar sebelum dan sesudahnya serta saat sedang berlangsungnya peperangan; keadaan Nabi Muhammad saw sebelum hijrah serta permusuhan kaum musyrikin kepadanya; tentang orang-orang Yahudi yang membatalkan perjanjian damai dengan Nabi Muhammad saw; kisah orang kafir baik dari musyrikin dan ahli kitab serta keburukan orang munafikin.\n\n4. Dan lain-lain:\nPengertian iman; tanda-tanda dan sifat-sifat orang beriman; Sunnatullah yang berlaku pada perorangan dan masyarakat.",
        "outro_surah": null,
        "munasabah_prev_surah": "Hubungan Surah al-A\u2018r\u0101f  dengan Surah al-Anf\u0101l, ialah Dalam Surah al-A\u2018r\u0101f Allah swt memberikan petunjuk bagi Rasulullah saw untuk membina rohani dan petunjuk-petunjuk dalam menghadapi umat, maka dalam Surah al-Anf\u0101l, diterangkan bahwa Nabi Muhammad saw telah berada di tengah-tengah umatnya membawa mereka ke jalan agama Allah swt.",
        "munasabah_prev_theme": "Pada ayat-ayat yang lalu Allah melarang orang-orang mukmin menyalahi perintah Allah dan Rasul-Nya dan diterangkan pula sifat-sifat orang-orang munafik dan orang-orang musyrikin yang biasa menentang seruan Rasul. Juga ditegaskan akibat dari orang-orang yang tidak mau mendengar seruan Rasul itu. Maka pada ayat-ayat ini Allah memerintahkan kepada orang-orang mukmin agar mereka memenuhi seruan Rasul dan meyakini seruan itu serta mengamalkannya. Dan diterangkan akibat buruk yang akan menimpa seluruh umat apabila di dalam kelompok umat itu berjangkit kemaksiatan secara merata.",
        "theme_group": "\nKEWAJIBAN MENAATI PERINTAH ALLAH\nDAN RASUL-NYA ",
        "kosakata": "Kosakata: Fitnah  \u0641\u0650\u062a\u0652\u0646\u064e\u0629\u064b  (al-Anf\u0101l/8: 25)\nKata fitnah terambil dari kata fatana-yaftinu-fitnah. Akar maknanya adalah fatana a\u017c-\u017cahaba yang berarti memasukkkan emas ke dalam api untuk menilai kadarnya. Makna demikian terdapat dalam surah al-Bur\u016bj ayat 10. Kata dinar maft\u016bn berarti dinar yang telah teruji kualitasnya. \nAl-Qur\u2019an menggunakan kata fitnah untuk berbagai makna. Sebagian besarnya memiliki arti ujian. Makna fitnah pada ayat yang sedang ditafsirkan ini adalah siksaan. Pada beberapa tempat lain, kata ini memiliki yang sedikit berbeda. Di antaranya adalah: bencana dan kekacauan (al-M\u0101\u2019idah/5: 71, al-Anf\u0101l/8: 73), gangguan (al-Anf\u0101l/8: 39), dan siksaan (a\u1e63-\u1e62aff\u0101t/37: 63). Secara garis besar, bila kata fitnah dikaitkan dengan orang-orang yang beriman maka ia berarti ujian, dan bila dikaitkan dengan orang-orang kafir maka ia berarti siksaan. ",
        "sabab_nuzul": null,
        "conclusion": null
    }
}