{
    "id": 1211,
    "surah_id": 8,
    "ayah": 51,
    "page": 183,
    "quarter_hizb": 19,
    "juz": 10,
    "manzil": 2,
    "arabic": "\u0630\u0670\u0644\u0650\u0643\u064e \u0628\u0650\u0645\u064e\u0627 \u0642\u064e\u062f\u0651\u064e\u0645\u064e\u062a\u0652 \u0627\u064e\u064a\u0652\u062f\u0650\u064a\u0652\u0643\u064f\u0645\u0652 \u0648\u064e\u0627\u064e\u0646\u0651\u064e \u0627\u0644\u0644\u0651\u0670\u0647\u064e \u0644\u064e\u064a\u0652\u0633\u064e \u0628\u0650\u0638\u064e\u0644\u0651\u064e\u0627\u0645\u064d \u0644\u0651\u0650\u0644\u0652\u0639\u064e\u0628\u0650\u064a\u0652\u062f\u0650\u06d9",
    "latin": "\u017b\u0101lika bim\u0101 qaddamat aid\u012bkum wa annall\u0101ha laisa bi\u1e93all\u0101mil lil-\u2018ab\u012bd(i). ",
    "translation": "Yang demikian itu disebabkan oleh perbuatan tanganmu (sendiri) dan sesungguhnya Allah (sama sekali) tidak menzalimi hamba-hamba-Nya.",
    "no_footnote": null,
    "footnotes": null,
    "surah": {
        "id": 8,
        "arabic": " \u0627\u0644\u0627\u0646\u0641\u0627\u0644",
        "latin": "Al-Anf\u0101l",
        "transliteration": "Al-Anfal",
        "translation": "Rampasan Perang",
        "num_ayah": 75,
        "page": 177,
        "location": "Madaniyah"
    },
    "tafsir": {
        "wajiz": "Azab Allah yang demikian dahsyat itu disebabkan oleh perbuatan tangan kalian sendiri. Dan sesungguhnya Allah sama sekali tidak menzalimi masing-masing dari hamba-hamba-Nya. Sebab, turunnya azab Allah sebagai akibat perilaku manusia merupakan perwujudan dari keadilan-Nya.",
        "tahlili": "Azab yang mereka rasakan itu adalah sebagai akibat perbuatan tangan mereka sendiri, yaitu kekafiran dan kezalimannya, baik dengan ucapan maupun dengan perbuatan. Disebut \u201ctangan\u201d yang mengadakan perbuatan, padahal suatu perbuatan kadang-kadang dilaksanakan dengan tangan atau kaki, panca indra atau akal, oleh karena menurut kebiasaan sebagian besar amal perbuatan manusia itu dilaksanakan dengan tangan. Allah tidak akan menyiksa seorang pun, kecuali disebabkan dosa-dosa dan pelanggaran yang dibuatnya sendiri. \n\n\u0625\u0650\u0646\u0651\u064e \u0627\u0644\u0644\u0651\u0670\u0647\u064e \u062a\u064e\u0639\u064e\u0627\u0644\u064e\u0649 \u064a\u064e\u0642\u064f\u0648\u0652\u0644\u064f: \u064a\u064e\u0627 \u0639\u0650\u0628\u064e\u0627\u062f\u0650\u064a\u0652 \u0625\u0650\u0646\u0651\u0650\u064a \u062d\u064e\u0631\u0651\u064e\u0645\u0652\u062a\u064f \u0627\u0644\u0638\u0651\u064f\u0644\u0652\u0645\u064e \u0639\u064e\u0644\u064e\u0649 \u0646\u064e\u0641\u0652\u0633\u0650\u064a\u0652 \u0648\u064e\u062c\u064e\u0639\u064e\u0644\u0652\u062a\u064f\u0647\u064f \u0628\u064e\u064a\u0652\u0646\u064e\u0643\u064f\u0645\u0652 \u0645\u064f\u062d\u064e\u0631\u0651\u064e\u0645\u064b\u0627\u060c \u0641\u064e\u0644\u0627\u064e \u062a\u064f\u0638\u064e\u0627\u0644\u0650\u0645\u064f\u0648\u0652\u0627. \u064a\u0627\u064e \u0639\u0650\u0628\u064e\u0627\u062f\u0650\u064a\u0652\u060c \u0625\u0650\u0646\u0651\u064e\u0645\u064e\u0627 \u0647\u0650\u064a\u064e \u0623\u064e\u0639\u0652\u0645\u064e\u0627\u0644\u064f\u0643\u064f\u0645\u0652 \u0627\u064f\u062d\u0652\u0635\u0650\u064a\u0652\u0647\u064e\u0627 \u0644\u064e\u0643\u064f\u0645\u0652\u060c \u0641\u064e\u0645\u064e\u0646\u0652 \u0648\u064e\u062c\u064e\u062f\u064e \u062e\u064e\u064a\u0652\u0631\u064b\u0627 \u0641\u064e\u0644\u0652\u064a\u064e\u062d\u0652\u0645\u0650\u062f\u0650 \u0627\u0644\u0644\u0651\u0670\u0647\u064e\u060c \u0648\u064e\u0645\u064e\u0646\u0652 \u0648\u064e\u062c\u064e\u062f\u064e \u063a\u064e\u064a\u0652\u0631\u064e \u0630\u064e\u0644\u0650\u0643\u064e \u0641\u064e\u0644\u0627\u064e \u064a\u064e\u0644\u064f\u0648\u0645\u064e\u0646\u0651\u064e \u0625\u0650\u0644\u0627\u0651\u064e \u0646\u064e\u0641\u0652\u0633\u064e\u0647\u064f. (\u0631\u0648\u0627\u0647 \u0645\u0633\u0644\u0645 \u0639\u0646 \u0623\u0628\u0649 \u0630\u0631)\nSesungguhnya Allah berfirman, \u201cWahai hamba-hamba-Ku, sesungguhnya Aku telah mengharamkan kezaliman atas diri-Ku sendiri dan telah mengharamkan pula kezaliman itu di antara kamu. Oleh karena itu kamu jangan sekali-kali berbuat zalim. Wahai hamba-hamba-Ku sesungguh-nya amal-amalmu saja yang akan Aku perhitungkan bagimu. Barang siapa yang mendapat kebaikan, maka hendaklah ia memuji Allah dan barang siapa yang mendapat kejelekan, maka janganlah dia mencela, kecuali dirinya sendiri.\u201d (Riwayat Muslim dari Abu \u017car)",
        "intro_surah": "Surah 8, al-Anf\u0101l terdiri dari 75 ayat. Menurut perhitungan para ulama Kufah, jumlah ayatnya ada 75; sedang perhitungan para ulama Hijaz ada 76, tetapi menurut perhitungan ulama Syam ayatnya ada 77. (1631 kata-kata, 5294 huruf) dan termasuk kelompok Madaniyah. (ada riwayat yang mengecualikan ayat 30 s/d 36 Ayat ini termasuk kelompok Makiyah. Dan ada pula riwayat lain, yang mengecualikan ayat 64, bahwa ayat ini termasuk ayat Makiyah) karena seluruh ayat-ayatnya diturunkan di Medinah.\nSurah ini dinamakan al-Anf\u0101l (berarti harta rampasan perang), karena kata al-Anf\u0101l terdapat pada permulaan Surah ini, atau karena persoalan yang menonjol dalam surah ini ialah harta rampasan perang.\n Surah ini dinamakan juga surah \u201cBadarul Kubra\u201d, karena diturunkan berkenaan dengan Perang Badar kubra, yang terjadi pada tahun kedua Hijrah. Perang ini sangat penting artinya. Karena menentukan jalan sejarah perkembangan Islam. Pada waktu itu umat Islam dengan kekuatan kecil, dapat mengalahkan kaum musyrikin yang berjumlah besar, dengan perlengkapan yang cukup. Umat Islam dalam peperangan ini memperoleh harta rampasan yang tidak sedikit.\nOleh sebab itu, timbul masalah bagaimana membagi harta rampasan perang itu. Maka Allah menurunkan ayat pertama dari Surah ini.\n  Selain hal tersebut di atas, pokok-pokok isinya adalah sebagai berikut:\n\n1. Keimanan:\nAllah selalu menyertai orang-orang yang beriman dan melindungi mereka; Allah yang menentukan hukum-hukum agama; Allah menjamin kemenangan umat yang beriman; Allah melimpahkan inayah-Nya kepada orang-orang yang bertawakal; Allah sendiri yang dapat mempersatukan hati orang-orang yang beriman; Allah mendasarkan hukum-Nya atas kepentingan manusia; Allah mempunyai barisan malaikat; merekalah yang menolong barisan kaum Muslimin dalam Perang Badar.\n\n2. Hukum-hukum:\n Aturan pembagian harta rampasan perang; kebolehan makan harta rampasan perang; larangan lari (mundur) dalam peperangan; hukum mengenai tawanan perang; kewajiban taat kepada pemimpin dalam perang; keharusan mengusahakan perdamaian; kewajiban mempersiapkan diri dengan segala alat perlengkapan perang; ketahanan mental; sabar dalam Islam; larangan khianat pada Allah dan Rasul, dan larangan mengkhianati perjanjian.\n\n3. Kisah-kisah:\nKeengganan beberapa orang Islam ikut Perang Badar, suasana kaum Muslimin pada waktu Perang Badar sebelum dan sesudahnya serta saat sedang berlangsungnya peperangan; keadaan Nabi Muhammad saw sebelum hijrah serta permusuhan kaum musyrikin kepadanya; tentang orang-orang Yahudi yang membatalkan perjanjian damai dengan Nabi Muhammad saw; kisah orang kafir baik dari musyrikin dan ahli kitab serta keburukan orang munafikin.\n\n4. Dan lain-lain:\nPengertian iman; tanda-tanda dan sifat-sifat orang beriman; Sunnatullah yang berlaku pada perorangan dan masyarakat.",
        "outro_surah": null,
        "munasabah_prev_surah": "Hubungan Surah al-A\u2018r\u0101f  dengan Surah al-Anf\u0101l, ialah Dalam Surah al-A\u2018r\u0101f Allah swt memberikan petunjuk bagi Rasulullah saw untuk membina rohani dan petunjuk-petunjuk dalam menghadapi umat, maka dalam Surah al-Anf\u0101l, diterangkan bahwa Nabi Muhammad saw telah berada di tengah-tengah umatnya membawa mereka ke jalan agama Allah swt.",
        "munasabah_prev_theme": "Pada ayat-ayat yang lalu Allah swt menerangkan tingkah laku orang-orang kafir Quraisy ketika keluar dari Mekah ke Badar dengan cara yang sombong dan congkak dan setelah Allah menerangkan pula tipuan setan kepada pengikutnya, maka pada ayat ini Allah menerangkan hal ihwal orang-orang kafir Quraisy ketika menghadapi sakaratulmaut dan azab yang mereka terima pada saat itu.",
        "theme_group": "KEBINASAAN SUATU KAUM\nAKIBAT PERBUATAN MEREKA SENDIRI",
        "kosakata": "Kosakata: Ni\u2019mah  \u0646\u0650\u0639\u0652\u0645\u064e\u0629  (al-Anf\u0101l/8: 52)\nKata ni\u2019mah merupakan ma\u1e63dar atau kata jadian dari kata na\u2019ima, yan\u2019amu-ni\u2019mah, yang memiliki akar makna senang, bahagia, dan baik. Kata na\u2019imar-rajulu berarti laki-laki itu senang. Kata an\u2019ama berarti memberi kesenangan dan kebahagiaan, atau dengan kata lain memberi anugerah. Kata na\u2019mah berarti kemewahan, seperti yang terdapat dalam al-Muzzammil/73: 11. Binatang  ternak  dalam  bahasa  Arab  disebut  na\u2019amun  dan  bentuk  jamaknya adalah An\u2018\u0101m, karena bagi masyarakat Arab binatang ternak merupakan nikmat materi yang paling besar. Namun terkadang kata na\u2019amun juga berarti binatang buruan, seperti yang disebutkan dalam Al-Qur\u2019an (Al-M\u0101\u2019idah/5: 1). Dari kata itu juga diambil kata ni\u2019ma yang berarti \u2018sebaik-baik\u2026\u2019 dan kata na\u2019am yang berarti jawaban \u2018ya\u2019.\nDi dalam Al-Qur\u2019an, kata An\u2018\u0101m disebut sebanyak 32 kali. Kata  ni\u2019ma disebut sebanyak 16 kali. Kata na\u2019am (ya) disebut sebanyak 4 kali. Dan kata-kata yang terambil dari kata ni\u2019mah yang berarti nikmat, kesenangan dan kebahagiaan disebut sebanyak 90 kali. ",
        "sabab_nuzul": null,
        "conclusion": null
    }
}