{
    "id": 1239,
    "surah_id": 9,
    "ayah": 4,
    "page": 187,
    "quarter_hizb": 19.5,
    "juz": 10,
    "manzil": 2,
    "arabic": "\u0627\u0650\u0644\u0651\u064e\u0627 \u0627\u0644\u0651\u064e\u0630\u0650\u064a\u0652\u0646\u064e \u0639\u064e\u0627\u0647\u064e\u062f\u0652\u062a\u0651\u064f\u0645\u0652 \u0645\u0651\u0650\u0646\u064e \u0627\u0644\u0652\u0645\u064f\u0634\u0652\u0631\u0650\u0643\u0650\u064a\u0652\u0646\u064e \u062b\u064f\u0645\u0651\u064e \u0644\u064e\u0645\u0652 \u064a\u064e\u0646\u0652\u0642\u064f\u0635\u064f\u0648\u0652\u0643\u064f\u0645\u0652 \u0634\u064e\u064a\u0652\u0640\u0654\u064b\u0627 \u0648\u0651\u064e\u0644\u064e\u0645\u0652 \u064a\u064f\u0638\u064e\u0627\u0647\u0650\u0631\u064f\u0648\u0652\u0627 \u0639\u064e\u0644\u064e\u064a\u0652\u0643\u064f\u0645\u0652 \u0627\u064e\u062d\u064e\u062f\u064b\u0627 \u0641\u064e\u0627\u064e\u062a\u0650\u0645\u0651\u064f\u0648\u0652\u0653\u0627 \u0627\u0650\u0644\u064e\u064a\u0652\u0647\u0650\u0645\u0652 \u0639\u064e\u0647\u0652\u062f\u064e\u0647\u064f\u0645\u0652 \u0627\u0650\u0644\u0670\u0649 \u0645\u064f\u062f\u0651\u064e\u062a\u0650\u0647\u0650\u0645\u0652\u06d7 \u0627\u0650\u0646\u0651\u064e \u0627\u0644\u0644\u0651\u0670\u0647\u064e \u064a\u064f\u062d\u0650\u0628\u0651\u064f \u0627\u0644\u0652\u0645\u064f\u062a\u0651\u064e\u0642\u0650\u064a\u0652\u0646\u064e ",
    "latin": "Illal-la\u017c\u012bna \u2018\u0101hattum minal-musyrik\u012bna \u1e61umma lam yanqu\u1e63\u016bkum syai'aw wa lam yu\u1e93\u0101hir\u016b \u2018alaikum a\u1e25adan fa atimm\u016b ilaihim \u2018ahdahum il\u0101 muddatihim, innall\u0101ha yu\u1e25ibbul-muttaq\u012bn(a). ",
    "translation": "(Ketetapan itu berlaku,) kecuali atas orang-orang musyrik yang telah mengadakan perjanjian dengan kamu dan mereka sedikit pun tidak mengurangi (isi perjanjian) dan tidak (pula) mereka membantu seseorang pun yang memusuhi kamu. Maka, terhadap mereka itu penuhilah janjinya sampai batas waktunya. Sesungguhnya Allah menyukai orang-orang yang bertakwa.",
    "no_footnote": null,
    "footnotes": null,
    "surah": {
        "id": 9,
        "arabic": "\u0627\u0644\u062a\u0651\u0648\u0628\u0629",
        "latin": "At-Taubah",
        "transliteration": "At-Taubah",
        "translation": "Pengampunan",
        "num_ayah": 129,
        "page": 187,
        "location": "Madaniyah"
    },
    "tafsir": {
        "wajiz": "Kecuali orang-orang musyrik yang telah mengadakan perjanjian damai dengan kalian dan mereka sedikit pun tidak mengurangi atau merusak isi perjanjian dan tidak pula mereka membantu seorang pun yang memusuhi kalian, maka terhadap mereka itu penuhilah janjinya sampai batas waktunya, kecuali mereka merusak perjanjian tersebut. Sebab, yang demikian itu merupakan ciri ketakwaan; dan sungguh, Allah menyukai orang-orang yang bertakwa yang memenuhi janji. Ayat ini menunjukkan dua hal penting, yaitu penghormatan Islam kepada kafir mu'ahad (nonmuslim yang melakukan perjanjian damai dengan umat Islam); dan bahwa memenuhi janji dan kesepakatan merupakan pilar penting ketakwaan.",
        "tahlili": "Pada ayat ini Allah menerangkan bahwa waktu yang diberikan kaum Muslimin kepada kaum musyrikin untuk menentukan sikap, tidak boleh lebih dari empat bulan, kecuali terhadap mereka yang mengadakan perjanjian dengan kaum Muslimin, dan terhadap mereka yang tidak mengurangi isi perjanjian itu dan tidak membantu orang-orang yang memusuhi kaum Muslimin, maka perjanjian itu harus dipelihara dan disempurnakan sesuai dengan isinya sampai kepada batas waktunya. Ibnu Abi \u1e24\u0101tim meriwayatkan bahwa Nabi menyempurnakan janjinya dengan suku Bani \u1e0camrah dan Bani Kin\u0101nah.\nAyat-ayat ini dan ayat-ayat yang lainnya menunjukkan bahwa setiap perjanjian yang masih berlaku, wajib dipenuhi dan disempurnakan sesuai dengan syarat-syarat perjanjian itu, walaupun perjanjian itu dengan kaum musyrikin, selama mereka masih memenuhi semua syarat-syarat perjanjian itu.\nAkhir ayat ini menerangkan bahwa Allah swt menyukai orang-orang yang bertakwa. Hal ini menunjukkan bahwa memelihara dan menyempurnakan janji termasuk takwa. Karena memelihara perjanjian artinya memelihara pertanggungjawaban terhadap keadilan antara manusia yang membawa kebahagiaan hidup di dunia dan akhirat.",
        "intro_surah": "Surah ini berisi 129 ayat, semuanya Madaniyah, kecuali ayat 113 dan dua ayat terakhir, yaitu ayat 128 dan 129 menurut sebagian ulama adalah Makkiyah karena diturunkan di Mekah. Menurut pendapat sebagian besar ulama tafsir (jumhur), semua ayat itu tanpa ada yang dikecualikan adalah Madaniyah karena berdasarkan pendapat yang masyhur bahwa ayat yang diturunkan sesudah Nabi Muhammad saw hijrah ke Medinah dinamakan Madaniyah sekalipun diturunkan di Mekah. \nSurah ini mempunyai banyak nama, tidak ada surah dalam Al-Qur\u2019an yang lebih banyak namanya dari surah ini dan surah al-F\u0101tihah, akan tetapi yang paling masyhur dari semua namanya itu adalah \u201cBar\u0101\u2032ah\u201d dan \u201cat-Taubah\u201d.\nDinamakan Bar\u0101\u2032ah karena surah ini dimulai dengan kata \u201cBar\u0101\u2032ah\u201d yang berarti berlepas diri yang maksudnya ialah pemutusan hubungan, karena di dalamnya terdapat ayat-ayat yang membicarakan pernyataan pemutusan perjanjian damai dengan kaum musyrikin. Dan dinamakan at-Taubah artinya \u201cpengampunan\u201d, karena di dalam surah ini banyak diterangkan tentang pengampunan terutama pada firman Allah yang berbunyi:\n\u0644\u064e\u0642\u064e\u062f\u0652 \u062a\u0651\u064e\u0627\u0628\u064e \u0627\u0644\u0644\u0651\u0670\u0647\u064f \u0639\u064e\u0644\u064e\u0649 \u0627\u0644\u0646\u0651\u064e\u0628\u0650\u064a\u0651\u0650 \u0648\u064e\u0627\u0644\u0652\u0645\u064f\u0647\u0670\u062c\u0650\u0631\u0650\u064a\u0652\u0646\u064e \u0648\u064e\u0627\u0644\u0652\u0627\u064e\u0646\u0652\u0635\u064e\u0627\u0631\u0650 \u0627\u0644\u0651\u064e\u0630\u0650\u064a\u0652\u0646\u064e \u0627\u062a\u0651\u064e\u0628\u064e\u0639\u064f\u0648\u0652\u0647\u064f \u0641\u0650\u064a\u0652 \u0633\u064e\u0627\u0639\u064e\u0629\u0650 \u0627\u0644\u0652\u0639\u064f\u0633\u0652\u0631\u064e\u0629\u0650 \u0645\u0650\u0646\u0652\u06e2 \u0628\u064e\u0639\u0652\u062f\u0650 \u0645\u064e\u0627 \u0643\u064e\u0627\u062f\u064e \u064a\u064e\u0632\u0650\u064a\u0652\u063a\u064f \u0642\u064f\u0644\u064f\u0648\u0652\u0628\u064f \u0641\u064e\u0631\u0650\u064a\u0652\u0642\u064d \u0645\u0651\u0650\u0646\u0652\u0647\u064f\u0645\u0652 \u062b\u064f\u0645\u0651\u064e \u062a\u064e\u0627\u0628\u064e \u0639\u064e\u0644\u064e\u064a\u0652\u0647\u0650\u0645\u0652\u06d7 \u0627\u0650\u0646\u0651\u064e\u0647\u0657 \u0628\u0650\u0647\u0650\u0645\u0652 \u0631\u064e\u0621\u064f\u0648\u0652\u0641\u064c \u0631\u0651\u064e\u062d\u0650\u064a\u0652\u0645\u064c \u06d9 \u0661\u0661\u0667\n\nSungguh, Allah telah menerima tobat Nabi, orang-orang Muh\u0101jir\u012bn dan orang-orang An\u1e63\u0101r, yang mengikuti Nabi pada masa-masa sulit, setelah hati segolongan dari mereka hampir berpaling, kemudian Allah menerima tobat mereka. Sesungguhnya Allah Maha Pengasih, Maha Penyayang kepada mereka. (at-Taubah/9: 117)\n\nSelain dari dua nama tersebut di atas ada beberapa nama lagi di antaranya: \u201cal-F\u0101\u1e0di\u1e25ah\u201d (mengungkap kejahatan), \u201cal-\u2018A\u017c\u0101b\u201d (siksaan), \u201cal-Munqirah\u201d (mencungkil untuk mencari). \u201cal-Muqasyqisyah\u201d (mem-bebaskan), \u201cal-\u1e24\u0101firah\u201d (menggali), \u201cal-Mu\u1e61\u012brah\u201d (membangkitkan), \u201cal-Mudamdimah\u201d (membinasakan) dan lain-lain.\nSurah ini tidak dimulai dengan Basmalah sebagaimana surah-surah lainnya. Hal ini menjadi dalil bagi sebagian ulama yang berpendapat bahwa surah ini tidak berdiri sendiri, tetapi sebagai lanjutan dari surah sebelumnya (al-Anf\u0101l) tetapi menurut pendapat sebagian besar ulama (jumhur) bahwa surah ini berdiri sendiri.\nAdapun sebab-sebab tidak dimulainya surah ini dengan Basmalah antara lain:\na. \tDiriwayatkan dari al-\u1e24\u0101kim dalam al-Mustadrak dari Ibnu \u2018Abb\u0101s yang bertanya kepada Ali bin Abi \u1e6calib tentang tidak ditulisnya Basmalah pada permulaan surah, Ali menjawab, \u201cKarena Basmalah mengandung isi kedamaian, sedangkan Bar\u0101\u2019ah diturunkan dengan pedang, artinya untuk berperang melawan orang-orang kafir yang melanggar janji.\u201d\nb. \tHadis yang diriwayatkan oleh at-Tirmi\u017c\u012b dan lain-lain dari Ibnu \u2018Abb\u0101s yang maksudnya, \u201cIbnu \u2018Abb\u0101s bertanya kepada \u2018U\u1e61m\u0101n bin \u2018Aff\u0101n ra, \u201cApakah yang mendorongmu untuk berbuat terhadap surah al-Anf\u0101l yang termasuk al-Ma\u1e61ani (surah-surah dalam Al-Qur\u2019an yang ayat-ayatnya kurang sedikit dari seratus ayat), dan Bar\u0101\u2019ah yang termasuk al-Mi\u2019\u016bn (surah-surah yang ayatnya lebih dari seratus) dan menggabungkan kedua surah itu tanpa menulis Basmalah antara keduanya dan menggolongkan kepada \u201cAs-sab\u2019u a\u1e6d-\u1e6ciw\u0101l\u201d (Tujuh surah yang panjang), yaitu: al-Baqarah, \u0100li \u2018Imr\u0101n, an-Nis\u0101\u2019, al-A\u2018r\u0101f, al-An\u2018\u0101m, al-M\u0101\u2019idah, dan Y\u016bnus.\u201d U\u1e61man menjawab, \u201cRasulullah tidak pernah menerangkan digabung atau tidak antara al-Anf\u0101l dan Bar\u0101\u2019ah.\u201d Kata U\u1e61man selanjutnya, \u201cSaya berpendapat bahwa keduanya itu satu surah, oleh karena itu saya tidak menulis Basmalah antara keduanya (permulaan Bar\u0101\u2019ah).\n\nHukum Membaca Basmalah pada Bar\u0101\u2019ah \n1. \tPara ahli qira\u2019at sependapat untuk meninggalkan bacaan Basmalah pada permulaan surah Bar\u0101\u2019ah, karena tidak tertulis dalam Mu\u1e63\u1e25af al-Im\u0101m, bahkan ada yang menyatakan ini merupakan ijma\u2019 ulama, kecuali Ibnu Mun\u017cir. Dia membaca pada awal surah ini, karena mengikuti Mu\u1e63\u1e25af Ibnu Mas\u2019\u016bd (kini sudah tidak ada lagi). Menurut \u2018\u0100\u1e63im, membaca Basmalah pada permulaan Bar\u0101\u2019ah dengan maksud untuk mengambil berkah adalah dikiaskan hukumnya kepada hukum disunatkan membaca Basmalah setiap memulai pekerjaan yang baik.\n2. \tAdapun membaca Basmalah tidak pada permulaan Bar\u0101\u2019ah boleh memilih antara membaca atau tidak membaca. Berdasarkan itu imam yang lain menyatakan hukumnya \u201cjawaz\u201d (boleh seperti bolehnya membaca Basmalah pada ayat yang lain yang letaknya tidak pada permulaan surah).\n\nPokok-pokok Isinya\nSelain dari pembatalan perjanjian damai dengan kaum musyrikin, maka surah ini mengandung pokok-pokok isi sebagai berikut:\n\n1. Keimanan\nBahwa Allah selalu menyertai hamba-hamba-Nya yang beriman, memberikan balasan atas segala perbuatan manusia, dan segala sesuatu berjalan menurut sunnatullah; Allah selalu melindungi orang-orang yang beriman; dan menetapkan kedudukan Nabi Muhammad saw sebagai utusan-Nya.\n\n2. Hukum\nKewajiban menginfakkan harta; macam-macam harta dalam agama serta penggunaannya; jizyah; perjanjian dan perdamaian; kewajiban umat Islam terhadap Nabinya; sebab-sebab orang Islam melakukan perang; beberapa dasar politik kenegaraan dan peperangan dalam Islam.\n\n3. Kisah-kisah\nNabi Muhammad saw bersama Abu Bakar r.a. di suatu gua di bukit \u1e60ur ketika hijrah; Perang Hunain (Perang Au\u1e6das) atau Perang Hawazin; dan Perang Tabuk, dan kisah diterima tobatnya tiga orang sahabat yang tidak ikut berperang.\n\n4. Lain-lain\nSifat-sifat orang yang beriman dan orang-orang munafik.\n",
        "outro_surah": null,
        "munasabah_prev_surah": null,
        "munasabah_prev_theme": "Pada akhir Surah al-Anf\u0101l, Allah menjelaskan hubungan sesama orang Islam dan derajat mereka di sisi Allah, maka pada permulaan Surah at-Taubah ini dijelaskan hubungan antara orang Islam dan orang-orang musyrik yang tidak selamanya harmonis, kadang diwarnai permusuhan sehingga jika perlu, bisa membatalkan perjanjian damai dengan mereka.",
        "theme_group": "PEMBATALAN PERJANJIAN DAMAI\nDENGAN KAUM MUSYRIKIN",
        "kosakata": "Kosakata: A\u017c\u0101n  \u0623\u064e\u0630\u064e\u0627\u0646 (at-Taubah/9: 3)\nLafal a\u017c\u0101n adalah bentuk ma\u1e63dar (verbal noun) dari fi\u2019il a\u017cina-ya\u2019\u017canu-i\u017cnan, a\u017canan, a\u017c\u0101nan, i\u017canatan, artinya mengetahui, mengizinkan, atau memperbolehkan. Tetapi lafal a\u017c\u0101n mempunyai arti khusus yaitu maklumat atau pemberitahuan, seperti pemberitahuan telah masuknya salat. Dalam ayat 3 ini, a\u017c\u0101n berarti maklumat atau pemberitahuan dari Allah dan Rasul-Nya kepada seluruh umat manusia pada waktu haji akbar, bahwa Allah dan Rasul-Nya tidak bertanggung jawab jika masih ada orang yang musyrik yang menyekutukan Allah dengan sesuatu. Orang-orang musyrik sebaiknya bertobat dan mengikuti ajaran agama Islam sebagai agama tauhid yang mengesakan Tuhan, tidak ada tuhan kecuali Allah Yang Maha Esa. Jika tidak mau bertobat, maka dosanya menjadi tanggung jawab masing-masing, yaitu barang siapa meninggal dunia dalam keadaan musyrik akan masuk neraka dan kekal selama-lamanya di dalamnya. Adanya orang-orang musyrik tidak akan melemahkan perjuangan Islam.",
        "sabab_nuzul": null,
        "conclusion": "1. \tAllah dan Rasul-Nya membatalkan perjanjian damai antara kaum Muslimin dengan kaum musyrikin, disebabkan berbagai pelanggaran dari pihak kaum musyrikin.\n2. \tSesudah pembatalan itu, diberikan kesempatan bagi kaum musyrikin selama empat bulan (mulai dari 10 Zulhijjah sampai 10 Rabi\u2019ul Akhir) untuk menentukan sikap antara masuk Islam atau terus bersikap menentang.\n3. \tPembatalan itu diumumkan pada tahun ke-9 Hijri pada Haji Akbar di Mina.\n4. \tMenurut pendapat yang terkuat bahwa yang dimaksud dengan Haji Akbar di dalam ayat ini ialah Hari Nahar (Hari Raya Haji) bukan hari Arafah (hari wukuf) dan lain-lainnya.\n5. \tJangka waktu empat bulan itu tidak boleh ditambah, terkecuali ada perjanjian yang masih berlaku, maka wajib disempurnakan sesuai dengan isi janji itu selama mereka tidak melanggar janji.\n6. \tJanji itu wajib dipenuhi dan disempurnakan."
    }
}