{
    "id": 1259,
    "surah_id": 9,
    "ayah": 24,
    "page": 190,
    "quarter_hizb": 19.75,
    "juz": 10,
    "manzil": 2,
    "arabic": "\u0642\u064f\u0644\u0652 \u0627\u0650\u0646\u0652 \u0643\u064e\u0627\u0646\u064e \u0627\u0670\u0628\u064e\u0627\u06e4\u0624\u064f\u0643\u064f\u0645\u0652 \u0648\u064e\u0627\u064e\u0628\u0652\u0646\u064e\u0627\u06e4\u0624\u064f\u0643\u064f\u0645\u0652 \u0648\u064e\u0627\u0650\u062e\u0652\u0648\u064e\u0627\u0646\u064f\u0643\u064f\u0645\u0652 \u0648\u064e\u0627\u064e\u0632\u0652\u0648\u064e\u0627\u062c\u064f\u0643\u064f\u0645\u0652 \u0648\u064e\u0639\u064e\u0634\u0650\u064a\u0652\u0631\u064e\u062a\u064f\u0643\u064f\u0645\u0652 \u0648\u064e\u0627\u064e\u0645\u0652\u0648\u064e\u0627\u0644\u064f \u06e8\u0650\u0627\u0642\u0652\u062a\u064e\u0631\u064e\u0641\u0652\u062a\u064f\u0645\u064f\u0648\u0652\u0647\u064e\u0627 \u0648\u064e\u062a\u0650\u062c\u064e\u0627\u0631\u064e\u0629\u064c \u062a\u064e\u062e\u0652\u0634\u064e\u0648\u0652\u0646\u064e \u0643\u064e\u0633\u064e\u0627\u062f\u064e\u0647\u064e\u0627 \u0648\u064e\u0645\u064e\u0633\u0670\u0643\u0650\u0646\u064f \u062a\u064e\u0631\u0652\u0636\u064e\u0648\u0652\u0646\u064e\u0647\u064e\u0627\u0653 \u0627\u064e\u062d\u064e\u0628\u0651\u064e \u0627\u0650\u0644\u064e\u064a\u0652\u0643\u064f\u0645\u0652 \u0645\u0651\u0650\u0646\u064e \u0627\u0644\u0644\u0651\u0670\u0647\u0650 \u0648\u064e\u0631\u064e\u0633\u064f\u0648\u0652\u0644\u0650\u0647\u0656 \u0648\u064e\u062c\u0650\u0647\u064e\u0627\u062f\u064d \u0641\u0650\u064a\u0652 \u0633\u064e\u0628\u0650\u064a\u0652\u0644\u0650\u0647\u0656 \u0641\u064e\u062a\u064e\u0631\u064e\u0628\u0651\u064e\u0635\u064f\u0648\u0652\u0627 \u062d\u064e\u062a\u0651\u0670\u0649 \u064a\u064e\u0623\u0652\u062a\u0650\u064a\u064e \u0627\u0644\u0644\u0651\u0670\u0647\u064f \u0628\u0650\u0627\u064e\u0645\u0652\u0631\u0650\u0647\u0656\u06d7 \u0648\u064e\u0627\u0644\u0644\u0651\u0670\u0647\u064f \u0644\u064e\u0627 \u064a\u064e\u0647\u0652\u062f\u0650\u0649 \u0627\u0644\u0652\u0642\u064e\u0648\u0652\u0645\u064e \u0627\u0644\u0652\u0641\u0670\u0633\u0650\u0642\u0650\u064a\u0652\u0646\u064e \u08d6",
    "latin": "Qul in k\u0101na \u0101b\u0101'ukum wa abn\u0101'ukum wa ikhw\u0101nukum wa azw\u0101jukum wa \u2018asy\u012bratukum wa amw\u0101luniqtaraftum\u016bh\u0101 wa tij\u0101ratun takhsyauna kas\u0101dah\u0101 wa mas\u0101kinu tar\u1e0daunah\u0101 a\u1e25abba ilaikum minall\u0101hi wa ras\u016blih\u012b wa jih\u0101din f\u012b sab\u012blih\u012b fa tarabba\u1e63\u016b \u1e25att\u0101 ya'tiyall\u0101hu bi'amrih(\u012b), wall\u0101hu l\u0101 yahdil-qaumal-f\u0101siq\u012bn(a). ",
    "translation": "Katakanlah (Nabi Muhammad), \u201cJika bapak-bapakmu, anak-anakmu, saudara-saudaramu, pasangan-pasanganmu, keluargamu, harta kekayaan yang kamu usahakan, dan perniagaan yang kamu khawatirkan kerugiannya, serta tempat tinggal yang kamu sukai lebih kamu cintai daripada Allah dan Rasul-Nya dan daripada berjihad di jalan-Nya, tunggulah sampai Allah mendatangkan keputusan-Nya.\u201d Allah tidak memberi petunjuk kepada kaum yang fasik.",
    "no_footnote": null,
    "footnotes": null,
    "surah": {
        "id": 9,
        "arabic": "\u0627\u0644\u062a\u0651\u0648\u0628\u0629",
        "latin": "At-Taubah",
        "transliteration": "At-Taubah",
        "translation": "Pengampunan",
        "num_ayah": 129,
        "page": 187,
        "location": "Madaniyah"
    },
    "tafsir": {
        "wajiz": "Ayat ini turun berkenaan dengan keengganan sebagian kaum muslim untuk berhijrah ke Madinah karena diberatkan oleh hal-hal yang bersifat duniawi. Padahal, hijrah merupakan wujud nyata kecintaan kaum mukmin kepada Allah dan Rasul-Nya. Katakanlah, wahai Rasul, \u201cJika bapak-bapakmu, anak-anakmu, saudara-saudaramu, istri-istrimu yang selalu mendampingimu, keluargamu yang selalu melindungimu, harta kekayaan yang kamu usahakan dengan susah payah, perdagangan yang kamu khawatirkan kerugiannya, dan rumah-rumah tempat tinggal yang ka-mu sukai yang dibangun dengan biaya yang cukup besar, lebih kamu cintai daripada Allah dan Rasul-Nya serta berjihad di jalan-Nya, maka tunggu-lah sampai Allah memberikan keputusan-Nya, dengan menurunkan hukuman-Nya yang tidak mungkin kamu elakkan. Padahal, hal itu merupakan sikap orang-orang fasik, karena keluar dari ketaatan kepada Allah dan Rasul-Nya.\u201d Dan Allah tidak memberi petunjuk kepada orang-orang fasik.",
        "tahlili": "Ayat ini memberikan peringatan bahwa jika orang beriman lebih mencintai bapaknya, anak-anaknya, saudara-saudaranya, istri-istrinya, sanak keluarganya, harta kekayaan, perniagaan dan rumah-rumahnya, daripada mencintai Allah dan Rasul-Nya serta berjihad menegakkan syariat-Nya, maka Allah akan mendatangkan siksa kepada mereka cepat atau lambat. Mereka yang bersikap demikian itu adalah orang-orang fasik yang tidak akan mendapat hidayah dari Allah swt. \nBerikut ini beberapa alasan mengapa orang mencintai anak, suami, istri, ibu, bapak, keluarga, dan sebagainya:\n1. \tBahwa cinta anak terhadap ibu bapak adalah naluri yang ada pada tiap-tiap diri manusia. Anak sebagai keturunan dari ibu bapaknya mewarisi sebagian sifat-sifat dan tabiat-tabiat ibu bapaknya.\n2. \tBahwa cinta ibu bapak kepada anaknya adalah naluri juga, bahkan lebih mendalam lagi, karena anak merupakan jantung hati yang diharapkan melanjutkan keturunan dan meneruskan sejarah hidupnya. Dalam hal ini ibu bapak rela menanggung segala macam pengorbanan untuk kebahagiaan masa depan anaknya.\n3. \tBahwa cinta kepada saudara dan karib kerabat adalah cinta yang lumrah dalam rangka pelaksanaan hidup dan kehidupan tolong-menolong, bantu-membantu dan bela-membela dalam kehidupan rumah tangga, dan kehidupan bermasyarakat. Cinta yang demikian akan menumbuhkan perasaan hormat-menghormati dan sayang-menyayangi.\n 4.\tBahwa cinta suami istri adalah cinta yang terpadu antara dua jenis makhluk yang membina keturunan dan membangun rumah tangga untuk kebahagiaan hidup dan kehidupan dunia dan akhirat. Oleh karena itu keutuhan hubungan suami istri yang harmonis menjadi pokok bagi kerukunan dan kebahagiaan hidup dan kehidupan yang diidam-idamkan.\n5. \tBahwa cinta terhadap harta dengan segala jenis bentuknya baik harta usaha, warisan, perdagangan maupun rumah tempat tinggal dan lain-lain adalah cinta yang sudah menjadi kodrat manusia. Semua yang dicintai merupakan kebutuhan yang tidak terpisahkan bagi hidup dan kehidupan manusia yang diusahakannya dengan menempuh segala jalan yang dihalalkan Allah. \n6.\tCinta perdagangan, merupakan naluri manusia, karena ia merupakan sumber pengembangan harta benda.\n7.\tCinta tempat tinggal, karena rumah merupakan tempat tinggal dan tempat istirahat sehari-hari.\nAdapun cinta kepada Allah wajib didahulukan daripada segala macam cinta tersebut di atas karena Dialah yang memberi hidup dan kehidupan, dengan segala macam karunia-Nya kepada manusia dan Dialah yang bersifat sempurna dan Mahasuci dari segala kekurangan. Begitu juga cinta kepada Rasulullah saw, haruslah lebih diutamakan karena Rasulullah saw diutus Allah swt untuk membawa petunjuk dan menjadi rahmat bagi alam semesta.\nFirman Allah:\n\u0642\u064f\u0644\u0652 \u0627\u0650\u0646\u0652 \u0643\u064f\u0646\u0652\u062a\u064f\u0645\u0652 \u062a\u064f\u062d\u0650\u0628\u0651\u064f\u0648\u0652\u0646\u064e \u0627\u0644\u0644\u0651\u0670\u0647\u064e \u0641\u064e\u0627\u062a\u0651\u064e\u0628\u0650\u0639\u064f\u0648\u0652\u0646\u0650\u064a\u0652 \u064a\u064f\u062d\u0652\u0628\u0650\u0628\u0652\u0643\u064f\u0645\u064f \u0627\u0644\u0644\u0651\u0670\u0647\u064f \u0648\u064e\u064a\u064e\u063a\u0652\u0641\u0650\u0631\u0652 \u0644\u064e\u0643\u064f\u0645\u0652 \u0630\u064f\u0646\u064f\u0648\u0652\u0628\u064e\u0643\u064f\u0645\u0652 \nKatakanlah, \u201cJika kamu (benar-benar) mencintai Allah, ikutlah aku niscaya Allah mengasihi dan mengampuni dosa-dosamu.\u201d (\u0100li-\u2019Imr\u0101n/3: 31)\n\nDan sabda Rasulullah saw:\n\u0644\u0627\u064e \u064a\u064f\u0624\u0652\u0645\u0650\u0646\u064f \u0623\u064e\u062d\u064e\u062f\u064f\u0643\u064f\u0645\u0652 \u062d\u064e\u062a\u0651\u064e\u0649 \u0623\u064e\u0643\u064f\u0648\u0652\u0646\u064e \u0623\u064e\u062d\u064e\u0628\u0651\u064e \u0625\u0650\u0644\u064e\u064a\u0652\u0647\u0650 \u0645\u0650\u0646\u0652 \u0648\u064e\u0627\u0644\u0650\u062f\u0650\u0647\u0650 \u0648\u064e\u0648\u064e\u0644\u064e\u062f\u0650\u0647\u0650 \u0648\u064e\u0627\u0644\u0646\u0651\u064e\u0627\u0633\u0650 \u0623\u064e\u062c\u0652\u0645\u064e\u0639\u0650\u064a\u0652\u0646\u064e (\u0631\u0648\u0627\u0647 \u0627\u0644\u0628\u062e\u0627\u0631\u064a \u0648\u0645\u0633\u0644\u0645 \u0639\u0646 \u0623\u0646\u0633)\nTidaklah sempurna iman seseorang sebelum ia mencintai Aku lebih daripada mencintai orang tuanya, anak-anaknya dan manusia seluruhnya. (Riwayat al-Bukh\u0101r\u012b, Muslim dari Anas)",
        "intro_surah": "Surah ini berisi 129 ayat, semuanya Madaniyah, kecuali ayat 113 dan dua ayat terakhir, yaitu ayat 128 dan 129 menurut sebagian ulama adalah Makkiyah karena diturunkan di Mekah. Menurut pendapat sebagian besar ulama tafsir (jumhur), semua ayat itu tanpa ada yang dikecualikan adalah Madaniyah karena berdasarkan pendapat yang masyhur bahwa ayat yang diturunkan sesudah Nabi Muhammad saw hijrah ke Medinah dinamakan Madaniyah sekalipun diturunkan di Mekah. \nSurah ini mempunyai banyak nama, tidak ada surah dalam Al-Qur\u2019an yang lebih banyak namanya dari surah ini dan surah al-F\u0101tihah, akan tetapi yang paling masyhur dari semua namanya itu adalah \u201cBar\u0101\u2032ah\u201d dan \u201cat-Taubah\u201d.\nDinamakan Bar\u0101\u2032ah karena surah ini dimulai dengan kata \u201cBar\u0101\u2032ah\u201d yang berarti berlepas diri yang maksudnya ialah pemutusan hubungan, karena di dalamnya terdapat ayat-ayat yang membicarakan pernyataan pemutusan perjanjian damai dengan kaum musyrikin. Dan dinamakan at-Taubah artinya \u201cpengampunan\u201d, karena di dalam surah ini banyak diterangkan tentang pengampunan terutama pada firman Allah yang berbunyi:\n\u0644\u064e\u0642\u064e\u062f\u0652 \u062a\u0651\u064e\u0627\u0628\u064e \u0627\u0644\u0644\u0651\u0670\u0647\u064f \u0639\u064e\u0644\u064e\u0649 \u0627\u0644\u0646\u0651\u064e\u0628\u0650\u064a\u0651\u0650 \u0648\u064e\u0627\u0644\u0652\u0645\u064f\u0647\u0670\u062c\u0650\u0631\u0650\u064a\u0652\u0646\u064e \u0648\u064e\u0627\u0644\u0652\u0627\u064e\u0646\u0652\u0635\u064e\u0627\u0631\u0650 \u0627\u0644\u0651\u064e\u0630\u0650\u064a\u0652\u0646\u064e \u0627\u062a\u0651\u064e\u0628\u064e\u0639\u064f\u0648\u0652\u0647\u064f \u0641\u0650\u064a\u0652 \u0633\u064e\u0627\u0639\u064e\u0629\u0650 \u0627\u0644\u0652\u0639\u064f\u0633\u0652\u0631\u064e\u0629\u0650 \u0645\u0650\u0646\u0652\u06e2 \u0628\u064e\u0639\u0652\u062f\u0650 \u0645\u064e\u0627 \u0643\u064e\u0627\u062f\u064e \u064a\u064e\u0632\u0650\u064a\u0652\u063a\u064f \u0642\u064f\u0644\u064f\u0648\u0652\u0628\u064f \u0641\u064e\u0631\u0650\u064a\u0652\u0642\u064d \u0645\u0651\u0650\u0646\u0652\u0647\u064f\u0645\u0652 \u062b\u064f\u0645\u0651\u064e \u062a\u064e\u0627\u0628\u064e \u0639\u064e\u0644\u064e\u064a\u0652\u0647\u0650\u0645\u0652\u06d7 \u0627\u0650\u0646\u0651\u064e\u0647\u0657 \u0628\u0650\u0647\u0650\u0645\u0652 \u0631\u064e\u0621\u064f\u0648\u0652\u0641\u064c \u0631\u0651\u064e\u062d\u0650\u064a\u0652\u0645\u064c \u06d9 \u0661\u0661\u0667\n\nSungguh, Allah telah menerima tobat Nabi, orang-orang Muh\u0101jir\u012bn dan orang-orang An\u1e63\u0101r, yang mengikuti Nabi pada masa-masa sulit, setelah hati segolongan dari mereka hampir berpaling, kemudian Allah menerima tobat mereka. Sesungguhnya Allah Maha Pengasih, Maha Penyayang kepada mereka. (at-Taubah/9: 117)\n\nSelain dari dua nama tersebut di atas ada beberapa nama lagi di antaranya: \u201cal-F\u0101\u1e0di\u1e25ah\u201d (mengungkap kejahatan), \u201cal-\u2018A\u017c\u0101b\u201d (siksaan), \u201cal-Munqirah\u201d (mencungkil untuk mencari). \u201cal-Muqasyqisyah\u201d (mem-bebaskan), \u201cal-\u1e24\u0101firah\u201d (menggali), \u201cal-Mu\u1e61\u012brah\u201d (membangkitkan), \u201cal-Mudamdimah\u201d (membinasakan) dan lain-lain.\nSurah ini tidak dimulai dengan Basmalah sebagaimana surah-surah lainnya. Hal ini menjadi dalil bagi sebagian ulama yang berpendapat bahwa surah ini tidak berdiri sendiri, tetapi sebagai lanjutan dari surah sebelumnya (al-Anf\u0101l) tetapi menurut pendapat sebagian besar ulama (jumhur) bahwa surah ini berdiri sendiri.\nAdapun sebab-sebab tidak dimulainya surah ini dengan Basmalah antara lain:\na. \tDiriwayatkan dari al-\u1e24\u0101kim dalam al-Mustadrak dari Ibnu \u2018Abb\u0101s yang bertanya kepada Ali bin Abi \u1e6calib tentang tidak ditulisnya Basmalah pada permulaan surah, Ali menjawab, \u201cKarena Basmalah mengandung isi kedamaian, sedangkan Bar\u0101\u2019ah diturunkan dengan pedang, artinya untuk berperang melawan orang-orang kafir yang melanggar janji.\u201d\nb. \tHadis yang diriwayatkan oleh at-Tirmi\u017c\u012b dan lain-lain dari Ibnu \u2018Abb\u0101s yang maksudnya, \u201cIbnu \u2018Abb\u0101s bertanya kepada \u2018U\u1e61m\u0101n bin \u2018Aff\u0101n ra, \u201cApakah yang mendorongmu untuk berbuat terhadap surah al-Anf\u0101l yang termasuk al-Ma\u1e61ani (surah-surah dalam Al-Qur\u2019an yang ayat-ayatnya kurang sedikit dari seratus ayat), dan Bar\u0101\u2019ah yang termasuk al-Mi\u2019\u016bn (surah-surah yang ayatnya lebih dari seratus) dan menggabungkan kedua surah itu tanpa menulis Basmalah antara keduanya dan menggolongkan kepada \u201cAs-sab\u2019u a\u1e6d-\u1e6ciw\u0101l\u201d (Tujuh surah yang panjang), yaitu: al-Baqarah, \u0100li \u2018Imr\u0101n, an-Nis\u0101\u2019, al-A\u2018r\u0101f, al-An\u2018\u0101m, al-M\u0101\u2019idah, dan Y\u016bnus.\u201d U\u1e61man menjawab, \u201cRasulullah tidak pernah menerangkan digabung atau tidak antara al-Anf\u0101l dan Bar\u0101\u2019ah.\u201d Kata U\u1e61man selanjutnya, \u201cSaya berpendapat bahwa keduanya itu satu surah, oleh karena itu saya tidak menulis Basmalah antara keduanya (permulaan Bar\u0101\u2019ah).\n\nHukum Membaca Basmalah pada Bar\u0101\u2019ah \n1. \tPara ahli qira\u2019at sependapat untuk meninggalkan bacaan Basmalah pada permulaan surah Bar\u0101\u2019ah, karena tidak tertulis dalam Mu\u1e63\u1e25af al-Im\u0101m, bahkan ada yang menyatakan ini merupakan ijma\u2019 ulama, kecuali Ibnu Mun\u017cir. Dia membaca pada awal surah ini, karena mengikuti Mu\u1e63\u1e25af Ibnu Mas\u2019\u016bd (kini sudah tidak ada lagi). Menurut \u2018\u0100\u1e63im, membaca Basmalah pada permulaan Bar\u0101\u2019ah dengan maksud untuk mengambil berkah adalah dikiaskan hukumnya kepada hukum disunatkan membaca Basmalah setiap memulai pekerjaan yang baik.\n2. \tAdapun membaca Basmalah tidak pada permulaan Bar\u0101\u2019ah boleh memilih antara membaca atau tidak membaca. Berdasarkan itu imam yang lain menyatakan hukumnya \u201cjawaz\u201d (boleh seperti bolehnya membaca Basmalah pada ayat yang lain yang letaknya tidak pada permulaan surah).\n\nPokok-pokok Isinya\nSelain dari pembatalan perjanjian damai dengan kaum musyrikin, maka surah ini mengandung pokok-pokok isi sebagai berikut:\n\n1. Keimanan\nBahwa Allah selalu menyertai hamba-hamba-Nya yang beriman, memberikan balasan atas segala perbuatan manusia, dan segala sesuatu berjalan menurut sunnatullah; Allah selalu melindungi orang-orang yang beriman; dan menetapkan kedudukan Nabi Muhammad saw sebagai utusan-Nya.\n\n2. Hukum\nKewajiban menginfakkan harta; macam-macam harta dalam agama serta penggunaannya; jizyah; perjanjian dan perdamaian; kewajiban umat Islam terhadap Nabinya; sebab-sebab orang Islam melakukan perang; beberapa dasar politik kenegaraan dan peperangan dalam Islam.\n\n3. Kisah-kisah\nNabi Muhammad saw bersama Abu Bakar r.a. di suatu gua di bukit \u1e60ur ketika hijrah; Perang Hunain (Perang Au\u1e6das) atau Perang Hawazin; dan Perang Tabuk, dan kisah diterima tobatnya tiga orang sahabat yang tidak ikut berperang.\n\n4. Lain-lain\nSifat-sifat orang yang beriman dan orang-orang munafik.\n",
        "outro_surah": null,
        "munasabah_prev_surah": null,
        "munasabah_prev_theme": "Ayat yang lalu menerangkan keutamaan berjihad dan keuntungan hijrah serta akibat rusaknya amal-amal kaum musyrikin walaupun amalnya itu adalah amal yang baik, seperti memberi minuman jamaah haji dan memakmurkan Masjidilharam. Ayat-ayat berikut ini menjelaskan bahwa semua amal itu tidak akan sempurna, kecuali jika kaum Muslimin telah melepaskan diri dari kekuasaan kaum musyrik, dan lebih mengutamakan cinta kepada Allah dan Rasul-Nya serta berjihad di jalan Allah daripada cinta kepada ibu, bapak, anak, saudara, suami, istri, keluarga, harta, dan tempat tinggal.",
        "theme_group": "BAHAYA KEKUASAAN ORANG KAFIR\nTERHADAP ORANG ISLAM",
        "kosakata": "Kosakata: Fatarabba\u1e63\u016b  \u0641\u064e\u062a\u064e\u0631\u064e\u0628\u0651\u064e\u0635\u064f\u0648\u0652\u0627 (at-Taubah/9: 24)\nLafal fatarabba\u1e63\u016b (\u0641\u064e\u062a\u064e\u0631\u064e\u0628\u0651\u064e\u0635\u064f\u0648\u0652\u0627) adalah kata kerja bentuk fi\u2019il amr, ta\u1e63rif lengkapnya tarabba\u1e63a-yatarabba\u1e63u-tarabba\u1e63-tarabbu\u1e63an, artinya menanti atau menunggu. Fi\u2019il amr yang dipergunakan dalam ayat ini didahului dengan huruf fa\u2019 dan dihubungkan dengan wau al-jama yang berfungsi sebagai f\u0101\u2019il, sehingga fatarabba\u1e63\u016b berarti maka tunggulah oleh kamu semua. Bentuk fi\u2019il amr atau perintah dalam ayat ini tidak berarti kita harus mengerjakan perintah itu, jadi bukan berarti kita harus menunggu hal-hal yang akan terjadi, melainkan sesuai dengan Ilmu Balaghah, amr di sini berarti at-tahd\u012bd yaitu mengancam. Jadi Allah pada ayat 24 ini mengancam kepada orang-orang Islam yang lebih mencintai harta dan keluarganya daripada cintanya kepada Allah dan Rasul-Nya dengan mengatakan: tunggulah siksa Allah yang pasti akan datang. Tetapi kalau kita tidak berlebihan dalam mencintai harta dan keluarga kita, dan kita tetap melaksanakan segala perintah Allah dan Rasul-Nya serta menjauhi larangan Agama sebagai tanda cinta dan patuh kita kepada Allah dan Rasul-Nya, maka kita tidak perlu khawatir Allah akan menurunkan siksa itu kepada kita.",
        "sabab_nuzul": null,
        "conclusion": "1. \tOrang mukmin dilarang menjadikan ibu bapak dan saudara mereka yang masih kafir menjadi pemimpin mereka. Jika perintah ini dilanggar, maka mereka adalah orang-orang yang zalim.\n2. \tAllah mengancam orang yang cintanya kepada ayahnya, anaknya, istrinya, saudaranya, temannya, kekayaannya, perdagangannya, dan rumah tempat tinggalnya lebih tinggi daripada cintanya kepada Allah, Rasul-Nya, dan jihad di jalan Allah dengan ancaman yang sangat keras."
    }
}