{
    "id": 1244,
    "surah_id": 9,
    "ayah": 9,
    "page": 188,
    "quarter_hizb": 19.5,
    "juz": 10,
    "manzil": 2,
    "arabic": "\u0627\u0650\u0634\u0652\u062a\u064e\u0631\u064e\u0648\u0652\u0627 \u0628\u0650\u0627\u0670\u064a\u0670\u062a\u0650 \u0627\u0644\u0644\u0651\u0670\u0647\u0650 \u062b\u064e\u0645\u064e\u0646\u064b\u0627 \u0642\u064e\u0644\u0650\u064a\u0652\u0644\u064b\u0627 \u0641\u064e\u0635\u064e\u062f\u0651\u064f\u0648\u0652\u0627 \u0639\u064e\u0646\u0652 \u0633\u064e\u0628\u0650\u064a\u0652\u0644\u0650\u0647\u0656\u06d7 \u0627\u0650\u0646\u0651\u064e\u0647\u064f\u0645\u0652 \u0633\u064e\u0627\u06e4\u0621\u064e \u0645\u064e\u0627\u0643\u064e\u0627\u0646\u064f\u0648\u0652\u0627 \u064a\u064e\u0639\u0652\u0645\u064e\u0644\u064f\u0648\u0652\u0646\u064e ",
    "latin": "Isytarau bi'\u0101y\u0101till\u0101hi \u1e61aman qal\u012blan fa \u1e63add\u016b \u2018an sab\u012blih(\u012b), innahum s\u0101'a m\u0101 k\u0101n\u016b ya\u2018mal\u016bn(a). ",
    "translation": "Mereka menukarkan ayat-ayat Allah dengan harga yang murah lalu mereka menghalangi (manusia) dari jalan-Nya. Sesungguhnya sangat buruk apa yang selalu mereka kerjakan.",
    "no_footnote": null,
    "footnotes": null,
    "surah": {
        "id": 9,
        "arabic": "\u0627\u0644\u062a\u0651\u0648\u0628\u0629",
        "latin": "At-Taubah",
        "transliteration": "At-Taubah",
        "translation": "Pengampunan",
        "num_ayah": 129,
        "page": 187,
        "location": "Madaniyah"
    },
    "tafsir": {
        "wajiz": "Sikap kefasikan itu juga menjadikan mereka berani memperjualbelikan ayat-ayat Allah dengan harga murah, yakni ditukar dengan hal-hal yang bersifat duniawi, padahal ayat-ayat tersebut secara jelas telah menjadi bukti atas keesaan Allah dan kerasulan Nabi Muhammad. Maka, dengan sikapnya itu sesungguhnya mereka telah menghalang-halangi mereka sendiri dan orang lain dari jalan Allah. Sungguh, sikap yang demikian itu menunjukkan betapa buruknya apa yang mereka kerjakan, yakni perilaku sesat dan menyesatkan.",
        "tahlili": "Kaum musyrikin menukar ayat-ayat Allah yang mengandung ajaran-ajaran tauhid, iman dan lain-lain dengan sesuatu yang sangat rendah mutu dan nilainya, agar mereka dapat terus menikmati keberuntungan duniawi yang mereka kehendaki dan untuk mempertahankan tradisi, kedudukan, kekuasaan, dan pengaruh yang membawa keberuntungan duniawi yang mereka nikmati. Pada hakikatnya, keberuntungan itu sangat sedikit dibandingkan dengan keberuntungan bila mereka beriman kepada ayat-ayat Allah yang membawa kebahagiaan akhirat yang kekal abadi. Tetapi kaum musyrikin itu tidak mempedulikan semuanya itu. Maka pada akhir ayat ini Allah menerangkan bahwa perbuatan itu sangat buruk, terutama jika semua tindakan itu dimaksudkan untuk menghalangi tersiarnya agama Islam.",
        "intro_surah": "Surah ini berisi 129 ayat, semuanya Madaniyah, kecuali ayat 113 dan dua ayat terakhir, yaitu ayat 128 dan 129 menurut sebagian ulama adalah Makkiyah karena diturunkan di Mekah. Menurut pendapat sebagian besar ulama tafsir (jumhur), semua ayat itu tanpa ada yang dikecualikan adalah Madaniyah karena berdasarkan pendapat yang masyhur bahwa ayat yang diturunkan sesudah Nabi Muhammad saw hijrah ke Medinah dinamakan Madaniyah sekalipun diturunkan di Mekah. \nSurah ini mempunyai banyak nama, tidak ada surah dalam Al-Qur\u2019an yang lebih banyak namanya dari surah ini dan surah al-F\u0101tihah, akan tetapi yang paling masyhur dari semua namanya itu adalah \u201cBar\u0101\u2032ah\u201d dan \u201cat-Taubah\u201d.\nDinamakan Bar\u0101\u2032ah karena surah ini dimulai dengan kata \u201cBar\u0101\u2032ah\u201d yang berarti berlepas diri yang maksudnya ialah pemutusan hubungan, karena di dalamnya terdapat ayat-ayat yang membicarakan pernyataan pemutusan perjanjian damai dengan kaum musyrikin. Dan dinamakan at-Taubah artinya \u201cpengampunan\u201d, karena di dalam surah ini banyak diterangkan tentang pengampunan terutama pada firman Allah yang berbunyi:\n\u0644\u064e\u0642\u064e\u062f\u0652 \u062a\u0651\u064e\u0627\u0628\u064e \u0627\u0644\u0644\u0651\u0670\u0647\u064f \u0639\u064e\u0644\u064e\u0649 \u0627\u0644\u0646\u0651\u064e\u0628\u0650\u064a\u0651\u0650 \u0648\u064e\u0627\u0644\u0652\u0645\u064f\u0647\u0670\u062c\u0650\u0631\u0650\u064a\u0652\u0646\u064e \u0648\u064e\u0627\u0644\u0652\u0627\u064e\u0646\u0652\u0635\u064e\u0627\u0631\u0650 \u0627\u0644\u0651\u064e\u0630\u0650\u064a\u0652\u0646\u064e \u0627\u062a\u0651\u064e\u0628\u064e\u0639\u064f\u0648\u0652\u0647\u064f \u0641\u0650\u064a\u0652 \u0633\u064e\u0627\u0639\u064e\u0629\u0650 \u0627\u0644\u0652\u0639\u064f\u0633\u0652\u0631\u064e\u0629\u0650 \u0645\u0650\u0646\u0652\u06e2 \u0628\u064e\u0639\u0652\u062f\u0650 \u0645\u064e\u0627 \u0643\u064e\u0627\u062f\u064e \u064a\u064e\u0632\u0650\u064a\u0652\u063a\u064f \u0642\u064f\u0644\u064f\u0648\u0652\u0628\u064f \u0641\u064e\u0631\u0650\u064a\u0652\u0642\u064d \u0645\u0651\u0650\u0646\u0652\u0647\u064f\u0645\u0652 \u062b\u064f\u0645\u0651\u064e \u062a\u064e\u0627\u0628\u064e \u0639\u064e\u0644\u064e\u064a\u0652\u0647\u0650\u0645\u0652\u06d7 \u0627\u0650\u0646\u0651\u064e\u0647\u0657 \u0628\u0650\u0647\u0650\u0645\u0652 \u0631\u064e\u0621\u064f\u0648\u0652\u0641\u064c \u0631\u0651\u064e\u062d\u0650\u064a\u0652\u0645\u064c \u06d9 \u0661\u0661\u0667\n\nSungguh, Allah telah menerima tobat Nabi, orang-orang Muh\u0101jir\u012bn dan orang-orang An\u1e63\u0101r, yang mengikuti Nabi pada masa-masa sulit, setelah hati segolongan dari mereka hampir berpaling, kemudian Allah menerima tobat mereka. Sesungguhnya Allah Maha Pengasih, Maha Penyayang kepada mereka. (at-Taubah/9: 117)\n\nSelain dari dua nama tersebut di atas ada beberapa nama lagi di antaranya: \u201cal-F\u0101\u1e0di\u1e25ah\u201d (mengungkap kejahatan), \u201cal-\u2018A\u017c\u0101b\u201d (siksaan), \u201cal-Munqirah\u201d (mencungkil untuk mencari). \u201cal-Muqasyqisyah\u201d (mem-bebaskan), \u201cal-\u1e24\u0101firah\u201d (menggali), \u201cal-Mu\u1e61\u012brah\u201d (membangkitkan), \u201cal-Mudamdimah\u201d (membinasakan) dan lain-lain.\nSurah ini tidak dimulai dengan Basmalah sebagaimana surah-surah lainnya. Hal ini menjadi dalil bagi sebagian ulama yang berpendapat bahwa surah ini tidak berdiri sendiri, tetapi sebagai lanjutan dari surah sebelumnya (al-Anf\u0101l) tetapi menurut pendapat sebagian besar ulama (jumhur) bahwa surah ini berdiri sendiri.\nAdapun sebab-sebab tidak dimulainya surah ini dengan Basmalah antara lain:\na. \tDiriwayatkan dari al-\u1e24\u0101kim dalam al-Mustadrak dari Ibnu \u2018Abb\u0101s yang bertanya kepada Ali bin Abi \u1e6calib tentang tidak ditulisnya Basmalah pada permulaan surah, Ali menjawab, \u201cKarena Basmalah mengandung isi kedamaian, sedangkan Bar\u0101\u2019ah diturunkan dengan pedang, artinya untuk berperang melawan orang-orang kafir yang melanggar janji.\u201d\nb. \tHadis yang diriwayatkan oleh at-Tirmi\u017c\u012b dan lain-lain dari Ibnu \u2018Abb\u0101s yang maksudnya, \u201cIbnu \u2018Abb\u0101s bertanya kepada \u2018U\u1e61m\u0101n bin \u2018Aff\u0101n ra, \u201cApakah yang mendorongmu untuk berbuat terhadap surah al-Anf\u0101l yang termasuk al-Ma\u1e61ani (surah-surah dalam Al-Qur\u2019an yang ayat-ayatnya kurang sedikit dari seratus ayat), dan Bar\u0101\u2019ah yang termasuk al-Mi\u2019\u016bn (surah-surah yang ayatnya lebih dari seratus) dan menggabungkan kedua surah itu tanpa menulis Basmalah antara keduanya dan menggolongkan kepada \u201cAs-sab\u2019u a\u1e6d-\u1e6ciw\u0101l\u201d (Tujuh surah yang panjang), yaitu: al-Baqarah, \u0100li \u2018Imr\u0101n, an-Nis\u0101\u2019, al-A\u2018r\u0101f, al-An\u2018\u0101m, al-M\u0101\u2019idah, dan Y\u016bnus.\u201d U\u1e61man menjawab, \u201cRasulullah tidak pernah menerangkan digabung atau tidak antara al-Anf\u0101l dan Bar\u0101\u2019ah.\u201d Kata U\u1e61man selanjutnya, \u201cSaya berpendapat bahwa keduanya itu satu surah, oleh karena itu saya tidak menulis Basmalah antara keduanya (permulaan Bar\u0101\u2019ah).\n\nHukum Membaca Basmalah pada Bar\u0101\u2019ah \n1. \tPara ahli qira\u2019at sependapat untuk meninggalkan bacaan Basmalah pada permulaan surah Bar\u0101\u2019ah, karena tidak tertulis dalam Mu\u1e63\u1e25af al-Im\u0101m, bahkan ada yang menyatakan ini merupakan ijma\u2019 ulama, kecuali Ibnu Mun\u017cir. Dia membaca pada awal surah ini, karena mengikuti Mu\u1e63\u1e25af Ibnu Mas\u2019\u016bd (kini sudah tidak ada lagi). Menurut \u2018\u0100\u1e63im, membaca Basmalah pada permulaan Bar\u0101\u2019ah dengan maksud untuk mengambil berkah adalah dikiaskan hukumnya kepada hukum disunatkan membaca Basmalah setiap memulai pekerjaan yang baik.\n2. \tAdapun membaca Basmalah tidak pada permulaan Bar\u0101\u2019ah boleh memilih antara membaca atau tidak membaca. Berdasarkan itu imam yang lain menyatakan hukumnya \u201cjawaz\u201d (boleh seperti bolehnya membaca Basmalah pada ayat yang lain yang letaknya tidak pada permulaan surah).\n\nPokok-pokok Isinya\nSelain dari pembatalan perjanjian damai dengan kaum musyrikin, maka surah ini mengandung pokok-pokok isi sebagai berikut:\n\n1. Keimanan\nBahwa Allah selalu menyertai hamba-hamba-Nya yang beriman, memberikan balasan atas segala perbuatan manusia, dan segala sesuatu berjalan menurut sunnatullah; Allah selalu melindungi orang-orang yang beriman; dan menetapkan kedudukan Nabi Muhammad saw sebagai utusan-Nya.\n\n2. Hukum\nKewajiban menginfakkan harta; macam-macam harta dalam agama serta penggunaannya; jizyah; perjanjian dan perdamaian; kewajiban umat Islam terhadap Nabinya; sebab-sebab orang Islam melakukan perang; beberapa dasar politik kenegaraan dan peperangan dalam Islam.\n\n3. Kisah-kisah\nNabi Muhammad saw bersama Abu Bakar r.a. di suatu gua di bukit \u1e60ur ketika hijrah; Perang Hunain (Perang Au\u1e6das) atau Perang Hawazin; dan Perang Tabuk, dan kisah diterima tobatnya tiga orang sahabat yang tidak ikut berperang.\n\n4. Lain-lain\nSifat-sifat orang yang beriman dan orang-orang munafik.\n",
        "outro_surah": null,
        "munasabah_prev_surah": null,
        "munasabah_prev_theme": "Ayat-ayat yang lalu menerangkan bahwa Allah dan Rasul-Nya membatalkan perjanjian yang dilanggar oleh kaum musyrikin dan mengajak mereka bertobat dari syirik agar tidak timbul peperangan kembali. Ayat-ayat ini menerangkan sebab-sebab pembatalan perjanjian dan menerangkan bahwa tindakan selanjutnya yang mungkin timbul akibat pembatalan itu adalah perlakuan serupa dengan apa yang telah dilakukan oleh kaum musyrikin terhadap kaum Muslimin.",
        "theme_group": "SEBAB-SEBAB PEMBATALAN PERJANJIAN DAMAI",
        "kosakata": "Kosakata: \u017bimmah  \ufeab\u0650\u0645\u0651\u064e\u0629\u064c (at-Taubah/9: 10)\nLafal \u017cimmah artinya perjanjian. Ungkapan \u0623\u0630\u0645 \u0641\u0644\u0627\u0646\u0627 berarti dia melindungi seseorang, dan\u0627\u0644\u0630\u0645\u0629  berarti perlindungan, jaminan, dan tanggungan. Ahl a\u017c-\u017cimmah (\ufe83\ufeeb\ufede \u0627\u0644\u0630\u0645\u0629) artinya orang-orang bukan Islam yang berada di bawah perlindungan pemerintah Islam. \ufeeb\ufee2 \ufeab\ufee3\ufe94 berarti mereka saling mengadakan perjanjian. Pada ayat 10 ini Allah menerangkan tentang beberapa orang musyrik yang telah melampui batas karena mereka tidak memelihara hubungan kekerabatan dengan orang-orang mukmin dan juga tidak mengindahkan perjanjian yang telah dibuat bersama orang-orang mukmin. Hal-hal ini tentu dapat menjadi sebab pembatalan perjanjian damai, karena mereka berbuat semau mereka sendiri pada saat-saat ada kesempatan untuk menghancurkan kaum Muslimin, tanpa terikat lagi pada perjanjian yang telah dibuat bersama.",
        "sabab_nuzul": null,
        "conclusion": null
    }
}