{
    "id": 1265,
    "surah_id": 9,
    "ayah": 30,
    "page": 191,
    "quarter_hizb": 19.75,
    "juz": 10,
    "manzil": 2,
    "arabic": "\u0648\u064e\u0642\u064e\u0627\u0644\u064e\u062a\u0650 \u0627\u0644\u0652\u064a\u064e\u0647\u064f\u0648\u0652\u062f\u064f \u0639\u064f\u0632\u064e\u064a\u0652\u0631\u064f \u06e8\u0650\u0627\u0628\u0652\u0646\u064f \u0627\u0644\u0644\u0651\u0670\u0647\u0650 \u0648\u064e\u0642\u064e\u0627\u0644\u064e\u062a\u0650 \u0627\u0644\u0646\u0651\u064e\u0635\u0670\u0631\u064e\u0649 \u0627\u0644\u0652\u0645\u064e\u0633\u0650\u064a\u0652\u062d\u064f \u0627\u0628\u0652\u0646\u064f \u0627\u0644\u0644\u0651\u0670\u0647\u0650 \u06d7\u0630\u0670\u0644\u0650\u0643\u064e \u0642\u064e\u0648\u0652\u0644\u064f\u0647\u064f\u0645\u0652 \u0628\u0650\u0627\u064e\u0641\u0652\u0648\u064e\u0627\u0647\u0650\u0647\u0650\u0645\u0652\u06da \u064a\u064f\u0636\u064e\u0627\u0647\u0650\u0640\u0654\u064f\u0648\u0652\u0646\u064e \u0642\u064e\u0648\u0652\u0644\u064e \u0627\u0644\u0651\u064e\u0630\u0650\u064a\u0652\u0646\u064e \u0643\u064e\u0641\u064e\u0631\u064f\u0648\u0652\u0627 \u0645\u0650\u0646\u0652 \u0642\u064e\u0628\u0652\u0644\u064f \u06d7\u0642\u064e\u0627\u062a\u064e\u0644\u064e\u0647\u064f\u0645\u064f \u0627\u0644\u0644\u0651\u0670\u0647\u064f \u06da \u0627\u064e\u0646\u0651\u0670\u0649 \u064a\u064f\u0624\u0652\u0641\u064e\u0643\u064f\u0648\u0652\u0646\u064e ",
    "latin": "Wa q\u0101latil-yah\u016bdu \u2018uzairunibnull\u0101hi wa q\u0101latin-na\u1e63\u0101ral-mas\u012b\u1e25ubnull\u0101h(i), \u017c\u0101lika qauluhum bi'afw\u0101hihim, yu\u1e0d\u0101hi'\u016bna qaulal-la\u017c\u012bna kafar\u016b min qabl(u), q\u0101talahumull\u0101h(u), ann\u0101 yu'fak\u016bn(a). ",
    "translation": "Orang-orang Yahudi berkata, \u201cUzair putra Allah,\u201d dan orang-orang Nasrani berkata, \u201cAl-Masih putra Allah.\u201d Itulah ucapan mereka dengan mulut-mulut mereka. Mereka meniru ucapan orang-orang yang kufur sebelumnya. Allah melaknat mereka; bagaimana mereka sampai berpaling?",
    "no_footnote": null,
    "footnotes": null,
    "surah": {
        "id": 9,
        "arabic": "\u0627\u0644\u062a\u0651\u0648\u0628\u0629",
        "latin": "At-Taubah",
        "transliteration": "At-Taubah",
        "translation": "Pengampunan",
        "num_ayah": 129,
        "page": 187,
        "location": "Madaniyah"
    },
    "tafsir": {
        "wajiz": "Ayat ini menerangkan sesatnya akidah Ahli Kitab. Dan orang-orang Yahudi berkata, \u201cUzair putra Allah\u201d, dan orang-orang Nasrani berkata, \u201cAl-Masih putra Allah\u201d. Itulah ucapan yang keluar dari mulut mereka tanpa didasarkan pada dalil yang benar. Mereka meniru ucapan orang-orang kafir yang terdahulu, seperti perkataan musyrik Mekkah bahwa malaikat adalah anak perempuan Tuhan. Akibat ucapan dan keyakinan mereka yang sesat itulah Allah melaknat mereka. Memang, sungguh mengherankan bagaimana mung-kin mereka sampai berpaling dari agama yang benar, yaitu agama tauhid, padahal para rasul telah datang kepada mereka silih berganti un-tuk menjelaskan tentang hal itu, juga dikuatkan dengan bukti-bukti rasional tentang keesaan Allah tersebut?",
        "tahlili": "Ayat ini menjelaskan keyakinan Ahli Kitab yang salah, baik orang Yahudi ataupun orang Nasrani. Mereka berkeyakinan bahwa Allah mempunyai anak, kaum Yahudi menganut kepercayaan bahwa \u201cUzair itu putera Allah\u201d. Kepercayaan ini bertentangan sekali dengan pengertian iman yang sebenarnya kepada Allah, karena iman yang benar ialah Allah itu Esa, tunggal, tidak berbapak dan tidak bersekutu dengan apa dan siapa pun. Dia Mahasempurna, Mahakuasa, dan tidak ada satu pun yang serupa  dan sama dengan-Nya.\nUzair adalah seorang pendeta bangsa Yahudi, penduduk negeri Babilon, hidup di sekitar tahun 457 sebelum Masehi. Dia seorang pengarang ulung, pendiri suatu perhimpunan besar, dan rajin mengumpulkan naskah-naskah Kitab Suci dari berbagai daerah. Dialah yang memasukkan huruf-huruf Kaldea atau Arami sebagai pengganti huruf-huruf Ibrani kuno. Dia juga yang menulis hal-hal yang terkait dengan peredaran matahari, dan menyusun kembali kitab-kitab bermutu yang telah berantakan. Semasa hidupnya, ia dianggap sebagai masa kesuburan agama Yahudi, karena dialah penyair syariat Taurat yang terkemuka, menghidupkan syariat itu kembali sesudah sekian lama dilupakan orang. Oleh karena itu kaum Yahudi menganggapnya sebagai orang suci yang lebih dekat kepada Allah, bahkan sebagian dari mereka yang fanatik menganggap dan memanggilnya dengan \u201canak Allah\u201d. Meskipun hanya sebagian dari kaum Yahudi yang berkeyakinan demikian tetapi dapat dianggap bahwa keyakinan itu adalah kepercayaan mereka seluruhnya karena ucapan yang salah itu tidak dibantah dan tidak diingkari oleh golongan yang lain. Firman Allah:\n\n\u0648\u064e\u0627\u062a\u0651\u064e\u0642\u064f\u0648\u0652\u0627 \u0641\u0650\u062a\u0652\u0646\u064e\u0629\u064b \u0644\u0651\u064e\u0627 \u062a\u064f\u0635\u0650\u064a\u0652\u0628\u064e\u0646\u0651\u064e \u0627\u0644\u0651\u064e\u0630\u0650\u064a\u0652\u0646\u064e \u0638\u064e\u0644\u064e\u0645\u064f\u0648\u0652\u0627 \u0645\u0650\u0646\u0652\u0643\u064f\u0645\u0652 \u062e\u064e\u0627\u06e4\u0635\u0651\u064e\u0629\u064b \nDan peliharalah dirimu dari siksaan yang tidak hanya menimpa orang-orang yang zalim saja di antara kamu. (al-Anf\u0101l/8: 25)\n\nDemikian juga halnya kaum Nasrani terhadap Isa Almasih. Mereka beritikad bahwa Isa itu anak Allah. Kepercayaan inipun sangat bertentangan dengan iman kepada Allah swt. Sekalipun pada mulanya kata-kata \u201cIsa itu anak Allah\u201d hanyalah merupakan ucapan nenek moyang mereka yang menganggap Isa adalah orang yang mulia, dikasihi Allah dan terhormat, dan ucapan itu tidak berarti anak Allah yang sebenarnya. Namun demikian, lambat laun terutama ketika kepercayaan agama Hindu menyusup masuk ke dalam kaum Nasrani dan kedua agama itu berdampingan, bahu membahu, tertanamlah di dalam hati mereka kepercayaan bahwa Isa Almasih itu adalah benar-benar anak Allah. Kemudian setelah berlalu beberapa waktu lamanya, timbullah perubahan dalam kepercayaan mereka, bahwa anak Allah dan Allah juga Rohulkudus (Roh Suci), yang kemudian dikenal dengan \u201cBapak, anak dan ruh suci\u201d, hakekatnya menyatu pada diri Allah.\nMenurut keyakinan mereka, tiga unsur tersebut yaitu: Anak Allah, Allah dan Roh Suci pada hakikatnya hanya satu. Ajaran ini sudah menjadi ketetapan dalam agama Nasrani, tiga abad sepeninggal Isa Almasih. Meskipun kepercayaan ini ditentang oleh sebagian dari mereka yang tidak sedikit jumlahnya, tetapi gereja-gereja Katolik, Ortodok, dan Protestan tetap pada pendiriannya. Bahkan orang-orang yang tidak membenarkan kepercayaan itu, dianggap tidak lagi termasuk kaum Nasrani dan telah murtad dari agamanya.\n Mengatakan Isa Almasih anak Allah dan meyakini bahwa tiga oknum suci itu adalah hakikat Tuhan Yang Maha Esa, tidak dibenarkan oleh Allah swt dan tidak dapat diterima oleh akal yang sehat dan belum ada satu juga agama nabi-nabi sebelum itu menganut kepercayaan demikian, Allah swt menandaskan bahwa ucapan mereka seperti itu, tidak mempunyai hakikat kebenaran sedikit juga dan tidak ada satu dalil dan bukti yang nyata dapat menguatkannya. Sejalan dengan ini Allah swt berfirman:\n \u0643\u064e\u0628\u064f\u0631\u064e\u062a\u0652 \u0643\u064e\u0644\u0650\u0645\u064e\u0629\u064b \u062a\u064e\u062e\u0652\u0631\u064f\u062c\u064f \u0645\u0650\u0646\u0652 \u0627\u064e\u0641\u0652\u0648\u064e\u0627\u0647\u0650\u0647\u0650\u0645\u0652\u06d7 \u0627\u0650\u0646\u0652 \u064a\u0651\u064e\u0642\u064f\u0648\u0652\u0644\u064f\u0648\u0652\u0646\u064e \u0627\u0650\u0644\u0651\u064e\u0627 \u0643\u064e\u0630\u0650\u0628\u064b\u0627 \nAlangkah jeleknya kata-kata yang keluar dari mulut mereka; mereka hanya mengatakan (sesuatu) kebohongan belaka. (al-Kahf/18: 5)\n\nDi dalam kitab-kitab Perjanjian Baru sendiri tidak terdapat keterangan yang menyatakan bahwa Isa Almasih itu anak Allah. Sesungguhnya mereka sudah sesat jauh dari ajaran yang sebenarnya. Mereka meniru-niru ucapan orang-orang kafir sebelumnya, seperti orang-orang musyrik bangsa Arab yang mengatakan bahwa malaikat-malaikat itu adalah puteri-puteri Allah.\nSejarah mencatat bahwa kepercayan \u201cTuhan beranak, Tuhan menjelma dalam tiga unsur berhakikat satu\u201d adalah kepercayaan kaum Brahma dan Budha di India, kepercayaan bangsa-bangsa Jepang, Persia, Mesir, Yunani, dan Romawi zaman dahulu. Keadaan orang-orang Yahudi dan Nasrani mempercayai bahwa Allah swt itu beranak, belum pernah ada seorang pun dari bangsa Arab yang mengetahuinya, begitu pula orang-orang yang berada di sekitarnya. Dan baru dengan turunnya Al-Qur\u2019an, diketahui kerancuan pemahaman mereka terhadap hakikat Nabi Isa, Tuhan, dan Roh Kudus. Kalaulah tidak ayat yang mengoreksi kesalahan pemahaman ini, tentu kesalahan itu belum disadari sampai saat ini. Ini adalah salah satu mukjizat Al-Qur\u2019an.\nAllah swt mengutuk mereka karena mereka belum mau menginsafi dan menyadari kekeliruan dan kesesatannya. Meskipun Rasul-rasul Allah telah menjelaskan bahwa Allah itu Maha Esa, tidak beranak dan tidak diperanakkan, namun mereka tidak mau kembali ke akidah tauhid, bahkan tetap bertahan pada itikadnya yang keliru, yaitu menganggap bahwa Uzair dan Isa Almasih adalah anak Allah. Padahal keduanya adalah manusia biasa dan hamba-Nya, seperti juga manusia-manusia lain, sekalipun diakui bahwa keduanya adalah manusia yang saleh, taat kepada Allah dan Rasul-Nya, mulia dan dihormati, sebagaimana firman Allah:\n\n\u0648\u064e\u0642\u064e\u0627\u0644\u064f\u0648\u0627 \u0627\u062a\u0651\u064e\u062e\u064e\u0630\u064e \u0627\u0644\u0631\u0651\u064e\u062d\u0652\u0645\u0670\u0646\u064f \u0648\u064e\u0644\u064e\u062f\u064b\u0627 \u0633\u064f\u0628\u0652\u062d\u0670\u0646\u064e\u0647\u0657 \u06d7\u0628\u064e\u0644\u0652 \u0639\u0650\u0628\u064e\u0627\u062f\u064c \u0645\u0651\u064f\u0643\u0652\u0631\u064e\u0645\u064f\u0648\u0652\u0646\u064e \u06d9 \u0662\u0666\nDan  mereka  berkata, \u201cTuhan Yang Maha Pengasih telah menjadikan (malaikat) sebagai anak.\u201d Mahasuci Dia. Sebenarnya mereka (para malaikat itu) adalah hamba-hamba yang dimuliakan. (al-Anbiy\u0101\u2019/21: 26)",
        "intro_surah": "Surah ini berisi 129 ayat, semuanya Madaniyah, kecuali ayat 113 dan dua ayat terakhir, yaitu ayat 128 dan 129 menurut sebagian ulama adalah Makkiyah karena diturunkan di Mekah. Menurut pendapat sebagian besar ulama tafsir (jumhur), semua ayat itu tanpa ada yang dikecualikan adalah Madaniyah karena berdasarkan pendapat yang masyhur bahwa ayat yang diturunkan sesudah Nabi Muhammad saw hijrah ke Medinah dinamakan Madaniyah sekalipun diturunkan di Mekah. \nSurah ini mempunyai banyak nama, tidak ada surah dalam Al-Qur\u2019an yang lebih banyak namanya dari surah ini dan surah al-F\u0101tihah, akan tetapi yang paling masyhur dari semua namanya itu adalah \u201cBar\u0101\u2032ah\u201d dan \u201cat-Taubah\u201d.\nDinamakan Bar\u0101\u2032ah karena surah ini dimulai dengan kata \u201cBar\u0101\u2032ah\u201d yang berarti berlepas diri yang maksudnya ialah pemutusan hubungan, karena di dalamnya terdapat ayat-ayat yang membicarakan pernyataan pemutusan perjanjian damai dengan kaum musyrikin. Dan dinamakan at-Taubah artinya \u201cpengampunan\u201d, karena di dalam surah ini banyak diterangkan tentang pengampunan terutama pada firman Allah yang berbunyi:\n\u0644\u064e\u0642\u064e\u062f\u0652 \u062a\u0651\u064e\u0627\u0628\u064e \u0627\u0644\u0644\u0651\u0670\u0647\u064f \u0639\u064e\u0644\u064e\u0649 \u0627\u0644\u0646\u0651\u064e\u0628\u0650\u064a\u0651\u0650 \u0648\u064e\u0627\u0644\u0652\u0645\u064f\u0647\u0670\u062c\u0650\u0631\u0650\u064a\u0652\u0646\u064e \u0648\u064e\u0627\u0644\u0652\u0627\u064e\u0646\u0652\u0635\u064e\u0627\u0631\u0650 \u0627\u0644\u0651\u064e\u0630\u0650\u064a\u0652\u0646\u064e \u0627\u062a\u0651\u064e\u0628\u064e\u0639\u064f\u0648\u0652\u0647\u064f \u0641\u0650\u064a\u0652 \u0633\u064e\u0627\u0639\u064e\u0629\u0650 \u0627\u0644\u0652\u0639\u064f\u0633\u0652\u0631\u064e\u0629\u0650 \u0645\u0650\u0646\u0652\u06e2 \u0628\u064e\u0639\u0652\u062f\u0650 \u0645\u064e\u0627 \u0643\u064e\u0627\u062f\u064e \u064a\u064e\u0632\u0650\u064a\u0652\u063a\u064f \u0642\u064f\u0644\u064f\u0648\u0652\u0628\u064f \u0641\u064e\u0631\u0650\u064a\u0652\u0642\u064d \u0645\u0651\u0650\u0646\u0652\u0647\u064f\u0645\u0652 \u062b\u064f\u0645\u0651\u064e \u062a\u064e\u0627\u0628\u064e \u0639\u064e\u0644\u064e\u064a\u0652\u0647\u0650\u0645\u0652\u06d7 \u0627\u0650\u0646\u0651\u064e\u0647\u0657 \u0628\u0650\u0647\u0650\u0645\u0652 \u0631\u064e\u0621\u064f\u0648\u0652\u0641\u064c \u0631\u0651\u064e\u062d\u0650\u064a\u0652\u0645\u064c \u06d9 \u0661\u0661\u0667\n\nSungguh, Allah telah menerima tobat Nabi, orang-orang Muh\u0101jir\u012bn dan orang-orang An\u1e63\u0101r, yang mengikuti Nabi pada masa-masa sulit, setelah hati segolongan dari mereka hampir berpaling, kemudian Allah menerima tobat mereka. Sesungguhnya Allah Maha Pengasih, Maha Penyayang kepada mereka. (at-Taubah/9: 117)\n\nSelain dari dua nama tersebut di atas ada beberapa nama lagi di antaranya: \u201cal-F\u0101\u1e0di\u1e25ah\u201d (mengungkap kejahatan), \u201cal-\u2018A\u017c\u0101b\u201d (siksaan), \u201cal-Munqirah\u201d (mencungkil untuk mencari). \u201cal-Muqasyqisyah\u201d (mem-bebaskan), \u201cal-\u1e24\u0101firah\u201d (menggali), \u201cal-Mu\u1e61\u012brah\u201d (membangkitkan), \u201cal-Mudamdimah\u201d (membinasakan) dan lain-lain.\nSurah ini tidak dimulai dengan Basmalah sebagaimana surah-surah lainnya. Hal ini menjadi dalil bagi sebagian ulama yang berpendapat bahwa surah ini tidak berdiri sendiri, tetapi sebagai lanjutan dari surah sebelumnya (al-Anf\u0101l) tetapi menurut pendapat sebagian besar ulama (jumhur) bahwa surah ini berdiri sendiri.\nAdapun sebab-sebab tidak dimulainya surah ini dengan Basmalah antara lain:\na. \tDiriwayatkan dari al-\u1e24\u0101kim dalam al-Mustadrak dari Ibnu \u2018Abb\u0101s yang bertanya kepada Ali bin Abi \u1e6calib tentang tidak ditulisnya Basmalah pada permulaan surah, Ali menjawab, \u201cKarena Basmalah mengandung isi kedamaian, sedangkan Bar\u0101\u2019ah diturunkan dengan pedang, artinya untuk berperang melawan orang-orang kafir yang melanggar janji.\u201d\nb. \tHadis yang diriwayatkan oleh at-Tirmi\u017c\u012b dan lain-lain dari Ibnu \u2018Abb\u0101s yang maksudnya, \u201cIbnu \u2018Abb\u0101s bertanya kepada \u2018U\u1e61m\u0101n bin \u2018Aff\u0101n ra, \u201cApakah yang mendorongmu untuk berbuat terhadap surah al-Anf\u0101l yang termasuk al-Ma\u1e61ani (surah-surah dalam Al-Qur\u2019an yang ayat-ayatnya kurang sedikit dari seratus ayat), dan Bar\u0101\u2019ah yang termasuk al-Mi\u2019\u016bn (surah-surah yang ayatnya lebih dari seratus) dan menggabungkan kedua surah itu tanpa menulis Basmalah antara keduanya dan menggolongkan kepada \u201cAs-sab\u2019u a\u1e6d-\u1e6ciw\u0101l\u201d (Tujuh surah yang panjang), yaitu: al-Baqarah, \u0100li \u2018Imr\u0101n, an-Nis\u0101\u2019, al-A\u2018r\u0101f, al-An\u2018\u0101m, al-M\u0101\u2019idah, dan Y\u016bnus.\u201d U\u1e61man menjawab, \u201cRasulullah tidak pernah menerangkan digabung atau tidak antara al-Anf\u0101l dan Bar\u0101\u2019ah.\u201d Kata U\u1e61man selanjutnya, \u201cSaya berpendapat bahwa keduanya itu satu surah, oleh karena itu saya tidak menulis Basmalah antara keduanya (permulaan Bar\u0101\u2019ah).\n\nHukum Membaca Basmalah pada Bar\u0101\u2019ah \n1. \tPara ahli qira\u2019at sependapat untuk meninggalkan bacaan Basmalah pada permulaan surah Bar\u0101\u2019ah, karena tidak tertulis dalam Mu\u1e63\u1e25af al-Im\u0101m, bahkan ada yang menyatakan ini merupakan ijma\u2019 ulama, kecuali Ibnu Mun\u017cir. Dia membaca pada awal surah ini, karena mengikuti Mu\u1e63\u1e25af Ibnu Mas\u2019\u016bd (kini sudah tidak ada lagi). Menurut \u2018\u0100\u1e63im, membaca Basmalah pada permulaan Bar\u0101\u2019ah dengan maksud untuk mengambil berkah adalah dikiaskan hukumnya kepada hukum disunatkan membaca Basmalah setiap memulai pekerjaan yang baik.\n2. \tAdapun membaca Basmalah tidak pada permulaan Bar\u0101\u2019ah boleh memilih antara membaca atau tidak membaca. Berdasarkan itu imam yang lain menyatakan hukumnya \u201cjawaz\u201d (boleh seperti bolehnya membaca Basmalah pada ayat yang lain yang letaknya tidak pada permulaan surah).\n\nPokok-pokok Isinya\nSelain dari pembatalan perjanjian damai dengan kaum musyrikin, maka surah ini mengandung pokok-pokok isi sebagai berikut:\n\n1. Keimanan\nBahwa Allah selalu menyertai hamba-hamba-Nya yang beriman, memberikan balasan atas segala perbuatan manusia, dan segala sesuatu berjalan menurut sunnatullah; Allah selalu melindungi orang-orang yang beriman; dan menetapkan kedudukan Nabi Muhammad saw sebagai utusan-Nya.\n\n2. Hukum\nKewajiban menginfakkan harta; macam-macam harta dalam agama serta penggunaannya; jizyah; perjanjian dan perdamaian; kewajiban umat Islam terhadap Nabinya; sebab-sebab orang Islam melakukan perang; beberapa dasar politik kenegaraan dan peperangan dalam Islam.\n\n3. Kisah-kisah\nNabi Muhammad saw bersama Abu Bakar r.a. di suatu gua di bukit \u1e60ur ketika hijrah; Perang Hunain (Perang Au\u1e6das) atau Perang Hawazin; dan Perang Tabuk, dan kisah diterima tobatnya tiga orang sahabat yang tidak ikut berperang.\n\n4. Lain-lain\nSifat-sifat orang yang beriman dan orang-orang munafik.\n",
        "outro_surah": null,
        "munasabah_prev_surah": null,
        "munasabah_prev_theme": "Ayat-ayat yang lalu menerangkan bahwa orang-orang Ahli Kitab itu tidak percaya kepada Allah swt dan kepada hari akhirat, bahkan mereka memusuhi umat Islam sehingga Allah memerintahkan Nabi untuk memerangi mereka sampai menyerah dan membayar jizyah atau masuk Islam. Ayat-ayat berikut ini menerangkan ketidakbenaran kepercayaan mereka itu, seperti meng-anggap pendeta mereka sebagai anak Allah dan Almasih sebagai anak Tuhan.",
        "theme_group": "KEPERCAYAAN AHLI KITAB SERTA SIKAP\nMEREKA TERHADAP AGAMA ",
        "kosakata": "Kosakata: \u2018Uzair Ibnu Allah \u0639\u064f\u0632\u064e\u064a\u0652\u0631 \u0627\u0628\u0652\u0646\u064f \u0627\u0644\u0644\u0647     (at-Taubah/9: 30)\n\u2018Uzair adalah salah seorang ulama Yahudi. Beliau termasuk tawanan yang dibebaskan oleh Kisra Raja Persia dan diperbolehkan kembali ke Yerusalem pada tahun  451 SM. \u2018Uzair adalah tokoh agamawan Yahudi yang berhasil menghimpun kembali kitab suci Yahudi setelah sebelumnya lenyap. Karena kedudukannya itulah sehingga orang-orang Yahudi menamainya pada mulanya sebagai penghormatan \u2013 Anak Allah (\u0627\u0628\u0646 \u0627\u0644\u0644\u0647  ), kemudian penghormatan ini berkembang sehingga akhirnya ia diyakini oleh sebagian mereka sebagai anak Allah (\u0627\u0628\u0646 \u0627\u0644\u0644\u0647  ) dalam pengertian hakiki. Walaupun kepercayaan itu hanya dianut oleh sebagian mereka, tetapi karena sebagian yang lain tidak membantah atau meluruskannya, maka mereka semua dianggap menyetujui keyakinan sesat itu.",
        "sabab_nuzul": null,
        "conclusion": null
    }
}