{
    "id": 1297,
    "surah_id": 9,
    "ayah": 62,
    "page": 197,
    "quarter_hizb": 20.5,
    "juz": 10,
    "manzil": 2,
    "arabic": "\u064a\u064e\u062d\u0652\u0644\u0650\u0641\u064f\u0648\u0652\u0646\u064e \u0628\u0650\u0627\u0644\u0644\u0651\u0670\u0647\u0650 \u0644\u064e\u0643\u064f\u0645\u0652 \u0644\u0650\u064a\u064f\u0631\u0652\u0636\u064f\u0648\u0652\u0643\u064f\u0645\u0652 \u0648\u064e\u0627\u0644\u0644\u0651\u0670\u0647\u064f \u0648\u064e\u0631\u064e\u0633\u064f\u0648\u0652\u0644\u064f\u0647\u0657\u0653 \u0627\u064e\u062d\u064e\u0642\u0651\u064f \u0627\u064e\u0646\u0652 \u064a\u0651\u064f\u0631\u0652\u0636\u064f\u0648\u0652\u0647\u064f \u0627\u0650\u0646\u0652 \u0643\u064e\u0627\u0646\u064f\u0648\u0652\u0627 \u0645\u064f\u0624\u0652\u0645\u0650\u0646\u0650\u064a\u0652\u0646\u064e ",
    "latin": "Ya\u1e25lif\u016bna bill\u0101hi lakum liyur\u1e0d\u016bkum wall\u0101hu wa ras\u016bluh\u016b a\u1e25aqqu ay yur\u1e0d\u016bhu  in k\u0101n\u016b mu'min\u012bn(a). ",
    "translation": "Mereka (orang-orang munafik) bersumpah kepadamu (kaum muslim) dengan (nama) Allah untuk membuat kamu rida, padahal Allah dan Rasul-Nya lebih pantas mereka (raih) keridaan-Nya jika mereka adalah orang-orang beriman.",
    "no_footnote": null,
    "footnotes": null,
    "surah": {
        "id": 9,
        "arabic": "\u0627\u0644\u062a\u0651\u0648\u0628\u0629",
        "latin": "At-Taubah",
        "transliteration": "At-Taubah",
        "translation": "Pengampunan",
        "num_ayah": 129,
        "page": 187,
        "location": "Madaniyah"
    },
    "tafsir": {
        "wajiz": "Rangkaian ayat berikut ini memaparkan sifat buruk yang lain dari orang-orang munafik. Mereka bersumpah palsu kepadamu dengan nama Allah, untuk tidak turut serta dalam Perang Tabuk, semata-mata untuk menyenangkan kamu dan orang-orang beriman, padahal Allah dan RasulNya lebih pantas bagi mereka untuk dicari keridaan-Nya dengan menaati segala perintah Allah dan Rasul-Nya meskipun berat, jika mereka benar-benar orang mukmin dengan keimanan yang mantap.",
        "tahlili": "Sabab Nuzul: Diriwayatkan Ibnu Mun\u017cir dari Qat\u0101dah tentang sebab nuzul ayat ini, Qat\u0101dah berkata, \u201cKepada kami diberitahukan bahwa seorang lelaki dari kalangan munafik berkata tentang golongan yang tidak turut Perang Tabuk dimana turun ayat khusus mengenai mereka. Lelaki itu berkata, \u201cDemi Allah bahwa sesungguhnya mereka yang tidak ikut berperang itu adalah orang-orang pilihan dan orang-orang yang mulia. Jika sekiranya benar apa yang dikatakan Muhammad tentulah mereka lebih jahat daripada keledai.\u201d Ucapan lelaki itu didengar oleh seorang lelaki dari kalangan muslim, lalu ia berkata (sebagai jawaban terhadap orang-orang munafik itu), \u201cDemi Allah, bahwa apa yang dikatakan Muhammad itu adalah benar dan engkau adalah lebih jelek daripada himar (keledai).\u201d Orang muslim itu pergi kepada Rasulullah untuk menceritakan kejadian itu maka orang-orang munafik itu didatangkan menghadap Nabi dan Nabi berkata, \u201cApakah yang mendorong engkau berkata demikian?\u201d Orang munafik itu mengingkari ucapannya dan melaknati dirinya dengan bersumpah bahwa ia tidak pernah berkata demikian. Orang muslim itu berkata, \u201cHai Tuhanku benarkanlah orang yang benar dan dustakanlah orang yang dusta,\u201d maka turunlah ayat ini.\nAyat ini menerangkan tentang kebiasaan orang-orang munafik sebagaimana halnya dengan orang-orang yang berbuat suatu kesalahan, seperti mencuri dan membunuh. Mereka selalu merasa dalam kesulitan karena mereka selalu dibayang-bayangi oleh akibat perbuatan mereka yang buruk yang mereka lakukan, dan mereka takut kebohongan mereka diketahui oleh orang-orang muslim. Mereka sering bersumpah sebagai cara untuk menutupi kejahatan dan kebohongan mereka.\nDemikian perbuatan orang munafik, mereka bersumpah untuk meyakinkan orang-orang mukmin bahwa apa yang disampaikannya tentang kelakuan buruk mereka baik menentang maupun memburukkan Rasulullah adalah tidak benar. Hal ini dimaksudkan agar orang mukmin mengakui bahwa mereka adalah orang-orang yang bersih dari segala tuduhan. Mereka sering bersumpah dengan maksud menyenangkan Rasul dan mendapat kepercayaan dari orang-orang mukmin sehingga mereka mendapat perlindungan dari orang-orang mukmin; semestinya mereka berusaha mendapat keridaan Tuhan dan Rasul-Nya dengan iman yang sungguh-sungguh yang jauh dari kemunafikan dan keraguan jika benar-benar mereka ingin menjadi orang mukmin. Meskipun orang-orang mukmin dapat diyakinkan dengan jalan bersumpah, dan kebohongan mereka tidak terungkap, namun Allah swt, tetap mengetahui segala sesuatu yang mereka perbuat dan sesuatu yang masih tersimpan di hati mereka. Ketika kemaslahatan menghendaki, Allah menurunkan kepada Rasul wahyu yang menjelaskan tentang semua yang mereka lakukan.",
        "intro_surah": "Surah ini berisi 129 ayat, semuanya Madaniyah, kecuali ayat 113 dan dua ayat terakhir, yaitu ayat 128 dan 129 menurut sebagian ulama adalah Makkiyah karena diturunkan di Mekah. Menurut pendapat sebagian besar ulama tafsir (jumhur), semua ayat itu tanpa ada yang dikecualikan adalah Madaniyah karena berdasarkan pendapat yang masyhur bahwa ayat yang diturunkan sesudah Nabi Muhammad saw hijrah ke Medinah dinamakan Madaniyah sekalipun diturunkan di Mekah. \nSurah ini mempunyai banyak nama, tidak ada surah dalam Al-Qur\u2019an yang lebih banyak namanya dari surah ini dan surah al-F\u0101tihah, akan tetapi yang paling masyhur dari semua namanya itu adalah \u201cBar\u0101\u2032ah\u201d dan \u201cat-Taubah\u201d.\nDinamakan Bar\u0101\u2032ah karena surah ini dimulai dengan kata \u201cBar\u0101\u2032ah\u201d yang berarti berlepas diri yang maksudnya ialah pemutusan hubungan, karena di dalamnya terdapat ayat-ayat yang membicarakan pernyataan pemutusan perjanjian damai dengan kaum musyrikin. Dan dinamakan at-Taubah artinya \u201cpengampunan\u201d, karena di dalam surah ini banyak diterangkan tentang pengampunan terutama pada firman Allah yang berbunyi:\n\u0644\u064e\u0642\u064e\u062f\u0652 \u062a\u0651\u064e\u0627\u0628\u064e \u0627\u0644\u0644\u0651\u0670\u0647\u064f \u0639\u064e\u0644\u064e\u0649 \u0627\u0644\u0646\u0651\u064e\u0628\u0650\u064a\u0651\u0650 \u0648\u064e\u0627\u0644\u0652\u0645\u064f\u0647\u0670\u062c\u0650\u0631\u0650\u064a\u0652\u0646\u064e \u0648\u064e\u0627\u0644\u0652\u0627\u064e\u0646\u0652\u0635\u064e\u0627\u0631\u0650 \u0627\u0644\u0651\u064e\u0630\u0650\u064a\u0652\u0646\u064e \u0627\u062a\u0651\u064e\u0628\u064e\u0639\u064f\u0648\u0652\u0647\u064f \u0641\u0650\u064a\u0652 \u0633\u064e\u0627\u0639\u064e\u0629\u0650 \u0627\u0644\u0652\u0639\u064f\u0633\u0652\u0631\u064e\u0629\u0650 \u0645\u0650\u0646\u0652\u06e2 \u0628\u064e\u0639\u0652\u062f\u0650 \u0645\u064e\u0627 \u0643\u064e\u0627\u062f\u064e \u064a\u064e\u0632\u0650\u064a\u0652\u063a\u064f \u0642\u064f\u0644\u064f\u0648\u0652\u0628\u064f \u0641\u064e\u0631\u0650\u064a\u0652\u0642\u064d \u0645\u0651\u0650\u0646\u0652\u0647\u064f\u0645\u0652 \u062b\u064f\u0645\u0651\u064e \u062a\u064e\u0627\u0628\u064e \u0639\u064e\u0644\u064e\u064a\u0652\u0647\u0650\u0645\u0652\u06d7 \u0627\u0650\u0646\u0651\u064e\u0647\u0657 \u0628\u0650\u0647\u0650\u0645\u0652 \u0631\u064e\u0621\u064f\u0648\u0652\u0641\u064c \u0631\u0651\u064e\u062d\u0650\u064a\u0652\u0645\u064c \u06d9 \u0661\u0661\u0667\n\nSungguh, Allah telah menerima tobat Nabi, orang-orang Muh\u0101jir\u012bn dan orang-orang An\u1e63\u0101r, yang mengikuti Nabi pada masa-masa sulit, setelah hati segolongan dari mereka hampir berpaling, kemudian Allah menerima tobat mereka. Sesungguhnya Allah Maha Pengasih, Maha Penyayang kepada mereka. (at-Taubah/9: 117)\n\nSelain dari dua nama tersebut di atas ada beberapa nama lagi di antaranya: \u201cal-F\u0101\u1e0di\u1e25ah\u201d (mengungkap kejahatan), \u201cal-\u2018A\u017c\u0101b\u201d (siksaan), \u201cal-Munqirah\u201d (mencungkil untuk mencari). \u201cal-Muqasyqisyah\u201d (mem-bebaskan), \u201cal-\u1e24\u0101firah\u201d (menggali), \u201cal-Mu\u1e61\u012brah\u201d (membangkitkan), \u201cal-Mudamdimah\u201d (membinasakan) dan lain-lain.\nSurah ini tidak dimulai dengan Basmalah sebagaimana surah-surah lainnya. Hal ini menjadi dalil bagi sebagian ulama yang berpendapat bahwa surah ini tidak berdiri sendiri, tetapi sebagai lanjutan dari surah sebelumnya (al-Anf\u0101l) tetapi menurut pendapat sebagian besar ulama (jumhur) bahwa surah ini berdiri sendiri.\nAdapun sebab-sebab tidak dimulainya surah ini dengan Basmalah antara lain:\na. \tDiriwayatkan dari al-\u1e24\u0101kim dalam al-Mustadrak dari Ibnu \u2018Abb\u0101s yang bertanya kepada Ali bin Abi \u1e6calib tentang tidak ditulisnya Basmalah pada permulaan surah, Ali menjawab, \u201cKarena Basmalah mengandung isi kedamaian, sedangkan Bar\u0101\u2019ah diturunkan dengan pedang, artinya untuk berperang melawan orang-orang kafir yang melanggar janji.\u201d\nb. \tHadis yang diriwayatkan oleh at-Tirmi\u017c\u012b dan lain-lain dari Ibnu \u2018Abb\u0101s yang maksudnya, \u201cIbnu \u2018Abb\u0101s bertanya kepada \u2018U\u1e61m\u0101n bin \u2018Aff\u0101n ra, \u201cApakah yang mendorongmu untuk berbuat terhadap surah al-Anf\u0101l yang termasuk al-Ma\u1e61ani (surah-surah dalam Al-Qur\u2019an yang ayat-ayatnya kurang sedikit dari seratus ayat), dan Bar\u0101\u2019ah yang termasuk al-Mi\u2019\u016bn (surah-surah yang ayatnya lebih dari seratus) dan menggabungkan kedua surah itu tanpa menulis Basmalah antara keduanya dan menggolongkan kepada \u201cAs-sab\u2019u a\u1e6d-\u1e6ciw\u0101l\u201d (Tujuh surah yang panjang), yaitu: al-Baqarah, \u0100li \u2018Imr\u0101n, an-Nis\u0101\u2019, al-A\u2018r\u0101f, al-An\u2018\u0101m, al-M\u0101\u2019idah, dan Y\u016bnus.\u201d U\u1e61man menjawab, \u201cRasulullah tidak pernah menerangkan digabung atau tidak antara al-Anf\u0101l dan Bar\u0101\u2019ah.\u201d Kata U\u1e61man selanjutnya, \u201cSaya berpendapat bahwa keduanya itu satu surah, oleh karena itu saya tidak menulis Basmalah antara keduanya (permulaan Bar\u0101\u2019ah).\n\nHukum Membaca Basmalah pada Bar\u0101\u2019ah \n1. \tPara ahli qira\u2019at sependapat untuk meninggalkan bacaan Basmalah pada permulaan surah Bar\u0101\u2019ah, karena tidak tertulis dalam Mu\u1e63\u1e25af al-Im\u0101m, bahkan ada yang menyatakan ini merupakan ijma\u2019 ulama, kecuali Ibnu Mun\u017cir. Dia membaca pada awal surah ini, karena mengikuti Mu\u1e63\u1e25af Ibnu Mas\u2019\u016bd (kini sudah tidak ada lagi). Menurut \u2018\u0100\u1e63im, membaca Basmalah pada permulaan Bar\u0101\u2019ah dengan maksud untuk mengambil berkah adalah dikiaskan hukumnya kepada hukum disunatkan membaca Basmalah setiap memulai pekerjaan yang baik.\n2. \tAdapun membaca Basmalah tidak pada permulaan Bar\u0101\u2019ah boleh memilih antara membaca atau tidak membaca. Berdasarkan itu imam yang lain menyatakan hukumnya \u201cjawaz\u201d (boleh seperti bolehnya membaca Basmalah pada ayat yang lain yang letaknya tidak pada permulaan surah).\n\nPokok-pokok Isinya\nSelain dari pembatalan perjanjian damai dengan kaum musyrikin, maka surah ini mengandung pokok-pokok isi sebagai berikut:\n\n1. Keimanan\nBahwa Allah selalu menyertai hamba-hamba-Nya yang beriman, memberikan balasan atas segala perbuatan manusia, dan segala sesuatu berjalan menurut sunnatullah; Allah selalu melindungi orang-orang yang beriman; dan menetapkan kedudukan Nabi Muhammad saw sebagai utusan-Nya.\n\n2. Hukum\nKewajiban menginfakkan harta; macam-macam harta dalam agama serta penggunaannya; jizyah; perjanjian dan perdamaian; kewajiban umat Islam terhadap Nabinya; sebab-sebab orang Islam melakukan perang; beberapa dasar politik kenegaraan dan peperangan dalam Islam.\n\n3. Kisah-kisah\nNabi Muhammad saw bersama Abu Bakar r.a. di suatu gua di bukit \u1e60ur ketika hijrah; Perang Hunain (Perang Au\u1e6das) atau Perang Hawazin; dan Perang Tabuk, dan kisah diterima tobatnya tiga orang sahabat yang tidak ikut berperang.\n\n4. Lain-lain\nSifat-sifat orang yang beriman dan orang-orang munafik.\n",
        "outro_surah": null,
        "munasabah_prev_surah": null,
        "munasabah_prev_theme": "Ayat-ayat yang lalu menerangkan sebagian dari sifat orang munafik yang menuduh Nabi Muhammad saw berlaku curang dalam membagi harta rampasan perang dan zakat. Maka ayat-ayat ini menjelaskan perilaku orang-orang munafik ketika berkumpul sesama mereka dan memberi penilaian terhadap Nabi Muhammad yang mereka pandang rendah karena Nabi dianggap sudah terpengaruh oleh laporan seseorang tanpa meneliti kebenarannya sehingga tidak bisa membedakan antara fakta dan yang dibuat-buat (fitnah).",
        "theme_group": "PERILAKU DAN ANCAMAN TERHADAP\nORANG MUNAFIK",
        "kosakata": "Kosakata: Yaqbi\u1e0d\u016bna Aidiyahum  \u064a\u064e\u0642\u0652\u0628\u0650\u0636\u064f\u0648\u0652\u0646\u064e  \u0623\u064e\u064a\u0652\u062f\u0650\u064a\u064e\u0647\u064f\u0645\u0652  (at-Taubah/9: 67)\nKata yaqbi\u1e0d\u016bna adalah bentuk mu\u1e0d\u0101ri\u2019 dari qaba\u1e0da \u2013 yaqbi\u1e0du \u2013 qab\u1e0dan, yang berarti menggenggam. Kata yaqbi\u1e0d\u016bna aidiyahum, artinya menggeng-gam tangan mereka, yakni mereka sangat kikir sehingga mereka tidak berinfak, kecuali dalam keadaan terpaksa. Orang yang sangat kikir diserupakan dengan orang yang menggenggam tangannya, karena kalau tangan digenggam, maka apa yang ada dalam genggamannya tidak akan keluar, jatuh, atau terlepas.",
        "sabab_nuzul": null,
        "conclusion": null
    }
}