{
    "id": 1350,
    "surah_id": 9,
    "ayah": 115,
    "page": 205,
    "quarter_hizb": 21.25,
    "juz": 11,
    "manzil": 2,
    "arabic": "\u0648\u064e\u0645\u064e\u0627 \u0643\u064e\u0627\u0646\u064e \u0627\u0644\u0644\u0651\u0670\u0647\u064f \u0644\u0650\u064a\u064f\u0636\u0650\u0644\u0651\u064e \u0642\u064e\u0648\u0652\u0645\u064b\u0627\u06e2 \u0628\u064e\u0639\u0652\u062f\u064e \u0627\u0650\u0630\u0652 \u0647\u064e\u062f\u0670\u0649\u0647\u064f\u0645\u0652 \u062d\u064e\u062a\u0651\u0670\u0649 \u064a\u064f\u0628\u064e\u064a\u0651\u0650\u0646\u064e \u0644\u064e\u0647\u064f\u0645\u0652 \u0645\u0651\u064e\u0627 \u064a\u064e\u062a\u0651\u064e\u0642\u064f\u0648\u0652\u0646\u064e\u06d7 \u0627\u0650\u0646\u0651\u064e \u0627\u0644\u0644\u0651\u0670\u0647\u064e \u0628\u0650\u0643\u064f\u0644\u0651\u0650 \u0634\u064e\u064a\u0652\u0621\u064d \u0639\u064e\u0644\u0650\u064a\u0652\u0645\u064c ",
    "latin": "Wa m\u0101 k\u0101nall\u0101hu liyu\u1e0dilla qaumam ba\u2018da i\u017c had\u0101hum \u1e25att\u0101 yubayyina lahum m\u0101 yattaq\u016bn(a), innall\u0101ha bikulli syai'in \u2018al\u012bm(un). ",
    "translation": "Allah sekali-kali tidak akan menyesatkan suatu kaum setelah Dia memberinya petunjuk sampai Dia menjelaskan kepadanya apa yang harus mereka jauhi.337) Sesungguhnya Allah Maha Mengetahui segala sesuatu.",
    "no_footnote": "337",
    "footnotes": "337) Seorang hamba tidak akan diazab oleh Allah Swt. semata-mata karena kesesatannya, kecuali jika hamba itu melanggar perintah-perintah yang sudah dijelaskan.",
    "surah": {
        "id": 9,
        "arabic": "\u0627\u0644\u062a\u0651\u0648\u0628\u0629",
        "latin": "At-Taubah",
        "transliteration": "At-Taubah",
        "translation": "Pengampunan",
        "num_ayah": 129,
        "page": 187,
        "location": "Madaniyah"
    },
    "tafsir": {
        "wajiz": " Dan Allah Yang Mahaadil, Mahabijaksana sekali-kali tidak akan menyesatkan suatu kaum, setelah mereka diberi-Nya petunjuk dengan memeluk Islam, sehingga dapat dijelaskan kepada mereka apa yang harus mereka jauhi. Apabila sudah dijelaskan apa yang harus dijauhi lalu mereka melanggar, maka Allah akan memberi hukuman akibat kedurhakaan itu. Sungguh, Allah Maha Mengetahui segala sesuatu yang terjadi di langit dan di bumi.",
        "tahlili": "Dalam ayat ini Allah menegaskan bahwa apabila satu kaum benar-benar telah diberi petunjuk, dan telah dilapangkan dada mereka untuk menerima agama Islam, maka Dia sekali-sekali tidak akan menganggap kaum tersebut sebagai orang-orang yang sesat, lalu Dia memperlakukan mereka sama dengan orang-orang yang benar-benar sesat, yang patut dicela dan disiksa. Allah tidak akan berbuat demikian apabila mereka hanya berbuat satu kesalahan, baik dengan ucapan maupun dengan perbuatan yang disebabkan kesalahan ijtihad mereka. Allah tidak akan mencela dan menyiksa mereka karena kesalahan semacam itu, sampai mereka benar-benar paham ajaran-ajaran agama, baik berupa larangan yang harus mereka hindari, maupun perintah yang harus dikerjakan.\nPada akhir ayat ini ditegaskan bahwa Allah amat mengetahui segala sesuatu, termasuk kebutuhan manusia terhadap keterangan dan penjelasan. Oleh sebab itu, Allah telah menjelaskan masalah-masalah yang penting dalam agama dengan penjelasan yang pasti dalam firman-Nya, sehingga kaum Muslimin akan dapat mencapai kebenaran dalam ijtihad mereka dan tidak akan tergoda oleh hawa nafsu mereka.\n Itulah sebabnya Allah tidak menyalahkan Nabi Ibrahim ketika ia memohon ampun untuk bapaknya sebab hal itu dilakukan sebelum ia mendapat bukti dan keterangan yang jelas tentang keadaan ayahnya. Setelah ia mendapat keterangan dan bukti-bukti yang jelas, maka ia segera menghentikan doanya.\nDemikian pula, Allah tidak akan menimpakan hukuman terhadap Nabi Muhammad saw dan orang-orang mukmin yang telah memohonkan ampun kepada Allah untuk ibu bapak dan kaum kerabat mereka yang telah mati dalam kekafiran, apabila hal itu dilakukan sebelum memperoleh keterangan yang jelas mengenai ketentuan Allah dalam masalah tersebut.",
        "intro_surah": "Surah ini berisi 129 ayat, semuanya Madaniyah, kecuali ayat 113 dan dua ayat terakhir, yaitu ayat 128 dan 129 menurut sebagian ulama adalah Makkiyah karena diturunkan di Mekah. Menurut pendapat sebagian besar ulama tafsir (jumhur), semua ayat itu tanpa ada yang dikecualikan adalah Madaniyah karena berdasarkan pendapat yang masyhur bahwa ayat yang diturunkan sesudah Nabi Muhammad saw hijrah ke Medinah dinamakan Madaniyah sekalipun diturunkan di Mekah. \nSurah ini mempunyai banyak nama, tidak ada surah dalam Al-Qur\u2019an yang lebih banyak namanya dari surah ini dan surah al-F\u0101tihah, akan tetapi yang paling masyhur dari semua namanya itu adalah \u201cBar\u0101\u2032ah\u201d dan \u201cat-Taubah\u201d.\nDinamakan Bar\u0101\u2032ah karena surah ini dimulai dengan kata \u201cBar\u0101\u2032ah\u201d yang berarti berlepas diri yang maksudnya ialah pemutusan hubungan, karena di dalamnya terdapat ayat-ayat yang membicarakan pernyataan pemutusan perjanjian damai dengan kaum musyrikin. Dan dinamakan at-Taubah artinya \u201cpengampunan\u201d, karena di dalam surah ini banyak diterangkan tentang pengampunan terutama pada firman Allah yang berbunyi:\n\u0644\u064e\u0642\u064e\u062f\u0652 \u062a\u0651\u064e\u0627\u0628\u064e \u0627\u0644\u0644\u0651\u0670\u0647\u064f \u0639\u064e\u0644\u064e\u0649 \u0627\u0644\u0646\u0651\u064e\u0628\u0650\u064a\u0651\u0650 \u0648\u064e\u0627\u0644\u0652\u0645\u064f\u0647\u0670\u062c\u0650\u0631\u0650\u064a\u0652\u0646\u064e \u0648\u064e\u0627\u0644\u0652\u0627\u064e\u0646\u0652\u0635\u064e\u0627\u0631\u0650 \u0627\u0644\u0651\u064e\u0630\u0650\u064a\u0652\u0646\u064e \u0627\u062a\u0651\u064e\u0628\u064e\u0639\u064f\u0648\u0652\u0647\u064f \u0641\u0650\u064a\u0652 \u0633\u064e\u0627\u0639\u064e\u0629\u0650 \u0627\u0644\u0652\u0639\u064f\u0633\u0652\u0631\u064e\u0629\u0650 \u0645\u0650\u0646\u0652\u06e2 \u0628\u064e\u0639\u0652\u062f\u0650 \u0645\u064e\u0627 \u0643\u064e\u0627\u062f\u064e \u064a\u064e\u0632\u0650\u064a\u0652\u063a\u064f \u0642\u064f\u0644\u064f\u0648\u0652\u0628\u064f \u0641\u064e\u0631\u0650\u064a\u0652\u0642\u064d \u0645\u0651\u0650\u0646\u0652\u0647\u064f\u0645\u0652 \u062b\u064f\u0645\u0651\u064e \u062a\u064e\u0627\u0628\u064e \u0639\u064e\u0644\u064e\u064a\u0652\u0647\u0650\u0645\u0652\u06d7 \u0627\u0650\u0646\u0651\u064e\u0647\u0657 \u0628\u0650\u0647\u0650\u0645\u0652 \u0631\u064e\u0621\u064f\u0648\u0652\u0641\u064c \u0631\u0651\u064e\u062d\u0650\u064a\u0652\u0645\u064c \u06d9 \u0661\u0661\u0667\n\nSungguh, Allah telah menerima tobat Nabi, orang-orang Muh\u0101jir\u012bn dan orang-orang An\u1e63\u0101r, yang mengikuti Nabi pada masa-masa sulit, setelah hati segolongan dari mereka hampir berpaling, kemudian Allah menerima tobat mereka. Sesungguhnya Allah Maha Pengasih, Maha Penyayang kepada mereka. (at-Taubah/9: 117)\n\nSelain dari dua nama tersebut di atas ada beberapa nama lagi di antaranya: \u201cal-F\u0101\u1e0di\u1e25ah\u201d (mengungkap kejahatan), \u201cal-\u2018A\u017c\u0101b\u201d (siksaan), \u201cal-Munqirah\u201d (mencungkil untuk mencari). \u201cal-Muqasyqisyah\u201d (mem-bebaskan), \u201cal-\u1e24\u0101firah\u201d (menggali), \u201cal-Mu\u1e61\u012brah\u201d (membangkitkan), \u201cal-Mudamdimah\u201d (membinasakan) dan lain-lain.\nSurah ini tidak dimulai dengan Basmalah sebagaimana surah-surah lainnya. Hal ini menjadi dalil bagi sebagian ulama yang berpendapat bahwa surah ini tidak berdiri sendiri, tetapi sebagai lanjutan dari surah sebelumnya (al-Anf\u0101l) tetapi menurut pendapat sebagian besar ulama (jumhur) bahwa surah ini berdiri sendiri.\nAdapun sebab-sebab tidak dimulainya surah ini dengan Basmalah antara lain:\na. \tDiriwayatkan dari al-\u1e24\u0101kim dalam al-Mustadrak dari Ibnu \u2018Abb\u0101s yang bertanya kepada Ali bin Abi \u1e6calib tentang tidak ditulisnya Basmalah pada permulaan surah, Ali menjawab, \u201cKarena Basmalah mengandung isi kedamaian, sedangkan Bar\u0101\u2019ah diturunkan dengan pedang, artinya untuk berperang melawan orang-orang kafir yang melanggar janji.\u201d\nb. \tHadis yang diriwayatkan oleh at-Tirmi\u017c\u012b dan lain-lain dari Ibnu \u2018Abb\u0101s yang maksudnya, \u201cIbnu \u2018Abb\u0101s bertanya kepada \u2018U\u1e61m\u0101n bin \u2018Aff\u0101n ra, \u201cApakah yang mendorongmu untuk berbuat terhadap surah al-Anf\u0101l yang termasuk al-Ma\u1e61ani (surah-surah dalam Al-Qur\u2019an yang ayat-ayatnya kurang sedikit dari seratus ayat), dan Bar\u0101\u2019ah yang termasuk al-Mi\u2019\u016bn (surah-surah yang ayatnya lebih dari seratus) dan menggabungkan kedua surah itu tanpa menulis Basmalah antara keduanya dan menggolongkan kepada \u201cAs-sab\u2019u a\u1e6d-\u1e6ciw\u0101l\u201d (Tujuh surah yang panjang), yaitu: al-Baqarah, \u0100li \u2018Imr\u0101n, an-Nis\u0101\u2019, al-A\u2018r\u0101f, al-An\u2018\u0101m, al-M\u0101\u2019idah, dan Y\u016bnus.\u201d U\u1e61man menjawab, \u201cRasulullah tidak pernah menerangkan digabung atau tidak antara al-Anf\u0101l dan Bar\u0101\u2019ah.\u201d Kata U\u1e61man selanjutnya, \u201cSaya berpendapat bahwa keduanya itu satu surah, oleh karena itu saya tidak menulis Basmalah antara keduanya (permulaan Bar\u0101\u2019ah).\n\nHukum Membaca Basmalah pada Bar\u0101\u2019ah \n1. \tPara ahli qira\u2019at sependapat untuk meninggalkan bacaan Basmalah pada permulaan surah Bar\u0101\u2019ah, karena tidak tertulis dalam Mu\u1e63\u1e25af al-Im\u0101m, bahkan ada yang menyatakan ini merupakan ijma\u2019 ulama, kecuali Ibnu Mun\u017cir. Dia membaca pada awal surah ini, karena mengikuti Mu\u1e63\u1e25af Ibnu Mas\u2019\u016bd (kini sudah tidak ada lagi). Menurut \u2018\u0100\u1e63im, membaca Basmalah pada permulaan Bar\u0101\u2019ah dengan maksud untuk mengambil berkah adalah dikiaskan hukumnya kepada hukum disunatkan membaca Basmalah setiap memulai pekerjaan yang baik.\n2. \tAdapun membaca Basmalah tidak pada permulaan Bar\u0101\u2019ah boleh memilih antara membaca atau tidak membaca. Berdasarkan itu imam yang lain menyatakan hukumnya \u201cjawaz\u201d (boleh seperti bolehnya membaca Basmalah pada ayat yang lain yang letaknya tidak pada permulaan surah).\n\nPokok-pokok Isinya\nSelain dari pembatalan perjanjian damai dengan kaum musyrikin, maka surah ini mengandung pokok-pokok isi sebagai berikut:\n\n1. Keimanan\nBahwa Allah selalu menyertai hamba-hamba-Nya yang beriman, memberikan balasan atas segala perbuatan manusia, dan segala sesuatu berjalan menurut sunnatullah; Allah selalu melindungi orang-orang yang beriman; dan menetapkan kedudukan Nabi Muhammad saw sebagai utusan-Nya.\n\n2. Hukum\nKewajiban menginfakkan harta; macam-macam harta dalam agama serta penggunaannya; jizyah; perjanjian dan perdamaian; kewajiban umat Islam terhadap Nabinya; sebab-sebab orang Islam melakukan perang; beberapa dasar politik kenegaraan dan peperangan dalam Islam.\n\n3. Kisah-kisah\nNabi Muhammad saw bersama Abu Bakar r.a. di suatu gua di bukit \u1e60ur ketika hijrah; Perang Hunain (Perang Au\u1e6das) atau Perang Hawazin; dan Perang Tabuk, dan kisah diterima tobatnya tiga orang sahabat yang tidak ikut berperang.\n\n4. Lain-lain\nSifat-sifat orang yang beriman dan orang-orang munafik.\n",
        "outro_surah": null,
        "munasabah_prev_surah": null,
        "munasabah_prev_theme": "Pada ayat-ayat yang lalu telah diterangkan keikhlasan dan kerelaan orang-orang mukmin sejati dalam mengorbankan jiwa raga dan harta benda mereka untuk berjihad, serta ganjaran yang akan mereka terima dari Allah. Selain itu, dijelaskan pula bermacam-macam sifat yang dimiliki oleh orang-orang mukmin, yang kesemuanya menunjukkan atas kesempurnaan iman dan pengabdian mereka pada-Nya. Maka pada ayat ini Allah menegaskan larangan-Nya kepada Nabi dan orang-orang mukmin untuk memintakan ampunan kepada Allah bagi orang-orang musyrik. Juga dijelaskan bahwa Nabi Ibrahim pun menarik kembali permohonannya kepada Allah untuk memohon ampun bagi ayahnya, setelah nyata baginya bahwa ayahnya termasuk golongan yang memusuhi Allah. Ditegaskan pula jaminan Allah, bahwa Dia tidak akan membiarkan kaum yang telah memperoleh petunjuk-Nya menjadi sesat kembali.\n",
        "theme_group": "LARANGAN MEMINTAKAN AMPUNAN\nBAGI ORANG-ORANG MUSYRIK ",
        "kosakata": "Kosakata: Ul\u012b Qurb\u0101 \u0623\u064f\u0648\u0644\u0650\u0649 \u0642\u064f\u0631\u0652\u0628\u064e\u0649  (at-Taubah/9: 113)\nUl\u012b qurb\u0101 bermakna sanak famili atau kaum kerabat. Terkait kata ul\u012b qurb\u0101 dalam ayat ini Allah memberikan peringatan kepada Rasulullah saw dan orang-orang yang beriman supaya tidak memintakan ampunan bagi kaum musyrik, kendati mereka adalah ul\u012b qurb\u0101 (kerabat dekat)nya. Karena, tempat yang paling layak bagi mereka hanyalah neraka Jahannam, bukan surga yang penuh ampunan-Nya.",
        "sabab_nuzul": null,
        "conclusion": "1. \tApabila Nabi dan orang-orang mukmin telah mendapat keterangan yang jelas tentang keadaan orang-orang musyrik, dan tentang hukum-hukum Allah mengenai mereka, maka Nabi dan orang-orang mukmin tidak diperbolehkan untuk memohon ampunan bagi orang-orang musyrik tersebut, walaupun mereka kaum kerabat yang disayangi.\n2. \tNabi Ibrahim tidaklah dianggap bersalah ketika ia memohonkan ampunan untuk bapaknya, karena hal itu dilakukan untuk menepati janjinya semata dan ia juga belum mendapatkan keterangan dan bukti-bukti yang nyata tentang keadaan bapaknya.\n3. \tKarena Nabi Ibrahim adalah seorang yang sangat takwa dan taat kepada Allah, maka ia segera menghentikan doanya, setelah mendapat keterangan dan bukti yang jelas, bahwa bapaknya benar-benar seorang musyrik yang memusuhi Allah.\n4. \tKaum yang sudah memperoleh petunjuk dari Allah, jika melakukan kesalahan, baik dalam perkataan maupun dalam berijtihad, maka Allah tidak akan menganggap mereka itu sesat, sampai mereka memperoleh keterangan dan penjelasan tentang hukum-hukum Allah yang terkait dengan dosa dan kesalahan mereka."
    }
}