{
    "id": 1416,
    "surah_id": 10,
    "ayah": 52,
    "page": 214,
    "quarter_hizb": 22,
    "juz": 11,
    "manzil": 3,
    "arabic": "\u062b\u064f\u0645\u0651\u064e \u0642\u0650\u064a\u0652\u0644\u064e \u0644\u0650\u0644\u0651\u064e\u0630\u0650\u064a\u0652\u0646\u064e \u0638\u064e\u0644\u064e\u0645\u064f\u0648\u0652\u0627 \u0630\u064f\u0648\u0652\u0642\u064f\u0648\u0652\u0627 \u0639\u064e\u0630\u064e\u0627\u0628\u064e \u0627\u0644\u0652\u062e\u064f\u0644\u0652\u062f\u0650\u06da \u0647\u064e\u0644\u0652 \u062a\u064f\u062c\u0652\u0632\u064e\u0648\u0652\u0646\u064e \u0627\u0650\u0644\u0651\u064e\u0627 \u0628\u0650\u0645\u064e\u0627 \u0643\u064f\u0646\u0652\u062a\u064f\u0645\u0652 \u062a\u064e\u0643\u0652\u0633\u0650\u0628\u064f\u0648\u0652\u0646\u064e ",
    "latin": "\u1e60umma q\u012bla lil-la\u017c\u012bna \u1e93alam\u016b \u017c\u016bq\u016b \u2018a\u017c\u0101bal-khuld(i), hal tujzauna ill\u0101 bim\u0101 kuntum taksib\u016bn(a). ",
    "translation": "Kemudian, dikatakan kepada orang-orang yang zalim itu, \u201cRasakanlah olehmu azab yang kekal. (Bukankah) kamu tidak diberi balasan, melainkan (setimpal) dengan apa yang selama ini telah kamu usahakan?\u201d",
    "no_footnote": null,
    "footnotes": null,
    "surah": {
        "id": 10,
        "arabic": " \u064a\u0648\u0646\u0633",
        "latin": "Y\u016bnus",
        "transliteration": "Yunus",
        "translation": "Yunus",
        "num_ayah": 109,
        "page": 208,
        "location": "Makkiyah"
    },
    "tafsir": {
        "wajiz": "Sebagai akibat dari kesombongan dan kedurhakaan mereka, kemudian di akhirat dikatakan kepada orang-orang yang zalim itu, \u201cRasakanlah olehmu siksaan yang kekal di neraka. Kamu tidak diberi balasan, melainkan sesuai dengan apa yang telah kamu lakukan selama kamu hidup di dunia.\u201d",
        "tahlili": "Allah menjelaskan bahwa apabila mereka tetap tidak mau percaya, hendaklah dikatakan kepada mereka bahwa mereka akan merasakan siksaan Allah yang pasti akan datang dan untuk selama-lamanya. Siksaan Allah yang akan ditimpakan kepada mereka itu adalah sebagai imbalan dari apa yang mereka lakukan di dunia ini. Mereka akan diberi balasan setimpal dengan perbuatan yang telah mereka lakukan sesuai dengan pilihan mereka sendiri, seperti mengingkari kebenaran ayat-ayat Allah, menyekutukan Tuhan, membuat kerusakan di muka bumi dan kebebalan mereka tidak mau berhenti melakukan permusuhan terhadap Rasulullah serta mengingkari terjadinya hari kebangkitan.",
        "intro_surah": "Surah Y\u016bnus terdiri dari 109 ayat, termasuk golongan surah-surah Makiyah, diturunkan sesudah Surah al-Isr\u0101\u2019 dan sebelum Surah H\u016bd, seperti diutarakan as-Suy\u016b\u1e6d\u012b dalam kitabnya \u201cAl-Itq\u0101n\u201d, kecuali ayat 40, 94, dan 95. Ketiganya diturunkan di Medinah, setelah Nabi Muhammad berhijrah.\n\tSurah ini dinamai \u201cSurah Y\u016bnus\u201d, karena dalam surah ini dikemukakan kisah Nabi Yunus a.s. dengan pengikutnya yang teguh imannya.\n\nPokok-pokok Isinya:\n1.\tKeimanan\nKeesaan Allah baik zat-Nya maupun kekuasaan dan penciptaan; Al-Qur\u2019an bukanlah sihir; Allah mengatur semesta alam dari Arasy-Nya syafa\u2019at hanyalah dengan izin Allah; wahyu Allah menerangkan semua yang gaib bagi manusia; wali-wali Allah. Allah mengawasi dan mengamati perbuatan hamba-hamba-Nya di dunia, Allah tidak mempunyai anak.\n\n2.\tHukum-hukum\nMenentukan perhitungan tahun dan waktu dengan perjalanan matahari dan bulan, hukum mengadakan sesuatu terhadap Allah dan hukum mendustakan ayat-ayat-Nya.\n\n3.\tKisah-kisah\nKisah Nabi Nuh as dengan kaumnya; kisah Nabi Musa a.s. dengan Fir\u2018aun dan tukang sihir; kisah Bani Israil setelah keluar dari negeri Mesir; kisah Nabi Yunus as dengan kaumnya.\n\n4.\tLain-lain\nHari kebangkitan dan hari pembalasan; tentang sifat-sifat manusia, seperti suka tergesa-gesa, ingat kepada Allah diwaktu sukar dan lupa kepadanya di waktu senang, ingkar kepada nikmat Allah, suka kepada purbasangka dan sebagainya; keadaan orang-orang berbuat baik dan orang-orang berbuat jahat di Hari Kiamat; tidak seorang pun yang dapat membuat seperti Al-Qur\u2019an, tugas Rasul hanyalah menyampaikan risalah yang dibawanya.",
        "outro_surah": null,
        "munasabah_prev_surah": "1.\tAkhir Surah at-Taubah ditutup dengan menyebutkan risalah Nabi Muhammad saw dan hal-hal yang serupa disebutkan pula oleh Surah Y\u016bnus.\n2.\tSurah at-Taubah menerangkan keadaan orang-orang munafik, dan perbuatan mereka di waktu Al-Qur\u2019an diturunkan, sedang Surah Y\u016bnus menerangkan sikap orang-orang kafir terhadap Al-Qur\u2019an.",
        "munasabah_prev_theme": "Pada ayat-ayat yang lalu, Allah menerangkan sifat-sifat orang musyrik. Mereka mendustakan Al-Qur\u2019an serta tidak mau memikirkan kebenaran isinya. Mereka bersikap tergesa-gesa memberikan penilaian terhadap firman Allah, sebelum memperhatikan sebaik-baiknya bukti kebenarannya. Pada ayat-ayat ini, Allah mengancam orang-orang yang akan merasakan azab yang pedih nanti pada Hari Kiamat.",
        "theme_group": "ANCAMAN ALLAH TERHADAP ORANG-ORANG YANG\nMENDUSTAKAN AYAT-AYAT AL-QUR\u2019AN",
        "kosakata": "Kosakata: Liq\u0101\u2019 Allah \u0644\u0650\u0642\u064e\u0627\u0621 \u0627\u0644\u0644\u0651\u0670\u0647 (Y\u016bnus/10: 45)\nAl-Liq\u0101\u2019 masdar dari laqiya-yalqa artinya bertemu sesuatu baik sesuatu bersifat inderawi atau bersifat abstrak, seperti firman Allah: walaqad kuntum tamannauna al-mauta min qabli an talqauhu (\u0648\u064e\u0644\u064e\u0642\u064e\u062f\u0652 \u0643\u064f\u0646\u0652\u062a\u064f\u0645\u0652 \u062a\u064e\u0645\u064e\u0646\u0651\u064e\u0648\u0652\u0646\u064e \u0627\u0644\u0652\u0645\u064e\u0648\u0652\u062a\u064e \u0645\u0650\u0646\u0652 \u0642\u064e\u0628\u0652\u0644\u0650 \u0627\u064e\u0646\u0652 \u062a\u064e\u0644\u0652\u0642\u064e\u0648\u0652\u0647\u064f) (\u0100li \u2018Imr\u0101n/3: 143)\nKata liq\u0101\u2019 Allah dalam Al-Qur\u2019an merujuk pada arti kiamat, kebangkitan, hisab dan nasib manusia di akhirat. Liq\u0101\u2019 Allah sebagai Hari Kiamat karena pada hari itulah manusia bertemu dengan Allah dan malaikat serta manusia-manusia lainnya, juga dengan amal baik buruknya yang pernah diperbuat di dunia. ",
        "sabab_nuzul": null,
        "conclusion": null
    }
}