{
    "id": 1451,
    "surah_id": 10,
    "ayah": 87,
    "page": 218,
    "quarter_hizb": 22.5,
    "juz": 11,
    "manzil": 3,
    "arabic": "\u0648\u064e\u0627\u064e\u0648\u0652\u062d\u064e\u064a\u0652\u0646\u064e\u0627\u0653 \u0627\u0650\u0644\u0670\u0649 \u0645\u064f\u0648\u0652\u0633\u0670\u0649 \u0648\u064e\u0627\u064e\u062e\u0650\u064a\u0652\u0647\u0650 \u0627\u064e\u0646\u0652 \u062a\u064e\u0628\u064e\u0648\u0651\u064e\u0627\u0670 \u0644\u0650\u0642\u064e\u0648\u0652\u0645\u0650\u0643\u064f\u0645\u064e\u0627 \u0628\u0650\u0645\u0650\u0635\u0652\u0631\u064e \u0628\u064f\u064a\u064f\u0648\u0652\u062a\u064b\u0627 \u0648\u0651\u064e\u0627\u062c\u0652\u0639\u064e\u0644\u064f\u0648\u0652\u0627 \u0628\u064f\u064a\u064f\u0648\u0652\u062a\u064e\u0643\u064f\u0645\u0652 \u0642\u0650\u0628\u0652\u0644\u064e\u0629\u064b \u0648\u0651\u064e\u0627\u064e\u0642\u0650\u064a\u0652\u0645\u064f\u0648\u0627 \u0627\u0644\u0635\u0651\u064e\u0644\u0670\u0648\u0629\u064e\u06d7 \u0648\u064e\u0628\u064e\u0634\u0651\u0650\u0631\u0650 \u0627\u0644\u0652\u0645\u064f\u0624\u0652\u0645\u0650\u0646\u0650\u064a\u0652\u0646\u064e ",
    "latin": "Wa au\u1e25ain\u0101 il\u0101 m\u016bs\u0101 wa akh\u012bhi an tabawwa'\u0101 liqaumikum\u0101 bimi\u1e63ra buy\u016btaw waj\u2018al\u016b buy\u016btakum qiblataw wa aq\u012bmu\u1e63-\u1e63al\u0101h(ta), wa basysyiril-mu'min\u012bn(a). ",
    "translation": "Telah Kami wahyukan kepada Musa dan saudaranya (Harun), \u201cAmbillah oleh kamu berdua beberapa rumah di Mesir untuk tempat tinggal kaummu, jadikanlah rumah-rumahmu itu kiblat (tempat ibadah), dan tegakkanlah salat. Gembirakanlah orang-orang mukmin.\u201d",
    "no_footnote": null,
    "footnotes": null,
    "surah": {
        "id": 10,
        "arabic": " \u064a\u0648\u0646\u0633",
        "latin": "Y\u016bnus",
        "transliteration": "Yunus",
        "translation": "Yunus",
        "num_ayah": 109,
        "page": 208,
        "location": "Makkiyah"
    },
    "tafsir": {
        "wajiz": "Karena pengikutnya Nabi Musa berdoa dengan tulus, maka Allah mengabulkan doa tersebut. Lalu Allah berfirman: dan Kami wahyukan kepada Musa dan saudaranya, yakni Nabi Harun \u201cAmbillah, yakni bangunlah beberapa rumah di Mesir untuk tempat tinggal kaummu berdua dan jadikanlah rumah-rumahmu itu, wahai orang-orang yang beriman, sebagai tempat ibadah kepada Allah dan laksanakanlah salat secara sempurna serta gembirakanlah orang-orang mukmin, bahwa mereka akan diselamatkan dari gangguan Fir'aun dan di akhirat ada balasan surga.\u201d",
        "tahlili": "Allah memerintahkan Musa dan Harun untuk mencari beberapa buah rumah dalam kota Mesir untuk dijadikan tempat tinggal dan perlindungan bagi kaumnya serta tempat kegiatan mereka. Allah memerintahkan agar rumah itu dijadikan tempat salat. Kemudian khusus kepada Musa sebagai pengemban syari\u2019at, Allah memerintahkan agar dia memberikan kabar gembira di kemudian hari bagi orang-orang yang beriman kepada Allah dan rasul-Nya. Di tempat perlindungan inilah Nabi Musa mengisi batin mereka dengan ajaran-ajaran agama serta memasukkan ke dalam jiwa mereka keimanan dan keluhuran budi pekerti. ",
        "intro_surah": "Surah Y\u016bnus terdiri dari 109 ayat, termasuk golongan surah-surah Makiyah, diturunkan sesudah Surah al-Isr\u0101\u2019 dan sebelum Surah H\u016bd, seperti diutarakan as-Suy\u016b\u1e6d\u012b dalam kitabnya \u201cAl-Itq\u0101n\u201d, kecuali ayat 40, 94, dan 95. Ketiganya diturunkan di Medinah, setelah Nabi Muhammad berhijrah.\n\tSurah ini dinamai \u201cSurah Y\u016bnus\u201d, karena dalam surah ini dikemukakan kisah Nabi Yunus a.s. dengan pengikutnya yang teguh imannya.\n\nPokok-pokok Isinya:\n1.\tKeimanan\nKeesaan Allah baik zat-Nya maupun kekuasaan dan penciptaan; Al-Qur\u2019an bukanlah sihir; Allah mengatur semesta alam dari Arasy-Nya syafa\u2019at hanyalah dengan izin Allah; wahyu Allah menerangkan semua yang gaib bagi manusia; wali-wali Allah. Allah mengawasi dan mengamati perbuatan hamba-hamba-Nya di dunia, Allah tidak mempunyai anak.\n\n2.\tHukum-hukum\nMenentukan perhitungan tahun dan waktu dengan perjalanan matahari dan bulan, hukum mengadakan sesuatu terhadap Allah dan hukum mendustakan ayat-ayat-Nya.\n\n3.\tKisah-kisah\nKisah Nabi Nuh as dengan kaumnya; kisah Nabi Musa a.s. dengan Fir\u2018aun dan tukang sihir; kisah Bani Israil setelah keluar dari negeri Mesir; kisah Nabi Yunus as dengan kaumnya.\n\n4.\tLain-lain\nHari kebangkitan dan hari pembalasan; tentang sifat-sifat manusia, seperti suka tergesa-gesa, ingat kepada Allah diwaktu sukar dan lupa kepadanya di waktu senang, ingkar kepada nikmat Allah, suka kepada purbasangka dan sebagainya; keadaan orang-orang berbuat baik dan orang-orang berbuat jahat di Hari Kiamat; tidak seorang pun yang dapat membuat seperti Al-Qur\u2019an, tugas Rasul hanyalah menyampaikan risalah yang dibawanya.",
        "outro_surah": null,
        "munasabah_prev_surah": "1.\tAkhir Surah at-Taubah ditutup dengan menyebutkan risalah Nabi Muhammad saw dan hal-hal yang serupa disebutkan pula oleh Surah Y\u016bnus.\n2.\tSurah at-Taubah menerangkan keadaan orang-orang munafik, dan perbuatan mereka di waktu Al-Qur\u2019an diturunkan, sedang Surah Y\u016bnus menerangkan sikap orang-orang kafir terhadap Al-Qur\u2019an.",
        "munasabah_prev_theme": "Pada ayat-ayat yang lalu Allah menjelaskan reaksi Fir\u2018aun terhadap dakwah Nabi Musa, yaitu dengan mendatangkan para penyihir untuk menantangnya. Maka pada ayat-ayat ini Allah menjelaskan bahwa setelah sihir mereka dikalahkan oleh mukjizat Nabi Musa, sebagian para penyihir itu berbalik menjadi beriman kepada Nabi Musa.",
        "theme_group": "Sebagian Bani Israil Beriman Kepada Nabi Musa",
        "kosakata": "Mi\u1e63r adalah nama dari semua kota yang mempunyai batas-batas tertentu karena kata al-mi\u1e63r artinya batas. Dalam ayat ini, mi\u1e63r menunjuk pada kota mana saja yang mempunyai batas-batas tertentu, namun menurut ulama tafsir kata mi\u1e63r di sini menunjuk pada kota Mesir dimana kerajaan Fir\u2018aun berada. Kata mi\u1e63r terulang dalam Al-Qur\u2019an sebanyak 4 kali, yaitu pada Surah al-Baqarah/2: 61, Y\u016bnus/10: 87, Y\u016bsuf/12: 99, dan az-Zukhruf/43: 51.",
        "sabab_nuzul": null,
        "conclusion": "1.\tKekalahan Fir\u2018aun ketika menghadapi Musa telah mendorongnya untuk melakukan perbuatan yang lebih kejam pada Bani Israil, sehingga banyak dari mereka yang takut beriman kepada Nabi Musa.\n2.\tOrang yang beriman dan taat selalu mematuhi seruan Nabi Musa, karena mereka menyadari bahwa kemenangan dan kebahagiaan yang dijanjikan Tuhan tergantung pada keimanan dan ketaatan mereka pada rasul-Nya.\n3.\tTuhan memerintahkan Musa dan Harun untuk mencari rumah sebagai tempat beraktivitas dan beribadah serta berdoa kepada Allah."
    }
}