{
    "id": 1407,
    "surah_id": 10,
    "ayah": 43,
    "page": 214,
    "quarter_hizb": 22,
    "juz": 11,
    "manzil": 3,
    "arabic": "\u0648\u064e\u0645\u0650\u0646\u0652\u0647\u064f\u0645\u0652 \u0645\u0651\u064e\u0646\u0652 \u064a\u0651\u064e\u0646\u0652\u0638\u064f\u0631\u064f \u0627\u0650\u0644\u064e\u064a\u0652\u0643\u064e\u06d7 \u0627\u064e\u0641\u064e\u0627\u064e\u0646\u0652\u062a\u064e \u062a\u064e\u0647\u0652\u062f\u0650\u0649 \u0627\u0644\u0652\u0639\u064f\u0645\u0652\u064a\u064e \u0648\u064e\u0644\u064e\u0648\u0652 \u0643\u064e\u0627\u0646\u064f\u0648\u0652\u0627 \u0644\u064e\u0627 \u064a\u064f\u0628\u0652\u0635\u0650\u0631\u064f\u0648\u0652\u0646\u064e ",
    "latin": "Wa minhum may yan\u1e93uru ilaik(a), afa anta tahdil-\u2018umya wa lau k\u0101n\u016b l\u0101 yub\u1e63ir\u016bn(a). ",
    "translation": "Di antara mereka ada orang yang melihat kepada engkau. Apakah engkau dapat memberi petunjuk kepada orang yang buta, walaupun mereka tidak melihat?",
    "no_footnote": null,
    "footnotes": null,
    "surah": {
        "id": 10,
        "arabic": " \u064a\u0648\u0646\u0633",
        "latin": "Y\u016bnus",
        "transliteration": "Yunus",
        "translation": "Yunus",
        "num_ayah": 109,
        "page": 208,
        "location": "Makkiyah"
    },
    "tafsir": {
        "wajiz": "Dan di antara mereka ada yang melihat kepada engkau wahai Nabi Muhammad, yakni menyaksikan tanda-tanda kenabianmu, tetapi mereka tidak mengakuinya. Maka apakah engkau dapat memberi petunjuk kepada orang-orang yang buta mata hatinya itu, sedangkan mereka tidak memperhatikan? Tentu tidak bisa.",
        "tahlili": "Sesudah itu Allah menjelaskan bahwa di antara orang-orang yang mendustakan ayat-ayat Allah ada pula kelompok orang yang benar-benar memperhatikan Nabi Muhammad saw pada saat membacakan Al-Qur\u2019an. Akan tetapi, perhatian mereka itu hanya lahiriyah semata dan hanya melihat gerakan lidah Nabi pada saat mengucapkan lafaz dan susunannya, bukan merupakan perhatian yang murni yang dapat memahami dan memikirkan makna yang terkandung di dalam kata yang tersusun dalam kalimat itu. Itulah sebabnya maka cahaya iman dalam hati mereka tidak dapat memancar karena tertutup noda-noda kemusyrikan. Mereka tidak dapat melihat tanda-tanda kebenaran dan petunjuk yang terkandung dalam Al-Qur\u2019an. Padahal pandangan batin inilah yang membedakan manusia dengan binatang. Seharusnya dengan perhatian itu manusia dapat memahami dan memikirkan apa yang dilihatnya, karena Allah menyamakan mereka itu dengan orang buta.\nPada akhir ayat, Allah menegaskan bahwa Nabi Muhammad sebagai utusan tidaklah mampu membuat mereka itu melihat tanda-tanda kebenaran yang terdapat di dalam ayat-ayat Al-Qur\u2019an. Karena mereka memang tidak akan mampu mengindera tanda-tanda kebenaran ayatnya apalagi mereka tidak mempunyai niat untuk mempergunakan indera batinnya untuk memahami kandungan isi ayat-ayat Al-Qur\u2019an itu selama-lamanya.",
        "intro_surah": "Surah Y\u016bnus terdiri dari 109 ayat, termasuk golongan surah-surah Makiyah, diturunkan sesudah Surah al-Isr\u0101\u2019 dan sebelum Surah H\u016bd, seperti diutarakan as-Suy\u016b\u1e6d\u012b dalam kitabnya \u201cAl-Itq\u0101n\u201d, kecuali ayat 40, 94, dan 95. Ketiganya diturunkan di Medinah, setelah Nabi Muhammad berhijrah.\n\tSurah ini dinamai \u201cSurah Y\u016bnus\u201d, karena dalam surah ini dikemukakan kisah Nabi Yunus a.s. dengan pengikutnya yang teguh imannya.\n\nPokok-pokok Isinya:\n1.\tKeimanan\nKeesaan Allah baik zat-Nya maupun kekuasaan dan penciptaan; Al-Qur\u2019an bukanlah sihir; Allah mengatur semesta alam dari Arasy-Nya syafa\u2019at hanyalah dengan izin Allah; wahyu Allah menerangkan semua yang gaib bagi manusia; wali-wali Allah. Allah mengawasi dan mengamati perbuatan hamba-hamba-Nya di dunia, Allah tidak mempunyai anak.\n\n2.\tHukum-hukum\nMenentukan perhitungan tahun dan waktu dengan perjalanan matahari dan bulan, hukum mengadakan sesuatu terhadap Allah dan hukum mendustakan ayat-ayat-Nya.\n\n3.\tKisah-kisah\nKisah Nabi Nuh as dengan kaumnya; kisah Nabi Musa a.s. dengan Fir\u2018aun dan tukang sihir; kisah Bani Israil setelah keluar dari negeri Mesir; kisah Nabi Yunus as dengan kaumnya.\n\n4.\tLain-lain\nHari kebangkitan dan hari pembalasan; tentang sifat-sifat manusia, seperti suka tergesa-gesa, ingat kepada Allah diwaktu sukar dan lupa kepadanya di waktu senang, ingkar kepada nikmat Allah, suka kepada purbasangka dan sebagainya; keadaan orang-orang berbuat baik dan orang-orang berbuat jahat di Hari Kiamat; tidak seorang pun yang dapat membuat seperti Al-Qur\u2019an, tugas Rasul hanyalah menyampaikan risalah yang dibawanya.",
        "outro_surah": null,
        "munasabah_prev_surah": "1.\tAkhir Surah at-Taubah ditutup dengan menyebutkan risalah Nabi Muhammad saw dan hal-hal yang serupa disebutkan pula oleh Surah Y\u016bnus.\n2.\tSurah at-Taubah menerangkan keadaan orang-orang munafik, dan perbuatan mereka di waktu Al-Qur\u2019an diturunkan, sedang Surah Y\u016bnus menerangkan sikap orang-orang kafir terhadap Al-Qur\u2019an.",
        "munasabah_prev_theme": "Pada ayat-ayat yang lalu, Allah menjelaskan sikap orang musyrik terhadap Al-Qur\u2019an. Mereka menuduh bahwa Al-Qur\u2019an itu buatan Muhammad saw. Mereka juga mendustakan ancaman-ancaman yang akan ditimpakan kepada mereka akibat dari sikap mereka yang tidak didasarkan kepada pengetahuan yang benar. Pada ayat-ayat ini, Allah menerangkan bahwa mereka akan terbagi menjadi dua kelompok, satu kelompok menjadi orang yang benar-benar beriman dan kelompok yang lain bergelimang dalam keingkaran dan kekafiran.",
        "theme_group": "SIKAP ORANG MUSYRIK TERHADAP AL-QUR\u2019AN",
        "kosakata": "Kosakata: A\u1e63-\u1e62umm \u0627\u064e\u0644\u0635\u0651\u064f\u0645\u0651\u064f (Y\u016bnus/10: 42)\nA\u1e63-\u1e62umm berarti kehilangan indera pendengaran. Terkadang digunakan menjadi sifat dari orang yang tidak mau mendengar kebenaran. Firman Allah: \u0635\u0645 \u0628\u0643\u0645 \u0639\u0645\u064a \u0641\u0647\u0645 \u0644\u0627 \u064a\u0631\u062c\u0639\u0648\u0646 . \u0635\u0645\u0645 \u0641\u064a \u0627\u0644\u0623\u0645\u0631 artinya seseorang yang tidak memperdulikan nasehat orang lain seakan-akan dia tuli. ",
        "sabab_nuzul": null,
        "conclusion": null
    }
}