{
    "id": 1447,
    "surah_id": 10,
    "ayah": 83,
    "page": 218,
    "quarter_hizb": 22.5,
    "juz": 11,
    "manzil": 3,
    "arabic": "\u0641\u064e\u0645\u064e\u0627\u0653 \u0627\u0670\u0645\u064e\u0646\u064e \u0644\u0650\u0645\u064f\u0648\u0652\u0633\u0670\u0649\u0653 \u0627\u0650\u0644\u0651\u064e\u0627 \u0630\u064f\u0631\u0651\u0650\u064a\u0651\u064e\u0629\u064c \u0645\u0651\u0650\u0646\u0652 \u0642\u064e\u0648\u0652\u0645\u0650\u0647\u0656 \u0639\u064e\u0644\u0670\u0649 \u062e\u064e\u0648\u0652\u0641\u064d \u0645\u0651\u0650\u0646\u0652 \u0641\u0650\u0631\u0652\u0639\u064e\u0648\u0652\u0646\u064e \u0648\u064e\u0645\u064e\u0644\u064e\u0627\u06df\u0649\u0655\u0650\u0647\u0650\u0645\u0652 \u0627\u064e\u0646\u0652 \u064a\u0651\u064e\u0641\u0652\u062a\u0650\u0646\u064e\u0647\u064f\u0645\u0652 \u06d7\u0648\u064e\u0627\u0650\u0646\u0651\u064e \u0641\u0650\u0631\u0652\u0639\u064e\u0648\u0652\u0646\u064e \u0644\u064e\u0639\u064e\u0627\u0644\u064d \u0641\u0650\u0649 \u0627\u0644\u0652\u0627\u064e\u0631\u0652\u0636\u0650\u06da \u0648\u064e\u0627\u0650\u0646\u0651\u064e\u0647\u0657 \u0644\u064e\u0645\u0650\u0646\u064e \u0627\u0644\u0652\u0645\u064f\u0633\u0652\u0631\u0650\u0641\u0650\u064a\u0652\u0646\u064e ",
    "latin": "Fam\u0101 \u0101mana lim\u016bs\u0101 ill\u0101 \u017curriyyatum min qaumih\u012b \u2018al\u0101 khaufim min fir\u2018auna wa mala'ihim ay yaftinahum, wa inna fir\u2018auna la\u2018\u0101lin fil-ar\u1e0d(i), wa innah\u016b laminal-musrif\u012bn(a). ",
    "translation": "Tidak ada yang beriman kepada Musa selain keturunan dari kaumnya disertai ketakutan kepada Fir\u2018aun dan para pemuka kaumnya yang akan menyiksa mereka. Sesungguhnya Fir\u2018aun benar-benar sewenang-wenang di bumi. Sesungguhnya ia benar-benar termasuk orang-orang yang melampaui batas.",
    "no_footnote": null,
    "footnotes": null,
    "surah": {
        "id": 10,
        "arabic": " \u064a\u0648\u0646\u0633",
        "latin": "Y\u016bnus",
        "transliteration": "Yunus",
        "translation": "Yunus",
        "num_ayah": 109,
        "page": 208,
        "location": "Makkiyah"
    },
    "tafsir": {
        "wajiz": "Meskipun telah terbukti bahwa yang dibawa Nabi Musa adalah mukjizat dan yang didatangkan oleh Fir'aun adalah sihir, tetapi hati Fir'aun dan mayoritas kaumnya telah tertutup dari hidayah iman, maka tidak ada yang beriman kepada Musa, selain sebagian keturunan dari kaumnya, yakni kaum Nabi Musa yang dalam keadaan takut bahwa Fir'aun dan para pemuka kaumnya akan menyiksa mereka. Dan sungguh, Fir'aun itu benar-benar telah berbuat sewenang-wenang di bumi, yakni di Mesir dengan menindas Bani Israil, dan benar-benar termasuk orang yang melampaui batas dalam melakukan kezaliman serta sangat sombong.",
        "tahlili": "Dalam ayat ini Allah menerangkan keadaan Musa dengan kaumnya sebelum mereka meninggalkan Mesir. Kegagalan Fir\u2018aun bersama pemuka-pemuka kaumnya dan tukang-tukang sihir itu mendorong Fir\u2018aun melakukan perbuatan yang lebih kejam lagi. Dia merencanakan pembunuhan terhadap Nabi Musa dan orang-orang Bani Israil. Rencana ini menimbulkan rasa ketakutan di kalangan Bani Israil. Oleh karena itu, tidak banyak di antara mereka yang beriman kepada Nabi Musa. Mereka yang beriman itu umumnya para pemuda. Kaum Nabi Musa merasa takut kepada Fir\u2018aun dan pemuka-pemuka kaumnya yang selalu berusaha menyiksa mereka dan memaksa mereka murtad dari agama Musa a.s. Fir\u2018aun zaman Musa a.s., termasuk raja yang sangat kejam dalam sejarah Mesir. Karena itu dia amat ditakuti oleh rakyatnya. Dia banyak menumpahkan darah manusia dan dia pula yang menganggap dirinya sebagai Tuhan. Bani Israil dijadikan budak di bumi Mesir.\nFirman Allah menjelaskan kekejaman Fir\u2018aun:\n\u0648\u064e\u0642\u064e\u0627\u0644\u064e \u0627\u0644\u0652\u0645\u064e\u0644\u064e\u0627\u064f \u0645\u0650\u0646\u0652 \u0642\u064e\u0648\u0652\u0645\u0650 \u0641\u0650\u0631\u0652\u0639\u064e\u0648\u0652\u0646\u064e \u0627\u064e\u062a\u064e\u0630\u064e\u0631\u064f \u0645\u064f\u0648\u0652\u0633\u0670\u0649 \u0648\u064e\u0642\u064e\u0648\u0652\u0645\u064e\u0647\u0657 \u0644\u0650\u064a\u064f\u0641\u0652\u0633\u0650\u062f\u064f\u0648\u0652\u0627 \u0641\u0650\u0649 \u0627\u0644\u0652\u0627\u064e\u0631\u0652\u0636\u0650 \u0648\u064e\u064a\u064e\u0630\u064e\u0631\u064e\u0643\u064e \u0648\u064e\u0627\u0670\u0644\u0650\u0647\u064e\u062a\u064e\u0643\u064e\u06d7 \u0642\u064e\u0627\u0644\u064e \u0633\u064e\u0646\u064f\u0642\u064e\u062a\u0651\u0650\u0644\u064f \u0627\u064e\u0628\u0652\u0646\u064e\u0627\u06e4\u0621\u064e\u0647\u064f\u0645\u0652 \u0648\u064e\u0646\u064e\u0633\u0652\u062a\u064e\u062d\u0652\u064a\u0656 \u0646\u0650\u0633\u064e\u0627\u06e4\u0621\u064e\u0647\u064f\u0645\u0652\u06da \u0648\u064e\u0627\u0650\u0646\u0651\u064e\u0627 \u0641\u064e\u0648\u0652\u0642\u064e\u0647\u064f\u0645\u0652 \u0642\u0670\u0647\u0650\u0631\u064f\u0648\u0652\u0646\u064e \u0661\u0662\u0667 (\u0627\u0644\u0627\u0639\u0631\u0627\u0641)\nDan para pemuka dari kaum Fir\u2018aun berkata, \u201cApakah engkau akan membiarkan Musa dan kaumnya untuk berbuat kerusakan di negeri ini (Mesir) dan meninggalkanmu dan tuhan-tuhanmu?\u201d (Fir\u2018aun) menjawab, \u201cAkan kita bunuh anak-anak laki-laki mereka dan kita biarkan hidup anak-anak perempuan mereka dan sesungguhnya kita berkuasa penuh atas mereka.\u201d (al-A\u2018r\u0101f/7: 127)",
        "intro_surah": "Surah Y\u016bnus terdiri dari 109 ayat, termasuk golongan surah-surah Makiyah, diturunkan sesudah Surah al-Isr\u0101\u2019 dan sebelum Surah H\u016bd, seperti diutarakan as-Suy\u016b\u1e6d\u012b dalam kitabnya \u201cAl-Itq\u0101n\u201d, kecuali ayat 40, 94, dan 95. Ketiganya diturunkan di Medinah, setelah Nabi Muhammad berhijrah.\n\tSurah ini dinamai \u201cSurah Y\u016bnus\u201d, karena dalam surah ini dikemukakan kisah Nabi Yunus a.s. dengan pengikutnya yang teguh imannya.\n\nPokok-pokok Isinya:\n1.\tKeimanan\nKeesaan Allah baik zat-Nya maupun kekuasaan dan penciptaan; Al-Qur\u2019an bukanlah sihir; Allah mengatur semesta alam dari Arasy-Nya syafa\u2019at hanyalah dengan izin Allah; wahyu Allah menerangkan semua yang gaib bagi manusia; wali-wali Allah. Allah mengawasi dan mengamati perbuatan hamba-hamba-Nya di dunia, Allah tidak mempunyai anak.\n\n2.\tHukum-hukum\nMenentukan perhitungan tahun dan waktu dengan perjalanan matahari dan bulan, hukum mengadakan sesuatu terhadap Allah dan hukum mendustakan ayat-ayat-Nya.\n\n3.\tKisah-kisah\nKisah Nabi Nuh as dengan kaumnya; kisah Nabi Musa a.s. dengan Fir\u2018aun dan tukang sihir; kisah Bani Israil setelah keluar dari negeri Mesir; kisah Nabi Yunus as dengan kaumnya.\n\n4.\tLain-lain\nHari kebangkitan dan hari pembalasan; tentang sifat-sifat manusia, seperti suka tergesa-gesa, ingat kepada Allah diwaktu sukar dan lupa kepadanya di waktu senang, ingkar kepada nikmat Allah, suka kepada purbasangka dan sebagainya; keadaan orang-orang berbuat baik dan orang-orang berbuat jahat di Hari Kiamat; tidak seorang pun yang dapat membuat seperti Al-Qur\u2019an, tugas Rasul hanyalah menyampaikan risalah yang dibawanya.",
        "outro_surah": null,
        "munasabah_prev_surah": "1.\tAkhir Surah at-Taubah ditutup dengan menyebutkan risalah Nabi Muhammad saw dan hal-hal yang serupa disebutkan pula oleh Surah Y\u016bnus.\n2.\tSurah at-Taubah menerangkan keadaan orang-orang munafik, dan perbuatan mereka di waktu Al-Qur\u2019an diturunkan, sedang Surah Y\u016bnus menerangkan sikap orang-orang kafir terhadap Al-Qur\u2019an.",
        "munasabah_prev_theme": "Pada ayat-ayat yang lalu Allah menjelaskan reaksi Fir\u2018aun terhadap dakwah Nabi Musa, yaitu dengan mendatangkan para penyihir untuk menantangnya. Maka pada ayat-ayat ini Allah menjelaskan bahwa setelah sihir mereka dikalahkan oleh mukjizat Nabi Musa, sebagian para penyihir itu berbalik menjadi beriman kepada Nabi Musa.",
        "theme_group": "Sebagian Bani Israil Beriman Kepada Nabi Musa",
        "kosakata": "Mi\u1e63r adalah nama dari semua kota yang mempunyai batas-batas tertentu karena kata al-mi\u1e63r artinya batas. Dalam ayat ini, mi\u1e63r menunjuk pada kota mana saja yang mempunyai batas-batas tertentu, namun menurut ulama tafsir kata mi\u1e63r di sini menunjuk pada kota Mesir dimana kerajaan Fir\u2018aun berada. Kata mi\u1e63r terulang dalam Al-Qur\u2019an sebanyak 4 kali, yaitu pada Surah al-Baqarah/2: 61, Y\u016bnus/10: 87, Y\u016bsuf/12: 99, dan az-Zukhruf/43: 51.",
        "sabab_nuzul": null,
        "conclusion": null
    }
}