{
    "id": 1408,
    "surah_id": 10,
    "ayah": 44,
    "page": 214,
    "quarter_hizb": 22,
    "juz": 11,
    "manzil": 3,
    "arabic": "\u0627\u0650\u0646\u0651\u064e \u0627\u0644\u0644\u0651\u0670\u0647\u064e \u0644\u064e\u0627 \u064a\u064e\u0638\u0652\u0644\u0650\u0645\u064f \u0627\u0644\u0646\u0651\u064e\u0627\u0633\u064e \u0634\u064e\u064a\u0652\u0640\u0654\u064b\u0627 \u0648\u0651\u064e\u0644\u0670\u0643\u0650\u0646\u0651\u064e \u0627\u0644\u0646\u0651\u064e\u0627\u0633\u064e \u0627\u064e\u0646\u0652\u0641\u064f\u0633\u064e\u0647\u064f\u0645\u0652 \u064a\u064e\u0638\u0652\u0644\u0650\u0645\u064f\u0648\u0652\u0646\u064e",
    "latin": "Innall\u0101ha l\u0101 ya\u1e93limun-n\u0101sa syai'aw wa l\u0101kinnan-n\u0101sa anfusahum ya\u1e93lim\u016bn(a). ",
    "translation": "Sesungguhnya Allah tidak menzalimi manusia sedikit pun, tetapi manusia itulah yang menzalimi dirinya sendiri.",
    "no_footnote": null,
    "footnotes": null,
    "surah": {
        "id": 10,
        "arabic": " \u064a\u0648\u0646\u0633",
        "latin": "Y\u016bnus",
        "transliteration": "Yunus",
        "translation": "Yunus",
        "num_ayah": 109,
        "page": 208,
        "location": "Makkiyah"
    },
    "tafsir": {
        "wajiz": " Sesungguhnya Allah tidak menzalimi manusia sedikit pun, karena Dia sudah memberikan petunjuk menuju jalan kebenaran dan melarang ke jalan kesesatan serta memberi kebebasan kepada manusia untuk menentukan pilihan, tetapi manusia itulah yang menzalimi dirinya sendiri dengan berbuat kejahatan dan mengabaikan kebenaran.",
        "tahlili": "Kemudian Allah menandaskan kepada kaum Muslimin, bahwa Dia tidak akan menganiaya hambanya dan tidak akan mengurangi daya indera dan semua alat yang dimiliki manusia untuk memperoleh petunjuk, agar mereka sampai kepada kebenaran dan dapat mempedomani petunjuk itu sehingga dapat melaksanakannya untuk mencapai segala sesuatu yang bermanfaat bagi mereka, asalkan manusia itu sendiri mau mempergunakan pancainderanya sebaik-baiknya. Kalau terjadi sebaliknya, merekalah yang menganiaya diri mereka sendiri. Karena mereka diberi mata dan telinga, tetapi tidak mau memahami petunjuk Allah berarti merekalah yang menganiaya diri mereka sendiri. Karena mereka tidak mau mendengar, dan diberi hati tetapi tidak mau mengerti, maka sepantasnyalah apabila mereka disiksa sebab menganiaya diri mereka sendiri. Allah telah menurunkan utusan untuk membimbing mereka kepada kehidupan yang bahagia di dunia dan di akhirat, tetapi mereka tidak mau mendengar dan tidak mau menaatinya, maka apabila mereka tersesat di dunia dan di akhirat kelak dijatuhi siksaan yang berat, maka yang menganiaya mereka itu tiada lain adalah diri mereka sendiri.",
        "intro_surah": "Surah Y\u016bnus terdiri dari 109 ayat, termasuk golongan surah-surah Makiyah, diturunkan sesudah Surah al-Isr\u0101\u2019 dan sebelum Surah H\u016bd, seperti diutarakan as-Suy\u016b\u1e6d\u012b dalam kitabnya \u201cAl-Itq\u0101n\u201d, kecuali ayat 40, 94, dan 95. Ketiganya diturunkan di Medinah, setelah Nabi Muhammad berhijrah.\n\tSurah ini dinamai \u201cSurah Y\u016bnus\u201d, karena dalam surah ini dikemukakan kisah Nabi Yunus a.s. dengan pengikutnya yang teguh imannya.\n\nPokok-pokok Isinya:\n1.\tKeimanan\nKeesaan Allah baik zat-Nya maupun kekuasaan dan penciptaan; Al-Qur\u2019an bukanlah sihir; Allah mengatur semesta alam dari Arasy-Nya syafa\u2019at hanyalah dengan izin Allah; wahyu Allah menerangkan semua yang gaib bagi manusia; wali-wali Allah. Allah mengawasi dan mengamati perbuatan hamba-hamba-Nya di dunia, Allah tidak mempunyai anak.\n\n2.\tHukum-hukum\nMenentukan perhitungan tahun dan waktu dengan perjalanan matahari dan bulan, hukum mengadakan sesuatu terhadap Allah dan hukum mendustakan ayat-ayat-Nya.\n\n3.\tKisah-kisah\nKisah Nabi Nuh as dengan kaumnya; kisah Nabi Musa a.s. dengan Fir\u2018aun dan tukang sihir; kisah Bani Israil setelah keluar dari negeri Mesir; kisah Nabi Yunus as dengan kaumnya.\n\n4.\tLain-lain\nHari kebangkitan dan hari pembalasan; tentang sifat-sifat manusia, seperti suka tergesa-gesa, ingat kepada Allah diwaktu sukar dan lupa kepadanya di waktu senang, ingkar kepada nikmat Allah, suka kepada purbasangka dan sebagainya; keadaan orang-orang berbuat baik dan orang-orang berbuat jahat di Hari Kiamat; tidak seorang pun yang dapat membuat seperti Al-Qur\u2019an, tugas Rasul hanyalah menyampaikan risalah yang dibawanya.",
        "outro_surah": null,
        "munasabah_prev_surah": "1.\tAkhir Surah at-Taubah ditutup dengan menyebutkan risalah Nabi Muhammad saw dan hal-hal yang serupa disebutkan pula oleh Surah Y\u016bnus.\n2.\tSurah at-Taubah menerangkan keadaan orang-orang munafik, dan perbuatan mereka di waktu Al-Qur\u2019an diturunkan, sedang Surah Y\u016bnus menerangkan sikap orang-orang kafir terhadap Al-Qur\u2019an.",
        "munasabah_prev_theme": "Pada ayat-ayat yang lalu, Allah menjelaskan sikap orang musyrik terhadap Al-Qur\u2019an. Mereka menuduh bahwa Al-Qur\u2019an itu buatan Muhammad saw. Mereka juga mendustakan ancaman-ancaman yang akan ditimpakan kepada mereka akibat dari sikap mereka yang tidak didasarkan kepada pengetahuan yang benar. Pada ayat-ayat ini, Allah menerangkan bahwa mereka akan terbagi menjadi dua kelompok, satu kelompok menjadi orang yang benar-benar beriman dan kelompok yang lain bergelimang dalam keingkaran dan kekafiran.",
        "theme_group": "SIKAP ORANG MUSYRIK TERHADAP AL-QUR\u2019AN",
        "kosakata": "Kosakata: A\u1e63-\u1e62umm \u0627\u064e\u0644\u0635\u0651\u064f\u0645\u0651\u064f (Y\u016bnus/10: 42)\nA\u1e63-\u1e62umm berarti kehilangan indera pendengaran. Terkadang digunakan menjadi sifat dari orang yang tidak mau mendengar kebenaran. Firman Allah: \u0635\u0645 \u0628\u0643\u0645 \u0639\u0645\u064a \u0641\u0647\u0645 \u0644\u0627 \u064a\u0631\u062c\u0639\u0648\u0646 . \u0635\u0645\u0645 \u0641\u064a \u0627\u0644\u0623\u0645\u0631 artinya seseorang yang tidak memperdulikan nasehat orang lain seakan-akan dia tuli. ",
        "sabab_nuzul": null,
        "conclusion": "1. \tDi antara orang-orang yang mendustakan kebenaran Al-Qur\u2019an, ada orang-orang yang pada akhirnya beriman karena mereka memahami petunjuk-petunjuk yang terkandung di dalamnya, dan ada pula yang tetap mengingkari kebenarannya karena mereka tidak dapat memahami petunjuk itu.\n2. \tMenghadapai orang-orang yang tetap ingkar akan kebenaran Al-Qur\u2019an, Nabi Muhammad saw tidak diperintahkan untuk memaksa mereka agar mempercayainya. Nabi Muhammad saw dan umatnya tidak bertanggung jawab terhadap perbuatan mereka dan begitu juga sebaliknya.\n3. \tOrang yang mengingkari kebenaran ayat-ayat Al-Qur\u2019an disamakan dengan orang tuli dan buta karena hati mereka tertutup oleh kemusyrikan, mereka tidak dapat melihat cahaya kebenaran yang terdapat dalam Al-Qur\u2019an itu.\n4. \tApabila ada manusia yang menyimpang dari petunjuk Allah, hal itu bukanlah berarti Allah yang menganiaya mereka, tetapi mereka sendirilah yang menganiaya dirinya."
    }
}