{
    "id": 1369,
    "surah_id": 10,
    "ayah": 5,
    "page": 208,
    "quarter_hizb": 21.5,
    "juz": 11,
    "manzil": 3,
    "arabic": "\u0647\u064f\u0648\u064e \u0627\u0644\u0651\u064e\u0630\u0650\u064a\u0652 \u062c\u064e\u0639\u064e\u0644\u064e \u0627\u0644\u0634\u0651\u064e\u0645\u0652\u0633\u064e \u0636\u0650\u064a\u064e\u0627\u06e4\u0621\u064b \u0648\u0651\u064e\u0627\u0644\u0652\u0642\u064e\u0645\u064e\u0631\u064e \u0646\u064f\u0648\u0652\u0631\u064b\u0627 \u0648\u0651\u064e\u0642\u064e\u062f\u0651\u064e\u0631\u064e\u0647\u0657 \u0645\u064e\u0646\u064e\u0627\u0632\u0650\u0644\u064e \u0644\u0650\u062a\u064e\u0639\u0652\u0644\u064e\u0645\u064f\u0648\u0652\u0627 \u0639\u064e\u062f\u064e\u062f\u064e \u0627\u0644\u0633\u0651\u0650\u0646\u0650\u064a\u0652\u0646\u064e \u0648\u064e\u0627\u0644\u0652\u062d\u0650\u0633\u064e\u0627\u0628\u064e\u06d7 \u0645\u064e\u0627 \u062e\u064e\u0644\u064e\u0642\u064e \u0627\u0644\u0644\u0651\u0670\u0647\u064f \u0630\u0670\u0644\u0650\u0643\u064e \u0627\u0650\u0644\u0651\u064e\u0627 \u0628\u0650\u0627\u0644\u0652\u062d\u064e\u0642\u0651\u0650\u06d7 \u064a\u064f\u0641\u064e\u0635\u0651\u0650\u0644\u064f \u0627\u0644\u0652\u0627\u0670\u064a\u0670\u062a\u0650 \u0644\u0650\u0642\u064e\u0648\u0652\u0645\u064d \u064a\u0651\u064e\u0639\u0652\u0644\u064e\u0645\u064f\u0648\u0652\u0646\u064e ",
    "latin": "Huwal-la\u017c\u012b ja\u2018alasy-syamsa \u1e0diy\u0101'aw wal-qamara n\u016braw wa qaddarah\u016b man\u0101zila lita\u2018lam\u016b \u2018adadas-sin\u012bna wal-\u1e25is\u0101b(a), m\u0101 khalaqall\u0101hu z\u0101lika ill\u0101 bil-\u1e25aqq(i), yufa\u1e63\u1e63ilul-\u0101y\u0101ti liqaumiy ya\u2018lam\u016bn(a). ",
    "translation": "Dialah yang menjadikan matahari bersinar dan bulan bercahaya.343) Dialah pula yang menetapkan tempat-tempat orbitnya agar kamu mengetahui bilangan tahun dan perhitungan (waktu).344) Allah tidak menciptakan demikian itu, kecuali dengan benar. Dia menjelaskan tanda-tanda (kebesaran-Nya) kepada kaum yang mengetahui.",
    "no_footnote": "343, 344",
    "footnotes": "343) Allah Swt. menjadikan matahari dan bulan berbeda sifat fisisnya. Matahari bersinar karena memancarkan cahayanya dari proses reaksi nuklir di dalam intinya, sedangkan bulan bercahaya karena memantulkan cahaya matahari.\n344) Pergerakan bulan mengitari bumi menyebabkan pemantulan cahaya matahari oleh bulan berubah-ubah bentuknya, dari bentuk sabit sampai purnama dan kembali menjadi sabit lagi, sesuai dengan posisinya. Keteraturan periode bulan mengitari bumi dijadikan sebagai perhitungan waktu bulanan. Dua belas bulan setara dengan satu tahun (surah at-Taubah [9]: 36).",
    "surah": {
        "id": 10,
        "arabic": " \u064a\u0648\u0646\u0633",
        "latin": "Y\u016bnus",
        "transliteration": "Yunus",
        "translation": "Yunus",
        "num_ayah": 109,
        "page": 208,
        "location": "Makkiyah"
    },
    "tafsir": {
        "wajiz": "Selain menciptakan langit dan bumi sebagai bukti kebesaran dan kekuasaan-Nya, Dialah yang menjadikan matahari bersinar sangat terang yang menghasilkan kehangatan untuk alam raya dengan energi dari dirinya sendiri dan bulan bercahaya karena pantulan energi dari matahari, dan Dialah yang menetapkan tempat-tempat orbitnya, yakni tempat peredaran perjalanan bumi mengitari matahari dan bulan mengitari bumi agar kamu mengetahui bilangan tahun, dan perhitungan waktu. Allah tidak menciptakan hal yang demikian sempurna itu melainkan dengan benar, yakni dengan hikmah yang besar. Melalui penciptaan tersebut, Dia menjelaskan di antara tanda-tanda kebesaran-Nya kepada orang-orang yang mengetahui, yakni yang mau mengambil pelajaran dari tanda-tanda kekuasaan Allah di alam raya ini.",
        "tahlili": "Ayat ini menerangkan bahwa Allah yang menciptakan langit dan bumi dan yang bersemayam di atas \u2018Arsy-Nya. Dialah yang menjadikan matahari bersinar dan bulan bercahaya. Matahari dengan sinarnya merupakan sumber kehidupan, sumber panas dan tenaga yang dapat menggerakkan makhluk-makhluk Allah yang diciptakan-Nya. Dengan cahaya manusia dapat berjalan dalam kegelapan malam dan beraktivitas di malam hari.\nAyat ini membedakan antara cahaya yang dipancarkan matahari dan yang dipantulkan oleh bulan. Yang dipancarkan oleh matahari disebut \u201c\u1e0diy\u0101\u2019\u201d (sinar), sedang yang dipantulkan oleh bulan disebut \u201cn\u016br\u201d (cahaya) Pada firman Allah yang lalu dijelaskan:\n\u0648\u0651\u064e\u062c\u064e\u0639\u064e\u0644\u064e \u0627\u0644\u0652\u0642\u064e\u0645\u064e\u0631\u064e \u0641\u0650\u064a\u0652\u0647\u0650\u0646\u0651\u064e \u0646\u064f\u0648\u0652\u0631\u064b\u0627 \u0648\u0651\u064e\u062c\u064e\u0639\u064e\u0644\u064e \u0627\u0644\u0634\u0651\u064e\u0645\u0652\u0633\u064e \u0633\u0650\u0631\u064e\u0627\u062c\u064b\u0627 \u0661\u0666 (\u0646\u0648\u062d)\nDan di sana Dia menciptakan bulan yang bercahaya dan menjadikan matahari sebagai pelita (yang cemerlang)? (N\u016bh/71: 16)\n\nDari ayat-ayat ini dipahami bahwa matahari memancarkan sinar yang berasal dari dirinya sendiri, sebagaimana pelita memancarkan sinar dari dirinya sendiri yakni dari api yang membakar pelita itu. Lain halnya dengan bulan, yang cahayanya berasal dari pantulan sinar yang dipancarkan matahari ke permukaannya, kemudian sinar itu dipantulkan kembali berupa cahaya ke permukaan bumi.\nMatahari dan bulan adalah dua benda langit yang banyak disebut dalam Al-Qur\u2019an. Kata \u2018bulan\u2019 terdapat dalam 27 ayat dan matahari disebut dalam 33 ayat. Seringkali kedua benda ini disebut secara bersamaan dalam satu ayat. Sejumlah 17 ayat menyebut matahari dan bulan secara beriringan. Biasanya ayat yang menyebut matahari dan bulan secara beriringan adalah ayat yang menjelaskan aspek kauniyah dari kedua benda langit ini. Di dalam 3 ayat, kedua benda langit ini disebut bersamaan dengan bintang, benda langit lainnya. \nAyat 5 Surah Y\u016bnus di atas adalah contoh ayat yang menyebutkan matahari dan bulan secara beriringan. Ayat ini mengisyaratkan tiga aspek penting dari terciptanya matahari dan bulan.\nPertama, dalam ayat ini Allah menyebut matahari dan bulan dengan sebutan yang berbeda. Meskipun kedua benda langit ini sama-sama memancarkan cahaya ke bumi, namun sebutan cahaya dari keduanya selalu disebut secara berbeda. Pada ayat ini, matahari disebut dengan sebutan \u1e0diy\u0101\u2019 dan bulan dengan sebutan n\u016br. Hal ini untuk membedakan sifat cahaya yang dipancarkan oleh kedua benda ini. Dewasa ini, ilmu pengetahuan telah menunjukkan bahwa cahaya matahari berasal dari reaksi nuklir yang menghasilkan panas yang sangat tinggi dan cahaya yang terang benderang. Sementara itu cahaya bulan hanya berasal dari pantulan cahaya matahari yang dipantulkan oleh permukaan bulan ke bumi. Istilah yang berbeda ini menunjukkan bahwa memang Al-Qur\u2019an berasal dari Allah sang Pencipta, karena pada waktu Al-Qur\u2019an diturunkan pengetahuan manusia belum mencapai pemahaman seperti ini. \nDi ayat lain, matahari disebut sebagai sir\u0101j (lampu) dan bulan disebut sebagai mun\u012br (cerah berbinar-binar).\n\u062a\u064e\u0628\u0670\u0631\u064e\u0643\u064e \u0627\u0644\u0651\u064e\u0630\u0650\u064a\u0652 \u062c\u064e\u0639\u064e\u0644\u064e \u0641\u0650\u0649 \u0627\u0644\u0633\u0651\u064e\u0645\u064e\u0627\u06e4\u0621\u0650 \u0628\u064f\u0631\u064f\u0648\u0652\u062c\u064b\u0627 \u0648\u0651\u064e\u062c\u064e\u0639\u064e\u0644\u064e \u0641\u0650\u064a\u0652\u0647\u064e\u0627 \u0633\u0650\u0631\u0670\u062c\u064b\u0627 \u0648\u0651\u064e\u0642\u064e\u0645\u064e\u0631\u064b\u0627 \u0645\u0651\u064f\u0646\u0650\u064a\u0652\u0631\u064b\u0627 \u0666\u0661 (\u0627\u0644\u0641\u0631\u0642\u0627\u0646)\nMaha Suci Allah yang menjadikan di langit gugusan-gugusan bintang dan Dia menjadikan padanya sir\u0101j (matahari) dan bulan yang bercahaya (al- Furq\u0101n/25: 61)\n\u0648\u0651\u064e\u062c\u064e\u0639\u064e\u0644\u064e \u0627\u0644\u0652\u0642\u064e\u0645\u064e\u0631\u064e \u0641\u0650\u064a\u0652\u0647\u0650\u0646\u0651\u064e \u0646\u064f\u0648\u0652\u0631\u064b\u0627 \u0648\u0651\u064e\u062c\u064e\u0639\u064e\u0644\u064e \u0627\u0644\u0634\u0651\u064e\u0645\u0652\u0633\u064e \u0633\u0650\u0631\u064e\u0627\u062c\u064b\u0627 \u0661\u0666 (\u0646\u0648\u062d)\nDan Allah menciptakan padanya bulan sebagai cahaya dan menjadikan matahari sebagai pelita (yang cemerlang) (N\u016bh/71: 16)\n\nLebih tegas lagi di ayat lain matahari disebut sebagai sir\u0101j dan wahh\u0101j (terang membara).\n\u0648\u064e\u0628\u064e\u0646\u064e\u064a\u0652\u0646\u064e\u0627 \u0641\u064e\u0648\u0652\u0642\u064e\u0643\u064f\u0645\u0652 \u0633\u064e\u0628\u0652\u0639\u064b\u0627 \u0634\u0650\u062f\u064e\u0627\u062f\u064b\u0627\u06d9 \u0661\u0662 \u0648\u0651\u064e\u062c\u064e\u0639\u064e\u0644\u0652\u0646\u064e\u0627 \u0633\u0650\u0631\u064e\u0627\u062c\u064b\u0627 \u0648\u0651\u064e\u0647\u0651\u064e\u0627\u062c\u064b\u0627\u06d6 \u0661\u0663 (\u0627\u0644\u0646\u0628\u0623)\nDan Kami bangun di atas kamu tujuh buah (langit) yang kokoh, dan Kami jadikan pelita yang amat terang (matahari). (an-Naba\u2019/78: 12-13)\n\nKedua, penegasan dari Allah bahwa matahari dan bulan senantiasa berada pada garis edar tertentu (wa qaddarah\u016b man\u0101zila). Garis edar ini tunduk pada hukum yang telah dibuat Allah, yaitu hukum gravitasi yang mengatakan bahwa ada gaya tarik menarik antara dua benda yang memiliki masa. Besarnya gaya tarik menarik ini berbanding lurus dengan massa dari kedua benda tersebut dan berbanding terbalik dengan jarak antara keduanya.\nAdalah Newton yang memformulasikan hukum gravitasi pada abad ke-18. Perhitungan menggunakan hukum gravitasi ini telah berhasil menghitung secara akurat garis edar yang dilalui oleh bulan ketika mengelilingi bumi, maupun bumi ketika mengelilingi matahari. Hukum gravitasi inilah yang dimaksud oleh Allah ketika Dia berfirman dalam Surah al-A\u2018r\u0101f/7: 54: \u201c... (Dia ciptakan) matahari, bulan, dan bintang-bintang tunduk kepada perintah-Nya\u2026.\u201d Matahari, bulan, dan bintang tunduk kepada ketentuan Allah, yakni hukum gravitasi yang mengendalikan gerak benda. Di berbagai ayat lainnya sering disebutkan bahwa Allah-lah yang telah menundukkan bulan dan matahari bagi manusia (Lihat misalnya Surah ar-Ra\u2019d/13: 2, Ibr\u0101h\u012bm/14: 33, an-Na\u1e25l/16: 12, Luqm\u0101n/31: 29, F\u0101\u1e6dir/35: 13, az-Zumar/39: 5). Yang dimaksud adalah bahwa Allah-lah yang telah menetapkan bahwa matahari dan bulan serta bintang-bintang tunduk kepada hukum gravitasi yang telah dia tetapkan.\nKetiga, ketentuan Allah tentang garis edar yang teratur dari bulan dan matahari dimaksudkan agar supaya manusia mengetahui perhitungan tahun dan ilmu hisab (lita\u2019lam\u016b \u2018adad as-sin\u012bna wal\u1e96is\u0101b). Bisa dibayangkan, seandainya bulan dan matahari tidak berada pada garis edar yang teratur, atau dengan kata lain beredar secara acak, bagaimana kita dapat menghitung berapa lama waktu satu tahun atau satu bulan? Maha Suci Allah yang Maha Pengasih yang telah menetapkan segalanya bagi kemudahan manusia.\n\nHal ini dijelaskan pula oleh firman Allah:\n\u062a\u064e\u0628\u0670\u0631\u064e\u0643\u064e \u0627\u0644\u0651\u064e\u0630\u0650\u064a\u0652 \u062c\u064e\u0639\u064e\u0644\u064e \u0641\u0650\u0649 \u0627\u0644\u0633\u0651\u064e\u0645\u064e\u0627\u06e4\u0621\u0650 \u0628\u064f\u0631\u064f\u0648\u0652\u062c\u064b\u0627 \u0648\u0651\u064e\u062c\u064e\u0639\u064e\u0644\u064e \u0641\u0650\u064a\u0652\u0647\u064e\u0627 \u0633\u0650\u0631\u0670\u062c\u064b\u0627 \u0648\u0651\u064e\u0642\u064e\u0645\u064e\u0631\u064b\u0627 \u0645\u0651\u064f\u0646\u0650\u064a\u0652\u0631\u064b\u0627 \u0666\u0661 (\u0627\u0644\u0641\u0631\u0642\u0627\u0646)\nMahasuci Allah yang menjadikan di langit gugusan bintang dan Dia juga menjadikan padanya matahari dan bulan bersinar. (al-Furq\u0101n/25: 61)\n\nDalam hakikat dan kegunaannya terdapat perbedaan antara sinar matahari dan cahaya bulan. Sinar matahari lebih keras dari cahaya bulan. Sinar matahari itu terdiri atas tujuh warna dasar sekalipun dalam bentuk keseluruhannya kelihatan berwarna putih, sedang cahaya bulan adalah lembut, dan menimbulkan ketenangan bagi orang yang melihat dan merasakannya. Demikian pula kegunaannya. Sinar matahari seperti disebutkan di atas adalah sumber hidup dan kehidupan, sumber gerak tenaga dan energi. Sedang cahaya bulan adalah penyuluh di waktu malam.\nTidak terhitung banyak kegunaan dan faedah sinar matahari dan cahaya bulan itu bagi makhluk Allah pada umumnya, dan bagi manusia pada khususnya. Semuanya itu sebenarnya dapat dijadikan dalil tentang adanya Allah Yang Maha Esa bagi orang-orang yang mau menggunakan akal dan perasaannya.\nAllah menerangkan bahwa Dia telah menetapkan garis edar dari bulan dan menetapkan manzilah-manzilah (tempat-tempat) bagi perjalanan-Nya. Pada tiap malam, bulan melalui suatu manzilah. Sejak dari manzilah pertama sampai manzilah terakhir memerlukan waktu antara 29 atau 30 malam atau disebut satu bulan. Dalam sebulan itu bulan hanya dapat dilihat selama 27 atau 28 malam, sedang pada malam-malam yang lain bulan tidak dapat dilihat, sebagaimana firman Allah:\n\u0648\u064e\u0627\u0644\u0652\u0642\u064e\u0645\u064e\u0631\u064e \u0642\u064e\u062f\u0651\u064e\u0631\u0652\u0646\u0670\u0647\u064f \u0645\u064e\u0646\u064e\u0627\u0632\u0650\u0644\u064e \u062d\u064e\u062a\u0651\u0670\u0649 \u0639\u064e\u0627\u062f\u064e \u0643\u064e\u0627\u0644\u0652\u0639\u064f\u0631\u0652\u062c\u064f\u0648\u0652\u0646\u0650 \u0627\u0644\u0652\u0642\u064e\u062f\u0650\u064a\u0652\u0645\u0650 \u0663\u0669 (\u064a\u0670\u0633\u06e4)\nDan telah Kami tetapkan tempat peredaran bagi bulan, sehingga (setelah ia sampai tempat peredaranya yang terakhir) kembalilah ia seperti bentuk tandan yang tua. (Y\u0101s\u012bn/36: 39)\n\nMaksud ayat ini ialah bulan itu pada awal bulan adalah kecil berbentuk sabit, kemudian setelah melalui manzilah ia bertambah besar sampai menjadi purnama, setelah itu kembali berangsur-angsur kecil, dan bertambah kecil yang kelihatan seperti tandan yang melengkung, akhirnya menghilang dan muncul kembali pada permulaan bulan.\nAllah berfirman:\n\u0627\u064e\u0644\u0634\u0651\u064e\u0645\u0652\u0633\u064f \u0648\u064e\u0627\u0644\u0652\u0642\u064e\u0645\u064e\u0631\u064f \u0628\u0650\u062d\u064f\u0633\u0652\u0628\u064e\u0627\u0646\u064d\u06d9 \u0665 (\u0627\u0644\u0631\u062d\u0645\u0646)\nMatahari dan bulan beredar menurut perhitungan. (ar-Ra\u1e25m\u0101n/55: 5)\n\nAllah menciptakan bulan dan menjadikannya beredar menjalani garis edar dalam manzilah-manzilah-Nya agar dengan demikian manusia dengan mudah mengetahui bilangan tahun, perhitungan waktu, perhitungan bulan, penentuan hari, jam, detik dan sebagainya, sehingga mereka dapat membuang rencana untuk dirinya, untuk keluarganya, untuk masyarakat, untuk agamanya serta rencana-rencana lain yang berhubungan dengan hidup dan kehidupannya sebagai anggota masyarakat dan sebagai hamba Allah. Allah berfirman:\n\u0648\u064e\u062c\u064e\u0639\u064e\u0644\u0652\u0646\u064e\u0627 \u0627\u0644\u0651\u064e\u064a\u0652\u0644\u064e \u0648\u064e\u0627\u0644\u0646\u0651\u064e\u0647\u064e\u0627\u0631\u064e \u0627\u0670\u064a\u064e\u062a\u064e\u064a\u0652\u0646\u0650 \u0641\u064e\u0645\u064e\u062d\u064e\u0648\u0652\u0646\u064e\u0627\u0653 \u0627\u0670\u064a\u064e\u0629\u064e \u0627\u0644\u0651\u064e\u064a\u0652\u0644\u0650 \u0648\u064e\u062c\u064e\u0639\u064e\u0644\u0652\u0646\u064e\u0627\u0653 \u0627\u0670\u064a\u064e\u0629\u064e \u0627\u0644\u0646\u0651\u064e\u0647\u064e\u0627\u0631\u0650 \u0645\u064f\u0628\u0652\u0635\u0650\u0631\u064e\u0629\u064b \u0644\u0650\u0651\u062a\u064e\u0628\u0652\u062a\u064e\u063a\u064f\u0648\u0652\u0627 \u0641\u064e\u0636\u0652\u0644\u064b\u0627 \u0645\u0651\u0650\u0646\u0652 \u0631\u0651\u064e\u0628\u0651\u0650\u0643\u064f\u0645\u0652 \u0648\u064e\u0644\u0650\u062a\u064e\u0639\u0652\u0644\u064e\u0645\u064f\u0648\u0652\u0627 \u0639\u064e\u062f\u064e\u062f\u064e \u0627\u0644\u0633\u0651\u0650\u0646\u0650\u064a\u0652\u0646\u064e \u0648\u064e\u0627\u0644\u0652\u062d\u0650\u0633\u064e\u0627\u0628\u064e\u06d7 \u0648\u064e\u0643\u064f\u0644\u0651\u064e \u0634\u064e\u064a\u0652\u0621\u064d \u0641\u064e\u0635\u0651\u064e\u0644\u0652\u0646\u0670\u0647\u064f \u062a\u064e\u0641\u0652\u0635\u0650\u064a\u0652\u0644\u064b\u0627 \u0661\u0662 (\u0627\u0644\u0627\u0633\u0631\u0627\u06e4\u0621)\nDan Kami jadikan malam dan siang sebagai dua tanda (kebesaran Kami), kemudian Kami hapuskan tanda malam dan Kami jadikan tanda siang itu terang benderang, agar kamu (dapat) mencari karunia dari Tuhanmu, dan agar kamu mengetahui bilangan tahun dan perhitungan (waktu). Dan segala sesuatu telah Kami terangkan dengan jelas. (al-Isr\u0101\u2019/17: 12)\nDengan mengetahui perhitungan tahun, waktu hari dan sebagainya, dapatlah manusia menetapkan waktu-waktu salat, waktu puasa, waktu menunaikan ibadah haji, waktu turun ke sawah, dan sebagainya.\nAllah menciptakan matahari bersinar dan bulan bercahaya yang bermanfaat bagi hidup dan kehidupan semua makhluk itu adalah berdasarkan kenyataan, keperluan, dan mempunyai hikmah yang tinggi. Dan Allah menerangkan tanda-tanda kekuasaan-Nya itu kepada orang-orang yang mau menggunakan akal pikirannya dengan benar dan kepada orang-orang yang mau mengakui kenyataan dan beriman berdasarkan bukti-bukti yang diperolehnya itu. Dengan perkataan lain, tanda-tanda kekuasaan dan kebesaran Allah ini tidak akan berfaedah sedikit pun bagi orang-orang yang tidak mau mencari kebenaran, yang hatinya dipenuhi oleh rasa dengki dan rasa fanatik kepada kepercayaan yang telah dianutnya.",
        "intro_surah": "Surah Y\u016bnus terdiri dari 109 ayat, termasuk golongan surah-surah Makiyah, diturunkan sesudah Surah al-Isr\u0101\u2019 dan sebelum Surah H\u016bd, seperti diutarakan as-Suy\u016b\u1e6d\u012b dalam kitabnya \u201cAl-Itq\u0101n\u201d, kecuali ayat 40, 94, dan 95. Ketiganya diturunkan di Medinah, setelah Nabi Muhammad berhijrah.\n\tSurah ini dinamai \u201cSurah Y\u016bnus\u201d, karena dalam surah ini dikemukakan kisah Nabi Yunus a.s. dengan pengikutnya yang teguh imannya.\n\nPokok-pokok Isinya:\n1.\tKeimanan\nKeesaan Allah baik zat-Nya maupun kekuasaan dan penciptaan; Al-Qur\u2019an bukanlah sihir; Allah mengatur semesta alam dari Arasy-Nya syafa\u2019at hanyalah dengan izin Allah; wahyu Allah menerangkan semua yang gaib bagi manusia; wali-wali Allah. Allah mengawasi dan mengamati perbuatan hamba-hamba-Nya di dunia, Allah tidak mempunyai anak.\n\n2.\tHukum-hukum\nMenentukan perhitungan tahun dan waktu dengan perjalanan matahari dan bulan, hukum mengadakan sesuatu terhadap Allah dan hukum mendustakan ayat-ayat-Nya.\n\n3.\tKisah-kisah\nKisah Nabi Nuh as dengan kaumnya; kisah Nabi Musa a.s. dengan Fir\u2018aun dan tukang sihir; kisah Bani Israil setelah keluar dari negeri Mesir; kisah Nabi Yunus as dengan kaumnya.\n\n4.\tLain-lain\nHari kebangkitan dan hari pembalasan; tentang sifat-sifat manusia, seperti suka tergesa-gesa, ingat kepada Allah diwaktu sukar dan lupa kepadanya di waktu senang, ingkar kepada nikmat Allah, suka kepada purbasangka dan sebagainya; keadaan orang-orang berbuat baik dan orang-orang berbuat jahat di Hari Kiamat; tidak seorang pun yang dapat membuat seperti Al-Qur\u2019an, tugas Rasul hanyalah menyampaikan risalah yang dibawanya.",
        "outro_surah": null,
        "munasabah_prev_surah": "1.\tAkhir Surah at-Taubah ditutup dengan menyebutkan risalah Nabi Muhammad saw dan hal-hal yang serupa disebutkan pula oleh Surah Y\u016bnus.\n2.\tSurah at-Taubah menerangkan keadaan orang-orang munafik, dan perbuatan mereka di waktu Al-Qur\u2019an diturunkan, sedang Surah Y\u016bnus menerangkan sikap orang-orang kafir terhadap Al-Qur\u2019an.",
        "munasabah_prev_theme": "Pada ayat-ayat yang lalu Allah menerangkan tanda-tanda adanya Allah seperti penciptaan langit dan bumi dengan susunan yang sangat rapi, maka pada ayat-ayat ini Allah menerangkan beberapa tanda kekuasaan-Nya dengan lebih terperinci mengatur alam semesta dengan tertib dan sempurna.",
        "theme_group": "ALAM SEMESTA BUKTI KEKUASAAN ALLAH",
        "kosakata": "Kosakata: \u1e0ciy\u0101\u2019a \u0636\u0650\u064a\u064e\u0627\u0621 (Y\u016bnus/10: 5)\nKata \u1e0diy\u0101\u2019a dalam Al-Qur\u2019an disebutkan tiga kali, yakni dalam ayat ini, dalam Surah al-Anbiy\u0101\u2019/21: 48, dan al-Qa\u1e63a\u1e63/28: 71. Dalam konteks Surah al-Anbiy\u0101\u2019/21: 48, kata \u1e0diy\u0101\u2019a digunakan untuk menjelaskan mukjizat Nabi Musa a.s. yang tangannya memancarkan \u201csinar.\u201d Kata ini, dalam Surah al-Qa\u1e63a\u1e63, digunakan untuk makna simbolik dengan arti siang yang terang benderang. Sedang kata \u1e0diy\u0101\u2019a dalam Surah Y\u016bnus/10: 5 ini berarti sinar yang dipancarkan bola matahari yang sangat menyilaukan mata. Sinar berbeda dengan cahaya (nur). Jika ditatap dengan mata telanjang, sinar terang matahari dapat merusak mata yang memandangnya. Sedangkan cahaya merupakan terang yang dipantulkan oleh benda lain yang terkena sinar.",
        "sabab_nuzul": null,
        "conclusion": null
    }
}