{
    "id": 1414,
    "surah_id": 10,
    "ayah": 50,
    "page": 214,
    "quarter_hizb": 22,
    "juz": 11,
    "manzil": 3,
    "arabic": "\u0642\u064f\u0644\u0652 \u0627\u064e\u0631\u064e\u0621\u064e\u064a\u0652\u062a\u064f\u0645\u0652 \u0627\u0650\u0646\u0652 \u0627\u064e\u062a\u0670\u0649\u0643\u064f\u0645\u0652 \u0639\u064e\u0630\u064e\u0627\u0628\u064f\u0647\u0657 \u0628\u064e\u064a\u064e\u0627\u062a\u064b\u0627 \u0627\u064e\u0648\u0652 \u0646\u064e\u0647\u064e\u0627\u0631\u064b\u0627 \u0645\u0651\u064e\u0627\u0630\u064e\u0627 \u064a\u064e\u0633\u0652\u062a\u064e\u0639\u0652\u062c\u0650\u0644\u064f \u0645\u0650\u0646\u0652\u0647\u064f \u0627\u0644\u0652\u0645\u064f\u062c\u0652\u0631\u0650\u0645\u064f\u0648\u0652\u0646\u064e",
    "latin": "Qul ara'aitum in at\u0101kum \u2018a\u017c\u0101buh\u016b bay\u0101tan au nah\u0101ram m\u0101\u017c\u0101 yasta\u2018jilu minhul-mujrim\u016bn(a). ",
    "translation": "Katakanlah (Nabi Muhammad), \u201cTerangkanlah kepadaku, jika datang kepada kamu siksaan-Nya pada waktu malam atau siang hari, (siksa) manakah yang diminta untuk disegerakan oleh para pendurhaka itu?\u201d",
    "no_footnote": null,
    "footnotes": null,
    "surah": {
        "id": 10,
        "arabic": " \u064a\u0648\u0646\u0633",
        "latin": "Y\u016bnus",
        "transliteration": "Yunus",
        "translation": "Yunus",
        "num_ayah": 109,
        "page": 208,
        "location": "Makkiyah"
    },
    "tafsir": {
        "wajiz": "Katakanlah wahai Nabi Muhammad kepada orang-orang musyrik, \u201cTerangkanlah kepadaku, jika datang kepada kamu siksaan-Nya pada waktu malam ketika kamu tidur nyenyak, atau siang hari ketika kamu sibuk dengan urusan duniamu, manakah yang diminta untuk disegerakan orang-orang yang berdosa itu?\u201d Allah mampu menyegerakan azab yang mereka minta, tetapi Dia menunda, karena memberi kesempatan kepada para pendurhaka untuk bertobat dari perbuatan maksiat.",
        "tahlili": "Allah memerintahkan kepada Rasulullah saw untuk mengatakan kepada orang-orang musyrik agar mereka itu menerangkan apa yang akan mereka lakukan seandainya siksaan Allah yang dijanjikan kepada mereka itu datang dengan tiba-tiba. Baik datangnya di waktu malam pada saat mereka tidur lelap, atau di waktu siang hari, pada saat mereka sibuk dengan urusan mereka, apakah orang-orang yang berdosa itu minta disegerakan juga, lalu apakah yang mereka inginkan, apakah mereka menginginkan siksaan akhirat yang akan ditimpakan kepada mereka pada hari pembalasan. Maka apapun pilihan mereka, itu hanyalah menunjukkan kepicikan dan kebodohan mereka, sebab janji Allah pasti akan datang dan tidak seorangpun dapat menghalang-halanginya. Pernyataan ini mengandung ejekan terhadap mereka karena pada umumnya orang yang berbuat jahat dan bergelimang dalam kedurhakaan merasa takut akan siksaan yang akan ditimpakan kepadanya. Lambat laun siksaan itu tentu akan datang juga, dan mereka tidak akan dapat mengelakkan diri dari siksaan itu.",
        "intro_surah": "Surah Y\u016bnus terdiri dari 109 ayat, termasuk golongan surah-surah Makiyah, diturunkan sesudah Surah al-Isr\u0101\u2019 dan sebelum Surah H\u016bd, seperti diutarakan as-Suy\u016b\u1e6d\u012b dalam kitabnya \u201cAl-Itq\u0101n\u201d, kecuali ayat 40, 94, dan 95. Ketiganya diturunkan di Medinah, setelah Nabi Muhammad berhijrah.\n\tSurah ini dinamai \u201cSurah Y\u016bnus\u201d, karena dalam surah ini dikemukakan kisah Nabi Yunus a.s. dengan pengikutnya yang teguh imannya.\n\nPokok-pokok Isinya:\n1.\tKeimanan\nKeesaan Allah baik zat-Nya maupun kekuasaan dan penciptaan; Al-Qur\u2019an bukanlah sihir; Allah mengatur semesta alam dari Arasy-Nya syafa\u2019at hanyalah dengan izin Allah; wahyu Allah menerangkan semua yang gaib bagi manusia; wali-wali Allah. Allah mengawasi dan mengamati perbuatan hamba-hamba-Nya di dunia, Allah tidak mempunyai anak.\n\n2.\tHukum-hukum\nMenentukan perhitungan tahun dan waktu dengan perjalanan matahari dan bulan, hukum mengadakan sesuatu terhadap Allah dan hukum mendustakan ayat-ayat-Nya.\n\n3.\tKisah-kisah\nKisah Nabi Nuh as dengan kaumnya; kisah Nabi Musa a.s. dengan Fir\u2018aun dan tukang sihir; kisah Bani Israil setelah keluar dari negeri Mesir; kisah Nabi Yunus as dengan kaumnya.\n\n4.\tLain-lain\nHari kebangkitan dan hari pembalasan; tentang sifat-sifat manusia, seperti suka tergesa-gesa, ingat kepada Allah diwaktu sukar dan lupa kepadanya di waktu senang, ingkar kepada nikmat Allah, suka kepada purbasangka dan sebagainya; keadaan orang-orang berbuat baik dan orang-orang berbuat jahat di Hari Kiamat; tidak seorang pun yang dapat membuat seperti Al-Qur\u2019an, tugas Rasul hanyalah menyampaikan risalah yang dibawanya.",
        "outro_surah": null,
        "munasabah_prev_surah": "1.\tAkhir Surah at-Taubah ditutup dengan menyebutkan risalah Nabi Muhammad saw dan hal-hal yang serupa disebutkan pula oleh Surah Y\u016bnus.\n2.\tSurah at-Taubah menerangkan keadaan orang-orang munafik, dan perbuatan mereka di waktu Al-Qur\u2019an diturunkan, sedang Surah Y\u016bnus menerangkan sikap orang-orang kafir terhadap Al-Qur\u2019an.",
        "munasabah_prev_theme": "Pada ayat-ayat yang lalu, Allah menerangkan sifat-sifat orang musyrik. Mereka mendustakan Al-Qur\u2019an serta tidak mau memikirkan kebenaran isinya. Mereka bersikap tergesa-gesa memberikan penilaian terhadap firman Allah, sebelum memperhatikan sebaik-baiknya bukti kebenarannya. Pada ayat-ayat ini, Allah mengancam orang-orang yang akan merasakan azab yang pedih nanti pada Hari Kiamat.",
        "theme_group": "ANCAMAN ALLAH TERHADAP ORANG-ORANG YANG\nMENDUSTAKAN AYAT-AYAT AL-QUR\u2019AN",
        "kosakata": "Kosakata: Liq\u0101\u2019 Allah \u0644\u0650\u0642\u064e\u0627\u0621 \u0627\u0644\u0644\u0651\u0670\u0647 (Y\u016bnus/10: 45)\nAl-Liq\u0101\u2019 masdar dari laqiya-yalqa artinya bertemu sesuatu baik sesuatu bersifat inderawi atau bersifat abstrak, seperti firman Allah: walaqad kuntum tamannauna al-mauta min qabli an talqauhu (\u0648\u064e\u0644\u064e\u0642\u064e\u062f\u0652 \u0643\u064f\u0646\u0652\u062a\u064f\u0645\u0652 \u062a\u064e\u0645\u064e\u0646\u0651\u064e\u0648\u0652\u0646\u064e \u0627\u0644\u0652\u0645\u064e\u0648\u0652\u062a\u064e \u0645\u0650\u0646\u0652 \u0642\u064e\u0628\u0652\u0644\u0650 \u0627\u064e\u0646\u0652 \u062a\u064e\u0644\u0652\u0642\u064e\u0648\u0652\u0647\u064f) (\u0100li \u2018Imr\u0101n/3: 143)\nKata liq\u0101\u2019 Allah dalam Al-Qur\u2019an merujuk pada arti kiamat, kebangkitan, hisab dan nasib manusia di akhirat. Liq\u0101\u2019 Allah sebagai Hari Kiamat karena pada hari itulah manusia bertemu dengan Allah dan malaikat serta manusia-manusia lainnya, juga dengan amal baik buruknya yang pernah diperbuat di dunia. ",
        "sabab_nuzul": null,
        "conclusion": null
    }
}