{
    "id": 1378,
    "surah_id": 10,
    "ayah": 14,
    "page": 209,
    "quarter_hizb": 21.75,
    "juz": 11,
    "manzil": 3,
    "arabic": "\u062b\u064f\u0645\u0651\u064e \u062c\u064e\u0639\u064e\u0644\u0652\u0646\u0670\u0643\u064f\u0645\u0652 \u062e\u064e\u0644\u0670\u06e4\u0649\u0655\u0650\u0641\u064e \u0641\u0650\u0649 \u0627\u0644\u0652\u0627\u064e\u0631\u0652\u0636\u0650 \u0645\u0650\u0646\u0652\u06e2 \u0628\u064e\u0639\u0652\u062f\u0650\u0647\u0650\u0645\u0652 \u0644\u0650\u0646\u064e\u0646\u0652\u0638\u064f\u0631\u064e \u0643\u064e\u064a\u0652\u0641\u064e \u062a\u064e\u0639\u0652\u0645\u064e\u0644\u064f\u0648\u0652\u0646\u064e ",
    "latin": "\u1e60umma ja\u2018aln\u0101kum khal\u0101'ifa fil-ar\u1e0di mim ba\u2018dihim linan\u1e93ura kaifa ta\u2018mal\u016bn(a). ",
    "translation": "Kemudian, Kami jadikan kamu sebagai pengganti-pengganti di bumi setelah mereka untuk Kami lihat bagaimana kamu berbuat.",
    "no_footnote": null,
    "footnotes": null,
    "surah": {
        "id": 10,
        "arabic": " \u064a\u0648\u0646\u0633",
        "latin": "Y\u016bnus",
        "transliteration": "Yunus",
        "translation": "Yunus",
        "num_ayah": 109,
        "page": 208,
        "location": "Makkiyah"
    },
    "tafsir": {
        "wajiz": " Kemudian Kami jadikan kamu, seluruh manusia, sebagai pengganti-pengganti mereka untuk menjadi pemimpin di bumi setelah mereka binasa, untuk Kami lihat bagaimana kamu berbuat, kebaikan atau keburukan. Allah akan memberi pahala orang yang berbuat baik dan menghukum orang yang yang berbuat jahat.",
        "tahlili": "Setelah umat-umat yang terdahulu hancur, maka Allah mengganti dengan umat Muhammad, umat yang mengikuti agama Islam, agama yang membawa manusia kepada kebahagiaan hidup di dunia dan di akhirat.\nAyat ini merupakan berita gembira bagi pengikut-pengikut Nabi Muhammad yang sedang mendapat tekanan dan siksaan orang-orang musyrik Mekah waktu itu. Dengan ayat ini mereka bertambah yakin akan kebenaran agama Islam dan bertambah yakin pula bahwa perjuangan mereka berhasil dengan kemenangan.\nJanji Allah ini sesuai pula dengan firman-Nya:\n\u0648\u064e\u0639\u064e\u062f\u064e \u0627\u0644\u0644\u0651\u0670\u0647\u064f \u0627\u0644\u0651\u064e\u0630\u0650\u064a\u0652\u0646\u064e \u0627\u0670\u0645\u064e\u0646\u064f\u0648\u0652\u0627 \u0645\u0650\u0646\u0652\u0643\u064f\u0645\u0652 \u0648\u064e\u0639\u064e\u0645\u0650\u0644\u064f\u0648\u0627 \u0627\u0644\u0635\u0651\u0670\u0644\u0650\u062d\u0670\u062a\u0650 \u0644\u064e\u064a\u064e\u0633\u0652\u062a\u064e\u062e\u0652\u0644\u0650\u0641\u064e\u0646\u0651\u064e\u0647\u064f\u0645\u0652 \u0641\u0650\u0649 \u0627\u0644\u0652\u0627\u064e\u0631\u0652\u0636\u0650 \u0643\u064e\u0645\u064e\u0627 \u0627\u0633\u0652\u062a\u064e\u062e\u0652\u0644\u064e\u0641\u064e \u0627\u0644\u0651\u064e\u0630\u0650\u064a\u0652\u0646\u064e \u0645\u0650\u0646\u0652 \u0642\u064e\u0628\u0652\u0644\u0650\u0647\u0650\u0645\u0652\u06d6 \u0648\u064e\u0644\u064e\u064a\u064f\u0645\u064e\u0643\u0651\u0650\u0646\u064e\u0646\u0651\u064e \u0644\u064e\u0647\u064f\u0645\u0652 \u062f\u0650\u064a\u0652\u0646\u064e\u0647\u064f\u0645\u064f \u0627\u0644\u0651\u064e\u0630\u0650\u0649 \u0627\u0631\u0652\u062a\u064e\u0636\u0670\u0649 \u0644\u064e\u0647\u064f\u0645\u0652 \u0648\u064e\u0644\u064e\u064a\u064f\u0628\u064e\u062f\u0651\u0650\u0644\u064e\u0646\u0651\u064e\u0647\u064f\u0645\u0652 \u0645\u0651\u0650\u0646\u0652\u06e2 \u0628\u064e\u0639\u0652\u062f\u0650 \u062e\u064e\u0648\u0652\u0641\u0650\u0647\u0650\u0645\u0652 \u0627\u064e\u0645\u0652\u0646\u064b\u0627\u06d7 \u064a\u064e\u0639\u0652\u0628\u064f\u062f\u064f\u0648\u0652\u0646\u064e\u0646\u0650\u064a\u0652 \u0644\u064e\u0627 \u064a\u064f\u0634\u0652\u0631\u0650\u0643\u064f\u0648\u0652\u0646\u064e \u0628\u0650\u064a\u0652 \u0634\u064e\u064a\u0652\u0640\u0654\u064b\u0627\u06d7 \u0648\u064e\u0645\u064e\u0646\u0652 \u0643\u064e\u0641\u064e\u0631\u064e \u0628\u064e\u0639\u0652\u062f\u064e \u0630\u0670\u0644\u0650\u0643\u064e \u0641\u064e\u0627\u064f\u0648\u0644\u0670\u06e4\u0649\u0655\u0650\u0643\u064e \u0647\u064f\u0645\u064f \u0627\u0644\u0652\u0641\u0670\u0633\u0650\u0642\u064f\u0648\u0652\u0646\u064e \u0665\u0665 (\u0627\u0644\u0646\u0651\u0648\u0631)\nAllah telah menjanjikan kepada orang-orang di antara kamu yang beriman dan mengerjakan kebajikan, bahwa Dia sungguh akan menjadikan mereka berkuasa di bumi, sebagaimana Dia telah menjadikan orang-orang yang sebelum mereka berkuasa, dan sungguh Dia akan meneguhkan bagi mereka agama yang telah Dia ridai. Dan Dia benar-benar mengubah (keadaan) mereka, setelah berada dalam ketakutan menjadi aman sentosa. Mereka (tetap) menyembah-Ku dengan tidak mempersekutukan-Ku dengan sesuatu pun. Tetapi barang siapa (tetap) kafir setelah (janji) itu, maka mereka itulah orang-orang yang fasik. (an-N\u016br/24: 55)\n\nAyat ini merupakan peringatan bagi kaum Muslimin agar selalu berhati-hati dalam menentukan apa yang akan mereka lakukan dan selalu ingat akan tugas-tugas yang diberikan Allah kepada manusia sebagai Khalifah di bumi.\nDi antara tugas khalifah di bumi ialah menegakkan hak dan keadilan, membersihkan alam ini dari perbuatan najis, syirik, fasik, serta meninggikan kalimah Allah di muka bumi. Allah akan memperhatikan dan mencatat semua perbuatan manusia dalam melaksanakan tugasnya, apakah sesuai dengan yang diperintahkan-Nya atau tidak. Sebagaimana firman-Nya:\n\u0648\u064e\u0647\u064f\u0648\u064e \u0627\u0644\u0651\u064e\u0630\u0650\u064a\u0652 \u062e\u064e\u0644\u064e\u0642\u064e \u0627\u0644\u0633\u0651\u064e\u0645\u0670\u0648\u0670\u062a\u0650 \u0648\u064e\u0627\u0644\u0652\u0627\u064e\u0631\u0652\u0636\u064e \u0641\u0650\u064a\u0652 \u0633\u0650\u062a\u0651\u064e\u0629\u0650 \u0627\u064e\u064a\u0651\u064e\u0627\u0645\u064d \u0648\u0651\u064e\u0643\u064e\u0627\u0646\u064e \u0639\u064e\u0631\u0652\u0634\u064f\u0647\u0657 \u0639\u064e\u0644\u064e\u0649 \u0627\u0644\u0652\u0645\u064e\u0627\u06e4\u0621\u0650 \u0644\u0650\u064a\u064e\u0628\u0652\u0644\u064f\u0648\u064e\u0643\u064f\u0645\u0652 \u0627\u064e\u064a\u0651\u064f\u0643\u064f\u0645\u0652 \u0627\u064e\u062d\u0652\u0633\u064e\u0646\u064f \u0639\u064e\u0645\u064e\u0644\u064b\u0627 \u06d7\u0648\u064e\u0644\u064e\u0649\u0655\u0650\u0646\u0652 \u0642\u064f\u0644\u0652\u062a\u064e \u0627\u0650\u0646\u0651\u064e\u0643\u064f\u0645\u0652 \u0645\u0651\u064e\u0628\u0652\u0639\u064f\u0648\u0652\u062b\u064f\u0648\u0652\u0646\u064e \u0645\u0650\u0646\u0652\u06e2 \u0628\u064e\u0639\u0652\u062f\u0650 \u0627\u0644\u0652\u0645\u064e\u0648\u0652\u062a\u0650 \u0644\u064e\u064a\u064e\u0642\u064f\u0648\u0652\u0644\u064e\u0646\u0651\u064e \u0627\u0644\u0651\u064e\u0630\u0650\u064a\u0652\u0646\u064e \u0643\u064e\u0641\u064e\u0631\u064f\u0648\u0652\u0653\u0627 \u0627\u0650\u0646\u0652 \u0647\u0670\u0630\u064e\u0653\u0627 \u0627\u0650\u0644\u0651\u064e\u0627 \u0633\u0650\u062d\u0652\u0631\u064c \u0645\u0651\u064f\u0628\u0650\u064a\u0652\u0646\u064c \u0667 (\u0647\u0648\u062f)\nDan Dialah yang menciptakan langit dan bumi dalam enam masa dan adalah \u2018Arsy-Nya di atas air, agar Dia menguji siapakah di antara kamu yang lebih baik amalnya. (H\u016bd/11: 7)\n\nSehubungan dengan ayat ini, Qatadah berkata, \u201cTuhan kita telah berbuat yang benar. Dia menjadikan kita sebagai khalifah di muka bumi, tidak lain hanyalah untuk melihat amal-amal kita, maka perlihatkanlah kepada Allah amalan-amalan kamu yang baik di malam dan siang hari.\u201d ",
        "intro_surah": "Surah Y\u016bnus terdiri dari 109 ayat, termasuk golongan surah-surah Makiyah, diturunkan sesudah Surah al-Isr\u0101\u2019 dan sebelum Surah H\u016bd, seperti diutarakan as-Suy\u016b\u1e6d\u012b dalam kitabnya \u201cAl-Itq\u0101n\u201d, kecuali ayat 40, 94, dan 95. Ketiganya diturunkan di Medinah, setelah Nabi Muhammad berhijrah.\n\tSurah ini dinamai \u201cSurah Y\u016bnus\u201d, karena dalam surah ini dikemukakan kisah Nabi Yunus a.s. dengan pengikutnya yang teguh imannya.\n\nPokok-pokok Isinya:\n1.\tKeimanan\nKeesaan Allah baik zat-Nya maupun kekuasaan dan penciptaan; Al-Qur\u2019an bukanlah sihir; Allah mengatur semesta alam dari Arasy-Nya syafa\u2019at hanyalah dengan izin Allah; wahyu Allah menerangkan semua yang gaib bagi manusia; wali-wali Allah. Allah mengawasi dan mengamati perbuatan hamba-hamba-Nya di dunia, Allah tidak mempunyai anak.\n\n2.\tHukum-hukum\nMenentukan perhitungan tahun dan waktu dengan perjalanan matahari dan bulan, hukum mengadakan sesuatu terhadap Allah dan hukum mendustakan ayat-ayat-Nya.\n\n3.\tKisah-kisah\nKisah Nabi Nuh as dengan kaumnya; kisah Nabi Musa a.s. dengan Fir\u2018aun dan tukang sihir; kisah Bani Israil setelah keluar dari negeri Mesir; kisah Nabi Yunus as dengan kaumnya.\n\n4.\tLain-lain\nHari kebangkitan dan hari pembalasan; tentang sifat-sifat manusia, seperti suka tergesa-gesa, ingat kepada Allah diwaktu sukar dan lupa kepadanya di waktu senang, ingkar kepada nikmat Allah, suka kepada purbasangka dan sebagainya; keadaan orang-orang berbuat baik dan orang-orang berbuat jahat di Hari Kiamat; tidak seorang pun yang dapat membuat seperti Al-Qur\u2019an, tugas Rasul hanyalah menyampaikan risalah yang dibawanya.",
        "outro_surah": null,
        "munasabah_prev_surah": "1.\tAkhir Surah at-Taubah ditutup dengan menyebutkan risalah Nabi Muhammad saw dan hal-hal yang serupa disebutkan pula oleh Surah Y\u016bnus.\n2.\tSurah at-Taubah menerangkan keadaan orang-orang munafik, dan perbuatan mereka di waktu Al-Qur\u2019an diturunkan, sedang Surah Y\u016bnus menerangkan sikap orang-orang kafir terhadap Al-Qur\u2019an.",
        "munasabah_prev_theme": "Pada dua ayat yang telah lalu diterangkan tabiat dan watak manusia, yaitu suka tergesa-gesa, maka mereka minta disegerakan terjadinya azab yang diancamkan kepada mereka, dan berdoa kepada Allah di dalam kesulitan dan mereka menjadi durhaka kembali jika kesulitan itu telah dilenyapkan-Nya. Pada ayat ini, Allah menyebutkan berbagai macam azab yang pernah ditimpakan kepada orang-orang yang terdahulu karena kezaliman dan keingkaran mereka pada para rasul yang diutus kepada mereka.",
        "theme_group": "PELAJARAN YANG DAPAT DIAMBIL DARI\nKEHANCURAN UMAT DAHULU",
        "kosakata": "Kosakata: Mujrim\u012bn \u0645\u064f\u062c\u0652\u0631\u0650\u0645\u0650\u064a\u0652\u0646 (Y\u016bnus/10: 13)\nKata mujrim\u012bn merupakan kata sifat dari jarama\u2013yajrimu\u2013jarman. Ia sebagai kata sifat dari kata qaum sebelumnya. Dalam ayat ini ia juga merupakan bentuk jamak dari mujrim, yang artinya \u201cpendosa\u201d atau \u201cpenjahat.\u201d Banyak sekali kata mujrim\u016bn atau mujrim\u012bn disebut dalam Al-Qur\u2019an, dengan arti \u201cpara pendosa\u201d atau \u201cpara penjahat\u201d dengan makna konotasinya masing-masing. Dalam ayat ini, kata tersebut dimaksud untuk menunjuk orang-orang kafir Mekah yang karena kezaliman dan ketiadaan iman, mereka wajar diancam mendapatkan kebinasaan seperti umat-umat yang dahulu. Para penduduk Mekah walaupun kedatangan Nabi Muhammad membawa mukjizat yang jelas sebagai bukti kebenaran kenabiannya, mereka tetap mendustakannya. Itulah sebab mengapa mereka disebut dengan al-qaum al-mujrim\u012bn (kaum yang jahat).",
        "sabab_nuzul": null,
        "conclusion": "1.\tTelah menjadi sunatullah bahwa Dia akan membinasakan orang-orang zalim yang walaupun telah diutus seorang rasul kepada mereka, tetap saja mereka tidak beriman.\n2.\tAda dua bentuk azab yang ditimpakan Allah kepada orang zalim yang terdahulu:\na.\tDengan memusnahkan seluruh kaum yang berbuat aniaya.\nb.\tDengan mendatangkan kekacauan, kesusahan dan kesengsaraan di antara mereka.\n3.\tAllah menjadikan umat Muhammad sebagai pengganti umat-umat yang terdahulu yang telah dihancurkan, dan Allah mengutus Muhammad sebagai nabi dan rasul-Nya yang bertugas memberi petunjuk kepada mereka.\n4.\tAllah selalu memperhatikan apa yang dilakukan dan dikerjakan oleh umat Muhammad untuk dunianya, masyarakat dan agama mereka. Allah akan memberikan pembalasan yang sesuai dengan sunnah Allah terhadap perbuatan mereka."
    }
}