{
    "id": 1545,
    "surah_id": 11,
    "ayah": 72,
    "page": 230,
    "quarter_hizb": 23.75,
    "juz": 12,
    "manzil": 3,
    "arabic": "\u0642\u064e\u0627\u0644\u064e\u062a\u0652 \u064a\u0670\u0648\u064e\u064a\u0652\u0644\u064e\u062a\u0670\u0649\u0653 \u0621\u064e\u0627\u064e\u0644\u0650\u062f\u064f \u0648\u064e\u0627\u064e\u0646\u064e\u0627\u06e0 \u0639\u064e\u062c\u064f\u0648\u0652\u0632\u064c \u0648\u0651\u064e\u0647\u0670\u0630\u064e\u0627 \u0628\u064e\u0639\u0652\u0644\u0650\u064a\u0652 \u0634\u064e\u064a\u0652\u062e\u064b\u0627 \u06d7\u0627\u0650\u0646\u0651\u064e \u0647\u0670\u0630\u064e\u0627 \u0644\u064e\u0634\u064e\u064a\u0652\u0621\u064c \u0639\u064e\u062c\u0650\u064a\u0652\u0628\u064c",
    "latin": "Q\u0101lat y\u0101 wailat\u0101 a'alidu wa ana \u2018aj\u016bzuw wa h\u0101\u017c\u0101 ba\u2018l\u012b syaikh\u0101(n), inna h\u0101\u017c\u0101 lasyai'un \u2018aj\u012bb(un). ",
    "translation": "Dia (istrinya) berkata, \u201cSungguh mengherankan! Mungkinkah aku akan melahirkan (anak) padahal aku sudah tua dan suamiku ini sudah renta? Sesungguhnya ini benar-benar sesuatu yang ajaib.\u201d",
    "no_footnote": null,
    "footnotes": null,
    "surah": {
        "id": 11,
        "arabic": " \u0647\u0648\u062f",
        "latin": "H\u016bd",
        "transliteration": "Hud",
        "translation": "Hud",
        "num_ayah": 123,
        "page": 221,
        "location": "Makkiyah"
    },
    "tafsir": {
        "wajiz": "Mendengar kabar gembira tentang lahirnya seorang putra bernama Ishak dalam kondisi mereka sudah lanjut usia, dia istri Nabi Ibrahim -Sarah- berkata dengan nada keheranan sambil memukul wajah dengan jarinya seraya berkata, \u201cSungguh ajaib, mungkinkah aku akan melahirkan seorang anak padahal aku sudah tua, karena mustahil wanita seusiaku ini bisa hamil dan melahirkan seorang anak, dan lagi pula suamiku ini sudah sangat tua, untuk bisa memberikan keturunan? Ini benar-benar sesuatu yang ajaib karena di luar kebiasaan yang ada (Lihat: Surah az-Zariyat/51: 29).\"",
        "tahlili": "Alangkah terkejutnya Sarah ketika mendengar ucapan malaikat itu seakan-akan ia tidak percaya bahwa yang dihadapinya itu ialah malaikat-malaikat yang tidak pernah berbohong dan tidak akan berdusta selama-lamanya. Karena itu dengan spontan ia menjawab, \u201cSungguh mengherankan! Bagaimana aku akan melahirkan seorang anak, padahal aku ini sudah tua dan suamiku sudah tua renta pula!\u201d\nDiriwayatkan bahwa umur Nabi Ibrahim di waktu itu 100 tahun dan istrinya 90 tahun. Menurut kebiasaan seorang perempuan bila telah berumur 50 tahun tidak haid lagi dan karena itu ia tidak ada harapan lagi untuk beranak. Apalagi Sarah adalah seorang perempuan mandul pula seperti tersebut dalam firman Allah:\n\u0641\u064e\u0627\u064e\u0642\u0652\u0628\u064e\u0644\u064e\u062a\u0650 \u0627\u0645\u0652\u0631\u064e\u0627\u064e\u062a\u064f\u0647\u0657 \u0641\u0650\u064a\u0652 \u0635\u064e\u0631\u0651\u064e\u0629\u064d \u0641\u064e\u0635\u064e\u0643\u0651\u064e\u062a\u0652 \u0648\u064e\u062c\u0652\u0647\u064e\u0647\u064e\u0627 \u0648\u064e\u0642\u064e\u0627\u0644\u064e\u062a\u0652 \u0639\u064e\u062c\u064f\u0648\u0652\u0632\u064c \u0639\u064e\u0642\u0650\u064a\u0652\u0645\u064c \u0662\u0669 (\u0627\u0644\u0630\u0651\u0670\u0631\u064a\u0670\u062a)\nKemudian istrinya datang memekik (tercengang) lalu menepuk wajahnya sendiri seraya berkata, \u201c(Aku ini) seorang perempuan tua yang mandul.\u201d (az-Z\u0101riy\u0101t/51: 29)\n\nNabi Ibrahim a.s. tidak kurang terkejutnya mendengar berita itu seperti tersebut dalam firman Allah:\n\u0642\u064e\u0627\u0644\u064e \u0627\u064e\u0628\u064e\u0634\u0651\u064e\u0631\u0652\u062a\u064f\u0645\u064f\u0648\u0652\u0646\u0650\u064a\u0652 \u0639\u064e\u0644\u0670\u0653\u0649 \u0627\u064e\u0646\u0652 \u0645\u0651\u064e\u0633\u0651\u064e\u0646\u0650\u064a\u064e \u0627\u0644\u0652\u0643\u0650\u0628\u064e\u0631\u064f \u0641\u064e\u0628\u0650\u0645\u064e \u062a\u064f\u0628\u064e\u0634\u0651\u0650\u0631\u064f\u0648\u0652\u0646\u064e \u0665\u0664 (\u0627\u0644\u062d\u062c\u0631)\nDia (Ibrahim) berkata, \u201cBenarkah kamu memberi kabar gembira kepadaku padahal usiaku telah lanjut, lalu (dengan cara) bagaimana kamu memberi (kabar gembira) tersebut?\u201d (al-\u1e24ijr/15: 54)\n\nKeduanya (Nabi Ibrahim a.s. dan istrinya Sarah) sama-sama ragu akan berita gembira itu, karena biasanya hal itu tidak mungkin terjadi.",
        "intro_surah": "Surah H\u016bd termasuk surah-surah Makkiyah, terdiri dari 123 ayat, diturunkan sesudah Surah Y\u016bnus. Surah ini dinamai dengan H\u016bd, karena dihubungkan dengan kisah Nabi Hud a.s. yang terdapat di dalamnya. Selain riwayat Nabi Hud dengan kaumnya, terdapat pula dalam surah ini kisah nabi-nabi lain.\n\nPokok-pokok Isinya\n1.\tKeimanan:\nAdanya \u2018Arasy Allah, kejadian alam dalam enam fase, adanya beberapa golongan manusia pada Hari Kiamat.\n2.\tHukum-hukum:\nAgama membolehkan menikmati hal-hal yang baik, seperti memakai perhiasan asal tidak berlebih-lebihan; tidak boleh berlaku sombong, tidak boleh berbuat dosa atau mengharapkan sesuatu yang tidak mungkin menurut Sunnah Allah di dunia.\n3.\tKisah-kisah:\nKisah Saleh a.s. dan kaumnya Hud a.s. dan kaumnya kisah Syu\u2019aib a.s. dan kaumnya, kisah Lut a.s. dan kaumnya serta kisah Musa a.s. dan kaumnya.\n4.\tLain-lain:\nBerbagai pelajaran yang diambil dari kisah para Nabi; air adalah sumber segala kehidupan; salat itu memperkuat iman; Sunnah Allah yang berhubungan dengan kebinasaan suatu kaum.\n ",
        "outro_surah": null,
        "munasabah_prev_surah": "HUBUNGAN SURAH Y\u016aNUS\nDENGAN SURAH H\u016aD\n\n1. \tKedua surah ini dimulai dengan Alif  L\u0101m R\u0101, kemudian diiringi dengan menyebutkan risalah nabi-nabi yang diutus Allah, dan menerangkan kedudukan para rasul sebagai pemberi kabar gembira dan pemberi peringatan.\n2. \tKedua surah ini, pada pertengahannya, menerangkan tentang keingkaran orang-orang kafir terhadap Al-Qur\u2032an, bantahan terhadap anggapan kepalsuan risalah para rasul, keingkaran terhadap pokok-pokok agama, kemudian kedua surah ini sama-sama ditutup dengan seruan agar mengikuti Rasul, bersabar terhadap semua tindakan jahat kaum musyrikin, istiqamah dan tawakkal kepada Allah.\n3. \tKeduanya menerangkan kisah para nabi tetapi kisah para nabi yang disebut dalam Surah H\u016bd, bersifat menjelaskan apa yang telah disebut dalam Surah Y\u016bnus. Pada umumnya apa yang telah diutarakan dalam Surah H\u016bd merupakan penjelasan dari apa yang telah disebutkan dalam Surah Y\u016bnus.",
        "munasabah_prev_theme": "Ayat-ayat yang lalu menerangkan kisah Nabi Saleh a.s. dan kaumnya (\u1e60am\u016bd), maka ayat-ayat ini menerangkan pula sebagian dari kisah Nabi Ibrahim a.s. ketika dia didatangi beberapa malaikat untuk memberi kabar gembira kepadanya bahwa dia akan dikaruniai seorang anak yang bernama Ishak. Para malaikat juga memberitahu Nabi Ibrahim bahwa mereka diutus kepada kaum Lut untuk membinasakan mereka karena dosa-dosa mereka.",
        "theme_group": "KISAH NABI IBRAHIM A.S.\nPADA WAKTU KEDATANGAN MALAIKAT",
        "kosakata": "Kosakata: Ba\u2019l\u012b  \u0628\u064e\u0639\u0652\u0640\u0644\u0650\u0649   (H\u016bd/11: 72)\nBa\u2019l adalah sebutan untuk pasangan laki-laki yang sudah berkeluarga. Bentuk jamaknya adalah bu\u2019\u016blat. Ba\u2019l pada mulanya bermakna sesuatu yang tinggi. Orang Arab menamakan sesembahannya dengan kata ba\u2019al karena lebih tinggi dari mereka. Mereka juga menyebut dataran yang paling tinggi dengan ba\u20191. Kemudian lafaz ba\u2019l ini dinisbahkan kepada seseorang yang menangani secara sempurna kebutuhan setiap orang yang menjadi tang-gungannya. Suami disebut dengan ba\u2019l karena laki-laki (suami) lebih dominan dalam masalah keluarga dan suamilah yang menangani dan mengendalikan urusan istrinya, baik dalam hal mencari nafkah maupun yang lainnya. Ungkapan ini diucapkan oleh Sarah kepada suaminya Ibrahim a. s. atas keajaiban dan keragu-raguan atas kehamilan yang dialaminya.",
        "sabab_nuzul": null,
        "conclusion": null
    }
}