{
    "id": 1520,
    "surah_id": 11,
    "ayah": 47,
    "page": 227,
    "quarter_hizb": 23.5,
    "juz": 12,
    "manzil": 3,
    "arabic": "\u0642\u064e\u0627\u0644\u064e \u0631\u064e\u0628\u0651\u0650 \u0627\u0650\u0646\u0651\u0650\u064a\u0652\u0653 \u0627\u064e\u0639\u064f\u0648\u0652\u0630\u064f \u0628\u0650\u0643\u064e \u0627\u064e\u0646\u0652 \u0627\u064e\u0633\u0652\u0640\u0654\u064e\u0644\u064e\u0643\u064e \u0645\u064e\u0627 \u0644\u064e\u064a\u0652\u0633\u064e \u0644\u0650\u064a\u0652 \u0628\u0650\u0647\u0656 \u0639\u0650\u0644\u0652\u0645\u064c \u06d7\u0648\u064e\u0627\u0650\u0644\u0651\u064e\u0627 \u062a\u064e\u063a\u0652\u0641\u0650\u0631\u0652 \u0644\u0650\u064a\u0652 \u0648\u064e\u062a\u064e\u0631\u0652\u062d\u064e\u0645\u0652\u0646\u0650\u064a\u0652\u0653 \u0627\u064e\u0643\u064f\u0646\u0652 \u0645\u0651\u0650\u0646\u064e \u0627\u0644\u0652\u062e\u0670\u0633\u0650\u0631\u0650\u064a\u0652\u0646\u064e",
    "latin": "Q\u0101la rabbi inn\u012b a\u2018\u016b\u017cu bika an as'alaka m\u0101 laisa l\u012b bih\u012b \u2018ilm(un), wa ill\u0101 tagfir l\u012b wa tar\u1e25amn\u012b akum minal-kh\u0101sir\u012bn(a). ",
    "translation": "(Nuh) berkata, \u201cYa Tuhanku, sesungguhnya aku berlindung kepada-Mu untuk memohon sesuatu yang aku tidak mengetahui (hakikatnya). Kalau Engkau tidak mengampuniku dan (tidak) menaruh belas kasihan kepadaku, niscaya aku termasuk orang-orang yang merugi.\u201d",
    "no_footnote": null,
    "footnotes": null,
    "surah": {
        "id": 11,
        "arabic": " \u0647\u0648\u062f",
        "latin": "H\u016bd",
        "transliteration": "Hud",
        "translation": "Hud",
        "num_ayah": 123,
        "page": 221,
        "location": "Makkiyah"
    },
    "tafsir": {
        "wajiz": "Setelah Allah memperingatkan Nabi Nuh untuk tidak memohonkan keselamatan dan ampunan bagi putranya yang kafir, dan Nabi Nuh pun menyadari kekeliruannya, kemudian Dia (Nabi Nuh) berkata, \u201cYa Tuhanku, sesungguhnya aku berlindung kepada-Mu untuk memohon kepadaMu sesuatu yang aku tidak mengetahui hakikatnya. Kalau sekiranya Engkau tidak mengampuni kesalahan dan dosaku yang lalu, sekarang, dan mendatang, dan tidak pula menaruh belas kasihan kepadaku, niscaya aku termasuk golongan orang yang rugi dan jauh dari rahmat-Mu.\u201d Para nabi memohon ampunan atas kesalahan yang dilakukan, sekalipun apa yang dilakukan itu di luar pengetahuannya, karena khawatir akan pengaruh dosa yang dilakukan jika Allah tidak mengampuninya.",
        "tahlili": "Pada ayat ini diterangkan anggapan Nabi Nuh a.s. terhadap teguran Allah yang berisi penolakan atas permohonannya, agar anaknya Kan\u2019an diselamatkan dari topan. Demikianlah, setelah Nabi Nuh a.s. mengetahui dari Allah hakikat anaknya itu, maka ia memohon ampun kepada-Nya tentang kekhilafan dan kesalahannya dalam memohonkan sesuatu yang tidak pada tempatnya. Ia berlindung kepada Allah supaya dapat menjaga dirinya agar tidak menyampaikan permohonan yang sifatnya serupa dengan kesalahannya itu. Pada akhir permohonan ampun itu, dengan sungguh-sungguh dan ikhlas, ia menyatakan penyesalannya kepada Allah. Jika kesalahannya tidak diampuni Tuhan, niscaya ia termasuk golongan orang yang merugi, sebab kesalahannya itu hanya didorong oleh perasaan kasih sayang seorang ayah terhadap anaknya dan ingin supaya anaknya mendapat rahmat Allah.",
        "intro_surah": "Surah H\u016bd termasuk surah-surah Makkiyah, terdiri dari 123 ayat, diturunkan sesudah Surah Y\u016bnus. Surah ini dinamai dengan H\u016bd, karena dihubungkan dengan kisah Nabi Hud a.s. yang terdapat di dalamnya. Selain riwayat Nabi Hud dengan kaumnya, terdapat pula dalam surah ini kisah nabi-nabi lain.\n\nPokok-pokok Isinya\n1.\tKeimanan:\nAdanya \u2018Arasy Allah, kejadian alam dalam enam fase, adanya beberapa golongan manusia pada Hari Kiamat.\n2.\tHukum-hukum:\nAgama membolehkan menikmati hal-hal yang baik, seperti memakai perhiasan asal tidak berlebih-lebihan; tidak boleh berlaku sombong, tidak boleh berbuat dosa atau mengharapkan sesuatu yang tidak mungkin menurut Sunnah Allah di dunia.\n3.\tKisah-kisah:\nKisah Saleh a.s. dan kaumnya Hud a.s. dan kaumnya kisah Syu\u2019aib a.s. dan kaumnya, kisah Lut a.s. dan kaumnya serta kisah Musa a.s. dan kaumnya.\n4.\tLain-lain:\nBerbagai pelajaran yang diambil dari kisah para Nabi; air adalah sumber segala kehidupan; salat itu memperkuat iman; Sunnah Allah yang berhubungan dengan kebinasaan suatu kaum.\n ",
        "outro_surah": null,
        "munasabah_prev_surah": "HUBUNGAN SURAH Y\u016aNUS\nDENGAN SURAH H\u016aD\n\n1. \tKedua surah ini dimulai dengan Alif  L\u0101m R\u0101, kemudian diiringi dengan menyebutkan risalah nabi-nabi yang diutus Allah, dan menerangkan kedudukan para rasul sebagai pemberi kabar gembira dan pemberi peringatan.\n2. \tKedua surah ini, pada pertengahannya, menerangkan tentang keingkaran orang-orang kafir terhadap Al-Qur\u2032an, bantahan terhadap anggapan kepalsuan risalah para rasul, keingkaran terhadap pokok-pokok agama, kemudian kedua surah ini sama-sama ditutup dengan seruan agar mengikuti Rasul, bersabar terhadap semua tindakan jahat kaum musyrikin, istiqamah dan tawakkal kepada Allah.\n3. \tKeduanya menerangkan kisah para nabi tetapi kisah para nabi yang disebut dalam Surah H\u016bd, bersifat menjelaskan apa yang telah disebut dalam Surah Y\u016bnus. Pada umumnya apa yang telah diutarakan dalam Surah H\u016bd merupakan penjelasan dari apa yang telah disebutkan dalam Surah Y\u016bnus.",
        "munasabah_prev_theme": "Ayat yang lalu telah menerangkan kisah Nabi Nuh a.s. dan bencana banjir besar yang menimpa kaumnya, dan Nabi Nuh menyuruh kaumnya supaya mereka menyebut nama Allah (bismillah) pada waktu mau berlayar dan berlabuh. Ayat-ayat berikut ini menerangkan tentang perjalanan kapal yang menghadapi gelombang besar bagaikan gunung, dan lain-lain.",
        "theme_group": "\nNASIB PUTRA NABI NUH ",
        "kosakata": "Kosakata: al-J\u016bdiy \u0627\u0644\u0652\u062c\u064f\u0648\u0652\u062f\u0650\u064a\u0651  (H\u016bd/11: 44)\nNama bukit tempat berlabuh kapal Nabi Nuh. Ada yang mengatakan bukit itu terletak antara Irak dan Armenia. Dan ada yang mengatakan tempatnya di Mosul atau Kufah di Irak.",
        "sabab_nuzul": null,
        "conclusion": "1. \tSebelum kapal penyelamat itu berlayar membawa Nuh a.s. beserta para pengikutnya, timbullah rasa kasihan seorang ayah melihat anaknya, Kan\u2019an, yang menjauhkan diri, lalu ia mengajak anaknya supaya masuk ke dalam kapal, dan melarangnya mengikuti orang-orang kafir.\n2. \tAnaknya menolak ajakan ayahnya dengan mengatakan bahwa ia dapat berlindung ke atas gunung dari bahaya banjir atau topan, dan Nuh a.s. menjelaskan kepadanya bahwa pada hari ini tidak ada yang bisa melindungi selain Allah. \n3. \tAllah memerintahkan bumi supaya mengisap airnya dan memerintahkan langit supaya menahan curahan hujannya. Demikianlah air pun surut, dan kapal itu berlabuh dengan selamat di atas bukit J\u016bdiy.\n4. \tSebelum anaknya tenggelam, Nabi Nuh a.s. memohon kepada Allah agar anaknya itu diselamatkan dari bahaya topan, karena dia termasuk keluarganya yang telah dijanjikan Tuhan akan selamat.\n5. \tAllah menjawab bahwa Kan\u2019an anaknya itu tidak lagi termasuk golongan keluarganya, karena ia melakukan perbuatan yang sangat tidak baik. Allah melarang Nuh a.s. memohon kepada-Nya tentang suatu yang belum diketahuinya bahwa permohonannya itu baik dan wajar.\n6. \tNabi Nuh a.s. memohon ampun kepada Allah atas permohonannya yang tidak pada tempatnya, dan berlindung kepada-Nya agar terpelihara dari kesalahan-kesalahan yang serupa pada masa yang akan datang."
    }
}