{
    "id": 1513,
    "surah_id": 11,
    "ayah": 40,
    "page": 226,
    "quarter_hizb": 23.25,
    "juz": 12,
    "manzil": 3,
    "arabic": "\u062d\u064e\u062a\u0651\u0670\u0649\u0653 \u0627\u0650\u0630\u064e\u0627 \u062c\u064e\u0627\u06e4\u0621\u064e \u0627\u064e\u0645\u0652\u0631\u064f\u0646\u064e\u0627 \u0648\u064e\u0641\u064e\u0627\u0631\u064e \u0627\u0644\u062a\u0651\u064e\u0646\u0651\u064f\u0648\u0652\u0631\u064f\u06d9 \u0642\u064f\u0644\u0652\u0646\u064e\u0627 \u0627\u062d\u0652\u0645\u0650\u0644\u0652 \u0641\u0650\u064a\u0652\u0647\u064e\u0627 \u0645\u0650\u0646\u0652 \u0643\u064f\u0644\u0651\u064d \u0632\u064e\u0648\u0652\u062c\u064e\u064a\u0652\u0646\u0650 \u0627\u062b\u0652\u0646\u064e\u064a\u0652\u0646\u0650 \u0648\u064e\u0627\u064e\u0647\u0652\u0644\u064e\u0643\u064e \u0627\u0650\u0644\u0651\u064e\u0627 \u0645\u064e\u0646\u0652 \u0633\u064e\u0628\u064e\u0642\u064e \u0639\u064e\u0644\u064e\u064a\u0652\u0647\u0650 \u0627\u0644\u0652\u0642\u064e\u0648\u0652\u0644\u064f \u0648\u064e\u0645\u064e\u0646\u0652 \u0627\u0670\u0645\u064e\u0646\u064e \u06d7\u0648\u064e\u0645\u064e\u0627\u0653 \u0627\u0670\u0645\u064e\u0646\u064e \u0645\u064e\u0639\u064e\u0647\u0657\u0653 \u0627\u0650\u0644\u0651\u064e\u0627 \u0642\u064e\u0644\u0650\u064a\u0652\u0644\u064c",
    "latin": "\u1e24att\u0101 i\u017c\u0101 j\u0101'a amrun\u0101 waf\u0101rat-tann\u016br(u), qulna\u1e25mil f\u012bh\u0101 min kullin zaujaini\u1e61naini wa ahlaka ill\u0101 man sabaqa \u2018alaihil-qaulu wa man \u0101man(a), wa m\u0101 \u0101mana ma\u2018ah\u016b ill\u0101 qal\u012bl(un). ",
    "translation": "(Demikianlah,) hingga apabila perintah Kami datang (untuk membinasakan mereka) dan tanur (tungku) telah memancarkan air, Kami berfirman, \u201cMuatkanlah ke dalamnya (bahtera itu) dari masing-masing (jenis hewan) sepasang-sepasang (jantan dan betina), keluargamu kecuali orang yang telah terkena ketetapan terdahulu (akan ditenggelamkan), dan (muatkan pula) orang yang beriman.\u201d Ternyata tidak beriman bersamanya (Nuh), kecuali hanya sedikit.",
    "no_footnote": null,
    "footnotes": null,
    "surah": {
        "id": 11,
        "arabic": " \u0647\u0648\u062f",
        "latin": "H\u016bd",
        "transliteration": "Hud",
        "translation": "Hud",
        "num_ayah": 123,
        "page": 221,
        "location": "Makkiyah"
    },
    "tafsir": {
        "wajiz": "Demikianlah kaum Nabi Nuh yang terus-menerus mengejeknya dalam pembuatan kapal. Hingga apabila perintah Kami datang untuk membinasakan para pendurhaka dan tiba perintah Kami kepada Nabi Nuh beserta pengikutnya menaiki kapal dan air dari dalam tanur, yakni periuk telah mendidih dan bergejolak hingga memancarkan air dengan sangat deras, lalu Kami berfirman kepada Nabi Nuh, \u201cMuatkanlah ke dalamnya segala jenis hewan, dari masing-masing sepasang jantan dan betina, dan muatkan juga keluargamu yang beriman kepada Allah kecuali orang yang telah terkena ketetapan terdahulu sebagai orang yang akan diazab karena kedurhakaan mereka, dan muatkan pula orang yang beriman dari mereka.\u201d Ternyata orang-orang beriman yang ikut bersama dengan Nabi Nuh hanya sedikit. Meskipun Nabi Nuh sudah berdakwah kurang lebih 950 tahun lamanya, mengajak umatnya beriman kepada Allah dan meyakinkan bahwa mereka yang tidak mengikuti ajakannya akan ditenggelamkan, tetapi mereka tetap durhaka. (Lihat: Surah al- 'Ankabut/29:14).",
        "tahlili": "Pada ayat ini Allah swt menerangkan, bahwa Nabi Nuh a.s. dalam melaksanakan pembuatan kapal itu dengan segala macam persiapannya sangat bersungguh-sungguh dan banyak menerima ejekan dan cemoohan dari kaumnya. Ketika datang ketetapan Allah untuk membinasakan kaum yang kafir itu, bumi pun memancarkan air yang meluap-luap seperti meluapnya air yang mendidih dari kuali di dapur tempat memasak, sehingga menenggelamkan segala apa yang ada di permukaannya. Sementara ulama memahami bahwa banjir tersebut tidak bersifat universal melainkan lokal.\nMaka Allah memerintahkan kepada Nuh a.s. agar membawa ke dalam kapal itu sepasang (jantan dan betina) dari tiap jenis binatang, agar keturunannya dapat berkembang biak sesudah air bah yang dinamakan topan itu reda. Selain itu, Allah memerintahkan Nuh a.s. membawa ke dalam kapal itu semua keluarganya yang laki-laki dan perempuan kecuali yang tidak beriman. Begitu juga Allah memerintahkan Nuh a.s. membawa ke dalam kapal itu semua orang-orang yang beriman yang jumlahnya sedikit. Sebagian mufasir ada yang mengatakan bahwa yang dibawa oleh Nuh ke dalam kapal itu dari keluarganya ialah seorang istrinya yang beriman dan tiga putranya dari istri yang beriman itu, yaitu Syam, Ham, dan Yafis.\nAdapun jumlah orang yang beriman, yang dibawa Nuh a.s. ke dalam kapal itu tidak terdapat keterangannya dalam Al-Qur\u2019an atau pun dalam hadis. Dalam ayat ini hanya diterangkan bahwa jumlah mereka sedikit. Pada permulaan ayat ini dan permulaan ayat 42 yang akan datang dilukiskan sebagian dari kisah topan itu, dan pada ayat-ayat lain dilukiskan lebih banyak seperti dalam firman Allah:\n\u0641\u064e\u0641\u064e\u062a\u064e\u062d\u0652\u0646\u064e\u0627\u0653 \u0627\u064e\u0628\u0652\u0648\u064e\u0627\u0628\u064e \u0627\u0644\u0633\u0651\u064e\u0645\u064e\u0627\u06e4\u0621\u0650 \u0628\u0650\u0645\u064e\u0627\u06e4\u0621\u064d \u0645\u0651\u064f\u0646\u0652\u0647\u064e\u0645\u0650\u0631\u064d\u06d6 \u0661\u0661 \u0648\u0651\u064e\u0641\u064e\u062c\u0651\u064e\u0631\u0652\u0646\u064e\u0627 \u0627\u0644\u0652\u0627\u064e\u0631\u0652\u0636\u064e \u0639\u064f\u064a\u064f\u0648\u0652\u0646\u064b\u0627 \u0641\u064e\u0627\u0644\u0652\u062a\u064e\u0642\u064e\u0649 \u0627\u0644\u0652\u0645\u064e\u0627\u06e4\u0621\u064f \u0639\u064e\u0644\u0670\u0653\u0649 \u0627\u064e\u0645\u0652\u0631\u064d \u0642\u064e\u062f\u0652 \u0642\u064f\u062f\u0650\u0631\u064e \u06da \u0661\u0662 \u0648\u064e\u062d\u064e\u0645\u064e\u0644\u0652\u0646\u0670\u0647\u064f \u0639\u064e\u0644\u0670\u0649 \u0630\u064e\u0627\u062a\u0650 \u0627\u064e\u0644\u0652\u0648\u064e\u0627\u062d\u064d \u0648\u0651\u064e\u062f\u064f\u0633\u064f\u0631\u064d\u06d9 \u0661\u0663 \u062a\u064e\u062c\u0652\u0631\u0650\u064a\u0652 \u0628\u0650\u0627\u064e\u0639\u0652\u064a\u064f\u0646\u0650\u0646\u064e\u0627\u06da \u062c\u064e\u0632\u064e\u0627\u06e4\u0621\u064b \u0644\u0650\u0651\u0645\u064e\u0646\u0652 \u0643\u064e\u0627\u0646\u064e \u0643\u064f\u0641\u0650\u0631\u064e \u0661\u0664 (\u0627\u0644\u0642\u0645\u0631)\nLalu Kami bukakan pintu-pintu langit dengan (menurunkan) air yang tercurah. Dan Kami jadikan bumi menyemburkan mata-mata air maka bertemulah (air-air) itu sehingga (meluap menimbulkan) keadaan (bencana) yang telah ditetapkan. Dan Kami angkut dia (Nuh) ke atas (kapal) yang terbuat dari papan dan pasak, yang berlayar dengan pemeliharaan (pengawasan) Kami sebagai balasan bagi orang yang telah diingkari (kaumnya). (al-Qamar/54: 11-14)",
        "intro_surah": "Surah H\u016bd termasuk surah-surah Makkiyah, terdiri dari 123 ayat, diturunkan sesudah Surah Y\u016bnus. Surah ini dinamai dengan H\u016bd, karena dihubungkan dengan kisah Nabi Hud a.s. yang terdapat di dalamnya. Selain riwayat Nabi Hud dengan kaumnya, terdapat pula dalam surah ini kisah nabi-nabi lain.\n\nPokok-pokok Isinya\n1.\tKeimanan:\nAdanya \u2018Arasy Allah, kejadian alam dalam enam fase, adanya beberapa golongan manusia pada Hari Kiamat.\n2.\tHukum-hukum:\nAgama membolehkan menikmati hal-hal yang baik, seperti memakai perhiasan asal tidak berlebih-lebihan; tidak boleh berlaku sombong, tidak boleh berbuat dosa atau mengharapkan sesuatu yang tidak mungkin menurut Sunnah Allah di dunia.\n3.\tKisah-kisah:\nKisah Saleh a.s. dan kaumnya Hud a.s. dan kaumnya kisah Syu\u2019aib a.s. dan kaumnya, kisah Lut a.s. dan kaumnya serta kisah Musa a.s. dan kaumnya.\n4.\tLain-lain:\nBerbagai pelajaran yang diambil dari kisah para Nabi; air adalah sumber segala kehidupan; salat itu memperkuat iman; Sunnah Allah yang berhubungan dengan kebinasaan suatu kaum.\n ",
        "outro_surah": null,
        "munasabah_prev_surah": "HUBUNGAN SURAH Y\u016aNUS\nDENGAN SURAH H\u016aD\n\n1. \tKedua surah ini dimulai dengan Alif  L\u0101m R\u0101, kemudian diiringi dengan menyebutkan risalah nabi-nabi yang diutus Allah, dan menerangkan kedudukan para rasul sebagai pemberi kabar gembira dan pemberi peringatan.\n2. \tKedua surah ini, pada pertengahannya, menerangkan tentang keingkaran orang-orang kafir terhadap Al-Qur\u2032an, bantahan terhadap anggapan kepalsuan risalah para rasul, keingkaran terhadap pokok-pokok agama, kemudian kedua surah ini sama-sama ditutup dengan seruan agar mengikuti Rasul, bersabar terhadap semua tindakan jahat kaum musyrikin, istiqamah dan tawakkal kepada Allah.\n3. \tKeduanya menerangkan kisah para nabi tetapi kisah para nabi yang disebut dalam Surah H\u016bd, bersifat menjelaskan apa yang telah disebut dalam Surah Y\u016bnus. Pada umumnya apa yang telah diutarakan dalam Surah H\u016bd merupakan penjelasan dari apa yang telah disebutkan dalam Surah Y\u016bnus.",
        "munasabah_prev_theme": "Ayat-ayat yang lalu menerangkan bahwa Nabi Nuh a.s. telah demikian banyak mengadakan perdebatan dan memberikan bantahan terhadap setiap alasan yang dikemukakan oleh kaumnya yang kafir. Hal itu tidaklah membuat mereka beriman seperti yang diharapkan oleh Nabi Nuh malahan meminta dipercepat datangnya azab Allah kepada mereka yang pernah diancamkan Nuh itu. Ayat-ayat ini juga menerangkan kepada Nabi Nuh hal-hal yang perlu diketahuinya, yaitu tugas selanjutnya yang harus dilaksanakannya dengan sungguh-sungguh.",
        "theme_group": "NABI NUH A.S. DAN PEMBUATAN KAPAL",
        "kosakata": "Kosakata: F\u0101rat-tann\u016br \u0641\u064e\u0627\u0631\u064e \u0627\u0644\u062a\u0651\u064e\u0646\u0651\u064f\u0648\u0652\u0631\u064f (H\u016bd/11:  40)\nF\u0101ra terambil dari kata faur \u2018mendidih\u2019, \u2018bergejolak\u2019, yang dipakai untuk memberi sifat kepada api, periuk, dan marah. Yang dimaksud adalah menggelegarnya air keluar dari perut bumi sehingga menimbulkan banjir besar pada zaman Nabi Nuh. Waktu itulah Nabi Nuh diperintahkan Allah untuk membawa sepasang binatang dari berbagai jenis seperti sapi, kerbau, unta, dan lain-lain ke dalam kapalnya.",
        "sabab_nuzul": null,
        "conclusion": null
    }
}