{
    "id": 1532,
    "surah_id": 11,
    "ayah": 59,
    "page": 228,
    "quarter_hizb": 23.5,
    "juz": 12,
    "manzil": 3,
    "arabic": "\u0648\u064e\u062a\u0650\u0644\u0652\u0643\u064e \u0639\u064e\u0627\u062f\u064c  \u06d6\u062c\u064e\u062d\u064e\u062f\u064f\u0648\u0652\u0627 \u0628\u0650\u0627\u0670\u064a\u0670\u062a\u0650 \u0631\u064e\u0628\u0651\u0650\u0647\u0650\u0645\u0652 \u0648\u064e\u0639\u064e\u0635\u064e\u0648\u0652\u0627 \u0631\u064f\u0633\u064f\u0644\u064e\u0647\u0657 \u0648\u064e\u0627\u062a\u0651\u064e\u0628\u064e\u0639\u064f\u0648\u0652\u0653\u0627 \u0627\u064e\u0645\u0652\u0631\u064e \u0643\u064f\u0644\u0651\u0650 \u062c\u064e\u0628\u0651\u064e\u0627\u0631\u064d \u0639\u064e\u0646\u0650\u064a\u0652\u062f\u064d",
    "latin": "Wa tilka \u2018\u0101dun ja\u1e25ad\u016b bi'\u0101y\u0101ti rabbihim wa \u2018a\u1e63au rusulah\u016b wattaba\u2018\u016b amra kulli jabb\u0101rin \u2018an\u012bd(in). ",
    "translation": "Itulah (kaum) \u2018Ad. Mereka mengingkari tanda-tanda (kekuasaan) Tuhan, mendurhakai rasul-rasul-Nya, dan menuruti perintah semua penguasa yang sewenang-wenang lagi keras kepala.",
    "no_footnote": null,
    "footnotes": null,
    "surah": {
        "id": 11,
        "arabic": " \u0647\u0648\u062f",
        "latin": "H\u016bd",
        "transliteration": "Hud",
        "translation": "Hud",
        "num_ayah": 123,
        "page": 221,
        "location": "Makkiyah"
    },
    "tafsir": {
        "wajiz": "Dan demikian itulah akhir kisah kaum 'Ad yang dibinasakan Allah disebabkan mereka mengingkari tanda-tanda keesaan dan kekuasaan Tuhan. Mereka juga mendurhakai rasul-rasul-Nya yang diutus membawa bukti-bukti kebenaran risalah yang dibawanya, dan mereka pun menuruti perintah semua penguasa yang bertindak sewenang-wenang terhadap orang yang beriman kepada Allah dan rasul-Nya, lagi durhaka terhadap kebenaran ajaran yang dibawa oleh utusan Allah.",
        "tahlili": "Pada ayat ini, Allah swt menerangkan bahwa itulah kisah kaum \u2018\u0100d yang telah mengingkari tanda-tanda kekuasaan Allah dan mendurhakai rasul-Nya yang diutus untuk memberikan petunjuk kepada mereka menuju jalan yang benar, yaitu mengesakan-Nya dan mematuhi perintah-Nya. Tetapi mereka hanya mau mematuhi perintah penguasa yang sewenang-wenang yang tidak mau mengikuti kebenaran walaupun dengan dalil-dalil dan bukti-bukti yang cukup meyakinkan.\nPada ayat ini diterangkan bahwa bangsa \u2018\u0100d (kaum Hud a.s.) itu mendurhakai rasul-rasul Allah. Apakah memang demikian? Atau hanya mereka durhakai seorang rasul Allah saja yaitu Hud a.s.? Para mufasir menjelaskan bahwa yang mereka dustakan itu adalah Hud a.s., tetapi mendustakan atau mendurhakai seorang rasul Allah berarti mendustakan atau mendurhakai semua rasul-Nya. Sebab, semua rasul mengemban tugas yang sama, yaitu mengajak supaya bertauhid kepada Allah dan mematuhi perintah-Nya serta menjauhi larangan-Nya.",
        "intro_surah": "Surah H\u016bd termasuk surah-surah Makkiyah, terdiri dari 123 ayat, diturunkan sesudah Surah Y\u016bnus. Surah ini dinamai dengan H\u016bd, karena dihubungkan dengan kisah Nabi Hud a.s. yang terdapat di dalamnya. Selain riwayat Nabi Hud dengan kaumnya, terdapat pula dalam surah ini kisah nabi-nabi lain.\n\nPokok-pokok Isinya\n1.\tKeimanan:\nAdanya \u2018Arasy Allah, kejadian alam dalam enam fase, adanya beberapa golongan manusia pada Hari Kiamat.\n2.\tHukum-hukum:\nAgama membolehkan menikmati hal-hal yang baik, seperti memakai perhiasan asal tidak berlebih-lebihan; tidak boleh berlaku sombong, tidak boleh berbuat dosa atau mengharapkan sesuatu yang tidak mungkin menurut Sunnah Allah di dunia.\n3.\tKisah-kisah:\nKisah Saleh a.s. dan kaumnya Hud a.s. dan kaumnya kisah Syu\u2019aib a.s. dan kaumnya, kisah Lut a.s. dan kaumnya serta kisah Musa a.s. dan kaumnya.\n4.\tLain-lain:\nBerbagai pelajaran yang diambil dari kisah para Nabi; air adalah sumber segala kehidupan; salat itu memperkuat iman; Sunnah Allah yang berhubungan dengan kebinasaan suatu kaum.\n ",
        "outro_surah": null,
        "munasabah_prev_surah": "HUBUNGAN SURAH Y\u016aNUS\nDENGAN SURAH H\u016aD\n\n1. \tKedua surah ini dimulai dengan Alif  L\u0101m R\u0101, kemudian diiringi dengan menyebutkan risalah nabi-nabi yang diutus Allah, dan menerangkan kedudukan para rasul sebagai pemberi kabar gembira dan pemberi peringatan.\n2. \tKedua surah ini, pada pertengahannya, menerangkan tentang keingkaran orang-orang kafir terhadap Al-Qur\u2032an, bantahan terhadap anggapan kepalsuan risalah para rasul, keingkaran terhadap pokok-pokok agama, kemudian kedua surah ini sama-sama ditutup dengan seruan agar mengikuti Rasul, bersabar terhadap semua tindakan jahat kaum musyrikin, istiqamah dan tawakkal kepada Allah.\n3. \tKeduanya menerangkan kisah para nabi tetapi kisah para nabi yang disebut dalam Surah H\u016bd, bersifat menjelaskan apa yang telah disebut dalam Surah Y\u016bnus. Pada umumnya apa yang telah diutarakan dalam Surah H\u016bd merupakan penjelasan dari apa yang telah disebutkan dalam Surah Y\u016bnus.",
        "munasabah_prev_theme": "Setelah pada ayat-ayat yang lalu Allah swt menerangkan tentang pembangkangan kaum Hud a.s. yang terus menerus tidak mau mempercayai dakwah yang disampaikannya kepada mereka, maka pada ayat-ayat berikut ini Allah menerangkan akibat-akibat pembangkangan itu, baik terhadap Hud a.s. dan para pengikutnya yang beriman maupun terhadap kaumnya yang tetap membangkang dalam kekafiran.",
        "theme_group": "AKIBAT PEMBANGKANGAN KAUM HUD A.S.",
        "kosakata": "Kosakata: Jabb\u0101rin \u2018An\u012bd  \u062c\u064e\u0640\u0628\u0651\u064e\u0627\u0631\u064d \u0639\u064e\u0646\u0650\u0640\u0652\u064a\u062f\u064d  (H\u016bd/11: 59)\nJabb\u0101r terambil dari kata jabara yang berarti keagungan ketinggian dan istiqamah. Asal maknanya adalah memperbaiki sesuatu dengan cara memaksa. Kata ini terulang dalam Al-Qur\u2019an sebanyak sembilan kali: satu sebagai sifat Allah swt dan delapan kali sebagai sifat dari manusia yang sombong, Al-Jabb\u0101r yang disandang oleh Allah mengandung makna ketinggian yang tidak dapat terjangkau karena keagungan sifat-sifat-Nya. Kemahatinggian-Nya memaksa yang rendah untuk tunduk kepada apa yang dikehendaki-Nya dan tidak terjangkau oleh yang rendah apa yang mereka harapkan untuk diraih dari sisi-Nya. Adapun sifat jabb\u0101r untuk manusia digunakan  untuk menggambarkan sifat yang tercela yaitu angkuh dan congkak. Dalam ayat yang ditafsirkan ini, Allah menurunkan azab kepada kaum \u2018\u0100d karena mereka mengikuti penguasa yang angkuh, berlaku sewenang-wenang. Kata jabb\u0101r di sini diiringi dengan sifat \u2018anid yang terambil dari kata \u2018anada yang berarti keras kepala, menentang, dan melampui batas. ",
        "sabab_nuzul": null,
        "conclusion": null
    }
}