{
    "id": 1529,
    "surah_id": 11,
    "ayah": 56,
    "page": 228,
    "quarter_hizb": 23.5,
    "juz": 12,
    "manzil": 3,
    "arabic": "\u0627\u0650\u0646\u0651\u0650\u064a\u0652 \u062a\u064e\u0648\u064e\u0643\u0651\u064e\u0644\u0652\u062a\u064f \u0639\u064e\u0644\u064e\u0649 \u0627\u0644\u0644\u0651\u0670\u0647\u0650 \u0631\u064e\u0628\u0651\u0650\u064a\u0652 \u0648\u064e\u0631\u064e\u0628\u0651\u0650\u0643\u064f\u0645\u0652 \u06d7\u0645\u064e\u0627 \u0645\u0650\u0646\u0652 \u062f\u064e\u0627\u06e4\u0628\u0651\u064e\u0629\u064d \u0627\u0650\u0644\u0651\u064e\u0627 \u0647\u064f\u0648\u064e \u0627\u0670\u062e\u0650\u0630\u064c\u06e2 \u0628\u0650\u0646\u064e\u0627\u0635\u0650\u064a\u064e\u062a\u0650\u0647\u064e\u0627 \u06d7\u0627\u0650\u0646\u0651\u064e \u0631\u064e\u0628\u0651\u0650\u064a\u0652 \u0639\u064e\u0644\u0670\u0649 \u0635\u0650\u0631\u064e\u0627\u0637\u064d \u0645\u0651\u064f\u0633\u0652\u062a\u064e\u0642\u0650\u064a\u0652\u0645\u064d",
    "latin": "Inn\u012b tawakkaltu \u2018alall\u0101hi rabb\u012b wa rabbikum, m\u0101 min d\u0101bbatin ill\u0101 huwa \u0101khi\u017cum bin\u0101\u1e63iyatih\u0101, inna rabb\u012b \u2018al\u0101 \u1e63ir\u0101\u1e6dim mustaq\u012bm(in). ",
    "translation": "Sesungguhnya aku bertawakal kepada Allah Tuhanku dan Tuhanmu. Tidak satu pun makhluk yang bergerak (di atas bumi) melainkan Dialah yang memegang ubun-ubunnya (menguasainya). Sesungguhnya Tuhanku di jalan yang lurus (adil).",
    "no_footnote": null,
    "footnotes": null,
    "surah": {
        "id": 11,
        "arabic": " \u0647\u0648\u062f",
        "latin": "H\u016bd",
        "transliteration": "Hud",
        "translation": "Hud",
        "num_ayah": 123,
        "page": 221,
        "location": "Makkiyah"
    },
    "tafsir": {
        "wajiz": "Sesungguhnya aku bertawakal dengan menyerahkan semua urusanku hanya kepada Allah Tuhanku dan Tuhanmu, karena Dialah yang mememeliharaku dan dapat menghindarkan diriku dari tipu dayamu. Tidak satu pun makhluk bergerak yang bernyawa di muka bumi melainkan Dialah yang memegang ubun-ubunnya, yakni menguasai, mengatur, dan mengurus semua makhluk-Nya. Sungguh, Tuhanku berada di jalan yang lurus, yakni jalan yang benar dan adil sehingga kamu tidak bisa semenamena berbuat zalim terhadap diriku karena Allah menolongku. Ayat ini menganjurkan untuk berserah diri kepada Allah terhadap segala urusan, setelah berusaha secara maksimal.",
        "tahlili": "Pada ayat ini, Allah swt menerangkan perkataan Hud a.s. dalam menjawab tantangan kaumnya, yaitu setelah ia menyuruh mereka bergabung semuanya bersama dengan tuhan-tuhan mereka dalam melaksanakan segala macam tipu daya untuk membinasakannya, lalu dinyatakannya bahwa ia sudah bertawakkal sepenuhnya kepada Allah Tuhannya, dan juga Tuhan mereka yang telah menciptakan alam semesta ini. Tidak ada binatang satu pun yang melata di atas jagat raya ini yang tidak dikuasai-Nya, dan Allah Mahaadil membimbing hamba-Nya di atas jalan yang lurus, menolong orang-orang yang benar, dan menindas orang-orang yang zalim. Dengan demikian, jawaban Hud a.s. kepada kaumnya yang bernada menantang dengan berani itu, bukanlah didorong oleh rasa sombong, takabur dan sebagainya, tetapi didorong oleh keimanan yang telah membaja dalam lubuk hatinya untuk mempertanggungjawabkan kebenaran dakwahnya yang disampaikan kepada kaumnya. Hud a.s. yakin bahwa orang-orang kafir dari kaumnya itu tidak akan dapat berbuat sesuatu apa pun di luar ketentuan dan kehendak Allah. Maka timbullah tawakalnya sesuai dengan anjuran Allah, sebagaimana tersebut dalam firman-Nya:\n\u0641\u064e\u0627\u0650\u0630\u064e\u0627 \u0639\u064e\u0632\u064e\u0645\u0652\u062a\u064e \u0641\u064e\u062a\u064e\u0648\u064e\u0643\u0651\u064e\u0644\u0652 \u0639\u064e\u0644\u064e\u0649 \u0627\u0644\u0644\u0651\u0670\u0647\u0650 \u06d7 \u0627\u0650\u0646\u0651\u064e \u0627\u0644\u0644\u0651\u0670\u0647\u064e \u064a\u064f\u062d\u0650\u0628\u0651\u064f \u0627\u0644\u0652\u0645\u064f\u062a\u064e\u0648\u064e\u0643\u0651\u0650\u0644\u0650\u064a\u0652\u0646\u064e\nKemudian, apabila engkau telah membulatkan tekad, maka bertawakallah kepada Allah. Sungguh, Allah mencintai orang yang bertawakal. (\u0100li  \u2018Imr\u0101n/3: 159)",
        "intro_surah": "Surah H\u016bd termasuk surah-surah Makkiyah, terdiri dari 123 ayat, diturunkan sesudah Surah Y\u016bnus. Surah ini dinamai dengan H\u016bd, karena dihubungkan dengan kisah Nabi Hud a.s. yang terdapat di dalamnya. Selain riwayat Nabi Hud dengan kaumnya, terdapat pula dalam surah ini kisah nabi-nabi lain.\n\nPokok-pokok Isinya\n1.\tKeimanan:\nAdanya \u2018Arasy Allah, kejadian alam dalam enam fase, adanya beberapa golongan manusia pada Hari Kiamat.\n2.\tHukum-hukum:\nAgama membolehkan menikmati hal-hal yang baik, seperti memakai perhiasan asal tidak berlebih-lebihan; tidak boleh berlaku sombong, tidak boleh berbuat dosa atau mengharapkan sesuatu yang tidak mungkin menurut Sunnah Allah di dunia.\n3.\tKisah-kisah:\nKisah Saleh a.s. dan kaumnya Hud a.s. dan kaumnya kisah Syu\u2019aib a.s. dan kaumnya, kisah Lut a.s. dan kaumnya serta kisah Musa a.s. dan kaumnya.\n4.\tLain-lain:\nBerbagai pelajaran yang diambil dari kisah para Nabi; air adalah sumber segala kehidupan; salat itu memperkuat iman; Sunnah Allah yang berhubungan dengan kebinasaan suatu kaum.\n ",
        "outro_surah": null,
        "munasabah_prev_surah": "HUBUNGAN SURAH Y\u016aNUS\nDENGAN SURAH H\u016aD\n\n1. \tKedua surah ini dimulai dengan Alif  L\u0101m R\u0101, kemudian diiringi dengan menyebutkan risalah nabi-nabi yang diutus Allah, dan menerangkan kedudukan para rasul sebagai pemberi kabar gembira dan pemberi peringatan.\n2. \tKedua surah ini, pada pertengahannya, menerangkan tentang keingkaran orang-orang kafir terhadap Al-Qur\u2032an, bantahan terhadap anggapan kepalsuan risalah para rasul, keingkaran terhadap pokok-pokok agama, kemudian kedua surah ini sama-sama ditutup dengan seruan agar mengikuti Rasul, bersabar terhadap semua tindakan jahat kaum musyrikin, istiqamah dan tawakkal kepada Allah.\n3. \tKeduanya menerangkan kisah para nabi tetapi kisah para nabi yang disebut dalam Surah H\u016bd, bersifat menjelaskan apa yang telah disebut dalam Surah Y\u016bnus. Pada umumnya apa yang telah diutarakan dalam Surah H\u016bd merupakan penjelasan dari apa yang telah disebutkan dalam Surah Y\u016bnus.",
        "munasabah_prev_theme": "Setelah pada ayat-ayat yang lalu Allah swt menerangkan bagaimana Hud a.s. menyampaikan dakwah tauhid kepada kaumnya dengan mengajak mereka supaya menyembah Allah Yang Maha Esa dan melarang mereka mempersekutukan-Nya, maka pada ayat-ayat berikut ini Allah menerangkan tentang sikap kaumnya terhadap dakwah itu dan sikap Hud a.s. dalam menghadapi tantangan mereka.",
        "theme_group": "SIKAP HUD A.S. MENGHADAPI\nTANTANGAN KAUMNYA",
        "kosakata": "Kosakata: \u1e24af\u012b\u1e93  \u062d\u064e\u0641\u0650\u064a\u0652\u0638 (H\u016bd/11: 57)\nKata \u1e25af\u012b\u1e93 terambil dari akar kata \u1e25afi\u1e93a ya\u1e25fa\u1e93u yang berarti memelihara serta mengawasi. Bisa juga diartikan dengan menghapal karena orang yang menghapal berarti memelihara dengan baik ingatannya. Arti lainnya adalah tidak lengah atau selalu awas dan menjaga yang merupakan bagian dari pemeliharaan.\nKata \u1e25af\u012b\u1e93 terulang sebanyak sebelas kali dalam Al-Qur\u2019an, tiga di antaranya merupakan sifat Allah dan sisanya menafikan sifat itu dari manusia. Al-\u1e24af\u012b\u1e93 adalah salah satu dari Asma al-Husna yang berarti Yang Maha Memelihara. Pemeliharaan Allah ini meliputi semua apa yang diciptakan-Nya. Langit, bumi, bahkan manusia sendiri tak luput dari pemeliharaan dan pengawasan-Nya.\n",
        "sabab_nuzul": null,
        "conclusion": null
    }
}