{
    "id": 1480,
    "surah_id": 11,
    "ayah": 7,
    "page": 222,
    "quarter_hizb": 23,
    "juz": 12,
    "manzil": 3,
    "arabic": "\u0648\u064e\u0647\u064f\u0648\u064e \u0627\u0644\u0651\u064e\u0630\u0650\u064a\u0652 \u062e\u064e\u0644\u064e\u0642\u064e \u0627\u0644\u0633\u0651\u064e\u0645\u0670\u0648\u0670\u062a\u0650 \u0648\u064e\u0627\u0644\u0652\u0627\u064e\u0631\u0652\u0636\u064e \u0641\u0650\u064a\u0652 \u0633\u0650\u062a\u0651\u064e\u0629\u0650 \u0627\u064e\u064a\u0651\u064e\u0627\u0645\u064d \u0648\u0651\u064e\u0643\u064e\u0627\u0646\u064e \u0639\u064e\u0631\u0652\u0634\u064f\u0647\u0657 \u0639\u064e\u0644\u064e\u0649 \u0627\u0644\u0652\u0645\u064e\u0627\u06e4\u0621\u0650 \u0644\u0650\u064a\u064e\u0628\u0652\u0644\u064f\u0648\u064e\u0643\u064f\u0645\u0652 \u0627\u064e\u064a\u0651\u064f\u0643\u064f\u0645\u0652 \u0627\u064e\u062d\u0652\u0633\u064e\u0646\u064f \u0639\u064e\u0645\u064e\u0644\u064b\u0627 \u06d7\u0648\u064e\u0644\u064e\u0649\u0655\u0650\u0646\u0652 \u0642\u064f\u0644\u0652\u062a\u064e \u0627\u0650\u0646\u0651\u064e\u0643\u064f\u0645\u0652 \u0645\u0651\u064e\u0628\u0652\u0639\u064f\u0648\u0652\u062b\u064f\u0648\u0652\u0646\u064e \u0645\u0650\u0646\u0652\u06e2 \u0628\u064e\u0639\u0652\u062f\u0650 \u0627\u0644\u0652\u0645\u064e\u0648\u0652\u062a\u0650 \u0644\u064e\u064a\u064e\u0642\u064f\u0648\u0652\u0644\u064e\u0646\u0651\u064e \u0627\u0644\u0651\u064e\u0630\u0650\u064a\u0652\u0646\u064e \u0643\u064e\u0641\u064e\u0631\u064f\u0648\u0652\u0653\u0627 \u0627\u0650\u0646\u0652 \u0647\u0670\u0630\u064e\u0653\u0627 \u0627\u0650\u0644\u0651\u064e\u0627 \u0633\u0650\u062d\u0652\u0631\u064c \u0645\u0651\u064f\u0628\u0650\u064a\u0652\u0646\u064c",
    "latin": "Wa huwal-la\u017c\u012b khalaqas-sam\u0101w\u0101ti wal-ar\u1e0da f\u012b sittati ayy\u0101miw wa k\u0101na \u2018arsyuh\u016b \u2018alal-m\u0101'i liyabluwakum ayyukum a\u1e25sanu \u2018amal\u0101(n), wa la'in qulta innakum mab\u2018\u016b\u1e61\u016bna mim ba\u2018dil-mauti layaq\u016blannal-la\u017c\u012bna kafar\u016b in h\u0101\u017c\u0101 ill\u0101 si\u1e25rum mub\u012bn(un). ",
    "translation": "Dialah yang telah menciptakan langit dan bumi dalam enam masa351) serta (sebelum itu) \u02bbArasy-Nya di atas air. (Penciptaan itu dilakukan) untuk menguji kamu, siapakah di antara kamu yang lebih baik amalnya. Sungguh, jika engkau (Nabi Muhammad) berkata, \u201cSesungguhnya kamu akan dibangkitkan setelah mati,\u201d niscaya orang-orang kafir akan berkata, \u201cIni (Al-Qur\u2019an) tidak lain kecuali sihir yang nyata.\u201d",
    "no_footnote": "351",
    "footnotes": "351) Lihat catatan kaki surah al-A\u2018r\u0101f (7): 54.",
    "surah": {
        "id": 11,
        "arabic": " \u0647\u0648\u062f",
        "latin": "H\u016bd",
        "transliteration": "Hud",
        "translation": "Hud",
        "num_ayah": 123,
        "page": 221,
        "location": "Makkiyah"
    },
    "tafsir": {
        "wajiz": "Dan di antara kekuasaan Allah lainnya adalah bahwa Dialah yang menciptakan langit dan bumi serta apa yang ada pada keduanya dalam enam masa melalui proses penciptaan yang rapi dan teratur. Dan sebelum itu Dia menciptakan 'Arsy sebagai tempat bersemayam-Nya di atas air. Demikian itulah, agar Dia menguji siapakah di antara kamu yang lebih baik amal ibadahnya, bekerja dengan jujur, ikhlas dan beraktivitas untuk kemaslahatan umat. Mereka yang berbuat kebajikan akan mendapat imbalan pahala, sedang mereka yang berbuat kejahatan akan mendapatkan siksa. Jika engkau wahai Nabi Muhammad, berkata kepada penduduk Mekah, \u201cSesungguhnya kamu akan dibangkitkan pada hari Kiamat nanti setelah mati untuk mempertanggungjawabkan amal perbuatan kalian ketika di dunia,\u201d niscaya orang kafir itu akan berkata, \u201cApa yang kamu katakan ini hanyalah sihir yang nyata untuk menipu dan menakut-nakuti agar kami mudah percaya.\u201d",
        "tahlili": "Allah menciptakan langit dan bumi dalam enam masa. Dalam ayat ini disebutkan \u201csittati ayy\u0101m\u201d, artinya \u201cenam hari\u201d, akan tetapi pengertian hari di sini tidak dapat disamakan dengan hari seperti yang kita alami sehari-hari, tetapi disesuaikan dengan hari menurut perhitungan Allah.\nUlama ilmu falak telah menetapkan bahwa hari-hari yang ada hubungannya dengan peredaran bintang-bintang tidak sama dengan kadar hari yang berlaku di bumi ini.\nKemudian Allah menjelaskan bahwa singgasana-Nya sebelum penciptaan langit dan bumi, berada di atas air. Arasy atau singgasana Allah itu termasuk alam gaib, yang tidak dapat ditangkap dengan panca indera, dan tidak mungkin pula dibayangkan atau dikhayalkan bentuk dan rupanya, apalagi caranya Tuhan bersemayam di atas singgasana itu. Ayat-ayat yang menerangkan hal ini termasuk ayat yang mutasyabihat, yang wajib kita imani kebenarannya dengan menyerahkan pengertiannya kepada Allah.\nUmmu Salamah, Rabi\u2018ah dan Malik meriwayatkan bahwa para sahabat dalam menafsirkan ayat mutasyabihat seperti itu selalu berkata, \u201cIstiw\u0101 (bersemayam-Nya) sudah diketahui akan tetapi caranya tidak diketahui.\u201d Ayat ini menunjukkan bahwa yang berada di bawah Arasy Allah itu ialah air yang oleh Allah dijadikan unsur pokok dalam menciptakan makhluk yang hidup sebagaimana firman-Nya:\n\u0627\u064e\u0648\u064e\u0644\u064e\u0645\u0652 \u064a\u064e\u0631\u064e \u0627\u0644\u0651\u064e\u0630\u0650\u064a\u0652\u0646\u064e \u0643\u064e\u0641\u064e\u0631\u064f\u0648\u0652\u0653\u0627 \u0627\u064e\u0646\u0651\u064e \u0627\u0644\u0633\u0651\u064e\u0645\u0670\u0648\u0670\u062a\u0650 \u0648\u064e\u0627\u0644\u0652\u0627\u064e\u0631\u0652\u0636\u064e \u0643\u064e\u0627\u0646\u064e\u062a\u064e\u0627 \u0631\u064e\u062a\u0652\u0642\u064b\u0627 \u0641\u064e\u0641\u064e\u062a\u064e\u0642\u0652\u0646\u0670\u0647\u064f\u0645\u064e\u0627\u06d7 \u0648\u064e\u062c\u064e\u0639\u064e\u0644\u0652\u0646\u064e\u0627 \u0645\u0650\u0646\u064e \u0627\u0644\u0652\u0645\u064e\u0627\u06e4\u0621\u0650 \u0643\u064f\u0644\u0651\u064e \u0634\u064e\u064a\u0652\u0621\u064d \u062d\u064e\u064a\u0651\u064d\u06d7 \u0627\u064e\u0641\u064e\u0644\u064e\u0627 \u064a\u064f\u0624\u0652\u0645\u0650\u0646\u064f\u0648\u0652\u0646\u064e \u0663\u0660 (\u0627\u0644\u0627\u0646\u0628\u064a\u0627\u06e4\u0621)\nDan apakah orang-orang kafir tidak mengetahui bahwa langit dan bumi keduanya dahulunya menyatu, kemudian Kami pisahkan antara keduanya; dan Kami jadikan segala sesuatu yang hidup berasal dari air; maka mengapa mereka tidak beriman? (al-Anbiy\u0101\u2019/21: 30)\nKemudian Allah menerangkan bahwa tujuan penciptaan langit dan bumi dalam enam masa, dan adanya \u2018Arasy di atas air, yang jadi unsur pokok dari semua makhluk yang hidup adalah untuk menguji siapa di antara manusia yang lebih baik perbuatannya. Allah telah menyediakan semua yang berada di bumi ini untuk dimanfaatkan manusia, sebagaimana firman-Nya:\n\u0647\u064f\u0648\u064e \u0627\u0644\u0651\u064e\u0630\u0650\u064a\u0652 \u062e\u064e\u0644\u064e\u0642\u064e \u0644\u064e\u0643\u064f\u0645\u0652 \u0645\u0651\u064e\u0627 \u0641\u0650\u0649 \u0627\u0644\u0652\u0627\u064e\u0631\u0652\u0636\u0650 \u062c\u064e\u0645\u0650\u064a\u0652\u0639\u064b\u0627\nDialah (Allah) yang menciptakan segala apa yang ada di bumi untukmu. (al-Baqarah/2: 29)\n\nSemua manusia yang berada di atas permukaan bumi diperintahkan supaya berusaha dengan segala kemampuan dan kesanggupannya, untuk mengambil manfaat isi alam, untuk menggali manfaat alam semesta ini, yang ada di bumi, di lautan dan di udara seperti barang tambang yang terdapat di perut bumi, di dasar laut dan sebagainya, supaya digali manfaatnya semaksimal mungkin, untuk dimanfaatkan oleh seluruh umat manusia, sebagai anugerah dari Allah Rabbul \u2018\u0100lam\u012bn.\nAllah menciptakan langit dan bumi sebagai ujian bagi manusia siapakah di antara mereka yang paling kuat imannya dan paling baik amalannya, yang paling berjasa untuk kemanusiaan, siapa yang paling menonjol keterampilannya, siapa yang paling tinggi hasil produksinya, siapa yang paling jujur dan ikhlas dalam usahanya, dan sebagainya. Tentulah Allah tidak hanya menguji saja, akan tetapi akan memperhatikan pula hasil ujiannya, dan memberi pahala yang seimbang dengan jasanya. Balasan Allah itu diberikan setelah hari Kiamat. Akan tetapi, jika Nabi Muhammad berkata kepada kaum musyrikin di kota Mekah bahwa mereka akan dibangkitkan setelah mati untuk mempertanggungjawabkan segala amal perbuatannya ketika di dunia, maka mereka akan menjawab, \u201cApa yang kamu kemukakan dari Al-Qur\u2019an itu hanyalah sihir belaka, untuk menekan kami dan untuk mencegah kami dari kenikmatan dan kelezatan dunia.\u201d",
        "intro_surah": "Surah H\u016bd termasuk surah-surah Makkiyah, terdiri dari 123 ayat, diturunkan sesudah Surah Y\u016bnus. Surah ini dinamai dengan H\u016bd, karena dihubungkan dengan kisah Nabi Hud a.s. yang terdapat di dalamnya. Selain riwayat Nabi Hud dengan kaumnya, terdapat pula dalam surah ini kisah nabi-nabi lain.\n\nPokok-pokok Isinya\n1.\tKeimanan:\nAdanya \u2018Arasy Allah, kejadian alam dalam enam fase, adanya beberapa golongan manusia pada Hari Kiamat.\n2.\tHukum-hukum:\nAgama membolehkan menikmati hal-hal yang baik, seperti memakai perhiasan asal tidak berlebih-lebihan; tidak boleh berlaku sombong, tidak boleh berbuat dosa atau mengharapkan sesuatu yang tidak mungkin menurut Sunnah Allah di dunia.\n3.\tKisah-kisah:\nKisah Saleh a.s. dan kaumnya Hud a.s. dan kaumnya kisah Syu\u2019aib a.s. dan kaumnya, kisah Lut a.s. dan kaumnya serta kisah Musa a.s. dan kaumnya.\n4.\tLain-lain:\nBerbagai pelajaran yang diambil dari kisah para Nabi; air adalah sumber segala kehidupan; salat itu memperkuat iman; Sunnah Allah yang berhubungan dengan kebinasaan suatu kaum.\n ",
        "outro_surah": null,
        "munasabah_prev_surah": "HUBUNGAN SURAH Y\u016aNUS\nDENGAN SURAH H\u016aD\n\n1. \tKedua surah ini dimulai dengan Alif  L\u0101m R\u0101, kemudian diiringi dengan menyebutkan risalah nabi-nabi yang diutus Allah, dan menerangkan kedudukan para rasul sebagai pemberi kabar gembira dan pemberi peringatan.\n2. \tKedua surah ini, pada pertengahannya, menerangkan tentang keingkaran orang-orang kafir terhadap Al-Qur\u2032an, bantahan terhadap anggapan kepalsuan risalah para rasul, keingkaran terhadap pokok-pokok agama, kemudian kedua surah ini sama-sama ditutup dengan seruan agar mengikuti Rasul, bersabar terhadap semua tindakan jahat kaum musyrikin, istiqamah dan tawakkal kepada Allah.\n3. \tKeduanya menerangkan kisah para nabi tetapi kisah para nabi yang disebut dalam Surah H\u016bd, bersifat menjelaskan apa yang telah disebut dalam Surah Y\u016bnus. Pada umumnya apa yang telah diutarakan dalam Surah H\u016bd merupakan penjelasan dari apa yang telah disebutkan dalam Surah Y\u016bnus.",
        "munasabah_prev_theme": "Ayat-ayat sebelumnya menerangkan kekuasaan Allah yang meliputi segala sesuatu, dan Allah mengetahui apa yang tersembunyi dalam hati, maka pada ayat-ayat ini Allah mengemukakan apa yang seharusnya menjadi perhatian manusia sehubungan dengan kekuasaan dan ilmu-Nya serta apa yang ada hubungannya dengan hidup dan kehidupan manusia yang beraneka ragam. Kemudian Allah menerangkan bahwa Dialah yang menciptakan alam semesta. Semuanya itu diciptakan untuk menguji manusia, agar diketahui siapa di antara mereka yang lebih baik amalnya, dan siapa yang paling banyak mengambil manfaat dari alam semesta itu untuk kebahagiaan hidup mereka di dunia dan di akhirat.",
        "theme_group": "BUKTI-BUKTI\nKEKUASAAN ALLAH SWT",
        "kosakata": "Kosakata: D\u0101bbah \u062f\u064e\u0627\u0628\u0651\u064e\u0629 (H\u016bd/11: 6)\nTerambil dari kata dabba yaitu bergerak dengan lincah di atas tanah, yang diterjemahkan menjadi \u2018melata\u2019. Yang dimaksud dengan d\u0101bbah khususnya adalah hewan dan serangga (insect), tetapi kemudian biasa digunakan untuk semua yang hidup di atas tanah, termasuk burung, karena burung pun tidak akan selamanya di udara, tetapi pasti hinggap pada suatu saat di atas tanah atau di atas sesuatu yang berpijak di atas tanah. Dan juga bisa digunakan untuk manusia. ",
        "sabab_nuzul": null,
        "conclusion": null
    }
}