{
    "id": 1584,
    "surah_id": 11,
    "ayah": 111,
    "page": 234,
    "quarter_hizb": 24.25,
    "juz": 12,
    "manzil": 3,
    "arabic": "\u0648\u064e\u0627\u0650\u0646\u0651\u064e \u0643\u064f\u0644\u0651\u064b\u0627 \u0644\u0651\u064e\u0645\u0651\u064e\u0627 \u0644\u064e\u064a\u064f\u0648\u064e\u0641\u0651\u0650\u064a\u064e\u0646\u0651\u064e\u0647\u064f\u0645\u0652 \u0631\u064e\u0628\u0651\u064f\u0643\u064e \u0627\u064e\u0639\u0652\u0645\u064e\u0627\u0644\u064e\u0647\u064f\u0645\u0652 \u06d7\u0627\u0650\u0646\u0651\u064e\u0647\u0657 \u0628\u0650\u0645\u064e\u0627 \u064a\u064e\u0639\u0652\u0645\u064e\u0644\u064f\u0648\u0652\u0646\u064e \u062e\u064e\u0628\u0650\u064a\u0652\u0631\u064c",
    "latin": "Wa inna kullan lamm\u0101 layuwaffiyannahum rabbuka a\u2018m\u0101lahum, innah\u016b bim\u0101 ya\u2018mal\u016bna khab\u012br(un). ",
    "translation": "Sesungguhnya kepada setiap (yang berselisih itu) Tuhanmu pasti akan memberi balasan secara penuh atas perbuatan mereka. Sesungguhnya Dia Maha Teliti terhadap apa yang mereka kerjakan.",
    "no_footnote": null,
    "footnotes": null,
    "surah": {
        "id": 11,
        "arabic": " \u0647\u0648\u062f",
        "latin": "H\u016bd",
        "transliteration": "Hud",
        "translation": "Hud",
        "num_ayah": 123,
        "page": 221,
        "location": "Makkiyah"
    },
    "tafsir": {
        "wajiz": "Tapi jangan duga bahwa Allah akan membiarkan mereka yang berselisih. Allah memperhatikan mereka dan besumpah, sesungguhnya kepada masing-masing yang berselisih itu pasti Tuhanmu akan memberi balasan secara penuh atas perbuatan mereka pada hari pembalasan, sebagai imbalan atas perbuatan mereka. Sungguh, Dia Mahateliti terhadap perbuatan apa saja yang mereka kerjakan baik yang ditampakkan atau disembunyikan. Allah Maha mengetahui dan Mahateliti, tidak ada satu pun perbuatan manusia yang terlewat dari pengamatan Allah.",
        "tahlili": "Pada ayat ini Allah swt menegaskan bahwa orang-orang yang memperselisihkan tentang kebenaran Al-Qur\u2019an dan meragukan kedatangannya dari Allah, maka Allah akan menyempurnakan balasan perbuatan mereka baik di dunia maupun di akhirat, karena Allah Maha Mengetahui apa yang telah mereka kerjakan. Firman Allah:\n\u0630\u0670\u0644\u0650\u0643\u064e \u0628\u0650\u0645\u064e\u0627 \u0642\u064e\u062f\u0651\u064e\u0645\u064e\u062a\u0652 \u0627\u064e\u064a\u0652\u062f\u0650\u064a\u0652\u0643\u064f\u0645\u0652 \u0648\u064e\u0627\u064e\u0646\u0651\u064e \u0627\u0644\u0644\u0651\u0670\u0647\u064e \u0644\u064e\u064a\u0652\u0633\u064e \u0628\u0650\u0638\u064e\u0644\u0651\u064e\u0627\u0645\u064d \u0644\u0651\u0650\u0644\u0652\u0639\u064e\u0628\u0650\u064a\u0652\u062f\u0650\u06da \u0661\u0668\u0662 (\u0627\u0670\u0644 \u0639\u0645\u0631\u0627\u0646)\nDemikian itu disebabkan oleh perbuatan tanganmu sendiri, dan sesungguh-nya Allah tidak menzalimi hamba-hamba-Nya. (\u0100li \u2018Imr\u0101n/3: 182)\n\n\tDan firman-Nya:\n\u0645\u064e\u0646\u0652 \u0639\u064e\u0645\u0650\u0644\u064e \u0635\u064e\u0627\u0644\u0650\u062d\u064b\u0627 \u0641\u064e\u0644\u0650\u0646\u064e\u0641\u0652\u0633\u0650\u0647\u0656 \u06d9\u0648\u064e\u0645\u064e\u0646\u0652 \u0627\u064e\u0633\u064e\u0627\u06e4\u0621\u064e \u0641\u064e\u0639\u064e\u0644\u064e\u064a\u0652\u0647\u064e\u0627 \u06d7\u0648\u064e\u0645\u064e\u0627 \u0631\u064e\u0628\u0651\u064f\u0643\u064e \u0628\u0650\u0638\u064e\u0644\u0651\u064e\u0627\u0645\u064d \u0644\u0650\u0651\u0644\u0652\u0639\u064e\u0628\u0650\u064a\u0652\u062f\u0650 \u06d4 \u0664\u0666 (\u0641\u0635\u0651\u0644\u062a)\nBarang siapa mengerjakan kebajikan maka (pahalanya) untuk dirinya sendiri dan barang siapa berbuat jahat maka (dosanya) menjadi tanggungan dirinya sendiri. Dan Tuhanmu sama sekali tidak menzalimi hamba-hamba   (-Nya). (Fu\u1e63\u1e63ilat/41: 46)",
        "intro_surah": "Surah H\u016bd termasuk surah-surah Makkiyah, terdiri dari 123 ayat, diturunkan sesudah Surah Y\u016bnus. Surah ini dinamai dengan H\u016bd, karena dihubungkan dengan kisah Nabi Hud a.s. yang terdapat di dalamnya. Selain riwayat Nabi Hud dengan kaumnya, terdapat pula dalam surah ini kisah nabi-nabi lain.\n\nPokok-pokok Isinya\n1.\tKeimanan:\nAdanya \u2018Arasy Allah, kejadian alam dalam enam fase, adanya beberapa golongan manusia pada Hari Kiamat.\n2.\tHukum-hukum:\nAgama membolehkan menikmati hal-hal yang baik, seperti memakai perhiasan asal tidak berlebih-lebihan; tidak boleh berlaku sombong, tidak boleh berbuat dosa atau mengharapkan sesuatu yang tidak mungkin menurut Sunnah Allah di dunia.\n3.\tKisah-kisah:\nKisah Saleh a.s. dan kaumnya Hud a.s. dan kaumnya kisah Syu\u2019aib a.s. dan kaumnya, kisah Lut a.s. dan kaumnya serta kisah Musa a.s. dan kaumnya.\n4.\tLain-lain:\nBerbagai pelajaran yang diambil dari kisah para Nabi; air adalah sumber segala kehidupan; salat itu memperkuat iman; Sunnah Allah yang berhubungan dengan kebinasaan suatu kaum.\n ",
        "outro_surah": null,
        "munasabah_prev_surah": "HUBUNGAN SURAH Y\u016aNUS\nDENGAN SURAH H\u016aD\n\n1. \tKedua surah ini dimulai dengan Alif  L\u0101m R\u0101, kemudian diiringi dengan menyebutkan risalah nabi-nabi yang diutus Allah, dan menerangkan kedudukan para rasul sebagai pemberi kabar gembira dan pemberi peringatan.\n2. \tKedua surah ini, pada pertengahannya, menerangkan tentang keingkaran orang-orang kafir terhadap Al-Qur\u2032an, bantahan terhadap anggapan kepalsuan risalah para rasul, keingkaran terhadap pokok-pokok agama, kemudian kedua surah ini sama-sama ditutup dengan seruan agar mengikuti Rasul, bersabar terhadap semua tindakan jahat kaum musyrikin, istiqamah dan tawakkal kepada Allah.\n3. \tKeduanya menerangkan kisah para nabi tetapi kisah para nabi yang disebut dalam Surah H\u016bd, bersifat menjelaskan apa yang telah disebut dalam Surah Y\u016bnus. Pada umumnya apa yang telah diutarakan dalam Surah H\u016bd merupakan penjelasan dari apa yang telah disebutkan dalam Surah Y\u016bnus.",
        "munasabah_prev_theme": "Ayat-ayat yang lalu mengingatkan orang-orang musyrik Mekah yang menyatakan kekafiran dan keingkaran bahwa Allah akan menyempurnakan balasan bagi perbuatan mereka di dunia dan di akhirat. Ayat berikut ini menghibur Nabi Muhammad dengan mengingatkan tentang apa yang pernah terjadi dan dialami oleh umat Nabi Musa a.s. yang telah diberi kitab Taurat lalu mereka perselisihkan, bahkan mereka akan diperlakukan seperti kaum kafir yang ingkar itu.",
        "theme_group": "AKIBAT PERSELISIHAN TENTANG KITAB TAURAT",
        "kosakata": "Kosakata: Mur\u012bb  \u0645\u064f\u0631\u0650\u064a\u0652\u0628  (H\u016bd/11: 110)\nKata mur\u012bb terambil dari kata raiba yang berarti keraguan. Raiba adalah menganggap sesuatu masih samar dan tidak jelas. Sebagian ulama memahaminya dengan kegelisahan jiwa, karena keraguan melahirkan kegelisahan dan kerisauan. Kata mur\u012bb adalah patron yang menunjukkan kepada pelaku bahwa yang bersangkutan merasa ragu yang sifatnya menghasilkan kegelisahan jiwa. Gabungan keduanya menggambarkan kuatnya keraguan dan kegelisahan tersebut. Ada juga ulama yang memahami mur\u012bb dengan pelaku yang menanamkan keraguan pada pihak lain. Memang biasanya kalau ada seseorang yang ragu maka keraguannya dapat mempengaruhi orang lain baik secara langsung maupun tidak.",
        "sabab_nuzul": null,
        "conclusion": "1. \tAllah swt memberikan kitab Taurat kepada Nabi Musa a.s., lalu kaumnya memperselisihkan kitab Taurat itu, sedang orang-orang kafir sangat meragukan Al-Qur\u2019an. \n2. \tOrang-orang yang memperselisihkan kitab suci yang datang dari Allah itu akan dicukupkan oleh Allah balasan kezalimannya, tanpa dikurangi sedikit pun karena Allah Maha Mengetahui segala perbuatan mereka."
    }
}