{
    "id": 1573,
    "surah_id": 11,
    "ayah": 100,
    "page": 233,
    "quarter_hizb": 24,
    "juz": 12,
    "manzil": 3,
    "arabic": "\u0630\u0670\u0644\u0650\u0643\u064e \u0645\u0650\u0646\u0652 \u0627\u064e\u0646\u0652\u06e2\u0628\u064e\u0627\u06e4\u0621\u0650 \u0627\u0644\u0652\u0642\u064f\u0631\u0670\u0649 \u0646\u064e\u0642\u064f\u0635\u0651\u064f\u0647\u0657 \u0639\u064e\u0644\u064e\u064a\u0652\u0643\u064e \u0645\u0650\u0646\u0652\u0647\u064e\u0627 \u0642\u064e\u0627\u06e4\u0649\u0655\u0650\u0645\u064c \u0648\u0651\u064e\u062d\u064e\u0635\u0650\u064a\u0652\u062f\u064c",
    "latin": "\u017b\u0101lika min amb\u0101'il-qur\u0101 naqu\u1e63\u1e63uh\u016b \u2018alaika minh\u0101 q\u0101'imuw wa \u1e25a\u1e63\u012bd(un). ",
    "translation": "Itu adalah sebagian berita tentang negeri-negeri (yang telah dibinasakan) yang Kami ceritakan kepadamu (Nabi Muhammad). Di sebagian negeri-negeri itu masih berdiri peninggalan-peninggalannya dan ada (pula) yang telah musnah.",
    "no_footnote": null,
    "footnotes": null,
    "surah": {
        "id": 11,
        "arabic": " \u0647\u0648\u062f",
        "latin": "H\u016bd",
        "transliteration": "Hud",
        "translation": "Hud",
        "num_ayah": 123,
        "page": 221,
        "location": "Makkiyah"
    },
    "tafsir": {
        "wajiz": "Setelah diuraikan beberapa kisah para nabi beserta kaumnya yang ingkar terhadap risalah yang dibawa para nabi dan akibat pengingkaran mereka, ayat berikut ini menegaskan tujuan dipaparkannya kisah-kisah tersebut. Itulah beberapa berita tentang negeri-negeri yang telah Kami binasakan penduduknya akibat kekufuran mereka yang Kami ceritakan kepadamu wahai Nabi Muhammad, agar engkau sampaikan kepada umatmu sebagai pelajaran bagi mereka. Di antara negeri-negeri itu sebagian masih ada bekas-bekas peninggalannya yang tersisa dan ada pula yang telah musnah hingga tidak ada bekasnya sama sekali.",
        "tahlili": "Pada ayat ini Allah swt menerangkan bahwa perisitwa yang telah terjadi pada umat terdahulu dan kejadian-kejadian penting baik di kota maupun di desa-desa sejak dari kaum Nabi Nuh a.s. hingga kaum nabi-nabi sesudahnya, sengaja dicantumkan di dalam Al-Qur\u2019an, supaya Nabi Muhammad dapat membacakan kepada manusia dan dapat pula dibaca oleh orang-orang sepeninggalnya untuk dapat dijadikan pelajaran dan peringatan.\n Di antara negeri-negeri yang telah dibinasakan itu ada yang masih nampak bekas-bekasnya ibarat tanaman yang masih tegak berdiri di muka bumi seperti halnya negeri kaum Nabi Saleh a.s. Ada pula yang tidak mempunyai bekas sama sekali laksana tanaman yang telah dituai yang tidak mempunyai bekas-bekas sedikit pun seperti halnya negeri kaum Nabi Lut a.s. yang telah dijungkirbalikkan itu.",
        "intro_surah": "Surah H\u016bd termasuk surah-surah Makkiyah, terdiri dari 123 ayat, diturunkan sesudah Surah Y\u016bnus. Surah ini dinamai dengan H\u016bd, karena dihubungkan dengan kisah Nabi Hud a.s. yang terdapat di dalamnya. Selain riwayat Nabi Hud dengan kaumnya, terdapat pula dalam surah ini kisah nabi-nabi lain.\n\nPokok-pokok Isinya\n1.\tKeimanan:\nAdanya \u2018Arasy Allah, kejadian alam dalam enam fase, adanya beberapa golongan manusia pada Hari Kiamat.\n2.\tHukum-hukum:\nAgama membolehkan menikmati hal-hal yang baik, seperti memakai perhiasan asal tidak berlebih-lebihan; tidak boleh berlaku sombong, tidak boleh berbuat dosa atau mengharapkan sesuatu yang tidak mungkin menurut Sunnah Allah di dunia.\n3.\tKisah-kisah:\nKisah Saleh a.s. dan kaumnya Hud a.s. dan kaumnya kisah Syu\u2019aib a.s. dan kaumnya, kisah Lut a.s. dan kaumnya serta kisah Musa a.s. dan kaumnya.\n4.\tLain-lain:\nBerbagai pelajaran yang diambil dari kisah para Nabi; air adalah sumber segala kehidupan; salat itu memperkuat iman; Sunnah Allah yang berhubungan dengan kebinasaan suatu kaum.\n ",
        "outro_surah": null,
        "munasabah_prev_surah": "HUBUNGAN SURAH Y\u016aNUS\nDENGAN SURAH H\u016aD\n\n1. \tKedua surah ini dimulai dengan Alif  L\u0101m R\u0101, kemudian diiringi dengan menyebutkan risalah nabi-nabi yang diutus Allah, dan menerangkan kedudukan para rasul sebagai pemberi kabar gembira dan pemberi peringatan.\n2. \tKedua surah ini, pada pertengahannya, menerangkan tentang keingkaran orang-orang kafir terhadap Al-Qur\u2032an, bantahan terhadap anggapan kepalsuan risalah para rasul, keingkaran terhadap pokok-pokok agama, kemudian kedua surah ini sama-sama ditutup dengan seruan agar mengikuti Rasul, bersabar terhadap semua tindakan jahat kaum musyrikin, istiqamah dan tawakkal kepada Allah.\n3. \tKeduanya menerangkan kisah para nabi tetapi kisah para nabi yang disebut dalam Surah H\u016bd, bersifat menjelaskan apa yang telah disebut dalam Surah Y\u016bnus. Pada umumnya apa yang telah diutarakan dalam Surah H\u016bd merupakan penjelasan dari apa yang telah disebutkan dalam Surah Y\u016bnus.",
        "munasabah_prev_theme": "Ayat-ayat yang lalu menerangkan kisah-kisah umat yang lampau dan sikap buruk mereka terhadap seruan rasul-rasul yang diutus kepada mereka untuk membebaskan mereka dari penyembahan yang sesat, maka ayat-ayat berikut ini mengingatkan bahwa kisah-kisah itu mengandung pelajaran dan peringatan yang sangat penting bagi umat Nabi Muhammad agar tidak mengambil sikap yang sama, yang merugikan mereka kelak di akhirat. ",
        "theme_group": "PELAJARAN DARI KISAH NABI-NABI",
        "kosakata": "Kosakata: Q\u0101\u2019im wa \u1e25a\u1e61\u012bd   \u0642\u064e\u0627\u0626\u0650\u0645 \u0648\u064e\u062d\u064e\u0635\u0650\u064a\u0652\u062f (H\u016bd/11: 100)\nQ\u0101\u2019im adalah isim fa\u2019il dari kata q\u0101ma yaq\u016bmu yang berarti tegak atau berdiri. Ada beberapa pengertian untuk lafaz qiy\u0101m di antaranya adalah mendirikan sesuatu dengan cara memelihara dan menjaganya. Sedangkan \u1e25a\u1e61\u012bd terambil dan kata \u1e25a\u1e63ada yang berarti memotong tanaman atau datang masa untuk memanen. Q\u0101\u2019im yang dimaksud adalah negeri-negeri yang dibinasakan ada yang masih kelihatan bekas-bekasnya dengan diibaratkan tanaman yang masih tegak berdiri di muka bumi seperti peninggalan di Mesir dengan Pyramidnya, San\u2019a dengan peninggalan Saba dan Tubba. Sedangkan \u1e25a\u1e63id adalah ungkapan untuk peninggalan-peninggalkan yang sudah punah dengan diibaratkan seperti tanaman yang telah dituai, hilang tanpa jejak.",
        "sabab_nuzul": null,
        "conclusion": null
    }
}