{
    "id": 1605,
    "surah_id": 12,
    "ayah": 9,
    "page": 236,
    "quarter_hizb": 24.5,
    "juz": 12,
    "manzil": 3,
    "arabic": " \u06e8\u0627\u0642\u0652\u062a\u064f\u0644\u064f\u0648\u0652\u0627 \u064a\u064f\u0648\u0652\u0633\u064f\u0641\u064e \u0627\u064e\u0648\u0650 \u0627\u0637\u0652\u0631\u064e\u062d\u064f\u0648\u0652\u0647\u064f \u0627\u064e\u0631\u0652\u0636\u064b\u0627 \u064a\u0651\u064e\u062e\u0652\u0644\u064f \u0644\u064e\u0643\u064f\u0645\u0652 \u0648\u064e\u062c\u0652\u0647\u064f \u0627\u064e\u0628\u0650\u064a\u0652\u0643\u064f\u0645\u0652 \u0648\u064e\u062a\u064e\u0643\u064f\u0648\u0652\u0646\u064f\u0648\u0652\u0627 \u0645\u0650\u0646\u0652\u06e2 \u0628\u064e\u0639\u0652\u062f\u0650\u0647\u0656 \u0642\u064e\u0648\u0652\u0645\u064b\u0627 \u0635\u0670\u0644\u0650\u062d\u0650\u064a\u0652\u0646\u064e",
    "latin": "Uqtul\u016b y\u016bsufa awi\u1e6dra\u1e25\u016bhu ar\u1e0day yakhlu lakum wajhu ab\u012bkum wa tak\u016bn\u016b mim ba\u2018dih\u012b qauman  \u1e63\u0101li\u1e25\u012bn(a). ",
    "translation": "Bunuhlah Yusuf atau buanglah dia ke suatu tempat agar perhatian Ayah tertumpah kepadamu dan setelah itu (bertobatlah sehingga) kamu akan menjadi kaum yang saleh.\u201d",
    "no_footnote": null,
    "footnotes": null,
    "surah": {
        "id": 12,
        "arabic": " \u064a\u0648\u0633\u0641",
        "latin": "Y\u016bsuf",
        "transliteration": "Yusuf",
        "translation": "Yusuf",
        "num_ayah": 111,
        "page": 235,
        "location": "Makkiyah"
    },
    "tafsir": {
        "wajiz": "Kemudian di antara mereka berkata kepada sesamanya, \u201cBunuhlah Yusuf atau buanglah dia ke suatu tempat yang jauh dari kampung halaman kita agar perhatian ayah tertumpah kepadamu tanpa ada yang menghalanginya, dan setelah itu kamu bertobat kepada Allah, karena pintu tobat selalu terbuka, kemudian meminta maaf kepada ayah, sehingga kamu kembali lagi menjadi orang yang baik.\u201d",
        "tahlili": "Dalam suatu musyawarah untuk menetapkan tindakan yang tepat dan tegas terhadap Yusuf, mereka mengusulkan agar dia dibunuh saja atau dibuang ke tempat yang jauh, sehingga ia tidak mungkin kembali atau binasa dan mati di tempat pembuangan itu. Dengan demikian, ayah mereka Yakub akan berputus asa dan tidak mempunyai harapan lagi untuk bertemu dengan anaknya yang paling disayanginya itu, dan lama kelamaan tentunya dia akan melupakannya. Selama ini yang menjadi halangan baginya untuk memperhatikan mereka ialah Yusuf di sampingnya. Bila Yusuf sudah tiada atau tersingkir ke negeri yang jauh, tentulah ayah mereka akan kembali memperhatikan dan menyayangi mereka. Mereka menginsyafi bahwa tindakan ini adalah suatu tindakan yang kejam tidak berperikemanusiaan, suatu tindakan kriminal yang sangat besar dosanya. Akan tetapi, mereka telah jauh tersesat dari jalan yang benar dan terjerumus ke dalam perangkap setan, sehingga tidak nampak lagi oleh mereka akibat perbuatan itu bagi ayah dan diri mereka sendiri jika perbuatan itu dilakukan.\nMereka membujuk diri mereka sendiri dengan mengatakan, meskipun mereka telah berdosa, pintu tobat masih terbuka lebar. Mereka akan bertobat dengan tobat nasuha dan tidak akan berbuat seperti itu lagi, dan menjadi hamba Allah yang saleh. Tentu Allah akan menerima tobat, mengampuni segala dosa dan kesalahan hamba-Nya, dengan demikian ayah mereka akan merasa senang kepada mereka, dan Allah tidak akan menyiksa mereka.",
        "intro_surah": "Surah Y\u016bsuf terdiri dari 111 ayat, termasuk kelompok surah Makiyah, diturunkan di Mekah sebelum Hijrah. Surah ini dinamai surah Y\u016bsuf karena hampir seluruh isinya adalah mengenai kisah Nabi Yusuf a.s. Kisah ini adalah salah satu dari kisah yang diwahyukan kepada Nabi Muhammad saw, sebagai mukjizat yang menguatkan kenabiannya, karena beliau sebelumnya tidak mengetahui sama sekali kisah ini.\nMenurut riwayat al-Baihaqi dalam Kitab ad-Dal\u0101\u2019il ada segolongan orang Yahudi masuk agama Islam sesudah mereka mendengar cerita Yusuf dalam Al-Qur\u2019an, karena sesuai dengan cerita yang mereka ketahui. Dari kisah Nabi Yusuf ini, Nabi Muhammad saw banyak mendapat pelajaran seperti halnya dengan kisah nabi-nabi yang lain dan merupakan penghibur bagi beliau dalam menjalankan tugasnya yang amat berat.\n\nPokok-pokok Isinya\n1. Keimanan\nKenabian Yusuf dan mukjizat-mukjizat; ketetapan hal-hal yang bertentangan dengan agama adalah hak Allah semata-mata; ketetapan (qa\u1e0d\u0101\u2019) Allah tidak dapat diubah; para rasul semuanya adalah laki-laki.\n2. Hukum-hukum\n\tKeharusan merahasiakan sesuatu untuk menghindari fitnah; barang-barang atau anak yang ditemukan harus dipungut tidak boleh dibiarkan begitu saja; boleh melakukan siasat yang tidak merugikan orang lain dengan maksud memperoleh suatu kemaslahatan.\n3. Kisah-kisah\n\tKisah Nabi Yusuf a.s. dengan saudara-saudaranya dan ayah mereka Nabi Yakub a.s.\n4. Lain-lain\n\tKisah Yusuf dapat dijadikan teladan yang baik, sedangkan tauhid adalah pokok utama ajaran semua nabi.",
        "outro_surah": null,
        "munasabah_prev_surah": "Surah Y\u016bsuf terdiri dari 111 ayat, termasuk kelompok surah Makiyah, diturunkan di Mekah sebelum Hijrah. Surah ini dinamai surah Y\u016bsuf karena hampir seluruh isinya adalah mengenai kisah Nabi Yusuf a.s. Kisah ini adalah salah satu dari kisah yang diwahyukan kepada Nabi Muhammad saw, sebagai mukjizat yang menguatkan kenabiannya, karena beliau sebelumnya tidak mengetahui sama sekali kisah ini.\nMenurut riwayat al-Baihaqi dalam Kitab ad-Dal\u0101\u2019il ada segolongan orang Yahudi masuk agama Islam sesudah mereka mendengar cerita Yusuf dalam Al-Qur\u2019an, karena sesuai dengan cerita yang mereka ketahui. Dari kisah Nabi Yusuf ini, Nabi Muhammad saw banyak mendapat pelajaran seperti halnya dengan kisah nabi-nabi yang lain dan merupakan penghibur bagi beliau dalam menjalankan tugasnya yang amat berat.\n\nPokok-pokok Isinya\n1. Keimanan\nKenabian Yusuf dan mukjizat-mukjizat; ketetapan hal-hal yang bertentangan dengan agama adalah hak Allah semata-mata; ketetapan (qa\u1e0d\u0101\u2019) Allah tidak dapat diubah; para rasul semuanya adalah laki-laki.\n2. Hukum-hukum\n\tKeharusan merahasiakan sesuatu untuk menghindari fitnah; barang-barang atau anak yang ditemukan harus dipungut tidak boleh dibiarkan begitu saja; boleh melakukan siasat yang tidak merugikan orang lain dengan maksud memperoleh suatu kemaslahatan.\n3. Kisah-kisah\n\tKisah Nabi Yusuf a.s. dengan saudara-saudaranya dan ayah mereka Nabi Yakub a.s.\n4. Lain-lain\n\tKisah Yusuf dapat dijadikan teladan yang baik, sedangkan tauhid adalah pokok utama ajaran semua nabi.",
        "munasabah_prev_theme": "Ayat yang lalu memulai cerita Yusuf dengan menerangkan mimpi dan ta\u2019birnya menurut pendapat ayahnya Yakub. Ayat berikut ini menerangkan betapa dalamnya sifat iri dan dengki yang tertanam dalam hati saudara-saudara Yusuf terhadap dirinya, sehingga mereka merencanakan makar untuk membunuhnya, atau sekurang-kurangnya menyingkirkan jauh-jauh.",
        "theme_group": "SIKAP SAUDARA YUSUF TERHADAPNYA\n",
        "kosakata": "Kosakata: \u2018U\u1e63bah  \u0639\u064f\u0635\u0652\u0628\u064e\u0629 (Y\u016bsuf/12: 8)\n\u2018U\u1e63bah artinya ialah golongan (yang kuat). Akar katanya dari (\u0639 \u2013 \u0635 \u2013 \u0628) yang berarti mengikat sesuatu dengan sesuatu baik memanjang atau membulat. Satu golongan yang kuat dikatakan \u2018u\u1e63bah karena mereka saling memperkuat dengan lainnya. Sorban disebut \u2018i\u1e63\u0101bah karena kain sorban akan dililitkan di kepala sehingga kuat. Pembalut disebut juga \u2018i\u1e63\u0101b. \u2018Asabiyyah atau fanatisme terhadap satu keyakinan atau paham dikatakan demikian karena orang-orang tersebut mengikatkan diri mereka dengan pemahaman tersebut.  Pakar bahasa menyebut \u2018u\u1e63bah untuk sekelompok manusia dari satu hingga 10 orang, sampai 40 orang.",
        "sabab_nuzul": null,
        "conclusion": null
    }
}