{
    "id": 1603,
    "surah_id": 12,
    "ayah": 7,
    "page": 236,
    "quarter_hizb": 24.5,
    "juz": 12,
    "manzil": 3,
    "arabic": "\u06de \u0644\u064e\u0642\u064e\u062f\u0652 \u0643\u064e\u0627\u0646\u064e \u0641\u0650\u064a\u0652 \u064a\u064f\u0648\u0652\u0633\u064f\u0641\u064e \u0648\u064e\u0627\u0650\u062e\u0652\u0648\u064e\u062a\u0650\u0647\u0656\u0653 \u0627\u0670\u064a\u0670\u062a\u064c \u0644\u0651\u0650\u0644\u0633\u0651\u064e\u0627\u06e4\u0649\u0655\u0650\u0644\u0650\u064a\u0652\u0646\u064e ",
    "latin": "Laqad k\u0101na f\u012b y\u016bsufa wa ikhwatih\u012b \u0101y\u0101tul lis-s\u0101'il\u012bn(a). ",
    "translation": "Sungguh, dalam (kisah) Yusuf dan saudara-saudaranya benar-benar terdapat tanda-tanda (kekuasaan Allah) bagi para penanya. ",
    "no_footnote": null,
    "footnotes": null,
    "surah": {
        "id": 12,
        "arabic": " \u064a\u0648\u0633\u0641",
        "latin": "Y\u016bsuf",
        "transliteration": "Yusuf",
        "translation": "Yusuf",
        "num_ayah": 111,
        "page": 235,
        "location": "Makkiyah"
    },
    "tafsir": {
        "wajiz": "Setelah dijelaskan tentang mimpi Nabi Yusuf dan isyarat akan dipilihnya dia sebagai Nabi dan beberapa karunia lain yang akan diberikan Allah kepadanya, ayat berikut ini menjelaskan tentang sikap putraputra Nabi Yakub terhadap Nabi Yusuf, sebagaimana dijelaskan, sungguh, dalam kisah Nabi Yusuf dan saudara-saudaranya terdapat tanda-tanda kekuasaan Allah dan pelajaran berharga bagi orang yang bertanya tentang kisah itu. Kisah tersebut juga menjadi bukti kebenaran Nabi Muhammad sebagai utusan Allah, karena mampu menjelaskan kisah Nabi Yusuf secara gamblang.",
        "tahlili": "Allah memperingatkan lebih dahulu bahwa pada kisah Nabi Yusuf a.s. ini terdapat teladan yang baik dan pelajaran bagi orang yang memperhatikannya yaitu betapa besar kekuasaan Allah swt, dan betapa luas hikmah dan kebijaksanaan-Nya dalam mengatur sesuatu dalam suatu rentetan kejadian yang akhirnya sampai kepada tujuan yang dimaksud yaitu pemberian rahmat dan karunia kepada orang yang dikasihi-Nya. Sesudah itu barulah Allah mengisahkan bagaimana sikap saudara-saudara Yusuf terhadapnya.",
        "intro_surah": "Surah Y\u016bsuf terdiri dari 111 ayat, termasuk kelompok surah Makiyah, diturunkan di Mekah sebelum Hijrah. Surah ini dinamai surah Y\u016bsuf karena hampir seluruh isinya adalah mengenai kisah Nabi Yusuf a.s. Kisah ini adalah salah satu dari kisah yang diwahyukan kepada Nabi Muhammad saw, sebagai mukjizat yang menguatkan kenabiannya, karena beliau sebelumnya tidak mengetahui sama sekali kisah ini.\nMenurut riwayat al-Baihaqi dalam Kitab ad-Dal\u0101\u2019il ada segolongan orang Yahudi masuk agama Islam sesudah mereka mendengar cerita Yusuf dalam Al-Qur\u2019an, karena sesuai dengan cerita yang mereka ketahui. Dari kisah Nabi Yusuf ini, Nabi Muhammad saw banyak mendapat pelajaran seperti halnya dengan kisah nabi-nabi yang lain dan merupakan penghibur bagi beliau dalam menjalankan tugasnya yang amat berat.\n\nPokok-pokok Isinya\n1. Keimanan\nKenabian Yusuf dan mukjizat-mukjizat; ketetapan hal-hal yang bertentangan dengan agama adalah hak Allah semata-mata; ketetapan (qa\u1e0d\u0101\u2019) Allah tidak dapat diubah; para rasul semuanya adalah laki-laki.\n2. Hukum-hukum\n\tKeharusan merahasiakan sesuatu untuk menghindari fitnah; barang-barang atau anak yang ditemukan harus dipungut tidak boleh dibiarkan begitu saja; boleh melakukan siasat yang tidak merugikan orang lain dengan maksud memperoleh suatu kemaslahatan.\n3. Kisah-kisah\n\tKisah Nabi Yusuf a.s. dengan saudara-saudaranya dan ayah mereka Nabi Yakub a.s.\n4. Lain-lain\n\tKisah Yusuf dapat dijadikan teladan yang baik, sedangkan tauhid adalah pokok utama ajaran semua nabi.",
        "outro_surah": null,
        "munasabah_prev_surah": "Surah Y\u016bsuf terdiri dari 111 ayat, termasuk kelompok surah Makiyah, diturunkan di Mekah sebelum Hijrah. Surah ini dinamai surah Y\u016bsuf karena hampir seluruh isinya adalah mengenai kisah Nabi Yusuf a.s. Kisah ini adalah salah satu dari kisah yang diwahyukan kepada Nabi Muhammad saw, sebagai mukjizat yang menguatkan kenabiannya, karena beliau sebelumnya tidak mengetahui sama sekali kisah ini.\nMenurut riwayat al-Baihaqi dalam Kitab ad-Dal\u0101\u2019il ada segolongan orang Yahudi masuk agama Islam sesudah mereka mendengar cerita Yusuf dalam Al-Qur\u2019an, karena sesuai dengan cerita yang mereka ketahui. Dari kisah Nabi Yusuf ini, Nabi Muhammad saw banyak mendapat pelajaran seperti halnya dengan kisah nabi-nabi yang lain dan merupakan penghibur bagi beliau dalam menjalankan tugasnya yang amat berat.\n\nPokok-pokok Isinya\n1. Keimanan\nKenabian Yusuf dan mukjizat-mukjizat; ketetapan hal-hal yang bertentangan dengan agama adalah hak Allah semata-mata; ketetapan (qa\u1e0d\u0101\u2019) Allah tidak dapat diubah; para rasul semuanya adalah laki-laki.\n2. Hukum-hukum\n\tKeharusan merahasiakan sesuatu untuk menghindari fitnah; barang-barang atau anak yang ditemukan harus dipungut tidak boleh dibiarkan begitu saja; boleh melakukan siasat yang tidak merugikan orang lain dengan maksud memperoleh suatu kemaslahatan.\n3. Kisah-kisah\n\tKisah Nabi Yusuf a.s. dengan saudara-saudaranya dan ayah mereka Nabi Yakub a.s.\n4. Lain-lain\n\tKisah Yusuf dapat dijadikan teladan yang baik, sedangkan tauhid adalah pokok utama ajaran semua nabi.",
        "munasabah_prev_theme": "Ayat yang lalu memulai cerita Yusuf dengan menerangkan mimpi dan ta\u2019birnya menurut pendapat ayahnya Yakub. Ayat berikut ini menerangkan betapa dalamnya sifat iri dan dengki yang tertanam dalam hati saudara-saudara Yusuf terhadap dirinya, sehingga mereka merencanakan makar untuk membunuhnya, atau sekurang-kurangnya menyingkirkan jauh-jauh.",
        "theme_group": "SIKAP SAUDARA YUSUF TERHADAPNYA\n",
        "kosakata": "Kosakata: \u2018U\u1e63bah  \u0639\u064f\u0635\u0652\u0628\u064e\u0629 (Y\u016bsuf/12: 8)\n\u2018U\u1e63bah artinya ialah golongan (yang kuat). Akar katanya dari (\u0639 \u2013 \u0635 \u2013 \u0628) yang berarti mengikat sesuatu dengan sesuatu baik memanjang atau membulat. Satu golongan yang kuat dikatakan \u2018u\u1e63bah karena mereka saling memperkuat dengan lainnya. Sorban disebut \u2018i\u1e63\u0101bah karena kain sorban akan dililitkan di kepala sehingga kuat. Pembalut disebut juga \u2018i\u1e63\u0101b. \u2018Asabiyyah atau fanatisme terhadap satu keyakinan atau paham dikatakan demikian karena orang-orang tersebut mengikatkan diri mereka dengan pemahaman tersebut.  Pakar bahasa menyebut \u2018u\u1e63bah untuk sekelompok manusia dari satu hingga 10 orang, sampai 40 orang.",
        "sabab_nuzul": null,
        "conclusion": null
    }
}