{
    "id": 1601,
    "surah_id": 12,
    "ayah": 5,
    "page": 236,
    "quarter_hizb": 24.25,
    "juz": 12,
    "manzil": 3,
    "arabic": "\u0642\u064e\u0627\u0644\u064e \u064a\u0670\u0628\u064f\u0646\u064e\u064a\u0651\u064e \u0644\u064e\u0627 \u062a\u064e\u0642\u0652\u0635\u064f\u0635\u0652 \u0631\u064f\u0621\u0652\u064a\u064e\u0627\u0643\u064e \u0639\u064e\u0644\u0670\u0653\u0649 \u0627\u0650\u062e\u0652\u0648\u064e\u062a\u0650\u0643\u064e \u0641\u064e\u064a\u064e\u0643\u0650\u064a\u0652\u062f\u064f\u0648\u0652\u0627 \u0644\u064e\u0643\u064e \u0643\u064e\u064a\u0652\u062f\u064b\u0627 \u06d7\u0627\u0650\u0646\u0651\u064e \u0627\u0644\u0634\u0651\u064e\u064a\u0652\u0637\u0670\u0646\u064e \u0644\u0650\u0644\u0652\u0627\u0650\u0646\u0652\u0633\u064e\u0627\u0646\u0650 \u0639\u064e\u062f\u064f\u0648\u0651\u064c \u0645\u0651\u064f\u0628\u0650\u064a\u0652\u0646\u064c",
    "latin": "Q\u0101la y\u0101 bunayya l\u0101 taq\u1e63u\u1e63 ru'y\u0101ka \u2018al\u0101 ikhwatika fa yak\u012bd\u016b laka kaid\u0101(n), innasy-syai\u1e6d\u0101na lil-ins\u0101ni \u2018aduwwum mub\u012bn(un). ",
    "translation": "Dia (ayahnya) berkata, \u201cWahai anakku, janganlah engkau ceritakan mimpimu kepada saudara-saudaramu karena mereka akan membuat tipu daya yang sungguh-sungguh kepadamu. Sesungguhnya setan adalah musuh yang jelas bagi manusia.\u201d",
    "no_footnote": null,
    "footnotes": null,
    "surah": {
        "id": 12,
        "arabic": " \u064a\u0648\u0633\u0641",
        "latin": "Y\u016bsuf",
        "transliteration": "Yusuf",
        "translation": "Yusuf",
        "num_ayah": 111,
        "page": 235,
        "location": "Makkiyah"
    },
    "tafsir": {
        "wajiz": "Kemudian dia\u2013Nabi Yakub\u2013berkata kepada putranya, \u201cWahai anakku! Janganlah engkau ceritakan mimpimu kepada saudara-saudaramu. Aku khawatir apabila mereka tahu, mereka akan membuat tipu daya untuk membinasakan-mu karena kedengkian mereka. Sungguh, setan itu musuh yang jelas bagi manusia karena terus berupaya memunculkan rasa permusuhan di antara sesama.\u201d",
        "tahlili": "Oleh sebab itu, Nabi Yakub a.s. berkata kepada anaknya, \u201cHai anakku, jangan sekali-kali engkau beritahukan apa yang engkau lihat dalam mimpi itu, karena kalau mereka sampai mengetahuinya, mereka akan mengerti ta\u2019bir mimpi itu dan mereka akan iri dan dengki terhadapmu. Aku melihat bahwa mimpi itu bukan sembarang mimpi. Mimpimu itu adalah sebagai ilham dari Allah bahwa engkau di belakang hari akan menjadi orang besar serta berpengaruh, dan manusia akan tunduk patuh kepadamu termasuk saudara-saudaramu dan aku serta ibumu. Aku tidak dapat menjamin bahwa saudara-saudaramu tidak akan melakukan tindakan-tindakan buruk terhadapmu.\u201d\nNasihat ayahnya itu disadari sepenuhnya oleh Yusuf dan selalu diingat dan dikenangnya sehingga nanti pada akhir kisah ketika ia telah dapat bertemu dengan seluruh keluarganya, ia tetap mengatakan bahwasanya setanlah yang memperdaya saudara-saudaranya sehingga terputus hubungan antara dia dengan keluarganya, sebagaimana tersebut dalam firman Allah:\n\u0648\u064e\u0642\u064e\u0627\u0644\u064e \u064a\u0670\u0653\u0627\u064e\u0628\u064e\u062a\u0650 \u0647\u0670\u0630\u064e\u0627 \u062a\u064e\u0623\u0652\u0648\u0650\u064a\u0652\u0644\u064f \u0631\u064f\u0621\u0652\u064a\u064e\u0627\u064a\u064e \u0645\u0650\u0646\u0652 \u0642\u064e\u0628\u0652\u0644\u064f \u06d6\u0642\u064e\u062f\u0652 \u062c\u064e\u0639\u064e\u0644\u064e\u0647\u064e\u0627 \u0631\u064e\u0628\u0651\u0650\u064a\u0652 \u062d\u064e\u0642\u0651\u064b\u0627\u06d7 \u0648\u064e\u0642\u064e\u062f\u0652 \u0627\u064e\u062d\u0652\u0633\u064e\u0646\u064e \u0628\u0650\u064a\u0652\u0653 \u0627\u0650\u0630\u0652 \u0627\u064e\u062e\u0652\u0631\u064e\u062c\u064e\u0646\u0650\u064a\u0652 \u0645\u0650\u0646\u064e \u0627\u0644\u0633\u0651\u0650\u062c\u0652\u0646\u0650 \u0648\u064e\u062c\u064e\u0627\u06e4\u0621\u064e \u0628\u0650\u0643\u064f\u0645\u0652 \u0645\u0651\u0650\u0646\u064e \u0627\u0644\u0652\u0628\u064e\u062f\u0652\u0648\u0650 \u0645\u0650\u0646\u0652\u06e2 \u0628\u064e\u0639\u0652\u062f\u0650 \u0627\u064e\u0646\u0652 \u0646\u0651\u064e\u0632\u064e\u063a\u064e \u0627\u0644\u0634\u0651\u064e\u064a\u0652\u0637\u0670\u0646\u064f \u0628\u064e\u064a\u0652\u0646\u0650\u064a\u0652 \u0648\u064e\u0628\u064e\u064a\u0652\u0646\u064e \u0627\u0650\u062e\u0652\u0648\u064e\u062a\u0650\u064a\u0652\u06d7 \u0627\u0650\u0646\u0651\u064e \u0631\u064e\u0628\u0651\u0650\u064a\u0652 \u0644\u064e\u0637\u0650\u064a\u0652\u0641\u064c \u0644\u0650\u0651\u0645\u064e\u0627 \u064a\u064e\u0634\u064e\u0627\u06e4\u0621\u064f \u06d7\u0627\u0650\u0646\u0651\u064e\u0647\u0657 \u0647\u064f\u0648\u064e \u0627\u0644\u0652\u0639\u064e\u0644\u0650\u064a\u0652\u0645\u064f \u0627\u0644\u0652\u062d\u064e\u0643\u0650\u064a\u0652\u0645\u064f \nDan dia (Yusuf) berkata, \u201dWahai ayahku! Inilah takwil mimpiku yang dahulu itu. Dan sesungguhnya Tuhanku telah menjadikannya kenyataan. Sesungguhnya Tuhanku telah berbuat baik kepadaku, ketika Dia membebaskan aku dari penjara dan ketika membawa kamu dari dusun, setelah setan merusak (hubungan) antara aku dengan saudara-saudaraku. Sungguh, Tuhanku Mahalembut terhadap apa yang Dia kehendaki. Sungguh, Dia Yang Maha Mengetahui, Mahabijaksana.\u201d (Y\u016bsuf/12: 100)",
        "intro_surah": "Surah Y\u016bsuf terdiri dari 111 ayat, termasuk kelompok surah Makiyah, diturunkan di Mekah sebelum Hijrah. Surah ini dinamai surah Y\u016bsuf karena hampir seluruh isinya adalah mengenai kisah Nabi Yusuf a.s. Kisah ini adalah salah satu dari kisah yang diwahyukan kepada Nabi Muhammad saw, sebagai mukjizat yang menguatkan kenabiannya, karena beliau sebelumnya tidak mengetahui sama sekali kisah ini.\nMenurut riwayat al-Baihaqi dalam Kitab ad-Dal\u0101\u2019il ada segolongan orang Yahudi masuk agama Islam sesudah mereka mendengar cerita Yusuf dalam Al-Qur\u2019an, karena sesuai dengan cerita yang mereka ketahui. Dari kisah Nabi Yusuf ini, Nabi Muhammad saw banyak mendapat pelajaran seperti halnya dengan kisah nabi-nabi yang lain dan merupakan penghibur bagi beliau dalam menjalankan tugasnya yang amat berat.\n\nPokok-pokok Isinya\n1. Keimanan\nKenabian Yusuf dan mukjizat-mukjizat; ketetapan hal-hal yang bertentangan dengan agama adalah hak Allah semata-mata; ketetapan (qa\u1e0d\u0101\u2019) Allah tidak dapat diubah; para rasul semuanya adalah laki-laki.\n2. Hukum-hukum\n\tKeharusan merahasiakan sesuatu untuk menghindari fitnah; barang-barang atau anak yang ditemukan harus dipungut tidak boleh dibiarkan begitu saja; boleh melakukan siasat yang tidak merugikan orang lain dengan maksud memperoleh suatu kemaslahatan.\n3. Kisah-kisah\n\tKisah Nabi Yusuf a.s. dengan saudara-saudaranya dan ayah mereka Nabi Yakub a.s.\n4. Lain-lain\n\tKisah Yusuf dapat dijadikan teladan yang baik, sedangkan tauhid adalah pokok utama ajaran semua nabi.",
        "outro_surah": null,
        "munasabah_prev_surah": "Surah Y\u016bsuf terdiri dari 111 ayat, termasuk kelompok surah Makiyah, diturunkan di Mekah sebelum Hijrah. Surah ini dinamai surah Y\u016bsuf karena hampir seluruh isinya adalah mengenai kisah Nabi Yusuf a.s. Kisah ini adalah salah satu dari kisah yang diwahyukan kepada Nabi Muhammad saw, sebagai mukjizat yang menguatkan kenabiannya, karena beliau sebelumnya tidak mengetahui sama sekali kisah ini.\nMenurut riwayat al-Baihaqi dalam Kitab ad-Dal\u0101\u2019il ada segolongan orang Yahudi masuk agama Islam sesudah mereka mendengar cerita Yusuf dalam Al-Qur\u2019an, karena sesuai dengan cerita yang mereka ketahui. Dari kisah Nabi Yusuf ini, Nabi Muhammad saw banyak mendapat pelajaran seperti halnya dengan kisah nabi-nabi yang lain dan merupakan penghibur bagi beliau dalam menjalankan tugasnya yang amat berat.\n\nPokok-pokok Isinya\n1. Keimanan\nKenabian Yusuf dan mukjizat-mukjizat; ketetapan hal-hal yang bertentangan dengan agama adalah hak Allah semata-mata; ketetapan (qa\u1e0d\u0101\u2019) Allah tidak dapat diubah; para rasul semuanya adalah laki-laki.\n2. Hukum-hukum\n\tKeharusan merahasiakan sesuatu untuk menghindari fitnah; barang-barang atau anak yang ditemukan harus dipungut tidak boleh dibiarkan begitu saja; boleh melakukan siasat yang tidak merugikan orang lain dengan maksud memperoleh suatu kemaslahatan.\n3. Kisah-kisah\n\tKisah Nabi Yusuf a.s. dengan saudara-saudaranya dan ayah mereka Nabi Yakub a.s.\n4. Lain-lain\n\tKisah Yusuf dapat dijadikan teladan yang baik, sedangkan tauhid adalah pokok utama ajaran semua nabi.",
        "munasabah_prev_theme": "Pada ayat yang lalu, Allah menerangkan bahwa Dia akan menceritakan kepada Nabi Muhammad saw suatu kisah yang paling baik dan paling indah pemaparannya yang dapat dijadikan contoh teladan dan sebagai penghibur dan penggembira hatinya, agar ia tetap tabah dan sabar dalam menegakkan kebenaran. Pada ayat berikut ini, Allah memulai kisah itu dengan mimpi Yusuf dan ta\u2019bir mimpi itu yang dijelaskan oleh ayahnya sendiri Yakub.",
        "theme_group": "MIMPI NABI YUSUF A.S.",
        "kosakata": "Kosakata: Y\u016bsuf  \u064a\u064f\u0648\u0652\u0633\u064f\u0641\u064f \u0639\u064e\u0644\u064e\u064a\u0652\u0647\u0650 \u0627\u0644\u0633\u0651\u064e\u0644\u064e\u0627\u0645\u064f  \nSurah Y\u016bsuf ini dalam Al-Qur\u2019an seluruhnya mengenai kisah Yusuf  \u2018alaihissalam, surah yang paling terinci, berisi kisah kehidupan Nabi Yusuf dan terjalin saksama sejak masa muda sampai waktu ia menduduki kedudukan penting dalam kerajaan Fir\u2018aun. Kisah ini merupakan yang terindah (Y\u016bsuf/12: 3) dan utuh serta banyak mengandung pelajaran akhlak.\nDari segi silsilah, Yusuf anak Yakub (Ya`q\u016bb) anak Ishak anak Ibrahim. Nama Yusuf disebutkan 26 kali dalam Al-Qur\u2019an, 24 kali dalam Y\u016bsuf/12, satu ayat dalam surah al-An`\u0101m/6 dan satu ayat dalam surah G\u0101fir/40. Kisahnya di dalam Al-Qur\u2019an dimulai (Y\u016bsuf/12: 4) dari ketika ia berkata kepada ayahnya yang sudah tua, bahwa dia bermimpi melihat sepuluh bintang berikut matahari dan bulan yang sujud kepadanya. Ayahnya berpesan agar ia tidak menceritakan mimpinya itu kepada saudara-saudaranya, khawatir mereka akan tergoda oleh setan dan memperdayakannya. Dari sini datang drama perjalanan hidupnya. \nMenurut Perjanjian Lama (Kejadian 25-36) Yakub adalah saudara kembar Esau. Yakub menjadi kesayangan ibunya Ribka, putri Betuel orang Aram dari Padan-Aram, Suria, dan Esau adalah kesayangan bapanya. Yakub dan Esau menurunkan dua bangsa. Karena Ishak hanya mendoakan Yakub, maka Esau marah dan dendam kepada Yakub. Ibunya khawatir Yakub akan dianiaya, disuruhnya ia pergi kepada Laban pamannya di Padan-Aram. \n Istri Ishak orang Aram dari Padan-Aram dan istri-istri Yakub juga dari Padan-Aram (Kej. 25. 20). Ia bekerja kepada pamannya dengan imbalan akan dikawinkan kepada Rahel, tetapi nyatanya dikawinkan kepada Lea yang tidak dicintainya. Yakub marah, karena merasa ditipu. Untuk mengawini Rahel, kata Laban, Yakub harus bekerja kepadanya tujuh tahun lagi, sebab di tempat itu tidak biasa orang mengawinkan adik lebih dahulu sebelum kakaknya. Di samping itu ia juga kawin dengan kedua budak perempuan Laban, Bilha dan Zilpa. Dari mereka ini lahir semua anaknya di Aram, kecuali Benyamin. Yakub membawa kekayaan dalam jumlah besar ketika kemudian pindah ke Palestina, dan sebagian diberikan kepada saudaranya, karena ia khawatir dianiaya. Sejak itu Esau bersikap baik kepadanya.\nYusuf adalah salah seorang dari kedua belas orang bersaudara, tetapi  hanya Yusuf dan Benyamin yang sebapa dan seibu, Rahel putri Laban yang amat cantik. Yusuf yang dikenal tampan mungkin diturunkan dari neneknya Sarah atau dari ibunya Rahel. Saudara-saudaranya yang lain berlainan ibu. Seperti cintanya kepada Rahel istrinya, Yakub juga sangat mencintai Yusuf, sehingga wajar saja jika timbul iri hati di antara saudara-saudaranya  yang lain. Oleh karena itu mereka berunding dengan sesama mereka, lalu berkomplot hendak membinasakan Yusuf. Mereka meminta izin kepada ayahnya hendak mengajak Yusuf bermain dan mereka berjanji akan menjaganya. Setelah terjadi dialog sebentar, mereka diizinkan membawanya. Tetapi sore hari, mereka sudah kembali menemui Yakub sambil menangis dengan mengatakan bahwa saat mereka bermain dan berlomba seekor serigala tiba-tiba menerkam Yusuf dengan membawa pulang bajunya yang sudah berlumuran darah palsu sebagai bukti. Naluri Yakub sebagai seorang ayah sudah merasa bahwa mereka berbohong dengan cerita yang dibuat-buat. \n Di kalangan para mufasir ada yang menyebutkan bahwa setelah itu ada sebuah kafilah yang datang dari Madyan menuju Mesir membawa barang dagangan. Kafilah itu mengutus orang ke tempat yang ada air dan mereka akan berkemah di dekatnya. Setelah menurunkan timbanya, orang itu terkejut gembira karena melihat ada anak muda  rupawan yang ikut terbawa ke luar. Selanjutnya Yusuf cepat-cepat dijual dengan harga murah dan dibeli oleh orang dari Mesir, yaitu al-\u2019Az\u012bz, seorang pejabat tinggi istana, yang biasa disebut Potifar seperti dalam Bibel. Ada mufasir yang mengatakan bahwa penguasa Mesir waktu itu ar-Rayyan bin al-Walid dari suku Amaliq dalam dinasti Hyksos, ada yang mengatakan Fir\u2018aun. (yang benar raja, sebab Al-Qur\u2019an menyebut malik, sedang terhadap Fir\u2018aun, Al-Qur\u2019an selalu menyebut namanya saja, Fir\u2018aun). Yusuf mendapat tempat dalam hati tuan rumah suami istri. Ia diberi kekuasaan penuh dalam urusan rumah tangga. Yusuf telah mendapat hidayah, taufik, dan pendidikan dari Allah, dan setelah mencapai usia dewasa, Allah  menganugerahkan kearifan dan ilmu yang luas kepadanya (Y\u016bsuf/12: 21-22). Mungkin ini suatu persiapan menjadi nabi. Ketika meninggalkan Kanaan, Yusuf masih dalam usia remaja yang bersih, antara tujuh belas atau delapan belas tahun. \nDari waktu ke waktu keberadaan Yusuf dalam rumah itu diam-diam telah menanamkan cinta birahi dalam hati istri al-\u2019Az\u012bz, yang oleh sebagian mufasir biasa disebut Zulaikha atau Zalikha, nama fiktif, ciptaan khayal penyair. Tampaknya kerupawanan Yusuf telah menjadi ujian berat baginya. Yusuf hampir tergoda, \u201ckalau tidak segera ia melihat tanda kesaksian Tuhannya\u201d (Y\u016bsuf/12: 24). Bagaimanapun dirayu oleh perempuan yang dilukiskan orang sangat cantik itu, Yusuf tidak tergoda. Dan yang kemudian terjadi sebaliknya. Untuk membalas dendam perempuan itu kemudian mengadu kepada suaminya bahwa anak muda itu menggodanya dan mau memperkosanya. Yusuf dengan sikapnya yang jujur meminta al-\u2019Az\u012bz  menyelidiki peristiwa ini, dan kebetulan yang menjadi saksi kunci sepupu istri al-\u2019Az\u012bz sendiri. Ia mengatakan, bahwa jika baju Yusuf sobek di bagian depan, Yusuflah yang bersalah, dan jika yang sobek di bagian belakang, maka istri al-\u2019Az\u012bz yang curang, karena dialah yang mengejar Yusuf. Kenyataannya memang baju Yusuf sobek di bagian belakang, dan perempuan itu pun mengaku. Al-\u2019Az\u012bz menyalahkan istrinya dan dimintanya bertobat dan dimintanya kepada Yusuf merahasiakan peristiwa itu (Y\u016bsuf/12: 23-29). Tetapi untuk menjaga nama keluarga al-\u2019Az\u012bz, seolah ada jalan keluar dengan memenjarakan Yusuf untuk sementara. Buat Yusuf hal ini bukan masalah. Lebih baik dia dipenjarakan daripada berbuat dosa. Nama baik Yusuf sudah dapat dipertahankan, sesudah itu tidak perlu ia merasa malu dimasukkan ke dalam penjara. Bahkan justru di penjara, ia dapat berdakwah tauhid dan berhasil. Dia juga dihormati di penjara karena ia dapat menafsirkan mimpi, sehingga ia kemudian diminta oleh raja untuk menafsirkan mimpinya. Raja begitu senang kepada Yusuf, karena telah menyelamatkan negerinya dari bahaya kelaparan. Oleh raja ia diberi kekuasaan penuh. Dalam Kitab Kejadian, Fir\u2018aun mengawinkan Yusuf dengan Asnat, putri Potifera, imam On. \nDiawali dengan keadaan negeri Kanaan yang dilanda kekeringan dan serombongan orang Kanaan berdatangan ke Mesir setelah mendengar negeri itu sekarang sudah subur, tanpa mereka ketahui siapa orang di balik itu,  sesudah itu orangtua Yusuf dan saudara-saudaranya dapat berkumpul kembali dalam istana Yusuf di Mesir. \nSurah Y\u016bsuf yang terdiri dari 111 ayat  hakikatnya merupakan kisah keluarga Yakub. Membaca kisah dalam surah ini, kita seperti membaca sebuah novel rohani yang begitu agung, dengan alur cerita yang memikat diseling dengan peristiwa-peristiwa yang kadang sangat mengharukan, kadang ada kejadian tiba-tiba dan mengejutkan di luar dugaan disertai trik-trik yang manis, dijalin dengan jalan bahasa yang begitu indah.",
        "sabab_nuzul": null,
        "conclusion": null
    }
}