{
    "id": 1684,
    "surah_id": 12,
    "ayah": 88,
    "page": 246,
    "quarter_hizb": 25.25,
    "juz": 13,
    "manzil": 3,
    "arabic": "\u0641\u064e\u0644\u064e\u0645\u0651\u064e\u0627 \u062f\u064e\u062e\u064e\u0644\u064f\u0648\u0652\u0627 \u0639\u064e\u0644\u064e\u064a\u0652\u0647\u0650 \u0642\u064e\u0627\u0644\u064f\u0648\u0652\u0627 \u064a\u0670\u0653\u0627\u064e\u064a\u0651\u064f\u0647\u064e\u0627 \u0627\u0644\u0652\u0639\u064e\u0632\u0650\u064a\u0652\u0632\u064f \u0645\u064e\u0633\u0651\u064e\u0646\u064e\u0627 \u0648\u064e\u0627\u064e\u0647\u0652\u0644\u064e\u0646\u064e\u0627 \u0627\u0644\u0636\u0651\u064f\u0631\u0651\u064f \u0648\u064e\u062c\u0650\u0626\u0652\u0646\u064e\u0627 \u0628\u0650\u0628\u0650\u0636\u064e\u0627\u0639\u064e\u0629\u064d \u0645\u0651\u064f\u0632\u0652\u062c\u0670\u0649\u0629\u064d \u0641\u064e\u0627\u064e\u0648\u0652\u0641\u0650 \u0644\u064e\u0646\u064e\u0627 \u0627\u0644\u0652\u0643\u064e\u064a\u0652\u0644\u064e \u0648\u064e\u062a\u064e\u0635\u064e\u062f\u0651\u064e\u0642\u0652 \u0639\u064e\u0644\u064e\u064a\u0652\u0646\u064e\u0627\u06d7 \u0627\u0650\u0646\u0651\u064e \u0627\u0644\u0644\u0651\u0670\u0647\u064e \u064a\u064e\u062c\u0652\u0632\u0650\u0649 \u0627\u0644\u0652\u0645\u064f\u062a\u064e\u0635\u064e\u062f\u0651\u0650\u0642\u0650\u064a\u0652\u0646\u064e",
    "latin": "Falamm\u0101 dakhal\u016b \u2018alaihi q\u0101l\u016b y\u0101 ayyuhal-\u2018az\u012bzu massan\u0101 wa ahlana\u1e0d-\u1e0durru wa ji'n\u0101 bibi\u1e0d\u0101\u2018atim muzj\u0101tin fa aufi lanal-kaila wa ta\u1e63addaq \u2018alain\u0101, innall\u0101ha yajzil-muta\u1e63addiq\u012bn(a).",
    "translation": "Ketika mereka masuk ke (tempat)-nya (Yusuf), mereka berkata, \u201cWahai yang mulia, kami dan keluarga kami telah ditimpa kesengsaraan dan kami datang membawa barang-barang yang tidak berharga, maka penuhilah takaran (gandum) untuk kami, dan bersedekahlah kepada kami. Sesungguhnya Allah memberi balasan kepada orang-orang yang bersedekah.\u201d",
    "no_footnote": null,
    "footnotes": null,
    "surah": {
        "id": 12,
        "arabic": " \u064a\u0648\u0633\u0641",
        "latin": "Y\u016bsuf",
        "transliteration": "Yusuf",
        "translation": "Yusuf",
        "num_ayah": 111,
        "page": 235,
        "location": "Makkiyah"
    },
    "tafsir": {
        "wajiz": "Anak-anak Nabi Yakub lalu mempersiapkan diri untuk kembali berangkat ke Mesir. Keberangkatan mereka kali ini bukan semata untuk menyelidiki keberadaan Nabi Yusuf, melainkan juga untuk memperoleh bahan makanan karena saat itu cadangan makanan mereka sudah menipis. Maka setelah menempuh perjalanan yang melelahkan, sampailah  di Mesir, dan ketika mereka masuk ke tempat Nabi Yusuf, mereka berkata, \u201cWahai Al-Aziz yang mulia! Kami dan keluarga kami di Kanaan telah ditimpa kesengsaraan karena  paceklik berkepanjangan dan kami datang membawa barang-barang yang tidak berharga untuk ditukar dengan bahan makanan. Hanya itu yang kami miliki, maka kami bermohon, wahai Al-Aziz yang mulia, penuhilah jatah gandum untuk kami, dan bersedekahlah kepada kami. Sesungguhnya Allah memberi balasan yang berlipat ganda kepada orang yang bersedekah.\u201d",
        "tahlili": "Dalam ayat ini diterangkan bahwa setelah saudara-saudara Yusuf menerima anjuran dari ayahnya untuk kembali ke Mesir, mereka lalu berangkat. Sesampainya di Mesir, mereka masuk ke istana Yusuf dengan segala kerendahan diri. Mereka ingin mengetahui kebenaran keyakinan ayahnya yang pernah mengatakan bahwa al-\u2019Az\u012bz itu adalah Yusuf. Mereka berkata kepada al-\u2019Az\u012bz bahwa mereka ditimpa musibah kelaparan sehingga mereka menjadi kurus dan lemah karena kekurangan makanan, sedangkan keluarga mereka tidak sedikit. Mereka mengadukan halnya itu kepada al-\u2019Az\u012bz, dengan maksud untuk mengetahui keadaan Yusuf dan Bunyamin. Mereka juga mengemukakan bahwa mereka datang membawa dagangan yang jelek dan rendah mutunya, sehingga mungkin tidak ada pedagang yang mau menawarnya. Mereka berharap agar al-\u2019Az\u012bz mau menolong mereka dengan menyempurnakan takaran dagangannya tanpa mempertimbangkan kejelekannya. Kekurangan yang harus mereka bayar kepadanya agar disedekahkan saja kepada mereka. \nAllah membalas budi baik seseorang yang suka bersedekah dan Dia pulalah yang akan mengganti segala apa yang telah disedekahkan dan diinfakkan itu, sebagaimana firman-Nya:\n\u0648\u064e\u0645\u064e\u0627\u0653 \u0627\u064e\u0646\u0652\u0641\u064e\u0642\u0652\u062a\u064f\u0645\u0652 \u0645\u0651\u0650\u0646\u0652 \u0634\u064e\u064a\u0652\u0621\u064d \u0641\u064e\u0647\u064f\u0648\u064e \u064a\u064f\u062e\u0652\u0644\u0650\u0641\u064f\u0647\u0657 \u06da\u0648\u064e\u0647\u064f\u0648\u064e \u062e\u064e\u064a\u0652\u0631\u064f \u0627\u0644\u0631\u0651\u0670\u0632\u0650\u0642\u0650\u064a\u0652\u0646\u064e \nDan apa saja yang kamu infakkan, Allah akan menggantinya, dan Dialah pemberi rezeki yang terbaik. (Saba\u2019/34: 39)",
        "intro_surah": "Surah Y\u016bsuf terdiri dari 111 ayat, termasuk kelompok surah Makiyah, diturunkan di Mekah sebelum Hijrah. Surah ini dinamai surah Y\u016bsuf karena hampir seluruh isinya adalah mengenai kisah Nabi Yusuf a.s. Kisah ini adalah salah satu dari kisah yang diwahyukan kepada Nabi Muhammad saw, sebagai mukjizat yang menguatkan kenabiannya, karena beliau sebelumnya tidak mengetahui sama sekali kisah ini.\nMenurut riwayat al-Baihaqi dalam Kitab ad-Dal\u0101\u2019il ada segolongan orang Yahudi masuk agama Islam sesudah mereka mendengar cerita Yusuf dalam Al-Qur\u2019an, karena sesuai dengan cerita yang mereka ketahui. Dari kisah Nabi Yusuf ini, Nabi Muhammad saw banyak mendapat pelajaran seperti halnya dengan kisah nabi-nabi yang lain dan merupakan penghibur bagi beliau dalam menjalankan tugasnya yang amat berat.\n\nPokok-pokok Isinya\n1. Keimanan\nKenabian Yusuf dan mukjizat-mukjizat; ketetapan hal-hal yang bertentangan dengan agama adalah hak Allah semata-mata; ketetapan (qa\u1e0d\u0101\u2019) Allah tidak dapat diubah; para rasul semuanya adalah laki-laki.\n2. Hukum-hukum\n\tKeharusan merahasiakan sesuatu untuk menghindari fitnah; barang-barang atau anak yang ditemukan harus dipungut tidak boleh dibiarkan begitu saja; boleh melakukan siasat yang tidak merugikan orang lain dengan maksud memperoleh suatu kemaslahatan.\n3. Kisah-kisah\n\tKisah Nabi Yusuf a.s. dengan saudara-saudaranya dan ayah mereka Nabi Yakub a.s.\n4. Lain-lain\n\tKisah Yusuf dapat dijadikan teladan yang baik, sedangkan tauhid adalah pokok utama ajaran semua nabi.",
        "outro_surah": null,
        "munasabah_prev_surah": "Surah Y\u016bsuf terdiri dari 111 ayat, termasuk kelompok surah Makiyah, diturunkan di Mekah sebelum Hijrah. Surah ini dinamai surah Y\u016bsuf karena hampir seluruh isinya adalah mengenai kisah Nabi Yusuf a.s. Kisah ini adalah salah satu dari kisah yang diwahyukan kepada Nabi Muhammad saw, sebagai mukjizat yang menguatkan kenabiannya, karena beliau sebelumnya tidak mengetahui sama sekali kisah ini.\nMenurut riwayat al-Baihaqi dalam Kitab ad-Dal\u0101\u2019il ada segolongan orang Yahudi masuk agama Islam sesudah mereka mendengar cerita Yusuf dalam Al-Qur\u2019an, karena sesuai dengan cerita yang mereka ketahui. Dari kisah Nabi Yusuf ini, Nabi Muhammad saw banyak mendapat pelajaran seperti halnya dengan kisah nabi-nabi yang lain dan merupakan penghibur bagi beliau dalam menjalankan tugasnya yang amat berat.\n\nPokok-pokok Isinya\n1. Keimanan\nKenabian Yusuf dan mukjizat-mukjizat; ketetapan hal-hal yang bertentangan dengan agama adalah hak Allah semata-mata; ketetapan (qa\u1e0d\u0101\u2019) Allah tidak dapat diubah; para rasul semuanya adalah laki-laki.\n2. Hukum-hukum\n\tKeharusan merahasiakan sesuatu untuk menghindari fitnah; barang-barang atau anak yang ditemukan harus dipungut tidak boleh dibiarkan begitu saja; boleh melakukan siasat yang tidak merugikan orang lain dengan maksud memperoleh suatu kemaslahatan.\n3. Kisah-kisah\n\tKisah Nabi Yusuf a.s. dengan saudara-saudaranya dan ayah mereka Nabi Yakub a.s.\n4. Lain-lain\n\tKisah Yusuf dapat dijadikan teladan yang baik, sedangkan tauhid adalah pokok utama ajaran semua nabi.",
        "munasabah_prev_theme": "Pada ayat-ayat yang lalu, Allah swt menceritakan bahwa Nabi Yakub menyuruh anak-anaknya kembali ke Mesir untuk mencari berita tentang Yusuf a.s. karena ia yakin bahwa Yusuf masih hidup. Sebaliknya, mereka seakan-akan tidak percaya bahwa Yusuf masih hidup dan diberi oleh Allah swt kedudukan yang tinggi. Pada ayat-ayat berikut ini, Allah swt menerangkan bahwa setelah saudara-saudara Yusuf kembali ke Mesir, bertemu dengannya, tahulah mereka bahwa Yusuf betul-betul masih hidup dan ada di hadapan mereka. Mereka lalu mengakui kesalahan yang telah mereka perbuat, lalu Yusuf memaafkannya.",
        "theme_group": "ANAK-ANAK YAKUB MENGAKUI KESALAHANNYA\n",
        "kosakata": "Kosakata: Ta\u1e61r\u012bb  \u062a\u064e\u062b\u0652\u0631\u0650\u064a\u0652\u0628\u064e  (Y\u016bsuf/12: 92)\nArtinya adalah mencela karena adanya kesalahan. Kata ini hanya terdapat dalam Surah Y\u016bsuf/12: 92, yaitu ucapan Nabi Yusuf kepada kakak-kakaknya bahwa mereka tidak dicela apa-apa lagi. Apa yang sudah berlalu sudahlah, tidak perlu diingat-ingat lagi. Kakak-kakaknya yang dulu pernah mencelakakannya itu semua sudah dimaafkan.  ",
        "sabab_nuzul": null,
        "conclusion": null
    }
}