{
    "id": 1702,
    "surah_id": 12,
    "ayah": 106,
    "page": 248,
    "quarter_hizb": 25.5,
    "juz": 13,
    "manzil": 3,
    "arabic": "\u0648\u064e\u0645\u064e\u0627 \u064a\u064f\u0624\u0652\u0645\u0650\u0646\u064f \u0627\u064e\u0643\u0652\u062b\u064e\u0631\u064f\u0647\u064f\u0645\u0652 \u0628\u0650\u0627\u0644\u0644\u0651\u0670\u0647\u0650 \u0627\u0650\u0644\u0651\u064e\u0627 \u0648\u064e\u0647\u064f\u0645\u0652 \u0645\u0651\u064f\u0634\u0652\u0631\u0650\u0643\u064f\u0648\u0652\u0646\u064e",
    "latin": "Wa m\u0101 yu'minu ak\u1e61aruhum bill\u0101hi ill\u0101 wa hum musyrik\u016bn(a).",
    "translation": "Kebanyakan mereka tidak beriman kepada Allah, bahkan mereka musyrik.",
    "no_footnote": null,
    "footnotes": null,
    "surah": {
        "id": 12,
        "arabic": " \u064a\u0648\u0633\u0641",
        "latin": "Y\u016bsuf",
        "transliteration": "Yusuf",
        "translation": "Yusuf",
        "num_ayah": 111,
        "page": 235,
        "location": "Makkiyah"
    },
    "tafsir": {
        "wajiz": "Dan keberpalingan itu membuat kebanyakan dari mereka tidak beriman kepada Allah, bahkan mereka mempersekutukan-Nya dengan yang lain.",
        "tahlili": "Ayat ini menjelaskan keadaan orang-orang Quraisy Mekah. Di samping percaya kepada Allah yang menciptakan segala sesuatu, mereka juga menyekutukan-Nya. Kalau mereka ditanya siapa yang menciptakan semua yang ada di bumi maupun di langit, mereka akan menjawab dengan tegas bahwa yang menciptakan semuanya itu ialah Allah swt sebagai tercantum dalam Al-Qur\u2019an:\n\u0648\u064e\u0644\u064e\u0649\u0655\u0650\u0646\u0652 \u0633\u064e\u0627\u064e\u0644\u0652\u062a\u064e\u0647\u064f\u0645\u0652 \u0645\u0651\u064e\u0646\u0652 \u062e\u064e\u0644\u064e\u0642\u064e \u0627\u0644\u0633\u0651\u064e\u0645\u0670\u0648\u0670\u062a\u0650 \u0648\u064e\u0627\u0644\u0652\u0627\u064e\u0631\u0652\u0636\u064e \u0644\u064e\u064a\u064e\u0642\u064f\u0648\u0652\u0644\u064f\u0646\u0651\u064e \u0627\u0644\u0644\u0651\u0670\u0647\u064f \u06d7\u0642\u064f\u0644\u0650 \u0627\u0644\u0652\u062d\u064e\u0645\u0652\u062f\u064f \u0644\u0650\u0644\u0651\u0670\u0647\u0650 \u06d7\u0628\u064e\u0644\u0652 \u0627\u064e\u0643\u0652\u062b\u064e\u0631\u064f\u0647\u064f\u0645\u0652 \u0644\u064e\u0627 \u064a\u064e\u0639\u0652\u0644\u064e\u0645\u064f\u0648\u0652\u0646\u064e \u0662\u0665 (\u0644\u0642\u0645\u0670\u0646)\nDan sungguh, jika engkau (Muhammad) tanyakan kepada mereka, \u201dSiapakah yang menciptakan langit dan bumi?\u201d Tentu mereka akan menjawab, \u201dAllah.\u201d Katakanlah, \u201dSegala puji bagi Allah,\u201d tetapi kebanyakan mereka tidak mengetahui. (Luqman/31: 25)\nPengakuan Quraisy Mekah terhadap eksistensi Allah juga diikuti dengan mempersekutukan-Nya. Mereka menyembah berhala dan menjadikan pendeta sebagai tuhan. Bahkan, ada di antara mereka yang mengatakan bahwa Allah itu mempunyai anak. Mahasuci Allah swt dari apa yang dituduhkan itu. Menyekutukan Allah itu adalah dosa yang paling besar. Ibnu Mas\u2019ud pernah bertanya kepada Nabi Muhammad saw tentang dosa yang paling besar. Nabi saw menjawab:\n\u0623\u064e\u0646\u0652 \u062a\u064e\u062c\u0652\u0639\u064e\u0644\u064e \u0644\u0650\u0644\u0651\u0670\u0647\u0650 \u0646\u0650\u062f\u0651\u064b\u0627 \u0648\u064e\u0647\u064f\u0648\u064e \u062e\u064e\u0644\u064e\u0642\u064e\u0643\u064e (\u0631\u0648\u0627\u0647 \u0627\u0644\u0628\u062e\u0627\u0631\u064a \u0648 \u0645\u0633\u0644\u0645 \u0639\u0646 \u0627\u0628\u0646 \u0645\u0633\u0639\u0648\u062f)\nBahwa kamu jadikan sekutu bagi Allah swt padahal Dialah yang menciptakanmu. (Riwayat al-Bukh\u0101r\u012b dan Muslim dari Ibnu Mas\u2019\u016bd)\t",
        "intro_surah": "Surah Y\u016bsuf terdiri dari 111 ayat, termasuk kelompok surah Makiyah, diturunkan di Mekah sebelum Hijrah. Surah ini dinamai surah Y\u016bsuf karena hampir seluruh isinya adalah mengenai kisah Nabi Yusuf a.s. Kisah ini adalah salah satu dari kisah yang diwahyukan kepada Nabi Muhammad saw, sebagai mukjizat yang menguatkan kenabiannya, karena beliau sebelumnya tidak mengetahui sama sekali kisah ini.\nMenurut riwayat al-Baihaqi dalam Kitab ad-Dal\u0101\u2019il ada segolongan orang Yahudi masuk agama Islam sesudah mereka mendengar cerita Yusuf dalam Al-Qur\u2019an, karena sesuai dengan cerita yang mereka ketahui. Dari kisah Nabi Yusuf ini, Nabi Muhammad saw banyak mendapat pelajaran seperti halnya dengan kisah nabi-nabi yang lain dan merupakan penghibur bagi beliau dalam menjalankan tugasnya yang amat berat.\n\nPokok-pokok Isinya\n1. Keimanan\nKenabian Yusuf dan mukjizat-mukjizat; ketetapan hal-hal yang bertentangan dengan agama adalah hak Allah semata-mata; ketetapan (qa\u1e0d\u0101\u2019) Allah tidak dapat diubah; para rasul semuanya adalah laki-laki.\n2. Hukum-hukum\n\tKeharusan merahasiakan sesuatu untuk menghindari fitnah; barang-barang atau anak yang ditemukan harus dipungut tidak boleh dibiarkan begitu saja; boleh melakukan siasat yang tidak merugikan orang lain dengan maksud memperoleh suatu kemaslahatan.\n3. Kisah-kisah\n\tKisah Nabi Yusuf a.s. dengan saudara-saudaranya dan ayah mereka Nabi Yakub a.s.\n4. Lain-lain\n\tKisah Yusuf dapat dijadikan teladan yang baik, sedangkan tauhid adalah pokok utama ajaran semua nabi.",
        "outro_surah": null,
        "munasabah_prev_surah": "Surah Y\u016bsuf terdiri dari 111 ayat, termasuk kelompok surah Makiyah, diturunkan di Mekah sebelum Hijrah. Surah ini dinamai surah Y\u016bsuf karena hampir seluruh isinya adalah mengenai kisah Nabi Yusuf a.s. Kisah ini adalah salah satu dari kisah yang diwahyukan kepada Nabi Muhammad saw, sebagai mukjizat yang menguatkan kenabiannya, karena beliau sebelumnya tidak mengetahui sama sekali kisah ini.\nMenurut riwayat al-Baihaqi dalam Kitab ad-Dal\u0101\u2019il ada segolongan orang Yahudi masuk agama Islam sesudah mereka mendengar cerita Yusuf dalam Al-Qur\u2019an, karena sesuai dengan cerita yang mereka ketahui. Dari kisah Nabi Yusuf ini, Nabi Muhammad saw banyak mendapat pelajaran seperti halnya dengan kisah nabi-nabi yang lain dan merupakan penghibur bagi beliau dalam menjalankan tugasnya yang amat berat.\n\nPokok-pokok Isinya\n1. Keimanan\nKenabian Yusuf dan mukjizat-mukjizat; ketetapan hal-hal yang bertentangan dengan agama adalah hak Allah semata-mata; ketetapan (qa\u1e0d\u0101\u2019) Allah tidak dapat diubah; para rasul semuanya adalah laki-laki.\n2. Hukum-hukum\n\tKeharusan merahasiakan sesuatu untuk menghindari fitnah; barang-barang atau anak yang ditemukan harus dipungut tidak boleh dibiarkan begitu saja; boleh melakukan siasat yang tidak merugikan orang lain dengan maksud memperoleh suatu kemaslahatan.\n3. Kisah-kisah\n\tKisah Nabi Yusuf a.s. dengan saudara-saudaranya dan ayah mereka Nabi Yakub a.s.\n4. Lain-lain\n\tKisah Yusuf dapat dijadikan teladan yang baik, sedangkan tauhid adalah pokok utama ajaran semua nabi.",
        "munasabah_prev_theme": "Pada ayat-ayat yang lalu, Allah swt menerangkan bahwa kebanyakan manusia tidak mau beriman sekalipun Muhammad saw berusaha mengajak mereka ke arah jalan yang benar karena beliau sangat menginginkan kebahagiaan umatnya. Mereka juga tidak mau memperhatikan bukti-bukti yang menunjukkan kenabian beliau. Pada ayat-ayat berikut ini, Allah menerangkan bahwa hal tersebut bukanlah hal yang baru. Tidak sedikit manusia yang lalai dan tidak mau memikirkan tanda-tanda kekuasaan Allah dan bukti-bukti keesaan-Nya, padahal mereka selalu melihat dan merasakan-nya dalam kehidupan sehari-hari.",
        "theme_group": "BANYAK MANUSIA TIDAK MEMAHAMI TANDA-TANDA\nKEESAAN ALLAH SWT",
        "kosakata": "Kosakata: G\u0101syiyah  \u063a\u064e\u0627\u0634\u0650\u064a\u064e\u0629\u064c  (Y\u016bsuf/12: 107)\nKata g\u0101syiyah terambil dari kata gasyiya yang berarti \u201cmenutupi\u201d atau \u201cmeliputi semua bagiannya\u201d. Kata yang digunakan ayat ini adalah predikat dari kata lain yang tidak disebut, tetapi cukup jelas dilihat dari konteks ayatnya, yaitu kata \u201csiksa\u201d.",
        "sabab_nuzul": null,
        "conclusion": null
    }
}