{
    "id": 1699,
    "surah_id": 12,
    "ayah": 103,
    "page": 247,
    "quarter_hizb": 25.5,
    "juz": 13,
    "manzil": 3,
    "arabic": "\u0648\u064e\u0645\u064e\u0627\u0653 \u0627\u064e\u0643\u0652\u062b\u064e\u0631\u064f \u0627\u0644\u0646\u0651\u064e\u0627\u0633\u0650 \u0648\u064e\u0644\u064e\u0648\u0652 \u062d\u064e\u0631\u064e\u0635\u0652\u062a\u064e \u0628\u0650\u0645\u064f\u0624\u0652\u0645\u0650\u0646\u0650\u064a\u0652\u0646\u064e",
    "latin": "Wa m\u0101 ak\u1e61arun-n\u0101si wa lau \u1e25ara\u1e63ta bimu'min\u012bn(a).",
    "translation": "Kebanyakan manusia tidak akan beriman walaupun engkau (Nabi Muhammad) sangat menginginkannya.",
    "no_footnote": null,
    "footnotes": null,
    "surah": {
        "id": 12,
        "arabic": " \u064a\u0648\u0633\u0641",
        "latin": "Y\u016bsuf",
        "transliteration": "Yusuf",
        "translation": "Yusuf",
        "num_ayah": 111,
        "page": 235,
        "location": "Makkiyah"
    },
    "tafsir": {
        "wajiz": "Meski kisah tersebut telah jelas membuktikan kerasulan Nabi Muhammad, namun tetap saja ada orang yang tidak percaya. Dan kebanyakan manusia tidak akan mau beriman kepada Allah dan rasul-Nya, walaupun engkau sangat menginginkannya. Baik kisah Nabi Yusuf maupun kisah-kisah lainnya dalam Al-Qur'an merupakan bukti bahwa Al-Qur'an adalah benar wahyu Allah. Adalah mustahil bila Nabi Muhammad yang hidup jauh setelah peristiwa itu terjadi dapat menceritakannya secara rinci tanpa mendapat wahyu dari Allah Yang Maha Mengetahui.",
        "tahlili": "Pada ayat ini, diterangkan bahwa orang-orang yang telah benar-benar kafir dan terus-menerus membangkang, tidak akan beriman bagaimanapun kita mengharap dan menginginkannya, sekalipun telah diberikan alasan-alasan yang nyata dan meyakinkan. Begitu pula halnya dengan kebanyakan orang Quraisy Mekah, sekalipun telah diberikan bukti-bukti yang nyata, mereka tidak akan percaya dan tidak akan membenarkan kenabian dan kerasulan Muhammad saw. Oleh sebab itu, beriman atau tidaknya seseorang setelah menerima dakwah rasul bukan menjadi tanggung jawabnya. Firman Allah swt:\n\u0627\u0650\u0646\u0651\u064e\u0643\u064e \u0644\u064e\u0627 \u062a\u064e\u0647\u0652\u062f\u0650\u064a\u0652 \u0645\u064e\u0646\u0652 \u0627\u064e\u062d\u0652\u0628\u064e\u0628\u0652\u062a\u064e \u0648\u064e\u0644\u0670\u0643\u0650\u0646\u0651\u064e \u0627\u0644\u0644\u0651\u0670\u0647\u064e \u064a\u064e\u0647\u0652\u062f\u0650\u064a\u0652 \u0645\u064e\u0646\u0652 \u064a\u0651\u064e\u0634\u064e\u0627\u06e4\u0621\u064f \u06da\u0648\u064e\u0647\u064f\u0648\u064e \u0627\u064e\u0639\u0652\u0644\u064e\u0645\u064f \u0628\u0650\u0627\u0644\u0652\u0645\u064f\u0647\u0652\u062a\u064e\u062f\u0650\u064a\u0652\u0646\u064e \u0665\u0666 (\u0627\u0644\u0642\u0635\u0635)\nSungguh, engkau (Muhammad) tidak dapat memberi petunjuk kepada orang yang engkau kasihi, tetapi Allah memberi petunjuk kepada orang yang Dia kehendaki, dan Dia lebih mengetahui orang-orang yang mau menerima  petunjuk. (al-Qa\u1e63a\u1e63/28: 56)",
        "intro_surah": "Surah Y\u016bsuf terdiri dari 111 ayat, termasuk kelompok surah Makiyah, diturunkan di Mekah sebelum Hijrah. Surah ini dinamai surah Y\u016bsuf karena hampir seluruh isinya adalah mengenai kisah Nabi Yusuf a.s. Kisah ini adalah salah satu dari kisah yang diwahyukan kepada Nabi Muhammad saw, sebagai mukjizat yang menguatkan kenabiannya, karena beliau sebelumnya tidak mengetahui sama sekali kisah ini.\nMenurut riwayat al-Baihaqi dalam Kitab ad-Dal\u0101\u2019il ada segolongan orang Yahudi masuk agama Islam sesudah mereka mendengar cerita Yusuf dalam Al-Qur\u2019an, karena sesuai dengan cerita yang mereka ketahui. Dari kisah Nabi Yusuf ini, Nabi Muhammad saw banyak mendapat pelajaran seperti halnya dengan kisah nabi-nabi yang lain dan merupakan penghibur bagi beliau dalam menjalankan tugasnya yang amat berat.\n\nPokok-pokok Isinya\n1. Keimanan\nKenabian Yusuf dan mukjizat-mukjizat; ketetapan hal-hal yang bertentangan dengan agama adalah hak Allah semata-mata; ketetapan (qa\u1e0d\u0101\u2019) Allah tidak dapat diubah; para rasul semuanya adalah laki-laki.\n2. Hukum-hukum\n\tKeharusan merahasiakan sesuatu untuk menghindari fitnah; barang-barang atau anak yang ditemukan harus dipungut tidak boleh dibiarkan begitu saja; boleh melakukan siasat yang tidak merugikan orang lain dengan maksud memperoleh suatu kemaslahatan.\n3. Kisah-kisah\n\tKisah Nabi Yusuf a.s. dengan saudara-saudaranya dan ayah mereka Nabi Yakub a.s.\n4. Lain-lain\n\tKisah Yusuf dapat dijadikan teladan yang baik, sedangkan tauhid adalah pokok utama ajaran semua nabi.",
        "outro_surah": null,
        "munasabah_prev_surah": "Surah Y\u016bsuf terdiri dari 111 ayat, termasuk kelompok surah Makiyah, diturunkan di Mekah sebelum Hijrah. Surah ini dinamai surah Y\u016bsuf karena hampir seluruh isinya adalah mengenai kisah Nabi Yusuf a.s. Kisah ini adalah salah satu dari kisah yang diwahyukan kepada Nabi Muhammad saw, sebagai mukjizat yang menguatkan kenabiannya, karena beliau sebelumnya tidak mengetahui sama sekali kisah ini.\nMenurut riwayat al-Baihaqi dalam Kitab ad-Dal\u0101\u2019il ada segolongan orang Yahudi masuk agama Islam sesudah mereka mendengar cerita Yusuf dalam Al-Qur\u2019an, karena sesuai dengan cerita yang mereka ketahui. Dari kisah Nabi Yusuf ini, Nabi Muhammad saw banyak mendapat pelajaran seperti halnya dengan kisah nabi-nabi yang lain dan merupakan penghibur bagi beliau dalam menjalankan tugasnya yang amat berat.\n\nPokok-pokok Isinya\n1. Keimanan\nKenabian Yusuf dan mukjizat-mukjizat; ketetapan hal-hal yang bertentangan dengan agama adalah hak Allah semata-mata; ketetapan (qa\u1e0d\u0101\u2019) Allah tidak dapat diubah; para rasul semuanya adalah laki-laki.\n2. Hukum-hukum\n\tKeharusan merahasiakan sesuatu untuk menghindari fitnah; barang-barang atau anak yang ditemukan harus dipungut tidak boleh dibiarkan begitu saja; boleh melakukan siasat yang tidak merugikan orang lain dengan maksud memperoleh suatu kemaslahatan.\n3. Kisah-kisah\n\tKisah Nabi Yusuf a.s. dengan saudara-saudaranya dan ayah mereka Nabi Yakub a.s.\n4. Lain-lain\n\tKisah Yusuf dapat dijadikan teladan yang baik, sedangkan tauhid adalah pokok utama ajaran semua nabi.",
        "munasabah_prev_theme": "Pada ayat-ayat yang lalu, Allah swt menerangkan kisah Yusuf yang diakhiri dengan doa agar istikamah dalam hidup, wafat dalam keadaan Islam, dan bergabung dengan orang-orang yang saleh. Pada ayat-ayat berikut ini, Allah swt menerangkan bahwa kisah Nabi Yusuf menunjukkan kebenaran kenabian Nabi Muhammad saw karena beliau mendapat informasi ini langsung dari Allah, bukan dari orang lain. ",
        "theme_group": "KISAH YUSUF A.S.\nMENGUATKAN KENABIAN MUHAMMAD",
        "kosakata": "Kosakata: Ajr \u0627\u064e\u062c\u0652\u0631 (Y\u016bsuf/12: 104)\nKata yang terdiri dari ( \u0623- \u062c - \u0631 ) ini mempunyai dua arti. Pertama, upah dari satu pekerjaan atau bayaran dari satu kemanfaatan. Kedua, menambal atau merekatkan tulang yang retak. Kedua arti ini bisa bermuara pada satu hal, yaitu bahwa bayaran satu pekerjaan seperti menambal jerih payah yang telah dilakukannya. ",
        "sabab_nuzul": null,
        "conclusion": null
    }
}