{
    "id": 1733,
    "surah_id": 13,
    "ayah": 26,
    "page": 252,
    "quarter_hizb": 26,
    "juz": 13,
    "manzil": 3,
    "arabic": "\u0627\u064e\u0644\u0644\u0651\u0670\u0647\u064f \u064a\u064e\u0628\u0652\u0633\u064f\u0637\u064f \u0627\u0644\u0631\u0651\u0650\u0632\u0652\u0642\u064e \u0644\u0650\u0645\u064e\u0646\u0652 \u064a\u0651\u064e\u0634\u064e\u0627\u06e4\u0621\u064f \u0648\u064e\u064a\u064e\u0642\u0652\u062f\u0650\u0631\u064f \u06d7\u0648\u064e\u0641\u064e\u0631\u0650\u062d\u064f\u0648\u0652\u0627 \u0628\u0650\u0627\u0644\u0652\u062d\u064e\u064a\u0670\u0648\u0629\u0650 \u0627\u0644\u062f\u0651\u064f\u0646\u0652\u064a\u064e\u0627\u06d7 \u0648\u064e\u0645\u064e\u0627 \u0627\u0644\u0652\u062d\u064e\u064a\u0670\u0648\u0629\u064f \u0627\u0644\u062f\u0651\u064f\u0646\u0652\u064a\u064e\u0627 \u0641\u0650\u0649 \u0627\u0644\u0652\u0627\u0670\u062e\u0650\u0631\u064e\u0629\u0650 \u0627\u0650\u0644\u0651\u064e\u0627 \u0645\u064e\u062a\u064e\u0627\u0639\u064c  \u08d6  ",
    "latin": "All\u0101hu yabsu\u1e6dur-rizqa limay yasy\u0101'u wa yaqdir(u), wa fari\u1e25\u016b bil-\u1e25ay\u0101tid-dun-y\u0101, wa mal-\u1e25ay\u0101tud-dun-y\u0101 fil-\u0101khirati ill\u0101 mat\u0101\u2018(un).",
    "translation": "Allah melapangkan rezeki bagi siapa yang Dia kehendaki dan menyempitkan (bagi siapa yang dikehendaki-Nya). Mereka bergembira dengan kehidupan dunia, padahal kehidupan dunia dibandingkan akhirat hanyalah kesenangan (yang sedikit).",
    "no_footnote": null,
    "footnotes": null,
    "surah": {
        "id": 13,
        "arabic": " \u0627\u0644\u0631\u0651\u0639\u062f",
        "latin": "Ar-Ra\u2018d",
        "transliteration": "Ar-Ra\u2018d",
        "translation": "Guruh",
        "num_ayah": 43,
        "page": 249,
        "location": "Makkiyah"
    },
    "tafsir": {
        "wajiz": "Allah yang Maha Pemurah melapangkan rezeki bagi siapa yang Dia kehendaki dan membatasi rezeki siapa yang Dia kehendaki dari hamba-hamba-Nya. Mereka yang ingkar bergembira ria dengan kebahagian hidup yang mereka peroleh di kehidupan dunia, padahal kehidupan dunia hanyalah kesenangan yang berlangsung begitu singkat dibanding kehidupan akhirat yang kekal dan abadi.",
        "tahlili": "Allah melapangkan dan memudahkan rezeki bagi sebagian hamba yang dikehendaki-Nya, sehingga mereka memperoleh rezeki yang lebih dari keperluan sehari-hari. Mereka adalah orang-orang yang rajin dan terampil dalam mencari harta, dan melakukan bermacam-macam usaha. Selain itu, mereka hemat dan cermat serta pandai mengelola dan mempergunakan harta bendanya itu.\nSebaliknya, Allah juga membatasi rezeki bagi sebagian hamba-Nya, sehingga rezeki yang mereka peroleh tidak lebih dari apa yang diperlukan sehari-hari. Mereka biasanya adalah orang-orang pemalas dan tidak terampil dalam mencari harta, atau tidak pandai mengelola dan mempergunakan harta tersebut.\nAllah melapangkan dan menyempitkan rezeki hamba-Nya berdasarkan hikmah serta pengetahuan-Nya tentang masing-masing hamba itu. Kedua hal tersebut tidak ada hubungannya dengan kadar keimanan dan kekafiran hamba-Nya. Oleh karena itu, ada kalanya Allah menganugerahkan rezeki yang banyak kepada hamba-Nya yang kafir. Sebaliknya, kadang-kadang Allah menyempitkan rezeki bagi hamba yang beriman untuk menambah pahala yang kelak akan mereka peroleh di akhirat. Maka kekayaan dan kemiskinan adalah dua hal yang dapat terjadi pada orang-orang beriman maupun yang kafir, yang saleh ataupun yang fasik.\nAyat ini selanjutnya menceritakan bahwa kaum musyrik Mekah yang suka memungkiri janji Allah, sangat bergembira dengan banyaknya harta benda yang mereka miliki, dan kehidupan duniawi yang berlimpah-ruah, dan mereka mengira bahwa harta benda tersebut merupakan nikmat dan keberuntungan terbesar.\nOleh sebab itu, pada akhir ayat ini Allah menunjukkan kekeliruan mereka, dan menegaskan bahwa kenikmatan hidup duniawi ini hanyalah merupakan kenikmatan yang kecil, pendek waktunya, serta mudah dan cepat hilang, dibandingkan dengan kenikmatan di akhirat yang besar nilainya dan sepanjang masa. Dengan demikian, tidaklah pada tempatnya bila mereka bangga dengan kenikmatan di dunia yang mereka rasakan itu.\nDalam hubungan ini, riwayat yang disampaikan oleh Imam at-Tirmi\u017c\u012b dari Ibnu Mas\u2018\u016bd menyebutkan sebagai berikut:\n\u0646\u064e\u0627\u0645\u064e \u0631\u064e\u0633\u064f\u0648\u0652\u0644\u064f \u0627\u0644\u0644\u0651\u0670\u0647\u0650 \u0635\u064e\u0644\u0651\u064e\u0649 \u0627\u0644\u0644\u0651\u0670\u0647\u064f \u0639\u064e\u0644\u064e\u064a\u0652\u0647\u0650 \u0648\u064e\u0633\u064e\u0644\u0651\u064e\u0645\u064e \u0639\u064e\u0644\u064e\u0649 \u062d\u064e\u0635\u0650\u064a\u0652\u0631\u064d \u0648\u064e\u0642\u064e\u062f\u0652 \u0627\u064e\u062b\u0651\u064e\u0631\u064e \u0641\u0650\u0649 \u062c\u064e\u0646\u0652\u0628\u0650\u0647\u0650 \u0641\u064e\u0642\u064f\u0644\u0652\u0646\u064e\u0627 \u064a\u064e\u0627 \u0631\u064e\u0633\u064f\u0648\u0652\u0644\u064e \u0627\u0644\u0644\u0651\u0670\u0647\u0650 \u0644\u064e\u0648\u0650 \u0627\u062a\u0651\u064e\u062e\u064e\u0630\u0652\u0646\u064e\u0627 \u0644\u064e\u0643\u064e \u0648\u0650\u0637\u064e\u0627\u0621\u064b\u060c \u0641\u064e\u0642\u064e\u0627\u0644\u064e \u0645\u064e\u0627 \u0644\u0650\u0649 \u0648\u064e\u0644\u0650\u0644\u062f\u0651\u064f\u0646\u0652\u064a\u064e\u0627 \u0645\u064e\u0627 \u0627\u064e\u0646\u064e\u0627 \u0641\u0650\u0649 \u0627\u0644\u062f\u0651\u064f\u0646\u0652\u064a\u064e\u0627 \u0627\u0650\u0644\u0627\u0651\u064e \u0643\u064e\u0631\u064e\u0627\u0643\u0650\u0628\u064d \u0627\u0633\u0652\u062a\u064e\u0638\u064e\u0644\u0651\u064e \u062a\u064e\u062d\u0652\u062a\u064e \u0634\u064e\u062c\u064e\u0631\u064e\u0629\u064d \u062b\u064f\u0645\u0651\u064e \u0631\u064e\u0627\u062d\u064e \u0648\u064e\u062a\u064e\u0631\u064e\u0643\u064e\u0647\u064e\u0627. (\u0631\u0648\u0627\u0647 \u0627\u0644\u062a\u0631\u0645\u0630\u064a \u0639\u0646 \u0627\u0628\u0646 \u0645\u0633\u0639\u0648\u062f)\nPernah Rasulullah tidur di atas sehelai tikar kemudian beliau bangun dari tidurnya, dan kelihatan bekas tikar itu pada lambungnya, lalu kami berkata, \u201cYa Rasulullah seandainya kami ambilkan tempat tidur untukmu?\u201d Rasulullah bersabda, \u201cApalah artinya dunia ini bagiku. Aku hidup di dunia ini hanya laksana seorang pengendara yang berteduh sejenak di bawah pohon, kemudian ia berangkat lagi dan meninggalkan pohon itu.\u201d (Riwayat at-Tirmi\u017c\u012b dari Ibnu Mas\u2018\u016bd)",
        "intro_surah": "Surah ar-Ra\u2019d ini terdiri atas 43 ayat termasuk golongan surah Makkiyah menurut Ibnu \u2018Abb\u0101s, Hasan, Ikrimah, dan lain-lain. Sedangkan Ibnu \u2018Abb\u0101s, Zubair, Muqatil, dan lain-lain menggolongkannya ke dalam kelompok surah Madaniyah.\nSurah ini dinamakan ar-Ra\u2018d yang berarti \u201cguruh\u201d atau \u201cguntur\u201d karena dalam ayat 13 Allah berfirman yang artinya \u201cDan guruh itu bertasbih sambil memuji-Nya\u201d, menunjukkan sifat kesucian dan kesempurnaan Allah swt. Juga sesuai dengan sifat Al-Qur\u2019an yang mengandung ancaman dan harapan, maka demikian pulalah halnya bunyi guruh itu menimbulkan kecemasan dan harapan bagi manusia. Bagian terpenting dari isi surah ini ialah bahwa bimbingan Allah kepada makhluk-Nya bertalian erat dengan hukum sebab dan akibat. Bagi Allah swt tidak ada pilih kasih dalam menetapkan hukuman. Balasan atau hukuman adalah akibat dari ketaatan atau keingkaran terhadap hukum Allah.\n\nPokok-pokok Isi:\n1.  Keimanan:\nAllah yang menciptakan alam semesta dan mengaturnya; ilmu Allah meliputi segala sesuatu; adanya malaikat yang selalu memelihara manusia yang datang silih berganti, hanya Allah yang mengabulkan doa dari hamba-Nya; memberi taufik dan kesuksesan hanya hak Allah, sedang tugas para rasul menyampaikan agama Allah.\n2.  Hukum:\nManusia dilarang mendoakan yang jelek untuk dirinya; kewajiban mencegah perbuatan-perbuatan yang mungkar.\n3.  Kisah:\nKisah perjalanan dakwah para rasul dan nabi.\n4.  Lain-lain:\nBeberapa sifat yang terpuji; perumpamaan bagi orang-orang yang menyembah berhala dan orang-orang yang menyembah Allah; Allah tidak mengubah nasib suatu bangsa sehingga mereka mengubah keadaan mereka sendiri. \n",
        "outro_surah": null,
        "munasabah_prev_surah": "1. \tDalam Surah Y\u016bsuf, Allah secara umum mengemukakan tanda-tanda keesaan Allah di langit dan bumi, dan dalam Surah ar-Ra\u2018d, Allah mengemukakannya secara lebih jelas.\n2. \tKedua surah tersebut masing-masing memuat perjalanan dakwah nabi-nabi zaman dahulu beserta umatnya. Kaum yang menentang kebenaran mengalami kehancuran, sedang yang mengikuti kebenaran mendapat kemenangan.\n3. \tPada akhir Surah Y\u016bsuf diterangkan bahwa Al-Qur\u2019an itu bukanlah perkataan yang diada-adakan, melainkan petunjuk dan rahmat bagi orang yang beriman, dan keterangan ini ditegaskan kembali di awal Surah ar-Ra\u2018d.\n",
        "munasabah_prev_theme": "Ayat-ayat yang lalu telah menerangkan bahwa orang-orang yang suka mengingkari janji Allah, tidak mengakui kemahaesaan-Nya, dan meng-ingkari kenabian Muhammad saw, di dunia akan dijauhkan dari rahmat Allah, sedang di akhirat akan ditimpa azab. Selanjutnya, ayat-ayat berikut ini menjelaskan kekuasaan Allah, yaitu melapangkan rezeki bagi sebagian hamba-Nya, dan membatasi rezeki tersebut bagi sebagian yang lain, sebagaimana Allah menyesatkan orang-orang yang dikehendaki-Nya dan memberi petunjuk kepada sebagian yang lain.",
        "theme_group": "ZIKIR MENENANGKAN HATI",
        "kosakata": "Kosa kata: Ta\u1e6dma'innu \u062a\u064e\u0637\u0652\u0645\u064e\u0626\u0650\u0646\u0651\u064f (ar-Ra\u2018d/13: 28)\nSecara kebahasaan, ta\u1e6dma'innu berarti menjadi tenteram. Melalui ayat di atas, Allah swt mengingatkan, dengan berzikir (mengingat) pada Allah swt, hati akan ta\u1e6dma'innu (menjadi tenteram). Dengan demikian, tenang atau tidak tenangnya hati seorang hamba sangat tergantung sejauh mana ia mengingat Rabb-nya. ",
        "sabab_nuzul": null,
        "conclusion": null
    }
}