{
    "id": 1735,
    "surah_id": 13,
    "ayah": 28,
    "page": 252,
    "quarter_hizb": 26,
    "juz": 13,
    "manzil": 3,
    "arabic": "\u0627\u0644\u0651\u064e\u0630\u0650\u064a\u0652\u0646\u064e \u0627\u0670\u0645\u064e\u0646\u064f\u0648\u0652\u0627 \u0648\u064e\u062a\u064e\u0637\u0652\u0645\u064e\u0649\u0655\u0650\u0646\u0651\u064f \u0642\u064f\u0644\u064f\u0648\u0652\u0628\u064f\u0647\u064f\u0645\u0652 \u0628\u0650\u0630\u0650\u0643\u0652\u0631\u0650 \u0627\u0644\u0644\u0651\u0670\u0647\u0650 \u06d7 \u0627\u064e\u0644\u064e\u0627 \u0628\u0650\u0630\u0650\u0643\u0652\u0631\u0650 \u0627\u0644\u0644\u0651\u0670\u0647\u0650 \u062a\u064e\u0637\u0652\u0645\u064e\u0649\u0655\u0650\u0646\u0651\u064f \u0627\u0644\u0652\u0642\u064f\u0644\u064f\u0648\u0652\u0628\u064f \u06d7   ",
    "latin": "Al-la\u017c\u012bna \u0101man\u016b wa ta\u1e6dma'innu qul\u016bbuhum bi\u017cikrill\u0101h(i), al\u0101 bi\u017cikrill\u0101hi ta\u1e6dma'innul-qul\u016bb(u).",
    "translation": "(Yaitu) orang-orang yang beriman dan hati mereka menjadi tenteram dengan mengingat Allah. Ingatlah, bahwa hanya dengan mengingat Allah hati akan selalu tenteram.",
    "no_footnote": null,
    "footnotes": null,
    "surah": {
        "id": 13,
        "arabic": " \u0627\u0644\u0631\u0651\u0639\u062f",
        "latin": "Ar-Ra\u2018d",
        "transliteration": "Ar-Ra\u2018d",
        "translation": "Guruh",
        "num_ayah": 43,
        "page": 249,
        "location": "Makkiyah"
    },
    "tafsir": {
        "wajiz": "Mereka yang mendapat petunjuk adalah orang-orang yang beriman kepada Allah dan rasul-Nya, dan hati mereka menjadi tenang dan tenteram dengan banyak mengingat Allah. Ingatlah, bahwa hanya dengan banyak mengingat Allah hati menjadi tenteram.",
        "tahlili": "Dalam ayat ini, Allah menjelaskan orang-orang yang mendapat tuntunan-Nya, yaitu orang-orang beriman dan hatinya menjadi tenteram karena selalu mengingat Allah. Dengan mengingat Allah, hati menjadi tenteram dan jiwa menjadi tenang, tidak merasa gelisah, takut, ataupun khawatir. Mereka melakukan hal-hal yang baik, dan merasa bahagia dengan kebajikan yang dilakukannya.",
        "intro_surah": "Surah ar-Ra\u2019d ini terdiri atas 43 ayat termasuk golongan surah Makkiyah menurut Ibnu \u2018Abb\u0101s, Hasan, Ikrimah, dan lain-lain. Sedangkan Ibnu \u2018Abb\u0101s, Zubair, Muqatil, dan lain-lain menggolongkannya ke dalam kelompok surah Madaniyah.\nSurah ini dinamakan ar-Ra\u2018d yang berarti \u201cguruh\u201d atau \u201cguntur\u201d karena dalam ayat 13 Allah berfirman yang artinya \u201cDan guruh itu bertasbih sambil memuji-Nya\u201d, menunjukkan sifat kesucian dan kesempurnaan Allah swt. Juga sesuai dengan sifat Al-Qur\u2019an yang mengandung ancaman dan harapan, maka demikian pulalah halnya bunyi guruh itu menimbulkan kecemasan dan harapan bagi manusia. Bagian terpenting dari isi surah ini ialah bahwa bimbingan Allah kepada makhluk-Nya bertalian erat dengan hukum sebab dan akibat. Bagi Allah swt tidak ada pilih kasih dalam menetapkan hukuman. Balasan atau hukuman adalah akibat dari ketaatan atau keingkaran terhadap hukum Allah.\n\nPokok-pokok Isi:\n1.  Keimanan:\nAllah yang menciptakan alam semesta dan mengaturnya; ilmu Allah meliputi segala sesuatu; adanya malaikat yang selalu memelihara manusia yang datang silih berganti, hanya Allah yang mengabulkan doa dari hamba-Nya; memberi taufik dan kesuksesan hanya hak Allah, sedang tugas para rasul menyampaikan agama Allah.\n2.  Hukum:\nManusia dilarang mendoakan yang jelek untuk dirinya; kewajiban mencegah perbuatan-perbuatan yang mungkar.\n3.  Kisah:\nKisah perjalanan dakwah para rasul dan nabi.\n4.  Lain-lain:\nBeberapa sifat yang terpuji; perumpamaan bagi orang-orang yang menyembah berhala dan orang-orang yang menyembah Allah; Allah tidak mengubah nasib suatu bangsa sehingga mereka mengubah keadaan mereka sendiri. \n",
        "outro_surah": null,
        "munasabah_prev_surah": "1. \tDalam Surah Y\u016bsuf, Allah secara umum mengemukakan tanda-tanda keesaan Allah di langit dan bumi, dan dalam Surah ar-Ra\u2018d, Allah mengemukakannya secara lebih jelas.\n2. \tKedua surah tersebut masing-masing memuat perjalanan dakwah nabi-nabi zaman dahulu beserta umatnya. Kaum yang menentang kebenaran mengalami kehancuran, sedang yang mengikuti kebenaran mendapat kemenangan.\n3. \tPada akhir Surah Y\u016bsuf diterangkan bahwa Al-Qur\u2019an itu bukanlah perkataan yang diada-adakan, melainkan petunjuk dan rahmat bagi orang yang beriman, dan keterangan ini ditegaskan kembali di awal Surah ar-Ra\u2018d.\n",
        "munasabah_prev_theme": "Ayat-ayat yang lalu telah menerangkan bahwa orang-orang yang suka mengingkari janji Allah, tidak mengakui kemahaesaan-Nya, dan meng-ingkari kenabian Muhammad saw, di dunia akan dijauhkan dari rahmat Allah, sedang di akhirat akan ditimpa azab. Selanjutnya, ayat-ayat berikut ini menjelaskan kekuasaan Allah, yaitu melapangkan rezeki bagi sebagian hamba-Nya, dan membatasi rezeki tersebut bagi sebagian yang lain, sebagaimana Allah menyesatkan orang-orang yang dikehendaki-Nya dan memberi petunjuk kepada sebagian yang lain.",
        "theme_group": "ZIKIR MENENANGKAN HATI",
        "kosakata": "Kosa kata: Ta\u1e6dma'innu \u062a\u064e\u0637\u0652\u0645\u064e\u0626\u0650\u0646\u0651\u064f (ar-Ra\u2018d/13: 28)\nSecara kebahasaan, ta\u1e6dma'innu berarti menjadi tenteram. Melalui ayat di atas, Allah swt mengingatkan, dengan berzikir (mengingat) pada Allah swt, hati akan ta\u1e6dma'innu (menjadi tenteram). Dengan demikian, tenang atau tidak tenangnya hati seorang hamba sangat tergantung sejauh mana ia mengingat Rabb-nya. ",
        "sabab_nuzul": null,
        "conclusion": null
    }
}