{
    "id": 1724,
    "surah_id": 13,
    "ayah": 17,
    "page": 251,
    "quarter_hizb": 25.75,
    "juz": 13,
    "manzil": 3,
    "arabic": "\u0627\u064e\u0646\u0652\u0632\u064e\u0644\u064e \u0645\u0650\u0646\u064e \u0627\u0644\u0633\u0651\u064e\u0645\u064e\u0627\u06e4\u0621\u0650 \u0645\u064e\u0627\u06e4\u0621\u064b \u0641\u064e\u0633\u064e\u0627\u0644\u064e\u062a\u0652 \u0627\u064e\u0648\u0652\u062f\u0650\u064a\u064e\u0629\u064c \u06e2 \u0628\u0650\u0642\u064e\u062f\u064e\u0631\u0650\u0647\u064e\u0627 \u0641\u064e\u0627\u062d\u0652\u062a\u064e\u0645\u064e\u0644\u064e \u0627\u0644\u0633\u0651\u064e\u064a\u0652\u0644\u064f \u0632\u064e\u0628\u064e\u062f\u064b\u0627 \u0631\u0651\u064e\u0627\u0628\u0650\u064a\u064b\u0627 \u06d7\u0648\u064e\u0645\u0650\u0645\u0651\u064e\u0627 \u064a\u064f\u0648\u0652\u0642\u0650\u062f\u064f\u0648\u0652\u0646\u064e \u0639\u064e\u0644\u064e\u064a\u0652\u0647\u0650 \u0641\u0650\u0649 \u0627\u0644\u0646\u0651\u064e\u0627\u0631\u0650 \u0627\u0628\u0652\u062a\u0650\u063a\u064e\u0627\u06e4\u0621\u064e \u062d\u0650\u0644\u0652\u064a\u064e\u0629\u064d \u0627\u064e\u0648\u0652 \u0645\u064e\u062a\u064e\u0627\u0639\u064d \u0632\u064e\u0628\u064e\u062f\u064c \u0645\u0651\u0650\u062b\u0652\u0644\u064f\u0647\u0657  \u06d7 \u0643\u064e\u0630\u0670\u0644\u0650\u0643\u064e \u064a\u064e\u0636\u0652\u0631\u0650\u0628\u064f \u0627\u0644\u0644\u0651\u0670\u0647\u064f \u0627\u0644\u0652\u062d\u064e\u0642\u0651\u064e \u0648\u064e\u0627\u0644\u0652\u0628\u064e\u0627\u0637\u0650\u0644\u064e \u06d5\u06d7 \u0641\u064e\u0627\u064e\u0645\u0651\u064e\u0627 \u0627\u0644\u0632\u0651\u064e\u0628\u064e\u062f\u064f \u0641\u064e\u064a\u064e\u0630\u0652\u0647\u064e\u0628\u064f \u062c\u064f\u0641\u064e\u0627\u06e4\u0621\u064b \u06da\u0648\u064e\u0627\u064e\u0645\u0651\u064e\u0627 \u0645\u064e\u0627 \u064a\u064e\u0646\u0652\u0641\u064e\u0639\u064f \u0627\u0644\u0646\u0651\u064e\u0627\u0633\u064e \u0641\u064e\u064a\u064e\u0645\u0652\u0643\u064f\u062b\u064f \u0641\u0650\u0649 \u0627\u0644\u0652\u0627\u064e\u0631\u0652\u0636\u0650\u06d7  \u0643\u064e\u0630\u0670\u0644\u0650\u0643\u064e \u064a\u064e\u0636\u0652\u0631\u0650\u0628\u064f \u0627\u0644\u0644\u0651\u0670\u0647\u064f \u0627\u0644\u0652\u0627\u064e\u0645\u0652\u062b\u064e\u0627\u0644\u064e \u06d7",
    "latin": "Anzala minas-sam\u0101'i m\u0101'an fa s\u0101lat audiyatum biqadarih\u0101 fa\u1e25tamalas-sailu zabadar r\u0101biy\u0101(n), wa mimm\u0101 y\u016bqid\u016bna \u2018alaihi fin-n\u0101ribtig\u0101'a \u1e25ilyatin au mat\u0101\u2018in zabadum mi\u1e61luh(\u016b), ka\u017c\u0101lika ya\u1e0dribull\u0101hul-\u1e25aqqa wal-b\u0101\u1e6dil(a), fa ammaz-zabadu fa ya\u017chabu juf\u0101'\u0101(n), wa amm\u0101 m\u0101 yanfa\u2018un-n\u0101sa fa yamku\u1e61u fil-ar\u1e0d(i), ka\u017c\u0101lika ya\u1e0dribull\u0101hul-am\u1e61\u0101l(a).",
    "translation": "Dia telah menurunkan air dari langit, lalu mengalirlah air itu di lembah-lembah sesuai dengan ukurannya. Arus itu membawa buih yang mengambang. Dari apa (logam) yang mereka lebur dalam api untuk membuat perhiasan atau alat-alat, ada (pula) buih seperti (buih arus) itu. Demikianlah Allah membuat perumpamaan tentang hak dan batil. Buih akan hilang tidak berguna, sedangkan yang bermanfaat bagi manusia akan menetap di dalam bumi. Demikianlah Allah membuat perumpamaan.",
    "no_footnote": null,
    "footnotes": null,
    "surah": {
        "id": 13,
        "arabic": " \u0627\u0644\u0631\u0651\u0639\u062f",
        "latin": "Ar-Ra\u2018d",
        "transliteration": "Ar-Ra\u2018d",
        "translation": "Guruh",
        "num_ayah": 43,
        "page": 249,
        "location": "Makkiyah"
    },
    "tafsir": {
        "wajiz": "Ayat berikut merinci kekuasaan Allah yang tidak dimiliki oleh berhala sesembahan orang-orang musyrik Mekah. Allah telah menurunkan dalam bentuk curahan air hujan dari langit, maka mengalirlah ia, yakni air hujan yang dicurahkan itu, di lembah-lembah menurut ukurannya, maka arus itu membawa buih yang mengambang. Dan dari apa (logam) yang mereka lebur dalam api untuk membuat perhiasan atau alat-alat yang beraneka ragam, ada pula buihnya seperti buih arus itu. Demikianlah Allah membuat perumpamaan tentang mana yang benar dan mana yang batil. Adapun buih, lambang dari kebatilan, akan hilang sebagai sesuatu yang tidak ada gunanya; tetapi kebenaran adalah sesuatu yang bermanfaat bagi manusia, dan manfaat itu akan tetap ada di bumi. Demikianlah Allah membuat perumpamaan bagi orang-orang yang mau berpikir.",
        "tahlili": "Allah menurunkan air hujan dari langit yang mengandung awan, lalu mengalirkan air hujan itu ke berbagai lembah yang lebar dan yang sempit sesuai dengan ukurannya. Kajian saintis menjelaskan bahwa lembah-lembah umumnya terbentuk oleh gerusan air. Air pertama-tama menggerus bagian-bagian batuan yang paling lunak dan kemudian membentuk aliran sungai. Alur aliran sungai ini lambat laun membesar membentuk lembah-lembah sungai. Ukuran lembah-lembah sungai umumnya selain dipengaruhi oleh besarnya aliran air yang juga ditentukan oleh besarnya curah hujan, kekerasan batuan dan umur batuan.  Dalam bidang geomorfologi dikenal besaran kerapatan sungai, yaitu jumlah panjang sungai yang terdapat pada satu luasan daerah dengan satuan km/km2. Besarnya kerapatan sungai umumnya menggambarkan besarnya curah hujan di daerah tersebut. \nArus air itu akan menimbulkan banyak buih di permukaannya yang merupakan gumpalan buih yang ikut bergerak dengan arus air, sehingga bila ada angin kencang yang bertiup, maka buih itu akan segera lenyap dari pandangan mata. Menurut kajian saintifik, buih adalah zat mengambang di atas air yang mengandung banyak udara. Terjadinya buih merupakan bagian dari proses pemurnian air yang terjadi secara alami dalam pengalirannya (dikenal dengan istilah self purification). Pemurnian ini terjadi karena adanya pencampuran dengan udara yang melarut ke dalam air terutama oksigen. Dengan adanya oksidasi, pengotor (umumya senyawa organik) yang terlarut di dalam air mengurai dan bagian yang ringan mengapung di atas permukaan air, sedangkan bagian yang berat akan tenggelam dan mengendap. Inilah perumpamaan yang pertama yang dikemukakan oleh Allah swt tentang kebenaran dan kebatilan serta tentang keimanan dan kekafiran.\nBuih juga bisa terbentuk dalam proses pemurnian logam dengan pemanasan. Bijih logam di alam umumnya ditemukan dalam bahan padat yang tidak murni. Pada proses peleburan, bijih mencair, dan logam-logam yang berat akan tenggelam sedangkan bagian yang kurang bermanfaat atau yang dapat merusak mutu hasil biasanya berupa buih dan akan mengapung ke permukaan bersama udara yang terkandung di dalamnya. Logam tersebut dibuat untuk perhiasan dan alat-alat keperluan rumah tangga, pertanian, pertukangan, dan perindustrian. Inilah perumpamaan yang kedua. \nDemikianlah Allah membuat perumpamaan bagi yang benar dan yang batil. Kebenaran dan kebatilan itu bila bercampur, seperti arus air yang bercampur dengan buih, atau seperti logam yang dibakar yang sama-sama juga mengeluarkan buih berupa kotoran karat yang semula melekat pada logam itu, kemudian terpisah karena pengaruh api yang membakarnya. Maka sebagaimana buih yang berada di atas arus air akan lenyap setelah ada tiupan angin, dan buih yang berada di atas logam yang sedang dibakar akan hilang pula karena api, demikian pula perkara yang batil akan hilang musnah bilamana datang hak dan kebenaran yang jelas. \nBuih itu akan hilang tersangkut di pinggir lembah dan pohon atau ditiup angin. Demikian pula kotoran atau karat yang semula melekat pada logam akan habis terbakar. Yang tinggal hanya yang memberi manfaat saja kepada manusia, yaitu air, yang dapat diminum, digunakan untuk mengairi tanaman yang bermanfaat bagi manusia dan binatang, emas yang digunakan untuk perhiasan, dan logam-logam lainnya untuk alat rumah tangga, pertanian, dan sebagainya.\nDari kedua perumpamaan itu dapat diambil pengertian bahwa Allah swt telah menurunkan Al-Qur\u2019an kepada Nabi Muhammad saw kemudian disampaikan ke dalam hati manusia yang masing-masing tidak sama potensi dan persiapannya untuk menerima. Masing-masing mempunyai keterbatasan dalam hal bacaan, pengertian, hafalan, dan pengamalannya. Ayat Al-Qur\u2019an menjadi unsur kehidupan kerohanian dan kebahagiaan hidup sebagaimana air menjadi sebab hidup semua makhluk.\nDi antara tanah yang ditimpa hujan itu ada yang tandus, tidak dapat menumbuhkan tanam-tanaman, hanya sekedar menyimpan air saja, yang dapat dijadikan sumber penampungan air jernih. Ada pula tanah yang subur yang setelah disiram dengan air hujan dapat menghasilkan bermacam-macam hasil bumi. Itulah air yang bermanfaat bagi manusia dan binatang-binatang. Di antara logam yang dilebur dalam api seperti emas, perak, tembaga, perunggu, dan timah, ada yang dijadikan alat rumah tangga, pertukangan, perindustrian dan sebagainya. Orang mukmin diumpamakan seperti air dan logam yang bermanfaat bagi manusia dan binatang. Buih yang semula bercampur kemudian lenyap karena tiupan angin atau habis dibakar oleh api, adalah perumpamaan bagi kekafiran dan kebatilan yang akhirnya hancur bila berhadapan dengan hak dan kebenaran, firman Allah:\n\u0648\u064e\u0642\u064f\u0644\u0652 \u062c\u064e\u0627\u06e4\u0621\u064e \u0627\u0644\u0652\u062d\u064e\u0642\u0651\u064f \u0648\u064e\u0632\u064e\u0647\u064e\u0642\u064e \u0627\u0644\u0652\u0628\u064e\u0627\u0637\u0650\u0644\u064f \u06d6\u0627\u0650\u0646\u0651\u064e \u0627\u0644\u0652\u0628\u064e\u0627\u0637\u0650\u0644\u064e \u0643\u064e\u0627\u0646\u064e \u0632\u064e\u0647\u064f\u0648\u0652\u0642\u064b\u0627 \u0668\u0661 (\u0627\u0644\u0627\u0633\u0631\u0627\u06e4\u0621)\nDan katakanlah, \u201dKebenaran telah datang dan yang batil telah lenyap.\u201d Sungguh, yang batil itu pasti lenyap. (al-Isr\u0101'/17: 81)\nDemikianlah Allah membuat perumpamaan yang indah yang dapat menjelaskan kepada manusia apa yang masih dipandang sulit oleh mereka tentang masalah-masalah agamanya, agar jelas perbedaan antara yang hak dan yang batil, antara keimanan dan kekafiran, sehingga mereka dapat menempuh jalan petunjuk kepada kebahagiaan dan menghindari jalan yang dimurkai Allah dan menyesatkan.\nDengan memperhatikan perumpamaan-perumpamaan yang tepat dan baik itu niscaya umat Islam akan menjadi umat terbaik yang dikeluarkan di muka bumi untuk jadi teladan bagi umat yang lain. Al-Bukh\u0101r\u012b dan Muslim meriwayatkan hadis dari Abu Musa Al-Asy\u2018ar\u012b:\n\n\u0625\u0650\u0646\u0651\u064e \u0645\u064e\u062b\u064e\u0644\u064e \u0645\u064e\u0627 \u0628\u064e\u0639\u064e\u062b\u064e\u0646\u0650\u064a\u064e \u0627\u0644\u0644\u0651\u0670\u0647\u064f \u0645\u0650\u0646\u064e \u0627\u0644\u0652\u0647\u064f\u062f\u064e\u0649 \u0648\u064e\u0627\u0644\u0652\u0639\u0650\u0644\u0652\u0645\u0650 \u0643\u064e\u0645\u064e\u062b\u064e\u0644\u0650 \u063a\u064e\u064a\u0652\u062b\u064d \u0623\u064e\u0635\u064e\u0627\u0628\u064e \u0623\u064e\u0631\u0652\u0636\u064b\u0627 \u0641\u064e\u0643\u064e\u0627\u0646\u064e \u0645\u0650\u0646\u0652\u0647\u064e\u0627 \u0637\u064e\u0627\u0626\u0650\u0641\u064e\u0629\u064c \u0642\u064e\u0628\u0650\u0644\u064e\u062a\u0650 \u0627\u0644\u0652\u0645\u064e\u0627\u0621\u064e \u0641\u064e\u0623\u064e\u0646\u0652\u0628\u064e\u062a\u064e\u062a\u0650 \u0627\u0644\u0652\u0643\u064e\u0644\u064e\u0623\u064e \u0648\u064e\u0627\u0644\u0652\u0639\u064f\u0634\u0652\u0628\u064e \u0648\u064e\u0643\u064e\u0627\u0646\u064e\u062a\u0652 \u0645\u0650\u0646\u0652\u0647\u064e\u0627 \u0623\u064e\u062c\u064e\u0627\u062f\u0650\u0628\u064f \u0623\u064e\u0645\u0652\u0633\u064e\u0643\u064e\u062a\u0650 \u0627\u0644\u0652\u0645\u064e\u0627\u0621\u064e \u0641\u064e\u0646\u064e\u0641\u064e\u0639\u064e \u0627\u0644\u0644\u0651\u0670\u0647\u064f  \u0628\u0650\u0647\u064e\u0627 \u0627\u0644\u0646\u0651\u064e\u0627\u0633\u064e \u0641\u064e\u0634\u064e\u0631\u0650\u0628\u064f\u0648\u0652\u0627 \u0648\u064e\u0631\u064e\u0639\u064e\u0648\u0652\u0627 \u0648\u064e\u0633\u064e\u0642\u064e\u0648\u0652\u0627 \u0648\u064e\u0632\u064e\u0631\u064e\u0639\u064f\u0648\u0652\u0627. \u0648\u064e\u0627\u064e\u0635\u064e\u0627\u0628\u064e\u062a\u0652 \u0637\u064e\u0627\u0626\u0650\u0641\u064e\u0629\u064c \u0645\u0650\u0646\u0652\u0647\u064e\u0627 \u0623\u064f\u062e\u0652\u0631\u064e\u0649 \u0625\u0650\u0646\u0651\u064e\u0645\u064e\u0627 \u0647\u0650\u064a\u064e \u0642\u0650\u064a\u0652\u0639\u064e\u0627\u0646\u064c \u0644\u0627\u064e \u062a\u064f\u0645\u0652\u0633\u0650\u0643\u064f \u0645\u064e\u0627\u0621\u064b \u0648\u064e\u0644\u0627\u064e \u062a\u064f\u0646\u0652\u0628\u0650\u062a\u064f \u0643\u064e\u0644\u064e\u0623\u064b \u0641\u064e\u0630\u064e\u0644\u0650\u0643\u064e \u0645\u064e\u062b\u064e\u0644\u064f \u0645\u064e\u0646\u0652 \u0641\u064e\u0642\u064e\u0647\u064e \u0641\u0650\u064a\u0652 \u062f\u0650\u064a\u0652\u0646\u0650 \u0627\u0644\u0644\u0651\u0670\u0647\u0650 \u0648\u064e\u0646\u064e\u0641\u064e\u0639\u064e\u0647\u064f \u0627\u0644\u0644\u0651\u0670\u0647\u064f  \u0628\u0650\u0645\u064e\u0627 \u0628\u064e\u0639\u064e\u062b\u064e\u0646\u0650\u0649 \u0628\u0650\u0647\u0650 \u0648\u064e\u0646\u064e\u0641\u064e\u0639\u064e \u0627\u0644\u0646\u0651\u064e\u0627\u0633\u064e \u0641\u064e\u0639\u064e\u0644\u0650\u0645\u064e \u0648\u064e\u0639\u064e\u0644\u0651\u064e\u0645\u064e. \u0648\u064e\u0645\u064e\u062b\u064e\u0644\u064f \u0645\u064e\u0646\u0652 \u0644\u0645\u064e \u0652\u064a\u064e\u0631\u0652\u0641\u064e\u0639\u0652 \u0628\u0650\u0630\u064e\u0644\u0650\u0643\u064e \u0631\u064e\u0623\u0652\u0633\u064b\u0627 \u0648\u064e\u0644\u0645\u064e \u0652\u064a\u064e\u0642\u0652\u0628\u064e\u0644\u0652 \u0647\u064f\u062f\u064e\u0649 \u0627\u0644\u0644\u0651\u0670\u0647\u0650 \u0627\u0644\u0651\u064e\u0630\u0650\u0649 \u0623\u064f\u0631\u0652\u0633\u0650\u0644\u0652\u062a\u064f \u0628\u0650\u0647\u0650.\nSesungguhnya perumpamaan petunjuk dan ilmu yang Allah mengutus diriku, adalah seperti air hujan yang menimpa bumi. Di antaranya ada sebagian bumi yang menerima air itu, lalu menumbuhkan rumput dan tanam-tanaman. Ada pula tanah yang tandus, hanya menyimpan air saja, lalu Allah memberikan manfaat air itu kepada manusia. Maka ada yang meminumnya dan mempergunakannya untuk mengairi kebun-kebun tanamannya dan ladang-ladangnya. Ada pula sebagian tanah yang keras, tidak dapat menyimpan dan menyerap air, sehingga tidak menumbuhkan tanaman apa-apa. Itulah perumpamaan orang yang memahami agama Allah dan Allah memberikan manfaat kepadanya dalam ajaran agama yang Allah mengutusku untuk menyampaikannya kepada manusia, sehingga ia mengetahui dan mengajarkannya (kepada orang lain), dan perumpamaan orang yang sama sekali tidak memperhatikan dan tidak menerima petunjuk Allah yang mengutusku untuk menyampaikannya. (Riwayat al-Bukh\u0101r\u012b dan Muslim)\n\nDiriwayatkan pula oleh Imam A\u1e25mad dari Abu Hurairah:\n\n\u0645\u064e\u062b\u064e\u0644\u0650\u0649\u0652 \u0648\u064e\u0645\u064e\u062b\u064e\u0644\u064f\u0643\u064f\u0645\u0652 \u0643\u064e\u0645\u064e\u062b\u064e\u0644\u0650 \u0631\u064e\u062c\u064f\u0644\u064d \u0627\u0650\u0633\u0652\u062a\u064e\u0648\u0652\u0642\u064e\u062f\u064e \u0646\u064e\u0627\u0631\u064b\u0627 \u0641\u064e\u0644\u064e\u0645\u0651\u064e\u0627 \u0627\u064e\u0636\u064e\u0627\u0621\u064e\u062a\u0652 \u0645\u064e\u0627 \u062d\u064e\u0648\u0652\u0644\u064e\u0647\u064e\u0627 \u062c\u064e\u0639\u064e\u0644\u064e \u0627\u0644\u0652\u0641\u064e\u0631\u064e\u0627\u0634\u064f \u0648\u064e\u0647\u064e\u0630\u0650\u0647\u0650 \u0627\u0644\u062f\u0651\u064e\u0648\u064e\u0627\u0628\u0651\u064f \u0627\u0644\u0651\u064e\u062a\u0650\u0649 \u064a\u064e\u0642\u064e\u0639\u0652\u0646\u064e \u0641\u0650\u0649 \u0627\u0644\u0646\u0651\u064e\u0627\u0631\u0650 \u064a\u064e\u0642\u064e\u0639\u0652\u0646\u064e \u0641\u0650\u064a\u0652\u0647\u064e\u0627 \u0648\u064e\u062c\u064e\u0639\u064e\u0644\u064e \u064a\u064e\u062d\u0652\u062c\u064f\u0632\u064f\u0647\u064f\u0646\u0651\u064e \u0648\u064e\u064a\u064e\u063a\u0652\u0644\u0650\u0628\u0652\u0646\u064e\u0647\u064f \u0641\u064e\u064a\u064e\u0642\u0652\u062a\u064e\u062d\u0650\u0645\u0652\u0646\u064e \u0641\u0650\u064a\u0652\u0647\u064e\u0627 \u0641\u064e\u0630\u064e\u0644\u0650\u0643\u064e \u0645\u064e\u062b\u064e\u0644\u0650\u0649\u0652 \u0648\u064e\u0645\u064e\u062b\u064e\u0644\u064f\u0643\u064f\u0645\u0652 \u0627\u064e\u0646\u064e\u0627 \u0622\u062e\u0650\u0630\u064c \u0628\u0650\u062d\u064f\u062c\u064e\u0632\u0650\u0643\u064f\u0645\u0652 \u0639\u064e\u0646\u0650 \u0627\u0644\u0646\u0651\u064e\u0627\u0631\u0650\u060c \u0647\u064e\u0644\u064f\u0645\u0651\u064e \u0639\u064e\u0646\u0650 \u0627\u0644\u0646\u0651\u064e\u0627\u0631\u0650 \u0641\u064e\u062a\u064e\u063a\u0652\u0644\u0650\u0628\u064f\u0648\u0652\u0646\u0650\u0649 \u0641\u064e\u062a\u064e\u0642\u0652\u062a\u064e\u062d\u0650\u0645\u064f\u0648\u0652\u0646\u064e \u0641\u0650\u064a\u0652\u0647\u064e\u0627. (\u0631\u0648\u0627\u0647 \u0623\u062d\u0645\u062f \u0648\u0627\u0644\u0634\u064a\u062e\u0627\u0646 \u0639\u0646 \u0623\u0628\u0649 \u0647\u0631\u064a\u0631\u0629)\n\nPerumpamaanku denganmu seperti orang menyalakan api, ketika api menerangi tempat sekelilingnya, mulailah kupu-kupu dan serangga yang mendatangi berjatuhan ke dalam api, dan orang itu menghalangi, namun dikalahkan oleh serangga-serangga lalu masuklah serangga-serangga itu ke dalam api. Itulah perumpamaanku denganmu. Aku menghalangimu dari api, jauhilah api itu, namun kamu mengalahkanku dan menerobos masuk ke dalamnya. (Riwayat A\u1e25mad, al-Bukh\u0101r\u012b, dan Muslim dari Abu Hurairah)\n",
        "intro_surah": "Surah ar-Ra\u2019d ini terdiri atas 43 ayat termasuk golongan surah Makkiyah menurut Ibnu \u2018Abb\u0101s, Hasan, Ikrimah, dan lain-lain. Sedangkan Ibnu \u2018Abb\u0101s, Zubair, Muqatil, dan lain-lain menggolongkannya ke dalam kelompok surah Madaniyah.\nSurah ini dinamakan ar-Ra\u2018d yang berarti \u201cguruh\u201d atau \u201cguntur\u201d karena dalam ayat 13 Allah berfirman yang artinya \u201cDan guruh itu bertasbih sambil memuji-Nya\u201d, menunjukkan sifat kesucian dan kesempurnaan Allah swt. Juga sesuai dengan sifat Al-Qur\u2019an yang mengandung ancaman dan harapan, maka demikian pulalah halnya bunyi guruh itu menimbulkan kecemasan dan harapan bagi manusia. Bagian terpenting dari isi surah ini ialah bahwa bimbingan Allah kepada makhluk-Nya bertalian erat dengan hukum sebab dan akibat. Bagi Allah swt tidak ada pilih kasih dalam menetapkan hukuman. Balasan atau hukuman adalah akibat dari ketaatan atau keingkaran terhadap hukum Allah.\n\nPokok-pokok Isi:\n1.  Keimanan:\nAllah yang menciptakan alam semesta dan mengaturnya; ilmu Allah meliputi segala sesuatu; adanya malaikat yang selalu memelihara manusia yang datang silih berganti, hanya Allah yang mengabulkan doa dari hamba-Nya; memberi taufik dan kesuksesan hanya hak Allah, sedang tugas para rasul menyampaikan agama Allah.\n2.  Hukum:\nManusia dilarang mendoakan yang jelek untuk dirinya; kewajiban mencegah perbuatan-perbuatan yang mungkar.\n3.  Kisah:\nKisah perjalanan dakwah para rasul dan nabi.\n4.  Lain-lain:\nBeberapa sifat yang terpuji; perumpamaan bagi orang-orang yang menyembah berhala dan orang-orang yang menyembah Allah; Allah tidak mengubah nasib suatu bangsa sehingga mereka mengubah keadaan mereka sendiri. \n",
        "outro_surah": null,
        "munasabah_prev_surah": "1. \tDalam Surah Y\u016bsuf, Allah secara umum mengemukakan tanda-tanda keesaan Allah di langit dan bumi, dan dalam Surah ar-Ra\u2018d, Allah mengemukakannya secara lebih jelas.\n2. \tKedua surah tersebut masing-masing memuat perjalanan dakwah nabi-nabi zaman dahulu beserta umatnya. Kaum yang menentang kebenaran mengalami kehancuran, sedang yang mengikuti kebenaran mendapat kemenangan.\n3. \tPada akhir Surah Y\u016bsuf diterangkan bahwa Al-Qur\u2019an itu bukanlah perkataan yang diada-adakan, melainkan petunjuk dan rahmat bagi orang yang beriman, dan keterangan ini ditegaskan kembali di awal Surah ar-Ra\u2018d.\n",
        "munasabah_prev_theme": "Pada ayat-ayat sebelum ini, Allah swt menerangkan perbedaan antara yang melihat dengan yang buta, sebagai perumpamaan antara orang mukmin dengan orang kafir, dan perbedaan antara terang benderang dengan gelap gulita sebagai perumpamaan antara keimanan dengan kekafiran. Pada ayat-ayat berikut ini, Allah mengadakan perumpamaan tentang kebenaran yang kekal dan kebatilan yang fana, menerangkan kesudahan bagi setiap orang yang bahagia karena melaksanakan perintah Allah dan celaka karena menentang perintah-Nya, dan balasan yang disediakan bagi mereka masing-masing pada hari kiamat. Orang yang mengerti perumpamaan ini termasuk orang yang cerdas pikirannya dan selamat hatinya.",
        "theme_group": "PERUMPAMAAN YANG HAK DAN YANG BATIL",
        "kosakata": "Kosakata: Juf\u0101' \u062c\u064f\u0641\u064e\u0627\u0621 (ar-Ra\u2018d/13: 17)\nSecara kebahasaan, juf\u0101'a berarti tidak ada harganya. Melalui ungkapan juf\u0101'an dalam ayat di atas, Allah swt ingin menjelaskan bahwa Diri-Nya telah membuat kebenaran dan kebatilan di atas muka bumi. Kebatilan itu ibarat buih yang pada saatnya akan hilang sebagai juf\u0101'an (sesuatu yang tidak ada harganya). Sedang kebenaran yang mendatangkan kemanfaatan bagi kehidupan manusia akan selalu memiliki makna dan akan bertahan di muka bumi. ",
        "sabab_nuzul": null,
        "conclusion": null
    }
}