{
    "id": 1794,
    "surah_id": 14,
    "ayah": 44,
    "page": 261,
    "quarter_hizb": 26.75,
    "juz": 13,
    "manzil": 3,
    "arabic": "\u0648\u064e\u0627\u064e\u0646\u0652\u0630\u0650\u0631\u0650 \u0627\u0644\u0646\u0651\u064e\u0627\u0633\u064e \u064a\u064e\u0648\u0652\u0645\u064e \u064a\u064e\u0623\u0652\u062a\u0650\u064a\u0652\u0647\u0650\u0645\u064f \u0627\u0644\u0652\u0639\u064e\u0630\u064e\u0627\u0628\u064f\u06d9 \u0641\u064e\u064a\u064e\u0642\u064f\u0648\u0652\u0644\u064f \u0627\u0644\u0651\u064e\u0630\u0650\u064a\u0652\u0646\u064e \u0638\u064e\u0644\u064e\u0645\u064f\u0648\u0652\u0627 \u0631\u064e\u0628\u0651\u064e\u0646\u064e\u0627\u0653 \u0627\u064e\u062e\u0651\u0650\u0631\u0652\u0646\u064e\u0627\u0653 \u0627\u0650\u0644\u0670\u0653\u0649 \u0627\u064e\u062c\u064e\u0644\u064d \u0642\u064e\u0631\u0650\u064a\u0652\u0628\u064d\u06d9 \u0646\u0651\u064f\u062c\u0650\u0628\u0652 \u062f\u064e\u0639\u0652\u0648\u064e\u062a\u064e\u0643\u064e \u0648\u064e\u0646\u064e\u062a\u0651\u064e\u0628\u0650\u0639\u0650 \u0627\u0644\u0631\u0651\u064f\u0633\u064f\u0644\u064e\u06d7 \u0627\u064e\u0648\u064e\u0644\u064e\u0645\u0652 \u062a\u064e\u0643\u064f\u0648\u0652\u0646\u064f\u0648\u0652\u0653\u0627 \u0627\u064e\u0642\u0652\u0633\u064e\u0645\u0652\u062a\u064f\u0645\u0652 \u0645\u0651\u0650\u0646\u0652 \u0642\u064e\u0628\u0652\u0644\u064f \u0645\u064e\u0627 \u0644\u064e\u0643\u064f\u0645\u0652 \u0645\u0651\u0650\u0646\u0652 \u0632\u064e\u0648\u064e\u0627\u0644\u064d\u06d9  ",
    "latin": "Wa an\u017cirin-n\u0101sa yauma ya't\u012bhimul-\u2018a\u017c\u0101b(u), fa yaq\u016blul-la\u017c\u012bna \u1e93alam\u016b rabban\u0101 akhkhirn\u0101 il\u0101 ajalin qar\u012bb(in), nujib da\u2018wataka wa nattabi\u2018ir-rusul(a), awalam tak\u016bn\u016b aqsamtum min qablu m\u0101 lakum min zaw\u0101l(in).",
    "translation": "Berikanlah (Nabi Muhammad) peringatan kepada manusia tentang hari (ketika) azab datang kepada mereka. Maka, (ketika itu) orang-orang yang zalim berkata, \u201cYa Tuhan kami, tangguhkanlah (azab) kami (dan kembalikanlah kami ke dunia) walaupun sebentar, niscaya kami akan mematuhi seruan-Mu dan akan mengikuti rasul-rasul.\u201d (Kepada mereka dikatakan,) \u201cBukankah dahulu (di dunia) kamu telah bersumpah bahwa sekali-kali kamu tidak akan beralih (dari kehidupan dunia ke akhirat)?",
    "no_footnote": null,
    "footnotes": null,
    "surah": {
        "id": 14,
        "arabic": " \u0627\u0628\u0631\u0670\u0647\u064a\u0645",
        "latin": "Ibr\u0101h\u012bm",
        "transliteration": "Ibrahim",
        "translation": "Ibrahim",
        "num_ayah": 52,
        "page": 255,
        "location": "Makkiyah"
    },
    "tafsir": {
        "wajiz": "Dan berikanlah peringatan, wahai Nabi Muhammad, kepada semua manusia bahwa pada hari ketika azab datang kepada mereka yang durhaka, maka orang yang zalim dan durhaka itu berkata, \u201cYa Tuhan kami, berilah kami kesempatan untuk kembali ke dunia, walaupun hanya sebentar, niscaya kami akan mematuhi seruan Engkau yang dulu kami ingkari, dan kami akan mengikuti petunjuk rasul-rasul-Mu.\u201d Kepada mereka lalu dikatakan, \u201cBukankah dahulu di dunia kamu dengan penuh kesombongan telah bersumpah bahwa sekali-kalikamu tidak akan merasakan ke-binasa-an?",
        "tahlili": "Pada ayat ini, Allah swt memerintahkan agar memberi peringatan kepada orang-orang yang zalim dan orang-orang musyrik Mekah, yaitu tentang keluhan dan rintihan yang keluar dari mulut mereka ketika azab menimpa mereka di akhirat nanti sambil memohon, \u201cWahai Tuhan kami, berikanlah kepada kami kesempatan yang lain lagi, walaupun beberapa saat saja untuk menaati seruan-Mu dan mengikuti ajaran rasul-Mu dengan mengembalikan kami ke dunia. Jika kesempatan itu benar-benar diberikan kepada kami pasti kami akan mengikuti perintah-Mu dan menghentikan larangan-Mu, kami benar-benar akan memurnikan ketaatan kepada-Mu saja, kami tidak akan menyekutukan-Mu lagi wahai Tuhan kami.\u201d\n\tPermohonan mereka dijawab Allah swt dengan firman-Nya:\n\u0648\u064e\u0627\u064e\u0642\u0652\u0633\u064e\u0645\u064f\u0648\u0652\u0627 \u0628\u0650\u0627\u0644\u0644\u0651\u0670\u0647\u0650 \u062c\u064e\u0647\u0652\u062f\u064e \u0627\u064e\u064a\u0652\u0645\u064e\u0627\u0646\u0650\u0647\u0650\u0645\u0652\u06d9 \u0644\u064e\u0627 \u064a\u064e\u0628\u0652\u0639\u064e\u062b\u064f \u0627\u0644\u0644\u0651\u0670\u0647\u064f \u0645\u064e\u0646\u0652 \u064a\u0651\u064e\u0645\u064f\u0648\u0652\u062a\u064f\u06d7 \u0628\u064e\u0644\u0670\u0649 \u0648\u064e\u0639\u0652\u062f\u064b\u0627 \u0639\u064e\u0644\u064e\u064a\u0652\u0647\u0650 \u062d\u064e\u0642\u0651\u064b\u0627 \u0648\u0651\u064e\u0644\u0670\u0643\u0650\u0646\u0651\u064e \u0627\u064e\u0643\u0652\u062b\u064e\u0631\u064e \u0627\u0644\u0646\u0651\u064e\u0627\u0633\u0650 \u0644\u064e\u0627 \u064a\u064e\u0639\u0652\u0644\u064e\u0645\u064f\u0648\u0652\u0646\u064e\u06d9 \u0663\u0668 (\u0627\u0644\u0646\u062d\u0644)\nDan mereka bersumpah dengan (nama) Allah dengan sumpah yang sungguh-sungguh, \u201dAllah tidak akan membangkitkan orang yang mati.\u201d Tidak demikian (pasti Allah akan membangkitkannya), sebagai suatu janji yang benar dari-Nya, tetapi kebanyakan manusia tidak mengetahui. (an-Na\u1e25l/16: 38)\n\tMenurut riwayat al-Baihaq\u012b dari Muhammad bin Ka\u2018ab Al-Qura\u1e93i, ia berkata, \u201cPenghuni neraka berdoa kepada Allah lima kali. Empat kali dijawab Allah sedang doa yang kelima dijawab Allah dengan perintah agar mereka tidak berkata lagi dan agar tetap mendekam di dalam neraka.\u201d\n\tDoa-doa itu tersebut dalam firman Allah sebagai berikut :\n\u0642\u064e\u0627\u0644\u064f\u0648\u0652\u0627 \u0631\u064e\u0628\u0651\u064e\u0646\u064e\u0627\u0653 \u0627\u064e\u0645\u064e\u062a\u0651\u064e\u0646\u064e\u0627 \u0627\u062b\u0652\u0646\u064e\u062a\u064e\u064a\u0652\u0646\u0650 \u0648\u064e\u0627\u064e\u062d\u0652\u064a\u064e\u064a\u0652\u062a\u064e\u0646\u064e\u0627 \u0627\u062b\u0652\u0646\u064e\u062a\u064e\u064a\u0652\u0646\u0650 \u0641\u064e\u0627\u0639\u0652\u062a\u064e\u0631\u064e\u0641\u0652\u0646\u064e\u0627 \u0628\u0650\u0630\u064f\u0646\u064f\u0648\u0652\u0628\u0650\u0646\u064e\u0627 \u0641\u064e\u0647\u064e\u0644\u0652 \u0627\u0650\u0644\u0670\u0649 \u062e\u064f\u0631\u064f\u0648\u0652\u062c\u064d \u0645\u0651\u0650\u0646\u0652 \u0633\u064e\u0628\u0650\u064a\u0652\u0644\u064d \u0661\u0661 (\u063a\u0627\u0641\u0631)\nMereka menjawab, \u201dYa Tuhan kami, Engkau telah mematikan kami dua kali dan telah menghidupkan kami dua kali (pula), lalu kami mengakui dosa-dosa kami. Maka adakah jalan (bagi kami) untuk keluar (dari neraka)?\u201d (G\u0101fir/40: 11)\n\nPermintaan ini dijawab Allah swt dengan firman-Nya:\n\u0630\u0670\u0644\u0650\u0643\u064f\u0645\u0652 \u0628\u0650\u0627\u064e\u0646\u0651\u064e\u0647\u0657\u0653 \u0627\u0650\u0630\u064e\u0627 \u062f\u064f\u0639\u0650\u064a\u064e \u0627\u0644\u0644\u0651\u0670\u0647\u064f \u0648\u064e\u062d\u0652\u062f\u064e\u0647\u0657 \u0643\u064e\u0641\u064e\u0631\u0652\u062a\u064f\u0645\u0652\u06da \u0648\u064e\u0627\u0650\u0646\u0652 \u064a\u0651\u064f\u0634\u0652\u0631\u064e\u0643\u0652 \u0628\u0650\u0647\u0656 \u062a\u064f\u0624\u0652\u0645\u0650\u0646\u064f\u0648\u0652\u0627 \u06d7\u0641\u064e\u0627\u0644\u0652\u062d\u064f\u0643\u0652\u0645\u064f \u0644\u0650\u0644\u0651\u0670\u0647\u0650 \u0627\u0644\u0652\u0639\u064e\u0644\u0650\u064a\u0651\u0650 \u0627\u0644\u0652\u0643\u064e\u0628\u0650\u064a\u0652\u0631\u0650 \u0661\u0662 (\u063a\u0627\u0641\u0631)\nYang demikian itu karena sesungguhnya kamu mengingkari apabila diseru untuk menyembah Allah saja. Dan jika Allah dipersekutukan, kamu percaya. Maka keputusan (sekarang ini) adalah pada Allah Yang Mahatinggi, Mahabesar. (G\u0101fir/40:12)\n\n\tDoa penghuni neraka yang kedua ialah sebagaimana firman Allah swt:\n\u0648\u064e\u0644\u064e\u0648\u0652 \u062a\u064e\u0631\u0670\u0649\u0653 \u0627\u0650\u0630\u0650 \u0627\u0644\u0652\u0645\u064f\u062c\u0652\u0631\u0650\u0645\u064f\u0648\u0652\u0646\u064e \u0646\u064e\u0627\u0643\u0650\u0633\u064f\u0648\u0652\u0627 \u0631\u064f\u0621\u064f\u0648\u0652\u0633\u0650\u0647\u0650\u0645\u0652 \u0639\u0650\u0646\u0652\u062f\u064e \u0631\u064e\u0628\u0651\u0650\u0647\u0650\u0645\u0652\u06d7 \u0631\u064e\u0628\u0651\u064e\u0646\u064e\u0627\u0653 \u0627\u064e\u0628\u0652\u0635\u064e\u0631\u0652\u0646\u064e\u0627 \u0648\u064e\u0633\u064e\u0645\u0650\u0639\u0652\u0646\u064e\u0627 \u0641\u064e\u0627\u0631\u0652\u062c\u0650\u0639\u0652\u0646\u064e\u0627 \u0646\u064e\u0639\u0652\u0645\u064e\u0644\u0652 \u0635\u064e\u0627\u0644\u0650\u062d\u064b\u0627 \u0627\u0650\u0646\u0651\u064e\u0627 \u0645\u064f\u0648\u0652\u0642\u0650\u0646\u064f\u0648\u0652\u0646\u064e \u0661\u0662 (\u0627\u0644\u0633\u0651\u062c\u062f\u0629)\nDan (alangkah ngerinya), jika sekiranya kamu melihat orang-orang yang berdosa itu menundukkan kepalanya di hadapan Tuhannya, (mereka berkata), \u201dYa Tuhan kami, kami telah melihat dan mendengar, maka kembalikanlah kami (ke dunia), niscaya kami akan mengerjakan kebajikan. Sungguh, kami adalah orang-orang yang yakin.\u201d (As-Sajdah/32:12)\n\nPermintaan mereka ini dijawab Allah swt dalam firman-Nya:\n\u0641\u064e\u0630\u064f\u0648\u0652\u0642\u064f\u0648\u0652\u0627 \u0628\u0650\u0645\u064e\u0627 \u0646\u064e\u0633\u0650\u064a\u0652\u062a\u064f\u0645\u0652 \u0644\u0650\u0642\u064e\u0627\u06e4\u0621\u064e \u064a\u064e\u0648\u0652\u0645\u0650\u0643\u064f\u0645\u0652 \u0647\u0670\u0630\u064e\u0627\u06da \u0627\u0650\u0646\u0651\u064e\u0627 \u0646\u064e\u0633\u0650\u064a\u0652\u0646\u0670\u0643\u064f\u0645\u0652 \u0648\u064e\u0630\u064f\u0648\u0652\u0642\u064f\u0648\u0652\u0627 \u0639\u064e\u0630\u064e\u0627\u0628\u064e \u0627\u0644\u0652\u062e\u064f\u0644\u0652\u062f\u0650 \u0628\u0650\u0645\u064e\u0627 \u0643\u064f\u0646\u0652\u062a\u064f\u0645\u0652 \u062a\u064e\u0639\u0652\u0645\u064e\u0644\u064f\u0648\u0652\u0646\u064e \u0661\u0664 (\u0627\u0644\u0633\u0651\u062c\u062f\u0629)\nMaka rasakanlah olehmu (azab ini) disebabkan kamu melalaikan pertemuan dengan harimu ini (hari Kiamat), sesungguhnya Kami pun melalaikan kamu dan rasakanlah azab yang kekal, atas apa yang telah kamu kerjakan.\u201d (as-Sajdah/32: 14)\n\n\tDoa penghuni neraka kali yang ketiga ialah sebagaimana tersebut dalam firman Allah swt:\n\u0641\u064e\u064a\u064e\u0642\u064f\u0648\u0652\u0644\u064f \u0627\u0644\u0651\u064e\u0630\u0650\u064a\u0652\u0646\u064e \u0638\u064e\u0644\u064e\u0645\u064f\u0648\u0652\u0627 \u0631\u064e\u0628\u0651\u064e\u0646\u064e\u0627\u0653 \u0627\u064e\u062e\u0651\u0650\u0631\u0652\u0646\u064e\u0627\u0653 \u0627\u0650\u0644\u0670\u0653\u0649 \u0627\u064e\u062c\u064e\u0644\u064d \u0642\u064e\u0631\u0650\u064a\u0652\u0628\u064d\u06d9 \u0646\u0651\u064f\u062c\u0650\u0628\u0652 \u062f\u064e\u0639\u0652\u0648\u064e\u062a\u064e\u0643\u064e \u0648\u064e\u0646\u064e\u062a\u0651\u064e\u0628\u0650\u0639\u0650 \u0627\u0644\u0631\u0651\u064f\u0633\u064f\u0644\u064e\u06d7 \n\u2026maka orang yang zalim berkata, \u201dYa Tuhan kami, berilah kami kesempatan (kembali ke dunia) walaupun sebentar, niscaya kami akan mematuhi seruan Engkau dan akan mengikuti rasul-rasul\u2026.\u201d (Ibr\u0101h\u012bm/14: 44)\n\nPermintaan mereka ini dijawab oleh Allah swt dalam firman-Nya:\n\u0627\u064e\u0648\u064e\u0644\u064e\u0645\u0652 \u062a\u064e\u0643\u064f\u0648\u0652\u0646\u064f\u0648\u0652\u0653\u0627 \u0627\u064e\u0642\u0652\u0633\u064e\u0645\u0652\u062a\u064f\u0645\u0652 \u0645\u0651\u0650\u0646\u0652 \u0642\u064e\u0628\u0652\u0644\u064f \u0645\u064e\u0627 \u0644\u064e\u0643\u064f\u0645\u0652 \u0645\u0650\u0651\u0646\u0652 \u0632\u064e\u0648\u064e\u0627\u0644\u064d\u06d9 \n(Kepada mereka dikatakan), \u201dBukankah dahulu (di dunia) kamu telah bersumpah bahwa sekali-kali kamu tidak akan binasa? (Ibr\u0101h\u012bm/14: 44)\n\n\tDoa penghuni neraka kali yang keempat ialah sebagaimana firman Allah swt:\n\u0648\u064e\u0647\u064f\u0645\u0652 \u064a\u064e\u0635\u0652\u0637\u064e\u0631\u0650\u062e\u064f\u0648\u0652\u0646\u064e \u0641\u0650\u064a\u0652\u0647\u064e\u0627\u06da \u0631\u064e\u0628\u0651\u064e\u0646\u064e\u0627\u0653 \u0627\u064e\u062e\u0652\u0631\u0650\u062c\u0652\u0646\u064e\u0627 \u0646\u064e\u0639\u0652\u0645\u064e\u0644\u0652 \u0635\u064e\u0627\u0644\u0650\u062d\u064b\u0627 \u063a\u064e\u064a\u0652\u0631\u064e \u0627\u0644\u0651\u064e\u0630\u0650\u064a\u0652 \u0643\u064f\u0646\u0651\u064e\u0627 \u0646\u064e\u0639\u0652\u0645\u064e\u0644\u064f\u06d7 \nDan mereka berteriak di dalam neraka itu, \u201dYa Tuhan kami, keluarkanlah kami (dari neraka), niscaya kami akan mengerjakan kebajikan, yang berlainan dengan yang telah kami kerjakan dahulu.\u201d (F\u0101\u1e6dir/35: 37)\n\nAllah swt menjawab permintaan mereka dalam firman-Nya:\n\u0627\u064e\u0648\u064e\u0644\u064e\u0645\u0652 \u0646\u064f\u0639\u064e\u0645\u0651\u0650\u0631\u0652\u0643\u064f\u0645\u0652 \u0645\u0651\u064e\u0627 \u064a\u064e\u062a\u064e\u0630\u064e\u0643\u0651\u064e\u0631\u064f \u0641\u0650\u064a\u0652\u0647\u0650 \u0645\u064e\u0646\u0652 \u062a\u064e\u0630\u064e\u0643\u0651\u064e\u0631\u064e \u0648\u064e\u062c\u064e\u0627\u06e4\u0621\u064e\u0643\u064f\u0645\u064f \u0627\u0644\u0646\u0651\u064e\u0630\u0650\u064a\u0652\u0631\u064f\u06d7 \u0641\u064e\u0630\u064f\u0648\u0652\u0642\u064f\u0648\u0652\u0627 \u0641\u064e\u0645\u064e\u0627 \u0644\u0650\u0644\u0638\u0651\u0670\u0644\u0650\u0645\u0650\u064a\u0652\u0646\u064e \u0645\u0650\u0646\u0652 \u0646\u0651\u064e\u0635\u0650\u064a\u0652\u0631\u064d \nBukankah Kami telah memanjangkan umurmu untuk dapat berpikir bagi orang yang mau berpikir, padahal telah datang kepadamu seorang pemberi peringatan? Maka rasakanlah (azab Kami), dan bagi orang-orang zalim tidak ada seorang penolong pun. (F\u0101\u1e6dir/35: 37)\n\nDan penghuni neraka berdoa sebagai yang tersebut dalam firman-Nya:\n\u0631\u064e\u0628\u0651\u064e\u0646\u064e\u0627\u0653 \u0627\u064e\u062e\u0652\u0631\u0650\u062c\u0652\u0646\u064e\u0627 \u0645\u0650\u0646\u0652\u0647\u064e\u0627 \u0641\u064e\u0627\u0650\u0646\u0652 \u0639\u064f\u062f\u0652\u0646\u064e\u0627 \u0641\u064e\u0627\u0650\u0646\u0651\u064e\u0627 \u0638\u0670\u0644\u0650\u0645\u064f\u0648\u0652\u0646\u064e \u0661\u0660\u0667 (\u0627\u0644\u0645\u0624\u0645\u0646\u0648\u0646)\nYa Tuhan kami, keluarkanlah kami darinya (kembalikanlah kami ke dunia), jika kami masih juga kembali (kepada kekafiran), sungguh, kami adalah orang-orang yang zalim.\u201d (al-Mu'min\u016bn/23: 107)\n\nAkhirnya Allah swt menjawab dengan tegas:\n\u0642\u064e\u0627\u0644\u064e \u0627\u062e\u0652\u0633\u064e\u0640\u0654\u064f\u0648\u0652\u0627 \u0641\u0650\u064a\u0652\u0647\u064e\u0627 \u0648\u064e\u0644\u064e\u0627 \u062a\u064f\u0643\u064e\u0644\u0651\u0650\u0645\u064f\u0648\u0652\u0646\u0650 \u0661\u0660\u0668 (\u0627\u0644\u0645\u0624\u0645\u0646\u0648\u0646)\nDia (Allah) berfirman, \u201dTinggallah dengan hina di dalamnya, dan janganlah kamu berbicara dengan Aku.\u201d (al-Mu'min\u016bn/23: 108)\n\n\tSetelah jawaban Allah swt yang kelima, maka mulut penghuni neraka terbungkam, tidak ada lagi doa, selain dari jeritan yang keluar dari mulut mereka, karena sangat berat azab neraka yang menimpa mereka.",
        "intro_surah": "Surah Ibr\u0101h\u012bm terdiri atas 52 ayat, termasuk golongan surah-surah Makkiyah, karena diturunkan di Mekah sebelum Hijrah. Dinamakan Surah Ibr\u0101h\u012bm karena surah ini mengandung kisah doa Nabi Ibrahim a.s., yaitu pada ayat 51. Doa ini isinya antara lain: permohonan agar keturunannya kelak adalah orang-orang yang mendirikan salat, dijauhkan dari penyembah-an berhala-berhala, dan agar Mekah dan daerah sekitarnya menjadi daerah yang aman dan makmur. Doa Nabi Ibrahim ini telah diperkenankan Allah swt sebagaimana terbukti sejak dahulu sampai sekarang. Doa tersebut dipanjatkan beliau ke hadirat Allah swt sesudah selesai merenovasi Ka\u2019bah bersama putranya Ismail a.s. di padang pasir Mekah yang tandus.\n\nPokok-pokok Isinya\n1.\tKeimanan:\nAl-Qur\u2019an  adalah pembimbing manusia ke jalan Allah; segala sesuatu di alam ini kepunyaan Allah; keingkaran manusia terhadap Allah tidak mengurangi kemahakuasaan-Nya; nabi-nabi memiliki mukjizat atas izin Allah semata; Allah kuasa mematikan manusia dan membangkitkannya kembali dalam bentuk baru; ilmu Allah meliputi yang lahir dan yang batin.\n2.\tHukum:\nPerintah mendirikan salat dan menafkahkan harta baik secara sembunyi-sembunyi maupun secara terang-terangan.\n3.\tKisah:\nKisah Nabi Musa a.s. dengan kaumnya dan kisah beberapa rasul lainnya.\n4.\tLain-lain:\nSebab rasul-rasul diutus untuk kaumnya sendiri; perumpamaan tentang perbuatan dan perkataan yang hak dan yang batil; kejadian langit dan bumi mengandung hikmah-hikmah; macam-macam nikmat Allah kepada manusia dan janji Allah terhadap hamba-hamba yang mensyukuri-Nya.",
        "outro_surah": null,
        "munasabah_prev_surah": "MUNASABAH SURAH AR-RA\u2018D\nDENGAN SURAH IBR\u0100H\u012aM\n\n1. \tDalam Surah ar-Ra\u2018d disebutkan bahwa Al-Qur\u2019an  diturunkan dalam bahasa Arab, sebagai pemisah antara yang hak dengan yang batil, sedangkan hikmah menurunkan Al-Qur\u2019an dalam bahasa Arab itu belum dijelaskan dalam surah ini. Surah Ibr\u0101h\u012bm menjelaskan hikmahnya itu.\n2. \tDalam Surah ar-Ra\u2018d, Allah mengatakan bahwa seorang rasul tidak akan dapat memiliki mukjizat, kecuali dengan izin Allah. Dalam Surah Ibr\u0101h\u012bm, para rasul itu menjelaskan dan menegaskan bahwa mereka adalah manusia biasa, tidak bisa mendatangkan mukjizat kecuali dengan izin Allah.\n3. \tDalam Surah ar-Ra\u2018d disebutkan bahwa Nabi Muhammad saw menyerukan agar manusia bertawakal kepada Allah swt. Dalam Surah Ibr\u0101h\u012bm, Nabi Muhammad saw menerangkan bahwa para rasul ber-tawakal hanya kepada Allah swt. \n4. \tDalam Surah ar-Ra\u2018d Allah menyebutkan berbagai perbuatan makar orang-orang kafir, maka dalam Surah Ibr\u0101h\u012bm disebutkan kembali sifat-sifat mereka yang tidak disebut dalam Surah ar-Ra\u2018d.",
        "munasabah_prev_theme": "Pada ayat-ayat yang lalu, Allah swt telah menerangkan tentang doa Nabi Ibrahim yang dikabulkan Allah di kemudian hari, yaitu yang berkaitan dengan kota Mekah dan keistimewaannya, tentang banyaknya orang yang sesat, dan dia memohon agar dijaga dari kesesatan, serta memohon ampunan pada hari Kiamat. Ayat-ayat berikut ini merupakan penawar hati Rasulullah dan kaum Muslimin serta ancaman keras bagi orang-orang yang zalim. Allah swt tidak pernah lengah atau lalai terhadap semua tindakan mereka. Penangguhan azab bagi mereka bukanlah berarti bahwa Allah swt mempe-ringatkan Nabi Muhammad saw bahwa Dia sekali-kali tidak akan menyalahi janji yang telah diberikan-Nya kepada para nabi dan rasul. Semua janjinya pasti ditepati dan kaum Muslimin pasti mencapai apa yang dicita-citakannya.",
        "theme_group": "ORANG ZALIM PASTI MENDAPAT AZAB\n",
        "kosakata": "Kosakata: Muh\u1e6di\u2018\u012bn \u0645\u064f\u0647\u0652\u0637\u0650\u0639\u0650\u064a\u0652\u0646\u064e (Ibr\u0101h\u012bm/14: 43)\nMuh\u1e6di\u2018\u012bn, terulang sebanyak tiga kali dalam Al-Qur\u2019an, yaitu dalam ayat ini, Surah al-Qamar/54: 8, dan dalam Surah al-Ma\u2018\u0101rij/70: 36. Kata tersebut merupakan isim sifat, dari ah\u1e6da\u2018a \u2013 yuh\u1e6di\u2018u \u2013 ih\u1e6d\u0101\u2018an. Para ulama berbeda pendapat dalam memberi arti kata tersebut. Pertama, al-ih\u1e6d\u0101\u2019 artinya melihat dengan tidak berkedip, dengan terbelalak. Ini pendapat Mujahid, al-ahhak, dan Abu al-\u016bha. Kedua, artinya tergesa-gesa, misalnya: ah\u1e6da\u2019 al-ba\u2019ir fi sairihi, artinya: unta itu tergesa-gesa jalannya. Ini pendapat al-\u1e24asan, Said bin Jubair, Qatadah, dan Abu Ubaidah. Ketiga, artinya tidak mengangkat kepala. Dalam kaitan ayat ini, muh\u1e6di\u2018\u012bn tampaknya lebih sesuai dengan pendapat yang pertama, yakni mereka para orang zalim itu akan terbelalak mata mereka dan tidak berkedip. Pilihan tersebut berdasar pada qarinah (indikator) yang terdapat dalam ayat, la yartaddu ilaihim \u1e6darfuhum (mata mereka tidak berkedip).",
        "sabab_nuzul": null,
        "conclusion": null
    }
}