{
    "id": 1800,
    "surah_id": 14,
    "ayah": 50,
    "page": 261,
    "quarter_hizb": 26.75,
    "juz": 13,
    "manzil": 3,
    "arabic": "\u0633\u064e\u0631\u064e\u0627\u0628\u0650\u064a\u0652\u0644\u064f\u0647\u064f\u0645\u0652 \u0645\u0651\u0650\u0646\u0652 \u0642\u064e\u0637\u0650\u0631\u064e\u0627\u0646\u064d \u0648\u0651\u064e\u062a\u064e\u063a\u0652\u0634\u0670\u0649 \u0648\u064f\u062c\u064f\u0648\u0652\u0647\u064e\u0647\u064f\u0645\u064f \u0627\u0644\u0646\u0651\u064e\u0627\u0631\u064f\u06d9  ",
    "latin": "Sar\u0101b\u012bluhum min qa\u1e6dir\u0101niw wa tagsy\u0101 wuj\u016bhahumun-n\u0101r(u).",
    "translation": "Pakaian mereka dari cairan (seperti aspal) dan wajah mereka ditutup oleh api neraka.",
    "no_footnote": null,
    "footnotes": null,
    "surah": {
        "id": 14,
        "arabic": " \u0627\u0628\u0631\u0670\u0647\u064a\u0645",
        "latin": "Ibr\u0101h\u012bm",
        "transliteration": "Ibrahim",
        "translation": "Ibrahim",
        "num_ayah": 52,
        "page": 255,
        "location": "Makkiyah"
    },
    "tafsir": {
        "wajiz": "Pakaian mereka terbuat dari cairan aspal yang mempercepat pembakaran, dan wajah mereka ditutup oleh kobaran api neraka yang menyala-nyala.",
        "tahlili": "Ayat-ayat ini menerangkan keadaan manusia waktu dibangkitkan dari kubur setelah kehancuran dunia. Mereka bangkit dari kubur menuju dan berhenti di hadapan Allah Yang Maha Perkasa untuk menerima keputusan hukuman. Pada hari itu, tidak ada teman akrab yang dapat membantu dan menolong, tidak ada anak dan famili yang dapat menghibur hati dari perasaan gundah yang sedang terasa dan tidak seorangpun yang dapat berlindung diri kepada seseorang pun, kecuali kepada Tuhan Yang Mahakuasa.\n\tSetelah Allah swt menggambarkan kekuasaan dan keperkasaan-Nya pada hari itu, Dia menggambarkan kelemahan dan ketidakberdayaan orang-orang yang berdosa waktu itu dengan menerangkan keadaan mereka yang sedang diazab, yaitu:\n1. \tOrang yang berdosa waktu itu diikat menjadi satu dengan yang lain, mulai dari tangan sampai ke kaki mereka bersama-sama dengan sesembahan mereka waktu hidup di dunia. Keadaan mereka ini menunjukkan kesamaan sikap dan tindakan mereka sewaktu hidup di dunia. Karena sama-sama kafir kepada Allah, maka sepantasnya mereka sama-sama mendapat azab pula, sebagaimana diterangkan dalam firman-Nya:\n\u0641\u064e\u0643\u064f\u0628\u0652\u0643\u0650\u0628\u064f\u0648\u0652\u0627 \u0641\u0650\u064a\u0652\u0647\u064e\u0627 \u0647\u064f\u0645\u0652 \u0648\u064e\u0627\u0644\u0652\u063a\u064e\u0627\u0648\u0657\u0646\u064e \u06d9 \u0669\u0664 \u0648\u064e\u062c\u064f\u0646\u064f\u0648\u0652\u062f\u064f \u0627\u0650\u0628\u0652\u0644\u0650\u064a\u0652\u0633\u064e \u0627\u064e\u062c\u0652\u0645\u064e\u0639\u064f\u0648\u0652\u0646\u064e \u06d7 \u0669\u0665 (\u0627\u0644\u0634\u0639\u0631\u0627\u06e4\u0621)\nMaka mereka (sesembahan itu) dijungkirkan ke dalam neraka bersama orang-orang yang sesat, dan bala tentara Iblis semuanya. (asy-Syu\u2018ar\u0101/26: 94-95)\n2. \tMereka memakai pakaian yang terbuat dari aspal. Yang dimaksud oleh ayat ini bukanlah pakaian dalam arti yang sebenarnya, tetapi seluruh tubuh orang-orang yang berdosa waktu itu diliputi oleh aspal panas. Dengan demikian, dapat digambarkan empat macam azab yang sedang diderita oleh orang-orang kafir itu, yaitu aspal panas yang membakar dan menghanguskan tubuh, bergejolaklah api di tubuh, warna hitam yang mengerikan, dan bau daging yang membusuk.\n3. \tMuka mereka dijilat api. Senada dengan ayat ini, firman Allah swt:\n\u064a\u064e\u0648\u0652\u0645\u064e \u064a\u064f\u0633\u0652\u062d\u064e\u0628\u064f\u0648\u0652\u0646\u064e \u0641\u0650\u0649 \u0627\u0644\u0646\u0651\u064e\u0627\u0631\u0650 \u0639\u064e\u0644\u0670\u0649 \u0648\u064f\u062c\u064f\u0648\u0652\u0647\u0650\u0647\u0650\u0645\u0652\u06d7 \u0630\u064f\u0648\u0652\u0642\u064f\u0648\u0652\u0627 \u0645\u064e\u0633\u0651\u064e \u0633\u064e\u0642\u064e\u0631\u064e \u0664\u0668 (\u0627\u0644\u0642\u0645\u0631)\nPada hari mereka diseret ke neraka pada wajahnya. (Dikatakan kepada mereka), \u201cRasakanlah sentuhan api neraka.\u201d (al-Qamar/54: 48)",
        "intro_surah": "Surah Ibr\u0101h\u012bm terdiri atas 52 ayat, termasuk golongan surah-surah Makkiyah, karena diturunkan di Mekah sebelum Hijrah. Dinamakan Surah Ibr\u0101h\u012bm karena surah ini mengandung kisah doa Nabi Ibrahim a.s., yaitu pada ayat 51. Doa ini isinya antara lain: permohonan agar keturunannya kelak adalah orang-orang yang mendirikan salat, dijauhkan dari penyembah-an berhala-berhala, dan agar Mekah dan daerah sekitarnya menjadi daerah yang aman dan makmur. Doa Nabi Ibrahim ini telah diperkenankan Allah swt sebagaimana terbukti sejak dahulu sampai sekarang. Doa tersebut dipanjatkan beliau ke hadirat Allah swt sesudah selesai merenovasi Ka\u2019bah bersama putranya Ismail a.s. di padang pasir Mekah yang tandus.\n\nPokok-pokok Isinya\n1.\tKeimanan:\nAl-Qur\u2019an  adalah pembimbing manusia ke jalan Allah; segala sesuatu di alam ini kepunyaan Allah; keingkaran manusia terhadap Allah tidak mengurangi kemahakuasaan-Nya; nabi-nabi memiliki mukjizat atas izin Allah semata; Allah kuasa mematikan manusia dan membangkitkannya kembali dalam bentuk baru; ilmu Allah meliputi yang lahir dan yang batin.\n2.\tHukum:\nPerintah mendirikan salat dan menafkahkan harta baik secara sembunyi-sembunyi maupun secara terang-terangan.\n3.\tKisah:\nKisah Nabi Musa a.s. dengan kaumnya dan kisah beberapa rasul lainnya.\n4.\tLain-lain:\nSebab rasul-rasul diutus untuk kaumnya sendiri; perumpamaan tentang perbuatan dan perkataan yang hak dan yang batil; kejadian langit dan bumi mengandung hikmah-hikmah; macam-macam nikmat Allah kepada manusia dan janji Allah terhadap hamba-hamba yang mensyukuri-Nya.",
        "outro_surah": null,
        "munasabah_prev_surah": "MUNASABAH SURAH AR-RA\u2018D\nDENGAN SURAH IBR\u0100H\u012aM\n\n1. \tDalam Surah ar-Ra\u2018d disebutkan bahwa Al-Qur\u2019an  diturunkan dalam bahasa Arab, sebagai pemisah antara yang hak dengan yang batil, sedangkan hikmah menurunkan Al-Qur\u2019an dalam bahasa Arab itu belum dijelaskan dalam surah ini. Surah Ibr\u0101h\u012bm menjelaskan hikmahnya itu.\n2. \tDalam Surah ar-Ra\u2018d, Allah mengatakan bahwa seorang rasul tidak akan dapat memiliki mukjizat, kecuali dengan izin Allah. Dalam Surah Ibr\u0101h\u012bm, para rasul itu menjelaskan dan menegaskan bahwa mereka adalah manusia biasa, tidak bisa mendatangkan mukjizat kecuali dengan izin Allah.\n3. \tDalam Surah ar-Ra\u2018d disebutkan bahwa Nabi Muhammad saw menyerukan agar manusia bertawakal kepada Allah swt. Dalam Surah Ibr\u0101h\u012bm, Nabi Muhammad saw menerangkan bahwa para rasul ber-tawakal hanya kepada Allah swt. \n4. \tDalam Surah ar-Ra\u2018d Allah menyebutkan berbagai perbuatan makar orang-orang kafir, maka dalam Surah Ibr\u0101h\u012bm disebutkan kembali sifat-sifat mereka yang tidak disebut dalam Surah ar-Ra\u2018d.",
        "munasabah_prev_theme": "Pada ayat-ayat yang terdahulu, Allah swt menerangkan bahwa Dia tidak lengah sedikit pun terhadap tindakan orang-orang yang zalim itu. Mereka dibiarkan Allah bertindak demikian sampai kepada waktu yang ditentukan. Jika sudah sampai, Allah akan menimpakan azab yang sangat keras kepada mereka dan tidak akan diberi ampun. Pada ayat-ayat berikut, Allah menegaskan lagi ancaman-Nya bahwa segala macam usaha dan tipu daya orang-orang kafir untuk menggagalkan usaha Nabi Muhammad saw menyiarkan agamanya, pasti akan dibalas dan dihancurkan, sehingga mereka tidak dapat mencapai keinginannya.",
        "theme_group": "TIPU DAYA ORANG KAFIR PASTI GAGAL",
        "kosakata": "Kosakata: Al-A\u1e63f\u0101d \u0627\u0644\u0623\u064e\u0635\u0652\u0641\u064e\u0627\u062f (Ibr\u0101h\u012bm/14: 49)\nKata al-a\u1e63f\u0101d dalam Al-Qur\u2019an disebutkan dua kali, masing-masing dalam rangkaian kalimat yang sangat mirip. Pertama dalam ayat ini, dan kedua dalam Surah \u1e62\u0101d/38: 38. Surah \u1e62\u0101d/38: 38 menyebut kata al-a\u1e63f\u0101d dalam kaitan adanya setan yang terikat dalam belenggu, sedangkan dalam ayat 49 Surah Ibr\u0101h\u012bm, kata al-a\u1e63f\u0101d muncul untuk menegaskan bahwa pada hari kiamat dapat dilihat orang-orang yang berdosa secara bersama diikat dengan belenggu. Tentang kata al-a\u1e63f\u0101d, terdapat tiga macam pendapat. Pertama, menurut pendapat Ibnu \u2018Abb\u0101s, Ibnu Zaid, Abu Ubaidah, Ibn Qutaibah, al-Zajjaj, dan Ibn al-Anbari, bahwa yang dimaksud dengannya adalah belenggu (al-agl\u0101l). Kedua, menurut Imam Qatadah, maksudnya adalah rantai pengikat dan belenggu (al-quyud wa al-agl\u0101l). Ketiga, menurut Abu Sulaiman al-Dimasyqi, maksudnya adalah rantai pengikat (al-quyud), wall\u0101hu a\u2018lam bi al-\u1e63aw\u0101b.",
        "sabab_nuzul": null,
        "conclusion": null
    }
}