{
    "id": 1801,
    "surah_id": 14,
    "ayah": 51,
    "page": 261,
    "quarter_hizb": 26.75,
    "juz": 13,
    "manzil": 3,
    "arabic": "\u0644\u0650\u064a\u064e\u062c\u0652\u0632\u0650\u064a\u064e \u0627\u0644\u0644\u0651\u0670\u0647\u064f \u0643\u064f\u0644\u0651\u064e \u0646\u064e\u0641\u0652\u0633\u064d \u0645\u0651\u064e\u0627 \u0643\u064e\u0633\u064e\u0628\u064e\u062a\u0652\u06d7 \u0627\u0650\u0646\u0651\u064e \u0627\u0644\u0644\u0651\u0670\u0647\u064e \u0633\u064e\u0631\u0650\u064a\u0652\u0639\u064f \u0627\u0644\u0652\u062d\u0650\u0633\u064e\u0627\u0628\u0650 ",
    "latin": "Liyajziyall\u0101hu kulla nafsim m\u0101 kasabat, innall\u0101ha sar\u012b\u2018ul-\u1e25is\u0101b(i).",
    "translation": "(Demikian itu) agar Allah memberi balasan kepada setiap orang atas apa yang dia usahakan. Sesungguhnya Allah Maha Cepat perhitungan(-Nya).",
    "no_footnote": null,
    "footnotes": null,
    "surah": {
        "id": 14,
        "arabic": " \u0627\u0628\u0631\u0670\u0647\u064a\u0645",
        "latin": "Ibr\u0101h\u012bm",
        "transliteration": "Ibrahim",
        "translation": "Ibrahim",
        "num_ayah": 52,
        "page": 255,
        "location": "Makkiyah"
    },
    "tafsir": {
        "wajiz": "Itu semua dilakukan agar Allah terbukti memberi balasan kepada setiap orang durhaka terhadap apa yang telah dia usahakan di dunia. Sungguh, Allah Mahacepat perhitungan-Nya, Mahatepat, dan Mahaadil.",
        "tahlili": "Allah swt melakukan yang demikian itu pada hari kiamat adalah untuk memberi pembalasan kepada manusia terhadap apa yang pernah mereka kerjakan selama hidup di dunia. Mereka memperoleh pahala atau siksa neraka sesuai dengan perbuatan yang telah mereka lakukan. Pada hari itu, Allah swt menghisab dengan cepat hamba-Nya.",
        "intro_surah": "Surah Ibr\u0101h\u012bm terdiri atas 52 ayat, termasuk golongan surah-surah Makkiyah, karena diturunkan di Mekah sebelum Hijrah. Dinamakan Surah Ibr\u0101h\u012bm karena surah ini mengandung kisah doa Nabi Ibrahim a.s., yaitu pada ayat 51. Doa ini isinya antara lain: permohonan agar keturunannya kelak adalah orang-orang yang mendirikan salat, dijauhkan dari penyembah-an berhala-berhala, dan agar Mekah dan daerah sekitarnya menjadi daerah yang aman dan makmur. Doa Nabi Ibrahim ini telah diperkenankan Allah swt sebagaimana terbukti sejak dahulu sampai sekarang. Doa tersebut dipanjatkan beliau ke hadirat Allah swt sesudah selesai merenovasi Ka\u2019bah bersama putranya Ismail a.s. di padang pasir Mekah yang tandus.\n\nPokok-pokok Isinya\n1.\tKeimanan:\nAl-Qur\u2019an  adalah pembimbing manusia ke jalan Allah; segala sesuatu di alam ini kepunyaan Allah; keingkaran manusia terhadap Allah tidak mengurangi kemahakuasaan-Nya; nabi-nabi memiliki mukjizat atas izin Allah semata; Allah kuasa mematikan manusia dan membangkitkannya kembali dalam bentuk baru; ilmu Allah meliputi yang lahir dan yang batin.\n2.\tHukum:\nPerintah mendirikan salat dan menafkahkan harta baik secara sembunyi-sembunyi maupun secara terang-terangan.\n3.\tKisah:\nKisah Nabi Musa a.s. dengan kaumnya dan kisah beberapa rasul lainnya.\n4.\tLain-lain:\nSebab rasul-rasul diutus untuk kaumnya sendiri; perumpamaan tentang perbuatan dan perkataan yang hak dan yang batil; kejadian langit dan bumi mengandung hikmah-hikmah; macam-macam nikmat Allah kepada manusia dan janji Allah terhadap hamba-hamba yang mensyukuri-Nya.",
        "outro_surah": null,
        "munasabah_prev_surah": "MUNASABAH SURAH AR-RA\u2018D\nDENGAN SURAH IBR\u0100H\u012aM\n\n1. \tDalam Surah ar-Ra\u2018d disebutkan bahwa Al-Qur\u2019an  diturunkan dalam bahasa Arab, sebagai pemisah antara yang hak dengan yang batil, sedangkan hikmah menurunkan Al-Qur\u2019an dalam bahasa Arab itu belum dijelaskan dalam surah ini. Surah Ibr\u0101h\u012bm menjelaskan hikmahnya itu.\n2. \tDalam Surah ar-Ra\u2018d, Allah mengatakan bahwa seorang rasul tidak akan dapat memiliki mukjizat, kecuali dengan izin Allah. Dalam Surah Ibr\u0101h\u012bm, para rasul itu menjelaskan dan menegaskan bahwa mereka adalah manusia biasa, tidak bisa mendatangkan mukjizat kecuali dengan izin Allah.\n3. \tDalam Surah ar-Ra\u2018d disebutkan bahwa Nabi Muhammad saw menyerukan agar manusia bertawakal kepada Allah swt. Dalam Surah Ibr\u0101h\u012bm, Nabi Muhammad saw menerangkan bahwa para rasul ber-tawakal hanya kepada Allah swt. \n4. \tDalam Surah ar-Ra\u2018d Allah menyebutkan berbagai perbuatan makar orang-orang kafir, maka dalam Surah Ibr\u0101h\u012bm disebutkan kembali sifat-sifat mereka yang tidak disebut dalam Surah ar-Ra\u2018d.",
        "munasabah_prev_theme": "Pada ayat-ayat yang terdahulu, Allah swt menerangkan bahwa Dia tidak lengah sedikit pun terhadap tindakan orang-orang yang zalim itu. Mereka dibiarkan Allah bertindak demikian sampai kepada waktu yang ditentukan. Jika sudah sampai, Allah akan menimpakan azab yang sangat keras kepada mereka dan tidak akan diberi ampun. Pada ayat-ayat berikut, Allah menegaskan lagi ancaman-Nya bahwa segala macam usaha dan tipu daya orang-orang kafir untuk menggagalkan usaha Nabi Muhammad saw menyiarkan agamanya, pasti akan dibalas dan dihancurkan, sehingga mereka tidak dapat mencapai keinginannya.",
        "theme_group": "TIPU DAYA ORANG KAFIR PASTI GAGAL",
        "kosakata": "Kosakata: Al-A\u1e63f\u0101d \u0627\u0644\u0623\u064e\u0635\u0652\u0641\u064e\u0627\u062f (Ibr\u0101h\u012bm/14: 49)\nKata al-a\u1e63f\u0101d dalam Al-Qur\u2019an disebutkan dua kali, masing-masing dalam rangkaian kalimat yang sangat mirip. Pertama dalam ayat ini, dan kedua dalam Surah \u1e62\u0101d/38: 38. Surah \u1e62\u0101d/38: 38 menyebut kata al-a\u1e63f\u0101d dalam kaitan adanya setan yang terikat dalam belenggu, sedangkan dalam ayat 49 Surah Ibr\u0101h\u012bm, kata al-a\u1e63f\u0101d muncul untuk menegaskan bahwa pada hari kiamat dapat dilihat orang-orang yang berdosa secara bersama diikat dengan belenggu. Tentang kata al-a\u1e63f\u0101d, terdapat tiga macam pendapat. Pertama, menurut pendapat Ibnu \u2018Abb\u0101s, Ibnu Zaid, Abu Ubaidah, Ibn Qutaibah, al-Zajjaj, dan Ibn al-Anbari, bahwa yang dimaksud dengannya adalah belenggu (al-agl\u0101l). Kedua, menurut Imam Qatadah, maksudnya adalah rantai pengikat dan belenggu (al-quyud wa al-agl\u0101l). Ketiga, menurut Abu Sulaiman al-Dimasyqi, maksudnya adalah rantai pengikat (al-quyud), wall\u0101hu a\u2018lam bi al-\u1e63aw\u0101b.",
        "sabab_nuzul": null,
        "conclusion": null
    }
}