{
    "id": 1772,
    "surah_id": 14,
    "ayah": 22,
    "page": 258,
    "quarter_hizb": 26.5,
    "juz": 13,
    "manzil": 3,
    "arabic": "\u0648\u064e\u0642\u064e\u0627\u0644\u064e \u0627\u0644\u0634\u0651\u064e\u064a\u0652\u0637\u0670\u0646\u064f \u0644\u064e\u0645\u0651\u064e\u0627 \u0642\u064f\u0636\u0650\u064a\u064e \u0627\u0644\u0652\u0627\u064e\u0645\u0652\u0631\u064f \u0627\u0650\u0646\u0651\u064e \u0627\u0644\u0644\u0651\u0670\u0647\u064e \u0648\u064e\u0639\u064e\u062f\u064e\u0643\u064f\u0645\u0652 \u0648\u064e\u0639\u0652\u062f\u064e \u0627\u0644\u0652\u062d\u064e\u0642\u0651\u0650 \u0648\u064e\u0648\u064e\u0639\u064e\u062f\u0652\u062a\u0651\u064f\u0643\u064f\u0645\u0652 \u0641\u064e\u0627\u064e\u062e\u0652\u0644\u064e\u0641\u0652\u062a\u064f\u0643\u064f\u0645\u0652\u06d7 \u0648\u064e\u0645\u064e\u0627 \u0643\u064e\u0627\u0646\u064e \u0644\u0650\u064a\u064e \u0639\u064e\u0644\u064e\u064a\u0652\u0643\u064f\u0645\u0652 \u0645\u0651\u0650\u0646\u0652 \u0633\u064f\u0644\u0652\u0637\u0670\u0646\u064d \u0627\u0650\u0644\u0651\u064e\u0627\u0653 \u0627\u064e\u0646\u0652 \u062f\u064e\u0639\u064e\u0648\u0652\u062a\u064f\u0643\u064f\u0645\u0652 \u0641\u064e\u0627\u0633\u0652\u062a\u064e\u062c\u064e\u0628\u0652\u062a\u064f\u0645\u0652 \u0644\u0650\u064a\u0652 \u06da\u0641\u064e\u0644\u064e\u0627 \u062a\u064e\u0644\u064f\u0648\u0652\u0645\u064f\u0648\u0652\u0646\u0650\u064a\u0652 \u0648\u064e\u0644\u064f\u0648\u0652\u0645\u064f\u0648\u0652\u0653\u0627 \u0627\u064e\u0646\u0652\u0641\u064f\u0633\u064e\u0643\u064f\u0645\u0652\u06d7 \u0645\u064e\u0627\u0653 \u0627\u064e\u0646\u064e\u0627\u06e0 \u0628\u0650\u0645\u064f\u0635\u0652\u0631\u0650\u062e\u0650\u0643\u064f\u0645\u0652 \u0648\u064e\u0645\u064e\u0627\u0653 \u0627\u064e\u0646\u0652\u062a\u064f\u0645\u0652 \u0628\u0650\u0645\u064f\u0635\u0652\u0631\u0650\u062e\u0650\u064a\u0651\u064e\u06d7 \u0627\u0650\u0646\u0651\u0650\u064a\u0652 \u0643\u064e\u0641\u064e\u0631\u0652\u062a\u064f \u0628\u0650\u0645\u064e\u0627\u0653 \u0627\u064e\u0634\u0652\u0631\u064e\u0643\u0652\u062a\u064f\u0645\u064f\u0648\u0652\u0646\u0650 \u0645\u0650\u0646\u0652 \u0642\u064e\u0628\u0652\u0644\u064f \u06d7\u0627\u0650\u0646\u0651\u064e \u0627\u0644\u0638\u0651\u0670\u0644\u0650\u0645\u0650\u064a\u0652\u0646\u064e \u0644\u064e\u0647\u064f\u0645\u0652 \u0639\u064e\u0630\u064e\u0627\u0628\u064c \u0627\u064e\u0644\u0650\u064a\u0652\u0645\u064c ",
    "latin": "Wa q\u0101lasy-syai\u1e6d\u0101nu lamm\u0101 qu\u1e0diyal-amru innall\u0101ha wa\u2018adakum wa\u2018dal-\u1e25aqqi wa wa\u2018attukum fa akhlaftukum, wa m\u0101 k\u0101na liya \u2018alaikum min sul\u1e6d\u0101nin ill\u0101 an da\u2018autukum fastajabtum l\u012b, fal\u0101 tal\u016bm\u016bn\u012b wa l\u016bm\u016b anfusakum, wa m\u0101 ana bimu\u1e63rikhikum wa m\u0101 antum bimu\u1e63rikhiyy(a), inn\u012b kafartu bim\u0101 asyraktum\u016bni min qabl(u), inna\u1e93-\u1e93\u0101lim\u012bna lahum \u2018a\u017c\u0101bun al\u012bm(un).",
    "translation": "Setan berkata ketika urusan (hisab) telah diselesaikan, \u201cSesungguhnya Allah telah menjanjikan kepadamu janji yang benar dan aku pun telah menjanjikan kepadamu, tetapi aku mengingkarinya. Tidak ada kekuasaan bagiku sedikit pun terhadapmu, kecuali aku (sekadar) menyerumu, lalu kamu mematuhi seruanku. Oleh karena itu, janganlah kamu mencercaku, tetapi cercalah dirimu sendiri. Aku tidak dapat menjadi penolongmu dan kamu pun tidak dapat menjadi penolongku. Sesungguhnya aku tidak membenarkan perbuatanmu mempersekutukan aku (dengan Allah) sejak dahulu.\u201d Sesungguhnya orang-orang zalim akan mendapat siksaan yang sangat pedih.",
    "no_footnote": null,
    "footnotes": null,
    "surah": {
        "id": 14,
        "arabic": " \u0627\u0628\u0631\u0670\u0647\u064a\u0645",
        "latin": "Ibr\u0101h\u012bm",
        "transliteration": "Ibrahim",
        "translation": "Ibrahim",
        "num_ayah": 52,
        "page": 255,
        "location": "Makkiyah"
    },
    "tafsir": {
        "wajiz": "Dan setan berkata ketika perkara hisab telah diselesaikan dan Allah telah memasukkan penghuni surga dan penghuni neraka ke tempat masing-masing, \u201cSesungguhnya Allah Yang Maha Menepati janji telah menjanjikan kepadamu sebuah janji yang benar. Dia telah menjanjikan kepadamu kebangkitan dan hari Pembalasan, dan aku pun telah menjanjikan kepadamu sebuah janji bahwa kebangkitan dan hari Pembalasan adalah dusta belaka, tetapi aku menyalahi dan tidak menepati-nya. Sekarang aku tegaskan kepadamu bahwa tidak ada kekuasaan bagiku terhadapmu untuk memaksamu mengikutiku, melainkan aku hanya menyeru kamu menuju kekafiran lalu kamu mematuhi seruanku dengan suka rela. Oleh sebab itu, janganlah kamu mencerca aku, tetapi cercalah dirimu sendiri karena kemauanmu mengikutiku. Aku tidak dapat menolong dan menyelamatkanmu dari siksa Allah, dan kamu pun tidak dapat menolong dan menyelamatkan-ku darinya. Sesungguhnya aku tidak membenarkan perbuatanmu mempersekutukan aku dengan Allah sejak dahulu di dunia.\u201d Sungguh, orang yang zalim, berpaling dari kebenaran, dan memilih kesesatan pasti akan mendapat siksaan yang sangat pedih.",
        "tahlili": "Dalam ayat ini, Allah menyebutkan pengakuan setan di hadapan Allah, setelah urusan hisab selesai di Padang Mahsyar. Setan senantiasa menggoda dan menyesatkan manusia dari jalan yang benar, dengan memberikan gambaran sedemikian rupa, sehingga manusia yang terkena godaannya memandang kejahatan sebagai perbuatan yang baik dan terpuji. Dan di samping itu, setan juga memberikan janji-janji kepada orang-orang yang kena godaannya, yaitu keuntungan yang akan mereka peroleh jika mereka memenuhi ajakannya. Akan tetapi, ia tidak mampu memenuhi janji tersebut.\n\tPengakuan setan setelah urusan hisab di Padang Mahsyar selesai ditujukan kepada orang-orang yang telah disesatkannya di dunia ini, baik golongan lemah yang telah memperhambakan diri kepada selain Allah, maupun golongan kuat dan sombong yang telah menganggap diri mereka sebagai Tuhan. Dalam pengakuannya itu, setan mengatakan kepada mereka bahwa sesungguhnya Allah telah menjanjikan kepada mereka janji yang benar, Dia kuasa untuk memenuhi janji-Nya itu. Setan pun telah memberikan janji kepada mereka, tetapi dia tidak kuasa untuk menepatinya. Setan sama sekali tidak mempunyai kekuasaan apa-apa terhadap mereka, dia hanya sekedar menyeru manusia kepada sesuatu yang tidak benar, lalu mereka mematuhi saja seruannya itu tanpa menggunakan akal. Oleh sebab itu, manusia yang bersalah. Janganlah mereka mencercanya, melainkan cercalah diri sendiri. Setan sekali-kali tidak dapat menolong mereka dari azab dan siksa Allah, dan mereka pun tidak dapat menolongnya. Sesungguhnya setan sejak dahulu tidak membenarkan perbuatan manusia mempersekutukannya dengan Allah.\u201d\n\tDemikianlah keadaan di akhirat kelak. Kaum yang kuat dan bersikap sombong di dunia, yang telah menyesatkan kaum yang lemah, berlepas tangan dari orang-orang yang lemah yang telah menjadi korban kesesatan mereka. Selanjutnya, setan yang telah menggoda dan menyesatkan kedua golongan itupun berlepas tangan pula dari nasib orang-orang yang telah menjadi korban godaan palsunya. Semuanya tidak berdaya menghadapi keputusan Allah atas diri mereka.\n\tPada akhir ayat ini, Allah kembali menegaskan bahwa orang-orang yang zalim, baik terhadap diri mereka ataupun terhadap orang lain, pasti akan mendapatkan azab yang pedih, sebagai balasan atas kezaliman mereka.",
        "intro_surah": "Surah Ibr\u0101h\u012bm terdiri atas 52 ayat, termasuk golongan surah-surah Makkiyah, karena diturunkan di Mekah sebelum Hijrah. Dinamakan Surah Ibr\u0101h\u012bm karena surah ini mengandung kisah doa Nabi Ibrahim a.s., yaitu pada ayat 51. Doa ini isinya antara lain: permohonan agar keturunannya kelak adalah orang-orang yang mendirikan salat, dijauhkan dari penyembah-an berhala-berhala, dan agar Mekah dan daerah sekitarnya menjadi daerah yang aman dan makmur. Doa Nabi Ibrahim ini telah diperkenankan Allah swt sebagaimana terbukti sejak dahulu sampai sekarang. Doa tersebut dipanjatkan beliau ke hadirat Allah swt sesudah selesai merenovasi Ka\u2019bah bersama putranya Ismail a.s. di padang pasir Mekah yang tandus.\n\nPokok-pokok Isinya\n1.\tKeimanan:\nAl-Qur\u2019an  adalah pembimbing manusia ke jalan Allah; segala sesuatu di alam ini kepunyaan Allah; keingkaran manusia terhadap Allah tidak mengurangi kemahakuasaan-Nya; nabi-nabi memiliki mukjizat atas izin Allah semata; Allah kuasa mematikan manusia dan membangkitkannya kembali dalam bentuk baru; ilmu Allah meliputi yang lahir dan yang batin.\n2.\tHukum:\nPerintah mendirikan salat dan menafkahkan harta baik secara sembunyi-sembunyi maupun secara terang-terangan.\n3.\tKisah:\nKisah Nabi Musa a.s. dengan kaumnya dan kisah beberapa rasul lainnya.\n4.\tLain-lain:\nSebab rasul-rasul diutus untuk kaumnya sendiri; perumpamaan tentang perbuatan dan perkataan yang hak dan yang batil; kejadian langit dan bumi mengandung hikmah-hikmah; macam-macam nikmat Allah kepada manusia dan janji Allah terhadap hamba-hamba yang mensyukuri-Nya.",
        "outro_surah": null,
        "munasabah_prev_surah": "MUNASABAH SURAH AR-RA\u2018D\nDENGAN SURAH IBR\u0100H\u012aM\n\n1. \tDalam Surah ar-Ra\u2018d disebutkan bahwa Al-Qur\u2019an  diturunkan dalam bahasa Arab, sebagai pemisah antara yang hak dengan yang batil, sedangkan hikmah menurunkan Al-Qur\u2019an dalam bahasa Arab itu belum dijelaskan dalam surah ini. Surah Ibr\u0101h\u012bm menjelaskan hikmahnya itu.\n2. \tDalam Surah ar-Ra\u2018d, Allah mengatakan bahwa seorang rasul tidak akan dapat memiliki mukjizat, kecuali dengan izin Allah. Dalam Surah Ibr\u0101h\u012bm, para rasul itu menjelaskan dan menegaskan bahwa mereka adalah manusia biasa, tidak bisa mendatangkan mukjizat kecuali dengan izin Allah.\n3. \tDalam Surah ar-Ra\u2018d disebutkan bahwa Nabi Muhammad saw menyerukan agar manusia bertawakal kepada Allah swt. Dalam Surah Ibr\u0101h\u012bm, Nabi Muhammad saw menerangkan bahwa para rasul ber-tawakal hanya kepada Allah swt. \n4. \tDalam Surah ar-Ra\u2018d Allah menyebutkan berbagai perbuatan makar orang-orang kafir, maka dalam Surah Ibr\u0101h\u012bm disebutkan kembali sifat-sifat mereka yang tidak disebut dalam Surah ar-Ra\u2018d.",
        "munasabah_prev_theme": "Pada ayat-ayat yang lalu, Allah swt telah menggambarkan betapa beratnya azab dan siksa yang dipikul kaum kafir, baik di dunia maupun di akhirat kelak, dan mereka kehilangan pahala dari amal kebajikan mereka. Pada ayat-ayat ini, Allah swt mengingatkan rasul dan manusia kepada kekuasaan-Nya yang besar, kemudian disebutkan perdebatan yang akan terjadi di hadapan-Nya kelak, antara orang-orang yang lemah iman dan orang-orang yang bersikap sombong di dunia ini. Kemudian, Allah menjelaskan pula pengakuan setan kepada orang-orang yang telah disesatkannya ketika di dunia.",
        "theme_group": "HUJATAN PENGIKUT TERHADAP \nPEMIMPIN YANG SOMBONG DI HADAPAN ALLAH",
        "kosakata": "Kosakata: Ma\u1e25\u012b\u1e63 \u0645\u064e\u062d\u0650\u064a\u0652\u0635\u064d (Ibr\u0101h\u012bm/14: 21)\n\tKata ma\u1e25\u012b\u1e63 dalam Al-Qur\u2019an disebut sebanyak lima kali: Surah an-Nis\u0101'/4: 121, Ibr\u0101h\u012bm/14: 21, Fu\u1e63\u1e63ilat/41: 48, asy-Sy\u016bra/42: 35, dan Q\u0101f/50: 36. Kata ma\u1e25\u012b\u1e63 merupakan isim mak\u0101n (sebutan untuk tempat), dari \u1e25\u0101\u1e63a \u2013 ya\u1e25\u012b\u1e63u \u2013 \u1e25ai\u1e63(an) \u2013 ma\u1e25\u012b\u1e63(an) yang berarti al-makhraj (tempat keluar) atau al-mahrab (tempat berlari). Ucapan la ma\u1e25\u012b\u1e63a lahum, artinya tidak ada tempat keluar untuk mereka. Kata ini, dalam kelima ayat yang menyebutnya di atas, disebut dalam rangka menggambarkan bahwa orang-orang yang di siksa dalam neraka Jahanam tidak dapat keluar dan berlari untuk melepaskan diri dari siksaan, karena tempat keluar dan tempat berlari (ma\u1e25\u012b\u1e63) itu tidak ada bagi mereka. Mereka tetap terkurung dalam siksaan yang amat pedih sampai datang pertolongan dan rahmat Allah swt. Seseorang dikatakan terkurung dalam situasi sulit jika ia tidak memiliki jalan keluar untuk melepaskan diri dari keadaan tersebut.\n",
        "sabab_nuzul": null,
        "conclusion": null
    }
}