{
    "id": 1758,
    "surah_id": 14,
    "ayah": 8,
    "page": 256,
    "quarter_hizb": 26.25,
    "juz": 13,
    "manzil": 3,
    "arabic": "\u0648\u064e\u0642\u064e\u0627\u0644\u064e \u0645\u064f\u0648\u0652\u0633\u0653\u0670\u0649 \u0627\u0650\u0646\u0652 \u062a\u064e\u0643\u0652\u0641\u064f\u0631\u064f\u0648\u0652\u0653\u0627 \u0627\u064e\u0646\u0652\u062a\u064f\u0645\u0652 \u0648\u064e\u0645\u064e\u0646\u0652 \u0641\u0650\u0649 \u0627\u0644\u0652\u0627\u064e\u0631\u0652\u0636\u0650 \u062c\u064e\u0645\u0650\u064a\u0652\u0639\u064b\u0627 \u06d9\u0641\u064e\u0627\u0650\u0646\u0651\u064e \u0627\u0644\u0644\u0651\u0670\u0647\u064e \u0644\u064e\u063a\u064e\u0646\u0650\u064a\u0651\u064c \u062d\u064e\u0645\u0650\u064a\u0652\u062f\u064c ",
    "latin": "Wa q\u0101la m\u016bs\u0101 in takfur\u016b antum wa man fil-ar\u1e0di jam\u012b\u2018\u0101(n), fa innall\u0101ha laganiyyun \u1e25am\u012bd(un).",
    "translation": "Musa berkata, \u201cJika kamu dan siapa pun yang ada di bumi semuanya kufur (atas nikmat Allah), sesungguhnya Allah benar-benar Maha Kaya lagi Maha Terpuji.",
    "no_footnote": null,
    "footnotes": null,
    "surah": {
        "id": 14,
        "arabic": " \u0627\u0628\u0631\u0670\u0647\u064a\u0645",
        "latin": "Ibr\u0101h\u012bm",
        "transliteration": "Ibrahim",
        "translation": "Ibrahim",
        "num_ayah": 52,
        "page": 255,
        "location": "Makkiyah"
    },
    "tafsir": {
        "wajiz": "Dan Musa berkata untuk mengingatkan kaumnya bahwa mensyukuri nikmat Allah bukanlah untuk kepentingan Allah, \u201cJika kamu dan orang yang ada di bumi ini semuanya mengingkari nikmat Allah, maka sesungguhnya Allah Mahakaya sehingga keingkaran mereka tidak akan sedikit pun mengurangi kekayaan-Nya, Maha Terpuji atas segala hal yang terjadi di alam semesta.\u201d",
        "tahlili": "Allah swt menjelaskan dalam ayat ini ucapan Nabi Musa a.s. ketika ia mengatakan kepada kaumnya, bahwa seandainya mereka dan orang-orang yang ada di bumi ini semuanya kafir kepada Allah dan mengingkari nikmat dan rahmat-Nya, hal ini tidak akan mengurangi kebesaran dan keagungan-Nya. Sebab, Allah swt Mahakaya, dan Terpuji, tidak memerlukan ucapan syukur mereka dan tidak membutuhkan amalan kebajikan mereka untuk kepentingan dirinya atau untuk menambah kebesaran dan kemuliaan-Nya. Kekafiran mereka itu akan merugikan diri sendiri, karena Allah tidak menambah nikmat dan rahmat kepada mereka. Firman Allah:\n\u0645\u064e\u0646\u0652 \u0639\u064e\u0645\u0650\u0644\u064e \u0635\u064e\u0627\u0644\u0650\u062d\u064b\u0627 \u0641\u064e\u0644\u0650\u0646\u064e\u0641\u0652\u0633\u0650\u0647\u0656 \u06d9\u0648\u064e\u0645\u064e\u0646\u0652 \u0627\u064e\u0633\u064e\u0627\u06e4\u0621\u064e \u0641\u064e\u0639\u064e\u0644\u064e\u064a\u0652\u0647\u064e\u0627 \u06d7\u0648\u064e\u0645\u064e\u0627 \u0631\u064e\u0628\u0651\u064f\u0643\u064e \u0628\u0650\u0638\u064e\u0644\u0651\u064e\u0627\u0645\u064d \u0644\u0650\u0651\u0644\u0652\u0639\u064e\u0628\u0650\u064a\u0652\u062f\u0650 \u06d4 \u0664\u0666 (\u0641\u0635\u0651\u0644\u062a)\nBarang siapa mengerjakan kebajikan maka (pahalanya) untuk dirinya sendiri dan barang siapa berbuat jahat maka (dosanya) menjadi tanggungan dirinya sendiri. Dan Tuhanmu sama sekali tidak menzalimi hamba-hamba   (Nya). (Fu\u1e63\u1e63ilat/41: 46)",
        "intro_surah": "Surah Ibr\u0101h\u012bm terdiri atas 52 ayat, termasuk golongan surah-surah Makkiyah, karena diturunkan di Mekah sebelum Hijrah. Dinamakan Surah Ibr\u0101h\u012bm karena surah ini mengandung kisah doa Nabi Ibrahim a.s., yaitu pada ayat 51. Doa ini isinya antara lain: permohonan agar keturunannya kelak adalah orang-orang yang mendirikan salat, dijauhkan dari penyembah-an berhala-berhala, dan agar Mekah dan daerah sekitarnya menjadi daerah yang aman dan makmur. Doa Nabi Ibrahim ini telah diperkenankan Allah swt sebagaimana terbukti sejak dahulu sampai sekarang. Doa tersebut dipanjatkan beliau ke hadirat Allah swt sesudah selesai merenovasi Ka\u2019bah bersama putranya Ismail a.s. di padang pasir Mekah yang tandus.\n\nPokok-pokok Isinya\n1.\tKeimanan:\nAl-Qur\u2019an  adalah pembimbing manusia ke jalan Allah; segala sesuatu di alam ini kepunyaan Allah; keingkaran manusia terhadap Allah tidak mengurangi kemahakuasaan-Nya; nabi-nabi memiliki mukjizat atas izin Allah semata; Allah kuasa mematikan manusia dan membangkitkannya kembali dalam bentuk baru; ilmu Allah meliputi yang lahir dan yang batin.\n2.\tHukum:\nPerintah mendirikan salat dan menafkahkan harta baik secara sembunyi-sembunyi maupun secara terang-terangan.\n3.\tKisah:\nKisah Nabi Musa a.s. dengan kaumnya dan kisah beberapa rasul lainnya.\n4.\tLain-lain:\nSebab rasul-rasul diutus untuk kaumnya sendiri; perumpamaan tentang perbuatan dan perkataan yang hak dan yang batil; kejadian langit dan bumi mengandung hikmah-hikmah; macam-macam nikmat Allah kepada manusia dan janji Allah terhadap hamba-hamba yang mensyukuri-Nya.",
        "outro_surah": null,
        "munasabah_prev_surah": "MUNASABAH SURAH AR-RA\u2018D\nDENGAN SURAH IBR\u0100H\u012aM\n\n1. \tDalam Surah ar-Ra\u2018d disebutkan bahwa Al-Qur\u2019an  diturunkan dalam bahasa Arab, sebagai pemisah antara yang hak dengan yang batil, sedangkan hikmah menurunkan Al-Qur\u2019an dalam bahasa Arab itu belum dijelaskan dalam surah ini. Surah Ibr\u0101h\u012bm menjelaskan hikmahnya itu.\n2. \tDalam Surah ar-Ra\u2018d, Allah mengatakan bahwa seorang rasul tidak akan dapat memiliki mukjizat, kecuali dengan izin Allah. Dalam Surah Ibr\u0101h\u012bm, para rasul itu menjelaskan dan menegaskan bahwa mereka adalah manusia biasa, tidak bisa mendatangkan mukjizat kecuali dengan izin Allah.\n3. \tDalam Surah ar-Ra\u2018d disebutkan bahwa Nabi Muhammad saw menyerukan agar manusia bertawakal kepada Allah swt. Dalam Surah Ibr\u0101h\u012bm, Nabi Muhammad saw menerangkan bahwa para rasul ber-tawakal hanya kepada Allah swt. \n4. \tDalam Surah ar-Ra\u2018d Allah menyebutkan berbagai perbuatan makar orang-orang kafir, maka dalam Surah Ibr\u0101h\u012bm disebutkan kembali sifat-sifat mereka yang tidak disebut dalam Surah ar-Ra\u2018d.",
        "munasabah_prev_theme": "Pada ayat-ayat yang lalu, Allah swt mengungkapkan kisah pengutusan Nabi Musa as serta dakwah yang disampaikan kepada umatnya dan agar senantiasa bersyukur kepada Allah atas segala rahmat yang telah dilimpahkan-Nya. Pada ayat-ayat ini, Allah melanjutkan kisah Nabi Musa as yang menyampaikan peringatan kepada kaumnya setelah kelihatan tanda keingkaran mereka. Kemudian diceritakan pula tentang percakapan para rasul dengan umatnya.\n",
        "theme_group": "SIKAP MANUSIA TERHADAP DAKWAH PARA RASUL",
        "kosakata": "Kosakata: \u0100\u017caytum\u016bn\u0101 \u0627\u0670\u0630\u064e\u064a\u0652\u062a\u064f\u0645\u064f\u0648\u0652\u0646\u064e\u0627 (Ibr\u0101h\u012bm/14: 12)\nKata tersebut merupakan fi\u2019il m\u0101\u1e0d\u012b (kata kerja lampau), dari a\u017c\u0101 - yu'\u017c\u012b \u2013 i\u017c\u0101'an yang artinya \u201ckamu sekalian menyakiti kami.\u201d Ungkapan ini muncul dalam rangkaian penuturan para utusan Allah yang menyatakan bahwa mereka akan tetap bersabar terhadap perlakuan para penentang yang selalu menyakiti dan mengganggu mereka. Ungkapan \u0101\u017caitum\u016bn\u0101 dalam ayat ini menggambarkan bahwa para rasul Allah itu mengalami hal yang sama, yaitu diganggu dan disakiti oleh para penentang mereka, tetapi mereka tetap bersikap sabar atas segala gangguan itu.",
        "sabab_nuzul": null,
        "conclusion": null
    }
}