{
    "id": 1755,
    "surah_id": 14,
    "ayah": 5,
    "page": 255,
    "quarter_hizb": 26.25,
    "juz": 13,
    "manzil": 3,
    "arabic": "\u0648\u064e\u0644\u064e\u0642\u064e\u062f\u0652 \u0627\u064e\u0631\u0652\u0633\u064e\u0644\u0652\u0646\u064e\u0627 \u0645\u064f\u0648\u0652\u0633\u0670\u0649 \u0628\u0650\u0627\u0670\u064a\u0670\u062a\u0650\u0646\u064e\u0627\u0653 \u0627\u064e\u0646\u0652 \u0627\u064e\u062e\u0652\u0631\u0650\u062c\u0652 \u0642\u064e\u0648\u0652\u0645\u064e\u0643\u064e \u0645\u0650\u0646\u064e \u0627\u0644\u0638\u0651\u064f\u0644\u064f\u0645\u0670\u062a\u0650 \u0627\u0650\u0644\u064e\u0649 \u0627\u0644\u0646\u0651\u064f\u0648\u0652\u0631\u0650 \u06d5\u06d9 \u0648\u064e\u0630\u064e\u0643\u0651\u0650\u0631\u0652\u0647\u064f\u0645\u0652 \u0628\u0650\u0627\u064e\u064a\u0651\u0670\u0649\u0645\u0650 \u0627\u0644\u0644\u0651\u0670\u0647\u0650 \u06d7\u0627\u0650\u0646\u0651\u064e \u0641\u0650\u064a\u0652 \u0630\u0670\u0644\u0650\u0643\u064e \u0644\u064e\u0627\u0670\u064a\u0670\u062a\u064d \u0644\u0651\u0650\u0643\u064f\u0644\u0651\u0650 \u0635\u064e\u0628\u0651\u064e\u0627\u0631\u064d \u0634\u064e\u0643\u064f\u0648\u0652\u0631\u064d",
    "latin": "Wa laqad arsaln\u0101 m\u016bs\u0101 bi'\u0101y\u0101tin\u0101 an akhrij qaumaka mina\u1e93-\u1e93ulum\u0101ti ilan-n\u016br(i), wa \u017cakkirhum bi'ayy\u0101mill\u0101h(i), inna f\u012b \u017c\u0101lika la'\u0101y\u0101til likulli \u1e63abb\u0101rin syak\u016br(in).",
    "translation": "Sungguh Kami benar-benar telah mengutus Musa dengan (membawa) tanda-tanda (kekuasaan) Kami (dan Kami perintahkan kepadanya), \u201cKeluarkanlah kaummu dari berbagai kegelapan kepada cahaya (terang-benderang) dan ingatkanlah mereka tentang hari-hari Allah.\u201d384) Sesungguhnya pada yang demikian itu terdapat tanda-tanda (kekuasaan Allah) bagi setiap orang yang sangat penyabar lagi banyak bersyukur.",
    "no_footnote": "384",
    "footnotes": "384) Hari-hari Allah maksudnya adalah peristiwa-peristiwa yang terjadi pada kaum-kaum terdahulu serta nikmat dan siksaan yang mereka alami.",
    "surah": {
        "id": 14,
        "arabic": " \u0627\u0628\u0631\u0670\u0647\u064a\u0645",
        "latin": "Ibr\u0101h\u012bm",
        "transliteration": "Ibrahim",
        "translation": "Ibrahim",
        "num_ayah": 52,
        "page": 255,
        "location": "Makkiyah"
    },
    "tafsir": {
        "wajiz": "Di antara para rasul yang Kami utus itu adalah Nabi Musa. Dan sungguh, Kami telah mengutus Nabi Musa kepada Bani Israil dengan membawa tanda-tanda Kami, yakni berbagai mukjizat yang membuktikan kebenarannya, dan Kami perintahkan kepadanya, \u201cWahai Nabi Musa, keluarkanlah kaummu dari kegelapan (penindasan Fir\u2019aun) kepada cahaya terang-benderang (pengesaan kepada Allah) dan ingatkanlah mereka kepada hari-hari ketika Allah menurunkan nikmat dan azab-Nya kepada mereka. Sungguh, pada yang demikian itu terdapat tanda-tanda kekuasaan Allah bagi setiap orang penyabar atas ketentuan Allah dan banyak bersyukur atas nikmat-Nya.",
        "tahlili": "Pada ayat ini, Allah swt menunjukkan bahwa rasul-rasul yang telah diutus kepada manusia mempunyai tugas yang sama, yaitu menyampaikan ayat-ayat Allah untuk membimbing manusia ke jalan yang benar, mengeluarkan mereka dari kegelapan yang disebabkan kejahilan, kekafiran, dan kemaksiatan, kepada cahaya yang terang benderang karena iman, hidayah dan ilmu pengetahuan serta akhlak yang mulia. Allah menceritakan dalam ayat ini bahwa Nabi Musa a.s. pun telah diutus untuk menyampaikan tugas tersebut, dan diperintahkan untuk menyeru kaumnya. Allah berfirman, \u201cKeluarkanlah umatmu dari gelap gulita kepada cahaya yang terang benderang, serulah mereka agar beriman, dan mengingat hari-hari Allah\u201d.\n\tYang dimaksud dengan \u201chari-hari Allah\u201d ialah peristiwa penting yang telah dialami oleh umat manusia terdahulu, seperti nikmat Allah yang telah mereka peroleh ketika lepas dari perbudakan Fir\u2018aun, atau kemurkaan dan siksa Allah yang telah menimpa diri mereka karena keingkaran.\n\tPada akhir ayat ini Allah menegaskan bahwa \u201chari-hari Allah\u201d tersebut mengandung tanda-tanda keesaan dan kekuasaan-Nya. Tanda-tanda tersebut hanya dapat dipahami oleh setiap orang yang sabar dan banyak bersyukur.",
        "intro_surah": "Surah Ibr\u0101h\u012bm terdiri atas 52 ayat, termasuk golongan surah-surah Makkiyah, karena diturunkan di Mekah sebelum Hijrah. Dinamakan Surah Ibr\u0101h\u012bm karena surah ini mengandung kisah doa Nabi Ibrahim a.s., yaitu pada ayat 51. Doa ini isinya antara lain: permohonan agar keturunannya kelak adalah orang-orang yang mendirikan salat, dijauhkan dari penyembah-an berhala-berhala, dan agar Mekah dan daerah sekitarnya menjadi daerah yang aman dan makmur. Doa Nabi Ibrahim ini telah diperkenankan Allah swt sebagaimana terbukti sejak dahulu sampai sekarang. Doa tersebut dipanjatkan beliau ke hadirat Allah swt sesudah selesai merenovasi Ka\u2019bah bersama putranya Ismail a.s. di padang pasir Mekah yang tandus.\n\nPokok-pokok Isinya\n1.\tKeimanan:\nAl-Qur\u2019an  adalah pembimbing manusia ke jalan Allah; segala sesuatu di alam ini kepunyaan Allah; keingkaran manusia terhadap Allah tidak mengurangi kemahakuasaan-Nya; nabi-nabi memiliki mukjizat atas izin Allah semata; Allah kuasa mematikan manusia dan membangkitkannya kembali dalam bentuk baru; ilmu Allah meliputi yang lahir dan yang batin.\n2.\tHukum:\nPerintah mendirikan salat dan menafkahkan harta baik secara sembunyi-sembunyi maupun secara terang-terangan.\n3.\tKisah:\nKisah Nabi Musa a.s. dengan kaumnya dan kisah beberapa rasul lainnya.\n4.\tLain-lain:\nSebab rasul-rasul diutus untuk kaumnya sendiri; perumpamaan tentang perbuatan dan perkataan yang hak dan yang batil; kejadian langit dan bumi mengandung hikmah-hikmah; macam-macam nikmat Allah kepada manusia dan janji Allah terhadap hamba-hamba yang mensyukuri-Nya.",
        "outro_surah": null,
        "munasabah_prev_surah": "MUNASABAH SURAH AR-RA\u2018D\nDENGAN SURAH IBR\u0100H\u012aM\n\n1. \tDalam Surah ar-Ra\u2018d disebutkan bahwa Al-Qur\u2019an  diturunkan dalam bahasa Arab, sebagai pemisah antara yang hak dengan yang batil, sedangkan hikmah menurunkan Al-Qur\u2019an dalam bahasa Arab itu belum dijelaskan dalam surah ini. Surah Ibr\u0101h\u012bm menjelaskan hikmahnya itu.\n2. \tDalam Surah ar-Ra\u2018d, Allah mengatakan bahwa seorang rasul tidak akan dapat memiliki mukjizat, kecuali dengan izin Allah. Dalam Surah Ibr\u0101h\u012bm, para rasul itu menjelaskan dan menegaskan bahwa mereka adalah manusia biasa, tidak bisa mendatangkan mukjizat kecuali dengan izin Allah.\n3. \tDalam Surah ar-Ra\u2018d disebutkan bahwa Nabi Muhammad saw menyerukan agar manusia bertawakal kepada Allah swt. Dalam Surah Ibr\u0101h\u012bm, Nabi Muhammad saw menerangkan bahwa para rasul ber-tawakal hanya kepada Allah swt. \n4. \tDalam Surah ar-Ra\u2018d Allah menyebutkan berbagai perbuatan makar orang-orang kafir, maka dalam Surah Ibr\u0101h\u012bm disebutkan kembali sifat-sifat mereka yang tidak disebut dalam Surah ar-Ra\u2018d.",
        "munasabah_prev_theme": "Pada ayat-ayat yang lalu telah dijelaskan fungsi wahyu untuk menjadi petunjuk yang membawa manusia ke jalan yang benar, berbagai usaha orang yang lebih mencintai dunia untuk membelokkan maknanya, dan perlunya seorang nabi diangkat dari anggota masyarakatnya dengan bahasa mereka supaya dapat menjelaskan wahyu dengan baik. Dalam ayat-ayat berikut ini, Allah menjelaskan perjuangan Nabi Musa menyebarkan ajaran tauhid kepada kaumnya.",
        "theme_group": "MUSA DAN DAKWAHNYA",
        "kosakata": "Kosakata: Ayy\u0101mill\u0101h  \u0623\u064e\u064a\u0651\u064e\u0627\u0645\u0650 \u0627\u0644\u0644\u0647\u0650  (Ibr\u0101h\u012bm/14: 5)\nUngkapan ayy\u0101mill\u0101h terdiri dari dua kata, yaitu kata \u201cayy\u0101m\u201d yang di-i\u1e0dafat-kan (disandarkan) pada kata \u201cAll\u0101h.\u201d Dalam Al-Qur\u2019an, ungkapan ini disebutkan dua kali, yaitu dalam ayat ini dan dalam Surah al-J\u0101\u1e61iyah /45: 14. Secara bahasa, ungkapan tersebut berarti \u201chari-hari Allah.\u201d Menurut Muj\u0101hid, Qat\u0101dah, dan Ibn Qutaibah, berdasarkan riwayat Ubay bin Ka\u2018ab dari Nabi saw, kata ayy\u0101mull\u0101h artinya kenikmatan Allah. Pemakaian ungkapan yang artinya serupa dengan itu sudah dikenal dalam kesusastraan Arab, misalnya kata ayy\u0101m al-\u2018arab atau hari-hari Arab, digunakan dalam arti pertempuran bangsa Arab, karena pertempuran merupakan sumber kenikmatan bagi yang menang, dan sumber kesusahan bagi yang kalah. Maka kata ayy\u0101mull\u0101h atau hari-hari Allah artinya perlakuan kasih sayang Allah terhadap orang yang tulus dalam beramal dan siksaan Allah terhadap orang yang durhaka kepada-Nya.",
        "sabab_nuzul": null,
        "conclusion": null
    }
}