{
    "id": 1764,
    "surah_id": 14,
    "ayah": 14,
    "page": 257,
    "quarter_hizb": 26.5,
    "juz": 13,
    "manzil": 3,
    "arabic": "\u0648\u064e\u0644\u064e\u0646\u064f\u0633\u0652\u0643\u0650\u0646\u064e\u0646\u0651\u064e\u0643\u064f\u0645\u064f \u0627\u0644\u0652\u0627\u064e\u0631\u0652\u0636\u064e \u0645\u0650\u0646\u0652\u06e2 \u0628\u064e\u0639\u0652\u062f\u0650\u0647\u0650\u0645\u0652 \u06d7\u0630\u0670\u0644\u0650\u0643\u064e \u0644\u0650\u0645\u064e\u0646\u0652 \u062e\u064e\u0627\u0641\u064e \u0645\u064e\u0642\u064e\u0627\u0645\u0650\u064a\u0652 \u0648\u064e\u062e\u064e\u0627\u0641\u064e \u0648\u064e\u0639\u0650\u064a\u0652\u062f\u0650 ",
    "latin": "Wa lanuskinannakumul-ar\u1e0da mim ba\u2018dihim, \u017c\u0101lika liman kh\u0101fa maq\u0101m\u012b wa kh\u0101fa wa\u2018\u012bd(i).",
    "translation": "Kami pasti akan menempatkanmu di negeri-negeri itu setelah mereka. Yang demikian itu (berlaku) bagi orang yang takut akan kebesaran-Ku dan takut akan ancaman-Ku.\u201d",
    "no_footnote": null,
    "footnotes": null,
    "surah": {
        "id": 14,
        "arabic": " \u0627\u0628\u0631\u0670\u0647\u064a\u0645",
        "latin": "Ibr\u0101h\u012bm",
        "transliteration": "Ibrahim",
        "translation": "Ibrahim",
        "num_ayah": 52,
        "page": 255,
        "location": "Makkiyah"
    },
    "tafsir": {
        "wajiz": "Dan Kami pasti akan menempatkan kamu kembali dan menjadikanmu penguasa di negeri-negeri itu setelah mereka Kami binasakan. Yang demikian itu, yakni membinasakan orang kafir dan menempatkan kembali para rasul ke negeri mereka sendiri, adalah anugerah bagi orang-orang yang takut akan kedudukannya ketika menghadap ke hadirat-Ku di hari Kiamat, dan juga takut akan azab dan ancaman-Ku.\u201d",
        "tahlili": "Dalam ayat ini, Allah swt menyebutkan janji-Nya yang lain kepada para rasul, bahwa Allah akan menempatkan mereka di negeri-negeri itu, setelah umat yang zalim itu lenyap karena azab yang akan ditimpakan kepada mereka. Janji ini akan dilaksanakan-Nya untuk orang-orang yang bertakwa, yang merasa takut untuk menghadap Allah dengan dosa yang banyak, dan merasa takut kepada ancaman dan siksa-Nya.\n\tDengan jelas dapat dipahami bahwa janji Allah yang disebutkan dalam ayat ini memperkuat janji-Nya yang telah disebutkan pada ayat di atas, tentang pembinasaan orang-orang yang zalim. Setelah mereka binasa dan lenyap dari muka bumi, maka rasul-rasul bersama umatnya masing-masing yang beriman dan taat kepada Allah menjadi penghuni negeri-negeri itu, dan mereka hidup dengan tenteram di bawah limpahan rahmat dan rida Allah.",
        "intro_surah": "Surah Ibr\u0101h\u012bm terdiri atas 52 ayat, termasuk golongan surah-surah Makkiyah, karena diturunkan di Mekah sebelum Hijrah. Dinamakan Surah Ibr\u0101h\u012bm karena surah ini mengandung kisah doa Nabi Ibrahim a.s., yaitu pada ayat 51. Doa ini isinya antara lain: permohonan agar keturunannya kelak adalah orang-orang yang mendirikan salat, dijauhkan dari penyembah-an berhala-berhala, dan agar Mekah dan daerah sekitarnya menjadi daerah yang aman dan makmur. Doa Nabi Ibrahim ini telah diperkenankan Allah swt sebagaimana terbukti sejak dahulu sampai sekarang. Doa tersebut dipanjatkan beliau ke hadirat Allah swt sesudah selesai merenovasi Ka\u2019bah bersama putranya Ismail a.s. di padang pasir Mekah yang tandus.\n\nPokok-pokok Isinya\n1.\tKeimanan:\nAl-Qur\u2019an  adalah pembimbing manusia ke jalan Allah; segala sesuatu di alam ini kepunyaan Allah; keingkaran manusia terhadap Allah tidak mengurangi kemahakuasaan-Nya; nabi-nabi memiliki mukjizat atas izin Allah semata; Allah kuasa mematikan manusia dan membangkitkannya kembali dalam bentuk baru; ilmu Allah meliputi yang lahir dan yang batin.\n2.\tHukum:\nPerintah mendirikan salat dan menafkahkan harta baik secara sembunyi-sembunyi maupun secara terang-terangan.\n3.\tKisah:\nKisah Nabi Musa a.s. dengan kaumnya dan kisah beberapa rasul lainnya.\n4.\tLain-lain:\nSebab rasul-rasul diutus untuk kaumnya sendiri; perumpamaan tentang perbuatan dan perkataan yang hak dan yang batil; kejadian langit dan bumi mengandung hikmah-hikmah; macam-macam nikmat Allah kepada manusia dan janji Allah terhadap hamba-hamba yang mensyukuri-Nya.",
        "outro_surah": null,
        "munasabah_prev_surah": "MUNASABAH SURAH AR-RA\u2018D\nDENGAN SURAH IBR\u0100H\u012aM\n\n1. \tDalam Surah ar-Ra\u2018d disebutkan bahwa Al-Qur\u2019an  diturunkan dalam bahasa Arab, sebagai pemisah antara yang hak dengan yang batil, sedangkan hikmah menurunkan Al-Qur\u2019an dalam bahasa Arab itu belum dijelaskan dalam surah ini. Surah Ibr\u0101h\u012bm menjelaskan hikmahnya itu.\n2. \tDalam Surah ar-Ra\u2018d, Allah mengatakan bahwa seorang rasul tidak akan dapat memiliki mukjizat, kecuali dengan izin Allah. Dalam Surah Ibr\u0101h\u012bm, para rasul itu menjelaskan dan menegaskan bahwa mereka adalah manusia biasa, tidak bisa mendatangkan mukjizat kecuali dengan izin Allah.\n3. \tDalam Surah ar-Ra\u2018d disebutkan bahwa Nabi Muhammad saw menyerukan agar manusia bertawakal kepada Allah swt. Dalam Surah Ibr\u0101h\u012bm, Nabi Muhammad saw menerangkan bahwa para rasul ber-tawakal hanya kepada Allah swt. \n4. \tDalam Surah ar-Ra\u2018d Allah menyebutkan berbagai perbuatan makar orang-orang kafir, maka dalam Surah Ibr\u0101h\u012bm disebutkan kembali sifat-sifat mereka yang tidak disebut dalam Surah ar-Ra\u2018d.",
        "munasabah_prev_theme": "Pada ayat-ayat yang lalu telah dijelaskan hal ihwal umat-umat yang terdahulu, dan pembicaraan yang terjadi antara mereka dan rasul-rasul yang telah datang menyeru mereka kepada agama Allah. Pada ayat-ayat ini diterangkan siksaan yang diancamkan dan ditimpakan-Nya kepada mereka sebagai akibat dari kekafiran, di samping kerugian besar karena pahala amalan mereka dihapus.\n",
        "theme_group": "HUKUMAN BAGI KAUM YANG MENOLAK KEBENARAN",
        "kosakata": "Kosakata: M\u0101'in \u1e62ad\u012bd  \u0645\u064e\u0627\u0621\u064d \u0635\u064e\u062f\u0650\u064a\u0652\u062f\u064d  (Ibr\u0101h\u012bm/14: 16)\n\tUngkapan m\u0101'in \u1e63ad\u012bd terdiri dari dua kata,  m\u0101'in yang artinya air atau cairan, dan \u1e63ad\u012bd yang merupakan sifat dari kata  m\u0101'in. Kata \u1e63ad\u012bd artinya bermacam-macam: nanah, air kotor, air panas, atau air mendidih. Karena kata \u1e63ad\u012bd dalam ayat ini merupakan sifat bagi kata  m\u0101'in (air), maka m\u0101'in \u1e63ad\u012bd artinya \u201cair kotor\u201d atau \u201cair panas,\u201d atau \u201cair  yang mendidih.\u201d Tetapi jika kata \u1e63ad\u012bd sebagai nama air, maka maksudnya menurut Imam Qatadah, adalah cairan nanah yang dituangkan ke dalam mulut orang-orang yang ada di neraka Jahanam.",
        "sabab_nuzul": null,
        "conclusion": null
    }
}