{
    "id": 1894,
    "surah_id": 15,
    "ayah": 92,
    "page": 267,
    "quarter_hizb": 27.25,
    "juz": 14,
    "manzil": 3,
    "arabic": "\u0641\u064e\u0648\u064e\u0631\u064e\u0628\u0651\u0650\u0643\u064e \u0644\u064e\u0646\u064e\u0633\u0652\u0640\u0654\u064e\u0644\u064e\u0646\u0651\u064e\u0647\u064f\u0645\u0652 \u0627\u064e\u062c\u0652\u0645\u064e\u0639\u0650\u064a\u0652\u0646\u064e\u06d9",
    "latin": "Fa wa rabbika lanas'alannahum ajma\u2018\u012bn(a).",
    "translation": "Maka, demi Tuhanmu, Kami pasti akan menanyai mereka semua",
    "no_footnote": null,
    "footnotes": null,
    "surah": {
        "id": 15,
        "arabic": " \u0627\u0644\u062d\u062c\u0631",
        "latin": "Al-\u1e24ijr",
        "transliteration": "Al-Hijr",
        "translation": "Hijr",
        "num_ayah": 99,
        "page": 262,
        "location": "Makkiyah"
    },
    "tafsir": {
        "wajiz": "Atas perbuatan kaum kafir yang demikian, Allah pun bersumpah, Maka demi Tuhanmu, wahai Nabi Muhammad, Kami pasti akan menanyai dan meminta pertanggungjawaban kepada mereka semua di akhirat kelak tentang apa yang telah mereka kerjakan dahulu di dunia.",
        "tahlili": "Ayat ini memerintahkan agar Nabi Muhammad memperingatkan orang-orang yang membagi-bagi Al-Qur\u2019an dan tidak mempercayainya sebagai kitab suci bahwa Allah akan menurunkan azab kepada mereka sebagaimana Allah telah membinasakan umat-umat terdahulu karena perbuatan yang serupa dengan mereka.",
        "intro_surah": "Surah ini terdiri dari 99 ayat, termasuk golongan surah-surah Makkiyah, karena diturunkan di Mekah sebelum Nabi Muhammad saw hijrah ke Medinah. Al-\u1e24ijr adalah nama sebuah pegunungan yang didiami oleh kaum \u1e60amud, terletak di pinggir jalan raya antara Medinah dan Syam (Syria).\nNama surah ini diambil dari nama daerah pegunungan itu, sebagai peringatan bagi kaum Muslimin karena penduduknya, yaitu kaum \u1e60amud yang dikisahkan pada ayat 80 sampai dengan ayat 84, telah dimusnahkan akibat mendustakan Nabi Saleh dan berpaling dari ayat-ayat Allah.\nDalam surah ini terdapat pula kisah-kisah kaum lain yang telah dibinasakan oleh Allah, seperti kaum Lu\u1e6d a.s. dan kaum Syu\u2018aib a.s. Semua kisah-kisah itu dapat dijadikan tamsil dan ibarat bahwa orang-orang yang menentang ajaran rasul-rasul akan mengalami kehancuran.\n\nPokok-pokok Isinya\n1. \tKeimanan:\nKepastian nasib suatu bangsa hanyalah di tangan Allah; Allah menjamin kemurnian Al-Qur\u2019an sepanjang masa; setan tidak dapat naik ke alam malakut karena ada yang menjaganya; kadar rezeki yang diberikan kepada manusia sesuai dengan hikmah dan kebijaksanaan Allah; Allah memelihara hamba-Nya yang telah mendapat taufik dari godaan setan; Allah di samping mempunyai sifat pengampun lagi penyayang juga mengazab orang-orang yang ingkar; manusia akan dihimpun pada hari kiamat.\n2. \tHukum:\nLarangan melakukan homoseksual, kewajiban melakukan ibadah selama hidup, larangan menginginkan harta orang kafir, perintah kepada Nabi Muhammad saw agar melakukan dakwah secara terang-terangan, larangan berputus asa terhadap rahmat Allah.\n3. \tKisah:\nNabi Ibrahim a.s. dengan kaumnya, Nabi Lu\u1e6d a.s. dengan kaumnya, kaum Syu\u2018aib dan kaum Saleh (kaum \u1e60amud)\n4. \tLain-lain:\nKejadian alam semesta ini menunjukkan kekuasaan dan kebesaran Allah; kejadian alam dan isinya mengandung hikmah; angin mengawinkan tepung sari buah-buahan; asal kejadian Adam as.\n",
        "outro_surah": null,
        "munasabah_prev_surah": "MUNASABAH SURAH IBR\u0100H\u012aM\nDENGAN SURAH AL-\u1e24IJR\n\n1. \tKeduanya sama-sama dimulai dengan \u201calif l\u0101m r\u0101\u201d dan menerangkan sifat-sifat Al-Qur\u2019an Al-Karim.\n2. \tDalam Surah Ibr\u0101h\u012bm, Allah menjelaskan bahwa Al-Qur\u2019an itu pembimbing manusia ke jalan Allah, kemudian dalam Surah al-\u1e24ijr, Allah menegaskan bahwa kejadian-kejadian alam ini mengandung hikmah, sebagai tanda keesaan dan kebesaran Allah swt.\n3. \tKedua surah ini menerangkan kisah Nabi Ibrahim a.s. secara terperinci.\n4. \tKeduanya sama-sama menerangkan keadaan orang-orang kafir di hari kiamat dan penyesalan mereka, mengapa sewaktu hidup di dunia mereka tidak menjadi orang mukmin.\n5. \tKedua surah ini sama-sama menceritakan kisah-kisah nabi yang terdahulu dengan kaumnya, serta menerangkan keadaan orang-orang yang ingkar kepada para nabi itu pada hari kiamat. Kisah-kisah itu disampaikan kepada Nabi Muhammad saw untuk menghibur dan memantapkan hati beliau pada waktu mengalami berbagai kesulitan dalam menyiarkan agama Islam.",
        "munasabah_prev_theme": "Pada ayat-ayat yang lalu, Allah swt memerintahkan agar para rasul-Nya bersabar terhadap tindakan kaumnya dengan memaafkan dan menyatakan sikap yang baik kepada mereka. Pada ayat-ayat berikut, Allah swt menyebutkan anugerah yang telah diberikan kepada Nabi Muhammad saw yaitu Surah al-F\u0101ti\u1e25ah yang merupakan pokok isi Al-Qur\u2019an, dibaca berulang-ulang, dan petunjuk dalam kehidupan duniawi. Allah juga mem-peringatkan agar jangan terlalu cinta dan tertarik kepada kehidupan duniawi, dan bersedih hati atas kebahagiaan duniawi yang diperoleh oleh orang-orang kafir. Semua itu hanyalah kesenangan sementara. Tugas Nabi Muhammad adalah melaksanakan perintah Allah dan menyampaikan agama-Nya kepada manusia.",
        "theme_group": "ANUGERAH ALLAH\nKEPADA NABI MUHAMMAD SAW",
        "kosakata": "Kosakata: \u2018I\u1e0d\u012bn \u0639\u0650\u0636\u0650\u064a\u0652\u0646\u064e  (al-\u1e24ijr/15: 91)\nJamak dari \u2018i\u1e0dah \u0639\u0636\u0647 yang berarti potongan atau bagian dari sesuatu. Asal katanya \u2018i\u1e0dwun, untuk meringankan lidah dalam penyebutannya huruf waw diganti h\u0101\u2019, sehingga dibaca \u2018i\u1e0dah. Kata \u2018i\u1e0d\u012bn hanya sekali disebut dalam Al-Qur\u2019an, yaitu dalam ayat 91 Surah al-\u1e24ijr ini.\nYang dimaksud dengan \u2018i\u1e0d\u012bn dalam ayat ini adalah orang-orang yang menjadikan isi Al-Qur\u2019an terbagi-bagi. Sebagian dari isi Al-Qur\u2019an yang sesuai dengan keinginan mereka, mereka percayai, seperti berita-berita tentang syariat Nabi Musa dan Nabi Isa. Sebagian dari isi Al-Qur\u2019an yang tidak mereka sukai, mereka ingkari. Bahkan mereka katakan bahwa Al-Qur\u2019an itu mitos, mantra dukun dan perkataan penyair. ",
        "sabab_nuzul": null,
        "conclusion": null
    }
}