{
    "id": 1896,
    "surah_id": 15,
    "ayah": 94,
    "page": 267,
    "quarter_hizb": 27.25,
    "juz": 14,
    "manzil": 3,
    "arabic": "\u0641\u064e\u0627\u0635\u0652\u062f\u064e\u0639\u0652 \u0628\u0650\u0645\u064e\u0627 \u062a\u064f\u0624\u0652\u0645\u064e\u0631\u064f \u0648\u064e\u0627\u064e\u0639\u0652\u0631\u0650\u0636\u0652 \u0639\u064e\u0646\u0650 \u0627\u0644\u0652\u0645\u064f\u0634\u0652\u0631\u0650\u0643\u0650\u064a\u0652\u0646\u064e ",
    "latin": "Fa\u1e63da\u2018 bim\u0101 tu'maru wa a\u2018ri\u1e0d \u2018anil-musyrik\u012bn(a).",
    "translation": "Maka, sampaikanlah (Nabi Muhammad) secara terang-terangan segala apa yang diperintahkan kepadamu dan berpalinglah dari orang-orang musyrik.",
    "no_footnote": null,
    "footnotes": null,
    "surah": {
        "id": 15,
        "arabic": " \u0627\u0644\u062d\u062c\u0631",
        "latin": "Al-\u1e24ijr",
        "transliteration": "Al-Hijr",
        "translation": "Hijr",
        "num_ayah": 99,
        "page": 262,
        "location": "Makkiyah"
    },
    "tafsir": {
        "wajiz": "Wahai Nabi Muhammad, jangan kaupedulikan sikap dan tindakan kaum kafir itu terhadap Al-Qur\u2019an. Maka sampaikanlah saja kepada mereka secara terang-terangan dan sungguh-sungguh segala apa yang diperintahkan oleh Allah kepadamu dan berpalinglah dari orang yang musyrik. Jangan kauhiraukan gangguan mereka dan teruslah berdakwah menyampaikan pesan-pesan Allah karena Dia akan selalu melindungimu.",
        "tahlili": "Ayat ini memerintahkan Nabi Muhammad saw agar menyiarkan agama Islam dengan terang-terangan, tidak lagi dengan sembunyi-sembunyi, menantang orang-orang musyrik, tidak mempedulikan mereka dan apa yang mereka katakan, dan tidak takut kepada mereka yang menghalanginya dalam menyiarkan agama Allah, karena Allah melindunginya dari gangguan mereka.\nSebagian ahli tafsir menafsirkan \u201cBerpalinglah dari orang-orang musyrik\u201d maksudnya adalah janganlah mempedulikan segala macam tindak-tanduk orang-orang musyrik yang telah mendustakan, memperolok-olok, dan menentang kamu. Janganlah tindakan mereka itu menghalangimu menyiarkan agama Allah, karena Allah memelihara kamu dari gangguan mereka.",
        "intro_surah": "Surah ini terdiri dari 99 ayat, termasuk golongan surah-surah Makkiyah, karena diturunkan di Mekah sebelum Nabi Muhammad saw hijrah ke Medinah. Al-\u1e24ijr adalah nama sebuah pegunungan yang didiami oleh kaum \u1e60amud, terletak di pinggir jalan raya antara Medinah dan Syam (Syria).\nNama surah ini diambil dari nama daerah pegunungan itu, sebagai peringatan bagi kaum Muslimin karena penduduknya, yaitu kaum \u1e60amud yang dikisahkan pada ayat 80 sampai dengan ayat 84, telah dimusnahkan akibat mendustakan Nabi Saleh dan berpaling dari ayat-ayat Allah.\nDalam surah ini terdapat pula kisah-kisah kaum lain yang telah dibinasakan oleh Allah, seperti kaum Lu\u1e6d a.s. dan kaum Syu\u2018aib a.s. Semua kisah-kisah itu dapat dijadikan tamsil dan ibarat bahwa orang-orang yang menentang ajaran rasul-rasul akan mengalami kehancuran.\n\nPokok-pokok Isinya\n1. \tKeimanan:\nKepastian nasib suatu bangsa hanyalah di tangan Allah; Allah menjamin kemurnian Al-Qur\u2019an sepanjang masa; setan tidak dapat naik ke alam malakut karena ada yang menjaganya; kadar rezeki yang diberikan kepada manusia sesuai dengan hikmah dan kebijaksanaan Allah; Allah memelihara hamba-Nya yang telah mendapat taufik dari godaan setan; Allah di samping mempunyai sifat pengampun lagi penyayang juga mengazab orang-orang yang ingkar; manusia akan dihimpun pada hari kiamat.\n2. \tHukum:\nLarangan melakukan homoseksual, kewajiban melakukan ibadah selama hidup, larangan menginginkan harta orang kafir, perintah kepada Nabi Muhammad saw agar melakukan dakwah secara terang-terangan, larangan berputus asa terhadap rahmat Allah.\n3. \tKisah:\nNabi Ibrahim a.s. dengan kaumnya, Nabi Lu\u1e6d a.s. dengan kaumnya, kaum Syu\u2018aib dan kaum Saleh (kaum \u1e60amud)\n4. \tLain-lain:\nKejadian alam semesta ini menunjukkan kekuasaan dan kebesaran Allah; kejadian alam dan isinya mengandung hikmah; angin mengawinkan tepung sari buah-buahan; asal kejadian Adam as.\n",
        "outro_surah": null,
        "munasabah_prev_surah": "MUNASABAH SURAH IBR\u0100H\u012aM\nDENGAN SURAH AL-\u1e24IJR\n\n1. \tKeduanya sama-sama dimulai dengan \u201calif l\u0101m r\u0101\u201d dan menerangkan sifat-sifat Al-Qur\u2019an Al-Karim.\n2. \tDalam Surah Ibr\u0101h\u012bm, Allah menjelaskan bahwa Al-Qur\u2019an itu pembimbing manusia ke jalan Allah, kemudian dalam Surah al-\u1e24ijr, Allah menegaskan bahwa kejadian-kejadian alam ini mengandung hikmah, sebagai tanda keesaan dan kebesaran Allah swt.\n3. \tKedua surah ini menerangkan kisah Nabi Ibrahim a.s. secara terperinci.\n4. \tKeduanya sama-sama menerangkan keadaan orang-orang kafir di hari kiamat dan penyesalan mereka, mengapa sewaktu hidup di dunia mereka tidak menjadi orang mukmin.\n5. \tKedua surah ini sama-sama menceritakan kisah-kisah nabi yang terdahulu dengan kaumnya, serta menerangkan keadaan orang-orang yang ingkar kepada para nabi itu pada hari kiamat. Kisah-kisah itu disampaikan kepada Nabi Muhammad saw untuk menghibur dan memantapkan hati beliau pada waktu mengalami berbagai kesulitan dalam menyiarkan agama Islam.",
        "munasabah_prev_theme": "Pada ayat-ayat yang lalu, Allah swt memerintahkan agar para rasul-Nya bersabar terhadap tindakan kaumnya dengan memaafkan dan menyatakan sikap yang baik kepada mereka. Pada ayat-ayat berikut, Allah swt menyebutkan anugerah yang telah diberikan kepada Nabi Muhammad saw yaitu Surah al-F\u0101ti\u1e25ah yang merupakan pokok isi Al-Qur\u2019an, dibaca berulang-ulang, dan petunjuk dalam kehidupan duniawi. Allah juga mem-peringatkan agar jangan terlalu cinta dan tertarik kepada kehidupan duniawi, dan bersedih hati atas kebahagiaan duniawi yang diperoleh oleh orang-orang kafir. Semua itu hanyalah kesenangan sementara. Tugas Nabi Muhammad adalah melaksanakan perintah Allah dan menyampaikan agama-Nya kepada manusia.",
        "theme_group": "ANUGERAH ALLAH\nKEPADA NABI MUHAMMAD SAW",
        "kosakata": "Kosakata: \u2018I\u1e0d\u012bn \u0639\u0650\u0636\u0650\u064a\u0652\u0646\u064e  (al-\u1e24ijr/15: 91)\nJamak dari \u2018i\u1e0dah \u0639\u0636\u0647 yang berarti potongan atau bagian dari sesuatu. Asal katanya \u2018i\u1e0dwun, untuk meringankan lidah dalam penyebutannya huruf waw diganti h\u0101\u2019, sehingga dibaca \u2018i\u1e0dah. Kata \u2018i\u1e0d\u012bn hanya sekali disebut dalam Al-Qur\u2019an, yaitu dalam ayat 91 Surah al-\u1e24ijr ini.\nYang dimaksud dengan \u2018i\u1e0d\u012bn dalam ayat ini adalah orang-orang yang menjadikan isi Al-Qur\u2019an terbagi-bagi. Sebagian dari isi Al-Qur\u2019an yang sesuai dengan keinginan mereka, mereka percayai, seperti berita-berita tentang syariat Nabi Musa dan Nabi Isa. Sebagian dari isi Al-Qur\u2019an yang tidak mereka sukai, mereka ingkari. Bahkan mereka katakan bahwa Al-Qur\u2019an itu mitos, mantra dukun dan perkataan penyair. ",
        "sabab_nuzul": null,
        "conclusion": null
    }
}