{
    "id": 1815,
    "surah_id": 15,
    "ayah": 13,
    "page": 262,
    "quarter_hizb": 27,
    "juz": 14,
    "manzil": 3,
    "arabic": "\u0644\u064e\u0627 \u064a\u064f\u0624\u0652\u0645\u0650\u0646\u064f\u0648\u0652\u0646\u064e \u0628\u0650\u0647\u0656 \u0648\u064e\u0642\u064e\u062f\u0652 \u062e\u064e\u0644\u064e\u062a\u0652 \u0633\u064f\u0646\u0651\u064e\u0629\u064f \u0627\u0644\u0652\u0627\u064e\u0648\u0651\u064e\u0644\u0650\u064a\u0652\u0646\u064e ",
    "latin": "L\u0101 yu'min\u016bna bih\u012b wa qad khalat sunnatul-awwal\u012bn(a).",
    "translation": "Mereka tidak beriman kepadanya (Al-Qur\u2019an), padahal telah berlalu sunatullah394) terhadap orang-orang terdahulu.",
    "no_footnote": "394",
    "footnotes": "394) Sunatullah di sini ialah membinasakan orang yang mendustakan rasul.",
    "surah": {
        "id": 15,
        "arabic": " \u0627\u0644\u062d\u062c\u0631",
        "latin": "Al-\u1e24ijr",
        "transliteration": "Al-Hijr",
        "translation": "Hijr",
        "num_ayah": 99,
        "page": 262,
        "location": "Makkiyah"
    },
    "tafsir": {
        "wajiz": "Karena itu, mereka tidak beriman kepadanya, yaitu Al-Qur'an atau Nabi Muhammad, padahal telah berlalu sunatullah berupa kebinasaan dan kehancuran terhadap orang-orang terdahulu akibat dari perbuatan dosa dan kedurhakaan mereka.",
        "tahlili": "Ayat ini menerangkan tanggapan orang kafir terhadap Al-Qur\u2019an. Mereka memperolok-olokkannya dan tidak menerimanya. Hal ini disebab-kan oleh sikap ingkar dan memperolok-olokkan itu telah tumbuh subur di dalam hati mereka, sehingga dalam diri mereka tidak ada lagi kesediaan menerima kebenaran. Di dalam hati mereka, tidak ada lagi pelita yang memancarkan cahaya yang dapat menuntun dan menerangi jalan menuju kebenaran. Keadaan mereka itu sama dengan keadaan umat-umat yang dahulu menerima kitab Allah yang disampaikan oleh para rasul, namun tidak ada yang berbekas sedikit pun di dalam hati mereka.\nOleh karena itu, bagi umat yang telah diutus kepada mereka para rasul, namun mereka mengingkari seruan rasul itu, berlaku sunatullah, yaitu Allah akan membinasakan setiap orang yang mendurhakai rasul dan risalah yang disampaikannya, serta menolong dan memberi kemenangan kepada orang-orang yang menerima seruannya.\nPada suatu saat nanti, orang-orang kafir akan mengetahui kebenaran berita dan peringatan Al-Qur\u2019an, sebagaimana yang ditegaskan dalam firman Allah swt:\n\u0648\u064e\u0644\u064e\u062a\u064e\u0639\u0652\u0644\u064e\u0645\u064f\u0646\u0651\u064e \u0646\u064e\u0628\u064e\u0627\u064e\u0647\u0657 \u0628\u064e\u0639\u0652\u062f\u064e \u062d\u0650\u064a\u0652\u0646\u064d \u08d6 \u0668\u0668\nDan sungguh, kamu akan mengetahui (kebenaran) beritanya (Al-Qur\u2019an) setelah beberapa waktu lagi. (\u1e62\u0101d/38: 88)\n\nKebenaran berita-berita Al-Qur\u2019an yang dimaksud ayat di atas ada yang terlaksana di dunia, seperti kebenaran janji Allah kepada orang-orang yang beriman bahwa mereka akan menang dalam peperangan melawan kaum musyrikin, dan ada yang terlaksana di akhirat, seperti kebenaran janji Allah tentang balasan dan perhitungan yang akan dilakukan terhadap manusia di hari akhir nanti.",
        "intro_surah": "Surah ini terdiri dari 99 ayat, termasuk golongan surah-surah Makkiyah, karena diturunkan di Mekah sebelum Nabi Muhammad saw hijrah ke Medinah. Al-\u1e24ijr adalah nama sebuah pegunungan yang didiami oleh kaum \u1e60amud, terletak di pinggir jalan raya antara Medinah dan Syam (Syria).\nNama surah ini diambil dari nama daerah pegunungan itu, sebagai peringatan bagi kaum Muslimin karena penduduknya, yaitu kaum \u1e60amud yang dikisahkan pada ayat 80 sampai dengan ayat 84, telah dimusnahkan akibat mendustakan Nabi Saleh dan berpaling dari ayat-ayat Allah.\nDalam surah ini terdapat pula kisah-kisah kaum lain yang telah dibinasakan oleh Allah, seperti kaum Lu\u1e6d a.s. dan kaum Syu\u2018aib a.s. Semua kisah-kisah itu dapat dijadikan tamsil dan ibarat bahwa orang-orang yang menentang ajaran rasul-rasul akan mengalami kehancuran.\n\nPokok-pokok Isinya\n1. \tKeimanan:\nKepastian nasib suatu bangsa hanyalah di tangan Allah; Allah menjamin kemurnian Al-Qur\u2019an sepanjang masa; setan tidak dapat naik ke alam malakut karena ada yang menjaganya; kadar rezeki yang diberikan kepada manusia sesuai dengan hikmah dan kebijaksanaan Allah; Allah memelihara hamba-Nya yang telah mendapat taufik dari godaan setan; Allah di samping mempunyai sifat pengampun lagi penyayang juga mengazab orang-orang yang ingkar; manusia akan dihimpun pada hari kiamat.\n2. \tHukum:\nLarangan melakukan homoseksual, kewajiban melakukan ibadah selama hidup, larangan menginginkan harta orang kafir, perintah kepada Nabi Muhammad saw agar melakukan dakwah secara terang-terangan, larangan berputus asa terhadap rahmat Allah.\n3. \tKisah:\nNabi Ibrahim a.s. dengan kaumnya, Nabi Lu\u1e6d a.s. dengan kaumnya, kaum Syu\u2018aib dan kaum Saleh (kaum \u1e60amud)\n4. \tLain-lain:\nKejadian alam semesta ini menunjukkan kekuasaan dan kebesaran Allah; kejadian alam dan isinya mengandung hikmah; angin mengawinkan tepung sari buah-buahan; asal kejadian Adam as.\n",
        "outro_surah": null,
        "munasabah_prev_surah": "MUNASABAH SURAH IBR\u0100H\u012aM\nDENGAN SURAH AL-\u1e24IJR\n\n1. \tKeduanya sama-sama dimulai dengan \u201calif l\u0101m r\u0101\u201d dan menerangkan sifat-sifat Al-Qur\u2019an Al-Karim.\n2. \tDalam Surah Ibr\u0101h\u012bm, Allah menjelaskan bahwa Al-Qur\u2019an itu pembimbing manusia ke jalan Allah, kemudian dalam Surah al-\u1e24ijr, Allah menegaskan bahwa kejadian-kejadian alam ini mengandung hikmah, sebagai tanda keesaan dan kebesaran Allah swt.\n3. \tKedua surah ini menerangkan kisah Nabi Ibrahim a.s. secara terperinci.\n4. \tKeduanya sama-sama menerangkan keadaan orang-orang kafir di hari kiamat dan penyesalan mereka, mengapa sewaktu hidup di dunia mereka tidak menjadi orang mukmin.\n5. \tKedua surah ini sama-sama menceritakan kisah-kisah nabi yang terdahulu dengan kaumnya, serta menerangkan keadaan orang-orang yang ingkar kepada para nabi itu pada hari kiamat. Kisah-kisah itu disampaikan kepada Nabi Muhammad saw untuk menghibur dan memantapkan hati beliau pada waktu mengalami berbagai kesulitan dalam menyiarkan agama Islam.",
        "munasabah_prev_theme": "Ayat-ayat yang lalu menerangkan jaminan Allah swt terhadap kesucian dan kemurnian Al-Qur\u2019an. Allah menjamin kemurnian dan kesucian Al-Qur\u2019an itu dari campur tangan manusia, akan memelihara lafaz dan maknanya, susunan dan bacaannya sampai akhir zaman nanti. Dalam ayat-ayat berikut ini dijelaskan sikap umat terdahulu terhadap para rasul yang diutus kepada mereka. Mereka telah memperolok-olokkan Rasulullah saw dan Al-Qur\u2019an yang diturunkan kepadanya.",
        "theme_group": "SIKAP UMAT DAHULU TERHADAP\nSERUAN RASUL ",
        "kosakata": "Kosakata: Syiya\u2019 \u0634\u0650\u064a\u064e\u0639\u0650   (al-\u1e24ijr/15: 10)\nBentuk jamak dari syi\u2019ah. Terambil dari kata sya\u2019a artinya \u201ctersiar\u201d. Syi\u2019ah berarti orang-orang yang dijadikan sumber kekuatan oleh orang lain dan menyebabkan orang itu menjadi dikenal. Sering diterjemahkan dengan \u201ckelompok\u201d atau \u201csuku\u201d. Contohnya adalah ayat yang artinya, \u201cIni adalah dari kelompoknya dan ini dari musuhnya,\u201d (al-Qa\u1e63a\u1e63/28: 15). Maksudnya: salah seorang yang berkelahi itu adalah dari suku Musa, yaitu Bani Israil, dan yang seorang lagi dari suku Mesir. Musa meninju orang itu yang menyebabkan kematiannya.\nBentuk jamaknya misalnya dalam Surah al-\u1e24ijr/15: 10 ini, \u201cDan sungguh Kami telah mengutus sebelummu kepada kelompok-kelompok yang terdahulu.\u201d Maksudnya, Allah telah mengutus para rasul yang juga manusia kepada umat-umat sebelum Nabi Muhammad, bukan malaikat. Oleh karena itu, bila Nabi Muhammad disanggah oleh umatnya, itu hal yang sudah lumrah, sehingga ia tidak perlu kecewa.  ",
        "sabab_nuzul": null,
        "conclusion": null
    }
}