{
    "id": 1866,
    "surah_id": 15,
    "ayah": 64,
    "page": 265,
    "quarter_hizb": 27.25,
    "juz": 14,
    "manzil": 3,
    "arabic": "\u0648\u064e\u0627\u064e\u062a\u064e\u064a\u0652\u0646\u0670\u0643\u064e \u0628\u0650\u0627\u0644\u0652\u062d\u064e\u0642\u0651\u0650 \u0648\u064e\u0627\u0650\u0646\u0651\u064e\u0627 \u0644\u064e\u0635\u0670\u062f\u0650\u0642\u064f\u0648\u0652\u0646\u064e ",
    "latin": "Wa atain\u0101ka bil-\u1e25aqqi wa inn\u0101 la\u1e63\u0101diq\u016bn(a).",
    "translation": "Kami datang kepadamu membawa kebenaran. Sesungguhnya kami orang-orang yang benar.",
    "no_footnote": null,
    "footnotes": null,
    "surah": {
        "id": 15,
        "arabic": " \u0627\u0644\u062d\u062c\u0631",
        "latin": "Al-\u1e24ijr",
        "transliteration": "Al-Hijr",
        "translation": "Hijr",
        "num_ayah": 99,
        "page": 262,
        "location": "Makkiyah"
    },
    "tafsir": {
        "wajiz": "Dan jangalah engkau ragukan maksud kedatangan kami. Kami datang kepadamu dengan membawa kebenaran yang membuktikan kebenaran yang engkau sampaikan kepada mereka dan kesalahan mereka menolak ajakanmu untuk beriman kepada Allah. Dan sungguh, Kami adalah orang yang benar dalam ucapan dan perbuatan kami.\u201d",
        "tahlili": "Para malaikat menerangkan maksud kedatangan mereka kepada Lu\u1e6d a.s. Mereka datang untuk menyampaikan kabar buruk yaitu azab yang akan ditimpakan kepada kaumnya yang telah mengingkari dan men-dustakannya.\nDalam ayat ini disebutkan jawaban para malaikat, \u201cSesungguhnya kami datang kepadamu dengan membawa azab yang selalu mereka dustakan.\u201d Bahkan dengan perkataan, \u201cKami datang untuk mengazab mereka.\u201d Maksud jawaban para malaikat dengan perkataan yang demikian itu ialah untuk menyatakan kebenaran ancaman yang biasa disampaikan Lu\u1e6d kepada kaumnya selama ini. Nabi Lu\u1e6d a.s. selalu memperingatkan kaumnya agar mengikuti dan memeluk agama yang telah disampaikannya serta mengakui kerasulannya. Jika mereka tetap ingkar, mereka akan ditimpa azab Allah. Seruan dan pernyataan Lu\u1e6d ini mereka sambut dengan ejekan. Mereka tidak mempercayai keesaan dan kekuasaan Allah yang dapat mengazab orang-orang yang ingkar. Bahkan mereka menantang Lu\u1e6d agar segera menurunkan azab yang dijanjikan itu.\nKemudian para malaikat menegaskan kepada Lu\u1e6d bahwa maksud kedatangan mereka ialah untuk melaksanakan tugas yang telah dibebankan Allah swt kepada mereka untuk menyampaikan azab kepada kaumnya. Tugas ini pasti terlaksana dan segala yang mereka ucapkan itu adalah benar, karena mereka sendiri adalah para malaikat yang tidak pernah menyalahi perintah Allah.\nSetelah itu, para malaikat memberikan perintah kepada Lu\u1e6d a.s. tentang cara-cara yang harus dilaksanakannya beserta pengikut-pengikutnya untuk menghindarkan diri dari azab Allah yang akan datang. Lu\u1e6d beserta keluarga dan kaumnya yang telah beriman diperintahkan untuk segera meninggalkan negeri itu pada akhir malam. Lu\u1e6d a.s. diminta berjalan di belakang pengikut-pengikutnya, agar dia dapat mengatur dan mempertahankan diri dari serangan kaumnya yang mengejar dari belakang. Ini juga bertujuan  agar Lu\u1e6d a.s. dapat mendorong para pengikutnya berjalan secepatnya, karena azab yang akan ditimpakan hampir datang, dan ia dapat memperhatikan kaumnya yang tidak mau meneruskan perjalanan. Selanjutnya para malaikat memerintahkan agar tidak seorang pun dari pengikut Lu\u1e6d yang menoleh ke belakang pada waktu mendengar halilintar yang menghancurkan. Dengan demikian, mereka tidak dapat melihat peristiwa yang mengerikan yang dapat merusak dan menggoncangkan jiwa mereka, sehingga mereka selamat dan iman mereka bertambah kuat sampai ke tempat yang aman yang sedang dituju itu.\nPada ayat ini, disebutkan agar Lu\u1e6d berangkat beserta keluarga dan kaumnya yang setia. Kemudian para malaikat menguatkan perintah dan larangannya dengan mengatakan, \u201cTeruskanlah perjalananmu ke tempat yang telah diperintahkan kepadamu.\u201d Menurut suatu riwayat yang dimaksud dengan tempat yang diperintahkan dalam ayat ini ialah negeri Syam (Syria).\nPada Surah H\u016bd, kisah Lu\u1e6d dikisahkan menurut urutan peristiwa yang pernah terjadi, sedang pada surah ini dikisahkan secara melompat-lompat, tidak menurut urutan kejadian yang sebenarnya. Perbedaan cara dalam mengutarakan kisah ini adalah karena tujuan Allah menyampaikan kisah ini pada kedua surah tersebut juga berbeda. Jika dihubungkan dengan ayat-ayat sebelumnya, maka tujuan mengutarakan kisah Lu\u1e6d dalam Surah H\u016bd ialah untuk menguatkan hati Nabi Muhammad saw beserta sahabat-sahabatnya, dalam menyampaikan agama Allah dan menyatakan keesaan dan kekuasaan Allah swt yang wajib disembah. Rasul-rasul yang diutus Allah sejak dahulu selalu mendapat tantangan dan ancaman dari kaumnya, tetapi mereka tetap tabah dan sabar melaksanakan tugas yang dibebankan Allah kepada mereka. Sedang tujuan kisah Lu\u1e6d dengan kaumnya pada Surah Al-\u1e24ijr ini adalah untuk menjelaskan kepada orang-orang yang beriman akan rahmat dan nikmat Allah yang telah mereka terima. Juga nikmat yang telah diterima oleh orang-orang yang beriman dahulu kala kepada rasul-rasul yang diutus Allah kepada mereka. Di antaranya adalah nikmat yang telah dilimpahkan kepada Nabi Ibrahim a.s. berupa putra-putra yang selalu diidam-idamkannya, dan nikmat yang telah dilimpahkan kepada Nabi Lu\u1e6d beserta pengikutnya. Juga untuk menerangkan azab Allah yang telah ditimpakan kepada orang-orang kafir dan ingkar kepada dakwah rasul yang diutus kepada mereka.",
        "intro_surah": "Surah ini terdiri dari 99 ayat, termasuk golongan surah-surah Makkiyah, karena diturunkan di Mekah sebelum Nabi Muhammad saw hijrah ke Medinah. Al-\u1e24ijr adalah nama sebuah pegunungan yang didiami oleh kaum \u1e60amud, terletak di pinggir jalan raya antara Medinah dan Syam (Syria).\nNama surah ini diambil dari nama daerah pegunungan itu, sebagai peringatan bagi kaum Muslimin karena penduduknya, yaitu kaum \u1e60amud yang dikisahkan pada ayat 80 sampai dengan ayat 84, telah dimusnahkan akibat mendustakan Nabi Saleh dan berpaling dari ayat-ayat Allah.\nDalam surah ini terdapat pula kisah-kisah kaum lain yang telah dibinasakan oleh Allah, seperti kaum Lu\u1e6d a.s. dan kaum Syu\u2018aib a.s. Semua kisah-kisah itu dapat dijadikan tamsil dan ibarat bahwa orang-orang yang menentang ajaran rasul-rasul akan mengalami kehancuran.\n\nPokok-pokok Isinya\n1. \tKeimanan:\nKepastian nasib suatu bangsa hanyalah di tangan Allah; Allah menjamin kemurnian Al-Qur\u2019an sepanjang masa; setan tidak dapat naik ke alam malakut karena ada yang menjaganya; kadar rezeki yang diberikan kepada manusia sesuai dengan hikmah dan kebijaksanaan Allah; Allah memelihara hamba-Nya yang telah mendapat taufik dari godaan setan; Allah di samping mempunyai sifat pengampun lagi penyayang juga mengazab orang-orang yang ingkar; manusia akan dihimpun pada hari kiamat.\n2. \tHukum:\nLarangan melakukan homoseksual, kewajiban melakukan ibadah selama hidup, larangan menginginkan harta orang kafir, perintah kepada Nabi Muhammad saw agar melakukan dakwah secara terang-terangan, larangan berputus asa terhadap rahmat Allah.\n3. \tKisah:\nNabi Ibrahim a.s. dengan kaumnya, Nabi Lu\u1e6d a.s. dengan kaumnya, kaum Syu\u2018aib dan kaum Saleh (kaum \u1e60amud)\n4. \tLain-lain:\nKejadian alam semesta ini menunjukkan kekuasaan dan kebesaran Allah; kejadian alam dan isinya mengandung hikmah; angin mengawinkan tepung sari buah-buahan; asal kejadian Adam as.\n",
        "outro_surah": null,
        "munasabah_prev_surah": "MUNASABAH SURAH IBR\u0100H\u012aM\nDENGAN SURAH AL-\u1e24IJR\n\n1. \tKeduanya sama-sama dimulai dengan \u201calif l\u0101m r\u0101\u201d dan menerangkan sifat-sifat Al-Qur\u2019an Al-Karim.\n2. \tDalam Surah Ibr\u0101h\u012bm, Allah menjelaskan bahwa Al-Qur\u2019an itu pembimbing manusia ke jalan Allah, kemudian dalam Surah al-\u1e24ijr, Allah menegaskan bahwa kejadian-kejadian alam ini mengandung hikmah, sebagai tanda keesaan dan kebesaran Allah swt.\n3. \tKedua surah ini menerangkan kisah Nabi Ibrahim a.s. secara terperinci.\n4. \tKeduanya sama-sama menerangkan keadaan orang-orang kafir di hari kiamat dan penyesalan mereka, mengapa sewaktu hidup di dunia mereka tidak menjadi orang mukmin.\n5. \tKedua surah ini sama-sama menceritakan kisah-kisah nabi yang terdahulu dengan kaumnya, serta menerangkan keadaan orang-orang yang ingkar kepada para nabi itu pada hari kiamat. Kisah-kisah itu disampaikan kepada Nabi Muhammad saw untuk menghibur dan memantapkan hati beliau pada waktu mengalami berbagai kesulitan dalam menyiarkan agama Islam.",
        "munasabah_prev_theme": "Pada ayat-ayat yang terdahulu diterangkan bahwa para malaikat telah datang kepada Nabi Ibrahim a.s. menyampaikan kabar gembira akan kelahiran Ishak. Karena banyaknya malaikat yang datang itu, maka Ibrahim menanyakan tugas yang diberikan Allah swt kepada mereka. Para malaikat itu menjawab bahwa mereka ditugaskan Allah menimpakan azab kepada kaum Lu\u1e6d yang mengingkari seruan nabi yang diutus kepada mereka. Pada ayat-ayat yang berikut ini, diterangkan perbuatan-perbuatan mungkar dan keji yang telah dilakukan oleh kaum Lu\u1e6d, serta azab yang ditimpakan kepada mereka karena perbuatan mereka. Ayat-ayat ini menjelaskan jawaban para malaikat terhadap pertanyaan Ibrahim kepada mereka tentang tugas yang diberikan Allah.\n",
        "theme_group": "KISAH LU\u1e6c A.S. DAN KAUMNYA",
        "kosakata": "Kosakata: L\u016b\u1e6d  \u0644\u064f\u0648\u0652\u0637  (al-\u1e24ijr/15: 61)\nPada garis besarnya kisah Nabi Lu\u1e6d dalam Al-Qur\u2019an hampir sama seperti yang diceritakan dalam Bibel, tanpa menyebut nama-nama orang atau tempat dengan terinci, dan beberapa peristiwa lain. \nLu\u1e6d dalam ejaan Bibel adalah Lot. Lot anak Haran dan cucu Terah lahir di Ur, Kaldea; dia adalah kemenakan Abram (Ibrahim) (Kej. 11: 27, 31). Ia menemani pamannya dalam bermigrasi dari Haran (Harran) ke Kanaan, kemudian ke Mesir. Setelah keluar meninggalkan Mesir bersama Sarah, istrinya, dan Lot, dengan membawa kekayaan yang tidak sedikit, Abraham kembali ke perkemahannya yang dulu di dekat Betel dan Ai, melalui selatan Palestina. Kekayaan mereka, terutama ternak yang bertambah besar menyebabkan kedua kerabat itu terpisah, sebab padang rumput di daerah itu tidak akan mencukupi dan terasa sempit sekali. Lot lalu memilih daerah subur di kawasan Yordania. Di distrik inilah terletak Sodom dan Gomorah, sebelah timur Laut Mati. Watak Lot yang dilukiskan keras dan menyukai kemewahan  sangat berlawanan dengan watak Abraham yang lembut. Akhir hayat Lot tidak jelas. Sebelum itu, Abraham sudah menetap di dekat pohon-pohon tarbantin di Mamre, dekat Hebron . \nSeperti disebutkan di atas, Al-Qur\u2019an sedikit sekali menyebut nama orang atau tempat. Tidak seorang pun nama anggota keluarga Rasulullah atau sahabat dekatnya yang disebutkan selain Zaid. Nama Lu\u1e6d dalam Al-Qur\u2019an disebutkan dalam 27 ayat, tanpa menyebut nama, tempat, dan pelaku, selain Lu\u1e6d sendiri dan Ibrahim. Dimulai dengan menyebutkan bahwa Allah telah memberi kearifan dan ilmu kepada Lu\u1e6d dan dimasukkan-Nya ke dalam rahmat-Nya, karena dia termasuk hamba-Nya yang saleh (al-Anbiy\u0101\u2019/21: 74-75). Perlu diperhatikan, bahwa Nabi Lu\u1e6d tidak termasuk kaum Sodom dan Gomorah. Oleh karena itu, dalam Qur\u2019an Lu\u1e6d tidak disebut akh\u0101hum  seperti pada Hud, Saleh dan Syu\u2018aib, dengan menyebut untuk kaum \u2018Ad \u201cakh\u0101hum H\u016bdan\u201d, kaum \u1e60amud \u201cakh\u0101hum \u1e62\u0101li\u1e25an\u201d,  dan kaum Madyan \u201cakh\u0101hum Syu`aiban\u201d. Lu\u1e6d sudah beriman kepada Ibrahim dan mengikuti ajaran dan perjuangannya. Ia tinggal di tempat itu setelah berpisah dengan pamannya, Ibrahim. Ia kemudian diutus Tuhan kepada penduduk tempat itu untuk menyampaikan pesan suci. Tetapi ia menganggap kaumnya itu seperti saudara-saudaranya sendiri (Q\u0101f/50: 13) seperti yang selalu dilakukan para nabi. ",
        "sabab_nuzul": null,
        "conclusion": null
    }
}