{
    "id": 1882,
    "surah_id": 15,
    "ayah": 80,
    "page": 266,
    "quarter_hizb": 27.25,
    "juz": 14,
    "manzil": 3,
    "arabic": "\u0648\u064e\u0644\u064e\u0642\u064e\u062f\u0652 \u0643\u064e\u0630\u0651\u064e\u0628\u064e \u0627\u064e\u0635\u0652\u062d\u0670\u0628\u064f \u0627\u0644\u0652\u062d\u0650\u062c\u0652\u0631\u0650 \u0627\u0644\u0652\u0645\u064f\u0631\u0652\u0633\u064e\u0644\u0650\u064a\u0652\u0646\u064e\u06d9",
    "latin": "Wa laqad ka\u017c\u017caba a\u1e63\u1e25\u0101bul-\u1e25ijril-mursal\u012bn(a).",
    "translation": "Sesungguhnya penduduk (negeri) Hijr405) benar-benar telah mendustakan para rasul (mereka),406)",
    "no_footnote": "405, 406",
    "footnotes": "405) Penduduk negeri Hijr adalah kaum Samud, kaum Nabi Saleh a.s. Hijr merupakan nama satu tempat yang terletak di Wadi Qura antara Madinah dan Suriah.\n406) Yang dimaksud dengan rasul-rasul di sini adalah Nabi Saleh a.s. Seharusnya, di sini disebut rasul, tetapi disebut rasul-rasul (jamak) karena mendustakan seorang rasul sama dengan mendustakan semua rasul.",
    "surah": {
        "id": 15,
        "arabic": " \u0627\u0644\u062d\u062c\u0631",
        "latin": "Al-\u1e24ijr",
        "transliteration": "Al-Hijr",
        "translation": "Hijr",
        "num_ayah": 99,
        "page": 262,
        "location": "Makkiyah"
    },
    "tafsir": {
        "wajiz": "Usai menuturkan kisah kaum Nabi Lut dan Nabi Syu\u2019aib, Allah lalu menceritakan kisah Kaum Samud, kaum Nabi Saleh. Allah berfirman, \u201cDan sesungguhnya penduduk negeri Hijr, yakni kaum Samud yang mendiami suatu wilayah di Wadi al-Qura antara Madinah dengan Suriah, benar-benar telah mendustakan Nabi Saleh sebagai salah seorang dari para rasul yang Allah utus kepada mereka.",
        "tahlili": "Ayat ini menerangkan bahwa penduduk kota al-Hijr telah men-dustakan para rasul. Dalam ayat ini disebutkan rasul-rasul padahal mereka hanya mendustakan seorang rasul, yaitu Nabi Saleh a.s., karena mendustakan seorang rasul hukumnya sama dengan mendustakan seluruh rasul Allah. Seluruh rasul yang diutus Allah membawa agama tauhid dan asas-asas agama yang sama. Walaupun mendustakan seorang rasul, tetapi mereka telah mendustakan ketauhidan dan asas-asas agama yang dibawa rasul itu, yang berarti mereka telah mendustakan seluruh rasul.\nKota al-Hijr adalah tempat tinggal kaum \u1e60amud yang terletak antara Mekah dan Syam, di dekat Wadil-Qur\u0101. Kepada mereka diutus Nabi Saleh yang diberi mukjizat sebagai bukti kerasulannya. Saleh menyatakan mukjizatnya berupa unta betina yang mereka kenal sebagai bukti kerasulan-nya. Unta itu tidak boleh diganggu dan disakiti. Jatah air minumnya ditentukan banyaknya secara bergantian, yaitu sehari untuk minum unta dan sehari untuk minum mereka semuanya. Tetapi mereka tidak mau mengikuti ketentuan Saleh itu, bahkan mereka menyembelih unta itu. ",
        "intro_surah": "Surah ini terdiri dari 99 ayat, termasuk golongan surah-surah Makkiyah, karena diturunkan di Mekah sebelum Nabi Muhammad saw hijrah ke Medinah. Al-\u1e24ijr adalah nama sebuah pegunungan yang didiami oleh kaum \u1e60amud, terletak di pinggir jalan raya antara Medinah dan Syam (Syria).\nNama surah ini diambil dari nama daerah pegunungan itu, sebagai peringatan bagi kaum Muslimin karena penduduknya, yaitu kaum \u1e60amud yang dikisahkan pada ayat 80 sampai dengan ayat 84, telah dimusnahkan akibat mendustakan Nabi Saleh dan berpaling dari ayat-ayat Allah.\nDalam surah ini terdapat pula kisah-kisah kaum lain yang telah dibinasakan oleh Allah, seperti kaum Lu\u1e6d a.s. dan kaum Syu\u2018aib a.s. Semua kisah-kisah itu dapat dijadikan tamsil dan ibarat bahwa orang-orang yang menentang ajaran rasul-rasul akan mengalami kehancuran.\n\nPokok-pokok Isinya\n1. \tKeimanan:\nKepastian nasib suatu bangsa hanyalah di tangan Allah; Allah menjamin kemurnian Al-Qur\u2019an sepanjang masa; setan tidak dapat naik ke alam malakut karena ada yang menjaganya; kadar rezeki yang diberikan kepada manusia sesuai dengan hikmah dan kebijaksanaan Allah; Allah memelihara hamba-Nya yang telah mendapat taufik dari godaan setan; Allah di samping mempunyai sifat pengampun lagi penyayang juga mengazab orang-orang yang ingkar; manusia akan dihimpun pada hari kiamat.\n2. \tHukum:\nLarangan melakukan homoseksual, kewajiban melakukan ibadah selama hidup, larangan menginginkan harta orang kafir, perintah kepada Nabi Muhammad saw agar melakukan dakwah secara terang-terangan, larangan berputus asa terhadap rahmat Allah.\n3. \tKisah:\nNabi Ibrahim a.s. dengan kaumnya, Nabi Lu\u1e6d a.s. dengan kaumnya, kaum Syu\u2018aib dan kaum Saleh (kaum \u1e60amud)\n4. \tLain-lain:\nKejadian alam semesta ini menunjukkan kekuasaan dan kebesaran Allah; kejadian alam dan isinya mengandung hikmah; angin mengawinkan tepung sari buah-buahan; asal kejadian Adam as.\n",
        "outro_surah": null,
        "munasabah_prev_surah": "MUNASABAH SURAH IBR\u0100H\u012aM\nDENGAN SURAH AL-\u1e24IJR\n\n1. \tKeduanya sama-sama dimulai dengan \u201calif l\u0101m r\u0101\u201d dan menerangkan sifat-sifat Al-Qur\u2019an Al-Karim.\n2. \tDalam Surah Ibr\u0101h\u012bm, Allah menjelaskan bahwa Al-Qur\u2019an itu pembimbing manusia ke jalan Allah, kemudian dalam Surah al-\u1e24ijr, Allah menegaskan bahwa kejadian-kejadian alam ini mengandung hikmah, sebagai tanda keesaan dan kebesaran Allah swt.\n3. \tKedua surah ini menerangkan kisah Nabi Ibrahim a.s. secara terperinci.\n4. \tKeduanya sama-sama menerangkan keadaan orang-orang kafir di hari kiamat dan penyesalan mereka, mengapa sewaktu hidup di dunia mereka tidak menjadi orang mukmin.\n5. \tKedua surah ini sama-sama menceritakan kisah-kisah nabi yang terdahulu dengan kaumnya, serta menerangkan keadaan orang-orang yang ingkar kepada para nabi itu pada hari kiamat. Kisah-kisah itu disampaikan kepada Nabi Muhammad saw untuk menghibur dan memantapkan hati beliau pada waktu mengalami berbagai kesulitan dalam menyiarkan agama Islam.",
        "munasabah_prev_theme": "Pada ayat-ayat yang lalu diterangkan azab Allah yang telah ditimpakan kepada penduduk Sodom, tempat tinggal kaum Lu\u1e6d, karena mengingkari dan menentang seruan rasul Allah yang diutus kepada mereka. Pada ayat ini diterangkan pula azab Allah yang ditimpakan kepada penduduk kota Aikah, karena mereka juga menentang dan mengingkari seruan rasul Allah yang diutus kepada mereka.",
        "theme_group": "KISAH KAUM SYU\u2018AIB DAN KAUM \u1e60AMUD",
        "kosakata": "A\u1e63\u1e25\u0101bul Aikah  \u0627\u064e\u0635\u0652\u062d\u064e\u0627\u0628\u064f \u0627\u0652\u0644\u0623\u064e\u064a\u0652\u0643\u064e\u0629\u0650  (al-\u1e24ijr/15: 78)\nBerbicara tentang A\u1e63\u1e25\u0101bul Aikah tentu tidak bisa lepas dari pembicaraan tentang Syu\u2018aib dan Madyan. Mengenai arti aikah para mufasir umumnya mengartikannya dengan \u201chutan,\u201d ada pula yang mengartikan \u201clembah, wadi.\u201d Al-Mu\u2019jam al-Mufahras li Alf\u0101\u1e93 al-Qur\u2019\u0101nil-Kar\u012bm mengartikan kata  aikah sebagai pohon belukar. Daerah ini terletak di Madyan, tempat Nabi Syu\u2018aib diutus. A\u1e63\u1e25\u0101bul Aikah ialah suatu masyarakat Nabi Syu\u2018aib yang tinggal di daerah yang berpepohonan lebat. Kedua kata ini dalam Al-Qur\u2019an terdapat dalam  Surah al-\u1e24ijr/15: 78,  asy-Syu\u2019ar\u0101\u2019/26: 176, \u1e62\u0101d/38: 13 dan Q\u0101f/50: 14. Dalam Surah al-\u1e24ijr/15: 78 mereka dilukiskan sebagai orang-orang zalim dan durjana. Ayat yang agak terinci mengenai ini terdapat dalam asy-Syu\u2019\u0101ra\u2019/26: 176-191. \nDalam ayat-ayat ini disebutkan bahwa para penghuni hutan itu telah mendustakan para nabi mereka, termasuk Nabi Syu\u2018aib, yang memperkenal-kan diri kepada mereka tanpa mengharapkan imbalan, mengajak bertakwa kepada Allah dan mau menaatinya. Mereka adalah masyarakat pedagang yang suka mengecoh. Syu\u2018aib mengingatkan mereka agar jangan bertindak merugikan orang lain, mengecoh dalam berdagang, memalsukan dagangan, dan mempermainkan timbangan dan sukatan. Akan tetapi, mereka berbalik menuduh Syu\u2018aib sudah kena sihir, pendusta, dan tidak berbeda dengan mereka, manusia biasa. Dia ditantang agar membuktikan kenabiannya dengan menjatuhkan kepingan-kepingan dari langit, seperti halnya dengan Nabi Muhammad yang menghadapi  tantangan Quraisy (al-Isr\u0101\u2019/17: 92). Para penghuni hutan itu kemudian mengalami bencana yang membinasakan mereka. (Lihat juga kosakata \u201cSyu\u2018aib\u201d dan \u201cMadyan\u201d).\n\nA\u1e63\u1e25\u0101bul al-\u1e24ijr  \u0627\u064e\u0635\u0652\u062d\u064e\u0627\u0628\u064f \u0627\u0644\u0652\u062d\u0650\u062c\u0652\u0631\u0650  (al-\u1e24ijr/15: 80)\nPenduduk Hijr (A\u1e63\u1e25\u0101bul al-\u1e24ijr) ialah kaum \u1e60amud\u2014penerus peradaban kaum \u2018Ad. Mereka masih bersaudara sepupu, dan dari satu ras yang sama. Kisah mereka juga bertalian erat dengan tradisi Arab. Tentang Nabi Saleh, menurut beberapa mufasir dan genealogi adalah anak Obeid anak Asif anak Maseh anak Obeid anak Ha\u017cir anak \u1e60amud, dan \u1e60amud anak \u2018Abir (saudara Aram), anak Sam, anak Nuh. Nabi Saleh ditolak dan didustakan oleh kaumnya sendiri, kaum \u1e60amud. Sekalipun dalam ayat disebutkan dalam bentuk jamak, al-mursal\u012bn (para rasul), para mufasir umumnya mengatakan, bahwa bila salah seorang nabi didustakan, berarti juga mendustakan semua nabi, karena risalah yang mereka bawa semua sama, yaitu tauhid yang berlaku untuk semua bangsa dan zaman. Kaum \u1e60amud sudah diberi peringatan dengan tanda-tanda dari Allah, tetapi oleh mereka diabaikan dan ditentang dan ditantang. Mereka sangat sombong, karena merasa sebagai golongan kaya dan pandai. Sosok tubuh dan perawakan mereka tinggi-tinggi, dan mereka terkenal mahir dalam membangun rumah. Mereka memahat gunung-gunung menjadi tempat tinggal, yang menurut anggapan mereka cukup aman. Tetapi tiba-tiba suatu pagi datang  ledakan dahsyat merenggut mereka semua, termasuk semua yang mereka kerjakan tak ada artinya lagi. \nItulah kisah kaum \u1e60amud, yang lengkapnya terangkum dalam 5 ayat di atas dan dalam al-A\u2018r\u0101f/7: 73-79.  Sebelum itu, Allah telah memberi peringatan kepada kaum pendahulunya: \n\u0648\u064e\u0627\u0630\u0652\u0643\u064f\u0631\u064f\u0648\u0652\u0653\u0627 \u0627\u0650\u0630\u0652 \u062c\u064e\u0639\u064e\u0644\u064e\u0643\u064f\u0645\u0652 \u062e\u064f\u0644\u064e\u0641\u064e\u0627\u06e4\u0621\u064e \u0645\u0650\u0646\u0652\u06e2 \u0628\u064e\u0639\u0652\u062f\u0650 \u0639\u064e\u0627\u062f\u064d \u0648\u0651\u064e\u0628\u064e\u0648\u0651\u064e\u0627\u064e\u0643\u064f\u0645\u0652 \u0641\u0650\u0649 \u0627\u0644\u0652\u0627\u064e\u0631\u0652\u0636\u0650 \u062a\u064e\u062a\u0651\u064e\u062e\u0650\u0630\u064f\u0648\u0652\u0646\u064e \u0645\u0650\u0646\u0652 \u0633\u064f\u0647\u064f\u0648\u0652\u0644\u0650\u0647\u064e\u0627 \u0642\u064f\u0635\u064f\u0648\u0652\u0631\u064b\u0627 \u0648\u0651\u064e\u062a\u064e\u0646\u0652\u062d\u0650\u062a\u064f\u0648\u0652\u0646\u064e \u0627\u0644\u0652\u062c\u0650\u0628\u064e\u0627\u0644\u064e \u0628\u064f\u064a\u064f\u0648\u0652\u062a\u064b\u0627 \u06da\u0641\u064e\u0627\u0630\u0652\u0643\u064f\u0631\u064f\u0648\u0652\u0653\u0627 \u0627\u0670\u0644\u064e\u0627\u06e4\u0621\u064e \u0627\u0644\u0644\u0651\u0670\u0647\u0650 \u0648\u064e\u0644\u064e\u0627 \u062a\u064e\u0639\u0652\u062b\u064e\u0648\u0652\u0627 \u0641\u0650\u0649 \u0627\u0644\u0652\u0627\u064e\u0631\u0652\u0636\u0650 \u0645\u064f\u0641\u0652\u0633\u0650\u062f\u0650\u064a\u0652\u0646\u064e \u0667\u0664\n\u201cDan ingatlah tatkala Ia menjadikan kamu para khalifah (pengganti) sesudah \u2018Ad, dan menempatkan kamu di bumi dan di tanah datar kamu mendirikan istana-istana dan benteng-benteng, dan gunung-gunung kamu pahat menjadi rumah-rumah. Ingatlah akan karunia Allah. Janganlah sekali-kali kamu membuat kerusakan di bumi.\u201d (al-A\u2018r\u0101f/7: 74)\n\nAyat ini dapat ditempatkan sebagai pengantar untuk memasuki kisah tentang kehidupan dan peradaban kaum \u1e60amud, sesudah kaum `Ad. Kaum \u1e60amud sebagai kabilah Arab purba atau al-\u2019Arab al-\u0101ribah, keturunan Ya\u2019rub bin Qai\u0101n di Arab bagian selatan\uf0besebelum Nabi Ibrahim\uf0beadalah penerus kebudayaan dan peradaban kaum \u2018Ad yang sudah punah lebih dulu. Mereka masih punya hubungan keluarga. Keduanya dari ras yang sama.  Kaum `Ad merupakan eponim moyang mereka yang bernama \u2018Ad bin \u2018Adi bin Sam bin Nuh. Sedang \u1e60amud nama kabilah dari eponim leluhur mereka yang bernama \u1e60amud bin \u2018Amir bin Aram bin Sam bin Nuh. Masih ada lagi versi lain yang tidak begitu penting dan sedikit berbeda. Akan tetapi, Al-Qur\u2019an memang tidak pernah merinci silsilah orang yang disebutkan namanya, karena kehadiran mereka disebut hanya sebagai tamsil.\nTempat dan masa mereka terpisah jauh. Kaum \u2018Ad di Arab bagian selatan, sedang daerah \u1e60amud di utara antara timur Semenanjung Arab dengan Suria (Hijaz-Syam), di sebelah utara Medinah, atau di barat-daya ujung jazirah Arab sampai ke Wadi al-Qura dan sekitarnya yang sangat luas dan subur. Tempat dan kebudayaan daerah ini oleh penulis-penulis Eropa biasa disebut Nabateans, yang dalam sebutan Arab Nabat atau Anbat dan ibu kotanya Batra\u2019 (Petra). \nDaerah Hijr yang berarti \u201cdaerah berbatu-batu\u201d merupakan sebuah lembah yang terletak di antara Medinah dengan Syam, dan ditandai oleh Jabal Hijr, sekitar 250 km. utara Medinah. Tempat ini cukup dikenal, karena kafilah haji dari Syam melalui daerah ini. Kota tua di barat daya Yordania di Laut Merah ke arah Arab Saudi itu, membujur dari timur ke barat di Wadi Musa. Dikenal juga dengan nama \"Petr\u00e6\" (Petra) dalam bahasa Yunani, yang berarti \"batu\" atau al-Batra\u2019 dalam bahasa Arab, sebuah kota tua kaum Edom dan Nabat yang puing-puingnya masih ditemukan di barat laut Yordania. Sisa-sisa bangunan dari batu dan prasasti-prasasti yang punya arti penting dalam sejarah masih ada di tempat ini. Dalam perjalanan ekspedisi ke Tabuk melawan kekuatan Romawi yang hendak mengadakan serangan ke Medinah dari Suria pada tahun 9 Hijri, Nabi Muhammad berhasil menye-berangi bekas-bekas situs arkelogi tanah \u1e60amud. Dalam peta, daerah yang disebut Hijr ini berada di utara kota Medinah, ke arah tenggara Madian (Madyan), tempat Nabi Syu\u2018aib, tak jauh dari Teluk \u2018Aqabah. Kota ini juga disebut Mad\u0101\u2019in S\u0101lih\uf0bekota-kota Nabi Saleh. Bekas-bekas reruntuhannya masih sering dikunjungi orang termasuk para orientalis.  \nMengenai inskripsi-inskripsi \u1e60amud di Hijr itu, Abdullah Yusuf Ali menyebutkan bahwa C. M. Doughty  mengadakan perjalanan  ke barat laut Jazirah Arab dan ke Najd pada tahun 1880-an, seperti dilukiskan dalam Arabia  Deserta, bukunya paling  terkenal  mengenai buku-buku  perjalanan ke jazirah Arab. Ia mengadakan perjalanan melalui jalur kafilah haji yang  lama (Darb al-Hajj) bersama-sama dengan sebuah iring-iringan jamaah haji dari Damsyik sampai ke Mada\u2019in Saleh. Dalam sejarah agama, ia meninggal-kan tanda-tanda bekas reruntuhan lokasi kaum \u1e60amud yang kepada mereka diutus Nabi Saleh dan unta betinanya sebagai mukjizat. Ia melukiskan sangat terinci secara pandangan mata pengalamannya mengenai Mada\u2019in Saleh dan Mabrak an-N\u0101qah (tempat unta betina Nabi Saleh menderum atau berlutut). \nSecara umum hasil studi tersebut barangkali dapat diringkaskan: Patung dan arsitektur yang ditemukan di situ  sama dengan yang ada di monumen-monumen Nabatea di Petra. Inskripsi-inskripsi di Petra tak ada yang bertarikh, tetapi di Mada\u2019in Saleh ada beberapa di antaranya. Di Mada\u2019in barangkali terdapat 100 buah ruang batu pahat patung, di antaranya terdapat tulang belulang dan sisa-sisa manusia, yang memperlihatkan bahwa orang-orang Nabatea itu sudah mengenal pembalseman, dan kain linen yang dipakai sama jenisnya dengan yang dipakai di Mesir kuno. Kuburan-kuburan  dipersembahkan kepada keluarga-keluarga ternama, dan nama raja-raja Nabatea masing-masing bergelar \u201cyang mencintai rakyatnya\u201d. Ada pilar-pilar besar yang bersisi rata, dan gambar-gambar binatang empat kaki, burung elang dan  burung-burung lain. Di samping  ruang-ruang  patung itu,  ada sebuah Ruang Sidang atau Ruang Dewan (Liwan), berukuran 25 x 27 x 13 kaki. Ini barangkali sebuah  kuil. Dewa-dewa yang disembah, yang kita kenal nama-namanya dari sumber Nabatea yang lain\u2014Dusares, Martaba, Mana, Keis dan  Hubal, Lat, Manat dan Hubal juga dikenal karena kaitannya dengan berhala-berhala  kaum  musyrik pada zaman  jahiliah\u2026 \nRentang waktu  yang terdapat pada inskripsi-inskripsi itu dari tahun 3 Pra-Masehi sampai 79 Masehi. Dalam kurun waktu yang singkat selama 82 tahun itu dapat dilihat beberapa perkembangan palaeografi Semit. Tulisan-tulisan itu dari tahun ke tahun makin bersambung-sambung. Di sini terlihat adanya suatu titik temu tulisan-tulisan Armenia Lama, Ibrani Persegi, Palmyra (Tadmur), Sinai, Kufi dan Naskh.\nKaum \u1e60amud adalah orang-orang prasejarah, dan mereka menempati  lokasi-lokasi yang  kemudian ditempati oleh orang-orang Nabatea  dan  yang lain. Tempat bersimpuhnya unta betina Nabi Saleh (Mabrak an-N\u0101qah) dan \u201csumur unta\u201d (Bi\u2019ir an-N\u0101qah), dan sejumlah nama setempat telah mengabadikan kenangan kepada orang-orang jazirah Arab purba dan nabi mereka, Nabi Saleh. Ia diutus kepada kaum \u1e60amud penyembah berhala, yang ahli bangunan dan pemuja kemewahan, karena hidup mereka makmur. Kekayaan mereka terdiri dari ternak, kebun-kebun kurma dan pertanian yang subur serta mata air yang melimpah, tetapi mereka sombong dan Nabi Saleh dikatakan hanya mau mencari imbalan (asy-Syu\u2019ar\u0101\u2019/26: 141-145), seperti yang juga dikatakan para nabi sebelumnya. Nabi Saleh mengatakan, bahwa sebagai seorang rasul ia mengajak kaumnya untuk taat kepada Allah dan mematuhi hukum yang berlaku. Diingatkannya bahwa mereka tidak akan selamanya dalam kemewahan dan kenikmatan hidup dan jangan terpengaruh oleh mereka yang melakukan kejahatan melampaui batas (asy-Syu\u2019ar\u0101\u2019/26: 146-151). Jangan membuat kerusakan di bumi dan mencemarkan segala lambang suci. Tetapi mereka menuduh Nabi Saleh tukang sihir; tak lebih ia hanya manusia biasa, dan mereka meminta bukti tentang kenabiannya. Bahkan, sebagai lambangnya unta betina sengaja mereka bantai. Kemudian mereka pun merasakan azab Tuhan (asy-Syu\u2019ar\u0101\u2019/26: 152-159). \nAkibat peringatan itu datang juga. Suatu pagi mereka dikejutkan oleh suatu ledakan dahsyat, dan mereka tersungkur mati dalam timbunan rumah-rumah mereka sendiri. Mereka ditelan oleh angin ribut dan gempa bumi (al-A\u2018r\u0101f/7: 78; al-\u1e24ijr/15: 81-84) \nKaum \u1e60amud telah mewarisi kaum \u2018Ad yang sudah punah lebih dulu. Situs Iram yang disebutkan dalam Al-Qur\u2019an (al-Fajr/89:6-7), ibu kota kaum \u2018Ad itu, dalam November 1991 telah ditemukan oleh sebuah misi penggalian yang dipimpin oleh  Prof. Juris Zurin, arkeolog dari Southwest Missouri State University, Amerika Serikat. Dengan didukung oleh jasa satelit, misi ini berhasil menguak reruntuhan kota itu. Letaknya di daerah Gofar, bagian selatan kerajaan Oman. Misi Zurin itu  menyebut kota Iram ini sebagai Ubar. Sesudah tiga bulan mengadakan penggalian, Februari tahun berikutnya usaha ini berhasil menemukan tembok dari batu bersusun berbentuk segi delapan yang diyakini sebagai menara kastil.\nIbu kota purbakala kaum \u2018Ad di Arab bagian selatan, dengan kaum \u2018Ad   yang pernah menguasai peradaban yang tinggi, kemudian mati setelah mereka tetap menentang hukum Tuhan. Kota ini dibanggakan karena bangunan-bangunannya yang menjulang tinggi. \u201cPada zamannya dulu, Ubar (Iram) memang dikenal sebagai kota yang memiliki menara-menara tinggi,\u201d kata Prof.  Zurin. \nDi kota Iram itu terdapat pilar-pilar yang tinggi (al-Fajr/89: 7). Ada juga yang menafsirkan \"dengan sosok tubuh yang tinggi,\" karena kaum \u2018Ad memang ras yang bersosok tinggi.\nDalam insipkripsi Sarjon yang bertarikh tahun 715 P.M (Pra-Masehi), daerah kabilah \u1e60amud ini terletak di sebelah timur Semenanjung Arab. Nama \u1e60amud terdapat juga dalam tulisan-tulisan Aristoteles,  Ptolemaeus dan yang lain dengan sebutan Thamudenes atau Thamudaei, menurut ejaan Inggris. Ada beberapa nama kota mereka disebutkan seperti Domantha dan Hegra. Barangkali nama kedua tempat ini dalam sebutan Arab masing-masing Dumat al-Jandal dan Hijr.",
        "sabab_nuzul": null,
        "conclusion": null
    }
}