{
    "id": 1811,
    "surah_id": 15,
    "ayah": 9,
    "page": 262,
    "quarter_hizb": 27,
    "juz": 14,
    "manzil": 3,
    "arabic": "\u0627\u0650\u0646\u0651\u064e\u0627 \u0646\u064e\u062d\u0652\u0646\u064f \u0646\u064e\u0632\u0651\u064e\u0644\u0652\u0646\u064e\u0627 \u0627\u0644\u0630\u0651\u0650\u0643\u0652\u0631\u064e \u0648\u064e\u0627\u0650\u0646\u0651\u064e\u0627 \u0644\u064e\u0647\u0657 \u0644\u064e\u062d\u0670\u0641\u0650\u0638\u064f\u0648\u0652\u0646\u064e ",
    "latin": "Inn\u0101 na\u1e25nu nazzalna\u017c-\u017cikra wa inn\u0101 lah\u016b la\u1e25\u0101fi\u1e93\u016bn(a).",
    "translation": "Sesungguhnya Kamilah yang menurunkan Al-Qur\u2019an dan pasti Kami (pula) yang memeliharanya.393)",
    "no_footnote": "393",
    "footnotes": "393) Ayat ini memberi jaminan tentang kesucian dan kemurnian Al-Qur\u2019an selama-lamanya.",
    "surah": {
        "id": 15,
        "arabic": " \u0627\u0644\u062d\u062c\u0631",
        "latin": "Al-\u1e24ijr",
        "transliteration": "Al-Hijr",
        "translation": "Hijr",
        "num_ayah": 99,
        "page": 262,
        "location": "Makkiyah"
    },
    "tafsir": {
        "wajiz": "Untuk membuktikan kebenaran pengakuan Nabi Muhammad bahwa ayat-ayat yang disampaikannya benar-benar berasal dari Allah, Dia berfirman, \u201cSesungguhnya Kamilah yang menurunkan Al-Qur'an melalui perantara Malaikat Jibril yang diragukan oleh kaum kafir itu, dan pasti Kami pula bersama Malaikat Jibril dan kaum mukmin yang selalu memelihara keaslian, kesucian, dan kekekalan-nya hingga akhir zaman.\u201d",
        "tahlili": "Ayat ini merupakan peringatan keras bagi orang-orang yang mengabaikan Al-Qur\u2019an dan tidak percaya bahwa Al-Qur\u2019an itu diturunkan Allah kepada rasul-Nya Muhammad. Seakan-akan Allah mengatakan kepada mereka, \u201cKamu ini hai orang-orang kafir sebenarnya adalah orang-orang yang sesat yang memperolok-olokkan nabi dan rasul yang telah Kami utus untuk menyampaikan agama Islam kepadamu. Sesungguhnya sikap kamu yang demikian itu tidak akan mempengaruhi sedikit pun terhadap kemurnian dan kesucian Al-Qur\u2019an karena Kamilah yang menurunkannya. Kamu menuduh Muhammad seorang yang gila tetapi Kami menegaskan bahwa Kami sendirilah yang memelihara Al-Qur\u2019an itu dari segala macam usaha untuk mengotorinya dan usaha untuk menambah, mengurangi dan mengubah ayat-ayatnya. Kami akan memeliharanya dari segala macam bentuk campur tangan manusia terhadapnya. Akan datang saatnya nanti manusia akan menghafal, membaca, mempelajari, dan menggali isinya, agar mereka memperoleh dari Al-Qur\u2019an itu petunjuk dan hikmah, tuntunan akhlak dan budi pekerti yang baik, ilmu pengetahuan dan pedoman berpikir bagi para ahli dan cerdik pandai, serta petunjuk ke jalan hidup di dunia dan di akhirat nanti.\u201d\nJaminan Allah swt terhadap pemeliharaan Al-Qur\u2019an itu ditegaskan lagi dalam firman-Nya:\n\u064a\u064f\u0631\u0650\u064a\u0652\u062f\u064f\u0648\u0652\u0646\u064e \u0644\u0650\u064a\u064f\u0637\u0652\u0641\u0650\u0640\u0654\u064f\u0648\u0652\u0627 \u0646\u064f\u0648\u0652\u0631\u064e \u0627\u0644\u0644\u0651\u0670\u0647\u0650 \u0628\u0650\u0627\u064e\u0641\u0652\u0648\u064e\u0627\u0647\u0650\u0647\u0650\u0645\u0652\u06d7 \u0648\u064e\u0627\u0644\u0644\u0651\u0670\u0647\u064f \u0645\u064f\u062a\u0650\u0645\u0651\u064f \u0646\u064f\u0648\u0652\u0631\u0650\u0647\u0656 \u0648\u064e\u0644\u064e\u0648\u0652 \u0643\u064e\u0631\u0650\u0647\u064e \u0627\u0644\u0652\u0643\u0670\u0641\u0650\u0631\u064f\u0648\u0652\u0646\u064e \u0668\nMereka hendak memadamkan cahaya (agama) Allah dengan mulut (ucapan-ucapan) mereka, tetapi Allah tetap menyempurnakan cahaya-Nya meskipun orang-orang kafir membencinya. (a\u1e63-\u1e62aff/61: 8)\n\nMengenai jaminan Allah terhadap kesucian dan kemurnian Al-Qur\u2019an serta penegasan bahwa Allah sendirilah yang memeliharanya terbukti dengan memperhatikan dan mempelajari sejarah turunnya Al-Qur\u2019an, cara-cara yang dilakukan Nabi saw ketika menyiarkan, memelihara, dan membetulkan bacaan para sahabat, melarang menulis selain ayat-ayat Al-Qur\u2019an, dan sebagainya. Kemudian usaha pemeliharaan Al-Qur\u2019an ini dilanjutkan oleh para sahabat, tabiin, dan oleh setiap generasi kaum Muslimin yang datang sesudahnya, sampai sekarang ini.\nUntuk mengetahui dan membuktikan bahwa Al-Qur\u2019an yang sampai kepada kita sekarang terpelihara kemurniannya, diterangkan dalam sejarah  Al-Qur\u2019an, baik di masa Rasulullah, maupun di zaman sahabat, dan usaha kaum Muslimin memeliharanya pada saat ini. Di sisi lain otentisitas Al-Qur\u2019an dapat dilacak dari sejarah penulisan dan bacaannya.\nPertama:\nAl-Qur\u2019an diturunkan secara berangsur-angsur kepada Nabi Muhammad saw dalam waktu kurang lebih 23 tahun. Setiap turun ayat, Nabi menyuruh para sahabatnya menghafal dan menuliskannya di batu, kulit binatang, dan pelepah korma. Nabi memiliki beberapa orang sahabat yang bertugas menulis wahyu dan mendampingi beliau ketika turun ayat. Di antara penulis wahyu itu adalah Zaid bin \u1e60abit, Ali bin Abi \u1e6c\u0101lib, U\u1e61m\u0101n bin \u2018Aff\u0101n, Ubay bin Ka\u2019ab, dan lain-lain.\nSetiap ayat turun, Nabi menjelaskan kepada para penulis wahyu di bagian mana dari ayat-ayat yang turun lebih dulu atau di surah apa ayat itu diletakkan dan ditulis. Beliau melarang para sahabat menulis selain           Al-Qur\u2019an, baik itu penjelasannya yang menjadi tafsir dari ayat atau keterangan yang ditulis oleh para sahabat itu sendiri. Hadis Nabi saw seperti diriwayatkan Abu Sa\u2019id al-Khudri:\n\u0644\u0627\u064e \u062a\u064e\u0643\u0652\u062a\u064f\u0628\u064f\u0648\u0652\u0627 \u0639\u064e\u0646\u0651\u0650\u064a \u0634\u064e\u064a\u0652\u0626\u064b\u0627 \u063a\u064e\u064a\u0652\u0631\u064e \u0627\u0644\u0652\u0642\u064f\u0631\u0652\u0622\u0646\u0650\u060c \u0648\u064e\u0645\u064e\u0646\u0652 \u0643\u064e\u062a\u064e\u0628\u064e \u0639\u064e\u0646\u0651\u0650\u064a \u0634\u064e\u064a\u0652\u0626\u064b\u0627 \u063a\u064e\u064a\u0652\u0631\u064e \u0627\u0644\u0652\u0642\u064f\u0631\u0652\u0622\u0646\u0650 \u0641\u064e\u0644\u0652\u064a\u064e\u0645\u0652\u062d\u064f\u0647\u064f (\u0631\u0648\u0627\u0647 \u0645\u0633\u0644\u0645)\nJangan kalian menulis dariku apapun selain Al-Qur\u2019an. Barang siapa yang menulis selain Al-Qur\u2019an, hendaklah dia menghapusnya. (Riwayat Muslim)\n\nLarangan secara umum itu adalah untuk menjaga kemurnian tulisan Al-Qur\u2019an agar tidak bercampur-baur dengan tulisan-tulisan lain selain Al-Qur\u2019an, baik bersumber dari Nabi saw maupun sahabat. Namun demikian, ada beberapa sahabat yang memang pandai baca tulis, menuliskan ucapan-ucapan Rasul sebagai penafsiran Al-Qur\u2019an dan catatan mereka, seperti \u2018Abdull\u0101h bin \u2018Umar, \u2018Abdull\u0101h bin Mas\u2019\u016bd, Ali bin Abi \u1e6c\u0101lib, Ibnu Abbas, dan lain-lain. \nSelain ditulis oleh para penulis wahyu dan sebagian sahabat, Al-Qur\u2019an juga dihafal oleh para sahabat dan diwajibkan membacanya dalam salat.\nMengingat pentingnya peran tulis baca dalam menjaga otentisitas atau kemurnian Al-Qur\u2019an, Nabi sangat menghargai orang-orang yang bisa tulis baca, dan menganjurkan sahabat-sahabatnya untuk mempelajarinya. Setelah Perang Badar, Nabi memanfaatkan para tawanan perang Badar yang pandai baca tulis untuk menebus dirinya dengan mengajar baca tulis 10 orang anak-anak muslim. Dengan keputusan Rasul ini, semakin banyak orang yang bisa baca tulis, semakin banyak pula orang yang bisa mencatat dan menghafal Al-Qur\u2019an.\nDengan demikian, ada tiga faktor yang membantu menjaga kelestarian tulisan dan bacaan Al-Qur\u2019an:\n1.\tTulisan atau naskah yang ditulis para penulis wahyu.\n2.\tHafalan dari para sahabat yang sangat antusias menghafalnya.\n3.\tTulisan atau naskah pribadi yang ditulis oleh para sahabat yang sudah lebih dulu pandai baca tulis seperti \u2018Abdull\u0101h bin \u2018Umar, \u2018Abdull\u0101h bin Mas\u2019\u016bd, Ali bin Abi \u1e6c\u0101lib, dan lain-lain.\nSelain tiga faktor di atas, Malaikat Jibril selalu mengecek bacaan          Al-Qur\u2019an Rasulullah setiap tahun. Ketika pengecekan, Rasulullah disuruh mengulang bacaan Al-Qur\u2019an yang telah diturunkan. Bahkan sebelum wafat, Malaikat Jibril mengecek dua kali. \nNabi sendiri sering mengecek bacaan sahabatnya. Mereka disuruh membaca Al-Qur\u2019an di hadapannya, dan beliau membetulkan bacaan mereka.\nNabi wafat sesudah Al-Qur\u2019an selesai diturunkan dan telah dihafal oleh orang banyak menurut tertib susunan Al-Qur\u2019an yang kita baca sekarang ini, sesuai dengan petunjuk yang diberikannya ketika membaca Al-Qur\u2019an, baik di dalam maupun di luar salat. Dengan cara pengamalan yang praktis di atas, Al-Qur\u2019an bisa terpelihara kemurniannya dan tersebar dengan mudah di masyarakat.\nSesudah Rasulullah saw wafat, para sahabat sepakat memilih Abu Bakar sebagai khalifah. Pada permulaan masa pemerintahannya banyak di antara orang-orang Islam yang belum kuat imannya menjadi murtad dan ada pula di antara mereka mendakwakan diri menjadi nabi. Oleh karena itu, Abu Bakar memerangi mereka. Dalam peperangan ini telah gugur 70 orang penghafal Al-Qur\u2019an dan sebelum itu telah gugur pula beberapa orang. Atas anjuran Umar bin Kha\u1e6d\u1e6d\u0101b dan diterima oleh Abu Bakar, maka Zaid bin \u1e60abit ditugaskan menulis kembali Al-Qur\u2019an yang naskahnya telah ditulis pada masa Nabi dan didukung oleh hafalan para sahabat yang masih hidup. Setelah selesai menuliskannya dalam lembaran-lembaran, diikat dengan benang, tersusun menurut urutan yang telah ditetapkan Rasulullah, mushaf itu kemudian diserahkan kepada Abu Bakar. Setelah Abu Bakar meninggal, mushaf ini diserahkan kepada penggantinya Umar bin al-Kha\u1e6d\u1e6d\u0101b. Setelah Umar meninggal mushaf ini disimpan di rumah Haf\u1e63ah, putri Umar dan istri Rasulullah, sampai kepada masa pembukuan Al-Qur\u2019an di masa khalifah U\u1e61m\u0101n bin \u2018Aff\u0101n.\nDi masa khalifah U\u1e61m\u0101n bin \u2018Aff\u0101n, daerah pemerintahan Islam telah sampai ke Armenia dan Azerbaijan di sebelah timur dan Tripoli di sebelah barat. Dengan demikian, para sahabat waktu itu telah terpencar-pencar di Mesir, Syria, Irak, Persia, dan Afrika. Ke mana mereka pergi dan di mana mereka tinggal, Al-Qur\u2019an Al-Karim itu tetap menjadi imam mereka, di antara mereka banyak yang hafal Al-Qur\u2019an. Mereka mempunyai naskah-naskah Al-Qur\u2019an, tetapi naskah-naskah yang mereka miliki itu tidak sama susunan surah-surahnya karena dicatat sesuai dengan pemahaman mereka atau masih bercampur dengan penjelasan-penjelasan Rasul sebagai tafsirnya.\nHal ini menimbulkan pertikaian tentang bacaan Al-Qur\u2019an di antara mereka. Asal mula perbedaan bacaan ini ialah karena Rasulullah sendiri memberi kelonggaran kepada kabilah-kabilah Arab yang berada di masanya, untuk membacakan dan melafazkan Al-Qur\u2019an itu menurut dialek mereka masing-masing. Kelonggaran ini diberikan Nabi supaya mereka mudah mengucapkan dan menghafal Al-Qur\u2019an.\nTetapi kemudian timbul kekhawatiran bahwa pertikaian tentang bacaan Al-Qur\u2019an ini kalau dibiarkan saja akan mendatangkan perselisihan dan perpecahan yang tidak diinginkan di kalangan kaum Muslimin.\nOrang yang mula-mula menunjukkan perhatiannya tentang hal ini adalah seorang sahabat yang bernama Huzaifah bin Yaman. Beliau ikut dalam peperangan menaklukkan Armenia dan Azerbaijan. Selama dalam perjalan-an, ia pernah mendengar kaum Muslimin bertikai tentang bacaan beberapa ayat Al-Qur\u2019an dan pernah mendengar perkataan seorang muslim kepada temannya, \u201cBacaan saya lebih baik daripada bacaanmu.\u201d\nKetika hal ini disampaikan kepada Khalifah U\u1e61m\u0101n bin \u2018Aff\u0101n, beliau langsung menyetujui dilakukannya penulisan Al-Qur\u2019an, maka segera dibentuk tim yang terdiri dari para penulis wahyu, seperti Zaid bin \u1e60\u0101bit yang menjadi ketua tim, \u2018Abdull\u0101h bin Zubair, Sa\u2019\u012bd bin \u2018A\u1e63 dan \u2018Abdurrahm\u0101n bin Hari\u1e63 bin Hisyam, dan lain-lain.\nMushaf yang berisi lembaran bertuliskan Al-Qur\u2019an, yang pernah disusun oleh Khalifah Abu Bakar, dan disimpan di rumah \u1e24af\u1e63ah, diminta  kembali oleh U\u1e61man. Karena tim ini bertugas menyalin kembali tulisan Al-Qur\u2019an yang ada di mushaf tersebut dan menyeragamkan bacaan dan tulisannya. Hasil kerja tim ini akan menjadi acuan dan rujukan bagi bacaan Al-Qur\u2019an umat Islam di seluruh dunia. \nDalam menjalankan tugasnya, tim ini memberlakukan syarat-syarat berikut:\n1.\tTidak ditulis kecuali yang diyakini betul-betul Al-Qur\u2019an, dengan mengacu pada tulisan dan hafalan sahabat.\n2.\tTidak ditulis kecuali ayat-ayat yang diyakini tidak pernah dinasakh.\n3.\tJika ada kata yang memiliki beberapa bacaan berbeda, maka ditulis dengan dialek Quraisy karena mayoritas Al-Qur\u2019an ditulis dalam dialek itu.\n4.\tJika ada dua bacaan berbeda tetapi bisa ditampung dalam satu tulisan, ditulis dalam satu tulisan seperti malik dan m\u0101lik. \nMushaf yang sudah diseragamkan bacaannya itu dikenal dengan nama al-Mu\u1e63\u1e25af al-Im\u0101m atau al-Mu\u1e63\u1e25af al-\u2019U\u1e61m\u0101n\u012b. Mushaf ini digandakan menjadi lima mushaf, masing-masing dikirim ke Mekah, Syiria, Basrah, Kufah, dan sebuah ditinggalkan di Medinah.\nDemikianlah Al-Qur\u2019an itu dibukukan pada masa sahabat. Semua mushaf yang diterbitkan kemudian harus disesuaikan dengan al-Mu\u1e63\u1e25af al-Im\u0101m. Kemudian usaha menjaga kemurnian Al-Qur\u2019an itu tetap dilakukan oleh kaum Muslimin di seluruh dunia, sampai kepada generasi yang sekarang ini.\nUntuk menjaga kemurnian Al-Qur\u2019an itu di Indonesia dilakukan dalam bermacam-macam usaha, di antaranya ialah:\n1. \tMembentuk \u201cLajnah Pentashihan Mushaf Al-Qur\u2019an\u201d yang bertugas antara lain meneliti semua mushaf yang akan dicetak sebelum diedarkan ke masyarakat. Tim berada di bawah pengawasan Menteri Agama.\n2. \tPemerintah telah mempunyai naskah Al-Qur\u2019an yang menjadi standar dalam penerbitan Al-Qur\u2019an di Indonesia, yang telah disesuaikan dengan Mushaf al-Im\u0101m.\n3. \tMengadakan Musabaqah Tilawatil Qur\u2019an setiap tahun yang ditangani dan diurus oleh negara. \n4. \tUsaha-usaha lain yang dilakukan oleh masyarakat muslim, seperti membentuk lembaga pendidikan, kajian, dan tahfiz Al-Qur\u2019an\n\nKedua:\nSetelah \u2018U\u1e61m\u0101n bin \u2018Aff\u0101n wafat, al-Mu\u1e63\u1e25af al-Im\u0101m tetap dianggap sebagai pegangan satu-satunya oleh umat Islam dalam bacaan Al-Qur\u2019an. Meskipun demikian, terdapat juga beberapa perbedaan dalam bacaan tersebut. Sebab-sebab timbulnya perbedaan itu dapat disimpulkan dalam dua hal:\nPertama\t: Penulisan Al-Qur\u2019an itu sendiri yang belum sempurna.\nKedua\t: Perbedaan dialek orang-orang Arab.\nPenulisan Al-Quran itu dapat menimbulkan perbedaan karena al-Mu\u1e63\u1e25af al-Im\u0101m ditulis oleh sahabat-sahabat yang tulisannya belum dapat dikatakan tulisan yang sempurna karena belum mendapat tanda baca dan titik. Sebagaimana yang diterangkan Ibnu Khaldun dalam bukunya \u201cMuqaddimah Ibnu Khaldun\u201d, ia berkata, \u201cPerhatikanlah akibat-akibat yang terjadi karena tulisan mushaf yang ditulis sendiri oleh para sahabat dengan tangannya. Tulisan itu belum sempurna, sehingga kadang-kadang terjadi beberapa kesalahan dalam memahami bacaan dari tulisan tersebut karena tanpa titik dan baris.\u201d\nAdapun perbedaan dialek orang-orang Arab yang telah ditoleransi oleh Rasulullah menimbulkan macam-macam qira\u2019at (bacaan), sehingga pada tahun 200 Hijriah muncullah ahli-ahli qira\u2019at yang tidak terhitung banyaknya.\nDi antara dialek-dialek bahasa Arab yang terkenal ialah lahjah Quraisy, Hu\u017cail, Tamim, Asad, Rabi\u2019ah, Hawazin, dan Sa\u2019ad. Pada waktu itu muncullah para ahli qira\u2019at yang masyhur, dan yang termasyhur ada tujuh orang, yaitu: \u2018Abdull\u0101h bin Amir, Abu\u2019 Ma\u2019bad \u2018Abdull\u0101h bin Ka\u1e61ir, Abu Bakar A\u1e63im bin Abi an-Najud, Abu Amr bin A\u2019la, Nafi\u2019 bin Abi Nu\u2019aim, Abul Hasan \u2018Ali bin Hamzah al-Kis\u0101\u2019i, Abu Jarah bin Habib Ibnu Zayyat/Hamzah. Qira\u2019at-qira\u2019at itu dipopulerkan orang dengan nama \u201cQira\u2019at Sab\u2019ah\u201d (bacaan yang tujuh).\nSebagaimana diterangkan di atas, Al-Qur\u2019an mula-mula ditulis tanpa titik dan baris, namun hal ini tidak mempengaruhi bacaan Al-Qur\u2019an karena para sahabat dan para tabi\u2019in selain hafal Al-Qur\u2019an juga orang-orang yang fasih dalam bahasa Arab. Oleh sebab itu, mereka dapat membacanya dengan baik dan tepat. Tetapi setelah agama Islam tersiar dan banyak bangsa yang bukan Arab memeluk agama Islam, sulit bagi mereka membaca Al-Qur\u2019an tanpa titik dan baris. Sangat dikhawatirkan bahwa hal ini akan menimbulkan kesalahan dalam bacaan Al-Qur\u2019an.\nMaka Abul Aswad Ad-Du\u2019ali mengambil inisiatif untuk memberi tanda-tanda baca dalam Al-Qur\u2019an dengan tinta yang berlainan warnanya. Tanda titik ialah titik di atas untuk fat\u1e25ah, titik di bawah untuk kasrah, titik sebelah kiri atas untuk \u1e0damah, dan dua titik untuk tanwin. Hal ini terjadi pada masa Ali bin Abi \u1e6c\u0101lib.\nKemudian di masa khalifah Abdul Malik bin Marwan, Nasr bin A\u1e63im, dan Yahya bin Ya\u2019mar menambahkan tanda-tanda untuk huruf-huruf yang bertitik dengan tinta yang sama dengan tulisan Al-Qur\u2019an untuk membedakan antara maksud dari titik Abul Aswad Ad-Du\u2019ali dengan titik yang baru ini. Titik Abul Aswad adalah untuk tanda baca dan titik Nasr bin A\u1e63im adalah titik huruf. Cara penulisan semacam ini tetap berlaku pada masa Bani Umayyah, dan pada permulaan kerajaan Abbasiyah, bahkan tetap pula dipakai di Spanyol sampai pertengahan abad keempat hijriah. Kemudian ternyata cara pemberian tanda seperti ini masih menimbulkan kesulitan bagi para pembaca Al-Qur\u2019an karena terlalu banyak titik, sedang titik itu lama kelamaan hampir menjadi serupa warnanya.\nMaka al-Khalil mengambil inisiatif untuk membuat tanda-tanda yang baru, yaitu wau kecil ( \u0648 ) di atas untuk \u1e0dammah, huruf alif kecil ( \u0627 ) untuk tanda fat\u1e25ah, huruf ya kecil ( \u064a ) untuk tanda kasrah, kepala huruf s\u012bn ( \u0633 ) untuk tanda syiddah, kepala ha ( \u0647 ) untuk sukun dan kepala \u2018ain ( \u0639 ) untuk hamzah.\nKemudian tanda-tanda ini dipermudah dengan dipotong dan ditambah sehingga menjadi bentuk yang ada sekarang.\nDemikianlah usaha Nabi Muhammad saw dan kaum Muslimin memelihara dan menjaga Al-Qur\u2019an dari segala macam campur tangan manusia, sehingga Al-Qur\u2019an yang ada pada tangan kaum Muslimin pada masa kini, persis sama dengan Al-Qur\u2019an yang diturunkan kepada Nabi Muhammad saw. Ini merupakan bukti dari jaminan Allah yang akan tetap memelihara Al-Qur\u2019an untuk selamanya.",
        "intro_surah": "Surah ini terdiri dari 99 ayat, termasuk golongan surah-surah Makkiyah, karena diturunkan di Mekah sebelum Nabi Muhammad saw hijrah ke Medinah. Al-\u1e24ijr adalah nama sebuah pegunungan yang didiami oleh kaum \u1e60amud, terletak di pinggir jalan raya antara Medinah dan Syam (Syria).\nNama surah ini diambil dari nama daerah pegunungan itu, sebagai peringatan bagi kaum Muslimin karena penduduknya, yaitu kaum \u1e60amud yang dikisahkan pada ayat 80 sampai dengan ayat 84, telah dimusnahkan akibat mendustakan Nabi Saleh dan berpaling dari ayat-ayat Allah.\nDalam surah ini terdapat pula kisah-kisah kaum lain yang telah dibinasakan oleh Allah, seperti kaum Lu\u1e6d a.s. dan kaum Syu\u2018aib a.s. Semua kisah-kisah itu dapat dijadikan tamsil dan ibarat bahwa orang-orang yang menentang ajaran rasul-rasul akan mengalami kehancuran.\n\nPokok-pokok Isinya\n1. \tKeimanan:\nKepastian nasib suatu bangsa hanyalah di tangan Allah; Allah menjamin kemurnian Al-Qur\u2019an sepanjang masa; setan tidak dapat naik ke alam malakut karena ada yang menjaganya; kadar rezeki yang diberikan kepada manusia sesuai dengan hikmah dan kebijaksanaan Allah; Allah memelihara hamba-Nya yang telah mendapat taufik dari godaan setan; Allah di samping mempunyai sifat pengampun lagi penyayang juga mengazab orang-orang yang ingkar; manusia akan dihimpun pada hari kiamat.\n2. \tHukum:\nLarangan melakukan homoseksual, kewajiban melakukan ibadah selama hidup, larangan menginginkan harta orang kafir, perintah kepada Nabi Muhammad saw agar melakukan dakwah secara terang-terangan, larangan berputus asa terhadap rahmat Allah.\n3. \tKisah:\nNabi Ibrahim a.s. dengan kaumnya, Nabi Lu\u1e6d a.s. dengan kaumnya, kaum Syu\u2018aib dan kaum Saleh (kaum \u1e60amud)\n4. \tLain-lain:\nKejadian alam semesta ini menunjukkan kekuasaan dan kebesaran Allah; kejadian alam dan isinya mengandung hikmah; angin mengawinkan tepung sari buah-buahan; asal kejadian Adam as.\n",
        "outro_surah": null,
        "munasabah_prev_surah": "MUNASABAH SURAH IBR\u0100H\u012aM\nDENGAN SURAH AL-\u1e24IJR\n\n1. \tKeduanya sama-sama dimulai dengan \u201calif l\u0101m r\u0101\u201d dan menerangkan sifat-sifat Al-Qur\u2019an Al-Karim.\n2. \tDalam Surah Ibr\u0101h\u012bm, Allah menjelaskan bahwa Al-Qur\u2019an itu pembimbing manusia ke jalan Allah, kemudian dalam Surah al-\u1e24ijr, Allah menegaskan bahwa kejadian-kejadian alam ini mengandung hikmah, sebagai tanda keesaan dan kebesaran Allah swt.\n3. \tKedua surah ini menerangkan kisah Nabi Ibrahim a.s. secara terperinci.\n4. \tKeduanya sama-sama menerangkan keadaan orang-orang kafir di hari kiamat dan penyesalan mereka, mengapa sewaktu hidup di dunia mereka tidak menjadi orang mukmin.\n5. \tKedua surah ini sama-sama menceritakan kisah-kisah nabi yang terdahulu dengan kaumnya, serta menerangkan keadaan orang-orang yang ingkar kepada para nabi itu pada hari kiamat. Kisah-kisah itu disampaikan kepada Nabi Muhammad saw untuk menghibur dan memantapkan hati beliau pada waktu mengalami berbagai kesulitan dalam menyiarkan agama Islam.",
        "munasabah_prev_theme": "Pada ayat-ayat yang terdahulu, Allah swt menerangkan sikap orang-orang kafir terhadap Al-Qur\u2019an dan Nabi Muhammad saw. Mereka mengatakan Nabi Muhammad yang mengaku telah diutus Allah sebagai rasul, dan menerima Al-Qur\u2019an dari Allah dengan perantaraan Jibril adalah orang gila. Pada ayat ini, Allah swt membantah ucapan mereka itu dengan menegaskan kesucian dan kemurnian Al-Qur\u2019an selama-lamanya, karena Dia sendirilah yang menjaga dan memeliharanya.",
        "theme_group": "JAMINAN ALLAH SWT\nTERHADAP PEMELIHARAAN AL-QUR\u2019AN ",
        "kosakata": "Kosakata: La\u1e25\u0101fi\u1e93\u016bn  \u0644\u064e\u062d\u064e\u0627\u0641\u0650\u0638\u064f\u0648\u0652\u0646\u064e  (al-\u1e24ijr/15: 9)\nTerambil dari akar kata \u1e25afiza yaitu suatu kondisi mental dalam me-mahami sesuatu atau suatu kekuatan untuk memahami sesuatu. Kemudian digunakan untuk penjagaan sesuatu. Sering diterjemahkan dengan \u201cmenghafal\u201d dan \u201cmenjaga\u201d. H\u0101fi\u1e93\u016bn adalah bentuk jamak dari h\u0101fi\u1e93 (penjaga).\nDalam Al-Qur\u2019an kata itu dalam bentuk tunggal dan jamaknya terulang 15 kali. Dalam bentuk tunggal, misalnya, terdapat dalam Surah a\u1e6d-\u1e6c\u0101riq/86: 4, bahwa setiap manusia itu ada penjaganya, yaitu malaikat. Dalam bentuk jamak, misalnya, dalam Surah al-\u1e24ijr/15: 9 ini, yang terjemahannya, \u201cSesungguhnya Kamilah yang menurunkan Al-Qur\u2019an, dan pasti Kami (pula) yang memeliharanya.\u201d Menurut para pakar tafsir, setiap Allah menyebut dirinya \u201cKami\u201d berarti bahwa dalam mewujudkan pekerjaan itu terlibat pihak-pihak lain. Dalam hal ini, yang terlibat dalam penurunannya adalah malaikat dan yang terlibat dalam penjagaannya adalah manusia. Para ahli Al-Qur\u2019an yang selalu menekuni Al-Qur\u2019an adalah yang termasuk dalam kelompok penjaga Al-Qur\u2019an. Dalam bentuk jamak mu\u2019anna\u1e61 (perempuan), kata ini terulang dua kali dalam Al-Qur\u2019an, salah satunya Surah an-Nis\u0101\u2019/4: 34 bahwa salah satu ciri perempuan yang saleh adalah menjaga dirinya, anak-anaknya, dan harta benda suaminya ketika suaminya tidak di rumah. ",
        "sabab_nuzul": null,
        "conclusion": "1. \tAllah swt menurunkan Al-Qur\u2019an kepada Nabi Muhammad saw dengan perantaraan Jibril untuk menjadi petunjuk bagi manusia.\n2. \tAllah swt menjamin kemurnian dan kesucian Al-Qur\u2019an untuk selama-lamanya melalui umatnya yang selalu berupaya menjaga kelestarian Al-Qur\u2019an."
    }
}