{
    "id": 1818,
    "surah_id": 15,
    "ayah": 16,
    "page": 263,
    "quarter_hizb": 27,
    "juz": 14,
    "manzil": 3,
    "arabic": "\u0648\u064e\u0644\u064e\u0642\u064e\u062f\u0652 \u062c\u064e\u0639\u064e\u0644\u0652\u0646\u064e\u0627 \u0641\u0650\u0649 \u0627\u0644\u0633\u0651\u064e\u0645\u064e\u0627\u06e4\u0621\u0650 \u0628\u064f\u0631\u064f\u0648\u0652\u062c\u064b\u0627 \u0648\u0651\u064e\u0632\u064e\u064a\u0651\u064e\u0646\u0651\u0670\u0647\u064e\u0627 \u0644\u0650\u0644\u0646\u0651\u0670\u0638\u0650\u0631\u0650\u064a\u0652\u0646\u064e\u06d9",
    "latin": "Wa laqad ja\u2018aln\u0101 fis-sam\u0101'i bur\u016bjaw wa zayyann\u0101h\u0101 lin-n\u0101\u1e93ir\u012bn(a).",
    "translation": "Sungguh, Kami benar-benar telah menciptakan gugusan bintang di langit dan menjadikannya terasa indah bagi orang-orang yang memandang (langit itu).",
    "no_footnote": null,
    "footnotes": null,
    "surah": {
        "id": 15,
        "arabic": " \u0627\u0644\u062d\u062c\u0631",
        "latin": "Al-\u1e24ijr",
        "transliteration": "Al-Hijr",
        "translation": "Hijr",
        "num_ayah": 99,
        "page": 262,
        "location": "Makkiyah"
    },
    "tafsir": {
        "wajiz": "Begitu banyak bukti kekuasaan Allah yang dapat mereka saksikan, tetapi kaum kafir tetap tidak mau mengambil pelajaran darinya. Allah berfirman, \u201cDan sungguh, Kami telah menciptakan gugusan bintang di langit yang membuktikan kekuasaan Kami, dan Kami telah menjadikannya indah bagi orang yang memandang-nya.",
        "tahlili": "Ayat ini menerangkan bahwa Allah swt menciptakan berbagai benda angkasa berupa planet yang tidak terhitung banyaknya, bulan, dan bintang yang kesemuanya menghiasi langit, sehingga menarik hati orang-orang yang memandangnya. Semua itu menjadi bahan pemikiran bagi orang-orang yang mau berpikir, terutama dalam mencari manfaatnya bagi manusia dan kemanusiaan, sebagaimana firman Allah swt dalam ayat yang lain:\n\u062a\u064e\u0628\u0670\u0631\u064e\u0643\u064e \u0627\u0644\u0651\u064e\u0630\u0650\u064a\u0652 \u062c\u064e\u0639\u064e\u0644\u064e \u0641\u0650\u0649 \u0627\u0644\u0633\u0651\u064e\u0645\u064e\u0627\u06e4\u0621\u0650 \u0628\u064f\u0631\u064f\u0648\u0652\u062c\u064b\u0627 \u0648\u0651\u064e\u062c\u064e\u0639\u064e\u0644\u064e \u0641\u0650\u064a\u0652\u0647\u064e\u0627 \u0633\u0650\u0631\u0670\u062c\u064b\u0627 \u0648\u0651\u064e\u0642\u064e\u0645\u064e\u0631\u064b\u0627 \u0645\u0651\u064f\u0646\u0650\u064a\u0652\u0631\u064b\u0627 \u0666\u0661 \u0648\u064e\u0647\u064f\u0648\u064e \u0627\u0644\u0651\u064e\u0630\u0650\u064a\u0652 \u062c\u064e\u0639\u064e\u0644\u064e \u0627\u0644\u0651\u064e\u064a\u0652\u0644\u064e \u0648\u064e\u0627\u0644\u0646\u0651\u064e\u0647\u064e\u0627\u0631\u064e \u062e\u0650\u0644\u0652\u0641\u064e\u0629\u064b \u0644\u0651\u0650\u0645\u064e\u0646\u0652 \u0627\u064e\u0631\u064e\u0627\u062f\u064e \u0627\u064e\u0646\u0652 \u064a\u0651\u064e\u0630\u0651\u064e\u0643\u0651\u064e\u0631\u064e \u0627\u064e\u0648\u0652 \u0627\u064e\u0631\u064e\u0627\u062f\u064e \u0634\u064f\u0643\u064f\u0648\u0652\u0631\u064b\u0627 \u0666\u0662\nMahasuci Allah yang menjadikan di langit gugusan bintang-bintang dan Dia juga menjadikan padanya matahari dan bulan yang bersinar. Dan Dia (pula) yang menjadikan malam dan siang silih berganti bagi orang yang ingin mengambil pelajaran atau yang ingin bersyukur. (al-Furq\u0101n/25: 61-62)\n\nPada ayat yang lain, Allah swt menerangkan pula:\n\u0648\u064e\u0644\u064e\u0642\u064e\u062f\u0652 \u0632\u064e\u064a\u0651\u064e\u0646\u0651\u064e\u0627 \u0627\u0644\u0633\u0651\u064e\u0645\u064e\u0627\u06e4\u0621\u064e \u0627\u0644\u062f\u0651\u064f\u0646\u0652\u064a\u064e\u0627 \u0628\u0650\u0645\u064e\u0635\u064e\u0627\u0628\u0650\u064a\u0652\u062d\u064e\nDan sungguh, telah Kami hiasi langit yang dekat, dengan bintang-bintang. (al-Mulk/67: 5)\n\nBintang-bintang yang diciptakan Allah itu ada yang tidak bercahaya dan ada pula yang bercahaya, berkelap-kelip di malam hari, sebagaimana firman Allah swt:\n\u0641\u064e\u0642\u064e\u0636\u0670\u0649\u0647\u064f\u0646\u0651\u064e \u0633\u064e\u0628\u0652\u0639\u064e \u0633\u064e\u0645\u0670\u0648\u064e\u0627\u062a\u064d \u0641\u0650\u064a\u0652 \u064a\u064e\u0648\u0652\u0645\u064e\u064a\u0652\u0646\u0650 \u0648\u064e\u0627\u064e\u0648\u0652\u062d\u0670\u0649 \u0641\u0650\u064a\u0652 \u0643\u064f\u0644\u0651\u0650 \u0633\u064e\u0645\u064e\u0627\u06e4\u0621\u064d \u0627\u064e\u0645\u0652\u0631\u064e\u0647\u064e\u0627 \u06d7\u0648\u064e\u0632\u064e\u064a\u0651\u064e\u0646\u0651\u064e\u0627 \u0627\u0644\u0633\u0651\u064e\u0645\u064e\u0627\u06e4\u0621\u064e \u0627\u0644\u062f\u0651\u064f\u0646\u0652\u064a\u064e\u0627 \u0628\u0650\u0645\u064e\u0635\u064e\u0627\u0628\u0650\u064a\u0652\u062d\u064e\u06d6 \u0648\u064e\u062d\u0650\u0641\u0652\u0638\u064b\u0627 \u06d7\u0630\u0670\u0644\u0650\u0643\u064e \u062a\u064e\u0642\u0652\u062f\u0650\u064a\u0652\u0631\u064f \u0627\u0644\u0652\u0639\u064e\u0632\u0650\u064a\u0652\u0632\u0650 \u0627\u0644\u0652\u0639\u064e\u0644\u0650\u064a\u0652\u0645\u0650 \u0661\u0662\nLalu diciptakan-Nya tujuh langit dalam dua masa dan pada setiap langit Dia mewahyukan urusan masing-masing. Kemudian langit yang dekat (dengan bumi), Kami hiasi dengan bintang-bintang, dan (Kami ciptakan itu) untuk memelihara. Demikianlah ketentuan (Allah) Yang Mahaperkasa, Maha Mengetahui. (Fu\u1e63\u1e63ilat/41: 12)\n\nDan firman Allah swt:\n\u0648\u064e\u0644\u064e\u0642\u064e\u062f\u0652 \u0632\u064e\u064a\u0651\u064e\u0646\u0651\u064e\u0627 \u0627\u0644\u0633\u0651\u064e\u0645\u064e\u0627\u06e4\u0621\u064e \u0627\u0644\u062f\u0651\u064f\u0646\u0652\u064a\u064e\u0627 \u0628\u0650\u0645\u064e\u0635\u064e\u0627\u0628\u0650\u064a\u0652\u062d\u064e \u0648\u064e\u062c\u064e\u0639\u064e\u0644\u0652\u0646\u0670\u0647\u064e\u0627 \u0631\u064f\u062c\u064f\u0648\u0652\u0645\u064b\u0627 \u0644\u0650\u0651\u0644\u0634\u0651\u064e\u064a\u0670\u0637\u0650\u064a\u0652\u0646\u0650 \u0648\u064e\u0627\u064e\u0639\u0652\u062a\u064e\u062f\u0652\u0646\u064e\u0627 \u0644\u064e\u0647\u064f\u0645\u0652 \u0639\u064e\u0630\u064e\u0627\u0628\u064e \u0627\u0644\u0633\u0651\u064e\u0639\u0650\u064a\u0652\u0631\u0650 \u0665\nDan sungguh, telah Kami hiasi langit yang dekat, dengan bintang-bintang dan Kami menjadikannya (bintang-bintang itu) sebagai alat-alat pelempar setan, dan Kami sediakan bagi mereka azab neraka yang menyala-nyala. (al-Mulk/67: 5)\n\nBenda-benda angkasa itu merupakan petunjuk bagi para musafir yang berjalan di tengah-tengah padang pasir di malam hari, kapal-kapal yang berlayar di tengah lautan, serta kapal terbang dan kapal ruang angkasa yang terbang menuju tempat tujuannya. Peredaran matahari, bulan, dan bintang dapat pula dijadikan dasar untuk mengetahui bilangan hari, bilangan tahun, dan perhitungan waktu, sebagaimana firman Allah swt:\n\u0647\u064f\u0648\u064e \u0627\u0644\u0651\u064e\u0630\u0650\u064a\u0652 \u062c\u064e\u0639\u064e\u0644\u064e \u0627\u0644\u0634\u0651\u064e\u0645\u0652\u0633\u064e \u0636\u0650\u064a\u064e\u0627\u06e4\u0621\u064b \u0648\u0651\u064e\u0627\u0644\u0652\u0642\u064e\u0645\u064e\u0631\u064e \u0646\u064f\u0648\u0652\u0631\u064b\u0627 \u0648\u0651\u064e\u0642\u064e\u062f\u0651\u064e\u0631\u064e\u0647\u0657 \u0645\u064e\u0646\u064e\u0627\u0632\u0650\u0644\u064e \u0644\u0650\u062a\u064e\u0639\u0652\u0644\u064e\u0645\u064f\u0648\u0652\u0627 \u0639\u064e\u062f\u064e\u062f\u064e \u0627\u0644\u0633\u0651\u0650\u0646\u0650\u064a\u0652\u0646\u064e \u0648\u064e\u0627\u0644\u0652\u062d\u0650\u0633\u064e\u0627\u0628\u064e\u06d7 \u0645\u064e\u0627 \u062e\u064e\u0644\u064e\u0642\u064e \u0627\u0644\u0644\u0651\u0670\u0647\u064f \u0630\u0670\u0644\u0650\u0643\u064e \u0627\u0650\u0644\u0651\u064e\u0627 \u0628\u0650\u0627\u0644\u0652\u062d\u064e\u0642\u0651\u0650\u06d7 \u064a\u064f\u0641\u064e\u0635\u0651\u0650\u0644\u064f \u0627\u0644\u0652\u0627\u0670\u064a\u0670\u062a\u0650 \u0644\u0650\u0642\u064e\u0648\u0652\u0645\u064d \u064a\u0651\u064e\u0639\u0652\u0644\u064e\u0645\u064f\u0648\u0652\u0646\u064e \u0665\nDialah yang menjadikan matahari bersinar dan bulan bercahaya dan Dialah yang menetapkan tempat-tempat orbitnya, agar kamu mengetahui bilangan tahun, dan perhitungan (waktu). Allah tidak menciptakan demikian itu melainkan dengan benar. Dia menjelaskan tanda-tanda (kebesaran-Nya) kepada orang-orang yang mengetahui. (Y\u016bnus/10: 5)\n\nSuasana malam di saat langit cerah tidak berawan, bintang-bintang bertaburan di angkasa raya dan cahayanya yang hilang-hilang timbul, dan cahaya bulan purnama menimbulkan ketenteraman dalam hati bagi orang-orang yang telah beriman kepada Allah. Semua itu menambah kuat imannya, sehingga tanpa disadari mulutnya mengucapkan kata-kata yang mengagung-kan Allah.",
        "intro_surah": "Surah ini terdiri dari 99 ayat, termasuk golongan surah-surah Makkiyah, karena diturunkan di Mekah sebelum Nabi Muhammad saw hijrah ke Medinah. Al-\u1e24ijr adalah nama sebuah pegunungan yang didiami oleh kaum \u1e60amud, terletak di pinggir jalan raya antara Medinah dan Syam (Syria).\nNama surah ini diambil dari nama daerah pegunungan itu, sebagai peringatan bagi kaum Muslimin karena penduduknya, yaitu kaum \u1e60amud yang dikisahkan pada ayat 80 sampai dengan ayat 84, telah dimusnahkan akibat mendustakan Nabi Saleh dan berpaling dari ayat-ayat Allah.\nDalam surah ini terdapat pula kisah-kisah kaum lain yang telah dibinasakan oleh Allah, seperti kaum Lu\u1e6d a.s. dan kaum Syu\u2018aib a.s. Semua kisah-kisah itu dapat dijadikan tamsil dan ibarat bahwa orang-orang yang menentang ajaran rasul-rasul akan mengalami kehancuran.\n\nPokok-pokok Isinya\n1. \tKeimanan:\nKepastian nasib suatu bangsa hanyalah di tangan Allah; Allah menjamin kemurnian Al-Qur\u2019an sepanjang masa; setan tidak dapat naik ke alam malakut karena ada yang menjaganya; kadar rezeki yang diberikan kepada manusia sesuai dengan hikmah dan kebijaksanaan Allah; Allah memelihara hamba-Nya yang telah mendapat taufik dari godaan setan; Allah di samping mempunyai sifat pengampun lagi penyayang juga mengazab orang-orang yang ingkar; manusia akan dihimpun pada hari kiamat.\n2. \tHukum:\nLarangan melakukan homoseksual, kewajiban melakukan ibadah selama hidup, larangan menginginkan harta orang kafir, perintah kepada Nabi Muhammad saw agar melakukan dakwah secara terang-terangan, larangan berputus asa terhadap rahmat Allah.\n3. \tKisah:\nNabi Ibrahim a.s. dengan kaumnya, Nabi Lu\u1e6d a.s. dengan kaumnya, kaum Syu\u2018aib dan kaum Saleh (kaum \u1e60amud)\n4. \tLain-lain:\nKejadian alam semesta ini menunjukkan kekuasaan dan kebesaran Allah; kejadian alam dan isinya mengandung hikmah; angin mengawinkan tepung sari buah-buahan; asal kejadian Adam as.\n",
        "outro_surah": null,
        "munasabah_prev_surah": "MUNASABAH SURAH IBR\u0100H\u012aM\nDENGAN SURAH AL-\u1e24IJR\n\n1. \tKeduanya sama-sama dimulai dengan \u201calif l\u0101m r\u0101\u201d dan menerangkan sifat-sifat Al-Qur\u2019an Al-Karim.\n2. \tDalam Surah Ibr\u0101h\u012bm, Allah menjelaskan bahwa Al-Qur\u2019an itu pembimbing manusia ke jalan Allah, kemudian dalam Surah al-\u1e24ijr, Allah menegaskan bahwa kejadian-kejadian alam ini mengandung hikmah, sebagai tanda keesaan dan kebesaran Allah swt.\n3. \tKedua surah ini menerangkan kisah Nabi Ibrahim a.s. secara terperinci.\n4. \tKeduanya sama-sama menerangkan keadaan orang-orang kafir di hari kiamat dan penyesalan mereka, mengapa sewaktu hidup di dunia mereka tidak menjadi orang mukmin.\n5. \tKedua surah ini sama-sama menceritakan kisah-kisah nabi yang terdahulu dengan kaumnya, serta menerangkan keadaan orang-orang yang ingkar kepada para nabi itu pada hari kiamat. Kisah-kisah itu disampaikan kepada Nabi Muhammad saw untuk menghibur dan memantapkan hati beliau pada waktu mengalami berbagai kesulitan dalam menyiarkan agama Islam.",
        "munasabah_prev_theme": "Pada ayat-ayat yang lalu, Allah swt menerangkan keingkaran orang-orang kafir. Sekalipun kepada mereka telah dikemukakan bukti-bukti dan tanda-tanda kekuasaan dan kebesaran Allah, mereka tetap tidak akan beriman. Pada ayat-ayat ini, Allah swt menerangkan tanda-tanda kekuasaan dan kebesaran-Nya di langit dan di bumi. Langit dihiasi dengan bintang-bintang yang bertaburan, matahari yang bersinar, dan bulan yang bercahaya,  sedangkan bumi dengan gunung-gunungnya yang menjulang dan ngarai-ngarainya yang dalam dan sebagainya. \n",
        "theme_group": "TANDA-TANDA KEKUASAAN DAN \nKEBESARAN ALLAH",
        "kosakata": "Kosakata: Istaraqa as-Sam\u2019a  \u0627\u0650\u0633\u0652\u062a\u064e\u0631\u064e\u0642\u064e \u0627\u0644\u0633\u0651\u064e\u0645\u0652\u0639\u064e  (al-\u1e24ijr/15: 18)\nIstaraqa terambil dari akar kata saraqa yaitu mengambil yang bukan haknya secara sembunyi. Penambahan hamzah dan ta\u2019 ke dalam kata itu mengandung arti upaya yang dipaksakan. Istaraqa berarti memaksakan mencuri sehingga menimbulkan perasaan tertekan yang amat sangat di dalam hati pencuri. Al-Sam\u2019 artinya \u201cpendengaran\u201d. Istaraqa as-sam\u2019 berarti \u201cmencuri-curi dengar\u201d. Yang dimaksud di sini adalah bahwa setan  mencuri-curi dengar percakapan yang terjadi di \u2018arasy antara Allah  dengan malaikat dalam menyampaikan titah-titah-Nya dan antara malaikat-malaikat      sendiri dalam menyampaikan titah itu kepada sesama mereka. Mereka mencuri-curi dengar karena takut menghampiri \u2018Arasy itu, karena bila mereka mendekatinya mereka akan disembur dengan panah-panah berapi. Karena mencuri-curi itu, maka informasi yang mereka terima tidak lengkap. Informasi itu mereka sampaikan kepada manusia, yaitu kepada dukun-dukun atau peramal-peramal yang lalu menambah-nambahnya. Karena tidak akurat dan ditambah-tambah, maka informasi itu menjadi satu kebohongan. Itulah yang dipercayai dan diyakini manusia yang percaya kepada dukun-dukun atau tukang-tukang ramal.",
        "sabab_nuzul": null,
        "conclusion": null
    }
}