{
    "id": 1857,
    "surah_id": 15,
    "ayah": 55,
    "page": 265,
    "quarter_hizb": 27.25,
    "juz": 14,
    "manzil": 3,
    "arabic": "\u0642\u064e\u0627\u0644\u064f\u0648\u0652\u0627 \u0628\u064e\u0634\u0651\u064e\u0631\u0652\u0646\u0670\u0643\u064e \u0628\u0650\u0627\u0644\u0652\u062d\u064e\u0642\u0651\u0650 \u0641\u064e\u0644\u064e\u0627 \u062a\u064e\u0643\u064f\u0646\u0652 \u0645\u0651\u0650\u0646\u064e \u0627\u0644\u0652\u0642\u0670\u0646\u0650\u0637\u0650\u064a\u0652\u0646\u064e ",
    "latin": "Q\u0101l\u016b basysyarn\u0101ka bil-\u1e25aqqi fal\u0101 takum minal-q\u0101ni\u1e6d\u012bn(a).",
    "translation": "Mereka menjawab, \u201cKami menyampaikan kabar gembira kepadamu dengan benar. Maka, janganlah engkau termasuk orang yang berputus asa.\u201d",
    "no_footnote": null,
    "footnotes": null,
    "surah": {
        "id": 15,
        "arabic": " \u0627\u0644\u062d\u062c\u0631",
        "latin": "Al-\u1e24ijr",
        "transliteration": "Al-Hijr",
        "translation": "Hijr",
        "num_ayah": 99,
        "page": 262,
        "location": "Makkiyah"
    },
    "tafsir": {
        "wajiz": "Mereka menjawab untuk meyakinkan Ibrahim, \u201cKami menyampaikan kabar gembira kepadamu dengan benar. Apa yang kami sampaikan kepadamu adalah hal yang benar adanya, dan itu akan menjadi suatu kenyataan bagimu. Maka, janganlah engkau termasuk orang yang berputus asa dari nikmat dan karunia Allah.\u201d",
        "tahlili": "Melihat Ibrahim merasa takut, maka para tamu itu mengatakan kepadanya, agar tidak takut karena maksud kedatangan mereka ialah untuk menyampaikan kabar gembira dari Allah, bahwa ia akan dianugerahi seorang anak laki-laki yang saleh. Dalam firman Allah yang lain disebutkan bahwa anak yang akan dianugerahkan itu akan mempunyai kedudukan yang penting di kemudian hari.\nAllah berfirman:\n\u0648\u064e\u0628\u064e\u0634\u0651\u064e\u0631\u0652\u0646\u0670\u0647\u064f \u0628\u0650\u0627\u0650\u0633\u0652\u062d\u0670\u0642\u064e \u0646\u064e\u0628\u0650\u064a\u0651\u064b\u0627 \u0645\u0650\u0651\u0646\u064e \u0627\u0644\u0635\u0651\u0670\u0644\u0650\u062d\u0650\u064a\u0652\u0646\u064e \u0661\u0661\u0662\nDan Kami beri dia kabar gembira dengan (kelahiran) Ishak seorang nabi yang termasuk orang-orang yang saleh. (a\u1e63-\u1e62aff\u0101t/37: 112)\n\nIbrahim merasa heran atas berita gembira yang disampaikan para malaikat itu. Dia hampir saja tidak mempercayainya, apalagi berita itu disampaikan oleh orang yang belum dikenalnya dan ketika itu Ibrahim dan istrinya Sarah telah berusia lanjut. Menurut kebiasaan, orang yang sudah berusia lanjut tidak mungkin lagi mempunyai anak. Sudah tentu berita itu dianggapnya aneh, apalagi istrinya juga seorang yang mandul.\nTamu-tamu Ibrahim itu menegaskan bahwa berita yang disampaikan mereka itu adalah berita yang benar, sebab kelahiran seorang putra yang diinginkan itu termasuk nikmat Allah yang diberikan kepada hamba-hamba-Nya. Allah kuasa melimpahkan nikmat itu kepada siapa saja yang dikehendaki-Nya. Dia juga kuasa untuk mengadakan atau menciptakan sesuatu yang menyimpang dari sunnah-Nya sendiri.\nSetelah mendengar keterangan para malaikat itu, timbullah keyakinan pada diri Ibrahim bahwa tamu yang aneh itu bukanlah sembarang tamu. Mereka adalah malaikat-malaikat Allah yang diutus kepadanya untuk menyampaikan berita gembira. Karena keyakinan itulah Ibrahim segera menjawab perkataan mereka bahwa tidak ada orang yang putus asa dari rahmat Tuhannya kecuali orang-orang yang sesat. Dalam hadis Nabi saw diterangkan betapa banyak dan luasnya nikmat Allah:\n\u0642\u064e\u0627\u0644\u064e \u0631\u064e\u0633\u064f\u0648\u0652\u0644\u064f \u0627\u0644\u0644\u0651\u0670\u0647\u0650 \u0635\u064e\u0644\u0651\u064e\u0649 \u0627\u0644\u0644\u0651\u0670\u0647\u064f \u0639\u064e\u0644\u064e\u064a\u0652\u0647\u0650 \u0648\u064e\u0633\u064e\u0644\u0651\u064e\u0645\u064e: \u0627\u0650\u0646\u0651\u064e \u0627\u0644\u0644\u0651\u0670\u0647\u064e \u0633\u064f\u0628\u0652\u062d\u064e\u0627\u0646\u064e\u0647\u064f \u062e\u064e\u0644\u064e\u0642\u064e \u0627\u0644\u0631\u0651\u064e\u062d\u0652\u0645\u064e\u0629\u064e \u064a\u064e\u0648\u0652\u0645\u064e \u062e\u064e\u0644\u064e\u0642\u064e\u0647\u064e\u0627 \u0645\u0650\u0627\u0626\u064e\u0629\u064e \u0631\u064e\u062d\u0652\u0645\u064e\u0629\u064d \u0641\u064e\u0623\u064e\u0645\u0652\u0633\u064e\u0643\u064e \u0639\u0650\u0646\u0652\u062f\u064e\u0647\u064f \u062a\u0650\u0633\u0652\u0639\u064b\u0627 \u0648\u064e\u062a\u0650\u0633\u0652\u0639\u0650\u064a\u0652\u0646\u064e \u0631\u064e\u062d\u0652\u0645\u064e\u0629\u064b \u0648\u064e\u0623\u064e\u0631\u0652\u0633\u064e\u0644\u064e \u0641\u0650\u0649 \u062e\u064e\u0644\u0652\u0642\u0650 \u0643\u064f\u0644\u0651\u0650\u0647\u0650\u0645\u0652 \u0631\u064e\u062d\u0652\u0645\u064e\u0629\u064b \u0648\u064e\u0627\u062d\u0650\u062f\u064e\u0629\u064b \u0641\u064e\u0644\u064e\u0648\u0652 \u064a\u064e\u0639\u0652\u0644\u064e\u0645\u064f \u0627\u0644\u0652\u0643\u064e\u0627\u0641\u0650\u0631\u064f \u0643\u064f\u0644\u0651\u064e \u0627\u0644\u0651\u064e\u0630\u0650\u064a\u0652 \u0639\u0650\u0646\u0652\u062f\u064e\u0647\u064f \u0645\u0650\u0646\u0652 \u0631\u064e\u062d\u0652\u0645\u064e\u0629\u064d \u0644\u064e\u0645\u0652 \u064a\u064e\u064a\u0652\u0623\u064e\u0633\u0652 \u0645\u0650\u0646\u064e \u0627\u0644\u0631\u0651\u064e\u062d\u0652\u0645\u064e\u0629\u0650\u060c \u0648\u064e\u0644\u064e\u0648\u0652 \u064a\u064e\u0639\u0652\u0644\u064e\u0645\u064f \u0627\u0644\u0652\u0645\u064f\u0624\u0652\u0645\u0650\u0646\u064f \u0643\u064f\u0644\u0651\u064e \u0627\u0644\u0651\u064e\u0630\u0650\u064a\u0652 \u0639\u0650\u0646\u0652\u062f\u064e \u0627\u0644\u0644\u0651\u0670\u0647\u0650 \u062a\u064e\u0639\u064e\u0627\u0644\u064e\u0649 \u0645\u0650\u0646\u064e \u0627\u0644\u0652\u0639\u064e\u0630\u064e\u0627\u0628\u0650 \u0644\u0645\u064e \u0652 \u064a\u064e\u0623\u0652\u0645\u064e\u0646\u0652 \u0645\u0650\u0646\u064e \u0627\u0644\u0646\u0651\u064e\u0627\u0631\u0650. (\u0631\u0648\u0627\u0647 \u0627\u0644\u0628\u062e\u0627\u0631\u064a \u0648 \u0645\u0633\u0644\u0645 \u0639\u0646 \u0623\u0628\u064a \u0647\u0631\u064a\u0631\u0629)\nRasulullah saw bersabda, \u201cSesungguhnya Allah swt telah menciptakan rahmat, ketika itu Dia menciptakan seratus rahmat, maka ditahan-Nya sembilan puluh sembilan rahmat, dan melepaskan satu rahmat kepada makhluk-Nya seluruh-Nya. Kalau orang kafir mengetahui semua rahmat yang ada pada sisi Allah, niscaya mereka tidak putus asa dari rahmat itu, dan kalau orang mukmin mengetahui semua macam azab yang ada pada Allah swt, niscaya mereka tidak merasa aman dari api neraka.\u201d (Riwayat al-Bukh\u0101r\u012b dan Muslim dari Abu Hurairah)\n\nDalam hal ini, Ibrahim a.s. sebagai nabi dan rasul Allah pasti mengetahui betapa banyaknya rahmat yang ada pada sisi Allah. Oleh karena itu, beliau yakin akan kebenaran yang disampaikan para malaikat itu.",
        "intro_surah": "Surah ini terdiri dari 99 ayat, termasuk golongan surah-surah Makkiyah, karena diturunkan di Mekah sebelum Nabi Muhammad saw hijrah ke Medinah. Al-\u1e24ijr adalah nama sebuah pegunungan yang didiami oleh kaum \u1e60amud, terletak di pinggir jalan raya antara Medinah dan Syam (Syria).\nNama surah ini diambil dari nama daerah pegunungan itu, sebagai peringatan bagi kaum Muslimin karena penduduknya, yaitu kaum \u1e60amud yang dikisahkan pada ayat 80 sampai dengan ayat 84, telah dimusnahkan akibat mendustakan Nabi Saleh dan berpaling dari ayat-ayat Allah.\nDalam surah ini terdapat pula kisah-kisah kaum lain yang telah dibinasakan oleh Allah, seperti kaum Lu\u1e6d a.s. dan kaum Syu\u2018aib a.s. Semua kisah-kisah itu dapat dijadikan tamsil dan ibarat bahwa orang-orang yang menentang ajaran rasul-rasul akan mengalami kehancuran.\n\nPokok-pokok Isinya\n1. \tKeimanan:\nKepastian nasib suatu bangsa hanyalah di tangan Allah; Allah menjamin kemurnian Al-Qur\u2019an sepanjang masa; setan tidak dapat naik ke alam malakut karena ada yang menjaganya; kadar rezeki yang diberikan kepada manusia sesuai dengan hikmah dan kebijaksanaan Allah; Allah memelihara hamba-Nya yang telah mendapat taufik dari godaan setan; Allah di samping mempunyai sifat pengampun lagi penyayang juga mengazab orang-orang yang ingkar; manusia akan dihimpun pada hari kiamat.\n2. \tHukum:\nLarangan melakukan homoseksual, kewajiban melakukan ibadah selama hidup, larangan menginginkan harta orang kafir, perintah kepada Nabi Muhammad saw agar melakukan dakwah secara terang-terangan, larangan berputus asa terhadap rahmat Allah.\n3. \tKisah:\nNabi Ibrahim a.s. dengan kaumnya, Nabi Lu\u1e6d a.s. dengan kaumnya, kaum Syu\u2018aib dan kaum Saleh (kaum \u1e60amud)\n4. \tLain-lain:\nKejadian alam semesta ini menunjukkan kekuasaan dan kebesaran Allah; kejadian alam dan isinya mengandung hikmah; angin mengawinkan tepung sari buah-buahan; asal kejadian Adam as.\n",
        "outro_surah": null,
        "munasabah_prev_surah": "MUNASABAH SURAH IBR\u0100H\u012aM\nDENGAN SURAH AL-\u1e24IJR\n\n1. \tKeduanya sama-sama dimulai dengan \u201calif l\u0101m r\u0101\u201d dan menerangkan sifat-sifat Al-Qur\u2019an Al-Karim.\n2. \tDalam Surah Ibr\u0101h\u012bm, Allah menjelaskan bahwa Al-Qur\u2019an itu pembimbing manusia ke jalan Allah, kemudian dalam Surah al-\u1e24ijr, Allah menegaskan bahwa kejadian-kejadian alam ini mengandung hikmah, sebagai tanda keesaan dan kebesaran Allah swt.\n3. \tKedua surah ini menerangkan kisah Nabi Ibrahim a.s. secara terperinci.\n4. \tKeduanya sama-sama menerangkan keadaan orang-orang kafir di hari kiamat dan penyesalan mereka, mengapa sewaktu hidup di dunia mereka tidak menjadi orang mukmin.\n5. \tKedua surah ini sama-sama menceritakan kisah-kisah nabi yang terdahulu dengan kaumnya, serta menerangkan keadaan orang-orang yang ingkar kepada para nabi itu pada hari kiamat. Kisah-kisah itu disampaikan kepada Nabi Muhammad saw untuk menghibur dan memantapkan hati beliau pada waktu mengalami berbagai kesulitan dalam menyiarkan agama Islam.",
        "munasabah_prev_theme": "Pada ayat-ayat yang lalu, Allah swt menyampaikan berita gembira kepada orang-orang yang bertakwa bahwa mereka akan ditempatkan di surga yang penuh kenikmatan. Pada ayat-ayat ini, Allah swt menerangkan tentang berita gembira yang pernah disampaikan para malaikat kepada suami istri yang sudah tua tetapi bertakwa. Allah mengabulkan keinginan mereka untuk mempunyai anak yang akan melanjutkan keturunan mereka, karena Allah swt adalah Mahakuasa dan selalu memberi kegembiraan kepada hamba-hamba-Nya yang beriman.",
        "theme_group": "KISAH IBRAHIM A.S. DENGAN TAMUNYA",
        "kosakata": "Kosakata: al-Q\u0101ni\u1e6din \u0627\u064e\u0644\u0652\u0642\u064e\u0627\u0646\u0650\u0637\u0650\u064a\u0652\u0646\u064e  (al-\u1e24ijr/15: 55)\nAkar kata dari (\u0642 \u2013 \u0646 - \u0637) mempunyai arti putus asa atau putus harapan. Dikatakan qana\u1e6da-yaqni\u1e6du, atau qani\u1e6da-yaqna\u1e6du. Masdarnya qun\u016b\u1e6dan dan qan\u0101\u1e6datan. Pada ayat ini Allah melarang Nabi Ibrahim  untuk putus asa dari rahmat Allah yaitu lahirnya seorang anak. Padahal dia sudah tua begitu juga dengan isterinya. Secara lahiriah dan kebiasaan orang yang sudah tua memang sudah tidak memungkinkan lagi untuk dapat anak. Tapi walau demikian Allah melarang Nabi Ibrahim berputus asa. Dengan pernyataan ini manusia mestinya terus merasa  optimis terhadap rahmat Allah, karena Allah bisa saja melakukan sesuatu apa pun walaupun di luar perhitungan manusia. Bahkan orang yang berputus asa dianggap sebagai orang yang sesat. karena Rahmat Allah sangatlah luas. ",
        "sabab_nuzul": null,
        "conclusion": null
    }
}