{
    "id": 1829,
    "surah_id": 15,
    "ayah": 27,
    "page": 263,
    "quarter_hizb": 27,
    "juz": 14,
    "manzil": 3,
    "arabic": "\u0648\u064e\u0627\u0644\u0652\u062c\u064e\u0627\u06e4\u0646\u0651\u064e \u062e\u064e\u0644\u064e\u0642\u0652\u0646\u0670\u0647\u064f \u0645\u0650\u0646\u0652 \u0642\u064e\u0628\u0652\u0644\u064f \u0645\u0650\u0646\u0652 \u0646\u0651\u064e\u0627\u0631\u0650 \u0627\u0644\u0633\u0651\u064e\u0645\u064f\u0648\u0652\u0645\u0650  ",
    "latin": "Wal-j\u0101nna khalaqn\u0101hu min qablu min n\u0101ris-sam\u016bm(i).",
    "translation": "Sebelumnya Kami telah menciptakan jin dari api yang sangat panas.",
    "no_footnote": null,
    "footnotes": null,
    "surah": {
        "id": 15,
        "arabic": " \u0627\u0644\u062d\u062c\u0631",
        "latin": "Al-\u1e24ijr",
        "transliteration": "Al-Hijr",
        "translation": "Hijr",
        "num_ayah": 99,
        "page": 262,
        "location": "Makkiyah"
    },
    "tafsir": {
        "wajiz": "Dan Kami telah menciptakan jin sebelum penciptaan Adam dari api yang sangat panas.\u201d",
        "tahlili": "Allah swt menerangkan bahwa Dia telah menciptakan jin dari api yang sangat panas sebelum menciptakan Adam. Tentang hakikat api ini, hanyalah Allah yang mengetahui. Sesuai dengan hadis di atas bahwa tabiat manusia itu berbeda-beda menurut keadaan tanah yang membentuk dirinya, maka hal ini dapat dijadikan dalil bahwa tabiat jin itu sesuai dengan tabiat asal kejadiannya.\nSebagaimana api bersifat panas, maka tabiat jin pun demikian pula. Api dengan tiba-tiba dapat menggejolak menjadi besar, kemudian tiba-tiba menjadi susut dan kecil. Demikian pula jin, suka tergesa-gesa, cepat menjadi marah, suka mempermainkan dan menyakiti manusia, kadang-kadang tunduk dan patuh kepada Allah, tetapi serta merta membangkang dan mendurhakai Allah. Manusia bersifat sesuai dengan sifat asal kejadiannya, seperti bersifat sabar, suka menumbuhkan, mengembangkan, memelihara dan mencari sesuatu yang baik, suka mengindahkan perintah, mempunyai sifat suka tunduk dan patuh, walaupun kadang-kadang ia durhaka kepada Allah karena tunduk dan mengikuti hawa nafsunya.\nDalam hadis qudsi disebutkan asal kejadian malaikat, jin dan manusia berdasarkan riwayat \u2018\u0100isyah:\n\u0642\u064e\u0627\u0644\u064e \u0627\u0644\u0644\u0651\u0670\u0647\u064f \u062a\u064e\u0639\u064e\u0627\u0644\u064e\u0649: \u062e\u064e\u0644\u064e\u0642\u0652\u062a\u064f \u0627\u0644\u0652\u0645\u064e\u0644\u0627\u064e\u0626\u0650\u0643\u064e\u0629\u064e \u0645\u0650\u0646\u0652 \u0646\u064f\u0648\u0652\u0631\u064d \u0648\u064e\u062e\u064e\u0644\u064e\u0642\u0652\u062a\u064f \u0627\u0644\u0652\u062c\u064e\u0622\u0646\u0651\u064e \u0645\u0650\u0646\u0652 \u0645\u064e\u0627\u0631\u0650\u062c\u064d \u0645\u0650\u0646\u064e \u0627\u0644\u0646\u0651\u064e\u0627\u0631\u0650 \u0648\u064e\u062e\u064f\u0644\u0650\u0642\u064e \u0622\u062f\u064e\u0645\u064f \u0645\u0650\u0645\u0651\u064e\u0627 \u0648\u064f\u0635\u0650\u0641\u064e \u0644\u064e\u0643\u064f\u0645\u0652. (\u0631\u0648\u0627\u0647 \u0623\u062d\u0645\u062f \u0648 \u0645\u0633\u0644\u0645 \u0639\u0646 \u0639\u0627\u0626\u0634\u0629)\nAllah swt berfirman, \u201cAku telah menciptakan malaikat dari cahaya, dan Aku telah menciptakan jin dari nyala api dan telah diciptakan Adam sebagaimana yang telah diterangkan kepadamu.\u201d (Riwayat A\u1e25mad dan Muslim dari \u2018\u0100isyah)\nJin termasuk makhluk Allah. Sebagaimana makhluk Allah yang lain, maka jin itu ada yang taat kepada Allah dan ada pula yang durhaka, sebagaimana firman Allah swt:\n\u0648\u0651\u064e\u0627\u064e\u0646\u0651\u064e\u0627 \u0645\u0650\u0646\u0651\u064e\u0627 \u0627\u0644\u0635\u0651\u0670\u0644\u0650\u062d\u064f\u0648\u0652\u0646\u064e \u0648\u064e\u0645\u0650\u0646\u0651\u064e\u0627 \u062f\u064f\u0648\u0652\u0646\u064e \u0630\u0670\u0644\u0650\u0643\u064e\u06d7 \u0643\u064f\u0646\u0651\u064e\u0627 \u0637\u064e\u0631\u064e\u0627\u06e4\u0649\u0655\u0650\u0642\u064e \u0642\u0650\u062f\u064e\u062f\u064b\u0627\u06d9 \u0661\u0661\nDan sesungguhnya di antara kami (jin) ada yang saleh dan ada (pula) kebalikannya. Kami menempuh jalan yang berbeda-beda. (al-Jinn/72: 11)\n\nJin itu diberi beban dan tanggung jawab oleh Allah, sebagaimana manusia diberi beban dan tanggung jawab, ia berkembang dan berketurunan. Hanya saja manusia tidak dapat melihatnya, sedang ia dapat melihat manusia. \nKarena itu, jin ada yang tunduk patuh kepada Allah, dan ada pula yang durhaka seperti Iblis. Allah swt berfirman:\n\u0648\u0651\u064e\u0627\u064e\u0646\u0651\u064e\u0627 \u0645\u0650\u0646\u0651\u064e\u0627 \u0627\u0644\u0652\u0645\u064f\u0633\u0652\u0644\u0650\u0645\u064f\u0648\u0652\u0646\u064e \u0648\u064e\u0645\u0650\u0646\u0651\u064e\u0627 \u0627\u0644\u0652\u0642\u0670\u0633\u0650\u0637\u064f\u0648\u0652\u0646\u064e\u06d7 \u0641\u064e\u0645\u064e\u0646\u0652 \u0627\u064e\u0633\u0652\u0644\u064e\u0645\u064e \u0641\u064e\u0627\u064f\u0648\u0644\u0670\u06e4\u0649\u0655\u0650\u0643\u064e \u062a\u064e\u062d\u064e\u0631\u0651\u064e\u0648\u0652\u0627 \u0631\u064e\u0634\u064e\u062f\u064b\u0627 \u0661\u0664\nDan di antara kami ada yang Islam dan ada yang menyimpang dari kebenaran. Siapa yang Islam, maka mereka itu telah memilih jalan yang lurus. (al-Jinn/72: 14)\n\nMenurut Ibnu \u2018Abb\u0101s, yang dimaksud dengan j\u0101n (jin) dalam ayat ini ialah bapak dari segala jin, sebagaimana Adam adalah bapak dari segala manusia. Sedang Iblis adalah bapak dari segala setan. Jin-jin itu juga makan, minum, hidup, dan mati seperti manusia. \nAllah swt berfirman:\n\u064a\u0670\u0628\u064e\u0646\u0650\u064a\u0652\u0653 \u0627\u0670\u062f\u064e\u0645\u064e \u0644\u064e\u0627 \u064a\u064e\u0641\u0652\u062a\u0650\u0646\u064e\u0646\u0651\u064e\u0643\u064f\u0645\u064f \u0627\u0644\u0634\u0651\u064e\u064a\u0652\u0637\u0670\u0646\u064f \u0643\u064e\u0645\u064e\u0627\u0653 \u0627\u064e\u062e\u0652\u0631\u064e\u062c\u064e \u0627\u064e\u0628\u064e\u0648\u064e\u064a\u0652\u0643\u064f\u0645\u0652 \u0645\u0650\u0651\u0646\u064e \u0627\u0644\u0652\u062c\u064e\u0646\u0651\u064e\u0629\u0650 \u064a\u064e\u0646\u0652\u0632\u0650\u0639\u064f \u0639\u064e\u0646\u0652\u0647\u064f\u0645\u064e\u0627 \u0644\u0650\u0628\u064e\u0627\u0633\u064e\u0647\u064f\u0645\u064e\u0627 \u0644\u0650\u064a\u064f\u0631\u0650\u064a\u064e\u0647\u064f\u0645\u064e\u0627 \u0633\u064e\u0648\u0652\u0621\u0670\u062a\u0650\u0647\u0650\u0645\u064e\u0627 \u06d7\u0627\u0650\u0646\u0651\u064e\u0647\u0657 \u064a\u064e\u0631\u0670\u0649\u0643\u064f\u0645\u0652 \u0647\u064f\u0648\u064e \u0648\u064e\u0642\u064e\u0628\u0650\u064a\u0652\u0644\u064f\u0647\u0657 \u0645\u0650\u0646\u0652 \u062d\u064e\u064a\u0652\u062b\u064f \u0644\u064e\u0627 \u062a\u064e\u0631\u064e\u0648\u0652\u0646\u064e\u0647\u064f\u0645\u0652\u06d7 \u0627\u0650\u0646\u0651\u064e\u0627 \u062c\u064e\u0639\u064e\u0644\u0652\u0646\u064e\u0627 \u0627\u0644\u0634\u0651\u064e\u064a\u0670\u0637\u0650\u064a\u0652\u0646\u064e \u0627\u064e\u0648\u0652\u0644\u0650\u064a\u064e\u0627\u06e4\u0621\u064e \u0644\u0650\u0644\u0651\u064e\u0630\u0650\u064a\u0652\u0646\u064e \u0644\u064e\u0627 \u064a\u064f\u0624\u0652\u0645\u0650\u0646\u064f\u0648\u0652\u0646\u064e \u0662\u0667\nWahai anak cucu Adam! Janganlah sampai kamu tertipu oleh setan sebagaimana halnya dia (setan) telah mengeluarkan ibu bapakmu dari surga, dengan menanggalkan pakaian keduanya untuk memperlihatkan aurat keduanya. Sesungguhnya dia dan pengikutnya dapat melihat kamu dari suatu tempat yang kamu tidak bisa melihat mereka. Sesungguhnya Kami telah menjadikan setan-setan itu pemimpin bagi orang-orang yang tidak beriman. (al-A\u2018r\u0101f/7: 27)",
        "intro_surah": "Surah ini terdiri dari 99 ayat, termasuk golongan surah-surah Makkiyah, karena diturunkan di Mekah sebelum Nabi Muhammad saw hijrah ke Medinah. Al-\u1e24ijr adalah nama sebuah pegunungan yang didiami oleh kaum \u1e60amud, terletak di pinggir jalan raya antara Medinah dan Syam (Syria).\nNama surah ini diambil dari nama daerah pegunungan itu, sebagai peringatan bagi kaum Muslimin karena penduduknya, yaitu kaum \u1e60amud yang dikisahkan pada ayat 80 sampai dengan ayat 84, telah dimusnahkan akibat mendustakan Nabi Saleh dan berpaling dari ayat-ayat Allah.\nDalam surah ini terdapat pula kisah-kisah kaum lain yang telah dibinasakan oleh Allah, seperti kaum Lu\u1e6d a.s. dan kaum Syu\u2018aib a.s. Semua kisah-kisah itu dapat dijadikan tamsil dan ibarat bahwa orang-orang yang menentang ajaran rasul-rasul akan mengalami kehancuran.\n\nPokok-pokok Isinya\n1. \tKeimanan:\nKepastian nasib suatu bangsa hanyalah di tangan Allah; Allah menjamin kemurnian Al-Qur\u2019an sepanjang masa; setan tidak dapat naik ke alam malakut karena ada yang menjaganya; kadar rezeki yang diberikan kepada manusia sesuai dengan hikmah dan kebijaksanaan Allah; Allah memelihara hamba-Nya yang telah mendapat taufik dari godaan setan; Allah di samping mempunyai sifat pengampun lagi penyayang juga mengazab orang-orang yang ingkar; manusia akan dihimpun pada hari kiamat.\n2. \tHukum:\nLarangan melakukan homoseksual, kewajiban melakukan ibadah selama hidup, larangan menginginkan harta orang kafir, perintah kepada Nabi Muhammad saw agar melakukan dakwah secara terang-terangan, larangan berputus asa terhadap rahmat Allah.\n3. \tKisah:\nNabi Ibrahim a.s. dengan kaumnya, Nabi Lu\u1e6d a.s. dengan kaumnya, kaum Syu\u2018aib dan kaum Saleh (kaum \u1e60amud)\n4. \tLain-lain:\nKejadian alam semesta ini menunjukkan kekuasaan dan kebesaran Allah; kejadian alam dan isinya mengandung hikmah; angin mengawinkan tepung sari buah-buahan; asal kejadian Adam as.\n",
        "outro_surah": null,
        "munasabah_prev_surah": "MUNASABAH SURAH IBR\u0100H\u012aM\nDENGAN SURAH AL-\u1e24IJR\n\n1. \tKeduanya sama-sama dimulai dengan \u201calif l\u0101m r\u0101\u201d dan menerangkan sifat-sifat Al-Qur\u2019an Al-Karim.\n2. \tDalam Surah Ibr\u0101h\u012bm, Allah menjelaskan bahwa Al-Qur\u2019an itu pembimbing manusia ke jalan Allah, kemudian dalam Surah al-\u1e24ijr, Allah menegaskan bahwa kejadian-kejadian alam ini mengandung hikmah, sebagai tanda keesaan dan kebesaran Allah swt.\n3. \tKedua surah ini menerangkan kisah Nabi Ibrahim a.s. secara terperinci.\n4. \tKeduanya sama-sama menerangkan keadaan orang-orang kafir di hari kiamat dan penyesalan mereka, mengapa sewaktu hidup di dunia mereka tidak menjadi orang mukmin.\n5. \tKedua surah ini sama-sama menceritakan kisah-kisah nabi yang terdahulu dengan kaumnya, serta menerangkan keadaan orang-orang yang ingkar kepada para nabi itu pada hari kiamat. Kisah-kisah itu disampaikan kepada Nabi Muhammad saw untuk menghibur dan memantapkan hati beliau pada waktu mengalami berbagai kesulitan dalam menyiarkan agama Islam.",
        "munasabah_prev_theme": "Pada ayat-ayat yang terdahulu, diterangkan bahwa Allah yang menurunkan hujan, menumbuhkan tumbuh-tumbuhan, dan menciptakan makhluk hidup di permukaan bumi. Kemudian pada ayat-ayat ini, Allah menerangkan asal kejadian manusia, serta mengingatkan bahwa Iblis selalu berusaha setiap saat menggoda dan menggelincirkan manusia dari jalan yang benar, sehingga manusia itu dapat bersama-sama dengannya masuk ke dalam neraka. Karena itu hendaklah manusia selalu waspada terhadap godaan setan dan iblis.",
        "theme_group": "KEJADIAN MANUSIA, KEPATUHAN MALAIKAT,\nDAN KEDURHAKAAN IBLIS",
        "kosakata": "Kosakata: \u1e24am\u0101\u2019 Masn\u016bn  \u062d\u064e\u0645\u064e\u0627\u0621\u064d \u0645\u064e\u0633\u0652\u0646\u064f\u0648\u0652\u0646\u064d (al-\u1e24ijr/15: 26)\n\u1e24ama\u2019 adalah tanah liat berwarna hitam. Masn\u016bn artinya \u201cyang dibentuk\u201d, terambil dari akar kata sanna artinya \u201cmembentuk\u201d Dalam Al-Qur\u2019an, frase ini terulang tiga kali. Dalam Surah al-\u1e24ijr/15: 26 ini diinformasikan bahwa manusia diciptakan Allah dari \u201ctembikar berongga dari tanah liat yang dibentuk\u201d. Itu adalah salah satu mata rantai proses penciptaan Adam yang dipahami dari ayat-ayat mengenai penciptaannya. Penciptaan itu dimulai dari tur\u0101b \u201ctanah murni\u201d (\u0100li \u2018Imr\u0101n/3: 59). Bila tanah itu sudah mengandung air disebut \u1e6d\u012bn (al-An\u2018\u0101m/6: 2). \u1e6c\u012bn itu menjadi \u1e6d\u012bn l\u0101zib (tanah yang liat) (a\u1e63-\u1e62\u0101ff\u0101t/37: 11). Dari \u1e6d\u012bn l\u0101zib dibentuk \u1e63al\u1e63\u0101l (al-\u1e24ijr/15: 28), yaitu benda berongga yang bila ditiup berbunyi \u1e63al\u2026\u1e63al, sehingga orang Arab menamainya \u1e63al\u1e63\u0101l. \n",
        "sabab_nuzul": null,
        "conclusion": null
    }
}