{
    "id": 1988,
    "surah_id": 16,
    "ayah": 87,
    "page": 276,
    "quarter_hizb": 28.25,
    "juz": 14,
    "manzil": 3,
    "arabic": "\u0648\u064e\u0627\u064e\u0644\u0652\u0642\u064e\u0648\u0652\u0627 \u0627\u0650\u0644\u064e\u0649 \u0627\u0644\u0644\u0651\u0670\u0647\u0650 \u064a\u064e\u0648\u0652\u0645\u064e\u0649\u0655\u0650\u0630\u0650 \u06e8\u0650\u0627\u0644\u0633\u0651\u064e\u0644\u064e\u0645\u064e \u0648\u064e\u0636\u064e\u0644\u0651\u064e \u0639\u064e\u0646\u0652\u0647\u064f\u0645\u0652 \u0645\u0651\u064e\u0627 \u0643\u064e\u0627\u0646\u064f\u0648\u0652\u0627 \u064a\u064e\u0641\u0652\u062a\u064e\u0631\u064f\u0648\u0652\u0646\u064e  ",
    "latin": "Wa alqau ilall\u0101hi yauma'i\u017cinis-salama wa \u1e0dalla \u2018anhum m\u0101 k\u0101n\u016b yaftar\u016bn(a).",
    "translation": "Pada hari itu mereka menyatakan tunduk kepada Allah dan lenyaplah dari mereka apa yang selalu mereka ada-adakan.",
    "no_footnote": null,
    "footnotes": null,
    "surah": {
        "id": 16,
        "arabic": "\u0627\u0644\u0646\u0651\u062d\u0644",
        "latin": "An-Na\u1e25l",
        "transliteration": "An-Nahl",
        "translation": "Lebah",
        "num_ayah": 128,
        "page": 267,
        "location": "Makkiyah"
    },
    "tafsir": {
        "wajiz": "Permohonan keringanan siksa yang mereka ajukan kepada Allah menjadi sia-sia belaka. Dan pada hari itu pula mereka menyatakan tundukdan berserah diri kepada Allah semata, dan lenyaplah segala yang mereka ada-adakan; batallah keyakinan mereka selama di dunia bahwa sesembahan itu dapat menolong dan menyelamatkan mereka dari azab Allah.",
        "tahlili": "Kemudian Allah swt dalam ayat ini menerangkan bahwa orang-orang yang menyembah sembahan-sembahan selain Allah swt menundukkan diri kepada Allah swt pada hari kiamat sebagai tanda penyesalan.\nDalam ayat yang lain Allah swt berfirman:\n\u0648\u064e\u0644\u064e\u0648\u0652 \u062a\u064e\u0631\u0670\u0649\u0653 \u0627\u0650\u0630\u0650 \u0627\u0644\u0652\u0645\u064f\u062c\u0652\u0631\u0650\u0645\u064f\u0648\u0652\u0646\u064e \u0646\u064e\u0627\u0643\u0650\u0633\u064f\u0648\u0652\u0627 \u0631\u064f\u0621\u064f\u0648\u0652\u0633\u0650\u0647\u0650\u0645\u0652 \u0639\u0650\u0646\u0652\u062f\u064e \u0631\u064e\u0628\u0651\u0650\u0647\u0650\u0645\u0652\u06d7 \u0631\u064e\u0628\u0651\u064e\u0646\u064e\u0627\u0653 \u0627\u064e\u0628\u0652\u0635\u064e\u0631\u0652\u0646\u064e\u0627 \u0648\u064e\u0633\u064e\u0645\u0650\u0639\u0652\u0646\u064e\u0627 \u0641\u064e\u0627\u0631\u0652\u062c\u0650\u0639\u0652\u0646\u064e\u0627 \u0646\u064e\u0639\u0652\u0645\u064e\u0644\u0652 \u0635\u064e\u0627\u0644\u0650\u062d\u064b\u0627 \u0627\u0650\u0646\u0651\u064e\u0627 \u0645\u064f\u0648\u0652\u0642\u0650\u0646\u064f\u0648\u0652\u0646\u064e \u0661\u0662 (\u0627\u0644\u0633\u0651\u062c\u062f\u0629)\nDan (alangkah ngerinya), jika kamu melihat orang-orang yang berdosa itu menundukkan kepalanya di hadapan Tuhannya, (mereka berkata), \u201dYa Tuhan kami, kami telah melihat dan mendengar, maka kembalikanlah kami (ke dunia), niscaya kami akan mengerjakan kebajikan. Sungguh, kami adalah orang-orang yang yakin.\u201d (as-Sajdah/32: 12)\n\nOrang-orang musyrik pada akhirnya meyakini kesesatannya dan menyesali diri. Segala sembahan mereka selama ini seakan lenyap tanpa bekas. Padahal dulunya, mereka menganggap bahwa sembahan-sembahan itu merupakan sekutu Tuhan yang dapat memberi pertolongan kepada mereka.\nSebelum menyatakan ketundukan mereka kepada Allah swt, orang-orang musyrik pertama kali memungkiri bahwa mereka telah mempersekutukan-Nya, seperti diterangkan Allah swt:\n\u064a\u064e\u0648\u0652\u0645\u064e \u064a\u064e\u0628\u0652\u0639\u064e\u062b\u064f\u0647\u064f\u0645\u064f \u0627\u0644\u0644\u0651\u0670\u0647\u064f \u062c\u064e\u0645\u0650\u064a\u0652\u0639\u064b\u0627 \u0641\u064e\u064a\u064e\u062d\u0652\u0644\u0650\u0641\u064f\u0648\u0652\u0646\u064e \u0644\u064e\u0647\u0657 \u0643\u064e\u0645\u064e\u0627 \u064a\u064e\u062d\u0652\u0644\u0650\u0641\u064f\u0648\u0652\u0646\u064e \u0644\u064e\u0643\u064f\u0645\u0652 \u0648\u064e\u064a\u064e\u062d\u0652\u0633\u064e\u0628\u064f\u0648\u0652\u0646\u064e \u0627\u064e\u0646\u0651\u064e\u0647\u064f\u0645\u0652 \u0639\u064e\u0644\u0670\u0649 \u0634\u064e\u064a\u0652\u0621\u064d\u06d7 \u0627\u064e\u0644\u064e\u0627\u0653 \u0627\u0650\u0646\u0651\u064e\u0647\u064f\u0645\u0652 \u0647\u064f\u0645\u064f \u0627\u0644\u0652\u0643\u0670\u0630\u0650\u0628\u064f\u0648\u0652\u0646\u064e \u0661\u0668 (\u0627\u0644\u0645\u062c\u0627\u062f\u0644\u0629)\n(Ingatlah) pada hari (ketika) mereka semua dibangkitkan Allah, lalu mereka bersumpah kepada-Nya (bahwa mereka bukan orang musyrik) sebagaimana mereka bersumpah kepadamu; dan mereka menyangka bahwa mereka akan memperoleh sesuatu (manfaat). Ketahuilah, bahwa mereka orang-orang pendusta. (al-Muj\u0101dalah/58: 18)\n\nPada hari kiamat, orang-orang musyrik pertama kali mungkir kemudian tunduk kepada Allah swt. Mungkir itu disebabkan ketebalan karat-karat kemusyrikan yang menutup jiwa mereka sehingga mereka jauh dari cahaya iman. Fitrah insaniah yang cenderung kepada pengakuan akan keesaan Tuhan menjadi tertutup oleh kegelapan tabir syirik sehingga cahaya fitrah insaniah itu tak berdaya menembusnya. Tetapi kemudian setelah melalui perkembangan dan waktu yang lama, karat-karat yang menutupi jiwa manusia itu semakin menipis, sedangkan sinar fitrah insaniah yang terus hidup berusaha menembus dinding-dinding itu, sehingga akhirnya kembali mengakui keesaan Allah dan menyerah tunduk kepada-Nya.\nDemikianlah perkembangan jiwa orang-orang musyrik, dari ingkar kepada keesaan Tuhan kemudian menjadi pengakuan akan keesaan-Nya.  Namun demikian, pengakuan ini terlambat sehingga tidak bermanfaat lagi bagi mereka. ",
        "intro_surah": "Surah ini terdiri dari 128 ayat, termasuk kelompok surah-surah Makkiyyah, kecuali tiga ayat yang terakhir. Ayat-ayat ini turun pada waktu Rasulullah saw kembali dari peperangan Uhud.\nSurah ini dinamakan dengan an-Na\u1e25l yang berarti \u201clebah\u201d karena di dalamnya terdapat firman Allah ayat 68  yang artinya, \u201cDan Tuhanmu mewahyukan kepada lebah\u201d.\nLebah adalah makhluk yang sangat berguna bagi manusia. Ada persamaan hakikat antara madu yang dihasilkan lebah dengan intisari yang terdapat di dalam Al-Qur\u2019an. Madu berasal dari sari bunga dan menjadi obat bagi manusia. Sedangkan Al-Qur\u2019an mengandung intisari dari kitab-kitab yang telah diturunkan kepada para nabi terdahulu ditambah dengan ajaran-ajaran yang diperlukan oleh semua bangsa sepanjang masa untuk mencapai kebahagiaan dunia dan akhirat.\nSurah ini dinamakan pula Surah an-Ni\u2018am yang berarti nikmat-nikmat, karena di dalamnya Allah swt menyebutkan beberapa nikmat untuk hamba-hamba-Nya.\n\nPokok-pokok Isinya\n1.\tKeimanan:\nKepastian adanya hari kiamat; keesaan Allah; kekuatan-Nya dan ke-sempurnaan ilmu-Nya serta dalil keesaan-Nya; pertanggungjawaban manusia kepada Allah atas segala apa yang telah dikerjakannya.\n2.\tHukum:\nBeberapa hukum tentang makanan dan minuman yang diharamkan dan dihalalkan; kebolehan memakai perhiasan yang bahannya berasal dari dalam laut seperti mutiara dan merjan; dibolehkan memakan makanan yang diharamkan dalam keadaan terpaksa; bulu binatang dari hewan yang halal dimakan dipandang suci bila diambil ketika binatang itu masih hidup atau sesudah disembelih; kewajiban memenuhi perjanjian dan larangan mempermainkan sumpah; larangan mengada-adakan hukum yang tak ada dasarnya; perintah membaca isti\u2018\u0101\u017cah, yang berarti meminta perlindungan kepada Allah swt dari setan-setan yang terkutuk; dan larangan membalas siksa melebihi siksa yang telah diterima.\n3.\tKisah:\nKisah Nabi Ibrahim a.s.\n4.\tLain-lain:\nAsal kejadian manusia; madu adalah untuk kesehatan manusia; nasib orang-orang yang mengajak kepada kejahatan di hari kiamat, pandangan orang Arab zaman jahiliah terhadap anak perempuan; ajaran moral dalam Islam; dan pedoman dakwah Islam.",
        "outro_surah": null,
        "munasabah_prev_surah": "MUNASABAH SURAH AL-\u1e24IJR DENGAN \nSURAH AN-NA\u1e24L\n\nSebagaimana umumnya surah-surah yang turun di Mekah sebelum Hijrah berisi soal-soal ketauhidan, kerasulan, dan hari kiamat, begitu pula kedua surah ini.\nPada bagian akhir Surah al-\u1e24ijr (ayat 92-93), Allah menyatakan bahwa manusia akan dimintai pertanggungjawabannya pada hari kiamat atas apa yang dikerjakannya di dunia. Pada awal Surah an-Na\u1e24l, Allah menegaskan kepastian datangnya hari kiamat, dan pada ayat 93 an-Na\u1e24l ditegaskan lagi pertanggungjawaban manusia itu.\nPada bagian pertama Surah al-\u1e24ijr, Allah menerangkan tentang kebenaran Al-Qur\u2019an serta jaminan-Nya untuk memeliharanya, sedang dalam Surah an-Na\u1e24l terdapat ancaman bagi mereka yang mendustakan kebenaran Al-Qur\u2019an itu.\n",
        "munasabah_prev_theme": "Dalam ayat-ayat sebelumnya, Allah menyebutkan bahwa orang musyrikin menyadari semua nikmat Allah bagi mereka di dunia ini sehingga mereka hidup nyaman dan sejahtera, tetapi mereka mengingkari keesaan Allah. Dalam ayat-ayat ini, Allah swt menyatakan ancaman dan peringatan kepada mereka dengan menjelaskan keadaan mereka kelak pada hari kiamat. Mereka tidak lagi mempunyai kesempatan pada hari akhir itu untuk mendapatkan keringanan dari azab yang dijatuhkan kepada mereka ataupun membagi penderitaan itu kepada sembahan mereka, apalagi meminta dibebaskan dari semua azab.",
        "theme_group": "SETIAP RASUL MENJADI  SAKSI\nATAS UMATNYA PADA HARI KIAMAT",
        "kosakata": "Kosakata: Tiby\u0101n\u0101  \u062a\u0650\u0628\u0652\u064a\u064e\u0627\u0646\u064b\u0627  (an-Nal/16: 89)\nKata tiby\u0101nan terambil dari kata bayyana-yubayyinu-taby\u012bnan-tiby\u0101nan yang berarti \u201cmenjelaskan\u201d. Kata dasarnya adalah b\u0101na-yab\u012bnu-bay\u0101nan yang berarti \u201ctampak jelas\u201d. Kata yang terbentuk dari kata ini banyak digunakan di dalam Al-Qur\u2019an. Di antaranya adalah kata bayyin\u0101t yang berarti \u201cbukti-bukti kebenaran\u201d (al-Baqarah/2: 87), dan kata mub\u012bn yang berarti jelas. \n",
        "sabab_nuzul": null,
        "conclusion": null
    }
}