{
    "id": 1938,
    "surah_id": 16,
    "ayah": 37,
    "page": 271,
    "quarter_hizb": 27.75,
    "juz": 14,
    "manzil": 3,
    "arabic": "\u0627\u0650\u0646\u0652 \u062a\u064e\u062d\u0652\u0631\u0650\u0635\u0652 \u0639\u064e\u0644\u0670\u0649 \u0647\u064f\u062f\u0670\u0649\u0647\u064f\u0645\u0652 \u0641\u064e\u0627\u0650\u0646\u0651\u064e \u0627\u0644\u0644\u0651\u0670\u0647\u064e \u0644\u064e\u0627 \u064a\u064e\u0647\u0652\u062f\u0650\u064a\u0652 \u0645\u064e\u0646\u0652 \u064a\u0651\u064f\u0636\u0650\u0644\u0651\u064f \u0648\u064e\u0645\u064e\u0627 \u0644\u064e\u0647\u064f\u0645\u0652 \u0645\u0651\u0650\u0646\u0652 \u0646\u0651\u0670\u0635\u0650\u0631\u0650\u064a\u0652\u0646\u064e ",
    "latin": "In ta\u1e25ri\u1e63 \u2018al\u0101 hud\u0101hum fa innall\u0101ha l\u0101 yahd\u012b may yu\u1e0dillu wa m\u0101 lahum min n\u0101\u1e63ir\u012bn(a).",
    "translation": "Jika engkau (Nabi Muhammad) berusaha keras untuk memberi mereka petunjuk, maka sesungguhnya Allah tidak akan memberi petunjuk kepada orang yang telah Dia sesatkan dan mereka tidak mempunyai penolong.",
    "no_footnote": null,
    "footnotes": null,
    "surah": {
        "id": 16,
        "arabic": "\u0627\u0644\u0646\u0651\u062d\u0644",
        "latin": "An-Na\u1e25l",
        "transliteration": "An-Nahl",
        "translation": "Lebah",
        "num_ayah": 128,
        "page": 267,
        "location": "Makkiyah"
    },
    "tafsir": {
        "wajiz": "Nabi Muhammad sangat berharap kaum kafir mendapat petunjuk. Allah lalu menegaskan, \u201cJika engkau berusaha sekuat tenaga dan sangat mengharapkan agar mereka mendapat petunjuk, maka itu tidak akan berhasil karena sesungguhnya Allah tidak akan memberi petunjuk kepada orang yang disesatkan-Nya, yakni dibiarkan sesat karena lebih memilih jalan kesesatan itu, dan mereka tidak mempunyai penolong yang dapat menyelamatkan mereka.\u201d (Lihat: Surah al-Qashash/28: 56)",
        "tahlili": "Allah swt lalu menjelaskan kepada Nabi Muhammad saw agar jangan kecewa menghadapi keingkaran kaumnya dan pembangkangan yang berlebihan, padahal Rasul sendiri sangat menginginkan mereka menjadi orang-orang yang beriman. Allah swt menjelaskan kepada Rasulullah saw bahwa meskipun dia sangat mengharapkan agar kaumnya mendapat petunjuk dan mengikuti seruannya, harapan tersebut tidak ada gunanya apabila Allah tidak menghendaki mereka mendapat petunjuk karena mereka telah menentukan pilihannya sendiri. Mereka itu berpaling dari bimbingan wahyu dan tertarik kepada tipu daya setan sehingga terjerumus ke dalam lembah kemaksiatan dan kemusyrikan.\nAllah swt berfirman:\n\u0627\u0650\u0646\u0651\u064e\u0643\u064e \u0644\u064e\u0627 \u062a\u064e\u0647\u0652\u062f\u0650\u064a\u0652 \u0645\u064e\u0646\u0652 \u0627\u064e\u062d\u0652\u0628\u064e\u0628\u0652\u062a\u064e \u0648\u064e\u0644\u0670\u0643\u0650\u0646\u0651\u064e \u0627\u0644\u0644\u0651\u0670\u0647\u064e \u064a\u064e\u0647\u0652\u062f\u0650\u064a\u0652 \u0645\u064e\u0646\u0652 \u064a\u0651\u064e\u0634\u064e\u0627\u06e4\u0621\u064f \u06da\u0648\u064e\u0647\u064f\u0648\u064e \u0627\u064e\u0639\u0652\u0644\u064e\u0645\u064f \u0628\u0650\u0627\u0644\u0652\u0645\u064f\u0647\u0652\u062a\u064e\u062f\u0650\u064a\u0652\u0646\u064e \u0665\u0666 (\u0627\u0644\u0642\u0635\u0635)\nSungguh, engkau (Muhammad) tidak dapat memberi petunjuk kepada orang yang engkau kasihi, tetapi Allah memberi petunjuk kepada orang yang Dia kehendaki, dan Dia lebih mengetahui orang-orang yang mau menerima  petunjuk. (al-Qa\u1e63a\u1e63/28: 56)\nDan firman-Nya:\n\u0648\u064e\u0644\u064e\u0627 \u064a\u064e\u0646\u0652\u0641\u064e\u0639\u064f\u0643\u064f\u0645\u0652 \u0646\u064f\u0635\u0652\u062d\u0650\u064a\u0652\u0653 \u0627\u0650\u0646\u0652 \u0627\u064e\u0631\u064e\u062f\u0652\u062a\u0651\u064f \u0627\u064e\u0646\u0652 \u0627\u064e\u0646\u0652\u0635\u064e\u062d\u064e \u0644\u064e\u0643\u064f\u0645\u0652 \u0627\u0650\u0646\u0652 \u0643\u064e\u0627\u0646\u064e \u0627\u0644\u0644\u0651\u0670\u0647\u064f \u064a\u064f\u0631\u0650\u064a\u0652\u062f\u064f \u0627\u064e\u0646\u0652 \u064a\u0651\u064f\u063a\u0652\u0648\u0650\u064a\u064e\u0643\u064f\u0645\u0652 \u06d7\u0647\u064f\u0648\u064e \u0631\u064e\u0628\u0651\u064f\u0643\u064f\u0645\u0652 \u06d7\u0648\u064e\u0627\u0650\u0644\u064e\u064a\u0652\u0647\u0650 \u062a\u064f\u0631\u0652\u062c\u064e\u0639\u064f\u0648\u0652\u0646\u064e\u06d7 \u0663\u0664 (\u0647\u0648\u062f)\nDan nasihatku tidak akan bermanfaat bagimu sekalipun aku ingin memberi nasihat kepadamu, kalau Allah hendak menyesatkan kamu. Dia adalah Tuhanmu, dan kepada-Nyalah kamu dikembalikan.\u201d (H\u016bd/11: 34)\n\nDan firman Allah:\n\u0648\u064e\u0645\u064e\u0646\u0652 \u064a\u0651\u064f\u0636\u0652\u0644\u0650\u0644\u0650 \u0627\u0644\u0644\u0651\u0670\u0647\u064f \u0641\u064e\u0645\u064e\u0627 \u0644\u064e\u0647\u0657 \u0645\u0650\u0646\u0652 \u0647\u064e\u0627\u062f\u064d \nDan barang siapa disesatkan Allah, maka tidak ada seorang pun yang memberi petunjuk baginya. (ar-Ra\u2018d/13: 33)\n\nKarena itulah Allah tidak akan memberikan petunjuk lagi kepada mereka, karena mereka telah memilih kesesatan dan telah diberi penjelasan akibat yang akan menimpa diri mereka.\nDi akhir ayat, Allah swt menjelaskan bahwa apabila Ia berkehendak untuk menyiksa mereka, tidak ada seorang pun yang dapat memberikan pertolongan kepada mereka. Allah berkuasa kepada makhluk-Nya dan Allah yang menentukan nasib makhluk itu.",
        "intro_surah": "Surah ini terdiri dari 128 ayat, termasuk kelompok surah-surah Makkiyyah, kecuali tiga ayat yang terakhir. Ayat-ayat ini turun pada waktu Rasulullah saw kembali dari peperangan Uhud.\nSurah ini dinamakan dengan an-Na\u1e25l yang berarti \u201clebah\u201d karena di dalamnya terdapat firman Allah ayat 68  yang artinya, \u201cDan Tuhanmu mewahyukan kepada lebah\u201d.\nLebah adalah makhluk yang sangat berguna bagi manusia. Ada persamaan hakikat antara madu yang dihasilkan lebah dengan intisari yang terdapat di dalam Al-Qur\u2019an. Madu berasal dari sari bunga dan menjadi obat bagi manusia. Sedangkan Al-Qur\u2019an mengandung intisari dari kitab-kitab yang telah diturunkan kepada para nabi terdahulu ditambah dengan ajaran-ajaran yang diperlukan oleh semua bangsa sepanjang masa untuk mencapai kebahagiaan dunia dan akhirat.\nSurah ini dinamakan pula Surah an-Ni\u2018am yang berarti nikmat-nikmat, karena di dalamnya Allah swt menyebutkan beberapa nikmat untuk hamba-hamba-Nya.\n\nPokok-pokok Isinya\n1.\tKeimanan:\nKepastian adanya hari kiamat; keesaan Allah; kekuatan-Nya dan ke-sempurnaan ilmu-Nya serta dalil keesaan-Nya; pertanggungjawaban manusia kepada Allah atas segala apa yang telah dikerjakannya.\n2.\tHukum:\nBeberapa hukum tentang makanan dan minuman yang diharamkan dan dihalalkan; kebolehan memakai perhiasan yang bahannya berasal dari dalam laut seperti mutiara dan merjan; dibolehkan memakan makanan yang diharamkan dalam keadaan terpaksa; bulu binatang dari hewan yang halal dimakan dipandang suci bila diambil ketika binatang itu masih hidup atau sesudah disembelih; kewajiban memenuhi perjanjian dan larangan mempermainkan sumpah; larangan mengada-adakan hukum yang tak ada dasarnya; perintah membaca isti\u2018\u0101\u017cah, yang berarti meminta perlindungan kepada Allah swt dari setan-setan yang terkutuk; dan larangan membalas siksa melebihi siksa yang telah diterima.\n3.\tKisah:\nKisah Nabi Ibrahim a.s.\n4.\tLain-lain:\nAsal kejadian manusia; madu adalah untuk kesehatan manusia; nasib orang-orang yang mengajak kepada kejahatan di hari kiamat, pandangan orang Arab zaman jahiliah terhadap anak perempuan; ajaran moral dalam Islam; dan pedoman dakwah Islam.",
        "outro_surah": null,
        "munasabah_prev_surah": "MUNASABAH SURAH AL-\u1e24IJR DENGAN \nSURAH AN-NA\u1e24L\n\nSebagaimana umumnya surah-surah yang turun di Mekah sebelum Hijrah berisi soal-soal ketauhidan, kerasulan, dan hari kiamat, begitu pula kedua surah ini.\nPada bagian akhir Surah al-\u1e24ijr (ayat 92-93), Allah menyatakan bahwa manusia akan dimintai pertanggungjawabannya pada hari kiamat atas apa yang dikerjakannya di dunia. Pada awal Surah an-Na\u1e24l, Allah menegaskan kepastian datangnya hari kiamat, dan pada ayat 93 an-Na\u1e24l ditegaskan lagi pertanggungjawaban manusia itu.\nPada bagian pertama Surah al-\u1e24ijr, Allah menerangkan tentang kebenaran Al-Qur\u2019an serta jaminan-Nya untuk memeliharanya, sedang dalam Surah an-Na\u1e24l terdapat ancaman bagi mereka yang mendustakan kebenaran Al-Qur\u2019an itu.\n",
        "munasabah_prev_theme": "Pada ayat-ayat yang lalu, Allah swt menjelaskan bahwa tindakan yang tepat bagi orang-orang musyrik ialah menjatuhkan azab yang membinasakan mereka, seperti dialami oleh orang-orang musyrik sebelum kedatangan Nabi Muhammad saw. Mereka tidak dapat memberikan alasan apa pun karena Allah swt telah memberikan bimbingan-Nya melalui rasul. Mereka lebih senang mengikuti ajaran nenek moyang mereka daripada mengikuti wahyu yang membimbing mereka kepada kebenaran. Dalam ayat-ayat berikut, Allah kembali menjelaskan bahwa Ia telah mengutus kepada tiap-tiap umat seorang rasul untuk memberikan bimbingan wahyu kepada mereka. ",
        "theme_group": "SETIAP UMAT MEMPUNYAI RASUL ",
        "kosakata": "Kosakata: A\u1e6d-\u1e6c\u0101g\u016bt  \u0627\u064e\u0644\u0637\u0651\u064e\u0627\u063a\u064f\u0648\u0652\u062a\u064e  (an-Na\u1e25l/16: 36)\nBerasal dari \u1e6dag\u0101, ya\u1e6dg\u016b, \u1e6dugy\u0101nan, artinya melampaui batas dalam kemaksiatan. \u1e6c\u0101g\u016bt adalah semua benda atau sesuatu yang dijadikan sesembahan selain Allah seperti berhala atau patung. Dari arti kata ini muncul pengertian bahwa segala sesuatu yang memalingkan manusia dari kebenaran isi kitab suci disebut \u1e6d\u0101g\u016bt (an-Nis\u0101'/4: 51). Fir\u2018aun dengan para dukunnya atau para pemimpin Quraisy yang musyrik disebut pula \u1e6d\u0101g\u016bt (an-Nis\u0101'/4: 60). \u1e6c\u0101g\u016bt yang dimaksud dalam ayat ini bisa mencakup semua jenis \u1e6d\u0101g\u016bt yang diuraikan di atas. ",
        "sabab_nuzul": null,
        "conclusion": null
    }
}