{
    "id": 1952,
    "surah_id": 16,
    "ayah": 51,
    "page": 272,
    "quarter_hizb": 28,
    "juz": 14,
    "manzil": 3,
    "arabic": "\u06de \u0648\u064e\u0642\u064e\u0627\u0644\u064e \u0627\u0644\u0644\u0651\u0670\u0647\u064f \u0644\u064e\u0627 \u062a\u064e\u062a\u0651\u064e\u062e\u0650\u0630\u064f\u0648\u0652\u0653\u0627 \u0627\u0650\u0644\u0670\u0647\u064e\u064a\u0652\u0646\u0650 \u0627\u062b\u0652\u0646\u064e\u064a\u0652\u0646\u0650\u06da \u0627\u0650\u0646\u0651\u064e\u0645\u064e\u0627 \u0647\u064f\u0648\u064e \u0627\u0650\u0644\u0670\u0647\u064c \u0648\u0651\u064e\u0627\u062d\u0650\u062f\u064c \u0641\u064e\u0627\u0650\u064a\u0651\u064e\u0627\u064a\u064e \u0641\u064e\u0627\u0631\u0652\u0647\u064e\u0628\u064f\u0648\u0652\u0646\u0650 ",
    "latin": "Wa q\u0101lall\u0101hu l\u0101 tattakhi\u017c\u016b il\u0101haini\u1e61nain(i), innam\u0101 huwa il\u0101huw w\u0101\u1e25idun fa iyy\u0101ya farhab\u016bn(i).",
    "translation": "Allah berfirman, \u201cJanganlah kamu menyembah dua tuhan. Sesungguhnya hanya Dialah Tuhan Yang Maha Esa. Maka, hendaklah kepada-Ku saja kamu takut.\u201d",
    "no_footnote": null,
    "footnotes": null,
    "surah": {
        "id": 16,
        "arabic": "\u0627\u0644\u0646\u0651\u062d\u0644",
        "latin": "An-Na\u1e25l",
        "transliteration": "An-Nahl",
        "translation": "Lebah",
        "num_ayah": 128,
        "page": 267,
        "location": "Makkiyah"
    },
    "tafsir": {
        "wajiz": "Bukti-bukti ini menunjukkan betapa Allah Mahakuasa dan Maha Esa, tidak ada sekutu bagi-Nya. Dan Allah memperingatkan manusia untuk mengesakan-Nya dengan berfirman, \u201cJanganlah sekali-kali kamu menyembah dua tuhan dengan menyekutukan Allah dengan yang lain. Ketahuilah bahwa hanyalah Dia Tuhan Yang hak dan Maha Esa dalam zat, sifat, dan perbuatan-Nya. Maka hendaklah kepada-Ku saja kamu takut karena hanya Aku yang dapat memberi kamu kebaikan dan pertolongan. Janganlah kamu takut kepada yang lain, seperti berhala-berhala yang kamu sembah, karena mereka tidak berdaya menyelamatkan kamu dari azab-Ku.\u201d",
        "tahlili": "Allah swt menjelaskan kepada para hamba-Nya agar jangan sekali-kali menyembah tuhan-tuhan yang lain selain Dia, karena yang demikian itu berarti mempersekutukan Allah, padahal Allah Mahasuci dari sekutu. Tidak mungkin Allah swt yang Mahakuasa di jagat raya ini lebih dari satu. Dia itu tunggal, dan hanya Dia yang berhak disembah.\nAllah memerintahkan kepada manusia agar takut kepada ancaman dan hukuman-Nya. Dia juga melarang manusia mempersekutukan-Nya dan membuat sesembahan lain selain Dia. Secara jelas, larangan yang terdapat dalam ayat ini adalah menyembah dua Tuhan. Namun demikian, bilangan itu bukanlah menunjukkan bilangan dua saja, tetapi untuk menunjukkan bilangan yang paling sedikit. Sedang yang dimaksud ialah menyembah tuhan-tuhan yang lain selain Allah dan supaya tidak terbayang dalam pikiran manusia ada tuhan-tuhan yang lain selain Dia.",
        "intro_surah": "Surah ini terdiri dari 128 ayat, termasuk kelompok surah-surah Makkiyyah, kecuali tiga ayat yang terakhir. Ayat-ayat ini turun pada waktu Rasulullah saw kembali dari peperangan Uhud.\nSurah ini dinamakan dengan an-Na\u1e25l yang berarti \u201clebah\u201d karena di dalamnya terdapat firman Allah ayat 68  yang artinya, \u201cDan Tuhanmu mewahyukan kepada lebah\u201d.\nLebah adalah makhluk yang sangat berguna bagi manusia. Ada persamaan hakikat antara madu yang dihasilkan lebah dengan intisari yang terdapat di dalam Al-Qur\u2019an. Madu berasal dari sari bunga dan menjadi obat bagi manusia. Sedangkan Al-Qur\u2019an mengandung intisari dari kitab-kitab yang telah diturunkan kepada para nabi terdahulu ditambah dengan ajaran-ajaran yang diperlukan oleh semua bangsa sepanjang masa untuk mencapai kebahagiaan dunia dan akhirat.\nSurah ini dinamakan pula Surah an-Ni\u2018am yang berarti nikmat-nikmat, karena di dalamnya Allah swt menyebutkan beberapa nikmat untuk hamba-hamba-Nya.\n\nPokok-pokok Isinya\n1.\tKeimanan:\nKepastian adanya hari kiamat; keesaan Allah; kekuatan-Nya dan ke-sempurnaan ilmu-Nya serta dalil keesaan-Nya; pertanggungjawaban manusia kepada Allah atas segala apa yang telah dikerjakannya.\n2.\tHukum:\nBeberapa hukum tentang makanan dan minuman yang diharamkan dan dihalalkan; kebolehan memakai perhiasan yang bahannya berasal dari dalam laut seperti mutiara dan merjan; dibolehkan memakan makanan yang diharamkan dalam keadaan terpaksa; bulu binatang dari hewan yang halal dimakan dipandang suci bila diambil ketika binatang itu masih hidup atau sesudah disembelih; kewajiban memenuhi perjanjian dan larangan mempermainkan sumpah; larangan mengada-adakan hukum yang tak ada dasarnya; perintah membaca isti\u2018\u0101\u017cah, yang berarti meminta perlindungan kepada Allah swt dari setan-setan yang terkutuk; dan larangan membalas siksa melebihi siksa yang telah diterima.\n3.\tKisah:\nKisah Nabi Ibrahim a.s.\n4.\tLain-lain:\nAsal kejadian manusia; madu adalah untuk kesehatan manusia; nasib orang-orang yang mengajak kepada kejahatan di hari kiamat, pandangan orang Arab zaman jahiliah terhadap anak perempuan; ajaran moral dalam Islam; dan pedoman dakwah Islam.",
        "outro_surah": null,
        "munasabah_prev_surah": "MUNASABAH SURAH AL-\u1e24IJR DENGAN \nSURAH AN-NA\u1e24L\n\nSebagaimana umumnya surah-surah yang turun di Mekah sebelum Hijrah berisi soal-soal ketauhidan, kerasulan, dan hari kiamat, begitu pula kedua surah ini.\nPada bagian akhir Surah al-\u1e24ijr (ayat 92-93), Allah menyatakan bahwa manusia akan dimintai pertanggungjawabannya pada hari kiamat atas apa yang dikerjakannya di dunia. Pada awal Surah an-Na\u1e24l, Allah menegaskan kepastian datangnya hari kiamat, dan pada ayat 93 an-Na\u1e24l ditegaskan lagi pertanggungjawaban manusia itu.\nPada bagian pertama Surah al-\u1e24ijr, Allah menerangkan tentang kebenaran Al-Qur\u2019an serta jaminan-Nya untuk memeliharanya, sedang dalam Surah an-Na\u1e24l terdapat ancaman bagi mereka yang mendustakan kebenaran Al-Qur\u2019an itu.\n",
        "munasabah_prev_theme": "Dalam ayat-ayat yang lalu, Allah swt menjelaskan bahwa semua makhluk yang ada di langit dan di bumi tunduk patuh kepada-Nya, baik yang tidak bernyawa maupun yang bernyawa. Makhluk-makhluk yang tidak bernyawa tunduk kepada hukum alam yang berlaku bagi mereka. Sedangkan manusia, di samping tunduk kepada hukum alam, dituntut pula agar tunduk pada bimbingan wahyu yang diberikan kepada rasul-Nya. Dalam ayat-ayat ini, Allah swt melarang manusia mempersekutukan-Nya dengan tuhan-tuhan yang lain. Allah juga menjelaskan bahwa semua makhluk di alam ini tunduk di bawah kekuasaan-Nya. Dijelaskan pula bahwa apabila manusia ditimpa kesulitan, mereka tunduk kepada Allah. Akan tetapi, apabila kesulitan itu telah hilang, mereka kembali kepada kekafiran. ",
        "theme_group": "LARANGAN SYIRIK DAN KUFUR NIKMAT",
        "kosakata": "Kosakata: W\u0101\u1e63ib\u0101  \u0648\u064e\u0627\u0635\u0650\u0628\u064b\u0627  (an-Na\u1e25l/16: 52)\nKata w\u0101\u1e63ib adalah isim f\u0101\u2019il (active participle) dari wa\u1e63aba\u2014ya\u1e63ibu\u2014wa\u1e63ban yang berarti tetap. Darinya terambil kata wa\u1e63ab yang berarti sakit terus-menerus. Dan darinya terambil kata w\u0101\u1e63ibah yang berarti padang pasir yang sangat luas. Terdapat beberapa riwayat mengenai makna kata w\u0101\u1e63ib yang disebut dalam ayat ini. Menurut Ibnu \u2018Abb\u0101s, Muj\u0101hid, \u2018Ikrimah, Maimun bin Mahran, as-Suddi, Qatadah, dan lain-lainnya, kata ini berarti d\u0101'im(tetap). Dalam riwayat lain, Ibnu \u2018Abb\u0101s memaknainya w\u0101jib(wajib). Selain itu, Muj\u0101hid juga memaknainya kh\u0101li\u1e63 (murni), maksudnya seluruh penghuni langit dan bumi beribadah hanya kepada Allah. Namun makna yang lebih kuat adalah \u201ctetap\u201d, karena dalam ayat lain Allah berfirman, \u201cDan bagi mereka siksaan yang kekal.\u201d (a\u1e63-\u1e62\u0101ff\u0101t/37: 9)",
        "sabab_nuzul": null,
        "conclusion": null
    }
}