{
    "id": 1976,
    "surah_id": 16,
    "ayah": 75,
    "page": 275,
    "quarter_hizb": 28.25,
    "juz": 14,
    "manzil": 3,
    "arabic": "\u06de \u0636\u064e\u0631\u064e\u0628\u064e \u0627\u0644\u0644\u0651\u0670\u0647\u064f \u0645\u064e\u062b\u064e\u0644\u064b\u0627 \u0639\u064e\u0628\u0652\u062f\u064b\u0627 \u0645\u0651\u064e\u0645\u0652\u0644\u064f\u0648\u0652\u0643\u064b\u0627 \u0644\u0651\u064e\u0627 \u064a\u064e\u0642\u0652\u062f\u0650\u0631\u064f \u0639\u064e\u0644\u0670\u0649 \u0634\u064e\u064a\u0652\u0621\u064d \u0648\u0651\u064e\u0645\u064e\u0646\u0652 \u0631\u0651\u064e\u0632\u064e\u0642\u0652\u0646\u0670\u0647\u064f \u0645\u0650\u0646\u0651\u064e\u0627 \u0631\u0650\u0632\u0652\u0642\u064b\u0627 \u062d\u064e\u0633\u064e\u0646\u064b\u0627 \u0641\u064e\u0647\u064f\u0648\u064e \u064a\u064f\u0646\u0652\u0641\u0650\u0642\u064f \u0645\u0650\u0646\u0652\u0647\u064f \u0633\u0650\u0631\u0651\u064b\u0627 \u0648\u0651\u064e\u062c\u064e\u0647\u0652\u0631\u064b\u0627\u06d7 \u0647\u064e\u0644\u0652 \u064a\u064e\u0633\u0652\u062a\u064e\u0648\u0657\u0646\u064e \u06da \u0627\u064e\u0644\u0652\u062d\u064e\u0645\u0652\u062f\u064f \u0644\u0650\u0644\u0651\u0670\u0647\u0650 \u06d7\u0628\u064e\u0644\u0652 \u0627\u064e\u0643\u0652\u062b\u064e\u0631\u064f\u0647\u064f\u0645\u0652 \u0644\u064e\u0627 \u064a\u064e\u0639\u0652\u0644\u064e\u0645\u064f\u0648\u0652\u0646\u064e",
    "latin": "\u1e0caraball\u0101hu ma\u1e61alan \u2018abdam maml\u016bkal l\u0101 yaqdiru \u2018al\u0101 syai'iw wa mar razaqn\u0101hu minn\u0101 rizqan \u1e25asanan fa huwa yunfiqu minhu sirraw wa jahr\u0101(n), hal yastaw\u016bn(a), al-\u1e25amdu lill\u0101h(i), bal ak\u1e61aruhum l\u0101 ya\u2018lam\u016bn(a).",
    "translation": "Allah membuat perumpamaan seorang hamba sahaya di bawah kekuasaan orang lain, yang tidak berdaya berbuat sesuatu, dengan seorang yang Kami anugerahi rezeki yang baik dari Kami. Lalu, dia menginfakkan sebagian rezeki itu secara sembunyi-sembunyi dan secara terang-terangan. Apakah mereka itu sama? Segala puji bagi Allah, tetapi kebanyakan mereka tidak mengetahui.",
    "no_footnote": null,
    "footnotes": null,
    "surah": {
        "id": 16,
        "arabic": "\u0627\u0644\u0646\u0651\u062d\u0644",
        "latin": "An-Na\u1e25l",
        "transliteration": "An-Nahl",
        "translation": "Lebah",
        "num_ayah": 128,
        "page": 267,
        "location": "Makkiyah"
    },
    "tafsir": {
        "wajiz": "Usai melarang manusia menyekutukan-Nya dan menetapkan sifat-sifat buruk bagi-Nya, Allah lalu membuat perumpamaan buruknya sikap dan sesatnya tindakan orang kafir bagaikan seorang hamba sahaya yang berada di bawah kekuasaan orang lain; seorang hamba sahaya yang tidak berdaya bertindak dan berbuat sesuatu, dan seorang yang merdeka yang Kami beri rezeki yang baik, halal, dan melebihi kebutuhannya lalu dia menginfakkan di jalan Kami sebagian dari rezeki itu secara sembunyi-sembunyi dan secara terang-terangan. Samakah mereka yang keadaannya bertolak belakang itu? Tentu tidak. Segala puji hanya bagi Allah Yang Maha Esa, Maha Mengetahui. Kamu, wahai kaum muslim, mengetahui bahwa segala puji hanya bagi Allah, tetapi kebanyakan mereka yang kafir tidak mengetahui hal itu.",
        "tahlili": "Dalam ayat ini, Allah swt membuat suatu perumpamaan tentang orang-orang musyrik sehubungan dengan kepercayaan mereka yang menyamakan kedudukan sembahan mereka yang berupa patung dan berhala dengan Allah Yang Maha Sempurna.\nKekeliruan dan kebatilan kepercayaan mereka itu sama halnya dengan kekeliruan orang-orang yang menyamakan seorang budak sahaya yang tidak memiliki hak dan kuasa apa pun dengan orang merdeka, yang punya hak untuk memiliki, mengembangkan, dan menafkahkan harta kekayaan menurut keinginannya, baik secara sembunyi-sembunyi ataupun terang-terangan.\nSetiap orang dengan mudah mengetahui bahwa keduanya jauh berbeda, baik dalam kemuliaan, kekuasaan, ataupun keluhurannya. Demikian pula halnya orang-orang musyrik. Mereka jadikan benda-benda mati sebagai tumpuan dan tujuan ketika memanjatkan doa dan menggantungkan harapan. Alangkah jauhnya kesesatan mereka yang menyamakan Tuhan pencipta alam semesta dengan makhluk yang punya keterbatasan.\nSegala puji hanya milik Allah swt. Dialah yang paling berhak untuk menerima segala macam pujian karena Dialah yang agung dan sempurna. Segala sifat-sifat terpuji terkumpul pada-Nya. Segala pujian hanya ditujukan kepada-Nya, tidak kepada patung-patung, berhala-berhala, ataupun sesuatu lainnya. Sembahan-sembahan selain Allah, tidak ada yang patut menerima pujian. Akan tetapi, manusia banyak yang tidak mengetahui atau sadar bahwa segala sifat kesempurnaan hanya milik Allah swt. Karena kejahilan, mereka memandang sifat kesempurnaan juga ada pada selain Allah. Mereka menjadikan makhluk itu sebagai tujuan dari pujaan atau sembahan.",
        "intro_surah": "Surah ini terdiri dari 128 ayat, termasuk kelompok surah-surah Makkiyyah, kecuali tiga ayat yang terakhir. Ayat-ayat ini turun pada waktu Rasulullah saw kembali dari peperangan Uhud.\nSurah ini dinamakan dengan an-Na\u1e25l yang berarti \u201clebah\u201d karena di dalamnya terdapat firman Allah ayat 68  yang artinya, \u201cDan Tuhanmu mewahyukan kepada lebah\u201d.\nLebah adalah makhluk yang sangat berguna bagi manusia. Ada persamaan hakikat antara madu yang dihasilkan lebah dengan intisari yang terdapat di dalam Al-Qur\u2019an. Madu berasal dari sari bunga dan menjadi obat bagi manusia. Sedangkan Al-Qur\u2019an mengandung intisari dari kitab-kitab yang telah diturunkan kepada para nabi terdahulu ditambah dengan ajaran-ajaran yang diperlukan oleh semua bangsa sepanjang masa untuk mencapai kebahagiaan dunia dan akhirat.\nSurah ini dinamakan pula Surah an-Ni\u2018am yang berarti nikmat-nikmat, karena di dalamnya Allah swt menyebutkan beberapa nikmat untuk hamba-hamba-Nya.\n\nPokok-pokok Isinya\n1.\tKeimanan:\nKepastian adanya hari kiamat; keesaan Allah; kekuatan-Nya dan ke-sempurnaan ilmu-Nya serta dalil keesaan-Nya; pertanggungjawaban manusia kepada Allah atas segala apa yang telah dikerjakannya.\n2.\tHukum:\nBeberapa hukum tentang makanan dan minuman yang diharamkan dan dihalalkan; kebolehan memakai perhiasan yang bahannya berasal dari dalam laut seperti mutiara dan merjan; dibolehkan memakan makanan yang diharamkan dalam keadaan terpaksa; bulu binatang dari hewan yang halal dimakan dipandang suci bila diambil ketika binatang itu masih hidup atau sesudah disembelih; kewajiban memenuhi perjanjian dan larangan mempermainkan sumpah; larangan mengada-adakan hukum yang tak ada dasarnya; perintah membaca isti\u2018\u0101\u017cah, yang berarti meminta perlindungan kepada Allah swt dari setan-setan yang terkutuk; dan larangan membalas siksa melebihi siksa yang telah diterima.\n3.\tKisah:\nKisah Nabi Ibrahim a.s.\n4.\tLain-lain:\nAsal kejadian manusia; madu adalah untuk kesehatan manusia; nasib orang-orang yang mengajak kepada kejahatan di hari kiamat, pandangan orang Arab zaman jahiliah terhadap anak perempuan; ajaran moral dalam Islam; dan pedoman dakwah Islam.",
        "outro_surah": null,
        "munasabah_prev_surah": "MUNASABAH SURAH AL-\u1e24IJR DENGAN \nSURAH AN-NA\u1e24L\n\nSebagaimana umumnya surah-surah yang turun di Mekah sebelum Hijrah berisi soal-soal ketauhidan, kerasulan, dan hari kiamat, begitu pula kedua surah ini.\nPada bagian akhir Surah al-\u1e24ijr (ayat 92-93), Allah menyatakan bahwa manusia akan dimintai pertanggungjawabannya pada hari kiamat atas apa yang dikerjakannya di dunia. Pada awal Surah an-Na\u1e24l, Allah menegaskan kepastian datangnya hari kiamat, dan pada ayat 93 an-Na\u1e24l ditegaskan lagi pertanggungjawaban manusia itu.\nPada bagian pertama Surah al-\u1e24ijr, Allah menerangkan tentang kebenaran Al-Qur\u2019an serta jaminan-Nya untuk memeliharanya, sedang dalam Surah an-Na\u1e24l terdapat ancaman bagi mereka yang mendustakan kebenaran Al-Qur\u2019an itu.\n",
        "munasabah_prev_theme": "Pada ayat-ayat yang lalu dijelaskan tentang keesaan Allah, dan kekuasaan-Nya yang ditampakkan pada manusia, baik dari sisi hidup matinya, rezeki, dan pemberian keturunan. Dengan demikian, manusia tidak patut untuk menyekutukan-Nya. Pada ayat-ayat ini dijelaskan bantahan kepada para penyembah berhala yang menyamakan Allah dengan patung-patung sembahan mereka yang tidak mempunyai ilmu dan kekuasaan terhadap para penyembahnya, bahkan terhadap dirinya sendiri.",
        "theme_group": "TAMSIL ORANG MUKMIN DAN ORANG KAFIR",
        "kosakata": "Kosakata: Kalam\u1e25il-ba\u1e63ar  \u0643\u064e\u0644\u064e\u0645\u0652\u062d\u0650 \u0627\u0644\u0652\u0628\u064e\u0635\u064e\u0631\u0650  (an-Na\u1e25l/16: 77)\nKata lam\u1e25 terambil dari kata lama\u1e25a-yalma\u1e25u-lam\u1e25an yang berarti bercahaya. Kata ini juga berarti \u201cmencuri pandang\u201d. Darinya terambil kata lam\u1e25ah yang berarti \u201cpandangan cepat\u201d. Darinya juga terambil kata lam\u1e25ah ar-rajul yang berarti \u201craut wajah yang terlihat sekilas\u201d. Darinya juga terambil kata lam\u1e25an b\u0101\u1e63iran yang berarti \u201cperkara yang jelas\u201d. Kata al-ba\u1e63ar terambil dari kata ba\u1e63ara-yab\u1e63uru-ba\u1e63aran yang berarti \u201cmemandang\u201d. Namun yang dimaksud di sini adalah mata. Jadi, kata lam\u1e25 al-ba\u1e63ar secara harfiah berarti sekilas pandangan mata. Dalam ayat lain (al-Qamar/54: 50) disebut dengan kata kalam\u1e25in bil-ba\u1e63ar. ",
        "sabab_nuzul": "Diriwayatkan oleh Ibnu Jar\u012br a\u1e6d-\u1e6cabari dari Ibnu \u2018Abb\u0101s tentang firman Allah: \u201cAllah membuat perumpamaan seorang hamba sahaya di bawah kekuasaan orang lain\u201d, dia berkata, \u201cAyat ini turun berkenaan dengan seorang laki-laki dari suku Quraisy dengan budaknya.\u201d Dan firman Allah:  \u201cdua orang laki-laki, yang seorang bisu\u201d, dikatakan bahwa ayat ini berkenaan dengan Usman bin Affan dengan budaknya yang membenci Islam dan melarangnya untuk bersedekah dan berbuat baik. Maka turunlah ayat ini. Dalam riwayat lain dijelaskan bahwa ayat in diturunkan berkenaan dengan Usman bin Affan dan budaknya yang kafir bernama Usaid bin Abi al-\u2018A\u1e63 yang tidak menyukai agama Islam. Usman bersedekah kepadanya dan menanggung serta mencukupi kebutuhannya. Akan tetapi, budak itu melarangnya mengeluarkan sedekah dan berbuat baik.",
        "conclusion": null
    }
}