{
    "id": 1932,
    "surah_id": 16,
    "ayah": 31,
    "page": 270,
    "quarter_hizb": 27.75,
    "juz": 14,
    "manzil": 3,
    "arabic": "\u062c\u064e\u0646\u0651\u0670\u062a\u064f \u0639\u064e\u062f\u0652\u0646\u064d \u064a\u0651\u064e\u062f\u0652\u062e\u064f\u0644\u064f\u0648\u0652\u0646\u064e\u0647\u064e\u0627 \u062a\u064e\u062c\u0652\u0631\u0650\u064a\u0652 \u0645\u0650\u0646\u0652 \u062a\u064e\u062d\u0652\u062a\u0650\u0647\u064e\u0627 \u0627\u0644\u0652\u0627\u064e\u0646\u0652\u0647\u0670\u0631\u064f \u0644\u064e\u0647\u064f\u0645\u0652 \u0641\u0650\u064a\u0652\u0647\u064e\u0627 \u0645\u064e\u0627 \u064a\u064e\u0634\u064e\u0627\u06e4\u0621\u064f\u0648\u0652\u0646\u064e \u06d7 \u0643\u064e\u0630\u0670\u0644\u0650\u0643\u064e \u064a\u064e\u062c\u0652\u0632\u0650\u0649 \u0627\u0644\u0644\u0651\u0670\u0647\u064f \u0627\u0644\u0652\u0645\u064f\u062a\u0651\u064e\u0642\u0650\u064a\u0652\u0646\u064e\u06d9",
    "latin": "Jann\u0101tu \u2018adniy yadkhul\u016bnah\u0101 tajr\u012b min ta\u1e25tihal-anh\u0101ru lahum f\u012bh\u0101 m\u0101 yasy\u0101'\u016bn(a), ka\u017c\u0101lika yajzill\u0101hul-muttaq\u012bn(a).",
    "translation": "(yaitu) surga-surga \u2018Adn yang mereka masuki. Sungai-sungai mengalir di bawahnya. Di dalam (surga) itu mereka mendapat segala yang mereka inginkan. Demikianlah Allah memberi balasan kepada orang-orang yang bertakwa.",
    "no_footnote": null,
    "footnotes": null,
    "surah": {
        "id": 16,
        "arabic": "\u0627\u0644\u0646\u0651\u062d\u0644",
        "latin": "An-Na\u1e25l",
        "transliteration": "An-Nahl",
        "translation": "Lebah",
        "num_ayah": 128,
        "page": 267,
        "location": "Makkiyah"
    },
    "tafsir": {
        "wajiz": "Ganjaran di negeri akhirat itu di antaranya berupa surga-surga \u2018Adn yang mereka masuki, yang mengalir di bawahnya sungai-sungai. Di dalam surga-surga itu mereka mendapat segala apa yang diinginkan. Demikianlah Allah memberi balasan kepada orang yang bertakwa dengan sepenuh hati.",
        "tahlili": "Allah swt lalu menjelaskan keadaan surga yang akan menjadi tempat bagi orang-orang yang bertakwa, yaitu surga \u2018Adn yang mengalir di bawahnya beberapa sungai. Di situ orang-orang yang bertakwa akan mendapatkan apa yang ia inginkan yang menjadi kepuasan bagi diri mereka berupa kenikmatan pemandangan, peralatan, dan pelayanannya yang melebihi kepuasan yang mereka terima di dunia. Allah swt menegaskan bahwa mereka akan kekal selama-lamanya. Allah menjanjikan surga \u2018Adn kepada orang-orang mukmin yang benar-benar bertakwa kepada-Nya, dan memelihara diri dari segala noda-noda kemusyrikan dan kemaksiatan. Penegasan ini sangat penting artinya bagi orang-orang mukmin supaya mereka selalu memupuk ketakwaannya sehingga meningkat ke derajat yang lebih tinggi.",
        "intro_surah": "Surah ini terdiri dari 128 ayat, termasuk kelompok surah-surah Makkiyyah, kecuali tiga ayat yang terakhir. Ayat-ayat ini turun pada waktu Rasulullah saw kembali dari peperangan Uhud.\nSurah ini dinamakan dengan an-Na\u1e25l yang berarti \u201clebah\u201d karena di dalamnya terdapat firman Allah ayat 68  yang artinya, \u201cDan Tuhanmu mewahyukan kepada lebah\u201d.\nLebah adalah makhluk yang sangat berguna bagi manusia. Ada persamaan hakikat antara madu yang dihasilkan lebah dengan intisari yang terdapat di dalam Al-Qur\u2019an. Madu berasal dari sari bunga dan menjadi obat bagi manusia. Sedangkan Al-Qur\u2019an mengandung intisari dari kitab-kitab yang telah diturunkan kepada para nabi terdahulu ditambah dengan ajaran-ajaran yang diperlukan oleh semua bangsa sepanjang masa untuk mencapai kebahagiaan dunia dan akhirat.\nSurah ini dinamakan pula Surah an-Ni\u2018am yang berarti nikmat-nikmat, karena di dalamnya Allah swt menyebutkan beberapa nikmat untuk hamba-hamba-Nya.\n\nPokok-pokok Isinya\n1.\tKeimanan:\nKepastian adanya hari kiamat; keesaan Allah; kekuatan-Nya dan ke-sempurnaan ilmu-Nya serta dalil keesaan-Nya; pertanggungjawaban manusia kepada Allah atas segala apa yang telah dikerjakannya.\n2.\tHukum:\nBeberapa hukum tentang makanan dan minuman yang diharamkan dan dihalalkan; kebolehan memakai perhiasan yang bahannya berasal dari dalam laut seperti mutiara dan merjan; dibolehkan memakan makanan yang diharamkan dalam keadaan terpaksa; bulu binatang dari hewan yang halal dimakan dipandang suci bila diambil ketika binatang itu masih hidup atau sesudah disembelih; kewajiban memenuhi perjanjian dan larangan mempermainkan sumpah; larangan mengada-adakan hukum yang tak ada dasarnya; perintah membaca isti\u2018\u0101\u017cah, yang berarti meminta perlindungan kepada Allah swt dari setan-setan yang terkutuk; dan larangan membalas siksa melebihi siksa yang telah diterima.\n3.\tKisah:\nKisah Nabi Ibrahim a.s.\n4.\tLain-lain:\nAsal kejadian manusia; madu adalah untuk kesehatan manusia; nasib orang-orang yang mengajak kepada kejahatan di hari kiamat, pandangan orang Arab zaman jahiliah terhadap anak perempuan; ajaran moral dalam Islam; dan pedoman dakwah Islam.",
        "outro_surah": null,
        "munasabah_prev_surah": "MUNASABAH SURAH AL-\u1e24IJR DENGAN \nSURAH AN-NA\u1e24L\n\nSebagaimana umumnya surah-surah yang turun di Mekah sebelum Hijrah berisi soal-soal ketauhidan, kerasulan, dan hari kiamat, begitu pula kedua surah ini.\nPada bagian akhir Surah al-\u1e24ijr (ayat 92-93), Allah menyatakan bahwa manusia akan dimintai pertanggungjawabannya pada hari kiamat atas apa yang dikerjakannya di dunia. Pada awal Surah an-Na\u1e24l, Allah menegaskan kepastian datangnya hari kiamat, dan pada ayat 93 an-Na\u1e24l ditegaskan lagi pertanggungjawaban manusia itu.\nPada bagian pertama Surah al-\u1e24ijr, Allah menerangkan tentang kebenaran Al-Qur\u2019an serta jaminan-Nya untuk memeliharanya, sedang dalam Surah an-Na\u1e24l terdapat ancaman bagi mereka yang mendustakan kebenaran Al-Qur\u2019an itu.\n",
        "munasabah_prev_theme": "Pada ayat-ayat yang lalu, Allah menjelaskan keadaan orang yang mendustakan ayat-ayat Allah swt dan selalu membuat tipu daya untuk menghalang-halangi dakwah Islam. Mereka akan mengalami penyesalan yang mendalam karena menghadapi hukuman yang sangat berat yaitu neraka Jahanam yang akan mereka rasakan untuk selama-lamanya. Kemudian di dalam ayat-ayat ini, Allah swt menjelaskan keadaan orang-orang mukmin yang selalu mematuhi bimbingan Rasul dan mengamalkannya dengan sebaik-baiknya. Di samping itu, dijelaskan pula kebahagiaan yang akan dirasakan baik di dunia ataupun di akhirat. Mereka akan mendapat balasan surga \u2018Adn dan kekal di sana selama-lamanya.",
        "theme_group": "BALASAN BAGI ORANG YANG BERTAKWA",
        "kosakata": "Kosakata: \u1e6cayyib\u012bn  \u0637\u064e\u064a\u0651\u0650\u0628\u0650\u064a\u0652\u0646\u064e  (an-Na\u1e25l/16: 32)\nBerasal dari \u1e6d\u0101ba, ya\u1e6d\u012bbu, \u1e6dayyiban, yaitu apa yang terasa nikmat pada indra perasaan atau jiwa dan makanan yang baik menurut agama, seperti firman Allah \u201c\u1e24al\u0101lan \u1e6dayyiban\u201d (al-Baqarah/2: 168). Seseorang disebut \u1e6dayyib jika dia berakhlak yang baik dan terpuji, serta beramal saleh (an-N\u016br/24: 26). Keturunan yang baik disebut juga \u1e6dayyibah (al-\u2018Imr\u0101n/3: 38). Kata \u1e6dayyib\u012bn dalam ayat ini mencakup semua arti di atas yaitu malaikat mencabut nyawa orang-orang yang baik, beriman, dalam keadaan bersih dari syirik, dan jiwa mereka benar-benar tenang. ",
        "sabab_nuzul": null,
        "conclusion": null
    }
}