{
    "id": 1945,
    "surah_id": 16,
    "ayah": 44,
    "page": 272,
    "quarter_hizb": 27.75,
    "juz": 14,
    "manzil": 3,
    "arabic": "\u0628\u0650\u0627\u0644\u0652\u0628\u064e\u064a\u0651\u0650\u0646\u0670\u062a\u0650 \u0648\u064e\u0627\u0644\u0632\u0651\u064f\u0628\u064f\u0631\u0650\u06d7 \u0648\u064e\u0627\u064e\u0646\u0652\u0632\u064e\u0644\u0652\u0646\u064e\u0627\u0653 \u0627\u0650\u0644\u064e\u064a\u0652\u0643\u064e \u0627\u0644\u0630\u0651\u0650\u0643\u0652\u0631\u064e \u0644\u0650\u062a\u064f\u0628\u064e\u064a\u0651\u0650\u0646\u064e \u0644\u0650\u0644\u0646\u0651\u064e\u0627\u0633\u0650 \u0645\u064e\u0627 \u0646\u064f\u0632\u0651\u0650\u0644\u064e \u0627\u0650\u0644\u064e\u064a\u0652\u0647\u0650\u0645\u0652 \u0648\u064e\u0644\u064e\u0639\u064e\u0644\u0651\u064e\u0647\u064f\u0645\u0652 \u064a\u064e\u062a\u064e\u0641\u064e\u0643\u0651\u064e\u0631\u064f\u0648\u0652\u0646\u064e ",
    "latin": "Bil-bayyin\u0101ti waz-zubur(i), wa anzaln\u0101 ilaika\u017c-\u017cikra litubayyina lin-n\u0101si m\u0101 nuzzila ilaihim wa la\u2018allahum yatafakkar\u016bn(a).",
    "translation": "(Kami mengutus mereka) dengan (membawa) bukti-bukti yang jelas (mukjizat) dan kitab-kitab. Kami turunkan a\u017c-\u017bikr (Al-Qur\u2019an) kepadamu agar engkau menerangkan kepada manusia apa yang telah diturunkan kepada mereka dan agar mereka memikirkan.",
    "no_footnote": null,
    "footnotes": null,
    "surah": {
        "id": 16,
        "arabic": "\u0627\u0644\u0646\u0651\u062d\u0644",
        "latin": "An-Na\u1e25l",
        "transliteration": "An-Nahl",
        "translation": "Lebah",
        "num_ayah": 128,
        "page": 267,
        "location": "Makkiyah"
    },
    "tafsir": {
        "wajiz": "Para rasul itu kami utus dengan membawa keterangan-keterangan berupa mukjizat yang membuktikan kenabian dan kerasulan mereka. Dan sebagian dari mereka membawa kitab-kitab yang berisi hukum, nasihat, dan aturan yang menjadi pedoman bagi kehidupan kaumnya. Dan Kami turunkan az-zikr, yakni Al-Qur\u2019an, kepadamu, wahai Nabi Muhammad, agar engkau menerangkan kepada umat manusia apa yang telah diturunkan kepada mereka berupa tuntunan dan petunjuk dalam kitab tersebut agar mereka tahu dan mengikuti jalan yang benar dan agar mereka memikirkan hal-hal yang menjadi pelajaran untuk kemaslahatan mereka di dunia dan akhirat.",
        "tahlili": "Sesudah itu Allah swt menjelaskan bahwa para rasul itu diutus dengan membawa bukti-bukti nyata tentang kebenaran mereka. Yang dimaksud dengan bukti-bukti yang nyata dalam ayat ini ialah mukjizat-mukjizat yang membuktikan kebenaran kerasulan mereka. Sedangkan yang dimaksud dengan az-zubur ialah kitab yang mengandung tuntunan hidup dan tata hukum yang diberikan oleh Allah kepada manusia.\nAyat ini juga menerangkan bahwa Allah menurunkan Al-Qur\u2019an kepada Nabi Muhammad saw supaya beliau menjelaskan kepada manusia mengenai ajaran, perintah, larangan, dan aturan hidup yang harus mereka perhatikan dan amalkan. Al-Qur\u2019an juga mengandung kisah umat-umat terdahulu agar dijadikan suri teladan dalam menempuh kehidupan di dunia. Nabi Muhammad juga diperintahkan untuk menjelaskan hukum-hukum yang terkandung dalam Al-Qur\u2019an dan merinci ayat-ayat yang bersifat global mengkhususkan yang bersifat umum, membatasi yang mutlak dan lain-lain agar mudah dicerna dan  sesuai dengan kemampuan berpikir mereka.\nDi akhir ayat, Allah swt menegaskan agar mereka memikirkan kandungan isi Al-Qur\u2019an dengan pemikiran yang jernih untuk memperoleh kesejahteraan hidup di dunia dan kebahagiaan di akhirat, terlepas dari berbagai macam azab dan bencana seperti yang menimpa umat-umat sebelumnya.",
        "intro_surah": "Surah ini terdiri dari 128 ayat, termasuk kelompok surah-surah Makkiyyah, kecuali tiga ayat yang terakhir. Ayat-ayat ini turun pada waktu Rasulullah saw kembali dari peperangan Uhud.\nSurah ini dinamakan dengan an-Na\u1e25l yang berarti \u201clebah\u201d karena di dalamnya terdapat firman Allah ayat 68  yang artinya, \u201cDan Tuhanmu mewahyukan kepada lebah\u201d.\nLebah adalah makhluk yang sangat berguna bagi manusia. Ada persamaan hakikat antara madu yang dihasilkan lebah dengan intisari yang terdapat di dalam Al-Qur\u2019an. Madu berasal dari sari bunga dan menjadi obat bagi manusia. Sedangkan Al-Qur\u2019an mengandung intisari dari kitab-kitab yang telah diturunkan kepada para nabi terdahulu ditambah dengan ajaran-ajaran yang diperlukan oleh semua bangsa sepanjang masa untuk mencapai kebahagiaan dunia dan akhirat.\nSurah ini dinamakan pula Surah an-Ni\u2018am yang berarti nikmat-nikmat, karena di dalamnya Allah swt menyebutkan beberapa nikmat untuk hamba-hamba-Nya.\n\nPokok-pokok Isinya\n1.\tKeimanan:\nKepastian adanya hari kiamat; keesaan Allah; kekuatan-Nya dan ke-sempurnaan ilmu-Nya serta dalil keesaan-Nya; pertanggungjawaban manusia kepada Allah atas segala apa yang telah dikerjakannya.\n2.\tHukum:\nBeberapa hukum tentang makanan dan minuman yang diharamkan dan dihalalkan; kebolehan memakai perhiasan yang bahannya berasal dari dalam laut seperti mutiara dan merjan; dibolehkan memakan makanan yang diharamkan dalam keadaan terpaksa; bulu binatang dari hewan yang halal dimakan dipandang suci bila diambil ketika binatang itu masih hidup atau sesudah disembelih; kewajiban memenuhi perjanjian dan larangan mempermainkan sumpah; larangan mengada-adakan hukum yang tak ada dasarnya; perintah membaca isti\u2018\u0101\u017cah, yang berarti meminta perlindungan kepada Allah swt dari setan-setan yang terkutuk; dan larangan membalas siksa melebihi siksa yang telah diterima.\n3.\tKisah:\nKisah Nabi Ibrahim a.s.\n4.\tLain-lain:\nAsal kejadian manusia; madu adalah untuk kesehatan manusia; nasib orang-orang yang mengajak kepada kejahatan di hari kiamat, pandangan orang Arab zaman jahiliah terhadap anak perempuan; ajaran moral dalam Islam; dan pedoman dakwah Islam.",
        "outro_surah": null,
        "munasabah_prev_surah": "MUNASABAH SURAH AL-\u1e24IJR DENGAN \nSURAH AN-NA\u1e24L\n\nSebagaimana umumnya surah-surah yang turun di Mekah sebelum Hijrah berisi soal-soal ketauhidan, kerasulan, dan hari kiamat, begitu pula kedua surah ini.\nPada bagian akhir Surah al-\u1e24ijr (ayat 92-93), Allah menyatakan bahwa manusia akan dimintai pertanggungjawabannya pada hari kiamat atas apa yang dikerjakannya di dunia. Pada awal Surah an-Na\u1e24l, Allah menegaskan kepastian datangnya hari kiamat, dan pada ayat 93 an-Na\u1e24l ditegaskan lagi pertanggungjawaban manusia itu.\nPada bagian pertama Surah al-\u1e24ijr, Allah menerangkan tentang kebenaran Al-Qur\u2019an serta jaminan-Nya untuk memeliharanya, sedang dalam Surah an-Na\u1e24l terdapat ancaman bagi mereka yang mendustakan kebenaran Al-Qur\u2019an itu.\n",
        "munasabah_prev_theme": "Di dalam ayat-ayat yang lalu, Allah swt menjelaskan bahwa kaum musyrikin mengingkari kerasulan Muhammad saw, dan menganiaya Nabi dan pengikutnya sehingga mereka hijrah menyelamatkan diri. Hal ini menunjukkan bahwa kaum musyrikin tidak memerlukan Nabi karena tidak meyakini hari kebangkitan dan pembalasan. Dalam ayat-ayat ini, Allah swt menjelaskan pengingkaran mereka dalam bentuk lain untuk mendustakan kerasulan Muhammad saw. Mereka menyangkal kerasulan Muhammad dengan mengatakan bahwa kalau Allah akan mengirimkan utusan, tentu Ia akan mengutus malaikat. Akan tetapi, alasan mereka itu tidak dapat dibenarkan karena selama ini Allah hanya mengutus manusia sebagai rasul untuk manusia.",
        "theme_group": "KEWENANGAN ALLAH MENGUTUS\nNABI DAN RASUL ",
        "kosakata": "Kosakata: Ahla\u017c-\u017bikri  \u0627\u064e\u0647\u0652\u0644\u064e \u0627\u0644\u0630\u0651\u0650\u0643\u0652\u0631\u0650  (an-Na\u1e25l/16: 43)\nA\u017c-\u017bikr artinya mengingat, yaitu menghadirkan sesuatu yang tersimpan dalam ingatan kita. Mengingat bisa dengan hati atau lisan, bisa juga dengan keduanya. Tujuannya adalah mengingatkan sesuatu yang dilupakan (al-Kahf/18: 63), dan berzikir agar tetap ingat. Kata a\u017c-\u017cikr dalam ayat ini bisa berarti Al-Qur\u2019an sebagaimana firman Allah dalam Surah \u1e62\u0101d/38: 8, bisa berarti kehormatan sebagaimana dalam Surah az-Zukhruf/43: 44, bisa juga berarti kitab-kitab suci sebelum Al-Qur\u2019an seperti dalam Surah an-Na\u1e25l/16: 43. Dengan demikian, maksud ahlu\u017c-\u017cikr adalah orang-orang yang ahli dalam bidang kitab-kitab samawi tersebut seperti ulama Yahudi dan Nasrani.\nAda juga yang berpendapat bahwa a\u017c-\u017cikr dalam ayat ini merujuk pada Nabi Muhammad saw. Walaupun ditujukan kepada ulama Yahudi dan Nasrani, tetapi ayat ini bisa berarti lebih umum lagi. Bagi mereka yang kurang memahami suatu hal perlu bertanya kepada para ahlinya, termasuk di antaranya para ulama Islam.",
        "sabab_nuzul": null,
        "conclusion": null
    }
}