{
    "id": 1999,
    "surah_id": 16,
    "ayah": 98,
    "page": 278,
    "quarter_hizb": 28.5,
    "juz": 14,
    "manzil": 3,
    "arabic": "\u0641\u064e\u0627\u0650\u0630\u064e\u0627 \u0642\u064e\u0631\u064e\u0623\u0652\u062a\u064e \u0627\u0644\u0652\u0642\u064f\u0631\u0652\u0627\u0670\u0646\u064e \u0641\u064e\u0627\u0633\u0652\u062a\u064e\u0639\u0650\u0630\u0652 \u0628\u0650\u0627\u0644\u0644\u0651\u0670\u0647\u0650 \u0645\u0650\u0646\u064e \u0627\u0644\u0634\u0651\u064e\u064a\u0652\u0637\u0670\u0646\u0650 \u0627\u0644\u0631\u0651\u064e\u062c\u0650\u064a\u0652\u0645\u0650 ",
    "latin": "Fa i\u017c\u0101 qara'tal-qur'\u0101na fasta\u2018i\u017c bill\u0101hi minasy-syai\u1e6d\u0101nir-raj\u012bm(i).",
    "translation": "Apabila engkau hendak membaca Al-Qur\u2019an, mohonlah pelindungan kepada Allah dari setan yang terkutuk.",
    "no_footnote": null,
    "footnotes": null,
    "surah": {
        "id": 16,
        "arabic": "\u0627\u0644\u0646\u0651\u062d\u0644",
        "latin": "An-Na\u1e25l",
        "transliteration": "An-Nahl",
        "translation": "Lebah",
        "num_ayah": 128,
        "page": 267,
        "location": "Makkiyah"
    },
    "tafsir": {
        "wajiz": "Usai menjelaskan pahala yang disiapkan-Nya sebagai balasan amal saleh orang beriman, pada ayat ini Allah lalu menjelaskan bahwa membaca Al-Qur\u2019an adalah salah satu dari amal saleh itu. Allah menyatakan, \u201cApabila engkau hendak membaca Al-Qur'an, mohonlah perlindungan dengan tulus kepada Allah dengan mengucapkan kalimat a'uzu billahi minasy syaithanir rajim, baik secara keras maupun lirih, agar engkau dihindarkan oleh Allah dari bisikan, rayuan, dan godaan setan yang terkutuk karena dijauhkan dari rahmat Allah.\u201d",
        "tahlili": "Kemudian dalam ayat ini Allah swt mengajarkan adab membaca Al-Qur\u2019an agar dalam membaca dan memahaminya jauh dari gangguan setan. Al-Qur\u2019an memberi petunjuk kepada manusia ke jalan kebahagiaan, dan menentukan mana amal perbuatan yang saleh yang berguna bagi kehidupan manusia dan mana pula perbuatan yang membawa ke jalan kesengsaraan. Akan tetapi, petunjuk Al-Qur\u2019an itu akan dapat dimengerti dan dipahami dengan benar, apabila akal pikiran si pembaca bersih dari godaan setan.\nFirman Allah swt:\n\u0627\u0650\u0646\u0651\u064e \u0627\u0644\u0651\u064e\u0630\u0650\u064a\u0652\u0646\u064e \u0627\u062a\u0651\u064e\u0642\u064e\u0648\u0652\u0627 \u0627\u0650\u0630\u064e\u0627 \u0645\u064e\u0633\u0651\u064e\u0647\u064f\u0645\u0652 \u0637\u0670\u06e4\u0649\u0655\u0650\u0641\u064c \u0645\u0651\u0650\u0646\u064e \u0627\u0644\u0634\u0651\u064e\u064a\u0652\u0637\u0670\u0646\u0650 \u062a\u064e\u0630\u064e\u0643\u0651\u064e\u0631\u064f\u0648\u0652\u0627 \u0641\u064e\u0627\u0650\u0630\u064e\u0627 \u0647\u064f\u0645\u0652 \u0645\u0651\u064f\u0628\u0652\u0635\u0650\u0631\u064f\u0648\u0652\u0646\u064e\u06da \u0662\u0660\u0661 (\u0627\u0644\u0627\u0639\u0631\u0627\u0641)\nSesungguhnya orang-orang yang bertakwa apabila mereka dibayang-bayangi pikiran jahat (berbuat dosa) dari setan, mereka pun segera ingat kepada Allah, maka ketika itu juga mereka melihat (kesalahan-kesalahannya). (al-A\u2018r\u0101f/7: 201)\n\t\nDan firman Allah:\n\u0627\u0650\u0646\u0651\u064e \u0627\u0644\u0634\u0651\u064e\u064a\u0652\u0637\u0670\u0646\u064e \u0644\u064e\u0643\u064f\u0645\u0652 \u0639\u064e\u062f\u064f\u0648\u0651\u064c \u0641\u064e\u0627\u062a\u0651\u064e\u062e\u0650\u0630\u064f\u0648\u0652\u0647\u064f \u0639\u064e\u062f\u064f\u0648\u0651\u064b\u0627\u06d7 \u0627\u0650\u0646\u0651\u064e\u0645\u064e\u0627 \u064a\u064e\u062f\u0652\u0639\u064f\u0648\u0652\u0627 \u062d\u0650\u0632\u0652\u0628\u064e\u0647\u0657 \u0644\u0650\u064a\u064e\u0643\u064f\u0648\u0652\u0646\u064f\u0648\u0652\u0627 \u0645\u0650\u0646\u0652 \u0627\u064e\u0635\u0652\u062d\u0670\u0628\u0650 \u0627\u0644\u0633\u0651\u064e\u0639\u0650\u064a\u0652\u0631\u0650\u06d7 \u0666 (\u0641\u0627\u0637\u0631)\nSungguh, setan itu musuh bagimu, maka perlakukanlah ia sebagai musuh, karena sesungguhnya setan itu hanya mengajak golongannya agar mereka menjadi penghuni neraka yang menyala-nyala. (F\u0101\u1e6dir/35: 6)\n\nJika Rasulullah saja diperintahkan Allah untuk berlindung kepada-Nya ketika akan membaca Al-Qur\u2019an, padahal sudah dinyatakan terpelihara, bagaimana halnya dengan manusia yang bukan rasul. Sungguh manusia itu lemah dan mudah terpengaruh oleh setan dalam memahami Al-Qur\u2019an. Membaca Al-Qur\u2019an adalah usaha manusia untuk mendekatkan diri kepada Allah. Setan berusaha keras menjauhkan manusia dari petunjuk Allah dengan berbagai cara. Oleh karena itu, Allah memerintahkan untuk memohon pertolongan kepada-Nya dengan ucapan:\n\u0623\u064e\u0639\u064f\u0648\u0652\u0630\u064f \u0628\u0650\u0627\u0644\u0644\u0651\u0670\u0647\u0650 \u0645\u0650\u0646\u064e \u0627\u0644\u0634\u0651\u064e\u064a\u0652\u0637\u064e\u0627\u0646\u0650 \u0627\u0644\u0631\u0651\u064e\u062c\u0650\u064a\u0652\u0645\u0650\nAku berlindung kepada Allah dari godaan setan yang terkutuk.",
        "intro_surah": "Surah ini terdiri dari 128 ayat, termasuk kelompok surah-surah Makkiyyah, kecuali tiga ayat yang terakhir. Ayat-ayat ini turun pada waktu Rasulullah saw kembali dari peperangan Uhud.\nSurah ini dinamakan dengan an-Na\u1e25l yang berarti \u201clebah\u201d karena di dalamnya terdapat firman Allah ayat 68  yang artinya, \u201cDan Tuhanmu mewahyukan kepada lebah\u201d.\nLebah adalah makhluk yang sangat berguna bagi manusia. Ada persamaan hakikat antara madu yang dihasilkan lebah dengan intisari yang terdapat di dalam Al-Qur\u2019an. Madu berasal dari sari bunga dan menjadi obat bagi manusia. Sedangkan Al-Qur\u2019an mengandung intisari dari kitab-kitab yang telah diturunkan kepada para nabi terdahulu ditambah dengan ajaran-ajaran yang diperlukan oleh semua bangsa sepanjang masa untuk mencapai kebahagiaan dunia dan akhirat.\nSurah ini dinamakan pula Surah an-Ni\u2018am yang berarti nikmat-nikmat, karena di dalamnya Allah swt menyebutkan beberapa nikmat untuk hamba-hamba-Nya.\n\nPokok-pokok Isinya\n1.\tKeimanan:\nKepastian adanya hari kiamat; keesaan Allah; kekuatan-Nya dan ke-sempurnaan ilmu-Nya serta dalil keesaan-Nya; pertanggungjawaban manusia kepada Allah atas segala apa yang telah dikerjakannya.\n2.\tHukum:\nBeberapa hukum tentang makanan dan minuman yang diharamkan dan dihalalkan; kebolehan memakai perhiasan yang bahannya berasal dari dalam laut seperti mutiara dan merjan; dibolehkan memakan makanan yang diharamkan dalam keadaan terpaksa; bulu binatang dari hewan yang halal dimakan dipandang suci bila diambil ketika binatang itu masih hidup atau sesudah disembelih; kewajiban memenuhi perjanjian dan larangan mempermainkan sumpah; larangan mengada-adakan hukum yang tak ada dasarnya; perintah membaca isti\u2018\u0101\u017cah, yang berarti meminta perlindungan kepada Allah swt dari setan-setan yang terkutuk; dan larangan membalas siksa melebihi siksa yang telah diterima.\n3.\tKisah:\nKisah Nabi Ibrahim a.s.\n4.\tLain-lain:\nAsal kejadian manusia; madu adalah untuk kesehatan manusia; nasib orang-orang yang mengajak kepada kejahatan di hari kiamat, pandangan orang Arab zaman jahiliah terhadap anak perempuan; ajaran moral dalam Islam; dan pedoman dakwah Islam.",
        "outro_surah": null,
        "munasabah_prev_surah": "MUNASABAH SURAH AL-\u1e24IJR DENGAN \nSURAH AN-NA\u1e24L\n\nSebagaimana umumnya surah-surah yang turun di Mekah sebelum Hijrah berisi soal-soal ketauhidan, kerasulan, dan hari kiamat, begitu pula kedua surah ini.\nPada bagian akhir Surah al-\u1e24ijr (ayat 92-93), Allah menyatakan bahwa manusia akan dimintai pertanggungjawabannya pada hari kiamat atas apa yang dikerjakannya di dunia. Pada awal Surah an-Na\u1e24l, Allah menegaskan kepastian datangnya hari kiamat, dan pada ayat 93 an-Na\u1e24l ditegaskan lagi pertanggungjawaban manusia itu.\nPada bagian pertama Surah al-\u1e24ijr, Allah menerangkan tentang kebenaran Al-Qur\u2019an serta jaminan-Nya untuk memeliharanya, sedang dalam Surah an-Na\u1e24l terdapat ancaman bagi mereka yang mendustakan kebenaran Al-Qur\u2019an itu.\n",
        "munasabah_prev_theme": "Dalam ayat-ayat yang lalu, Allah menyebutkan bahwa orang-orang yang beriman dan beramal saleh, baik laki-laki maupun perempuan, akan diberi ganjaran pahala yang lebih baik dari apa yang telah mereka kerjakan di dunia. Pada ayat-ayat berikut ini, Allah memberi petunjuk kepada manusia bahwa membaca Al-Qur\u2019an adalah salah satu amal saleh yang sangat tinggi derajatnya. Oleh karena itu, dianjurkan berlindung dari godaan setan agar terlepas dari pengaruhnya.",
        "theme_group": "MENJAGA DIRI DARI GODAAN SETAN",
        "kosakata": "Kosakata: Fasta\u2018i\u017c  \u0641\u064e\u0627\u0633\u0652\u062a\u064e\u0639\u0650\u0630\u0652  (an-Na\u1e25l/16: 98)\nKata fasta\u2018i\u017c terambil dari kata al-\u2018au\u017c yang berarti menuju ke sesuatu untuk menghindar dari ketakutan atau gangguan, baik yang dituju itu makhluk hidup, seperti manusia atau benda tak bernyawa, seperti benteng atau gunung, lebih-lebih kepada Allah. Maknanya kemudian berkembang sehingga kata tersebut dipahami dalam arti permohonan perlindungan. Kata ini dalam berbagai bentuknya terulang di dalam Al-Qur\u2019an sebanyak tujuh belas kali. Enam belas di antaranya tertuju kepada Allah dan sekali, yang dikemukakan dalam konteks kecaman, merupakan permohonan sekelompok manusia kepada jin.",
        "sabab_nuzul": null,
        "conclusion": null
    }
}