{
    "id": 2017,
    "surah_id": 16,
    "ayah": 116,
    "page": 280,
    "quarter_hizb": 28.75,
    "juz": 14,
    "manzil": 3,
    "arabic": "\u0648\u064e\u0644\u064e\u0627 \u062a\u064e\u0642\u064f\u0648\u0652\u0644\u064f\u0648\u0652\u0627 \u0644\u0650\u0645\u064e\u0627 \u062a\u064e\u0635\u0650\u0641\u064f \u0627\u064e\u0644\u0652\u0633\u0650\u0646\u064e\u062a\u064f\u0643\u064f\u0645\u064f \u0627\u0644\u0652\u0643\u064e\u0630\u0650\u0628\u064e \u0647\u0670\u0630\u064e\u0627 \u062d\u064e\u0644\u0670\u0644\u064c \u0648\u0651\u064e\u0647\u0670\u0630\u064e\u0627 \u062d\u064e\u0631\u064e\u0627\u0645\u064c \u0644\u0651\u0650\u062a\u064e\u0641\u0652\u062a\u064e\u0631\u064f\u0648\u0652\u0627 \u0639\u064e\u0644\u064e\u0649 \u0627\u0644\u0644\u0651\u0670\u0647\u0650 \u0627\u0644\u0652\u0643\u064e\u0630\u0650\u0628\u064e\u06d7 \u0627\u0650\u0646\u0651\u064e \u0627\u0644\u0651\u064e\u0630\u0650\u064a\u0652\u0646\u064e \u064a\u064e\u0641\u0652\u062a\u064e\u0631\u064f\u0648\u0652\u0646\u064e \u0639\u064e\u0644\u064e\u0649 \u0627\u0644\u0644\u0651\u0670\u0647\u0650 \u0627\u0644\u0652\u0643\u064e\u0630\u0650\u0628\u064e \u0644\u064e\u0627 \u064a\u064f\u0641\u0652\u0644\u0650\u062d\u064f\u0648\u0652\u0646\u064e\u06d7 ",
    "latin": "Wa l\u0101 taq\u016bl\u016b lim\u0101 ta\u1e63ifu alsinatukumul-ka\u017ciba h\u0101\u017c\u0101 \u1e25al\u0101luw wa h\u0101\u017c\u0101 \u1e25ar\u0101mul litaftar\u016b \u2018alall\u0101hil-ka\u017cib(a), innal-la\u017c\u012bna yaftar\u016bna \u2018alall\u0101hil-ka\u017ciba l\u0101 yufli\u1e25\u016bn(a).",
    "translation": "Janganlah kamu mengatakan terhadap apa yang diucapkan oleh lidahmu secara bohong, \u201cIni halal dan ini haram,\u201d untuk mengada-adakan kebohongan terhadap Allah. Sesungguhnya orang-orang yang mengada-adakan kebohongan terhadap Allah tidak akan beruntung.",
    "no_footnote": null,
    "footnotes": null,
    "surah": {
        "id": 16,
        "arabic": "\u0627\u0644\u0646\u0651\u062d\u0644",
        "latin": "An-Na\u1e25l",
        "transliteration": "An-Nahl",
        "translation": "Lebah",
        "num_ayah": 128,
        "page": 267,
        "location": "Makkiyah"
    },
    "tafsir": {
        "wajiz": "Usai merinci makanan yang diharamkan, Allah lalu melarang manusia mengatakan hal yang tidak berdasar atas nama Allah. Allah berfirman, \u201cDan janganlah kamu mengatakan terhadap apa yang disebut-sebut oleh lidahmu secara dusta, baik tentang binatang maupun hal-hal lain, tanpa dasar dan tanpa merujuk pada ketentuan Allah dan rasulNya bahwa \u2018Ini halal dan ini haram.\u2019 Janganlah kamu mengatakan yang demikian itu untuk mengada-adakan kebohongan terhadap Allah. Ketahuilah bahwa sesungguhnya orang yang mengada-adakan kebohongan terhadap Allah tidak akan beruntung dan tidak akan membawa kebaikan bagi dirinya di dunia dan akhirat.\u201d",
        "tahlili": "Dalam ayat ini, Allah swt melarang kaum Muslimin mengharam-kan atau menghalalkan makanan menurut selera dan hawa nafsu mereka, sebagaimana orang-orang musyrik. Mereka mempunyai kebiasaan meng-haramkan atau menghalalkan binatang semata-mata didasarkan nama istilah yang mereka tetapkan sendiri untuk binatang itu, misalnya: ba\u1e25\u012brah, s\u0101'ibah, wa\u1e63\u012blah, dan \u1e24\u0101m, sebagaimana firman Allah swt:\n\u0645\u064e\u0627 \u062c\u064e\u0639\u064e\u0644\u064e \u0627\u0644\u0644\u0651\u0670\u0647\u064f \u0645\u0650\u0646\u0652\u06e2 \u0628\u064e\u062d\u0650\u064a\u0652\u0631\u064e\u0629\u064d \u0648\u0651\u064e\u0644\u064e\u0627 \u0633\u064e\u0627\u06e4\u0649\u0655\u0650\u0628\u064e\u0629\u064d \u0648\u0651\u064e\u0644\u064e\u0627 \u0648\u064e\u0635\u0650\u064a\u0652\u0644\u064e\u0629\u064d \u0648\u0651\u064e\u0644\u064e\u0627 \u062d\u064e\u0627\u0645\u064d \u06d9\u0648\u0651\u064e\u0644\u0670\u0643\u0650\u0646\u0651\u064e \u0627\u0644\u0651\u064e\u0630\u0650\u064a\u0652\u0646\u064e \u0643\u064e\u0641\u064e\u0631\u064f\u0648\u0652\u0627 \u064a\u064e\u0641\u0652\u062a\u064e\u0631\u064f\u0648\u0652\u0646\u064e \u0639\u064e\u0644\u064e\u0649 \u0627\u0644\u0644\u0651\u0670\u0647\u0650 \u0627\u0644\u0652\u0643\u064e\u0630\u0650\u0628\u064e\u06d7 \u0648\u064e\u0627\u064e\u0643\u0652\u062b\u064e\u0631\u064f\u0647\u064f\u0645\u0652 \u0644\u064e\u0627 \u064a\u064e\u0639\u0652\u0642\u0650\u0644\u064f\u0648\u0652\u0646\u064e \u0661\u0660\u0663 (\u0627\u0644\u0645\u0627\u06e4\u0626\u062f\u0629)\nAllah tidak pernah mensyariatkan adanya ba\u1e25\u012brah, s\u0101'ibah, wa\u1e63\u012blah, dan \u1e25\u0101m. Tetapi orang-orang kafir membuat-buat kedustaan terhadap Allah, dan kebanyakan mereka tidak mengerti. (al-M\u0101'idah/5: 103)\n\nDalam menetapkan kehalalan atau keharaman suatu makanan atau minuman harus didasarkan pada dalil syara\u2019 yang bersumber dari Al-Qur\u2019an dan sunnah. Penetapan hukum tanpa dalil-dalil syara\u2019 tidak dibenarkan. Hal tersebut termasuk perbuatan yang mengada-ada dan melakukan kebohongan kepada Allah.\nDalam Al-Qur\u2019an disebutkan tentang ucapan kaum musyrikin mengenai ketentuan anak hewan yang masih dalam kandungan induknya. Firman Allah swt:\n\u0648\u064e\u0642\u064e\u0627\u0644\u064f\u0648\u0652\u0627 \u0645\u064e\u0627 \u0641\u0650\u064a\u0652 \u0628\u064f\u0637\u064f\u0648\u0652\u0646\u0650 \u0647\u0670\u0630\u0650\u0647\u0650 \u0627\u0644\u0652\u0627\u064e\u0646\u0652\u0639\u064e\u0627\u0645\u0650 \u062e\u064e\u0627\u0644\u0650\u0635\u064e\u0629\u064c \u0644\u0650\u0651\u0630\u064f\u0643\u064f\u0648\u0652\u0631\u0650\u0646\u064e\u0627 \u0648\u064e\u0645\u064f\u062d\u064e\u0631\u0651\u064e\u0645\u064c \u0639\u064e\u0644\u0670\u0653\u0649 \u0627\u064e\u0632\u0652\u0648\u064e\u0627\u062c\u0650\u0646\u064e\u0627\u06da \nDan mereka berkata (pula), \u201dApa yang ada di dalam perut hewan ternak ini khusus untuk kaum laki-laki kami, haram bagi istri-istri kami.\u201d (al-An\u2018\u0101m/6: 139)\n\nKarena berakibat sangat buruk terhadap kehidupan beragama, maka Allah memberikan ancaman yang keras kepada mereka yang mengada-adakan kebohongan terhadap Allah. Allah menegaskan bahwa mereka yang berbuat demikian tidak akan mencapai keberhasilan dalam kehidupan mereka, baik di dunia maupun di akhirat. Di dunia, mereka yang suka membuat-buat hukum tanpa dalil yang benar akan dikecam dan ditinggalkan oleh masyara-kat. Kebohongan mereka akan diketahui oleh masyarakat dan mereka akan menjadi sasaran ejekan dan penghinaan.\nDalam Tafsir Ibnu Ka\u1e61\u012br diungkapkan bahwa termasuk dalam pengertian ayat ini ialah setiap orang yang menciptakan bid\u2018ah (urusan agama) yang tidak punya landasan syara\u2019, atau menghalalkan sesuatu yang diharamkan atau mengharamkan sesuatu yang dihalalkan Allah semata-mata berdasarkan pikiran dan seleranya sendiri. ",
        "intro_surah": "Surah ini terdiri dari 128 ayat, termasuk kelompok surah-surah Makkiyyah, kecuali tiga ayat yang terakhir. Ayat-ayat ini turun pada waktu Rasulullah saw kembali dari peperangan Uhud.\nSurah ini dinamakan dengan an-Na\u1e25l yang berarti \u201clebah\u201d karena di dalamnya terdapat firman Allah ayat 68  yang artinya, \u201cDan Tuhanmu mewahyukan kepada lebah\u201d.\nLebah adalah makhluk yang sangat berguna bagi manusia. Ada persamaan hakikat antara madu yang dihasilkan lebah dengan intisari yang terdapat di dalam Al-Qur\u2019an. Madu berasal dari sari bunga dan menjadi obat bagi manusia. Sedangkan Al-Qur\u2019an mengandung intisari dari kitab-kitab yang telah diturunkan kepada para nabi terdahulu ditambah dengan ajaran-ajaran yang diperlukan oleh semua bangsa sepanjang masa untuk mencapai kebahagiaan dunia dan akhirat.\nSurah ini dinamakan pula Surah an-Ni\u2018am yang berarti nikmat-nikmat, karena di dalamnya Allah swt menyebutkan beberapa nikmat untuk hamba-hamba-Nya.\n\nPokok-pokok Isinya\n1.\tKeimanan:\nKepastian adanya hari kiamat; keesaan Allah; kekuatan-Nya dan ke-sempurnaan ilmu-Nya serta dalil keesaan-Nya; pertanggungjawaban manusia kepada Allah atas segala apa yang telah dikerjakannya.\n2.\tHukum:\nBeberapa hukum tentang makanan dan minuman yang diharamkan dan dihalalkan; kebolehan memakai perhiasan yang bahannya berasal dari dalam laut seperti mutiara dan merjan; dibolehkan memakan makanan yang diharamkan dalam keadaan terpaksa; bulu binatang dari hewan yang halal dimakan dipandang suci bila diambil ketika binatang itu masih hidup atau sesudah disembelih; kewajiban memenuhi perjanjian dan larangan mempermainkan sumpah; larangan mengada-adakan hukum yang tak ada dasarnya; perintah membaca isti\u2018\u0101\u017cah, yang berarti meminta perlindungan kepada Allah swt dari setan-setan yang terkutuk; dan larangan membalas siksa melebihi siksa yang telah diterima.\n3.\tKisah:\nKisah Nabi Ibrahim a.s.\n4.\tLain-lain:\nAsal kejadian manusia; madu adalah untuk kesehatan manusia; nasib orang-orang yang mengajak kepada kejahatan di hari kiamat, pandangan orang Arab zaman jahiliah terhadap anak perempuan; ajaran moral dalam Islam; dan pedoman dakwah Islam.",
        "outro_surah": null,
        "munasabah_prev_surah": "MUNASABAH SURAH AL-\u1e24IJR DENGAN \nSURAH AN-NA\u1e24L\n\nSebagaimana umumnya surah-surah yang turun di Mekah sebelum Hijrah berisi soal-soal ketauhidan, kerasulan, dan hari kiamat, begitu pula kedua surah ini.\nPada bagian akhir Surah al-\u1e24ijr (ayat 92-93), Allah menyatakan bahwa manusia akan dimintai pertanggungjawabannya pada hari kiamat atas apa yang dikerjakannya di dunia. Pada awal Surah an-Na\u1e24l, Allah menegaskan kepastian datangnya hari kiamat, dan pada ayat 93 an-Na\u1e24l ditegaskan lagi pertanggungjawaban manusia itu.\nPada bagian pertama Surah al-\u1e24ijr, Allah menerangkan tentang kebenaran Al-Qur\u2019an serta jaminan-Nya untuk memeliharanya, sedang dalam Surah an-Na\u1e24l terdapat ancaman bagi mereka yang mendustakan kebenaran Al-Qur\u2019an itu.\n",
        "munasabah_prev_theme": "Pada ayat-ayat yang lalu, Allah swt menerangkan hal ihwal orang-orang kafir yang mengingkari nikmat Allah, mendustakan Rasul-Nya, dan menerangkan azab yang ditimpakan kepada mereka seperti kelaparan dan ketakutan disebabkan kezaliman mereka. Pada ayat-ayat berikut ini, Allah memerintahkan kepada orang-orang yang beriman untuk memakan makanan yang halal, supaya mereka bersyukur kepada Allah atas segala nikmat yang diberikan kepada mereka, menjauhi makanan yang diharamkan, dan tidak mengharamkan yang halal. ",
        "theme_group": "MAKANAN HALAL DAN HARAM",
        "kosakata": "Kosakata: Bijah\u0101lah  \u0628\u0650\u062c\u064e\u0647\u064e\u0627\u0644\u064e\u0629\u064d  (an-Na\u1e25l/16: 119)\nUngkapan ini terdiri dari dua kata, yaitu bi dan jah\u0101lah.  Bi artinya dengan, dan jah\u0101lah yang terambil dari kata jahl maknanya kebodohan. Yang dimaksud dengan kebodohan pada ayat ini bukan merupakan antonim (lawan kata) dari pengetahuan, karena kalau pelaku perbuatan tidak tahu tentang terlarangnya hal tersebut, maka ia tidak berdosa.  Kebodohan pada ayat ini maksudnya adalah kecerobohan, yaitu bahwa yang bersangkutan mestinya mengetahui bahwa perbuatan yang dilakukannya adalah terlarang, atau yang bersangkutan mempunyai kemampuan untuk mengetahui, atau memiliki informasi menyangkut keharamannya, namun ia tetap melakukannya karena dorongan nafsu.  Ada juga ulama yang berpendapat bahwa penyebutan jah\u0101lah pada ayat ini untuk mengisyaratkan bahwa kebanyakan dosa lahir sebagai akibat dorongan nafsu dan kelalaian dalam memikirkan akibat-akibat buruknya.",
        "sabab_nuzul": null,
        "conclusion": null
    }
}