{
    "id": 2010,
    "surah_id": 16,
    "ayah": 109,
    "page": 279,
    "quarter_hizb": 28.5,
    "juz": 14,
    "manzil": 3,
    "arabic": "\u0644\u064e\u0627 \u062c\u064e\u0631\u064e\u0645\u064e \u0627\u064e\u0646\u0651\u064e\u0647\u064f\u0645\u0652 \u0641\u0650\u0649 \u0627\u0644\u0652\u0627\u0670\u062e\u0650\u0631\u064e\u0629\u0650 \u0647\u064f\u0645\u064f \u0627\u0644\u0652\u062e\u0670\u0633\u0650\u0631\u064f\u0648\u0652\u0646\u064e ",
    "latin": "L\u0101 jarama annahum fil-\u0101khirati humul-kh\u0101sir\u016bn(a).",
    "translation": "Tidak diragukan bahwa merekalah orang-orang yang rugi di akhirat. ",
    "no_footnote": null,
    "footnotes": null,
    "surah": {
        "id": 16,
        "arabic": "\u0627\u0644\u0646\u0651\u062d\u0644",
        "latin": "An-Na\u1e25l",
        "transliteration": "An-Nahl",
        "translation": "Lebah",
        "num_ayah": 128,
        "page": 267,
        "location": "Makkiyah"
    },
    "tafsir": {
        "wajiz": "Pastilah, tidak diragukan lagi, mereka yang kembali kepada kekafiran setelah menyatakan beriman itu termasuk orang yang rugi di akhirat nanti. Mereka akan menyesali apa yang telah diperbuatnya, padahal penyesalan di hari itu tidak lagi berguna.",
        "tahlili": "Dalam ayat ini, Allah swt menegaskan bahwa mereka yang murtad itu adalah orang yang sungguh merugi di akhirat karena telah menodai jiwa mereka sendiri dan menjerumuskan diri ke dalam jurang api neraka. Mereka mendapatkan hal-hal berikut:\n\n1.\tMurka Allah.\n2.\tSiksaan yang pedih.\n3.\tTidak mendapat hidayah Allah.\n4.\tHati, pendengaran, dan penglihatan mereka tertutup.\n5.\tPada hari kiamat, mereka akan merugi.\nMereka kehilangan kenikmatan duniawi yang mereka kejar dengan mencurahkan tenaga dan menghabiskan umur. Di akhirat mereka tidak mendapatkan apa pun selain penderitaan. Mereka tidak menyadari bahwa modal utama untuk hidup di dunia adalah umur. Jika modal itu tidak dipergunakan untuk keperluan yang utama, tentulah modal itu akan habis dengan percuma.",
        "intro_surah": "Surah ini terdiri dari 128 ayat, termasuk kelompok surah-surah Makkiyyah, kecuali tiga ayat yang terakhir. Ayat-ayat ini turun pada waktu Rasulullah saw kembali dari peperangan Uhud.\nSurah ini dinamakan dengan an-Na\u1e25l yang berarti \u201clebah\u201d karena di dalamnya terdapat firman Allah ayat 68  yang artinya, \u201cDan Tuhanmu mewahyukan kepada lebah\u201d.\nLebah adalah makhluk yang sangat berguna bagi manusia. Ada persamaan hakikat antara madu yang dihasilkan lebah dengan intisari yang terdapat di dalam Al-Qur\u2019an. Madu berasal dari sari bunga dan menjadi obat bagi manusia. Sedangkan Al-Qur\u2019an mengandung intisari dari kitab-kitab yang telah diturunkan kepada para nabi terdahulu ditambah dengan ajaran-ajaran yang diperlukan oleh semua bangsa sepanjang masa untuk mencapai kebahagiaan dunia dan akhirat.\nSurah ini dinamakan pula Surah an-Ni\u2018am yang berarti nikmat-nikmat, karena di dalamnya Allah swt menyebutkan beberapa nikmat untuk hamba-hamba-Nya.\n\nPokok-pokok Isinya\n1.\tKeimanan:\nKepastian adanya hari kiamat; keesaan Allah; kekuatan-Nya dan ke-sempurnaan ilmu-Nya serta dalil keesaan-Nya; pertanggungjawaban manusia kepada Allah atas segala apa yang telah dikerjakannya.\n2.\tHukum:\nBeberapa hukum tentang makanan dan minuman yang diharamkan dan dihalalkan; kebolehan memakai perhiasan yang bahannya berasal dari dalam laut seperti mutiara dan merjan; dibolehkan memakan makanan yang diharamkan dalam keadaan terpaksa; bulu binatang dari hewan yang halal dimakan dipandang suci bila diambil ketika binatang itu masih hidup atau sesudah disembelih; kewajiban memenuhi perjanjian dan larangan mempermainkan sumpah; larangan mengada-adakan hukum yang tak ada dasarnya; perintah membaca isti\u2018\u0101\u017cah, yang berarti meminta perlindungan kepada Allah swt dari setan-setan yang terkutuk; dan larangan membalas siksa melebihi siksa yang telah diterima.\n3.\tKisah:\nKisah Nabi Ibrahim a.s.\n4.\tLain-lain:\nAsal kejadian manusia; madu adalah untuk kesehatan manusia; nasib orang-orang yang mengajak kepada kejahatan di hari kiamat, pandangan orang Arab zaman jahiliah terhadap anak perempuan; ajaran moral dalam Islam; dan pedoman dakwah Islam.",
        "outro_surah": null,
        "munasabah_prev_surah": "MUNASABAH SURAH AL-\u1e24IJR DENGAN \nSURAH AN-NA\u1e24L\n\nSebagaimana umumnya surah-surah yang turun di Mekah sebelum Hijrah berisi soal-soal ketauhidan, kerasulan, dan hari kiamat, begitu pula kedua surah ini.\nPada bagian akhir Surah al-\u1e24ijr (ayat 92-93), Allah menyatakan bahwa manusia akan dimintai pertanggungjawabannya pada hari kiamat atas apa yang dikerjakannya di dunia. Pada awal Surah an-Na\u1e24l, Allah menegaskan kepastian datangnya hari kiamat, dan pada ayat 93 an-Na\u1e24l ditegaskan lagi pertanggungjawaban manusia itu.\nPada bagian pertama Surah al-\u1e24ijr, Allah menerangkan tentang kebenaran Al-Qur\u2019an serta jaminan-Nya untuk memeliharanya, sedang dalam Surah an-Na\u1e24l terdapat ancaman bagi mereka yang mendustakan kebenaran Al-Qur\u2019an itu.\n",
        "munasabah_prev_theme": "Pada ayat-ayat yang lalu, Allah swt menerangkan tuduhan kaum musyrikin kepada Nabi Muhammad yang dianggap mengada-ada dalam penggantian ayat Al-Qur\u2019an, lalu Allah membantah alasan mereka itu. Pada ayat-ayat ini, Allah swt memperingatkan mereka yang tidak beriman kepada Al-Qur\u2019an itu dengan siksaan api neraka di akhirat kelak karena merekalah yang mengada-adakan kebohongan terhadap Al-Qur\u2019an.",
        "theme_group": "ORANG YANG TIDAK MEMPEROLEH HIDAYAH",
        "kosakata": "Kosakata: L\u0101 Jarama  \u0644\u064e\u0627 \u062c\u064e\u0631\u064e\u0645\u064e  (an-Na\u1e25l/16: 109)\nUngkapan ini terdiri dari dua kata, yaitu l\u0101 dan jarama.  Secara bahasa, l\u0101 berarti tidak, dan jarama maknanya pemutusan atau kepastian.  Dengan demikian, menurut etimologi l\u0101 jarama maknanya tidak ada kepastian. Namun demikian, secara terminologis, ada yang berpendapat bahwa l\u0101 jarama pada ayat ini mengandung makna \u201caku bersumpah\u201d, dan bukan \u201caku tidak bersumpah\u201d, sehingga kata l\u0101 di sini tidak diungkap dalam frase tersebut. Ungkapan demikian seperti frase sumpah l\u0101 uqsimu pada Surah    al-Balad, yang diartikan sebagai aku bersumpah, dan bukan aku tidak bersumpah.  Selain itu ada pula yang berpendapat bahwa l\u0101 jarama berarti pasti. Dengan makna ini, seakan-akan apa yang diucapkan akan berlanjut terus, sehingga menjadi kenyataan, dan tidak ada yang menghalangi atau memutus perjalanannya menuju kenyataan.",
        "sabab_nuzul": null,
        "conclusion": "1.\tOrang-orang yang dalam hatinya tidak ada iman, tidak akan mencapai kebenaran hakiki karena ia menutup mata terhadap ayat-ayat Allah.\n2.\tOrang yang menyatakan dirinya keluar dari Islam karena diancam dan dianiaya, tetapi hatinya tetap iman, maka dia tetap dipandang sebagai seorang muslim.\n3.\tHukuman Allah kepada orang yang murtad (keluar dari agama Islam) karena mengutamakan kehidupan duniawi ialah:\na.\tMendapat murka Allah.\nb.\tMendapat siksaan yang pedih.\nc.\tTidak mendapat hidayah Allah.\nd.\tHati, pendengaran, dan penglihatan mereka tertutup.\ne.\tPada hari kiamat, mereka akan merugi.\n"
    }
}