{
    "id": 2088,
    "surah_id": 17,
    "ayah": 59,
    "page": 288,
    "quarter_hizb": 29.5,
    "juz": 15,
    "manzil": 4,
    "arabic": "\u0648\u064e\u0645\u064e\u0627 \u0645\u064e\u0646\u064e\u0639\u064e\u0646\u064e\u0627\u0653 \u0627\u064e\u0646\u0652 \u0646\u0651\u064f\u0631\u0652\u0633\u0650\u0644\u064e \u0628\u0650\u0627\u0644\u0652\u0627\u0670\u064a\u0670\u062a\u0650 \u0627\u0650\u0644\u0651\u064e\u0627\u0653 \u0627\u064e\u0646\u0652 \u0643\u064e\u0630\u0651\u064e\u0628\u064e \u0628\u0650\u0647\u064e\u0627 \u0627\u0644\u0652\u0627\u064e\u0648\u0651\u064e\u0644\u064f\u0648\u0652\u0646\u064e\u06d7 \u0648\u064e\u0627\u0670\u062a\u064e\u064a\u0652\u0646\u064e\u0627 \u062b\u064e\u0645\u064f\u0648\u0652\u062f\u064e \u0627\u0644\u0646\u0651\u064e\u0627\u0642\u064e\u0629\u064e \u0645\u064f\u0628\u0652\u0635\u0650\u0631\u064e\u0629\u064b \u0641\u064e\u0638\u064e\u0644\u064e\u0645\u064f\u0648\u0652\u0627 \u0628\u0650\u0647\u064e\u0627\u06d7 \u0648\u064e\u0645\u064e\u0627 \u0646\u064f\u0631\u0652\u0633\u0650\u0644\u064f \u0628\u0650\u0627\u0644\u0652\u0627\u0670\u064a\u0670\u062a\u0650 \u0627\u0650\u0644\u0651\u064e\u0627 \u062a\u064e\u062e\u0652\u0648\u0650\u064a\u0652\u0641\u064b\u0627",
    "latin": "Wa m\u0101 mana\u2018an\u0101 an nursila bil-\u0101y\u0101ti  ill\u0101 an ka\u017c\u017caba bihal-awwal\u016bn(a), wa \u0101tain\u0101 \u1e61am\u016bdan-n\u0101qata mub\u1e63iratan fa \u1e93alam\u016b bih\u0101, wa m\u0101 nursilu bil-\u0101y\u0101ti ill\u0101 takhw\u012bf\u0101(n).",
    "translation": "Tidak ada yang menghalangi Kami untuk mengirimkan (kepadamu) tanda-tanda (kekuasaan Kami), melainkan karena (tanda-tanda) itu telah didustakan oleh orang-orang terdahulu. Kami telah berikan kepada kaum Samud unta betina (sebagai mukjizat) yang jelas, tetapi mereka menganiayanya (dengan menyembelihnya). Kami tidak mengirimkan tanda-tanda itu kecuali untuk menakut-nakuti.",
    "no_footnote": null,
    "footnotes": null,
    "surah": {
        "id": 17,
        "arabic": " \u0627\u0644\u0627\u0633\u0631\u0627\u06e4\u0621",
        "latin": "Al-Isr\u0101'",
        "transliteration": "Al-Isra'",
        "translation": "Memperjalankan di Malam Hari",
        "num_ayah": 111,
        "page": 282,
        "location": "Makkiyah"
    },
    "tafsir": {
        "wajiz": "Orang-orang kafir Mekah berkata bahwa nabi-nabi dahulu dapat melakukan perbuatan yang luar biasa, seperti mengarahkan angin menurut kehendaknya atau menghidupkan orang mati, lalu mereka meminta kepada Nabi Muhammad agar menunjukkan bukti kenabiannya dengan mengubah bukit Safa menjadi emas, maka turunlah wahyu Allah, Dan tidak ada yang menghalangi Kami untuk mengirimkan kepadamu tanda-tanda kekuasaan Kami yang dapat dilihat, melainkan karena tanda-tanda itu telah didustakan oleh orang terdahulu. Dan di antara tanda-tanda yang telah Kami berikan kepada umat terdahulu yaitu tanda-tanda yang Kami berikan kepada kaum samud, kaumnya Nabi Saleh, berupa unta betina sebagai mukjizat yang dapat dilihat, sebagaimana yang diusulkan oleh mereka, tetapi mereka menganiaya unta betina itu dengan membunuhnya. Dan Kami tidak mengirimkan tanda-tanda itu melainkan untuk menakut-nakuti agar mereka beriman. Akan tetapi mereka tidak mau beriman, walaupun telah Kami tunjukkan kepada mereka tanda-tanda kekuasaan Kami yang bersifat indrawi yang mereka minta. Jika Kami menunjukkan tanda-tanda itu kepadamu niscaya kamu akan mendustakan pula, dan dengan demikian akan berlaku pula ketentuan kami menghancurkan penduduk negeri yang durhaka sebagaimana berlaku kepada kaum sebelum kamu.",
        "tahlili": "Imam A\u1e25mad meriwayatkan dari Ibnu \u2018Abb\u0101s bahwa ia berkata, \u201cPenduduk Mekah meminta kepada Nabi saw agar mengubah gunung Safa menjadi gunung emas, dan menghilangkan bukit agar tanahnya bisa diguna-kan untuk pertanian. Malaikat mengatakan kepada Nabi, \u201cJika engkau mau memenuhi permintaan mereka, penuhilah. Apabila mereka mengingkari, mereka dapat dibinasakan seperti umat-umat terdahulu.\u201d Nabi bersabda, \u201cTetapi saya ingin menunda permintaan mereka.\u201d Kemudian Allah menurun-kan ayat ini.\u201d\nAllah menjelaskan bahwa tidak ada yang mampu menghalangi ter-laksananya mukjizat yang diberikan kepada rasul-Nya. Orang-orang dahulu yang mendustakan tanda-tanda kekuasaan-Nya (mukjizat) seperti yang telah diberikan kepada para rasul-Nya yang terdahulu, akan dimusnahkan. Begitu pula orang-orang Quraisy yang meminta kepada Nabi Muhammad saw, supaya Allah menurunkan pula tanda-tanda kekuasaan-Nya kepada mereka. Akan tetapi, Allah tidak mengabulkannya, karena bila tanda-tanda kekuasaan Allah itu diturunkan, pasti mereka mendustakannya juga dan tentulah mereka akan dibinasakan seperti umat-umat yang dahulu. Sedang Allah tidak akan membinasakan orang-orang Quraisy, karena di antara keturunan mereka ada yang diharapkan menjadi orang-orang yang beriman.\nAllah swt menjelaskan bahwa Dia telah memberikan tanda-tanda kekuasaan-Nya (mukjizat-Nya) kepada Nabi Saleh, seperti yang diminta oleh kaum Samud yaitu unta betina yang dapat mereka saksikan sendiri.\nRasulullah bersabda:\n\u0639\u064e\u0646\u0650 \u0627\u0644\u0631\u0651\u064e\u0628\u0650\u064a\u0652\u0639\u0650 \u0628\u0652\u0646\u0650 \u0623\u064e\u0646\u064e\u0633\u064d \u0642\u064e\u0627\u0644\u064e: \u0642\u064e\u0627\u0644\u064e \u0627\u0644\u0646\u0651\u064e\u0627\u0633\u064f \u0644\u0650\u0631\u064e\u0633\u064f\u0648\u0652\u0644\u0650 \u0627\u0644\u0644\u0651\u0670\u0647\u0650 \u0635\u064e\u0644\u0651\u064e\u0649 \u0627\u0644\u0644\u0651\u0670\u0647\u064f \u0639\u064e\u0644\u064e\u064a\u0652\u0647\u0650 \u0648\u064e\u0633\u064e\u0644\u0651\u064e\u0645\u064e : \u0644\u064e\u0648\u0652\u062c\u0650\u0626\u0652\u062a\u064e\u0646\u064e\u0627 \u0628\u0622\u064a\u064e\u0629\u064d \u0643\u064e\u0645\u064e\u0627 \u062c\u064e\u0627\u0621\u064e \u0628\u0650\u0647\u064e\u0627 \u0635\u064e\u0627\u0644\u0650\u062d\u064c \u0648\u064e\u0627\u0644\u0646\u0651\u064e\u064a\u0650\u0628\u0651\u064f\u0648\u0652\u0646\u064e \u0641\u064e\u0642\u064e\u0627\u0644\u064e \u0631\u064e\u0633\u064f\u0648\u0652\u0644\u064f \u0627\u0644\u0644\u0651\u0670\u0647\u0650 \u0635\u064e\u0644\u0651\u064e\u0649 \u0627\u0644\u0644\u0651\u0670\u0647\u064f \u0639\u064e\u0644\u064e\u064a\u0652\u0647\u0650 \u0648\u064e\u0633\u064e\u0644\u0651\u064e\u0645\u064e \u0625\u0650\u0646\u0652 \u0634\u0650\u0626\u0652\u062a\u064f\u0645\u0652 \u062f\u064e\u0639\u064e\u0648\u0652\u062a\u064f \u0627\u0644\u0644\u0651\u0670\u0647\u064e \u0641\u064e\u0623\u064e\u0646\u0652\u0632\u064e\u0644\u064e\u0647\u064e\u0627 \u0639\u064e\u0644\u064e\u064a\u0652\u0643\u064f\u0645\u0652 \u0641\u064e\u0625\u0650\u0646\u0652 \u0639\u064e\u0635\u064e\u064a\u0652\u062a\u064f\u0645\u0652 \u0647\u064f\u0644\u0650\u0643\u0652\u062a\u064f\u0645\u0652 \u0641\u064e\u0642\u064e\u0627\u0644\u064f\u0648\u0652\u0627 \u0644\u064e\u0627 \u0646\u064f\u0631\u0650\u064a\u0652\u062f\u064f\u0647\u064e\u0627. (\u0631\u0648\u0627\u0647 \u0627\u0644\u0628\u064a\u0647\u0642\u064a \u0641\u0649 \u062f\u0644\u0627\u0626\u0644 \u0627\u0644\u0646\u0628\u0648\u0629)\nDiriwayatkan dari ar-Rab\u012b\u2019 bin Anas, ia berkata, \u201cOrang-orang Quraisy berkata kepada Rasulullah saw, \u201c(Kami mau beriman), seandainya didatangkan kepada kami tanda-tanda kekuasaan Allah, seperti yang didatangkan oleh Nabi Saleh dan para nabi (kepada umat mereka).\u201d Kemudian Rasulullah saw bersabda, \u201cKalau kamu sekalian menginginkan agar saya berdoa kepada Allah, tentulah Allah akan menurunkan (tanda-tanda kekuasaan itu) kepadamu. Tetapi apabila kamu membangkang juga, tentulah kamu akan dibinasakan.\u201d Kemudian mereka berkata, \u201cKami tidak menginginkan.\u201d (Riwayat al-Baihaq\u012b) \nAllah menjelaskan bahwa pada akhirnya kaum Samud tetap tidak menjadi orang-orang yang beriman, bahkan mereka menganiaya unta betina yang menjadi mukjizat Nabi Saleh itu dan menyembelihnya. Allah swt lalu membinasakan mereka karena dosa-dosa mereka, dan menyamaratakan mereka dengan tanah.\nDi akhir ayat ini, Allah swt menjelaskan bahwa Dia memberikan tanda-tanda kekuasaan itu untuk mengingatkan manusia agar mengambil pelajaran darinya, sehingga mereka bertobat dan kembali mengikuti bimbingan Allah swt seperti yang diserukan oleh para nabi dan rasul-Nya.",
        "intro_surah": "Surah ini terdiri dari 111 ayat, dan termasuk golongan surah-surah Makkiyah. Dinamakan Surah al-Isr\u0101\u2019 yang berarti \u201cmemperjalankan di malam hari\u201d karena dalam surah itu disebutkan peristiwa Isr\u0101\u2019 Nabi Muhammad saw dari Masjidilharam di Mekah, ke Masjidil Aqsa di Baitul Maqdis. Peristiwa ini diabadikan pada ayat pertama Surah al-Isr\u0101\u2019.\nSurah ini dinamakan pula Surah Ban\u012b Isr\u0101\u2019\u012bl yang berarti \u201cKeturunan Israil\u201d, karena pada bagian permulaan, yaitu pada ayat yang kedua sampai dengan ayat kedelapan, dan kemudian pada bagian akhir surah, yaitu pada ayat 101 sampai dengan ayat 104, disebutkan tentang kisah Bani Israil. Dijelaskan dalam ayat-ayat tersebut bagaimana bangsa Israil setelah mereka menjadi bangsa yang kuat dan besar, menjadi bangsa yang terhina, karena menyimpang dari ajaran Allah swt.\nKisah Isr\u0101\u2019 dikaitkan dengan kisah Bani Israil pada surah ini untuk memberi peringatan bahwa apabila umat meninggalkan ajaran-ajaran agamanya, akan mengalami keruntuhan sebagaimana halnya Bani Israil.\n\nPokok-pokok Isinya\n1. \tKeimanan:\nAllah tidak mempunyai anak, baik berupa manusia ataupun malaikat; Allah pasti memberi rezeki kepada manusia; Allah mempunyai nama-nama yang paling baik; Al-Qur\u2019an adalah wahyu dari Allah yang memberikan petunjuk, penawar dan rahmat bagi orang-orang yang beriman; adanya Padang Mahsyar dan hari kebangkitan.\n2. \tHukum:\nLarangan-larangan Allah tentang: menghilangkan nyawa manusia; berzina; mempergunakan harta anak yatim untuk keperluan sendiri kecuali dengan cara yang dibenarkan agama; berbuat hanya karena mengikuti orang lain (melakukan sesuatu tanpa ilmu); dan durhaka kepada ibu bapak. Perintah Allah tentang: memenuhi janji, menyem-purnakan timbangan dan takaran; dan melakukan salat lima waktu tepat pada waktunya.\n3. \tKisah:\nKisah Isr\u0101 Nabi Muhammad saw, dan kisah tentang Bani Israil.\n4. \tLain-lain:\nPertanggungjawaban manusia terhadap amal perbuatannya; beberapa faktor yang menyebabkan kejayaan dan kehancuran suatu umat, petunjuk-petunjuk tentang perlakuan terhadap orang tua, tetangga, dan masyarakat; manusia makhluk Allah swt yang mulia, namun manusia juga mempunyai sifat-sifat yang tidak baik seperti suka ingkar, putus asa dan terburu-buru; dan persoalan roh.",
        "outro_surah": null,
        "munasabah_prev_surah": "HUBUNGAN SURAH AN-NA\u1e24L DENGAN \nSURAH AL-ISR\u0100\u2019\n\n1. \tDalam Surah an-Na\u1e25l, Allah menyebutkan perselisihan orang-orang Yahudi tentang hari Sabat, kemudian pada Surah al-Isr\u0101\u2019 dijelaskan syariat orang Yahudi yang ditetapkan bagi mereka dalam Taurat.\n2. \tSesudah Allah swt menganjurkan kepada Nabi Muhammad saw dalam Surah an-Na\u1e25l agar bersabar dan melarang beliau bersedih atau berkecil hati disebabkan tipu daya orang-orang musyrik, maka pada Surah al-Isr\u0101\u2019 Allah menerangkan kemuliaan Nabi Muhammad saw serta martabatnya yang tinggi di hadapan Allah swt.\n3. \tDalam Surah an-Na\u1e25l Allah menerangkan bermacam-macam nikmat-Nya, dimana kebanyakan manusia tidak mensyukurinya. Dalam Surah al-Isr\u0101\u2019 disebutkan lagi nikmat Allah yang lebih besar yang diberikan kepada Bani Israil. Tetapi mereka tidak mensyukurinya, bahkan mereka berbuat kerusakan di muka bumi.\n4. \tDalam Surah an-Na\u1e25l, Allah mengatakan bahwa madu yang keluar dari lebah merupakan minuman yang mengandung obat bagi manusia. Dalam Surah al-Isr\u0101\u2019 diterangkan bahwa Al-Qur\u2019an pun menjadi obat dan penyembuh penyakit hati, dan rahmat bagi orang-orang yang beriman.\n ",
        "munasabah_prev_theme": "Pada ayat-ayat yang lalu, Allah swt mengungkapkan keingkaran kaum musyrikin terhadap terjadinya hari kebangkitan, kebenaran wahyu yang diterima Rasul dan kerasulannya untuk seluruh manusia. Allah juga menunjukkan kepada Rasulullah dan kaum Muslimin cara-cara yang baik dalam membantah keingkaran kaum musyrikin dengan bantahan-bantahan yang dapat diterima akal. Dalam ayat-ayat ini, Allah swt menjelaskan bahwa tiada satu kaum yang durhaka pun yang terlepas dari azab Allah yang keras. Ini adalah peringatan kepada kaum musyrik Mekah yang mendustakan ter-jadinya hari kebangkitan dan hari pembalasan.\n",
        "theme_group": "KAUM YANG INGKAR PASTI\nMENDAPAT HUKUMAN",
        "kosakata": "Kosakata: Asy-Syajarah al-Mal\u2019\u016bnah \u0627\u064e\u0644\u0634\u0651\u064e\u062c\u064e\u0631\u064e\u0629\u064e \u0627\u0644\u0652\u0645\u064e\u0644\u0652\u0639\u064f\u0648\u0652\u0646\u064e\u0629\u064e (al-Isr\u0101\u2019/17: 60)\nKata asy-syajarah diambil dari syajara-yasyjuru-syajran, yang artinya mengikat. Syajaratun berarti satu pohon. Kata syajarah biasa digunakan dalam arti pohon kayu. Ia digunakan juga dalam arti garis keturunan.\nKata al-mal\u2019\u016bnah bentuk isim maf\u2019\u016bl dari la\u2019ana-yal\u2019anu-la\u2019nan, yang artinya mengutuk. Al-Mal\u2019\u016bnah artinya yang dikutuk, atau yang terkutuk.\nBanyak ulama memahami al-syajarah al-mal\u2019\u016bnah dalam arti pohon kayu yang terkutuk. Tidak ditemukan dalam Al-Qur\u2019an adanya pohon tertentu yang disifati dengan pohon terkutuk, tetapi terdapat uraian tentang pohon yang tumbuh di dasar Jahanam, yaitu pohon Zaqq\u016bm dan sebagaimana telah diketahui bahwa Jahanam adalah tempat orang-orang yang terkutuk. Sehingga al-syajarah al-mal\u2019\u016bnah dapat dipahami sebagai pohon yang berada di tempat yang terkutuk. Dapat pula kata terkutuk menjadi sifat dari pohon tersebut, dalam arti pohon yang tercela, karena mayangnya disifati seperti kepala setan (al-\u1e62\u0101ff\u0101t/37: 65) dan bahwa pohon itu seperti kotoran minyak yang mendidih dalam perut (ad-Dukh\u0101n/44: 45).",
        "sabab_nuzul": null,
        "conclusion": null
    }
}