{
    "id": 2073,
    "surah_id": 17,
    "ayah": 44,
    "page": 286,
    "quarter_hizb": 29.25,
    "juz": 15,
    "manzil": 4,
    "arabic": "\u062a\u064f\u0633\u064e\u0628\u0651\u0650\u062d\u064f \u0644\u064e\u0647\u064f \u0627\u0644\u0633\u0651\u064e\u0645\u0670\u0648\u0670\u062a\u064f \u0627\u0644\u0633\u0651\u064e\u0628\u0652\u0639\u064f \u0648\u064e\u0627\u0644\u0652\u0627\u064e\u0631\u0652\u0636\u064f \u0648\u064e\u0645\u064e\u0646\u0652 \u0641\u0650\u064a\u0652\u0647\u0650\u0646\u0651\u064e\u06d7 \u0648\u064e\u0627\u0650\u0646\u0652 \u0645\u0651\u0650\u0646\u0652 \u0634\u064e\u064a\u0652\u0621\u064d \u0627\u0650\u0644\u0651\u064e\u0627 \u064a\u064f\u0633\u064e\u0628\u0651\u0650\u062d\u064f \u0628\u0650\u062d\u064e\u0645\u0652\u062f\u0650\u0647\u0656 \u0648\u064e\u0644\u0670\u0643\u0650\u0646\u0652 \u0644\u0651\u064e\u0627 \u062a\u064e\u0641\u0652\u0642\u064e\u0647\u064f\u0648\u0652\u0646\u064e \u062a\u064e\u0633\u0652\u0628\u0650\u064a\u0652\u062d\u064e\u0647\u064f\u0645\u0652\u06d7 \u0627\u0650\u0646\u0651\u064e\u0647\u0657 \u0643\u064e\u0627\u0646\u064e \u062d\u064e\u0644\u0650\u064a\u0652\u0645\u064b\u0627 \u063a\u064e\u0641\u064f\u0648\u0652\u0631\u064b\u0627",
    "latin": "Tusabbi\u1e25u lahus-sam\u0101w\u0101tus-sab\u2018u wal-ar\u1e0du wa man f\u012bhinn(a), wa im min syai'in ill\u0101 yusabbi\u1e25u bi\u1e25amdih\u012b wa l\u0101kil l\u0101 tafqah\u016bna tasb\u012b\u1e25ahum, innah\u016b k\u0101na \u1e25al\u012bman gaf\u016br\u0101(n).",
    "translation": "Langit yang tujuh, bumi, dan semua yang ada di dalamnya senantiasa bertasbih kepada Allah. Tidak ada sesuatu pun, kecuali senantiasa bertasbih dengan memuji-Nya, tetapi kamu tidak mengerti tasbih mereka. Sesungguhnya Dia Maha Penyantun lagi Maha Pengampun.",
    "no_footnote": null,
    "footnotes": null,
    "surah": {
        "id": 17,
        "arabic": " \u0627\u0644\u0627\u0633\u0631\u0627\u06e4\u0621",
        "latin": "Al-Isr\u0101'",
        "transliteration": "Al-Isra'",
        "translation": "Memperjalankan di Malam Hari",
        "num_ayah": 111,
        "page": 282,
        "location": "Makkiyah"
    },
    "tafsir": {
        "wajiz": "Langit yang tujuh, bumi, dan semua yang ada di dalamnya yakni para malaikat, manusia, jin, dan makhluk lainnya baik yang berakal maupun yang tidak berakal senantiasa dan terus-menerus bertasbih kepada Allah dengan ucapan maupun keadaan yang menunjukkan kepatuhan dan ketundukan kepada hukum Allah. Dan tidak ada sesuatu pun dari mereka yang ada di langit dan di bumi melainkan bertasbih dengan memujiNya, dengan caranya, tetapi kamu sekalian tidak mengerti tasbih mereka. Sungguh, Dia Maha Penyantun, Maha Pengampun kepada hamba-Nya yang berbuat dosa dan mau bertobat kepada-Nya.",
        "tahlili": "Kemudian Allah swt menjelaskan betapa luasnya kerajaan-Nya dan betapa tinggi kekuasaan-Nya. Langit yang tujuh, bumi, dan semua makhluk yang ada di dalamnya bertasbih dan mengagungkan asma-Nya, serta me-nyaksikan bukti-bukti keesaan-Nya. Tidak ada satu makhluk pun melainkan bertasbih dengan memuji-Nya. Siapapun yang mau memperhatikan makhluk atau benda yang ada di sekelilingnya, tentu akan mengetahui bahwa baik makhluk hidup ataupun benda-benda mati seluruhnya tunduk dan takluk pada ketetapan atau ketentuan Allah yang tidak bisa dihindari. \nSebagai contoh adalah hukum gaya tarik (gravitasi). Hukum ini berlaku umum dan mempengaruhi semua benda yang ada, apakah benda itu gas, barang cair, benda padat, ataupun makhluk hidup. Semuanya terpengaruh hukum gaya tarik itu. Hal ini menunjukkan bahwa hukum gaya tarik yang mempunyai kekuatan yang begitu besar pengaruhnya tidak mungkin terjadi secara kebetulan saja, melainkan ada yang menciptakan dan mengontrolnya setiap saat. Penciptanya tentu Yang Mahaperkasa dan Mahakuasa, yaitu Allah swt.\nHukum gaya tarik ini cukup menjadi bukti bahwa semua benda dan makhluk yang ada di muka bumi ini tunduk dan takluk pada hukum-hukum dan ketentuan-ketentuan Allah. Apabila seseorang ingin melepaskan diri dari pengaruh gaya tarik (gravitasi) bumi, ia harus mempergunakan ilmu pengetahuan yang dapat melepaskan dirinya dari gaya tarik itu. Untuk menguasai ilmu itu, ia harus menguasai hukum aksi dan reaksi, yaitu aksi yang dapat mengatasi gaya tarik bumi itu, sehingga ia bisa melepaskan diri dari pengaruh kekuatannya. Keberhasilan orang melepaskan diri dari gaya tarik bumi bukan berarti bahwa ia tidak tunduk pada hukum Allah, melainkan ia dapat melepaskan dirinya lantaran tunduk pada hukum alam yang lain. Hal ini menunjukkan betapa luas kekuasaan Allah yang menciptakan hukum-hukum alam. Itupun baru hukum-hukum alam yang telah diketahui manusia, belum lagi hukum-hukum alam yang lain yang masih belum diketahui manusia.\nKhusus bagi manusia, makhluk yang berakal, karena terdiri dari jasmani dan rohani, maka jasmaninya tunduk kepada hukum-hukum alam tersebut, baik dikehendaki atau tidak. Sedangkan rohaninya dituntut mengikuti bimbingan Allah yang disampaikan melalui wahyu kepada rasul-Nya.\nPara ulama ahli ilmu kalam mengatakan bahwa Allah, Pencipta alam, adalah w\u0101jibul wuj\u016bd (wajib ada-Nya), sedang makhluk-makhluk disebut mumkin\u0101t al-wuj\u016bd (yang mungkin adanya). Al-Mumkin\u0101t ini dibagi menjadi berakal dan yang tidak berakal. Makhluk yang berakal mengakui keesaan Allah karena mereka dapat memperhatikan tanda-tanda kekuasaan Allah yang ada di langit, di bumi, dan pada semua benda-benda yang ada pada keduanya. Oleh karena itu, bibir manusia yang beriman selalu bertasbih memuji Allah. Sedang makhluk yang tidak berakal tunduk kepada a\u1e25k\u0101m kauniyyah (yaitu hukum-hukum alam yang diciptakan Allah yang berlaku terhadap benda-benda alam itu). Mereka bertasbih memuji Allah dengan berperilaku sesuai dengan keadaan yang ditakdirkan bagi mereka masing-masing.\nAllah lalu menjelaskan bahwa kaum musyrikin Mekah tidak mengetahui bahwa benda-benda alam dan semua makhluk yang ada bertasbih memuji-Nya, karena mereka tidak mau mengakui keesaan Allah. Bahkan, mereka mengadakan tuhan-tuhan yang lain yang dipersekutukan dengan Allah. Kaum musyrikin tidak mau melihat dan memikirkan ketundukan alam semesta dan segala benda-benda serta makhluk di bumi kepada hukum-hukum alam itu, sebagai pencerminan bagi tasbih mereka memuji Allah swt.\nMelihat pada beberapa Surah Al-Qur\u2019an (al-Baqarah/2: 29; al-An\u2018\u0101m/6: 125), maka langit terbagi dalam tujuh lapis. Apabila kita asumsikan secara ilmiah bahwa kata \u201dlangit\u201d di sini adalah atmosfer, langit yang paling dekat dengan bumi, dan bukan langit antariksa, maka ilmu pengetahuan yang dimiliki manusia saat ini mengkonfirmasikannya. \nPembagian menjadi tujuh lapis didasarkan pada perbedaan kandungan kimia dan suhu udara yang berbeda-beda di tiap lapisan. Ketujuh lapisan tersebut dinamakan Troposfer, Stratosfer, Mesosfer, Thermosfer, Exosfer, Ionosfer dan Magnetosfer. Penyebutan tujuh lapis langit ini juga diungkapkan pada Surah N\u016bh/71: 15 dan an-Naba\u2019/78: 12. Selanjutnya dalam Surah Fu\u1e63\u1e63ilat/41: 11-12 dinyatakan bawa tiap lapis langit mempunyai urusannya sendiri-sendiri. Hal ini dikonfirmasi ilmu pengetahuan, misalnya ada lapisan yang bertugas untuk membuat hujan, mencegah kerusakan akibat radiasi, memantulkan gelombang radio, sampai kepada lapisan yang mencegah agar meteor tidak merusak bumi.\nAyat ini secara simbolik menunjukkan bahwa tasbihnya benda-benda di alam secara fisik adalah kepatuhannya (secara sukarela) terhadap hukum Allah yang mengaturnya atau disebut juga dengan sunatullah. Hukum Allah itu dikenal manusia sebagai hukum alam atau kaidah ilmu pengetahuan yang diketahui manusia (para ahli) dan berlaku pada semua makhluk termasuk manusia (secara fisik). \nAdapun yang dimaksud dengan \u201ckamu sekalian tidak mengerti tasbih mereka\u201d adalah sebagian besar manusia tidak mengerti sunatullah atau hukum alam yang hanya dimengerti oleh para ahlinya. Jadi hanya orang yang berakal budi dan berpengetahuanlah yang bisa mengerti hukum alam dan dengan demikian juga bisa mengerti akan tasbih dari benda-benda antara langit yang tujuh dan bumi semuanya.\nDi akhir ayat, Allah swt menegaskan bahwa sesungguhnya Dia Maha Penyantun. Oleh karena itu, Dia tidak segera menurunkan azab atas kemusyrikan kaum musyrikin Mekah dan atas kelalaian mereka tidak mau memperhatikan tanda-tanda kekuasaan Allah Yang Maha Pengampun. Di antara sifat-sifat kemahapengampunan Allah ialah masih membuka pintu tobat selebar-lebarnya kepada siapa saja yang meminta ampunan-Nya. Allah tidak akan menghukum mereka karena dosa-dosa yang mereka lakukan, jika bertobat dan menyesali perbuatan mereka dengan penyesalan yang sebenar-benarnya, betul-betul menghentikan kemusyrikan, kembali kepada agama tauhid, dan mengikuti bimbingan wahyu yang diturunkan kepada rasul-Nya.",
        "intro_surah": "Surah ini terdiri dari 111 ayat, dan termasuk golongan surah-surah Makkiyah. Dinamakan Surah al-Isr\u0101\u2019 yang berarti \u201cmemperjalankan di malam hari\u201d karena dalam surah itu disebutkan peristiwa Isr\u0101\u2019 Nabi Muhammad saw dari Masjidilharam di Mekah, ke Masjidil Aqsa di Baitul Maqdis. Peristiwa ini diabadikan pada ayat pertama Surah al-Isr\u0101\u2019.\nSurah ini dinamakan pula Surah Ban\u012b Isr\u0101\u2019\u012bl yang berarti \u201cKeturunan Israil\u201d, karena pada bagian permulaan, yaitu pada ayat yang kedua sampai dengan ayat kedelapan, dan kemudian pada bagian akhir surah, yaitu pada ayat 101 sampai dengan ayat 104, disebutkan tentang kisah Bani Israil. Dijelaskan dalam ayat-ayat tersebut bagaimana bangsa Israil setelah mereka menjadi bangsa yang kuat dan besar, menjadi bangsa yang terhina, karena menyimpang dari ajaran Allah swt.\nKisah Isr\u0101\u2019 dikaitkan dengan kisah Bani Israil pada surah ini untuk memberi peringatan bahwa apabila umat meninggalkan ajaran-ajaran agamanya, akan mengalami keruntuhan sebagaimana halnya Bani Israil.\n\nPokok-pokok Isinya\n1. \tKeimanan:\nAllah tidak mempunyai anak, baik berupa manusia ataupun malaikat; Allah pasti memberi rezeki kepada manusia; Allah mempunyai nama-nama yang paling baik; Al-Qur\u2019an adalah wahyu dari Allah yang memberikan petunjuk, penawar dan rahmat bagi orang-orang yang beriman; adanya Padang Mahsyar dan hari kebangkitan.\n2. \tHukum:\nLarangan-larangan Allah tentang: menghilangkan nyawa manusia; berzina; mempergunakan harta anak yatim untuk keperluan sendiri kecuali dengan cara yang dibenarkan agama; berbuat hanya karena mengikuti orang lain (melakukan sesuatu tanpa ilmu); dan durhaka kepada ibu bapak. Perintah Allah tentang: memenuhi janji, menyem-purnakan timbangan dan takaran; dan melakukan salat lima waktu tepat pada waktunya.\n3. \tKisah:\nKisah Isr\u0101 Nabi Muhammad saw, dan kisah tentang Bani Israil.\n4. \tLain-lain:\nPertanggungjawaban manusia terhadap amal perbuatannya; beberapa faktor yang menyebabkan kejayaan dan kehancuran suatu umat, petunjuk-petunjuk tentang perlakuan terhadap orang tua, tetangga, dan masyarakat; manusia makhluk Allah swt yang mulia, namun manusia juga mempunyai sifat-sifat yang tidak baik seperti suka ingkar, putus asa dan terburu-buru; dan persoalan roh.",
        "outro_surah": null,
        "munasabah_prev_surah": "HUBUNGAN SURAH AN-NA\u1e24L DENGAN \nSURAH AL-ISR\u0100\u2019\n\n1. \tDalam Surah an-Na\u1e25l, Allah menyebutkan perselisihan orang-orang Yahudi tentang hari Sabat, kemudian pada Surah al-Isr\u0101\u2019 dijelaskan syariat orang Yahudi yang ditetapkan bagi mereka dalam Taurat.\n2. \tSesudah Allah swt menganjurkan kepada Nabi Muhammad saw dalam Surah an-Na\u1e25l agar bersabar dan melarang beliau bersedih atau berkecil hati disebabkan tipu daya orang-orang musyrik, maka pada Surah al-Isr\u0101\u2019 Allah menerangkan kemuliaan Nabi Muhammad saw serta martabatnya yang tinggi di hadapan Allah swt.\n3. \tDalam Surah an-Na\u1e25l Allah menerangkan bermacam-macam nikmat-Nya, dimana kebanyakan manusia tidak mensyukurinya. Dalam Surah al-Isr\u0101\u2019 disebutkan lagi nikmat Allah yang lebih besar yang diberikan kepada Bani Israil. Tetapi mereka tidak mensyukurinya, bahkan mereka berbuat kerusakan di muka bumi.\n4. \tDalam Surah an-Na\u1e25l, Allah mengatakan bahwa madu yang keluar dari lebah merupakan minuman yang mengandung obat bagi manusia. Dalam Surah al-Isr\u0101\u2019 diterangkan bahwa Al-Qur\u2019an pun menjadi obat dan penyembuh penyakit hati, dan rahmat bagi orang-orang yang beriman.\n ",
        "munasabah_prev_theme": "Dalam ayat-ayat yang lalu, Allah swt mengingatkan kaum Muslimin agar berhati-hati dalam menerima pendapat yang tidak diketahui kebenarannya. Mereka juga dilarang berlaku sombong. Dalam ayat-ayat ini, Allah swt memberikan alasan yang kuat tentang kesalahan penyembahan terhadap patung-patung yang dianggap kaum musyrikin sebagai perantara yang dapat mendekatkan diri mereka kepada Allah. Sebab, yang patut disembah hanyalah Allah Yang Maha Esa, yang mempunyai kekuatan tertinggi di langit dan di bumi serta di atas seluruh benda-benda ciptaan-Nya.",
        "theme_group": "SANGGAHAN TERHADAP ORANG-ORANG\nYANG MEMPERSEKUTUKAN ALLAH",
        "kosakata": "Kosakata: Nuf\u016bran \u0646\u064f\u0641\u064f\u0648\u0652\u0631\u064b\u0627 (al-Isr\u0101\u2019/17: 41)\nKata nuf\u016bran adalah bentuk ma\u1e63dar dari nafara-yanfuru/yanfiru-nuf\u016bran-nif\u0101ran-naf\u012bran, naf\u0101ran yang artinya terkejut karena sesuatu lalu lari, kejauhan, kebangkitan dengan bergegas, atau dengan penuh semangat menuju sesuatu, atau meninggalkan sesuatu dengan tergesa-gesa karena takut, atau tidak menyenangi. Maksud ayat 41 Surah al-Isr\u0101\u2019 ini adalah \u201dmeninggalkan dengan bergegas karena tidak senang\u201d.",
        "sabab_nuzul": null,
        "conclusion": "1. \tAnggapan kaum musyrikin Mekah bahwa Allah swt mempunyai anak perempuan yang berupa malaikat adalah anggapan yang tidak benar.\n2. \tAllah swt telah memberikan peringatan kepada mereka berulang kali dengan perantaraan wahyu-Nya, agar beragama tauhid. Akan tetapi, mereka tidak menghiraukannya, karena hati mereka telah diselubungi oleh noda-noda kemusyrikan dan kemaksiatan.\n3. \tAnggapan mereka bahwa berhala-berhala yang mereka persekutukan dengan Allah itu dapat menjadi perantara, adalah anggapan yang tidak benar.\n4. \tLangit, bumi, dan semua isinya tunduk pada hukum alam yang diciptakan Allah. Oleh karena itu, manusia harus tunduk dan patuh pada peraturan Allah.\n5. \tMakhluk yang berakal seperti manusia dapat mengetahui keesaan Allah dengan memperhatikan dan memikirkan hukum-hukum alam yang diciptakan-Nya. Oleh karena itu, mereka bertasbih memuji Allah dengan lisannya.\n6. \tBenda-benda ciptaan Allah yang tidak berakal bertasbih memuji Allah dengan perilakunya."
    }
}