{
    "id": 2046,
    "surah_id": 17,
    "ayah": 17,
    "page": 283,
    "quarter_hizb": 29,
    "juz": 15,
    "manzil": 4,
    "arabic": "\u0648\u064e\u0643\u064e\u0645\u0652 \u0627\u064e\u0647\u0652\u0644\u064e\u0643\u0652\u0646\u064e\u0627 \u0645\u0650\u0646\u064e \u0627\u0644\u0652\u0642\u064f\u0631\u064f\u0648\u0652\u0646\u0650 \u0645\u0650\u0646\u0652\u06e2 \u0628\u064e\u0639\u0652\u062f\u0650 \u0646\u064f\u0648\u0652\u062d\u064d\u06d7 \u0648\u064e\u0643\u064e\u0641\u0670\u0649 \u0628\u0650\u0631\u064e\u0628\u0651\u0650\u0643\u064e \u0628\u0650\u0630\u064f\u0646\u064f\u0648\u0652\u0628\u0650 \u0639\u0650\u0628\u064e\u0627\u062f\u0650\u0647\u0656 \u062e\u064e\u0628\u0650\u064a\u0652\u0631\u064b\u0627\u06e2 \u0628\u064e\u0635\u0650\u064a\u0652\u0631\u064b\u0627",
    "latin": "Wa kam ahlakn\u0101 minal-qur\u016bni mim ba\u2018di n\u016b\u1e25(in), wa kaf\u0101 birabbika bi\u017cun\u016bbi \u2018ib\u0101dih\u012b khab\u012bram ba\u1e63\u012br\u0101(n).",
    "translation": "Banyak generasi setelah Nuh yang telah Kami binasakan. Cukuplah Tuhanmu sebagai Zat Yang Maha Teliti lagi Maha Melihat dosa-dosa hamba-Nya.",
    "no_footnote": null,
    "footnotes": null,
    "surah": {
        "id": 17,
        "arabic": " \u0627\u0644\u0627\u0633\u0631\u0627\u06e4\u0621",
        "latin": "Al-Isr\u0101'",
        "transliteration": "Al-Isra'",
        "translation": "Memperjalankan di Malam Hari",
        "num_ayah": 111,
        "page": 282,
        "location": "Makkiyah"
    },
    "tafsir": {
        "wajiz": "Dan sesuai dengan ketetapan itu dinyatakan, \u201cBerapa banyaknya kaum setelah kebinasaan kaum Nuh, telah Kami binasakan disebabkan oleh kedurhakaan mereka. Dan cukuplah Tuhanmu Yang Maha Mengetahui, Maha Melihat dosa hamba-hamba-Nya. Tidak ada yang tersembunyi dan terluput dari pembalasan-Nya.",
        "tahlili": "Allah lalu mengisahkan kaum-kaum yang mengalami nasib yang sama setelah Nuh. Mereka dibinasakan karena pembangkangan mereka terhadap utusan-utusan Allah yang ditugasi untuk menghentikan mereka dan mengajak untuk kembali menaati Allah. Ayat ini sebagai penegasan terhadap ayat yang lalu, bahwa tiap kaum yang tetap membangkang setelah datangnya rasul yang memberi peringatan kepada mereka, pasti akan mengalami nasib buruk yang sama dengan umat-umat terdahulu.\nDi akhir ayat ini, Allah swt menyebutkan bahwa balasan yang serupa itu adalah balasan yang bijaksana dan adil, karena Allah telah memberi peringatan dan mengetahui tindak-tanduk mereka. Allah Maha Melihat dosa hamba-hamba-Nya.",
        "intro_surah": "Surah ini terdiri dari 111 ayat, dan termasuk golongan surah-surah Makkiyah. Dinamakan Surah al-Isr\u0101\u2019 yang berarti \u201cmemperjalankan di malam hari\u201d karena dalam surah itu disebutkan peristiwa Isr\u0101\u2019 Nabi Muhammad saw dari Masjidilharam di Mekah, ke Masjidil Aqsa di Baitul Maqdis. Peristiwa ini diabadikan pada ayat pertama Surah al-Isr\u0101\u2019.\nSurah ini dinamakan pula Surah Ban\u012b Isr\u0101\u2019\u012bl yang berarti \u201cKeturunan Israil\u201d, karena pada bagian permulaan, yaitu pada ayat yang kedua sampai dengan ayat kedelapan, dan kemudian pada bagian akhir surah, yaitu pada ayat 101 sampai dengan ayat 104, disebutkan tentang kisah Bani Israil. Dijelaskan dalam ayat-ayat tersebut bagaimana bangsa Israil setelah mereka menjadi bangsa yang kuat dan besar, menjadi bangsa yang terhina, karena menyimpang dari ajaran Allah swt.\nKisah Isr\u0101\u2019 dikaitkan dengan kisah Bani Israil pada surah ini untuk memberi peringatan bahwa apabila umat meninggalkan ajaran-ajaran agamanya, akan mengalami keruntuhan sebagaimana halnya Bani Israil.\n\nPokok-pokok Isinya\n1. \tKeimanan:\nAllah tidak mempunyai anak, baik berupa manusia ataupun malaikat; Allah pasti memberi rezeki kepada manusia; Allah mempunyai nama-nama yang paling baik; Al-Qur\u2019an adalah wahyu dari Allah yang memberikan petunjuk, penawar dan rahmat bagi orang-orang yang beriman; adanya Padang Mahsyar dan hari kebangkitan.\n2. \tHukum:\nLarangan-larangan Allah tentang: menghilangkan nyawa manusia; berzina; mempergunakan harta anak yatim untuk keperluan sendiri kecuali dengan cara yang dibenarkan agama; berbuat hanya karena mengikuti orang lain (melakukan sesuatu tanpa ilmu); dan durhaka kepada ibu bapak. Perintah Allah tentang: memenuhi janji, menyem-purnakan timbangan dan takaran; dan melakukan salat lima waktu tepat pada waktunya.\n3. \tKisah:\nKisah Isr\u0101 Nabi Muhammad saw, dan kisah tentang Bani Israil.\n4. \tLain-lain:\nPertanggungjawaban manusia terhadap amal perbuatannya; beberapa faktor yang menyebabkan kejayaan dan kehancuran suatu umat, petunjuk-petunjuk tentang perlakuan terhadap orang tua, tetangga, dan masyarakat; manusia makhluk Allah swt yang mulia, namun manusia juga mempunyai sifat-sifat yang tidak baik seperti suka ingkar, putus asa dan terburu-buru; dan persoalan roh.",
        "outro_surah": null,
        "munasabah_prev_surah": "HUBUNGAN SURAH AN-NA\u1e24L DENGAN \nSURAH AL-ISR\u0100\u2019\n\n1. \tDalam Surah an-Na\u1e25l, Allah menyebutkan perselisihan orang-orang Yahudi tentang hari Sabat, kemudian pada Surah al-Isr\u0101\u2019 dijelaskan syariat orang Yahudi yang ditetapkan bagi mereka dalam Taurat.\n2. \tSesudah Allah swt menganjurkan kepada Nabi Muhammad saw dalam Surah an-Na\u1e25l agar bersabar dan melarang beliau bersedih atau berkecil hati disebabkan tipu daya orang-orang musyrik, maka pada Surah al-Isr\u0101\u2019 Allah menerangkan kemuliaan Nabi Muhammad saw serta martabatnya yang tinggi di hadapan Allah swt.\n3. \tDalam Surah an-Na\u1e25l Allah menerangkan bermacam-macam nikmat-Nya, dimana kebanyakan manusia tidak mensyukurinya. Dalam Surah al-Isr\u0101\u2019 disebutkan lagi nikmat Allah yang lebih besar yang diberikan kepada Bani Israil. Tetapi mereka tidak mensyukurinya, bahkan mereka berbuat kerusakan di muka bumi.\n4. \tDalam Surah an-Na\u1e25l, Allah mengatakan bahwa madu yang keluar dari lebah merupakan minuman yang mengandung obat bagi manusia. Dalam Surah al-Isr\u0101\u2019 diterangkan bahwa Al-Qur\u2019an pun menjadi obat dan penyembuh penyakit hati, dan rahmat bagi orang-orang yang beriman.\n ",
        "munasabah_prev_theme": "Dalam ayat-ayat yang lalu, Allah swt menjelaskan bahwa manusia dalam menempuh kehidupan dunia diberi kitab sebagai pedoman, agar mereka dapat terbimbing ke jalan yang mengarahkan mereka kepada kebahagiaan dunia dan akhirat. Dalam ayat-ayat berikut ini, Allah menjelaskan adanya kitab yang mencatat amalan-amalan manusia secara teliti, sedikit pun tidak ada yang ketinggalan. Catatan yang termuat dalam kitab itu sangat erat hubungannya dengan ketentuan yang termuat dalam kitab yang menjadi pedoman mereka.",
        "theme_group": "SETIAP ORANG BERTANGGUNG JAWAB\nATAS PERBUATANNYA",
        "kosakata": "Kosakata: W\u0101zirah \u0648\u064e\u0627\u0632\u0650\u0631\u064e\u0629\u064c (al-Isr\u0101\u2019/17: 15)\nKata w\u0101zirah terambil dari kata wizr, yang mulanya berarti berat. Dari makna ini lahir makna baru yaitu dosa. Dosa dikatakan sebagai berat karena hal ini akan membebani manusia kelak di hari kemudian, atau di akhirat. Dari kata w\u0101zirah juga muncul kata waz\u012br, yang artinya menteri. Jabatan ini dianggap berat karena menteri itu merupakan pejabat yang mengemban tugas berat dalam melaksanakan tugasnya. Hal ini dinilai berat karena si pejabat atau menteri (wazir) itu harus bertanggung jawab pada atasan yang telah menunjuknya dan juga kepada rakyat, serta yang terberat sebenarnya adalah bertanggung jawab pada diri sendiri dan kepada Allah.\n",
        "sabab_nuzul": null,
        "conclusion": "1. \tSemua amalan manusia akan dicatat dalam sebuah kitab. Catatan itu menjadi bukti bagi mereka dan akan diperlihatkan di hari pembalasan.\n2. \tCatatan itu menjadi bukti yang tidak bisa dibantah karena merupakan rekaman dari perbuatan mereka sendiri.\n3. \tBarang siapa yang berbuat sesuai dengan hidayah Allah, ia sendirilah yang akan menerima pahalanya, sedangkan siapa yang berbuat sesuatu yang menyimpang dari hidayah Allah, maka ia sendirilah yang akan menerima akibatnya. Hal ini menunjukkan ketidakmungkinan seseorang menanggung dosa orang lain, dan tidak mungkin seseorang dijatuhi hukuman sebelum diberi ketentuan yang menjadi suatu peraturan.\n4. \tOrang-orang yang suka hidup bermewah-mewahan dan meninggalkan berbagai kewajiban sebagai hamba akan diazab sampai binasa."
    }
}