{
    "id": 2098,
    "surah_id": 17,
    "ayah": 69,
    "page": 289,
    "quarter_hizb": 29.5,
    "juz": 15,
    "manzil": 4,
    "arabic": "\u0627\u064e\u0645\u0652 \u0627\u064e\u0645\u0650\u0646\u0652\u062a\u064f\u0645\u0652 \u0627\u064e\u0646\u0652 \u064a\u0651\u064f\u0639\u0650\u064a\u0652\u062f\u064e\u0643\u064f\u0645\u0652 \u0641\u0650\u064a\u0652\u0647\u0650 \u062a\u064e\u0627\u0631\u064e\u0629\u064b \u0627\u064f\u062e\u0652\u0631\u0670\u0649 \u0641\u064e\u064a\u064f\u0631\u0652\u0633\u0650\u0644\u064e \u0639\u064e\u0644\u064e\u064a\u0652\u0643\u064f\u0645\u0652 \u0642\u064e\u0627\u0635\u0650\u0641\u064b\u0627 \u0645\u0651\u0650\u0646\u064e \u0627\u0644\u0631\u0651\u0650\u064a\u0652\u062d\u0650 \u0641\u064e\u064a\u064f\u063a\u0652\u0631\u0650\u0642\u064e\u0643\u064f\u0645\u0652 \u0628\u0650\u0645\u064e\u0627 \u0643\u064e\u0641\u064e\u0631\u0652\u062a\u064f\u0645\u0652\u06d9 \u062b\u064f\u0645\u0651\u064e \u0644\u064e\u0627 \u062a\u064e\u062c\u0650\u062f\u064f\u0648\u0652\u0627 \u0644\u064e\u0643\u064f\u0645\u0652 \u0639\u064e\u0644\u064e\u064a\u0652\u0646\u064e\u0627 \u0628\u0650\u0647\u0656 \u062a\u064e\u0628\u0650\u064a\u0652\u0639\u064b\u0627",
    "latin": "Am amintum ay yu\u2018\u012bdakum f\u012bhi t\u0101ratan ukhr\u0101 fa yursila \u2018alaikum q\u0101\u1e63ifam minar-r\u012b\u1e25i fa yugriqakum bim\u0101 kafartum, \u1e61umma l\u0101 tajid\u016b lakum \u2018alain\u0101 bih\u012b tab\u012b\u2018\u0101(n).",
    "translation": "Ataukah kamu merasa aman bahwa Dia tidak akan mengembalikanmu ke laut sekali lagi, lalu mengirimkan angin topan kepadamu dan menenggelamkanmu disebabkan kekufuranmu, kemudian kamu tidak akan mendapati seorang penolong pun dalam menghadapi (siksaan) Kami? ",
    "no_footnote": null,
    "footnotes": null,
    "surah": {
        "id": 17,
        "arabic": " \u0627\u0644\u0627\u0633\u0631\u0627\u06e4\u0621",
        "latin": "Al-Isr\u0101'",
        "transliteration": "Al-Isra'",
        "translation": "Memperjalankan di Malam Hari",
        "num_ayah": 111,
        "page": 282,
        "location": "Makkiyah"
    },
    "tafsir": {
        "wajiz": "Ataukah kamu merasa aman bahwa Dia suatu waktu dengan kehendak dan kekuasaan-Nya akan mengembalikan kamu ke laut sekali lagi, lalu setelah kamu berada di tengah lautan, Dia tiupkan angin topan kepada kamu dan ditenggelamkan-Nya kamu di tengah lautan atau di tempat kamu diselamatkan dahulu disebabkan kekafiranmu? Kemudian walaupun kamu berusaha dengan mengerahkan segenap kemampuanmu, kamu tidak akan mendapatkan seorang penuntut pun yang dapat menuntut balas atau menolong kamu dalam menghadapi siksaan Kami.",
        "tahlili": "Selanjutnya dijelaskan bahwa Allah berkuasa untuk mengembalikan orang-orang yang mengingkari nikmat-Nya itu ke lautan kembali, setelah mereka merasa aman di darat. Apakah mereka merasa aman dari bencana yang akan menimpa mereka di lautan setelah mereka sampai ke daratan. Allah berkuasa mengembalikan mereka ke lautan kembali, dengan mengirim angin topan dan tsunami yang sangat dahsyat. Angin itu menyapu mereka dari daratan, sehingga mereka akan digulung oleh gelombang yang dapat menenggelamkan mereka. Pada saat-saat mengalami musibah yang sangat dahsyat itu, mereka tidak akan mendapatkan seorang pun yang dapat menolong untuk melepaskan mereka dari siksa Allah.",
        "intro_surah": "Surah ini terdiri dari 111 ayat, dan termasuk golongan surah-surah Makkiyah. Dinamakan Surah al-Isr\u0101\u2019 yang berarti \u201cmemperjalankan di malam hari\u201d karena dalam surah itu disebutkan peristiwa Isr\u0101\u2019 Nabi Muhammad saw dari Masjidilharam di Mekah, ke Masjidil Aqsa di Baitul Maqdis. Peristiwa ini diabadikan pada ayat pertama Surah al-Isr\u0101\u2019.\nSurah ini dinamakan pula Surah Ban\u012b Isr\u0101\u2019\u012bl yang berarti \u201cKeturunan Israil\u201d, karena pada bagian permulaan, yaitu pada ayat yang kedua sampai dengan ayat kedelapan, dan kemudian pada bagian akhir surah, yaitu pada ayat 101 sampai dengan ayat 104, disebutkan tentang kisah Bani Israil. Dijelaskan dalam ayat-ayat tersebut bagaimana bangsa Israil setelah mereka menjadi bangsa yang kuat dan besar, menjadi bangsa yang terhina, karena menyimpang dari ajaran Allah swt.\nKisah Isr\u0101\u2019 dikaitkan dengan kisah Bani Israil pada surah ini untuk memberi peringatan bahwa apabila umat meninggalkan ajaran-ajaran agamanya, akan mengalami keruntuhan sebagaimana halnya Bani Israil.\n\nPokok-pokok Isinya\n1. \tKeimanan:\nAllah tidak mempunyai anak, baik berupa manusia ataupun malaikat; Allah pasti memberi rezeki kepada manusia; Allah mempunyai nama-nama yang paling baik; Al-Qur\u2019an adalah wahyu dari Allah yang memberikan petunjuk, penawar dan rahmat bagi orang-orang yang beriman; adanya Padang Mahsyar dan hari kebangkitan.\n2. \tHukum:\nLarangan-larangan Allah tentang: menghilangkan nyawa manusia; berzina; mempergunakan harta anak yatim untuk keperluan sendiri kecuali dengan cara yang dibenarkan agama; berbuat hanya karena mengikuti orang lain (melakukan sesuatu tanpa ilmu); dan durhaka kepada ibu bapak. Perintah Allah tentang: memenuhi janji, menyem-purnakan timbangan dan takaran; dan melakukan salat lima waktu tepat pada waktunya.\n3. \tKisah:\nKisah Isr\u0101 Nabi Muhammad saw, dan kisah tentang Bani Israil.\n4. \tLain-lain:\nPertanggungjawaban manusia terhadap amal perbuatannya; beberapa faktor yang menyebabkan kejayaan dan kehancuran suatu umat, petunjuk-petunjuk tentang perlakuan terhadap orang tua, tetangga, dan masyarakat; manusia makhluk Allah swt yang mulia, namun manusia juga mempunyai sifat-sifat yang tidak baik seperti suka ingkar, putus asa dan terburu-buru; dan persoalan roh.",
        "outro_surah": null,
        "munasabah_prev_surah": "HUBUNGAN SURAH AN-NA\u1e24L DENGAN \nSURAH AL-ISR\u0100\u2019\n\n1. \tDalam Surah an-Na\u1e25l, Allah menyebutkan perselisihan orang-orang Yahudi tentang hari Sabat, kemudian pada Surah al-Isr\u0101\u2019 dijelaskan syariat orang Yahudi yang ditetapkan bagi mereka dalam Taurat.\n2. \tSesudah Allah swt menganjurkan kepada Nabi Muhammad saw dalam Surah an-Na\u1e25l agar bersabar dan melarang beliau bersedih atau berkecil hati disebabkan tipu daya orang-orang musyrik, maka pada Surah al-Isr\u0101\u2019 Allah menerangkan kemuliaan Nabi Muhammad saw serta martabatnya yang tinggi di hadapan Allah swt.\n3. \tDalam Surah an-Na\u1e25l Allah menerangkan bermacam-macam nikmat-Nya, dimana kebanyakan manusia tidak mensyukurinya. Dalam Surah al-Isr\u0101\u2019 disebutkan lagi nikmat Allah yang lebih besar yang diberikan kepada Bani Israil. Tetapi mereka tidak mensyukurinya, bahkan mereka berbuat kerusakan di muka bumi.\n4. \tDalam Surah an-Na\u1e25l, Allah mengatakan bahwa madu yang keluar dari lebah merupakan minuman yang mengandung obat bagi manusia. Dalam Surah al-Isr\u0101\u2019 diterangkan bahwa Al-Qur\u2019an pun menjadi obat dan penyembuh penyakit hati, dan rahmat bagi orang-orang yang beriman.\n ",
        "munasabah_prev_theme": "Dalam ayat-ayat yang lalu dijelaskan bahwa Allah memberikan perlindungan kepada hamba-Nya yang benar-benar beriman, dari tipu daya Iblis yang selalu mencari kesempatan untuk menggoda dan menyesatkan mereka dari bimbingan-Nya. Allah juga melindungi mereka dari kejahatan orang-orang yang tergoda oleh Iblis, apabila para hamba itu tetap meminta perlindungan-Nya. Dalam ayat-ayat ini, dijelaskan aneka ragam kenikmatan yang diberikan Allah kepada seluruh manusia, dengan maksud agar mereka memanfaatkannya untuk berbagai keperluan yang diridai Allah dan men-syukuri nikmat-nikmat itu sebagaimana mestinya. ",
        "theme_group": "PERINTAH UNTUK MENSYUKURI NIKMAT ALLAH",
        "kosakata": "1. \u1e24\u0101\u1e63ib\u0101 \u062d\u064e\u0627\u0635\u0650\u0628\u064b\u0627 (al-Isr\u0101\u2019/17: 68)\n\u1e24\u0101\u1e63ib\u0101 artinya batu-batu kecil. Akar katanya adalah (\u062d- \u0635- \u0628). Pada mulanya, kata ini digunakan untuk menunjukkan arti satu jenis dari bagian bumi. Dari sini muncul kata \u1e25a\u1e63b\u0101\u2019 yang artinya batu kerikil, yaitu satu jenis bebatuan. Kata \u1e25a\u1e63bah yang berarti butir-butir kecil yang keluar dari kulit dinamakan demikian karena menyerupai bebatuan kecil.\nKata \u1e25\u0101\u1e63ib\u0101 bisa juga berarti mega yang menghujani bumi dengan butiran-butiran es. Pada ayat yang sedang ditafsirkan ini lebih tepat diartikan dengan batu-batu kerikil.\t\n\n2. Q\u0101\u1e63if\u0101 \u0642\u064e\u0627\u0635\u0650\u0641\u064b\u0627 (al-Isr\u0101\u2019/17: 69)\nAkar katanya terdiri dari ( \u0642- \u0635- \u0641 ) yang berarti pecahnya sesuatu. Al-Q\u0101\u1e63if artinya sesuatu yang gampang pecah. Dengan demikian, q\u0101\u1e63if berarti angin yang sangat kencang yang bisa menghancurkan dan memecahkan benda-benda yang dilaluinya.",
        "sabab_nuzul": null,
        "conclusion": "1. \tDi antara nikmat Allah yang diperuntukkan bagi manusia ialah Allah menggerakkan kapal di lautan sebagai alat pengangkut keperluan hidup mereka.\n2. \tBukti bahwa manusia menurut fitrahnya beragama tauhid ialah apabila mereka sedang berlayar di lautan, kemudian ditimpa badai topan, mereka akan memohon pertolongan kepada Allah Yang Maha Esa. Tetapi apabila manusia terhindar dari bahaya, mereka pun tidak mau berterima kasih kepada Zat yang memberi pertolongan bahkan mereka menyembah tuhan-tuhan lain yang mereka persekutukan dengan Allah.\n3. \tBencana itu termasuk dalam kekuasaan Allah. Dia berkuasa untuk mendatangkan bencana di lautan maupun di daratan. Anggapan manusia bahwa mereka telah aman jika sudah sampai di darat adalah anggapan yang keliru. Sebab, Allah berkuasa menimpakan kembali bahaya gempa bumi di daratan yang disertai angin topan dan tsunami yang dapat menyeret mereka kembali ke lautan."
    }
}