{
    "id": 2096,
    "surah_id": 17,
    "ayah": 67,
    "page": 289,
    "quarter_hizb": 29.5,
    "juz": 15,
    "manzil": 4,
    "arabic": "\u0648\u064e\u0627\u0650\u0630\u064e\u0627 \u0645\u064e\u0633\u0651\u064e\u0643\u064f\u0645\u064f \u0627\u0644\u0636\u0651\u064f\u0631\u0651\u064f \u0641\u0650\u0649 \u0627\u0644\u0652\u0628\u064e\u062d\u0652\u0631\u0650 \u0636\u064e\u0644\u0651\u064e \u0645\u064e\u0646\u0652 \u062a\u064e\u062f\u0652\u0639\u064f\u0648\u0652\u0646\u064e \u0627\u0650\u0644\u0651\u064e\u0627\u0653 \u0627\u0650\u064a\u0651\u064e\u0627\u0647\u064f\u06da \u0641\u064e\u0644\u064e\u0645\u0651\u064e\u0627 \u0646\u064e\u062c\u0651\u0670\u0649\u0643\u064f\u0645\u0652 \u0627\u0650\u0644\u064e\u0649 \u0627\u0644\u0652\u0628\u064e\u0631\u0651\u0650 \u0627\u064e\u0639\u0652\u0631\u064e\u0636\u0652\u062a\u064f\u0645\u0652\u06d7 \u0648\u064e\u0643\u064e\u0627\u0646\u064e \u0627\u0644\u0652\u0627\u0650\u0646\u0652\u0633\u064e\u0627\u0646\u064f \u0643\u064e\u0641\u064f\u0648\u0652\u0631\u064b\u0627",
    "latin": "Wa i\u017c\u0101 massakumu\u1e0d-\u1e0durru fil-ba\u1e25ri \u1e0dalla man tad\u2018\u016bna ill\u0101 iyy\u0101h(u), falamm\u0101 najj\u0101kum ilal-barri a\u2018ra\u1e0dtum, wa k\u0101nal-ins\u0101nu kaf\u016br\u0101(n).",
    "translation": "Apabila kamu ditimpa bahaya di lautan, niscaya hilang semua yang kamu seru, kecuali Dia. Akan tetapi, ketika Dia menyelamatkan kamu ke daratan, kamu berpaling (dari-Nya). Manusia memang selalu ingkar.",
    "no_footnote": null,
    "footnotes": null,
    "surah": {
        "id": 17,
        "arabic": " \u0627\u0644\u0627\u0633\u0631\u0627\u06e4\u0621",
        "latin": "Al-Isr\u0101'",
        "transliteration": "Al-Isra'",
        "translation": "Memperjalankan di Malam Hari",
        "num_ayah": 111,
        "page": 282,
        "location": "Makkiyah"
    },
    "tafsir": {
        "wajiz": "Dan apabila kamu ditimpa bahaya di lautan, diterpa angin kencang atau ombak yang besar, niscaya hilang dari ingatanmu semua berhala dan tuhan-tuhan yang biasa kamu seru, kecuali Dia, kamu hanya mengingat Dia dan bermohon kepada-Nya agar menyelamatkan kamu dari bahaya yang menimpa. Tetapi ketika Dia, Allah, telah menyelamatkan kamu sehingga kamu dapat kembali dengan selamat ke daratan, kamu berpaling dari-Nya, tidak lagi mengesakan-Nya dan tidak lagi bergantung kepada-Nya, karena kamu merasa telah bebas dari bahaya. Dan manusia memang selalu ingkar, tidak mensyukuri nikmat yang dianugerahkan Allah kepada-Nya, kecuali orang-orang yang taat dan mendapat petunjuk-Nya.",
        "tahlili": "Kemudian Allah mengungkapkan keadaan orang-orang kafir ketika ditimpa mara bahaya yang mengancam jiwanya. Mereka tidak dapat mengharapkan pertolongan kecuali dari Allah, yang berkuasa mendatangkan manfaat dan menolak bahaya. Allah swt menyatakan bahwa apabila orang kafir ditimpa mara bahaya di lautan, niscaya hilang harapan mereka untuk meminta bantuan dan pertolongan kepada berhala-berhala, jin, malaikat, pohon-pohon, dan batu-batu yang mereka sembah. Pada saat yang gawat itu, yang mereka ingat hanyalah Allah Yang Maha Esa yang berkuasa dan mampu menghilangkan bahaya itu, maka mereka meminta pertolongan kepada-Nya. Namun, apabila Allah telah mengabulkan permintaan mereka, yakni mereka telah terlepas dari bencana topan dan badai yang hampir menenggelamkan mereka, dan tiba di darat dengan selamat, mereka pun kembali berpaling menjadi orang-orang yang mengingkari nikmat-nikmat Allah dan kembali menyekutukan-Nya dengan tuhan yang lain.\nAllah menegaskan bahwa tabiat manusia cenderung melupakan nikmat yang mereka terima dan selalu tidak beriman atau tidak mau berterima kasih kepada Zat yang memberikan nikmat itu. Ini adalah keanehan yang terdapat pada diri manusia kecuali hamba-Nya yang selalu berada dalam bimbingan dan perlindungan-Nya.",
        "intro_surah": "Surah ini terdiri dari 111 ayat, dan termasuk golongan surah-surah Makkiyah. Dinamakan Surah al-Isr\u0101\u2019 yang berarti \u201cmemperjalankan di malam hari\u201d karena dalam surah itu disebutkan peristiwa Isr\u0101\u2019 Nabi Muhammad saw dari Masjidilharam di Mekah, ke Masjidil Aqsa di Baitul Maqdis. Peristiwa ini diabadikan pada ayat pertama Surah al-Isr\u0101\u2019.\nSurah ini dinamakan pula Surah Ban\u012b Isr\u0101\u2019\u012bl yang berarti \u201cKeturunan Israil\u201d, karena pada bagian permulaan, yaitu pada ayat yang kedua sampai dengan ayat kedelapan, dan kemudian pada bagian akhir surah, yaitu pada ayat 101 sampai dengan ayat 104, disebutkan tentang kisah Bani Israil. Dijelaskan dalam ayat-ayat tersebut bagaimana bangsa Israil setelah mereka menjadi bangsa yang kuat dan besar, menjadi bangsa yang terhina, karena menyimpang dari ajaran Allah swt.\nKisah Isr\u0101\u2019 dikaitkan dengan kisah Bani Israil pada surah ini untuk memberi peringatan bahwa apabila umat meninggalkan ajaran-ajaran agamanya, akan mengalami keruntuhan sebagaimana halnya Bani Israil.\n\nPokok-pokok Isinya\n1. \tKeimanan:\nAllah tidak mempunyai anak, baik berupa manusia ataupun malaikat; Allah pasti memberi rezeki kepada manusia; Allah mempunyai nama-nama yang paling baik; Al-Qur\u2019an adalah wahyu dari Allah yang memberikan petunjuk, penawar dan rahmat bagi orang-orang yang beriman; adanya Padang Mahsyar dan hari kebangkitan.\n2. \tHukum:\nLarangan-larangan Allah tentang: menghilangkan nyawa manusia; berzina; mempergunakan harta anak yatim untuk keperluan sendiri kecuali dengan cara yang dibenarkan agama; berbuat hanya karena mengikuti orang lain (melakukan sesuatu tanpa ilmu); dan durhaka kepada ibu bapak. Perintah Allah tentang: memenuhi janji, menyem-purnakan timbangan dan takaran; dan melakukan salat lima waktu tepat pada waktunya.\n3. \tKisah:\nKisah Isr\u0101 Nabi Muhammad saw, dan kisah tentang Bani Israil.\n4. \tLain-lain:\nPertanggungjawaban manusia terhadap amal perbuatannya; beberapa faktor yang menyebabkan kejayaan dan kehancuran suatu umat, petunjuk-petunjuk tentang perlakuan terhadap orang tua, tetangga, dan masyarakat; manusia makhluk Allah swt yang mulia, namun manusia juga mempunyai sifat-sifat yang tidak baik seperti suka ingkar, putus asa dan terburu-buru; dan persoalan roh.",
        "outro_surah": null,
        "munasabah_prev_surah": "HUBUNGAN SURAH AN-NA\u1e24L DENGAN \nSURAH AL-ISR\u0100\u2019\n\n1. \tDalam Surah an-Na\u1e25l, Allah menyebutkan perselisihan orang-orang Yahudi tentang hari Sabat, kemudian pada Surah al-Isr\u0101\u2019 dijelaskan syariat orang Yahudi yang ditetapkan bagi mereka dalam Taurat.\n2. \tSesudah Allah swt menganjurkan kepada Nabi Muhammad saw dalam Surah an-Na\u1e25l agar bersabar dan melarang beliau bersedih atau berkecil hati disebabkan tipu daya orang-orang musyrik, maka pada Surah al-Isr\u0101\u2019 Allah menerangkan kemuliaan Nabi Muhammad saw serta martabatnya yang tinggi di hadapan Allah swt.\n3. \tDalam Surah an-Na\u1e25l Allah menerangkan bermacam-macam nikmat-Nya, dimana kebanyakan manusia tidak mensyukurinya. Dalam Surah al-Isr\u0101\u2019 disebutkan lagi nikmat Allah yang lebih besar yang diberikan kepada Bani Israil. Tetapi mereka tidak mensyukurinya, bahkan mereka berbuat kerusakan di muka bumi.\n4. \tDalam Surah an-Na\u1e25l, Allah mengatakan bahwa madu yang keluar dari lebah merupakan minuman yang mengandung obat bagi manusia. Dalam Surah al-Isr\u0101\u2019 diterangkan bahwa Al-Qur\u2019an pun menjadi obat dan penyembuh penyakit hati, dan rahmat bagi orang-orang yang beriman.\n ",
        "munasabah_prev_theme": "Dalam ayat-ayat yang lalu dijelaskan bahwa Allah memberikan perlindungan kepada hamba-Nya yang benar-benar beriman, dari tipu daya Iblis yang selalu mencari kesempatan untuk menggoda dan menyesatkan mereka dari bimbingan-Nya. Allah juga melindungi mereka dari kejahatan orang-orang yang tergoda oleh Iblis, apabila para hamba itu tetap meminta perlindungan-Nya. Dalam ayat-ayat ini, dijelaskan aneka ragam kenikmatan yang diberikan Allah kepada seluruh manusia, dengan maksud agar mereka memanfaatkannya untuk berbagai keperluan yang diridai Allah dan men-syukuri nikmat-nikmat itu sebagaimana mestinya. ",
        "theme_group": "PERINTAH UNTUK MENSYUKURI NIKMAT ALLAH",
        "kosakata": "1. \u1e24\u0101\u1e63ib\u0101 \u062d\u064e\u0627\u0635\u0650\u0628\u064b\u0627 (al-Isr\u0101\u2019/17: 68)\n\u1e24\u0101\u1e63ib\u0101 artinya batu-batu kecil. Akar katanya adalah (\u062d- \u0635- \u0628). Pada mulanya, kata ini digunakan untuk menunjukkan arti satu jenis dari bagian bumi. Dari sini muncul kata \u1e25a\u1e63b\u0101\u2019 yang artinya batu kerikil, yaitu satu jenis bebatuan. Kata \u1e25a\u1e63bah yang berarti butir-butir kecil yang keluar dari kulit dinamakan demikian karena menyerupai bebatuan kecil.\nKata \u1e25\u0101\u1e63ib\u0101 bisa juga berarti mega yang menghujani bumi dengan butiran-butiran es. Pada ayat yang sedang ditafsirkan ini lebih tepat diartikan dengan batu-batu kerikil.\t\n\n2. Q\u0101\u1e63if\u0101 \u0642\u064e\u0627\u0635\u0650\u0641\u064b\u0627 (al-Isr\u0101\u2019/17: 69)\nAkar katanya terdiri dari ( \u0642- \u0635- \u0641 ) yang berarti pecahnya sesuatu. Al-Q\u0101\u1e63if artinya sesuatu yang gampang pecah. Dengan demikian, q\u0101\u1e63if berarti angin yang sangat kencang yang bisa menghancurkan dan memecahkan benda-benda yang dilaluinya.",
        "sabab_nuzul": null,
        "conclusion": null
    }
}