{
    "id": 2134,
    "surah_id": 17,
    "ayah": 105,
    "page": 293,
    "quarter_hizb": 30,
    "juz": 15,
    "manzil": 4,
    "arabic": "\u0648\u064e\u0628\u0650\u0627\u0644\u0652\u062d\u064e\u0642\u0651\u0650 \u0627\u064e\u0646\u0652\u0632\u064e\u0644\u0652\u0646\u0670\u0647\u064f \u0648\u064e\u0628\u0650\u0627\u0644\u0652\u062d\u064e\u0642\u0651\u0650 \u0646\u064e\u0632\u064e\u0644\u064e\u06d7 \u0648\u064e\u0645\u064e\u0627\u0653 \u0627\u064e\u0631\u0652\u0633\u064e\u0644\u0652\u0646\u0670\u0643\u064e \u0627\u0650\u0644\u0651\u064e\u0627 \u0645\u064f\u0628\u064e\u0634\u0651\u0650\u0631\u064b\u0627 \u0648\u0651\u064e\u0646\u064e\u0630\u0650\u064a\u0652\u0631\u064b\u0627\u06d8",
    "latin": "Wa bil-\u1e25aqqi anzaln\u0101hu wa bil-\u1e25aqqi nazal(a), wa m\u0101 arsaln\u0101ka ill\u0101 mubasysyiraw wa na\u017c\u012br\u0101(n).",
    "translation": "Kami menurunkannya (Al-Qur\u2019an) dengan sebenarnya441) dan ia (Al-Qur\u2019an) turun dengan (membawa) kebenaran. Kami mengutus engkau (Nabi Muhammad) hanya sebagai pembawa berita gembira dan pemberi peringatan.",
    "no_footnote": "441",
    "footnotes": "441) Al-Qur\u2019an benar-benar diturunkan oleh Allah Swt., bukan oleh selain-Nya.",
    "surah": {
        "id": 17,
        "arabic": " \u0627\u0644\u0627\u0633\u0631\u0627\u06e4\u0621",
        "latin": "Al-Isr\u0101'",
        "transliteration": "Al-Isra'",
        "translation": "Memperjalankan di Malam Hari",
        "num_ayah": 111,
        "page": 282,
        "location": "Makkiyah"
    },
    "tafsir": {
        "wajiz": "Setelah menguraikan kisah Nabi Musa dan kaumnya serta kaum musyrik yang enggan menerima kebenaran yang disampaikan Nabi Muhammad, ayat selanjutnya menjelaskan tujuan diturunkan kitab suci Al-Qur\u2019an untuk menyatakan bukti-bukti kebenaran itu. Dan Kami turunkan Al-Qur\u2019an itu dengan benar, yakni benar Al-Qur\u2019an itu datang dari Allah, dan Al-Qur\u2019an itu turun dengan membawa kebenaran, dalam kandungannya. Dan Kami tidaklah mengutus engkau wahai Nabi Muhammad, melainkan sebagai pembawa berita gembira bagi orang-orang yang taat akan masuk surga dan pemberi peringatan bagi orang-orang yang durhaka akan masuk neraka.",
        "tahlili": "Dalam ayat ini Allah swt menegaskan kepada Rasul saw bahwa Allah benar-benar telah menurunkan Al-Qur\u2019an dari sisi-Nya. Maka manusia tidak boleh meragukan dan berpaling darinya. \nDalam ayat yang lain Allah swt berfirman:\n\u0644\u0670\u0643\u0650\u0646\u0650 \u0627\u0644\u0644\u0651\u0670\u0647\u064f \u064a\u064e\u0634\u0652\u0647\u064e\u062f\u064f \u0628\u0650\u0645\u064e\u0627\u0653 \u0627\u064e\u0646\u0652\u0632\u064e\u0644\u064e \u0627\u0650\u0644\u064e\u064a\u0652\u0643\u064e \u0627\u064e\u0646\u0652\u0632\u064e\u0644\u064e\u0647\u0657 \u0628\u0650\u0639\u0650\u0644\u0652\u0645\u0650\u0647\u0656 \u06da\u0648\u064e\u0627\u0644\u0652\u0645\u064e\u0644\u0670\u06e4\u0649\u0655\u0650\u0643\u064e\u0629\u064f \u064a\u064e\u0634\u0652\u0647\u064e\u062f\u064f\u0648\u0652\u0646\u064e \u06d7\u0648\u064e\u0643\u064e\u0641\u0670\u0649 \u0628\u0650\u0627\u0644\u0644\u0651\u0670\u0647\u0650 \u0634\u064e\u0647\u0650\u064a\u0652\u062f\u064b\u0627\u06d7 \u0661\u0666\u0666 (\u0627\u0644\u0646\u0633\u0627\u06e4\u0621)\nTetapi Allah menjadi saksi atas (Al-Qur\u2019an) yang diturunkan-Nya kepadamu (Muhammad). Dia menurunkannya dengan ilmu-Nya, dan para malaikat pun menyaksikan. Dan cukuplah Allah yang menjadi saksi. (an-Nis\u0101\u2019/4: 166)\nAl-Qur\u2019an membawa berbagai ajaran yang benar yang mendatangkan ketertiban dan kesejahteraan bagi umat manusia. Di dalamnya terdapat ajaran tentang moral, akidah ketuhanan, peraturan-peraturan, hukum, sejarah, dan ilmu pengetahuan. Segala isinya senantiasa terpelihara, baik lafal maupun maknanya tidak akan ternoda dengan penambahan atau pengurangan yang menyebabkan kekacauan dan kesimpangsiuran, sebagaimana dijelaskan Allah dalam firman-Nya:\n\u0627\u0650\u0646\u0651\u064e\u0627 \u0646\u064e\u062d\u0652\u0646\u064f \u0646\u064e\u0632\u0651\u064e\u0644\u0652\u0646\u064e\u0627 \u0627\u0644\u0630\u0651\u0650\u0643\u0652\u0631\u064e \u0648\u064e\u0627\u0650\u0646\u0651\u064e\u0627 \u0644\u064e\u0647\u0657 \u0644\u064e\u062d\u0670\u0641\u0650\u0638\u064f\u0648\u0652\u0646\u064e \u0669 (\u0627\u0644\u062d\u062c\u0631)\nSesungguhnya Kamilah yang menurunkan Al-Qur\u2019an, dan pasti Kami (pula) yang memeliharanya. (al-\u1e24ijr/15: 9)\n\nFirman-Nya lagi:\n\u0644\u0651\u064e\u0627 \u064a\u064e\u0623\u0652\u062a\u0650\u064a\u0652\u0647\u0650 \u0627\u0644\u0652\u0628\u064e\u0627\u0637\u0650\u0644\u064f \u0645\u0650\u0646\u0652\u06e2 \u0628\u064e\u064a\u0652\u0646\u0650 \u064a\u064e\u062f\u064e\u064a\u0652\u0647\u0650 \u0648\u064e\u0644\u064e\u0627 \u0645\u0650\u0646\u0652 \u062e\u064e\u0644\u0652\u0641\u0650\u0647\u0656 \u06d7\u062a\u064e\u0646\u0652\u0632\u0650\u064a\u0652\u0644\u064c \u0645\u0651\u0650\u0646\u0652 \u062d\u064e\u0643\u0650\u064a\u0652\u0645\u064d \u062d\u064e\u0645\u0650\u064a\u0652\u062f\u064d \u0664\u0662 (\u0641\u0635\u0651\u0644\u062a)\n(Yang) tidak akan didatangi oleh kebatilan baik dari depan maupun dari belakang (pada masa lalu dan yang akan datang), yang diturunkan dari Tuhan Yang Mahabijaksana, Maha Terpuji. (Fu\u1e63\u1e63ilat/41: 42)\n\nDemikianlah Allah menerangkan sifat-sifat Al-Qur\u2019an dengan segala jaminan akan kesuciannya dari tangan-tangan manusia yang berusaha mengotorinya. Dia diturunkan kepada Nabi Muhammad saw yang diutus kepada umat manusia untuk memberikan kabar gembira tentang pahala dan surga bagi orang-orang yang beriman dan taat kepada ajaran agama, dan memberikan peringatan tentang azab dan neraka bagi yang kafir dan berbuat dosa.",
        "intro_surah": "Surah ini terdiri dari 111 ayat, dan termasuk golongan surah-surah Makkiyah. Dinamakan Surah al-Isr\u0101\u2019 yang berarti \u201cmemperjalankan di malam hari\u201d karena dalam surah itu disebutkan peristiwa Isr\u0101\u2019 Nabi Muhammad saw dari Masjidilharam di Mekah, ke Masjidil Aqsa di Baitul Maqdis. Peristiwa ini diabadikan pada ayat pertama Surah al-Isr\u0101\u2019.\nSurah ini dinamakan pula Surah Ban\u012b Isr\u0101\u2019\u012bl yang berarti \u201cKeturunan Israil\u201d, karena pada bagian permulaan, yaitu pada ayat yang kedua sampai dengan ayat kedelapan, dan kemudian pada bagian akhir surah, yaitu pada ayat 101 sampai dengan ayat 104, disebutkan tentang kisah Bani Israil. Dijelaskan dalam ayat-ayat tersebut bagaimana bangsa Israil setelah mereka menjadi bangsa yang kuat dan besar, menjadi bangsa yang terhina, karena menyimpang dari ajaran Allah swt.\nKisah Isr\u0101\u2019 dikaitkan dengan kisah Bani Israil pada surah ini untuk memberi peringatan bahwa apabila umat meninggalkan ajaran-ajaran agamanya, akan mengalami keruntuhan sebagaimana halnya Bani Israil.\n\nPokok-pokok Isinya\n1. \tKeimanan:\nAllah tidak mempunyai anak, baik berupa manusia ataupun malaikat; Allah pasti memberi rezeki kepada manusia; Allah mempunyai nama-nama yang paling baik; Al-Qur\u2019an adalah wahyu dari Allah yang memberikan petunjuk, penawar dan rahmat bagi orang-orang yang beriman; adanya Padang Mahsyar dan hari kebangkitan.\n2. \tHukum:\nLarangan-larangan Allah tentang: menghilangkan nyawa manusia; berzina; mempergunakan harta anak yatim untuk keperluan sendiri kecuali dengan cara yang dibenarkan agama; berbuat hanya karena mengikuti orang lain (melakukan sesuatu tanpa ilmu); dan durhaka kepada ibu bapak. Perintah Allah tentang: memenuhi janji, menyem-purnakan timbangan dan takaran; dan melakukan salat lima waktu tepat pada waktunya.\n3. \tKisah:\nKisah Isr\u0101 Nabi Muhammad saw, dan kisah tentang Bani Israil.\n4. \tLain-lain:\nPertanggungjawaban manusia terhadap amal perbuatannya; beberapa faktor yang menyebabkan kejayaan dan kehancuran suatu umat, petunjuk-petunjuk tentang perlakuan terhadap orang tua, tetangga, dan masyarakat; manusia makhluk Allah swt yang mulia, namun manusia juga mempunyai sifat-sifat yang tidak baik seperti suka ingkar, putus asa dan terburu-buru; dan persoalan roh.",
        "outro_surah": null,
        "munasabah_prev_surah": "HUBUNGAN SURAH AN-NA\u1e24L DENGAN \nSURAH AL-ISR\u0100\u2019\n\n1. \tDalam Surah an-Na\u1e25l, Allah menyebutkan perselisihan orang-orang Yahudi tentang hari Sabat, kemudian pada Surah al-Isr\u0101\u2019 dijelaskan syariat orang Yahudi yang ditetapkan bagi mereka dalam Taurat.\n2. \tSesudah Allah swt menganjurkan kepada Nabi Muhammad saw dalam Surah an-Na\u1e25l agar bersabar dan melarang beliau bersedih atau berkecil hati disebabkan tipu daya orang-orang musyrik, maka pada Surah al-Isr\u0101\u2019 Allah menerangkan kemuliaan Nabi Muhammad saw serta martabatnya yang tinggi di hadapan Allah swt.\n3. \tDalam Surah an-Na\u1e25l Allah menerangkan bermacam-macam nikmat-Nya, dimana kebanyakan manusia tidak mensyukurinya. Dalam Surah al-Isr\u0101\u2019 disebutkan lagi nikmat Allah yang lebih besar yang diberikan kepada Bani Israil. Tetapi mereka tidak mensyukurinya, bahkan mereka berbuat kerusakan di muka bumi.\n4. \tDalam Surah an-Na\u1e25l, Allah mengatakan bahwa madu yang keluar dari lebah merupakan minuman yang mengandung obat bagi manusia. Dalam Surah al-Isr\u0101\u2019 diterangkan bahwa Al-Qur\u2019an pun menjadi obat dan penyembuh penyakit hati, dan rahmat bagi orang-orang yang beriman.\n ",
        "munasabah_prev_theme": "Pada ayat yang lalu, Allah swt menerangkan mukjizat yang diberikan kepada Nabi Musa a.s., serta keingkaran Fir\u2018aun dan Bani Israil. Pada ayat-ayat berikut ini Allah swt menegaskan kebenaran mukjizat yang besar (Al-Qur\u2019an) yang diberikan kepada Nabi Muhammad, dan juga menerangkan bagaimana Nabi harus bersikap dalam menghadapi keingkaran kaum musyrikin Mekah.\n",
        "theme_group": "KEBENARAN AL-QUR\u2019AN DAN CARA\nPENURUNANNYA",
        "kosakata": "Kosakata: Muk\u1e61 \u0645\u064f\u0643\u0652\u062b\u064d (al-Isr\u0101\u2019/17: 106)\nMuk\u1e61 artinya tenang, tidak tergesa-gesa, perlahan-lahan, tinggal atau menetap. Fi\u2019il maka\u1e61a-yamku\u1e61u-muk\u1e61an wa muk\u016b\u1e61an artinya tinggal atau mendiami. Dalam ayat 106 Surah al-Isr\u0101\u2019 ini disebutkan dengan ungkapan: \ufedf\ufe98\ufed8\u0631\u0627\u0647 \u0639\u0644\u0649 \u0627\u0644\u0646\u0627\u0633 \u0639\u0644\u0649 \ufee3\ufedc\ufe9a artinya: supaya kamu membacakannya kepada manusia dengan tenang atau dengan perlahan-lahan. Hal ini berkaitan dengan cara diturunkannya Al-Qur\u2019an kepada Nabi Muhammad saw secara berangsur-angsur supaya Nabi mudah memahami dan menghafalnya, serta menyampai-kan dan membacakannya kepada manusia dengan tenang dan perlahan-lahan, tidak tergesa-gesa yang dapat menimbulkan kekurangjelasan bacaan dan makna ayat. Hal ini sangat penting karena wahyu dari Allah swt tidak boleh salah dalam membaca dan memahaminya, serta untuk dihafal dengan baik dan tepat. Apalagi waktu ayat-ayat Al-Qur\u2019an ini diturunkan yaitu sekitar tahun 610-633 M atau awal abad ke-7 M alat tulis menulis dan rekaman belum lengkap seperti sekarang. Nabi telah melaksanakan tugas-tugas kenabiannya termasuk menyampaikan ayat-ayat Al-Qur\u2019an kepada para sahabat dengan baik dan benar sesuai petunjuk Allah swt, sehingga para sahabat menerima dengan baik dan tepat, tidak terjadi kesalahan satu huruf pun, semua sesuai dengan yang disampaikan Malaikat Jibril kepada Nabi Muhammad saw.",
        "sabab_nuzul": null,
        "conclusion": null
    }
}