{
    "id": 2138,
    "surah_id": 17,
    "ayah": 109,
    "page": 293,
    "quarter_hizb": 30,
    "juz": 15,
    "manzil": 4,
    "arabic": "\u0648\u064e\u064a\u064e\u062e\u0650\u0631\u0651\u064f\u0648\u0652\u0646\u064e \u0644\u0650\u0644\u0652\u0627\u064e\u0630\u0652\u0642\u064e\u0627\u0646\u0650 \u064a\u064e\u0628\u0652\u0643\u064f\u0648\u0652\u0646\u064e \u0648\u064e\u064a\u064e\u0632\u0650\u064a\u0652\u062f\u064f\u0647\u064f\u0645\u0652 \u062e\u064f\u0634\u064f\u0648\u0652\u0639\u064b\u0627 \u06e9",
    "latin": "Wa yakhirr\u016bna lil-a\u017cq\u0101ni yabk\u016bna wa yaz\u012bduhum khusy\u016b\u2018\u0101(n).",
    "translation": "Mereka menyungkurkan wajah seraya menangis dan ia (Al-Qur\u2019an) menambah kekhusyukan mereka.",
    "no_footnote": null,
    "footnotes": null,
    "surah": {
        "id": 17,
        "arabic": " \u0627\u0644\u0627\u0633\u0631\u0627\u06e4\u0621",
        "latin": "Al-Isr\u0101'",
        "transliteration": "Al-Isra'",
        "translation": "Memperjalankan di Malam Hari",
        "num_ayah": 111,
        "page": 282,
        "location": "Makkiyah"
    },
    "tafsir": {
        "wajiz": "Dan mereka menyungkurkan wajah sekali lagi dan demikian seterusnya sambil menangis karena takut kepada Allah dan mereka bertambah khusyuk memohon kepada Allah setiap kali dibacakan kepada mereka ayat-ayat Al-Qur\u2019an.",
        "tahlili": "Kemudian Allah swt menambahkan dalam ayat ini sifat-sifat yang terpuji pada orang-orang yang diberi ilmu itu. Mereka menelungkupkan muka, bersujud kepada Allah sambil menangis disebabkan bermacam-macam perasaan yang menghentak dada mereka, seperti perasaan takut kepada Allah, dan perasaan syukur atas kelahiran rasul yang dijanjikan. Pengaruh ajaran-ajaran Al-Qur\u2019an meresap ke dalam jiwa mereka ketika mendengar ayat-ayat yang dibacakan, serta menambah kekhusyukan dan kerendahan hati mereka. Dengan demikian, mereka merasakan betapa kecilnya manusia di sisi Allah swt. Demikianlah sifat orang berilmu yang telah mencapai martabat yang mulia. Hatinya menjadi tunduk dan matanya mencucurkan air mata ketika Al-Qur\u2019an dibacakan kepadanya. Mencucurkan air mata ketika mendengar atau membaca Al-Qur\u2019an sangat terpuji dalam pandangan Islam.\nBersabda Rasulullah saw:\n\u0627\u0650\u0642\u0652\u0631\u064e\u0621\u064f\u0648\u0627 \u0627\u0644\u0652\u0642\u064f\u0631\u0652\u0622\u0646\u064e \u0648\u064e\u0627\u0628\u0652\u0643\u064f\u0648\u0652\u0627\u060c \u0648\u064e\u0625\u0650\u0630\u064e\u0627 \u0644\u064e\u0645\u0652 \u062a\u064e\u0628\u0652\u0643\u064f\u0648\u0652\u0627 \u0641\u064e\u062a\u064e\u0628\u064e\u0627\u0643\u064e\u0648\u0652\u0627. (\u0631\u0648\u0627\u0647 \u0627\u0644\u062a\u0631\u0645\u0630\u064a \u0639\u0646 \u0633\u0639\u062f \u0628\u0646 \u0627\u0628\u064a \u0648\u0642\u0627\u0635)\nBacalah Al-Qur\u2019an dan menangislah, jika kamu tidak bisa menangis, maka usahakanlah sekuat-kuatnya agar dapat menangis.(Riwayat at-Tirmi\u017c\u012b dari Sa\u2019ad bin Ab\u012b Waq\u0101\u1e63)\n\nSabda Rasulullah saw lagi:\n\u0639\u064e\u064a\u0652\u0646\u064e\u0627\u0646\u0650 \u0644\u064e\u0627 \u062a\u064e\u0645\u064e\u0633\u0651\u064f\u0647\u064f\u0645\u064e\u0627 \u0627\u0644\u0646\u0651\u064e\u0627\u0631\u064f\u060c \u0639\u064e\u064a\u0652\u0646\u064c \u0628\u064e\u0643\u064e\u062a\u0652 \u0645\u0650\u0646\u0652 \u062e\u064e\u0634\u0652\u064a\u064e\u0629\u0650 \u0627\u0644\u0644\u0651\u0670\u0647\u0650 \u062a\u064e\u0639\u064e\u0627\u0644\u064e\u0649 \u0648\u064e\u0639\u064e\u064a\u0652\u0646\u064c \u0628\u064e\u0627\u062a\u064e\u062a\u0652 \u062a\u064e\u062d\u0652\u0631\u064f\u0633\u064f \u0641\u0650\u064a \u0633\u064e\u0628\u0650\u064a\u0652\u0644\u0650 \u0627\u0644\u0644\u0651\u0670\u0647\u0650. (\u0631\u0648\u0627\u0647 \u0627\u0644\u062a\u0631\u0645\u0630\u064a \u0639\u0646 \u0627\u0628\u0646 \u0639\u0628\u0627\u0633)\nDua mata yang tidak disentuh api neraka, yaitu yang menangis karena takut kepada Allah swt, dan mata yang berjaga-jaga di malam hari pada jalan Allah (jihad). (Riwayat at-Tirmi\u017c\u012b dari Ibnu \u2018Abb\u0101s)\n\u0644\u064e\u0627 \u064a\u064e\u0644\u0650\u062c\u064f \u0627\u0644\u0646\u0651\u064e\u0627\u0631\u064e \u0631\u064e\u062c\u064f\u0644\u064c \u0628\u064e\u0643\u064e\u0649 \u0645\u0650\u0646\u0652 \u062e\u064e\u0634\u0652\u064a\u064e\u0629\u0650 \u0627\u0644\u0644\u0651\u0670\u0647\u0650 \u062d\u064e\u062a\u0651\u064e\u0649 \u064a\u064e\u0639\u064f\u0648\u0652\u062f\u064e \u0627\u0644\u0644\u0651\u064e\u0628\u064e\u0646\u064f \u0641\u0650\u0649 \u0627\u0644\u0636\u0651\u064e\u0631\u0652\u0639\u0650 \u0648\u064e\u0644\u064e\u0627 \u0627\u062c\u0652\u062a\u064e\u0645\u064e\u0639\u064e \u0639\u064e\u0644\u064e\u0649 \u0639\u064e\u0628\u0652\u062f\u064d \u063a\u064f\u0628\u064e\u0627\u0631\u064c \u0641\u0650\u064a \u0633\u064e\u0628\u0650\u064a\u0652\u0644\u0650 \u0627\u0644\u0644\u0651\u0670\u0647\u0650 \u0648\u064e\u062f\u064f\u062e\u064e\u0627\u0646\u064f \u062c\u064e\u0647\u064e\u0646\u0651\u064e\u0645\u064e. (\u0631\u0648\u0627\u0647 \u0645\u0633\u0644\u0645 \u0648\u0627\u0644\u0646\u0633\u0627\u0626\u064a \u0639\u0646 \u0623\u0628\u064a \u0647\u0631\u064a\u0631\u0629)\nTidaklah masuk neraka seseorang yang menangis karena takut kepada Allah, kecuali bila air susu sapi dapat kembali ke dalam kantong susunya, dan tidaklah berkumpul pada seorang hamba, debu dalam peperangan di jalan Allah dengan asap api neraka. (Riwayat Muslim dan an-Nas\u0101\u2019i dari Abu Hurairah)",
        "intro_surah": "Surah ini terdiri dari 111 ayat, dan termasuk golongan surah-surah Makkiyah. Dinamakan Surah al-Isr\u0101\u2019 yang berarti \u201cmemperjalankan di malam hari\u201d karena dalam surah itu disebutkan peristiwa Isr\u0101\u2019 Nabi Muhammad saw dari Masjidilharam di Mekah, ke Masjidil Aqsa di Baitul Maqdis. Peristiwa ini diabadikan pada ayat pertama Surah al-Isr\u0101\u2019.\nSurah ini dinamakan pula Surah Ban\u012b Isr\u0101\u2019\u012bl yang berarti \u201cKeturunan Israil\u201d, karena pada bagian permulaan, yaitu pada ayat yang kedua sampai dengan ayat kedelapan, dan kemudian pada bagian akhir surah, yaitu pada ayat 101 sampai dengan ayat 104, disebutkan tentang kisah Bani Israil. Dijelaskan dalam ayat-ayat tersebut bagaimana bangsa Israil setelah mereka menjadi bangsa yang kuat dan besar, menjadi bangsa yang terhina, karena menyimpang dari ajaran Allah swt.\nKisah Isr\u0101\u2019 dikaitkan dengan kisah Bani Israil pada surah ini untuk memberi peringatan bahwa apabila umat meninggalkan ajaran-ajaran agamanya, akan mengalami keruntuhan sebagaimana halnya Bani Israil.\n\nPokok-pokok Isinya\n1. \tKeimanan:\nAllah tidak mempunyai anak, baik berupa manusia ataupun malaikat; Allah pasti memberi rezeki kepada manusia; Allah mempunyai nama-nama yang paling baik; Al-Qur\u2019an adalah wahyu dari Allah yang memberikan petunjuk, penawar dan rahmat bagi orang-orang yang beriman; adanya Padang Mahsyar dan hari kebangkitan.\n2. \tHukum:\nLarangan-larangan Allah tentang: menghilangkan nyawa manusia; berzina; mempergunakan harta anak yatim untuk keperluan sendiri kecuali dengan cara yang dibenarkan agama; berbuat hanya karena mengikuti orang lain (melakukan sesuatu tanpa ilmu); dan durhaka kepada ibu bapak. Perintah Allah tentang: memenuhi janji, menyem-purnakan timbangan dan takaran; dan melakukan salat lima waktu tepat pada waktunya.\n3. \tKisah:\nKisah Isr\u0101 Nabi Muhammad saw, dan kisah tentang Bani Israil.\n4. \tLain-lain:\nPertanggungjawaban manusia terhadap amal perbuatannya; beberapa faktor yang menyebabkan kejayaan dan kehancuran suatu umat, petunjuk-petunjuk tentang perlakuan terhadap orang tua, tetangga, dan masyarakat; manusia makhluk Allah swt yang mulia, namun manusia juga mempunyai sifat-sifat yang tidak baik seperti suka ingkar, putus asa dan terburu-buru; dan persoalan roh.",
        "outro_surah": null,
        "munasabah_prev_surah": "HUBUNGAN SURAH AN-NA\u1e24L DENGAN \nSURAH AL-ISR\u0100\u2019\n\n1. \tDalam Surah an-Na\u1e25l, Allah menyebutkan perselisihan orang-orang Yahudi tentang hari Sabat, kemudian pada Surah al-Isr\u0101\u2019 dijelaskan syariat orang Yahudi yang ditetapkan bagi mereka dalam Taurat.\n2. \tSesudah Allah swt menganjurkan kepada Nabi Muhammad saw dalam Surah an-Na\u1e25l agar bersabar dan melarang beliau bersedih atau berkecil hati disebabkan tipu daya orang-orang musyrik, maka pada Surah al-Isr\u0101\u2019 Allah menerangkan kemuliaan Nabi Muhammad saw serta martabatnya yang tinggi di hadapan Allah swt.\n3. \tDalam Surah an-Na\u1e25l Allah menerangkan bermacam-macam nikmat-Nya, dimana kebanyakan manusia tidak mensyukurinya. Dalam Surah al-Isr\u0101\u2019 disebutkan lagi nikmat Allah yang lebih besar yang diberikan kepada Bani Israil. Tetapi mereka tidak mensyukurinya, bahkan mereka berbuat kerusakan di muka bumi.\n4. \tDalam Surah an-Na\u1e25l, Allah mengatakan bahwa madu yang keluar dari lebah merupakan minuman yang mengandung obat bagi manusia. Dalam Surah al-Isr\u0101\u2019 diterangkan bahwa Al-Qur\u2019an pun menjadi obat dan penyembuh penyakit hati, dan rahmat bagi orang-orang yang beriman.\n ",
        "munasabah_prev_theme": "Pada ayat yang lalu, Allah swt menerangkan mukjizat yang diberikan kepada Nabi Musa a.s., serta keingkaran Fir\u2018aun dan Bani Israil. Pada ayat-ayat berikut ini Allah swt menegaskan kebenaran mukjizat yang besar (Al-Qur\u2019an) yang diberikan kepada Nabi Muhammad, dan juga menerangkan bagaimana Nabi harus bersikap dalam menghadapi keingkaran kaum musyrikin Mekah.\n",
        "theme_group": "KEBENARAN AL-QUR\u2019AN DAN CARA\nPENURUNANNYA",
        "kosakata": "Kosakata: Muk\u1e61 \u0645\u064f\u0643\u0652\u062b\u064d (al-Isr\u0101\u2019/17: 106)\nMuk\u1e61 artinya tenang, tidak tergesa-gesa, perlahan-lahan, tinggal atau menetap. Fi\u2019il maka\u1e61a-yamku\u1e61u-muk\u1e61an wa muk\u016b\u1e61an artinya tinggal atau mendiami. Dalam ayat 106 Surah al-Isr\u0101\u2019 ini disebutkan dengan ungkapan: \ufedf\ufe98\ufed8\u0631\u0627\u0647 \u0639\u0644\u0649 \u0627\u0644\u0646\u0627\u0633 \u0639\u0644\u0649 \ufee3\ufedc\ufe9a artinya: supaya kamu membacakannya kepada manusia dengan tenang atau dengan perlahan-lahan. Hal ini berkaitan dengan cara diturunkannya Al-Qur\u2019an kepada Nabi Muhammad saw secara berangsur-angsur supaya Nabi mudah memahami dan menghafalnya, serta menyampai-kan dan membacakannya kepada manusia dengan tenang dan perlahan-lahan, tidak tergesa-gesa yang dapat menimbulkan kekurangjelasan bacaan dan makna ayat. Hal ini sangat penting karena wahyu dari Allah swt tidak boleh salah dalam membaca dan memahaminya, serta untuk dihafal dengan baik dan tepat. Apalagi waktu ayat-ayat Al-Qur\u2019an ini diturunkan yaitu sekitar tahun 610-633 M atau awal abad ke-7 M alat tulis menulis dan rekaman belum lengkap seperti sekarang. Nabi telah melaksanakan tugas-tugas kenabiannya termasuk menyampaikan ayat-ayat Al-Qur\u2019an kepada para sahabat dengan baik dan benar sesuai petunjuk Allah swt, sehingga para sahabat menerima dengan baik dan tepat, tidak terjadi kesalahan satu huruf pun, semua sesuai dengan yang disampaikan Malaikat Jibril kepada Nabi Muhammad saw.",
        "sabab_nuzul": null,
        "conclusion": null
    }
}