{
    "id": 2133,
    "surah_id": 17,
    "ayah": 104,
    "page": 292,
    "quarter_hizb": 30,
    "juz": 15,
    "manzil": 4,
    "arabic": "\u0648\u0651\u064e\u0642\u064f\u0644\u0652\u0646\u064e\u0627 \u0645\u0650\u0646\u0652\u06e2 \u0628\u064e\u0639\u0652\u062f\u0650\u0647\u0656 \u0644\u0650\u0628\u064e\u0646\u0650\u064a\u0653\u0652 \u0627\u0650\u0633\u0652\u0631\u064e\u0627\u06e4\u0621\u0650\u064a\u0652\u0644\u064e \u0627\u0633\u0652\u0643\u064f\u0646\u064f\u0648\u0627 \u0627\u0644\u0652\u0627\u064e\u0631\u0652\u0636\u064e \u0641\u064e\u0627\u0650\u0630\u064e\u0627 \u062c\u064e\u0627\u06e4\u0621\u064e \u0648\u064e\u0639\u0652\u062f\u064f \u0627\u0644\u0652\u0627\u0670\u062e\u0650\u0631\u064e\u0629\u0650 \u062c\u0650\u0626\u0652\u0646\u064e\u0627 \u0628\u0650\u0643\u064f\u0645\u0652 \u0644\u064e\u0641\u0650\u064a\u0652\u0641\u064b\u0627\u06d7   ",
    "latin": "Wa quln\u0101 mim ba\u2018dih\u012b liban\u012b isr\u0101'\u012blaskunul-ar\u1e0da fa i\u017c\u0101 j\u0101'a wa\u2018dul-\u0101khirati ji'n\u0101 bikum laf\u012bf\u0101(n).",
    "translation": "Setelah itu Kami berfirman kepada Bani Israil, \u201cTinggallah di negeri ini! Apabila janji kebangkitan datang, niscaya Kami kumpulkan kamu dalam keadaan bercampur baur.\u201d",
    "no_footnote": null,
    "footnotes": null,
    "surah": {
        "id": 17,
        "arabic": " \u0627\u0644\u0627\u0633\u0631\u0627\u06e4\u0621",
        "latin": "Al-Isr\u0101'",
        "transliteration": "Al-Isra'",
        "translation": "Memperjalankan di Malam Hari",
        "num_ayah": 111,
        "page": 282,
        "location": "Makkiyah"
    },
    "tafsir": {
        "wajiz": "Dan setelah itu, yakni setelah penenggelaman itu, Kami berfirman kepada Bani Israil, \u201cTinggallah di negeri ini, Palestina dan sekitarnya, tetapi apabila masa berbangkit datang kelak di hari kiamat, niscaya Kami kumpulkan kamu dalam keadaan bercampur baur dengan orang-orang kafir dan semua musuh-musuhmu. Dan kami akan memperhitungkan amal perbuatanmu dan memberikan pembalasan yang setimpal sesuai apa yang mereka lakukan.",
        "tahlili": "Kemudian Allah swt menyelamatkan Musa dan Bani Israil serta memerintahkan mereka agar mendiami negeri yang telah dijanjikan kepada mereka sampai waktu yang ditentukan. Jika telah sampai waktunya, mereka akan diwafatkan kemudian dibangkitkan kembali pada hari kiamat, untuk menetapkan keputusan yang paling adil di antara mereka. Ketika itu, mereka beserta musuh-musuhnya bercampur baur dan menyatu untuk menerima balasan dari Allah. Perbuatan baik akan dibalas dengan pahala yang berlipat ganda, sedangkan perbuatan mungkar akan dibalas dengan siksa neraka.",
        "intro_surah": "Surah ini terdiri dari 111 ayat, dan termasuk golongan surah-surah Makkiyah. Dinamakan Surah al-Isr\u0101\u2019 yang berarti \u201cmemperjalankan di malam hari\u201d karena dalam surah itu disebutkan peristiwa Isr\u0101\u2019 Nabi Muhammad saw dari Masjidilharam di Mekah, ke Masjidil Aqsa di Baitul Maqdis. Peristiwa ini diabadikan pada ayat pertama Surah al-Isr\u0101\u2019.\nSurah ini dinamakan pula Surah Ban\u012b Isr\u0101\u2019\u012bl yang berarti \u201cKeturunan Israil\u201d, karena pada bagian permulaan, yaitu pada ayat yang kedua sampai dengan ayat kedelapan, dan kemudian pada bagian akhir surah, yaitu pada ayat 101 sampai dengan ayat 104, disebutkan tentang kisah Bani Israil. Dijelaskan dalam ayat-ayat tersebut bagaimana bangsa Israil setelah mereka menjadi bangsa yang kuat dan besar, menjadi bangsa yang terhina, karena menyimpang dari ajaran Allah swt.\nKisah Isr\u0101\u2019 dikaitkan dengan kisah Bani Israil pada surah ini untuk memberi peringatan bahwa apabila umat meninggalkan ajaran-ajaran agamanya, akan mengalami keruntuhan sebagaimana halnya Bani Israil.\n\nPokok-pokok Isinya\n1. \tKeimanan:\nAllah tidak mempunyai anak, baik berupa manusia ataupun malaikat; Allah pasti memberi rezeki kepada manusia; Allah mempunyai nama-nama yang paling baik; Al-Qur\u2019an adalah wahyu dari Allah yang memberikan petunjuk, penawar dan rahmat bagi orang-orang yang beriman; adanya Padang Mahsyar dan hari kebangkitan.\n2. \tHukum:\nLarangan-larangan Allah tentang: menghilangkan nyawa manusia; berzina; mempergunakan harta anak yatim untuk keperluan sendiri kecuali dengan cara yang dibenarkan agama; berbuat hanya karena mengikuti orang lain (melakukan sesuatu tanpa ilmu); dan durhaka kepada ibu bapak. Perintah Allah tentang: memenuhi janji, menyem-purnakan timbangan dan takaran; dan melakukan salat lima waktu tepat pada waktunya.\n3. \tKisah:\nKisah Isr\u0101 Nabi Muhammad saw, dan kisah tentang Bani Israil.\n4. \tLain-lain:\nPertanggungjawaban manusia terhadap amal perbuatannya; beberapa faktor yang menyebabkan kejayaan dan kehancuran suatu umat, petunjuk-petunjuk tentang perlakuan terhadap orang tua, tetangga, dan masyarakat; manusia makhluk Allah swt yang mulia, namun manusia juga mempunyai sifat-sifat yang tidak baik seperti suka ingkar, putus asa dan terburu-buru; dan persoalan roh.",
        "outro_surah": null,
        "munasabah_prev_surah": "HUBUNGAN SURAH AN-NA\u1e24L DENGAN \nSURAH AL-ISR\u0100\u2019\n\n1. \tDalam Surah an-Na\u1e25l, Allah menyebutkan perselisihan orang-orang Yahudi tentang hari Sabat, kemudian pada Surah al-Isr\u0101\u2019 dijelaskan syariat orang Yahudi yang ditetapkan bagi mereka dalam Taurat.\n2. \tSesudah Allah swt menganjurkan kepada Nabi Muhammad saw dalam Surah an-Na\u1e25l agar bersabar dan melarang beliau bersedih atau berkecil hati disebabkan tipu daya orang-orang musyrik, maka pada Surah al-Isr\u0101\u2019 Allah menerangkan kemuliaan Nabi Muhammad saw serta martabatnya yang tinggi di hadapan Allah swt.\n3. \tDalam Surah an-Na\u1e25l Allah menerangkan bermacam-macam nikmat-Nya, dimana kebanyakan manusia tidak mensyukurinya. Dalam Surah al-Isr\u0101\u2019 disebutkan lagi nikmat Allah yang lebih besar yang diberikan kepada Bani Israil. Tetapi mereka tidak mensyukurinya, bahkan mereka berbuat kerusakan di muka bumi.\n4. \tDalam Surah an-Na\u1e25l, Allah mengatakan bahwa madu yang keluar dari lebah merupakan minuman yang mengandung obat bagi manusia. Dalam Surah al-Isr\u0101\u2019 diterangkan bahwa Al-Qur\u2019an pun menjadi obat dan penyembuh penyakit hati, dan rahmat bagi orang-orang yang beriman.\n ",
        "munasabah_prev_theme": "Pada ayat-ayat yang lalu, Allah swt menerangkan sikap orang-orang musyrik Mekah yang meminta agar rasul berasal dari malaikat, meminta sesuatu yang bukan-bukan kepada Rasulullah, dan mengingkari risalahnya setelah dikemukakan bukti-bukti yang kuat. Pada ayat-ayat ini Allah swt menerangkan pengalaman Nabi Musa ketika menghadapi Fir\u2018aun dan pemuka-pemuka kaumnya. Seakan-akan dengan keterangan itu Allah swt mengisyaratkan kepada Nabi Muhammad saw bahwa apa yang dialaminya telah dialami pula oleh Nabi Musa a.s., dan beliau menghadapinya dengan sabar dan tabah. ",
        "theme_group": "PENGALAMAN NABI MUSA DALAM BERDAKWAH\nMENJADI PELIPUR HATI NABI MUHAMMAD\n",
        "kosakata": "Kosakata: Ma\u1e61b\u016bran \u0645\u064e\u062b\u0652\u0628\u064f\u0648\u0652\u0631\u064b\u0627 (al-Isr\u0101\u2019/17: 102)\nMa\u1e61b\u016bran adalah ismul maf\u2019\u016bl dari kata kerja atau fi\u2019il \ufeed\ufe9b\ufe92\ufeae\ufe8d \ufe9b\ufe92\ufeae \ufef3\ufe9c\ufe92\ufeae \ufe9b\ufe92\ufeee\ufead\ufe8d artinya binasa. Jadi ma\u1e61b\u016bran artinya orang yang dibinasakan atau orang yang binasa. Meskipun Fir\u2018aun seorang yang sangat berkuasa terhadap rakyat dan kerajaannya, Allah sangat mudah untuk menghancurkan Fir\u2018aun dengan segala pengikutnya. Dalam ayat 102 Surah al-Isr\u0101\u2019 ini diterangkan bahwa Fir\u2018aun dan semua pengikutnya akan hancur binasa. Hal ini terbukti ketika Fir\u2018aun mau menangkap Nabi Musa, tetapi Nabi Musa dengan Bani Israil meninggalkan Mesir, maka Fir\u2018aun dengan bala tentaranya tenggelam di Laut Merah. Nabi Musa beserta pengikutnya dari Bani Israil selamat dari kejaran Fir\u2018aun karena telah melintasi Laut Merah dengan aman atas izin Allah.",
        "sabab_nuzul": null,
        "conclusion": "1. \tAllah swt telah melengkapi kerasulan Musa a.s. dengan sembilan macam mukjizat, tetapi Fir\u2018aun dan pengikut-pengikutnya tetap tidak mem-percayainya.\n2. \tNabi Musa a.s. memperingatkan Fir\u2018aun bahwa kebinasaan akan menimpanya, jika ia tidak mengakui kekuasaan dan keesaan Allah swt.\n3. \tFir\u2018aun dan pengikut-pengikutnya berencana untuk mengusir Musa dan Bani Israil dari negeri Mesir, tetapi Allah swt menenggelamkan mereka lebih dahulu, sebelum sempat melaksanakan maksudnya.\n4. \tAllah swt menyelamatkan Musa dan Bani Israil dan memerintahkan mereka mendiami Palestina sampai waktu yang ditentukan. Kemudian mereka diwafatkan dan dibangkitkan kembali pada hari kiamat untuk menerima putusan Allah. "
    }
}