{
    "id": 2186,
    "surah_id": 18,
    "ayah": 46,
    "page": 299,
    "quarter_hizb": 30.5,
    "juz": 15,
    "manzil": 4,
    "arabic": "\u0627\u064e\u0644\u0652\u0645\u064e\u0627\u0644\u064f \u0648\u064e\u0627\u0644\u0652\u0628\u064e\u0646\u064f\u0648\u0652\u0646\u064e \u0632\u0650\u064a\u0652\u0646\u064e\u0629\u064f \u0627\u0644\u0652\u062d\u064e\u064a\u0670\u0648\u0629\u0650 \u0627\u0644\u062f\u0651\u064f\u0646\u0652\u064a\u064e\u0627\u06da \u0648\u064e\u0627\u0644\u0652\u0628\u0670\u0642\u0650\u064a\u0670\u062a\u064f \u0627\u0644\u0635\u0651\u0670\u0644\u0650\u062d\u0670\u062a\u064f \u062e\u064e\u064a\u0652\u0631\u064c \u0639\u0650\u0646\u0652\u062f\u064e \u0631\u064e\u0628\u0651\u0650\u0643\u064e \u062b\u064e\u0648\u064e\u0627\u0628\u064b\u0627 \u0648\u0651\u064e\u062e\u064e\u064a\u0652\u0631\u064c \u0627\u064e\u0645\u064e\u0644\u064b\u0627",
    "latin": "Al-m\u0101lu wal-ban\u016bna z\u012bnatul-\u1e25ay\u0101tid-dun-y\u0101, wal-b\u0101qiy\u0101tu\u1e63-\u1e63\u0101li\u1e25\u0101tu khairun \u2018inda rabbika \u1e61aw\u0101baw wa khairun amal\u0101(n).",
    "translation": "Harta dan anak-anak adalah perhiasan kehidupan dunia, sedangkan amal kebajikan yang abadi (pahalanya)448) adalah lebih baik balasannya di sisi Tuhanmu serta lebih baik untuk menjadi harapan.",
    "no_footnote": "448",
    "footnotes": "448) Di antara contoh amal kebajikan yang abadi pahalanya adalah melaksanakan rukun Islam dengan benar dan membaca tasbih, tahmid, dan zikir-zikir lainnya.",
    "surah": {
        "id": 18,
        "arabic": " \u0627\u0644\u0643\u0647\u0641",
        "latin": "Al-Kahf",
        "transliteration": "Al-Kahf",
        "translation": "Gua",
        "num_ayah": 110,
        "page": 293,
        "location": "Makkiyah"
    },
    "tafsir": {
        "wajiz": "Harta dan anak-anak adalah perhiasan kehidupan dunia, baik dan indah sifatnya serta bermanfaat bagi manusia, tetapi dapat memperdaya dan tidak kekal; tetapi amalan-amalan yang kekal lagi saleh yang dilakukan karena Allah dan sesuai tuntunan agama adalah lebih baik pahalanya di sisi Tuhanmu serta lebih baik untuk menjadi harapan yang dapat membawa kepada kebahagiaan yang kekal sampai di akhirat nanti.",
        "tahlili": "Allah menjelaskan bahwa yang menjadi kebanggaan manusia di dunia ini adalah harta benda dan anak-anak, karena manusia sangat mem-perhatikan keduanya. Banyak harta dan anak dapat memberikan kehidupan dan martabat yang terhormat kepada orang yang memilikinya. Seperti halnya \u2018Uyainah, pemuka Quraisy yang kaya itu, atau Qur\u1e6dus, yang mempunyai kedudukan mulia di tengah-tengah kaumnya, karena memiliki kekayaan dan anak buah yang banyak. Karena harta dan anak pula, orang menjadi takabur dan merendahkan orang lain. Allah menegaskan bahwa keduanya hanyalah perhiasan hidup duniawi, bukan perhiasan dan bekal untuk ukhrawi. Padahal manusia sudah menyadari bahwa keduanya akan segera binasa dan tidak patut dijadikan bahan kesombongan. Dalam urutan ayat ini, harta didahulukan dari anak, padahal anak lebih dekat ke hati manusia, karena harta sebagai perhiasan lebih sempurna daripada anak. Harta dapat menolong orang tua dan anak setiap waktu dan dengan harta itu pula kelangsungan hidup keturunan dapat terjamin. Kebutuhan manusia terhadap harta lebih besar daripada kebutuhannya terhadap anak, tetapi tidak sebaliknya. \n\tKemudian Allah swt menjelaskan bahwa yang patut dibanggakan hanyalah amal kebajikan yang buahnya dirasakan oleh manusia sepanjang zaman sampai akhirat, seperti amal ibadah salat, puasa, zakat, jihad di jalan Allah, serta amal ibadah sosial seperti membangun sekolah, rumah anak yatim, rumah orang-orang jompo, dan lain sebagainya. Amal kebajikan ini lebih baik pahalanya di sisi Allah daripada harta dan anak-anak yang jauh dari petunjuk Allah swt, dan tentu menjadi pembela dan pemberi syafaat bagi orang yang memilikinya di hari akhirat ketika harta dan anak tidak lagi bermanfaat.",
        "intro_surah": "Surah ini terdiri atas 110 ayat, termasuk golongan surah-surah Makkiyah. Dinamai al-Kahf artinya gua dan A\u1e63\u1e25\u0101bul Kahfi yang artinya \u201cPenghuni-penghuni Gua\u201d. Kedua nama ini diambil dari kisah yang terdapat dalam surah ini pada ayat 9 s/d 26, tentang beberapa orang pemuda yang bersembunyi dan ditidurkan Allah dalam gua selama bertahun-tahun lamanya. Selain kisah tersebut, terdapat pula beberapa kisah dalam surah ini, yang kesemuanya mengandung iktibar dan pelajaran yang amat berguna bagi manusia dalam menjalani kehidupannya. \n\nPokok-pokok Isinya:\n1. \tKeimanan:\nKekuasaan Allah swt untuk memberi ketahanan hidup pada manusia di luar hukum kebiasaan; dasar-dasar tauhid serta keadilan Allah swt tidak berubah untuk selama-lamanya; kalimat-kalimat Allah (ilmu-Nya) amat luas sekali, meliputi segala sesuatu; sehingga manusia tidak mampu untuk menulisnya. Kepastian datangnya hari kebangkitan, Al-Qur\u2019an adalah kitab suci yang isinya bersih dari pertentangan dan kepalsuan.\n2. \tHukum:\nDasar hukum wakalah (berwakil); larangan membangun tempat ibadah di atas kuburan; hukum membaca \u201cinsy\u0101 All\u0101h\u201d, hukum perbuatan salah yang dilakukan karena lupa adalah dimaafkan; kebolehan merusak satu barang untuk menghindarkan bahaya yang lebih besar.\n3. \tKisah:\nKisah A\u1e63\u1e25\u0101bul Kahf; kisah dua orang laki-laki yang seorang kafir dan yang lainnya mukmin, kisah Nabi Musa a.s. dengan Khidir a.s.; kisah Zulkarnain dengan Ya\u2019juj dan Ma\u2019juj.\n4. \tLain-lain:\nBeberapa pelajaran yang dapat diambil dari kisah-kisah dalam surah ini antara lain tentang kekuatan iman kepada Allah swt serta ibadah yang ikhlas kepada-Nya; kesungguhan seseorang dalam mencari guru (ilmu); adab sopan santun antara murid dan guru; dan beberapa contoh tentang cara memimpin dan memerintah rakyat serta negara.",
        "outro_surah": null,
        "munasabah_prev_surah": "MUNASABAH SURAH AL-ISR\u0100\u2019 DENGAN\nSURAH AL-KAHF\n\n1. \tSurah al-Isr\u0101\u2019 dimulai dengan tasbih (membaca sub\u1e25\u0101nall\u0101h) untuk mensucikan Allah, sedang Surah al-Kahf dibuka dengan tahmid (membaca al\u1e25amdulill\u0101h) untuk memuji-Nya. Tasbih dan tahmid adalah dua kata yang sering bergandengan dalam firman-firman Allah.\n2. \tPersamaan antara penutup Surah al-Isr\u0101\u2019 dengan pembukaan Surah al-Kahf yaitu sama-sama dengan tahmid kepada Allah.\n3. \tMenurut riwayat ada tiga buah pertanyaan yang diajukan oleh orang-orang Yahudi dengan perantaraan orang-orang musyrik kepada Nabi Muhammad saw, yakni masalah roh, kisah A\u1e63\u1e25\u0101bul Kahf dan kisah Zulkarnain. Masalah roh itu dijawab dalam Surah al-Isr\u0101\u2019, dan dua masalah lainnya pada Surah al-Kahf.\n4. \tDalam Surah al-Isr\u0101\u2019 ayat 85 Allah berfirman, \u201cTidaklah kamu diberi ilmu kecuali hanyalah sedikit.\u201d Firman ini ditujukan kepada sebagian orang-orang Yahudi yang merasa sombong dengan ilmu pengetahuan yang ada pada mereka, sebab bagaimanapun juga mereka adalah manusia yang hanya diberi ilmu pengetahuan sedikit. Dalam Surah al-Kahf Allah menceritakan tentang Nabi Musa a.s. dengan Nabi Khidir a.s. yang belum pernah diketahui oleh orang-orang Yahudi. Dalam kisah ini terlihat betapa sedikitnya ilmu Nabi Musa dibandingkan dengan ilmu Nabi Khidir.",
        "munasabah_prev_theme": "Pada ayat-ayat yang lalu, Allah menceritakan kehidupan dua orang manusia, satu orang kafir dan yang lainnya mukmin. Dalam ayat ini, Allah swt memberikan gambaran bagi kehidupan dunia pada umumnya.",
        "theme_group": "PERUMPAMAAN KEHIDUPAN DUNIA",
        "kosakata": "Kosakata: Hasy\u012bm\u0101  \u0647\u064e\u0634\u0650\u064a\u0652\u0645\u064b\u0627  (al-Kahf/18: 45)\nHasyima adalah bentuk ma\u1e63dar dari kata hasyama \u2013 yahsyimu - hasyman yang berarti memecahkan sesuatu yang lunak dan mudah remuk seperti tanaman yang kering. Ihtasyama an-naqah berarti air susunya telah kering karena habis diperas. Hasyamtu al-hubz berarti aku telah mengeringkan roti. Dalam ayat ini, dijelaskan bahwa Allah SWT memberikan perumpamaan tentang kehidupan dunia seperti air hujan yang menjadikan tanam-tanaman subur, kemudian tumbuh-tumbuhan itu menjadi kering tak berarti yang jika datang angin, maka semuanya dengan sangat mudah akan diterbangkan ke berbagai arah.",
        "sabab_nuzul": null,
        "conclusion": "1.\tPerubahan nasib dalam kehidupan manusia dari kaya menjadi miskin atau sebaliknya, sudah menjadi sunatullah, sama halnya dengan perubahan yang terjadi dalam dunia tumbuh-tumbuhan dari subur menjadi kering.\n2.\tHarta benda dan anak merupakan perhiasan hidup duniawi. Oleh karena itu, jangan sampai membuat orang lalai pada kehidupan akhirat yang lebih baik dan abadi."
    }
}