{
    "id": 2181,
    "surah_id": 18,
    "ayah": 41,
    "page": 298,
    "quarter_hizb": 30.5,
    "juz": 15,
    "manzil": 4,
    "arabic": "\u0627\u064e\u0648\u0652 \u064a\u064f\u0635\u0652\u0628\u0650\u062d\u064e \u0645\u064e\u0627\u06e4\u0624\u064f\u0647\u064e\u0627 \u063a\u064e\u0648\u0652\u0631\u064b\u0627 \u0641\u064e\u0644\u064e\u0646\u0652 \u062a\u064e\u0633\u0652\u062a\u064e\u0637\u0650\u064a\u0652\u0639\u064e \u0644\u064e\u0647\u0657 \u0637\u064e\u0644\u064e\u0628\u064b\u0627 ",
    "latin": "Au yu\u1e63bi\u1e25a m\u0101'uh\u0101 gauran falan tasta\u1e6d\u012b\u2018a lah\u016b \u1e6dalab\u0101(n).",
    "translation": "atau airnya menjadi surut ke dalam tanah sehingga engkau tidak akan dapat menemukannya lagi.\u201d",
    "no_footnote": null,
    "footnotes": null,
    "surah": {
        "id": 18,
        "arabic": " \u0627\u0644\u0643\u0647\u0641",
        "latin": "Al-Kahf",
        "transliteration": "Al-Kahf",
        "translation": "Gua",
        "num_ayah": 110,
        "page": 293,
        "location": "Makkiyah"
    },
    "tafsir": {
        "wajiz": "atau airnya menjadi surut meresap ke dalam tanah, maka engkau tidak akan dapat menemukannya lagi, yakni tidak dapat menemukan lagi sumber air yang dapat mengairi kebunmu.",
        "tahlili": "\u201cAtau Allah menghancurkan kebun-kebun itu dengan bencana dari bumi dengan jalan menghisap air yang mengalirinya dan masuk ke dalam perut bumi, sehingga kamu tak dapat berbuat apa-apa untuk mencari air itu lagi.\u201d\n\tDemikianlah harapan Yahuza yang mukmin itu, agar Allah memperlihat-kan kekuasaan-Nya secara nyata kepada orang yang kafir dan sombong itu. Dengan turunnya hukuman itu, baik berupa bencana dari langit ataupun dari bumi, manusia yang kafir itu bisa menjadi sadar.",
        "intro_surah": "Surah ini terdiri atas 110 ayat, termasuk golongan surah-surah Makkiyah. Dinamai al-Kahf artinya gua dan A\u1e63\u1e25\u0101bul Kahfi yang artinya \u201cPenghuni-penghuni Gua\u201d. Kedua nama ini diambil dari kisah yang terdapat dalam surah ini pada ayat 9 s/d 26, tentang beberapa orang pemuda yang bersembunyi dan ditidurkan Allah dalam gua selama bertahun-tahun lamanya. Selain kisah tersebut, terdapat pula beberapa kisah dalam surah ini, yang kesemuanya mengandung iktibar dan pelajaran yang amat berguna bagi manusia dalam menjalani kehidupannya. \n\nPokok-pokok Isinya:\n1. \tKeimanan:\nKekuasaan Allah swt untuk memberi ketahanan hidup pada manusia di luar hukum kebiasaan; dasar-dasar tauhid serta keadilan Allah swt tidak berubah untuk selama-lamanya; kalimat-kalimat Allah (ilmu-Nya) amat luas sekali, meliputi segala sesuatu; sehingga manusia tidak mampu untuk menulisnya. Kepastian datangnya hari kebangkitan, Al-Qur\u2019an adalah kitab suci yang isinya bersih dari pertentangan dan kepalsuan.\n2. \tHukum:\nDasar hukum wakalah (berwakil); larangan membangun tempat ibadah di atas kuburan; hukum membaca \u201cinsy\u0101 All\u0101h\u201d, hukum perbuatan salah yang dilakukan karena lupa adalah dimaafkan; kebolehan merusak satu barang untuk menghindarkan bahaya yang lebih besar.\n3. \tKisah:\nKisah A\u1e63\u1e25\u0101bul Kahf; kisah dua orang laki-laki yang seorang kafir dan yang lainnya mukmin, kisah Nabi Musa a.s. dengan Khidir a.s.; kisah Zulkarnain dengan Ya\u2019juj dan Ma\u2019juj.\n4. \tLain-lain:\nBeberapa pelajaran yang dapat diambil dari kisah-kisah dalam surah ini antara lain tentang kekuatan iman kepada Allah swt serta ibadah yang ikhlas kepada-Nya; kesungguhan seseorang dalam mencari guru (ilmu); adab sopan santun antara murid dan guru; dan beberapa contoh tentang cara memimpin dan memerintah rakyat serta negara.",
        "outro_surah": null,
        "munasabah_prev_surah": "MUNASABAH SURAH AL-ISR\u0100\u2019 DENGAN\nSURAH AL-KAHF\n\n1. \tSurah al-Isr\u0101\u2019 dimulai dengan tasbih (membaca sub\u1e25\u0101nall\u0101h) untuk mensucikan Allah, sedang Surah al-Kahf dibuka dengan tahmid (membaca al\u1e25amdulill\u0101h) untuk memuji-Nya. Tasbih dan tahmid adalah dua kata yang sering bergandengan dalam firman-firman Allah.\n2. \tPersamaan antara penutup Surah al-Isr\u0101\u2019 dengan pembukaan Surah al-Kahf yaitu sama-sama dengan tahmid kepada Allah.\n3. \tMenurut riwayat ada tiga buah pertanyaan yang diajukan oleh orang-orang Yahudi dengan perantaraan orang-orang musyrik kepada Nabi Muhammad saw, yakni masalah roh, kisah A\u1e63\u1e25\u0101bul Kahf dan kisah Zulkarnain. Masalah roh itu dijawab dalam Surah al-Isr\u0101\u2019, dan dua masalah lainnya pada Surah al-Kahf.\n4. \tDalam Surah al-Isr\u0101\u2019 ayat 85 Allah berfirman, \u201cTidaklah kamu diberi ilmu kecuali hanyalah sedikit.\u201d Firman ini ditujukan kepada sebagian orang-orang Yahudi yang merasa sombong dengan ilmu pengetahuan yang ada pada mereka, sebab bagaimanapun juga mereka adalah manusia yang hanya diberi ilmu pengetahuan sedikit. Dalam Surah al-Kahf Allah menceritakan tentang Nabi Musa a.s. dengan Nabi Khidir a.s. yang belum pernah diketahui oleh orang-orang Yahudi. Dalam kisah ini terlihat betapa sedikitnya ilmu Nabi Musa dibandingkan dengan ilmu Nabi Khidir.",
        "munasabah_prev_theme": "Dalam ayat-ayat yang lalu, Allah memerintahkan Rasul saw agar bersabar dan dapat menahan diri bersama orang-orang mukmin yang fakir. Allah juga mengingatkan beliau agar tidak menuruti keinginan para pemuka orang kafir yang kaya untuk menyingkirkan mereka yang fakir dari majelis Rasul dan membuat majelis tersendiri untuk mereka. Dalam ayat-ayat berikut ini, Allah menerangkan sesungguhnya harta benda tidak patut dijadikan kebanggaan dan kesombongan, karena sewaktu-waktu dapat lenyap. Banyak orang yang tadinya kaya, tiba-tiba menjadi miskin, begitu juga sebaliknya. Seharusnya yang menjadi sumber kebanggaan itu adalah ketaatan kepada Allah dan amal perbuatan yang diridai-Nya.",
        "theme_group": "PERUMPAMAAN KEHIDUPAN ORANG-ORANG\nYANG TEPERDAYA KEHIDUPAN DUNIA",
        "kosakata": "1. Tab\u012bd  \u062a\u064e\u0628\u0650\u064a\u0652\u062f\u064e  (al-Kahf/18: 35)\nLafaz tab\u012bda merupakan bentukan dari kata bayd,  terambil dari akar kata b\u0101da \u2013 yab\u012bdu \u2013 bay\u0101dan yang berarti hancur beterbangan seperti sesuatu yang tersebar diterpa angin di gurun pasir atau diartikan pula dengan kebinasaan. Gurun pasir disebut juga dengan baid\u0101\u2019, bentuk jamaknya adalah baidun. Maksud ayat ini adalah Allah swt membuat perumpamaan terhadap dua orang Yahudi, yang seorang mukmin dan lainnya adalah kafir. Keduanya diberikan dua buah kebun anggur yang dikelilingi pohon kurma dan dialiri di celah antara keduanya dengan sebuah sungai. Orang Yahudi kafir dengan segala keangkuhan dan kesombongan dirinya berkata kepada orang Islam bahwa kebun yang dia miliki tidak akan hancur atau binasa selama-lamanya.\n2. Gauran  \u063a\u064e\u0648\u0652\u0631\u064b\u0627  (al-Kahf/18: 41)\nGauran terambil dari kata g\u0101ra- yag\u016bru - gauran  yang berarti masuk ke bagian yang paling dalam dari bumi atau lembah bumi. G\u0101rat \u2018ainuhu berarti air matanya menjadi kering karena masuk ke bagian dalam. Dalam Surah al-Mulk/67: 30 firman Allah: a\u1e63ba\u1e25a m\u0101\u2019ukum gauran berarti sumber air kamu menjadi kering. G\u0101r berarti gua yang ada di lembah gunung. Penjelasannya adalah bahwa orang Yahudi yang telah masuk Islam menjawab kesombongan orang kafir bahwa Allah swt akan memberikan kebun yang lebih baik dari kebunnya dan semoga Allah swt mengirimkan petir kepada kebunnya sehingga menjadi tanah yang licin dan airnya menjadi surut dan kering, masuk ke dalam tanah sehingga tidak akan bisa ditemukan lagi.",
        "sabab_nuzul": null,
        "conclusion": null
    }
}