{
    "id": 2159,
    "surah_id": 18,
    "ayah": 19,
    "page": 295,
    "quarter_hizb": 30.25,
    "juz": 15,
    "manzil": 4,
    "arabic": "\u0648\u064e\u0643\u064e\u0630\u0670\u0644\u0650\u0643\u064e \u0628\u064e\u0639\u064e\u062b\u0652\u0646\u0670\u0647\u064f\u0645\u0652 \u0644\u0650\u064a\u064e\u062a\u064e\u0633\u064e\u0627\u06e4\u0621\u064e\u0644\u064f\u0648\u0652\u0627 \u0628\u064e\u064a\u0652\u0646\u064e\u0647\u064f\u0645\u0652\u06d7 \u0642\u064e\u0627\u0644\u064e \u0642\u064e\u0627\u06e4\u0649\u0655\u0650\u0644\u064c \u0645\u0651\u0650\u0646\u0652\u0647\u064f\u0645\u0652 \u0643\u064e\u0645\u0652 \u0644\u064e\u0628\u0650\u062b\u0652\u062a\u064f\u0645\u0652\u06d7 \u0642\u064e\u0627\u0644\u064f\u0648\u0652\u0627 \u0644\u064e\u0628\u0650\u062b\u0652\u0646\u064e\u0627 \u064a\u064e\u0648\u0652\u0645\u064b\u0627 \u0627\u064e\u0648\u0652 \u0628\u064e\u0639\u0652\u0636\u064e \u064a\u064e\u0648\u0652\u0645\u064d\u06d7 \u0642\u064e\u0627\u0644\u064f\u0648\u0652\u0627 \u0631\u064e\u0628\u0651\u064f\u0643\u064f\u0645\u0652 \u0627\u064e\u0639\u0652\u0644\u064e\u0645\u064f \u0628\u0650\u0645\u064e\u0627 \u0644\u064e\u0628\u0650\u062b\u0652\u062a\u064f\u0645\u0652\u06d7 \u0641\u064e\u0627\u0628\u0652\u0639\u064e\u062b\u064f\u0648\u0652\u0653\u0627 \u0627\u064e\u062d\u064e\u062f\u064e\u0643\u064f\u0645\u0652 \u0628\u0650\u0648\u064e\u0631\u0650\u0642\u0650\u0643\u064f\u0645\u0652 \u0647\u0670\u0630\u0650\u0647\u0656\u0653 \u0627\u0650\u0644\u064e\u0649 \u0627\u0644\u0652\u0645\u064e\u062f\u0650\u064a\u0652\u0646\u064e\u0629\u0650 \u0641\u064e\u0644\u0652\u064a\u064e\u0646\u0652\u0638\u064f\u0631\u0652 \u0627\u064e\u064a\u0651\u064f\u0647\u064e\u0627\u0653 \u0627\u064e\u0632\u0652\u0643\u0670\u0649 \u0637\u064e\u0639\u064e\u0627\u0645\u064b\u0627 \u0641\u064e\u0644\u0652\u064a\u064e\u0623\u0652\u062a\u0650\u0643\u064f\u0645\u0652 \u0628\u0650\u0631\u0650\u0632\u0652\u0642\u064d \u0645\u0651\u0650\u0646\u0652\u0647\u064f \u0648\u064e\u0644\u0652\u064a\u064e\u062a\u064e\u0644\u064e\u0637\u0651\u064e\u0641\u0652 \u0648\u064e\u0644\u064e\u0627 \u064a\u064f\u0634\u0652\u0639\u0650\u0631\u064e\u0646\u0651\u064e \u0628\u0650\u0643\u064f\u0645\u0652 \u0627\u064e\u062d\u064e\u062f\u064b\u0627 ",
    "latin": "Wa ka\u017c\u0101lika ba\u2018a\u1e61n\u0101hum liyatas\u0101'al\u016b bainahum, q\u0101la q\u0101'ilum minhum kam labi\u1e61tum, q\u0101l\u016b labi\u1e61n\u0101 yauman au ba\u2018\u1e0da yaum(in), q\u0101l\u016b rabbukum a\u2018lamu bim\u0101 labi\u1e61tum, fab\u2018a\u1e61\u016b a\u1e25adakum biwariqikum h\u0101\u017cih\u012b ilal-mad\u012bnati falyan\u1e93ur ayyuh\u0101 azk\u0101 \u1e6da\u2018\u0101man falya'tikum  birizqim minhu walyatala\u1e6d\u1e6daf wa l\u0101 yusy\u2018iranna bikum a\u1e25ad\u0101(n).",
    "translation": "Demikianlah, Kami membangunkan mereka agar saling bertanya di antara mereka (sendiri). Salah seorang di antara mereka berkata, \u201cSudah berapa lama kamu berada (di sini)?\u201d Mereka menjawab, \u201cKita berada (di sini) sehari atau setengah hari.\u201d Mereka (yang lain lagi) berkata, \u201cTuhanmu lebih mengetahui berapa lama kamu berada (di sini). Maka, utuslah salah seorang di antara kamu pergi ke kota dengan membawa uang perakmu ini. Hendaklah dia melihat manakah makanan yang lebih baik, lalu membawa sebagian makanan itu untukmu. Hendaklah pula dia berlaku lemah lembut dan jangan sekali-kali memberitahukan keadaanmu kepada siapa pun.",
    "no_footnote": null,
    "footnotes": null,
    "surah": {
        "id": 18,
        "arabic": " \u0627\u0644\u0643\u0647\u0641",
        "latin": "Al-Kahf",
        "transliteration": "Al-Kahf",
        "translation": "Gua",
        "num_ayah": 110,
        "page": 293,
        "location": "Makkiyah"
    },
    "tafsir": {
        "wajiz": "Dan demikianlah setelah kami tidurkan mereka dalam waktu yang lama dan Kami jaga mereka di dalam tidurnya itu, Kami bangunkan mereka agar di antara mereka saling bertanya tentang keadaan mereka. Salah seorang di antara mereka berkata, \u201cSudah berapa lama kamu berada di sini?\u201d  Mereka menjawab, \u201cKita berada (di sini) sehari atau setengah hari.\u201d Mereka mengira baru satu atau setengah hari di dalam gua, sebab mereka masuk ke dalam gua pada pagi hari dan bangun dari tidur pada sore hari. Melihat keadaan di dalam gua itu dan di sekitarnya berbeda dengan apa yang disaksikan dahulu, mereka ragu berapa lama tinggal di dalam gua. Maka timbullah perbedaan pendapat di antara mereka. Kemudian berkata seorang di antara mereka, \u201cTak usah kita perdebatkan berapa lama kita di sini, Tuhanmu lebih mengetahui berapa lama kamu berada di sini. Meraka merasa lapar maka salah seorang di antara mereka berkata, suruhlah salah seorang di antara kamu pergi ke kota untuk membeli makanan dengan membawa uang perakmu ini, dan hendaklah dia mencari tempat menjual makanan dan lihat manakah makanan yang lebih baik, maka belilah makanan itu dan bawalah sebagian makanan itu untukmu, dan hendaklah dia berlaku lemah lembut kepada siapa saja di kota itu dan jangan sekali-kali menceritakan halmu kepada siapa pun agar mereka tidak mengetahui keadaanmu dan tempatmu bersembunyi.",
        "tahlili": "Dalam ayat ini, Allah swt menerangkan tentang para pemuda A\u1e63\u1e25\u0101bul Kahf ketika bangun dari tidur. Keadaan mereka, baik badan, kulit, rambut, maupun yang lainnya masih sama dengan waktu sebelum mereka tidur. Semuanya sehat dan semuanya masih utuh, bahkan pakaian yang melekat di badan mereka tetap utuh. Allah swt memperlihatkan kepada mereka keagungan, kebesaran, dan kekuasaan-Nya, serta keajaiban dan keluarbiasaan perbuatan-Nya terhadap makhluk-Nya. Oleh karena itu, iman mereka bertambah kuat untuk melepaskan diri dari penyembahan dewa-dewa, dan bertambah ikhlas hati mereka untuk semata-mata menyembah Allah Yang Maha Esa.\n\tSetelah bangun dari tidur yang lama, mereka saling bertanya satu sama lain untuk mengetahui keadaan mereka. Salah seorang dari mereka berkata kepada kawan-kawannya, \u201cBerapa lama kalian tinggal dalam gua ini?\u201d Dia menyatakan ketidaktahuannya tentang keadaan dirinya sendiri selama tidur, lalu meminta kepada yang lainnya untuk memberikan keterangan. Kawan-kawannya menjawab, \u201cKita tinggal dalam gua ini sehari atau setengah hari.\u201d Yang menjawab itupun tidak dapat memastikan berapa lama mereka tinggal, sehari atau setengah hari, karena pengaruh tidur masih belum lenyap dari jiwa mereka. Mereka belum melihat tanda-tanda yang menunjukkan sudah berapa lama mereka berada di gua itu. Kebanyakan ahli tafsir mengatakan bahwa waktu mereka datang memasuki gua itu dulu adalah pada pagi hari, kemudian waktu Tuhan membangunkan mereka dari tidur adalah pada sore hari. Karena itulah orang yang menjawab ini menyangka bahwa mereka berada di gua itu satu atau setengah hari. Kemudian kawan-kawannya yang lain berkata, \u201cTuhan kamu lebih mengetahui berapa lama kamu tinggal di sini.\u201d Perkataan pemuda yang terakhir ini sangat bijaksana untuk membantah pernyataan dan jawaban kawan-kawannya yang terdahulu. Pernyataan itu seakan-akan diilhami oleh Allah swt, atau didasarkan atas bukti-bukti nyata. Sesungguhnya masa yang panjang itu hanya dapat diketahui dan ditentukan secara pasti oleh Allah swt. Mereka akhirnya menyadari keterbatasan kemampuan mereka untuk mengetahui yang gaib. \nSetelah sadar, barulah perhatian mereka beralih kepada kebutuhan yang pokok, yakni makan dan minum. Salah seorang di antara mereka disuruh pergi ke kota dengan membawa uang perak untuk membeli makanan. Menurut riwayat namanya Tamlikha. Sebelum membeli, ia diminta terlebih dahulu memperhatikan makanan itu, mana yang halal dan mana yang haram, serta mana yang baik dan mana yang kurang baik. Makanan yang halal dan baik itulah yang dibawa kembali ke tempat perlindungan mereka. Tamlikha diminta agar berhati-hati dalam perjalanan, baik sewaktu masuk ke kota maupun kembali dari kota, jangan sampai dia memberitahukan kepada seorang pun tentang keadaan dan tempat bersembunyi mereka. \nDari potongan ayat \u201cfab\u2019a\u1e61\u016b a\u1e25adakum biwariqikum h\u0101\u017cih(i)\u201d,  yang artinya \u201c(maka suruhlah) salah seorang di antara kamu pergi ke kota dengan membawa uang perakmu ini\u201d, terdapat istimbat hukum yang berhubungan dengan wakalah (berwakil). Yakni seseorang dibolehkan menyerahkan kepada orang lain, sebagai ganti dirinya, urusan harta dan hak semasa hidupnya. Ibnu al-\u2019Arab\u012b berpendapat bahwa ayat ini menjadi dasar paling kuat untuk wakalah (berwakil).",
        "intro_surah": "Surah ini terdiri atas 110 ayat, termasuk golongan surah-surah Makkiyah. Dinamai al-Kahf artinya gua dan A\u1e63\u1e25\u0101bul Kahfi yang artinya \u201cPenghuni-penghuni Gua\u201d. Kedua nama ini diambil dari kisah yang terdapat dalam surah ini pada ayat 9 s/d 26, tentang beberapa orang pemuda yang bersembunyi dan ditidurkan Allah dalam gua selama bertahun-tahun lamanya. Selain kisah tersebut, terdapat pula beberapa kisah dalam surah ini, yang kesemuanya mengandung iktibar dan pelajaran yang amat berguna bagi manusia dalam menjalani kehidupannya. \n\nPokok-pokok Isinya:\n1. \tKeimanan:\nKekuasaan Allah swt untuk memberi ketahanan hidup pada manusia di luar hukum kebiasaan; dasar-dasar tauhid serta keadilan Allah swt tidak berubah untuk selama-lamanya; kalimat-kalimat Allah (ilmu-Nya) amat luas sekali, meliputi segala sesuatu; sehingga manusia tidak mampu untuk menulisnya. Kepastian datangnya hari kebangkitan, Al-Qur\u2019an adalah kitab suci yang isinya bersih dari pertentangan dan kepalsuan.\n2. \tHukum:\nDasar hukum wakalah (berwakil); larangan membangun tempat ibadah di atas kuburan; hukum membaca \u201cinsy\u0101 All\u0101h\u201d, hukum perbuatan salah yang dilakukan karena lupa adalah dimaafkan; kebolehan merusak satu barang untuk menghindarkan bahaya yang lebih besar.\n3. \tKisah:\nKisah A\u1e63\u1e25\u0101bul Kahf; kisah dua orang laki-laki yang seorang kafir dan yang lainnya mukmin, kisah Nabi Musa a.s. dengan Khidir a.s.; kisah Zulkarnain dengan Ya\u2019juj dan Ma\u2019juj.\n4. \tLain-lain:\nBeberapa pelajaran yang dapat diambil dari kisah-kisah dalam surah ini antara lain tentang kekuatan iman kepada Allah swt serta ibadah yang ikhlas kepada-Nya; kesungguhan seseorang dalam mencari guru (ilmu); adab sopan santun antara murid dan guru; dan beberapa contoh tentang cara memimpin dan memerintah rakyat serta negara.",
        "outro_surah": null,
        "munasabah_prev_surah": "MUNASABAH SURAH AL-ISR\u0100\u2019 DENGAN\nSURAH AL-KAHF\n\n1. \tSurah al-Isr\u0101\u2019 dimulai dengan tasbih (membaca sub\u1e25\u0101nall\u0101h) untuk mensucikan Allah, sedang Surah al-Kahf dibuka dengan tahmid (membaca al\u1e25amdulill\u0101h) untuk memuji-Nya. Tasbih dan tahmid adalah dua kata yang sering bergandengan dalam firman-firman Allah.\n2. \tPersamaan antara penutup Surah al-Isr\u0101\u2019 dengan pembukaan Surah al-Kahf yaitu sama-sama dengan tahmid kepada Allah.\n3. \tMenurut riwayat ada tiga buah pertanyaan yang diajukan oleh orang-orang Yahudi dengan perantaraan orang-orang musyrik kepada Nabi Muhammad saw, yakni masalah roh, kisah A\u1e63\u1e25\u0101bul Kahf dan kisah Zulkarnain. Masalah roh itu dijawab dalam Surah al-Isr\u0101\u2019, dan dua masalah lainnya pada Surah al-Kahf.\n4. \tDalam Surah al-Isr\u0101\u2019 ayat 85 Allah berfirman, \u201cTidaklah kamu diberi ilmu kecuali hanyalah sedikit.\u201d Firman ini ditujukan kepada sebagian orang-orang Yahudi yang merasa sombong dengan ilmu pengetahuan yang ada pada mereka, sebab bagaimanapun juga mereka adalah manusia yang hanya diberi ilmu pengetahuan sedikit. Dalam Surah al-Kahf Allah menceritakan tentang Nabi Musa a.s. dengan Nabi Khidir a.s. yang belum pernah diketahui oleh orang-orang Yahudi. Dalam kisah ini terlihat betapa sedikitnya ilmu Nabi Musa dibandingkan dengan ilmu Nabi Khidir.",
        "munasabah_prev_theme": "Pada ayat-ayat yang lalu, Allah menceritakan latar belakang kepergian para pemuda itu ke gua, menerangkan ketabahan dan keimanan mereka, menggambarkan keadaan gua tempat mereka mengasingkan diri sampai mereka tertidur dalam gua itu. Pada ayat-ayat ini, Allah kembali menceritakan kisah mereka secara terperinci mulai dari perdebatan seputar berapa lama mereka tinggal di gua sampai masyarakat menemukan mereka setelah terbangun dari tidur.",
        "theme_group": "A\u1e62\u1e24\u0100BUL KAHF BANGUN DARI TIDUR",
        "kosakata": "Kosakata: Walyatala\u1e6d\u1e6daf  \u0648\u064e\u0644\u0652\u064a\u064e\u062a\u064e\u0644\u064e\u0637\u0651\u064e\u0641\u0652  (al-Kahf/18: 22)\nWalyatala\u1e6d\u1e6daf terbentuk dari akar kata la\u1e6dafa \u2013 yal\u1e6dafu - la\u1e6dfan yang berarti lemah lembut/ramah, atau suatu gerakan yang ringan dan halus tanpa diketahui oleh panca indera. Kemudian makna ini melebar menjadi suatu tingkah laku yang lemah lembut dan halus. Allah menamai diri-Nya dengan nama al-La\u1e6d\u012bf yang berarti Yang Mahalembut. Dalam ayat ini, dijelaskan bahwa para a\u1e63\u1e25\u0101bul kahf menyarankan kepada temannya yang akan pergi ke kota untuk berlaku lemah lembut ketika akan membeli kebutuhan mereka, begitu pula terhadap orang-orang yang ia temui baik dalam perjalanan atau pun ketika sudah masuk kawasan perkotaan. Hal ini dilakukan agar orang-orang tidak merasa curiga dengan kehadiran mereka. Ayat ini juga mengandung ibrah (pelajaran) bahwa seseorang yang pergi ke luar sebaiknya berperilaku sopan dan lemah lembut terhadap orang-orang yang ditemuinya. ",
        "sabab_nuzul": null,
        "conclusion": null
    }
}