{
    "id": 2287,
    "surah_id": 19,
    "ayah": 37,
    "page": 307,
    "quarter_hizb": 31.5,
    "juz": 16,
    "manzil": 4,
    "arabic": "\u0641\u064e\u0627\u062e\u0652\u062a\u064e\u0644\u064e\u0641\u064e \u0627\u0644\u0652\u0627\u064e\u062d\u0652\u0632\u064e\u0627\u0628\u064f \u0645\u0650\u0646\u0652\u06e2 \u0628\u064e\u064a\u0652\u0646\u0650\u0647\u0650\u0645\u0652\u06da \u0641\u064e\u0648\u064e\u064a\u0652\u0644\u064c \u0644\u0651\u0650\u0644\u0651\u064e\u0630\u0650\u064a\u0652\u0646\u064e \u0643\u064e\u0641\u064e\u0631\u064f\u0648\u0652\u0627 \u0645\u0650\u0646\u0652 \u0645\u0651\u064e\u0634\u0652\u0647\u064e\u062f\u0650 \u064a\u064e\u0648\u0652\u0645\u064d \u0639\u064e\u0638\u0650\u064a\u0652\u0645\u064d ",
    "latin": "Fakhtalafal-a\u1e25z\u0101bu mim bainihim, fa wailul lil-la\u017c\u012bna kafar\u016b mim masyhadi yaumin \u2018a\u1e93\u012bm(in).",
    "translation": "Golongan-golongan di antara mereka (Yahudi dan Nasrani) berselisih. Celakalah orang-orang yang kufur pada waktu menyaksikan hari yang sangat agung!",
    "no_footnote": null,
    "footnotes": null,
    "surah": {
        "id": 19,
        "arabic": " \u0645\u0631\u064a\u0645",
        "latin": "Maryam",
        "transliteration": "Maryam",
        "translation": "Maryam",
        "num_ayah": 98,
        "page": 305,
        "location": "Makkiyah"
    },
    "tafsir": {
        "wajiz": "Keterangan yang dikemukakan oleh Nabi Isa sangat jelas, namun Bani Israil tetap ingkar. Maka, berawal dari sikap ini berselisihlah golongan-golongan yang ada di antara mereka, yaitu antara Yahudi dan Nasrani, tentang Isa dan Maryam. Akibat keingkaran itu maka celakalah orang-orang kafir, termasuk mereka yang mempertuhankan Isa, pada waktu menyaksikan hari yang agung, yaitu hari pembalasan.",
        "tahlili": "Kemudian pada ayat ini Allah menerangkan bahwa kaum Nabi Isa tidak mengindahkan petunjuk-petunjuk yang diberikan kepada mereka. Mereka telah jatuh ke dalam lembah kesesatan dan perselisihan yang hebat. Mereka terpecah-pecah menjadi beberapa golongan; Golongan \u201cYakubiyah\u201d yaitu golongan yang mengikuti ajaran seorang pendeta bernama Yakub, yang mengatakan bahwa Isa adalah tuhan yang diturunkan ke bumi tetapi kemudian naik lagi ke langit. Golongan \u201cNasturiah\u201d yang mengikuti ajaran seorang pendeta bernama Nastur yang mengatakan bahwa Isa adalah putra Tuhan yang diturunkan ke bumi kemudian diangkat-Nya kembali ke langit. Golongan ini mengatakan bahwa Isa adalah salah satu dari oknum yang tiga yaitu: Bapak, putra dan Ruhulkudus. Golongan lain mengatakan bahwa Isa adalah salah satu dari Tuhan yang tiga, yaitu: Allah, Isa anak-Nya dan Maryam ibu Isa. Di samping golongan-golongan yang sesat itu, ada pula golongan yang benar dan beriman sesuai dengan ajaran dan petunjuk Isa yang beriman bahwa Isa adalah hamba Allah dan Rasul-Nya, golongan ini bernama \u201cMalakania\u201d. \nTerhadap golongan-golongan yang sesat itu Allah mengancam mereka bahwa mereka akan menyaksikan sendiri bagamana dahsyatnya hari kiamat nanti dan bagaimana pedihnya siksaan yang disediakan untuk mereka. Semua anggota badan mereka akan menjadi saksi atas kekufuran dan keingkaran mereka. Allah menangguhkan siksaan terhadap mereka sampai hari Kiamat dan tidak menyegerakan siksaan mereka semata-mata karena rahmat dan kasih sayang-Nya sebagaimana tersebut dalam sabda Nabi saw:\n\u0627\u0650\u0646\u0651\u064e \u0627\u0644\u0644\u0651\u0670\u0647\u064e \u0644\u064e\u064a\u064f\u0645\u0652\u0644\u0650\u0649 \u0644\u0650\u0644\u0638\u0651\u064e\u0627\u0644\u0650\u0645 \u062d\u064e\u062a\u0651\u064e\u0649 \u0627\u0650\u0630\u064e\u0627 \u0627\u064e\u062e\u064e\u0630\u064e\u0647\u064f \u0644\u064e\u0645\u0652 \u064a\u064f\u0641\u0652\u0644\u0650\u062a\u0652\u0647\u064f (\u0631\u0648\u0627\u0647 \u0627\u0644\u0628\u062e\u0627\u0631\u064a \u0648\u0645\u0633\u0644\u0645 \u0639\u0646 \u0627\u0628\u0649 \u0645\u0648\u0633\u0649)\nSesungguhnya Allah menangguhkan penyiksaan bagi orang zalim sehingga apabila Dia menyiksanya, dia tidak akan dapat lepas dari siksaan itu. (Riwayat al-Bukh\u0101r\u012b dan Muslim dari Abu Musa)\nMengenai sikap kaum Nabi Isa ini Nabi Muhammad saw bersabda:\n\u0644\u064e\u0627 \u0627\u064e\u062d\u064e\u062f\u064e \u0627\u064e\u0635\u0652\u0628\u064e\u0631\u064e \u0639\u064e\u0644\u064e\u0649 \u0627\u064e\u0630\u064b\u0649 \u0633\u064e\u0645\u0650\u0639\u064e\u0647\u064f \u0645\u0650\u0646\u064e \u0627\u0644\u0644\u0651\u0670\u0647\u0650\u060c \u0627\u0650\u0646\u0651\u064e\u0647\u064f\u0645\u0652 \u064a\u064e\u062c\u0652\u0639\u064e\u0644\u064f\u0648\u0652\u0646\u064e \u0644\u064e\u0647\u064f \u0648\u064e\u0644\u064e\u062f\u064b\u0627 \u0648\u064e\u0647\u064f\u0648\u064e \u064a\u064e\u0631\u0652\u0632\u064f\u0642\u064f\u0647\u064f\u0645\u0652 \u0648\u064e\u064a\u064f\u0639\u064e\u0627\u0641\u0650\u064a\u0652\u0647\u0650\u0645\u0652 (\u0631\u0648\u0627\u0647 \u0627\u0644\u0628\u062e\u0627\u0631\u0649 \u0639\u0646 \u0639\u0628\u062f \u0627\u0644\u0644\u0647 \u0628\u0646 \u0642\u064a\u0633)\nTak ada seorang pun yang tahan, mendengar kata-kata yang menyakitkan kecuali Allah. Mereka mengatakan bahwa Allah mempunyai anak sedang Allah tetap memberi mereka rezeki dan kesehatan. (Riwayat al-Bukh\u0101r\u012b dari Abdullah bin Qais)",
        "intro_surah": "Surah Maryam terdiri atas 98 ayat, termasuk golongan surah-surah Makkiyyah karena hampir seluruh ayatnya diturunkan sebelum Nabi Muhammad saw hijrah ke Medinah, bahkan sebelum sahabat-sahabat beliau hijrah ke Negeri Habsyah (Ethiopia). Menurut riwayat Ibnu Mas`ud, Ja`far bin Abi Talib membacakan permulaan Surah Maryam kepada raja Najasyi dan pengikut-pengikutnya di waktu ia ikut hijrah bersama-sama sahabatsahabat yang lain ke negeri itu. Surah ini dinamai \u201cMaryam\u201d, karena surah ini mengandung kisah Maryam, Ibu Nabi Isa a.s. yang serba ajaib, yaitu melahirkan putranya Isa a.s. sedang ia sebelumnya belum pernah dinikahi atau dicampuri oleh seorang laki-laki pun. Kelahiran Isa a.s. tanpa bapak merupakan suatu bukti kekuasaan Allah. Pengutaraan kisah Maryam sebagai kejadian yang luar biasa dan ajaib dalam Surah ini, diawali dengan kisah kejadian yang luar biasa dan ajaib pula, yaitu dikabulkannya doa Zakaria a.s. oleh Allah agar beliau dianugerahi seorang putra sebagai pewaris dan pelanjut cita-cita dan kepercayaan beliau, sedang usia beliau sudah sangat tua dan istri beliau seorang yang mandul, yang menurut ukuran ilmu biologi tidak mungkin bisa hamil.\n\nPOKOK-POKOK ISINYA\n1. Keimanan: \nAllah berbuat sesuatu menurut yang dikehendaki-Nya, kendati pun menyimpang dari hukum-hukum alam, Isa a.s., bukan anak Allah karena mustahil Allah mempunyai anak. Jibril a.s. turun kepada rasul-rasul membawa wahyu atas perintah Allah. Semua manusia akan masuk neraka, kecuali yang beriman lagi bertakwa kepada Allah.\n2. Kisah:\nAllah mengabulkan doa Zakaria a.s. untuk memperoleh anak, sekalipun usia beliau sudah sangat tua dan istri beliau mandul. Kisah kelahiran Isa a.s. tanpa bapak, kisah Ibrahim a.s. dengan bapaknya, Musa a.s. seorang yang dipilih Allah, Ismail a.s. seorang yang benar dalam janjinya dan Idris a.s. seorang yang sangat kuat kepercayaannya.\n3. Dan lain-lain: \nAncaman terhadap orang yang meninggalkan salat dan mengikuti hawa nafsunya serta kabar gembira untuk orang-orang yang telah tobat dan mengamalkan amal-amal yang saleh, keadaan di surga, membiarkan orang yang sesat dari petunjuk bergelimang dalam kesesatannya adalah Sunnah Allah.\n ",
        "outro_surah": null,
        "munasabah_prev_surah": "HUBUNGAN SURAH AL-KAHF DENGAN\nSURAH MARYAM\n\n1. \tKedua surah ini sama-sama mengandung kisah yang ajaib, seperti Surah al-Kahf mengemukakan kisah A\u1e63\u1e25\u0101bul Kahfi, kisah Musa a.s. kisah Zulkarnain, sedang surah Maryam mengemukakan kisah kelahiran Yahya a.s. diwaktu bapaknya Zakaria a.s. telah sangat tua dan ibunya seorang wanita tua pula lagi mandul dan kisah kelahiran Isa a.s. tanpa bapak.\n2. \tBagian akhir surah al-Kahf menerangkan tentang ancaman Allah terhadap orang-orang kafir yang mencari pelindungan kepada selain Allah, semua amal mereka sia-sia dan mereka dimasukkan dalam neraka, sedang pada bagian akhir surah Maryam diulang lagi celaan dan ancaman Allah terhadap orang-orang yang mempersekutukan-Nya.",
        "munasabah_prev_theme": "Pada ayat-ayat yang lalu Allah telah menerangkan bahwa tuduhan-tuduhan yang dikemukakan Bani Israil terhadap Maryam tidak dijawab langsung oleh Maryam yang berpuasa tidak berbicara, dan yang menjawab adalah Isa anaknya sendiri yang masih bayi itu bahwa dia adalah hamba Allah yang akan menjadi Nabi, akan diturunkan kepadanya Al-Kitab, diberkahi oleh Allah dan akan diselamatkan sampai hari kebangkitan nanti. Dengan demikian tertolak segala tuduhan yang ditujukan kepada ibunya. Maka pada ayat-ayat ini Allah menegaskan bahwa Isa bin Maryam adalah hamba Allah telah berkata dengan benar atas izin Allah. Tetapi Isa bukan putera Allah melainkan hamba Allah, Nabi dan Rasul yang diutus untuk Bani Israil. Allah Mahasuci dan tidak mempunyai anak.",
        "theme_group": "PENEGASAN BAHWA ISA A.S.\nBUKAN PUTRA ALLAH ",
        "kosakata": "Kosakata: Yamtar\u016bn \u064a\u064e\u0645\u0652\u062a\u064e\u0631\u064f\u0648\u0652\u0646\u064e (Maryam/19:34)\nYamtar\u016bn artinya berbantah-bantahan, kata ini merupakan bentuk mu\u1e0dari\u2019 dari imtara. Masdarnya adalah miryah. Al-Miryah adalah keraguan dalam satu perkara (at-taraddud fil amri). Asalnya dari ungkapan maraytu an-n\u0101qah, artinya engkau memeras susu unta. Perbuatan memeras susu memerlukan pengulangan berkali-kali sampai susu itu keluar dari putingnya. Begitu juga dengan orang yang ragu dalam satu hal. Kata imtira\u2019 dan mumarah digunakan untuk saling beradu pendapat dan argumentasi dalam satu hal yang masih diragukan.",
        "sabab_nuzul": null,
        "conclusion": null
    }
}