{
    "id": 2293,
    "surah_id": 19,
    "ayah": 43,
    "page": 308,
    "quarter_hizb": 31.5,
    "juz": 16,
    "manzil": 4,
    "arabic": "\u064a\u0670\u0653\u0627\u064e\u0628\u064e\u062a\u0650 \u0627\u0650\u0646\u0651\u0650\u064a\u0652 \u0642\u064e\u062f\u0652 \u062c\u064e\u0627\u06e4\u0621\u064e\u0646\u0650\u064a\u0652 \u0645\u0650\u0646\u064e \u0627\u0644\u0652\u0639\u0650\u0644\u0652\u0645\u0650 \u0645\u064e\u0627 \u0644\u064e\u0645\u0652 \u064a\u064e\u0623\u0652\u062a\u0650\u0643\u064e \u0641\u064e\u0627\u062a\u0651\u064e\u0628\u0650\u0639\u0652\u0646\u0650\u064a\u0652\u0653 \u0627\u064e\u0647\u0652\u062f\u0650\u0643\u064e \u0635\u0650\u0631\u064e\u0627\u0637\u064b\u0627 \u0633\u064e\u0648\u0650\u064a\u0651\u064b\u0627 ",
    "latin": "Y\u0101 abati inn\u012b qad j\u0101'an\u012b minal-\u2018ilmi m\u0101 lam ya'tika fattabi\u2018n\u012b ahdika \u1e63ir\u0101\u1e6dan sawiyy\u0101(n).",
    "translation": "Wahai Bapakku, sesungguhnya telah datang kepadaku sebagian ilmu yang tidak datang kepadamu. Ikutilah aku, niscaya aku tunjukkan kepadamu jalan yang lurus.",
    "no_footnote": null,
    "footnotes": null,
    "surah": {
        "id": 19,
        "arabic": " \u0645\u0631\u064a\u0645",
        "latin": "Maryam",
        "transliteration": "Maryam",
        "translation": "Maryam",
        "num_ayah": 98,
        "page": 305,
        "location": "Makkiyah"
    },
    "tafsir": {
        "wajiz": "Untuk lebih meyakinkan ayahnya bahwa berhala tidak layak disembah, Ibrahim berkata dengan santun, \u201cWahai ayahku, sungguh telah sampai kepadaku sebagian ilmu yang tidak diberikan kepadamu, yaitu tentang tauhid atau keyakinan kepada Tuhan yang layak disembah, maka ikutilah aku dengan penuh keikhlasan dan berimanlah kepada Allah Yang Esa, niscaya aku akan menunjukkan kepadamu jalan yang lurus, yaitu jalan yang akan membawamu menuju kebenaran dan kebahagiaan.\u201d",
        "tahlili": "Selanjutnya Nabi Ibrahim a.s. mengatakan kepada bapaknya bahwa dia telah diberi ilmu oleh Allah yang belum diketahui oleh bapaknya. Dengan ilmu itu Ibrahim dapat memimpin manusia kepada jalan yang lurus dan membebaskannya dari perbuatan yang merendahkan derajatnya seraya membawanya kepada kebahagiaan dunia dan akhirat. Meskipun ia adalah anaknya dan jauh lebih muda tetapi Allah telah menurunkan rahmat-Nya kepada Ibrahim dengan memberikan ilmu itu. Ibrahim sangat ingin agar bapaknya mengikutinya, dengan demikian ia dapat membawa ayahnya ke jalan yang lurus.",
        "intro_surah": "Surah Maryam terdiri atas 98 ayat, termasuk golongan surah-surah Makkiyyah karena hampir seluruh ayatnya diturunkan sebelum Nabi Muhammad saw hijrah ke Medinah, bahkan sebelum sahabat-sahabat beliau hijrah ke Negeri Habsyah (Ethiopia). Menurut riwayat Ibnu Mas`ud, Ja`far bin Abi Talib membacakan permulaan Surah Maryam kepada raja Najasyi dan pengikut-pengikutnya di waktu ia ikut hijrah bersama-sama sahabatsahabat yang lain ke negeri itu. Surah ini dinamai \u201cMaryam\u201d, karena surah ini mengandung kisah Maryam, Ibu Nabi Isa a.s. yang serba ajaib, yaitu melahirkan putranya Isa a.s. sedang ia sebelumnya belum pernah dinikahi atau dicampuri oleh seorang laki-laki pun. Kelahiran Isa a.s. tanpa bapak merupakan suatu bukti kekuasaan Allah. Pengutaraan kisah Maryam sebagai kejadian yang luar biasa dan ajaib dalam Surah ini, diawali dengan kisah kejadian yang luar biasa dan ajaib pula, yaitu dikabulkannya doa Zakaria a.s. oleh Allah agar beliau dianugerahi seorang putra sebagai pewaris dan pelanjut cita-cita dan kepercayaan beliau, sedang usia beliau sudah sangat tua dan istri beliau seorang yang mandul, yang menurut ukuran ilmu biologi tidak mungkin bisa hamil.\n\nPOKOK-POKOK ISINYA\n1. Keimanan: \nAllah berbuat sesuatu menurut yang dikehendaki-Nya, kendati pun menyimpang dari hukum-hukum alam, Isa a.s., bukan anak Allah karena mustahil Allah mempunyai anak. Jibril a.s. turun kepada rasul-rasul membawa wahyu atas perintah Allah. Semua manusia akan masuk neraka, kecuali yang beriman lagi bertakwa kepada Allah.\n2. Kisah:\nAllah mengabulkan doa Zakaria a.s. untuk memperoleh anak, sekalipun usia beliau sudah sangat tua dan istri beliau mandul. Kisah kelahiran Isa a.s. tanpa bapak, kisah Ibrahim a.s. dengan bapaknya, Musa a.s. seorang yang dipilih Allah, Ismail a.s. seorang yang benar dalam janjinya dan Idris a.s. seorang yang sangat kuat kepercayaannya.\n3. Dan lain-lain: \nAncaman terhadap orang yang meninggalkan salat dan mengikuti hawa nafsunya serta kabar gembira untuk orang-orang yang telah tobat dan mengamalkan amal-amal yang saleh, keadaan di surga, membiarkan orang yang sesat dari petunjuk bergelimang dalam kesesatannya adalah Sunnah Allah.\n ",
        "outro_surah": null,
        "munasabah_prev_surah": "HUBUNGAN SURAH AL-KAHF DENGAN\nSURAH MARYAM\n\n1. \tKedua surah ini sama-sama mengandung kisah yang ajaib, seperti Surah al-Kahf mengemukakan kisah A\u1e63\u1e25\u0101bul Kahfi, kisah Musa a.s. kisah Zulkarnain, sedang surah Maryam mengemukakan kisah kelahiran Yahya a.s. diwaktu bapaknya Zakaria a.s. telah sangat tua dan ibunya seorang wanita tua pula lagi mandul dan kisah kelahiran Isa a.s. tanpa bapak.\n2. \tBagian akhir surah al-Kahf menerangkan tentang ancaman Allah terhadap orang-orang kafir yang mencari pelindungan kepada selain Allah, semua amal mereka sia-sia dan mereka dimasukkan dalam neraka, sedang pada bagian akhir surah Maryam diulang lagi celaan dan ancaman Allah terhadap orang-orang yang mempersekutukan-Nya.",
        "munasabah_prev_theme": "Pada ayat-ayat yang lalu Allah telah menerangkan kisah Maryam ibu Nabi Isa, kehamilan dan kelahirannya, dan bagaimana reaksi kaumnya terhadapnya dan bagaimana jawaban Isa yang masih bayi, terhadap tuduhantuduhan mereka. Kisah itu diakhiri dengan penegasan bahwa Isa bukan putra Allah dan Allah tidak wajar mempunyai anak, maka pada ayat-ayat ini Allah menerangkan kisah Nabi Ibrahim yang memberantas penyembahan benda mati berupa berhala yang tidak dapat mendengar dan tidak dapat melihat, karena mereka mendapati nenek moyang mereka menyembahnya.",
        "theme_group": "KISAH NABI IBRAHIM A.S.",
        "kosakata": "1. Maliyy\u0101 \u0645\u064e\u0644\u0650\u064a\u0651\u064b\u0627 (Maryam/19: 46)\nMaliyy\u0101 artinya waktu yang lama. Berasal dari fi\u2019il \u0645\u0644\u0627 -\u064a\u0645\u0644\u0648 -\u0645\u0644\u0648\u0627 yang berjalan cepat atau lari, sedangkan \u0645\u0644\u0627 yang bentuk jamanya \u0623\u0645\u0644\u0627\u0621 berarti padang sahara atau tanah yang luas. \u0627\u0644\u0645\u0644\u064a artinya masa yang lama. Pada ayat 46 surah Maryam ini diceritakan Azar, ayah Ibrahim berkata atau meminta kepada Ibrahim dengan ungkapan, wahjurn\u012b maliyy\u0101, artinya tinggalkan aku dengan berlari untuk waktu yang lama. Hal ini dapat dipahami karena posisi ayah Ibrahim yang berseberangan dengan Ibrahim sebagai Nabi dan utusan Allah yang mengajak kepada Tauhid, hanya menyembah Allah Yang Maha Esa, dan melarang penyembahan patung-patung dan berhala. Sedangkan ayah Ibrahim adalah pembuat patung. Azar ayah Ibrahim memperoleh banyak penghasilan dan dipandang terhormat oleh masyarakat.\n2. \u1e24afiyy\u0101 \u062d\u064e\u0641\u0650\u064a\u0651\u064b\u0627 (Maryam/19: 47) \n\tLafal \u1e25afiyy\u0101 adalah bentuk \u1e63ifah musy\u0101bahah bi ism al-f\u0101`il (kata sifat yang menyerupai ism fa`il atau orang yang melakukan perbuatan). Berasal dari masdar \u0627\u0644\u062d\u0641\u0627\u0648\u0629 artinya menyambut atau menghormati dengan ramah. Dalam ayat ini Allah menerangkan bahwa dengan berat hati Ibrahim memenuhi permintaan atau perintah ayahnya Azar yang berbeda pendirian untuk pergi jauh dan dalam waktu yang sangat lama, atau bahkan tidak kembali lagi, karena Ibrahim berkeyakinan seperti yang diucapkan kepada ayahnya: innah\u016b k\u0101na b\u012b \u1e25afiyy\u0101, artinya sungguh Allah sangat baik kepadaku, maksudnya Allah pasti menyambut dengan ramah dan menghormati sikap dan kepergiannya meninggalkan ayahnya untuk menuju tempat-tempat yang jauh untuk menyebarkan agama tauhid.",
        "sabab_nuzul": null,
        "conclusion": null
    }
}