{
    "id": 2309,
    "surah_id": 19,
    "ayah": 59,
    "page": 309,
    "quarter_hizb": 31.75,
    "juz": 16,
    "manzil": 4,
    "arabic": "\u06de \u0641\u064e\u062e\u064e\u0644\u064e\u0641\u064e \u0645\u0650\u0646\u0652\u06e2 \u0628\u064e\u0639\u0652\u062f\u0650\u0647\u0650\u0645\u0652 \u062e\u064e\u0644\u0652\u0641\u064c \u0627\u064e\u0636\u064e\u0627\u0639\u064f\u0648\u0627 \u0627\u0644\u0635\u0651\u064e\u0644\u0670\u0648\u0629\u064e \u0648\u064e\u0627\u062a\u0651\u064e\u0628\u064e\u0639\u064f\u0648\u0627 \u0627\u0644\u0634\u0651\u064e\u0647\u064e\u0648\u0670\u062a\u0650 \u0641\u064e\u0633\u064e\u0648\u0652\u0641\u064e \u064a\u064e\u0644\u0652\u0642\u064e\u0648\u0652\u0646\u064e \u063a\u064e\u064a\u0651\u064b\u0627 \u06d9",
    "latin": "Fa khalafa mim ba\u2018dihim khalfun a\u1e0d\u0101\u2018u\u1e63-\u1e63al\u0101ta wattaba\u2018usy-syahaw\u0101ti fa saufa yalqauna gayy\u0101(n).",
    "translation": "Kemudian, datanglah setelah mereka (generasi) pengganti yang mengabaikan salat dan mengikuti hawa nafsu. Mereka kelak akan tersesat.",
    "no_footnote": null,
    "footnotes": null,
    "surah": {
        "id": 19,
        "arabic": " \u0645\u0631\u064a\u0645",
        "latin": "Maryam",
        "transliteration": "Maryam",
        "translation": "Maryam",
        "num_ayah": 98,
        "page": 305,
        "location": "Makkiyah"
    },
    "tafsir": {
        "wajiz": "Usai menjelaskan sifat para nabi, rasul, dan orang yang mendapat karunia Allah, pada ayat ini Allah menerangkan balasan bagi orang yang sesat dan ganjaran bagi orang yang bertobat. Kemudian datanglah setelah mereka pengganti mereka, yaitu generasi baru yang berperangai buruk. Mereka termasuk golongan yang mengabaikan salat, baik dengan meninggalkannya atau melaksanakannya secara menyimpang dari ajaran para nabi dan rasul, dan mereka selalu mengikuti keinginan hawa nafsu-nya sehingga terjerumus ke dalam dosa. Karena perbuatan dan perilaku mereka yang buruk, maka mereka kelak di akhirat akan termasuk kelompok orang yang tersesat dan mendapat balasan neraka.",
        "tahlili": "Pada ayat ini Allah menerangkan bahwa banyak di antara orang-orang datang kemudian sesudah meninggalnya para nabi dan rasul yang disebutkan pada ayat-ayat yang lalu, menyimpang dari jalan yang lurus, meninggalkan ajaran yang dibawa para rasul sebelumnya sehingga mereka tidak lagi mengerjakan salat dan selalu memperturutkan kehendak hawa nafsu dan dengan terang-terangan melanggar larangan Allah seperti meminum minuman keras, berjudi, berzina, dan mengadakan persaksian palsu. Mereka ini diancam oleh Allah dengan ancaman yang keras, kepada mereka akan ditimpakan kecelakaan dan kerugian baik di dunia maupun di akhirat. Sehubungan dengan ayat ini Abu Sa\u2019id al-Khudri meriwayatkan bahwa Rasulullah saw bersabda:\n\u064a\u064e\u0643\u064f\u0648\u0652\u0646\u064f \u062e\u064e\u0644\u0652\u0641\u064c \u0645\u0650\u0646\u0652 \u0628\u064e\u0639\u0652\u062f\u0650 \u0633\u0650\u062a\u0651\u0650\u064a\u0652\u0646\u064e \u0633\u064e\u0646\u064e\u0629\u064b \u0627\u064e\u0636\u064e\u0627\u0639\u064f\u0648\u0627 \u0627\u0644\u0635\u0651\u064e\u0644\u064e\u0627\u0629\u064e \u0648\u064e\u0627\u062a\u0651\u064e\u0628\u064e\u0639\u064f\u0648\u0627 \u0627\u0644\u0634\u0651\u064e\u0647\u064e\u0648\u064e\u0627\u062a\u0650 \u0641\u064e\u0633\u064e\u0648\u0652\u0641\u064e \u064a\u064e\u0644\u0652\u0642\u064e\u0648\u0652\u0646\u064e \u063a\u064e\u064a\u0651\u064b\u0627 \u062b\u064f\u0645\u0651\u064e \u064a\u064e\u0643\u064f\u0648\u0652\u0646\u064f \u062e\u064e\u0644\u0652\u0641\u064c \u064a\u064e\u0642\u0652\u0631\u064e\u0624\u064f\u0646\u064e \u0627\u0644\u0652\u0642\u064f\u0631\u0622\u0646\u064e \u0644\u064e\u0627\u064a\u064e\u0639\u0652\u062f\u064f\u0648\u0652 \u062a\u064e\u0631\u064e\u0627\u0642\u0650\u064a\u064e\u0647\u064f\u0645\u0652 \u0648\u064e\u064a\u0642\u0652\u0631\u064e\u0623\u064f \u0627\u0644\u0652\u0642\u064f\u0631\u0652\u0622\u0646\u064e \u062b\u064e\u0644\u064e\u0627\u062b\u064e\u0629\u064c \u0645\u064f\u0624\u0652\u0645\u0650\u0646\u064c \u0648\u064e\u0645\u064f\u0646\u064e\u0627\u0641\u0650\u0642\u064c \u0648\u064e\u0641\u064e\u0627\u062c\u0650\u0631\u064c (\u0631\u0648\u0627\u0647 \u0627\u062d\u0645\u062f \u0648\u0627\u0628\u0646 \u062d\u0628\u0627\u0646 \u0648\u0627\u0644\u062d\u0627\u0643\u0645) \n\u201cAkan datang suatu generasi sesudah enam puluh tahun, mereka melalaikan salat dan memperturutkan hawa nafsu, maka orang-orang ini akan menemui kecelakaan dan kerugian. Kemudian datang lagi suatu generasi, mereka membaca Al-Qur\u2019an tetapi hanya di kerongkongan (mulut) saja (tidak masuk ke hati) dan semua membaca Al-Qur\u2019an, orang mukmin, orang munafik dan orang-orang jahat dan fasik (tidak dapat lagi dibedakan mana orang mukmin sejati dan mana orang yang berpura-pura beriman).\u201d (Riwayat A\u1e25mad, Ibnu \u1e24ibb\u0101n dan al-\u1e24\u0101kim)\nKemudian Rasulullah membaca ayat ini (sebagaimana tersebut di atas).\n\u2018Uqbah bin `\u0100mir meriwayatkan pula bahwa aku mendengar Rasulullah bersabda:\n\u0633\u064e\u064a\u064e\u0647\u0652\u0644\u0650\u0643\u064f \u0627\u064f\u0645\u0651\u064e\u062a\u0650\u0649 \u0627\u064e\u0647\u0652\u0644\u064f \u0627\u0644\u0652\u0643\u0650\u062a\u064e\u0627\u0628\u0650 \u0648\u064e\u0627\u064e\u0647\u0652\u0644\u064f \u0627\u0644\u0651\u064e\u0644\u0628\u064e\u0646\u0650 \u0642\u064f\u0644\u0652\u062a\u064f \u064a\u064e\u0627\u0631\u064e\u0633\u064f\u0648\u0652\u0644\u064e \u0627\u0644\u0644\u0651\u0670\u0647\u0650 \u0645\u064e\u0627\u0627\u064e\u0647\u0652\u0644\u064f \u0627\u0644\u0652\u0643\u0650\u062a\u064e\u0627\u0628\u0650 \u0642\u064e\u0627\u0644\u064e \u0642\u064e\u0648\u0652\u0645\u064c \u064a\u064e\u062a\u064e\u0639\u064e\u0644\u0651\u064e\u0645\u064f\u0648\u0652\u0646\u064e \u0627\u0644\u0652\u0643\u0650\u062a\u064e\u0627\u0628\u064e \u064a\u064f\u062c\u064e\u0627\u062f\u0650\u0644\u064f\u0648\u0652\u0646\u064e \u0628\u0650\u0647\u0650 \u0627\u0644\u0651\u064e\u0630\u0650\u064a\u0652\u0646\u064e \u0627\u0670\u0645\u064e\u0646\u064f\u0648\u0652\u0627 \u0642\u064f\u0644\u0652\u062a\u064f \u0648\u064e\u0645\u064e\u0627 \u0627\u064e\u0647\u0652\u0644\u064f \u0627\u0644\u0644\u0651\u064e\u0628\u064e\u0646\u0650 \u0642\u064e\u0627\u0644\u064e \u0642\u064e\u0648\u0652\u0645\u064c \u064a\u064e\u062a\u0651\u064e\u0628\u0650\u0639\u064f\u0648\u0652\u0646\u064e \u0627\u0644\u0634\u0651\u064e\u0647\u064e\u0648\u064e\u0627\u062a\u0650 \u0648\u064e\u064a\u064f\u0636\u0650\u064a\u0652\u0639\u064f\u0648\u0652\u0646\u064e \u0627\u0644\u0635\u0651\u064e\u0644\u064e\u0648\u064e\u0627\u062a\u0650. (\u0631\u0648\u0627\u0647 \u0627\u062d\u0645\u062f \u0648\u0627\u0644\u062d\u0627\u0643\u0645 \u0639\u0646 \u0639\u0642\u0628\u0629 \u0628\u0646 \u0639\u0627\u0645\u0631 \u0627\u0644\u062c\u0647\u0646\u0649) \n\u201cAkan rusak binasalah sebahagian dari umatku yaitu \u201cAhlul Kitab\u201d dan \u201cAhlullaban\u201d. Aku bertanya, \u201cSiapakah \u201cAhlul Kitab\u201d wahai Rasulullah?\u201d Beliau menjawab, \u201cMereka ialah orang-orang yang mempelajari Al-Qur\u2019an untuk berdebat dengan orang-orang mukmin.\u201d \u201cLalu siapa pula \u201cAhlullaban\u201d itu?\u201d Rasulullah menjawab, \u201cMereka ialah orang-orang yang memperturutkan hawa nafsu dan meninggalkan salat.\u201d (Riwayat A\u1e25mad dan al-\u1e24\u0101kim dari \u2018Uqbah bin \u2018\u0100mir al-Juhhan\u012b)\nDemikian nasib orang-orang yang melalaikan salat dan memperturutkan hawa nafsu dan menyia-nyiakannya, mereka pasti merugi meskipun yang mereka derita tidak dapat dilihat dengan mata dan pasti akan menerima balasan yang setimpal di akhirat kelak. Di sini tampak dengan jelas bahwa salat yang telah menjadi syariat semenjak Nabi Ibrahim adalah amat penting sekali dan tidak boleh disia-siakan apalagi ditinggalkan. Diriwayatkan bahwa Nabi Muhammad saw bersabda:\n\u0627\u064e\u0644\u0635\u0651\u064e\u0644\u064e\u0627\u0629\u064f \u0639\u0650\u0645\u064e\u0627\u062f\u064f \u0627\u0644\u062f\u0651\u0650\u064a\u0652\u0646\u0650 \u0641\u064e\u0645\u064e\u0646\u0652 \u0627\u064e\u0642\u064e\u0627\u0645\u064e\u0647\u064e\u0627 \u0641\u064e\u0642\u064e\u062f\u0652 \u0627\u064e\u0642\u064e\u0627\u0645\u064e \u0627\u0644\u062f\u0651\u0650\u064a\u0652\u0646\u064e \u0648\u064e\u0645\u064e\u0646\u0652 \u062a\u064e\u0631\u064e\u0643\u064e\u0647\u064e\u0627 \u0641\u064e\u0642\u064e\u062f\u0652 \u0647\u064e\u062f\u064e\u0645\u064e \u0627\u0644\u062f\u0651\u0650\u064a\u0652\u0646\u064e (\u0631\u0648\u0627\u0647 \u0627\u0644\u0628\u064a\u0647\u0642\u0649 \u0639\u0646 \u0639\u0645\u0631 \u0631\u0636\u064a \u0627\u0644\u0644\u0647 \u0639\u0646\u0647)\n\u201cSalat itu adalah tiang agama. Barangsiapa yang mendirikannya maka ia telah menegakkan agama, dan barangsiapa yang meninggalkannya maka ia telah meruntuhkan agama.\u201d (Riwayat al-Baihaq\u012b dari Umar r.a.)",
        "intro_surah": "Surah Maryam terdiri atas 98 ayat, termasuk golongan surah-surah Makkiyyah karena hampir seluruh ayatnya diturunkan sebelum Nabi Muhammad saw hijrah ke Medinah, bahkan sebelum sahabat-sahabat beliau hijrah ke Negeri Habsyah (Ethiopia). Menurut riwayat Ibnu Mas`ud, Ja`far bin Abi Talib membacakan permulaan Surah Maryam kepada raja Najasyi dan pengikut-pengikutnya di waktu ia ikut hijrah bersama-sama sahabatsahabat yang lain ke negeri itu. Surah ini dinamai \u201cMaryam\u201d, karena surah ini mengandung kisah Maryam, Ibu Nabi Isa a.s. yang serba ajaib, yaitu melahirkan putranya Isa a.s. sedang ia sebelumnya belum pernah dinikahi atau dicampuri oleh seorang laki-laki pun. Kelahiran Isa a.s. tanpa bapak merupakan suatu bukti kekuasaan Allah. Pengutaraan kisah Maryam sebagai kejadian yang luar biasa dan ajaib dalam Surah ini, diawali dengan kisah kejadian yang luar biasa dan ajaib pula, yaitu dikabulkannya doa Zakaria a.s. oleh Allah agar beliau dianugerahi seorang putra sebagai pewaris dan pelanjut cita-cita dan kepercayaan beliau, sedang usia beliau sudah sangat tua dan istri beliau seorang yang mandul, yang menurut ukuran ilmu biologi tidak mungkin bisa hamil.\n\nPOKOK-POKOK ISINYA\n1. Keimanan: \nAllah berbuat sesuatu menurut yang dikehendaki-Nya, kendati pun menyimpang dari hukum-hukum alam, Isa a.s., bukan anak Allah karena mustahil Allah mempunyai anak. Jibril a.s. turun kepada rasul-rasul membawa wahyu atas perintah Allah. Semua manusia akan masuk neraka, kecuali yang beriman lagi bertakwa kepada Allah.\n2. Kisah:\nAllah mengabulkan doa Zakaria a.s. untuk memperoleh anak, sekalipun usia beliau sudah sangat tua dan istri beliau mandul. Kisah kelahiran Isa a.s. tanpa bapak, kisah Ibrahim a.s. dengan bapaknya, Musa a.s. seorang yang dipilih Allah, Ismail a.s. seorang yang benar dalam janjinya dan Idris a.s. seorang yang sangat kuat kepercayaannya.\n3. Dan lain-lain: \nAncaman terhadap orang yang meninggalkan salat dan mengikuti hawa nafsunya serta kabar gembira untuk orang-orang yang telah tobat dan mengamalkan amal-amal yang saleh, keadaan di surga, membiarkan orang yang sesat dari petunjuk bergelimang dalam kesesatannya adalah Sunnah Allah.\n ",
        "outro_surah": null,
        "munasabah_prev_surah": "HUBUNGAN SURAH AL-KAHF DENGAN\nSURAH MARYAM\n\n1. \tKedua surah ini sama-sama mengandung kisah yang ajaib, seperti Surah al-Kahf mengemukakan kisah A\u1e63\u1e25\u0101bul Kahfi, kisah Musa a.s. kisah Zulkarnain, sedang surah Maryam mengemukakan kisah kelahiran Yahya a.s. diwaktu bapaknya Zakaria a.s. telah sangat tua dan ibunya seorang wanita tua pula lagi mandul dan kisah kelahiran Isa a.s. tanpa bapak.\n2. \tBagian akhir surah al-Kahf menerangkan tentang ancaman Allah terhadap orang-orang kafir yang mencari pelindungan kepada selain Allah, semua amal mereka sia-sia dan mereka dimasukkan dalam neraka, sedang pada bagian akhir surah Maryam diulang lagi celaan dan ancaman Allah terhadap orang-orang yang mempersekutukan-Nya.",
        "munasabah_prev_theme": "Pada ayat-ayat yang lalu Allah menerangkan tentang nabi-nabi dan rasul-rasul yang mempunyai sifat istimewa yang selalu patuh dan taat melaksanakan perintah-Nya, selalu menjauhi larangan-Nya, karena itu Allah memberikan kepada mereka karunia dan rahmat-Nya dan meninggikan derajat mereka. Maka pada ayat-ayat berikut ini Allah menerangkan sifat-sifat kebanyakan manusia yang datang kemudian setelah para nabi dan rasul itu kembali kepada Tuhannya, mereka tidak lagi mengindahkan ajaran dan petunjuk yang dibawa pada nabi itu bahkan mereka mengutamakan kelezatan duniawi dan memperturutkan hawa nafsu mereka. Mereka akan mendapat balasan yang setimpal dari Allah Yang Mahaadil dan akan dilemparkan ke neraka Jahanam.\n",
        "theme_group": "BALASAN BAGI ORANG YANG SESAT",
        "kosakata": "Kosakata: Gayy\u0101 \u063a\u064e\u064a\u0651\u064b\u0627 (Maryam/19:59)\n\u063a\u064a\u0651\u0627 artinya kesesatan, berasal dari fi\u2019il \u063a\u0648\u0649 -\u064a\u063a\u0648\u0649 -\u063a\u064a\u0651\u0627 yang berarti sesat, gagal dan binasa. Dalam Al-Qur\u2019an banyak peringatan diberikan kepada manusia untuk menghindari kesesatan dalam hidup. Dalam bentuk ma\u1e63dar yaitu \u0627\u0644\u063a\u0649\u0651 ada empat kali disebutkan, yaitu pada Surah al-Baqarah/2:256, Surah al-A\u2018r\u0101f/7:146 dan 201, serta Surah Maryam/19:59. Dalam bentuk fi\u2019il m\u0101\u1e0d\u012b ada delapan kali dan dalain bentuk fi\u2019il mu\u1e0d\u0101ri\u2019 disebutkan enam kali. Pada Surah Maryam ayat 59 ini Allah menerangkan adanya orang-orang yang setelah meninggalnya para nabi dan rasul, mereka lebih banyak mengikuti hawa nafsu mereka, maka akibatnya mereka hidup dalam kesesatan.",
        "sabab_nuzul": null,
        "conclusion": null
    }
}