{
    "id": 2335,
    "surah_id": 19,
    "ayah": 85,
    "page": 311,
    "quarter_hizb": 31.75,
    "juz": 16,
    "manzil": 4,
    "arabic": "\u064a\u064e\u0648\u0652\u0645\u064e \u0646\u064e\u062d\u0652\u0634\u064f\u0631\u064f \u0627\u0644\u0652\u0645\u064f\u062a\u0651\u064e\u0642\u0650\u064a\u0652\u0646\u064e \u0627\u0650\u0644\u064e\u0649 \u0627\u0644\u0631\u0651\u064e\u062d\u0652\u0645\u0670\u0646\u0650 \u0648\u064e\u0641\u0652\u062f\u064b\u0627 ",
    "latin": "Yauma na\u1e25syurul-muttaq\u012bna ilar-ra\u1e25m\u0101ni wafd\u0101(n).",
    "translation": "(Ingatlah) suatu hari (ketika) Kami mengumpulkan orang-orang yang bertakwa (menghadap) kepada (Allah) Yang Maha Pengasih sebagai rombongan yang terhormat",
    "no_footnote": null,
    "footnotes": null,
    "surah": {
        "id": 19,
        "arabic": " \u0645\u0631\u064a\u0645",
        "latin": "Maryam",
        "transliteration": "Maryam",
        "translation": "Maryam",
        "num_ayah": 98,
        "page": 305,
        "location": "Makkiyah"
    },
    "tafsir": {
        "wajiz": " Balasan Allah pasti akan terjadi. Wahai manusia, ingatlah pada hari ketika kami bersama para malaikat mengumpulkan orang-orang yang bertkwa kepada Allah Yang Maha Pengasih dan membawa mereka ke tempat yang dijanjikan sebagai balasan atas ketaatan mereka. Kemudian Kami sambut mereka ibagaikan kafilah yang terhormat.",
        "tahlili": "Pada hari itu Allah mengumpulkan orang-orang yang bertakwa untuk menghadap kehadirat-Nya sebagai rombongan yang dimuliakan karena iman dan amal mereka di dunia. Mereka dibawa dengan kendaraan yang bagus dan indah sebagai tamu yang dihormati. Ali bin Abi \u1e6c\u0101lib mengatakan bahwa rombongan itu bukanlah rombongan biasa yang berjalan kaki atau digiring tetapi dibawa dengan kendaraan yang belum pernah dilihat keindahannya oleh manusia, di atasnya ada tempat duduk dari emas dan tali lesnya bertahtakan permata zamrud sehingga sampailah mereka di muka pintu surga.",
        "intro_surah": "Surah Maryam terdiri atas 98 ayat, termasuk golongan surah-surah Makkiyyah karena hampir seluruh ayatnya diturunkan sebelum Nabi Muhammad saw hijrah ke Medinah, bahkan sebelum sahabat-sahabat beliau hijrah ke Negeri Habsyah (Ethiopia). Menurut riwayat Ibnu Mas`ud, Ja`far bin Abi Talib membacakan permulaan Surah Maryam kepada raja Najasyi dan pengikut-pengikutnya di waktu ia ikut hijrah bersama-sama sahabatsahabat yang lain ke negeri itu. Surah ini dinamai \u201cMaryam\u201d, karena surah ini mengandung kisah Maryam, Ibu Nabi Isa a.s. yang serba ajaib, yaitu melahirkan putranya Isa a.s. sedang ia sebelumnya belum pernah dinikahi atau dicampuri oleh seorang laki-laki pun. Kelahiran Isa a.s. tanpa bapak merupakan suatu bukti kekuasaan Allah. Pengutaraan kisah Maryam sebagai kejadian yang luar biasa dan ajaib dalam Surah ini, diawali dengan kisah kejadian yang luar biasa dan ajaib pula, yaitu dikabulkannya doa Zakaria a.s. oleh Allah agar beliau dianugerahi seorang putra sebagai pewaris dan pelanjut cita-cita dan kepercayaan beliau, sedang usia beliau sudah sangat tua dan istri beliau seorang yang mandul, yang menurut ukuran ilmu biologi tidak mungkin bisa hamil.\n\nPOKOK-POKOK ISINYA\n1. Keimanan: \nAllah berbuat sesuatu menurut yang dikehendaki-Nya, kendati pun menyimpang dari hukum-hukum alam, Isa a.s., bukan anak Allah karena mustahil Allah mempunyai anak. Jibril a.s. turun kepada rasul-rasul membawa wahyu atas perintah Allah. Semua manusia akan masuk neraka, kecuali yang beriman lagi bertakwa kepada Allah.\n2. Kisah:\nAllah mengabulkan doa Zakaria a.s. untuk memperoleh anak, sekalipun usia beliau sudah sangat tua dan istri beliau mandul. Kisah kelahiran Isa a.s. tanpa bapak, kisah Ibrahim a.s. dengan bapaknya, Musa a.s. seorang yang dipilih Allah, Ismail a.s. seorang yang benar dalam janjinya dan Idris a.s. seorang yang sangat kuat kepercayaannya.\n3. Dan lain-lain: \nAncaman terhadap orang yang meninggalkan salat dan mengikuti hawa nafsunya serta kabar gembira untuk orang-orang yang telah tobat dan mengamalkan amal-amal yang saleh, keadaan di surga, membiarkan orang yang sesat dari petunjuk bergelimang dalam kesesatannya adalah Sunnah Allah.\n ",
        "outro_surah": null,
        "munasabah_prev_surah": "HUBUNGAN SURAH AL-KAHF DENGAN\nSURAH MARYAM\n\n1. \tKedua surah ini sama-sama mengandung kisah yang ajaib, seperti Surah al-Kahf mengemukakan kisah A\u1e63\u1e25\u0101bul Kahfi, kisah Musa a.s. kisah Zulkarnain, sedang surah Maryam mengemukakan kisah kelahiran Yahya a.s. diwaktu bapaknya Zakaria a.s. telah sangat tua dan ibunya seorang wanita tua pula lagi mandul dan kisah kelahiran Isa a.s. tanpa bapak.\n2. \tBagian akhir surah al-Kahf menerangkan tentang ancaman Allah terhadap orang-orang kafir yang mencari pelindungan kepada selain Allah, semua amal mereka sia-sia dan mereka dimasukkan dalam neraka, sedang pada bagian akhir surah Maryam diulang lagi celaan dan ancaman Allah terhadap orang-orang yang mempersekutukan-Nya.",
        "munasabah_prev_theme": "Pada ayat-ayat yang lalu Allah memberikan dalil-dalil atas kemungkinan adanya hari kebangkitan nanti dengan mengemukakan bahwa Allah yang menciptakan sesuatu dari tiada akan lebih mudah baginya mengembalikan ciptaan-Nya seperti semula meskipun sesuatu itu sudah hancur binasa. Maka pada ayat-ayat berikut ini dijelaskan bahwa se-sembahan yang disembah orang-orang musyrik itu nantinya tidak akan dapat menjadi penolong mereka bahkan akan menjadi musuh yang nyata bagi mereka di akhirat. ",
        "theme_group": "SESEMBAHAN SELAIN ALLAH TIDAK DAPAT \nMENJADI PENOLONG MANUSIA DI AKHIRAT",
        "kosakata": "Kosakata: Ta\u2019uzzuhum Azz\u0101 \u062a\u064e\u0624\u064f\u0632\u0651\u064f\u0647\u064f\u0645\u0652 \u0623\u064e\u0632\u0651\u064b\u0627 (Maryam/19: 83)\nTa\u2019uzzuhum azz\u0101 artinya (setan-setan itu) mendorong mereka (orang-orang kafir) dengan sungguh-sungguh (untuk terus berbuat maksiat). Ta\u2019uzzuhun dan azz\u0101 adalah satu akar kata, yaitu dari fi\u2019il azza ya\u2019uzzu azzan. Bentuk kalimat ta\u2019uzzuhum azz\u0101 adalah bentuk kalimat yang mempergunakan maf\u2019ul mu\u1e6dlaq yaitu menggunakan masdar dari fi\u2019il tersebut sebagai maf\u2019ul. Maf\u2019ul mu\u1e6dlaq mengandung tiga arti, yaitu (1) Menunjukkan macam atau bentuk perbuatan, (2) Menunjukkan kuantitas atau berapa kali, dan (3) Menunjukkan kualitas atau intensitas pekerjaan tersebut, atau sebagai ta\u2019kid. Pada ayat 83 surah Maryam ini menunjukkan arti yang ketiga, yaitu Allah mengirim setan-setan kepada orang-orang kafir untuk mendorong dengan sungguh-sungguh, secara intensif supaya mereka berbuat kejahatan. Dorongan para setan terhadap orang-orang kafir memang sangat efektif sehingga kejahatan orang-orang kafir semakin menjadi-jadi makin meningkat secara drastis baik kualitas maupun kuantitas.\n",
        "sabab_nuzul": null,
        "conclusion": null
    }
}