{
    "id": 2308,
    "surah_id": 19,
    "ayah": 58,
    "page": 309,
    "quarter_hizb": 31.5,
    "juz": 16,
    "manzil": 4,
    "arabic": "\u0627\u064f\u0648\u0644\u0670\u06e4\u0649\u0655\u0650\u0643\u064e \u0627\u0644\u0651\u064e\u0630\u0650\u064a\u0652\u0646\u064e \u0627\u064e\u0646\u0652\u0639\u064e\u0645\u064e \u0627\u0644\u0644\u0651\u0670\u0647\u064f \u0639\u064e\u0644\u064e\u064a\u0652\u0647\u0650\u0645\u0652 \u0645\u0651\u0650\u0646\u064e \u0627\u0644\u0646\u0651\u064e\u0628\u0650\u064a\u0651\u0656\u0646\u064e \u0645\u0650\u0646\u0652 \u0630\u064f\u0631\u0651\u0650\u064a\u0651\u064e\u0629\u0650 \u0627\u0670\u062f\u064e\u0645\u064e \u0648\u064e\u0645\u0650\u0645\u0651\u064e\u0646\u0652 \u062d\u064e\u0645\u064e\u0644\u0652\u0646\u064e\u0627 \u0645\u064e\u0639\u064e \u0646\u064f\u0648\u0652\u062d\u064d\u06d6 \u0648\u0651\u064e\u0645\u0650\u0646\u0652 \u0630\u064f\u0631\u0651\u0650\u064a\u0651\u064e\u0629\u0650 \u0627\u0650\u0628\u0652\u0631\u0670\u0647\u0650\u064a\u0652\u0645\u064e \u0648\u064e\u0627\u0650\u0633\u0652\u0631\u064e\u0627\u06e4\u0621\u0650\u064a\u0652\u0644\u064e \u06d6\u0648\u064e\u0645\u0650\u0645\u0651\u064e\u0646\u0652 \u0647\u064e\u062f\u064e\u064a\u0652\u0646\u064e\u0627 \u0648\u064e\u0627\u062c\u0652\u062a\u064e\u0628\u064e\u064a\u0652\u0646\u064e\u0627\u06d7 \u0627\u0650\u0630\u064e\u0627 \u062a\u064f\u062a\u0652\u0644\u0670\u0649 \u0639\u064e\u0644\u064e\u064a\u0652\u0647\u0650\u0645\u0652 \u0627\u0670\u064a\u0670\u062a\u064f \u0627\u0644\u0631\u0651\u064e\u062d\u0652\u0645\u0670\u0646\u0650 \u062e\u064e\u0631\u0651\u064f\u0648\u0652\u0627 \u0633\u064f\u062c\u0651\u064e\u062f\u064b\u0627 \u0648\u0651\u064e\u0628\u064f\u0643\u0650\u064a\u0651\u064b\u0627 \u06e9",
    "latin": "Ul\u0101'ikal-la\u017c\u012bna an\u2018amall\u0101hu \u2018alaihim minan-nabiyy\u012bna min \u017curriyyati \u0101dama wa mimman \u1e25amaln\u0101 ma\u2018a n\u016b\u1e25(in), wa min \u017curriyyati ibr\u0101h\u012bma wa isr\u0101'\u012bl(a), wa mimman hadain\u0101 wajtabain\u0101, i\u017c\u0101 tutl\u0101 \u2018alaihim \u0101y\u0101tur-ra\u1e25m\u0101ni kharr\u016b sujjadaw wa bukiyy\u0101(n).",
    "translation": "Mereka itulah orang-orang yang telah diberi nikmat oleh Allah, yakni para nabi keturunan Adam, orang yang Kami bawa (dalam kapal) bersama Nuh, keturunan Ibrahim dan Israil (Ya\u2018qub), serta orang yang telah Kami beri petunjuk dan Kami pilih. Apabila dibacakan kepada mereka ayat-ayat Allah Yang Maha Pengasih, mereka tunduk, sujud, dan menangis.",
    "no_footnote": null,
    "footnotes": null,
    "surah": {
        "id": 19,
        "arabic": " \u0645\u0631\u064a\u0645",
        "latin": "Maryam",
        "transliteration": "Maryam",
        "translation": "Maryam",
        "num_ayah": 98,
        "page": 305,
        "location": "Makkiyah"
    },
    "tafsir": {
        "wajiz": "Kisah beberapa rasul pada ayat-ayat sebelumnya disusul dengan uraian tentang sifat-sifat mereka. Mereka yang dianugerahi kedudukan yang tinggi itulah orang-orang yang telah diberi nikmat duniawi dan ukhrawi oleh Allah, yaitu para nabi dari keturunan Nabi Adam, dan dari keturunan orang-orang yang Kami bawa dan selamatkan dalam kapal bersama Nabi Nuh ketika terjadi banjir besar, dan dari keturunan Nabi Ibrahim dan Israil, yaitu Nabi Yakub, dan selain mereka ada juga di antaranya yang mendapat anugerah, yaitu dari orang yang telah Kami beri petunjuk sehingga selalu menaati ajaran Kami dan telah Kami pilih untuk berdakwah dan mengajak umat pada kebaikan. Mereka memiliki sifat-sifat terpuji. Apabila dibacakan ayat-ayat Allah Yang Maha Pengasih atau diperlihatkan tanda-tanda kekuasaan-Nya kepada mereka, maka mereka segera tunduk, ber-sujud, dan menangis dengan tulus dan khusyuk kepada-Nya.",
        "tahlili": "Pada ayat ini Allah menerangkan bahwa para nabi dan rasul yang telah disebutkan namanya pada ayat-ayat yang lalu mereka itulah orang-orang yang telah diberi karunia dan nikmat oleh Allah dengan meninggikan derajat mereka dan mengharumkan nama mereka di kalangan umat manusia. Pada umumnya semua nabi dan rasul mendapat karunia seperti itu semenjak dari Nabi Adam bapak pertama sampai kepada Nabi Nuh bapak kedua, sampai kepada Nabi Ibrahim dan anak cucunya termasuk Ishak, Yakub, Ismail, Musa, Harun, Zakaria, Isa dan semua orang pilihan-Nya, semuanya mempunyai sifat yang jarang dimiliki oleh orang lain yaitu apabila dibacakan kepadanya ayat-ayat Allah mereka segera menjatuhkan diri (tersungkur) untuk sujud dan menangis serta merendahkan diri karena mengingat kebesaran Allah. Mereka adalah manusia yang penuh takwa, sangat tajam pendengaran dan perasaan mereka bila mendengar nama Allah dan bergetar hati mereka bila dibacakan ayat-ayat-Nya tidak memiliki kata-kata yang akan mereka ucapkan untuk melukiskan apa yang terasa dalam hati sehingga meneteskan air mata di pipi mereka dan tersungkur bersujud kehadirat Allah Yang Mahabesar, Mahakuasa, Maha Pengasih dan Maha Penyayang. Demikianlah sifat yang dimiliki oleh para nabi dan rasul itu dan wajarlah bila Allah memberikan kepada mereka karunia dan nikmat yang besar. Hal ini disebutkan pula dalam firman Allah:\n\u0627\u0650\u0646\u0651\u064e\u0645\u064e\u0627 \u0627\u0644\u0652\u0645\u064f\u0624\u0652\u0645\u0650\u0646\u064f\u0648\u0652\u0646\u064e \u0627\u0644\u0651\u064e\u0630\u0650\u064a\u0652\u0646\u064e \u0627\u0650\u0630\u064e\u0627 \u0630\u064f\u0643\u0650\u0631\u064e \u0627\u0644\u0644\u0651\u0670\u0647\u064f \u0648\u064e\u062c\u0650\u0644\u064e\u062a\u0652 \u0642\u064f\u0644\u064f\u0648\u0652\u0628\u064f\u0647\u064f\u0645\u0652 \u0648\u064e\u0627\u0650\u0630\u064e\u0627 \u062a\u064f\u0644\u0650\u064a\u064e\u062a\u0652 \u0639\u064e\u0644\u064e\u064a\u0652\u0647\u0650\u0645\u0652 \u0627\u0670\u064a\u0670\u062a\u064f\u0647\u0657 \u0632\u064e\u0627\u062f\u064e\u062a\u0652\u0647\u064f\u0645\u0652 \u0627\u0650\u064a\u0652\u0645\u064e\u0627\u0646\u064b\u0627 \u0648\u0651\u064e\u0639\u064e\u0644\u0670\u0649 \u0631\u064e\u0628\u0651\u0650\u0647\u0650\u0645\u0652 \u064a\u064e\u062a\u064e\u0648\u064e\u0643\u0651\u064e\u0644\u064f\u0648\u0652\u0646\u064e\u06d9 \u0662\nSesungguhnya orang-orang yang beriman adalah mereka yang apabila disebut nama Allah gemetar hatinya, dan apabila dibacakan ayat-ayat-Nya kepada mereka, bertambah (kuat) imannya dan hanya kepada Tuhan mereka bertawakal. (al-Anf\u0101l/8: 2)\nRasulullah saw, bersabda:\n\u0627\u064f\u062a\u0652\u0644\u064f\u0648\u0627 \u0627\u0644\u0652\u0642\u064f\u0631\u0622\u0646\u064e \u0648\u064e\u0627\u0628\u0652\u0643\u064f\u0648\u0652\u0627, \u0641\u064e\u0627\u0650\u0646\u0652 \u0644\u0645\u064e \u0652\u062a\u064e\u0628\u0652\u0643\u064f\u0648\u0652\u0627 \u0641\u064e\u062a\u064e\u0628\u064e\u0627\u0643\u064f\u0648\u0652\u0627 (\u0631\u0648\u0627\u0647 \u0627\u0628\u0646 \u0645\u0627\u062c\u0647)\nBacalah Al-Qur\u2019an dan menangislah, jika kamu tidak bisa menangis, berusahalah menangis. (Riwayat Ibnu M\u0101jah)",
        "intro_surah": "Surah Maryam terdiri atas 98 ayat, termasuk golongan surah-surah Makkiyyah karena hampir seluruh ayatnya diturunkan sebelum Nabi Muhammad saw hijrah ke Medinah, bahkan sebelum sahabat-sahabat beliau hijrah ke Negeri Habsyah (Ethiopia). Menurut riwayat Ibnu Mas`ud, Ja`far bin Abi Talib membacakan permulaan Surah Maryam kepada raja Najasyi dan pengikut-pengikutnya di waktu ia ikut hijrah bersama-sama sahabatsahabat yang lain ke negeri itu. Surah ini dinamai \u201cMaryam\u201d, karena surah ini mengandung kisah Maryam, Ibu Nabi Isa a.s. yang serba ajaib, yaitu melahirkan putranya Isa a.s. sedang ia sebelumnya belum pernah dinikahi atau dicampuri oleh seorang laki-laki pun. Kelahiran Isa a.s. tanpa bapak merupakan suatu bukti kekuasaan Allah. Pengutaraan kisah Maryam sebagai kejadian yang luar biasa dan ajaib dalam Surah ini, diawali dengan kisah kejadian yang luar biasa dan ajaib pula, yaitu dikabulkannya doa Zakaria a.s. oleh Allah agar beliau dianugerahi seorang putra sebagai pewaris dan pelanjut cita-cita dan kepercayaan beliau, sedang usia beliau sudah sangat tua dan istri beliau seorang yang mandul, yang menurut ukuran ilmu biologi tidak mungkin bisa hamil.\n\nPOKOK-POKOK ISINYA\n1. Keimanan: \nAllah berbuat sesuatu menurut yang dikehendaki-Nya, kendati pun menyimpang dari hukum-hukum alam, Isa a.s., bukan anak Allah karena mustahil Allah mempunyai anak. Jibril a.s. turun kepada rasul-rasul membawa wahyu atas perintah Allah. Semua manusia akan masuk neraka, kecuali yang beriman lagi bertakwa kepada Allah.\n2. Kisah:\nAllah mengabulkan doa Zakaria a.s. untuk memperoleh anak, sekalipun usia beliau sudah sangat tua dan istri beliau mandul. Kisah kelahiran Isa a.s. tanpa bapak, kisah Ibrahim a.s. dengan bapaknya, Musa a.s. seorang yang dipilih Allah, Ismail a.s. seorang yang benar dalam janjinya dan Idris a.s. seorang yang sangat kuat kepercayaannya.\n3. Dan lain-lain: \nAncaman terhadap orang yang meninggalkan salat dan mengikuti hawa nafsunya serta kabar gembira untuk orang-orang yang telah tobat dan mengamalkan amal-amal yang saleh, keadaan di surga, membiarkan orang yang sesat dari petunjuk bergelimang dalam kesesatannya adalah Sunnah Allah.\n ",
        "outro_surah": null,
        "munasabah_prev_surah": "HUBUNGAN SURAH AL-KAHF DENGAN\nSURAH MARYAM\n\n1. \tKedua surah ini sama-sama mengandung kisah yang ajaib, seperti Surah al-Kahf mengemukakan kisah A\u1e63\u1e25\u0101bul Kahfi, kisah Musa a.s. kisah Zulkarnain, sedang surah Maryam mengemukakan kisah kelahiran Yahya a.s. diwaktu bapaknya Zakaria a.s. telah sangat tua dan ibunya seorang wanita tua pula lagi mandul dan kisah kelahiran Isa a.s. tanpa bapak.\n2. \tBagian akhir surah al-Kahf menerangkan tentang ancaman Allah terhadap orang-orang kafir yang mencari pelindungan kepada selain Allah, semua amal mereka sia-sia dan mereka dimasukkan dalam neraka, sedang pada bagian akhir surah Maryam diulang lagi celaan dan ancaman Allah terhadap orang-orang yang mempersekutukan-Nya.",
        "munasabah_prev_theme": "Pada ayat yang lalu Allah menerangkan tentang beberapa orang rasul dan nabi dan tentang keistimewaan masing-masing mereka, maka pada ayat berikut ini Allah menerangkan pula sifat khusus yang dipunyai para nabi dan rasul itu, karena sifat itulah mereka dimuliakan dan diangkat ke derajat yang paling tinggi.",
        "theme_group": "SIFAT-SIFAT PARA NABI DAN PARA RASUL",
        "kosakata": "Kosakata: Bukiyy\u0101 \u0628\u064f\u0643\u0650\u064a\u0651\u064b\u0627 (Maryam/19:58)\nBukiyy\u0101 artinya menangis, berasal dari fi\u2019il \u0628\u0643\u0649 -\u064a\u0628\u0643\u0649 -\u0628\u0643\u0627\u0621 -\u0648\u0628\u0643\u064a\u0627 . Dalam ayat 58 surah Maryam ini firman Allah kharr\u016b sujjadaw wabukiyy\u0101 artinya mereka tunduk dengan sujud dan menangis. Ini adalah sebagian dari sifat-sifat para nabi dan rasul sejak Nabi Adam, Idris, Nuh, Hud, Saleh dan seterusnya sampai Nabi Ibrahim, Nabi Musa, Nabi \u2018Isa dan Nabi Muhammad. Mereka telah mendapat hidayah dari Allah dan mereka dipilih oleh Allah menjadi pembawa risalah kebenaran untuk disampaikan kepada umatnya. Hidayah dan petunjuk Allah adalah nikmat yang paling besar yang diterima para nabi dan rasul karena meskipun hidup di lingkungan yang ingkar kepada Allah, tetapi para nabi dan rasul ini tidak terpengaruh oleh buruknya lingkungan, bahkan dapat mempengaruhi lingkungannya untuk hidup secara baik, terhormat dan mulia mengikuti petunjuk-petunjuk Allah.\n",
        "sabab_nuzul": null,
        "conclusion": "Sifat yang istimewa yang dipunyai para nabi dan rasul ialah apabila disebut nama Allah dan dibacakan kepada mereka ayat-ayat-Nya mereka menyungkur dan sujud, meneteskan air mata di pipi mereka.\n"
    }
}