{
    "id": 2280,
    "surah_id": 19,
    "ayah": 30,
    "page": 307,
    "quarter_hizb": 31.5,
    "juz": 16,
    "manzil": 4,
    "arabic": "\u0642\u064e\u0627\u0644\u064e \u0627\u0650\u0646\u0651\u0650\u064a\u0652 \u0639\u064e\u0628\u0652\u062f\u064f \u0627\u0644\u0644\u0651\u0670\u0647\u0650 \u06d7\u0627\u0670\u062a\u0670\u0649\u0646\u0650\u064a\u064e \u0627\u0644\u0652\u0643\u0650\u062a\u0670\u0628\u064e \u0648\u064e\u062c\u064e\u0639\u064e\u0644\u064e\u0646\u0650\u064a\u0652 \u0646\u064e\u0628\u0650\u064a\u0651\u064b\u0627 \u06d9",
    "latin": "Q\u0101la inn\u012b \u2018abdull\u0101h(i), \u0101t\u0101niyal-kit\u0101ba wa ja\u2018alan\u012b nabiyy\u0101(n).",
    "translation": "Dia (Isa) berkata, \u201cSesungguhnya aku hamba Allah. Dia (akan) memberiku Kitab (Injil) dan menjadikan aku seorang nabi.",
    "no_footnote": null,
    "footnotes": null,
    "surah": {
        "id": 19,
        "arabic": " \u0645\u0631\u064a\u0645",
        "latin": "Maryam",
        "transliteration": "Maryam",
        "translation": "Maryam",
        "num_ayah": 98,
        "page": 305,
        "location": "Makkiyah"
    },
    "tafsir": {
        "wajiz": "Isa yang berada dalam gendongan ibunya mendengar pembicaraan kaumnya. Dia berkata, \u201cSesungguhnya aku adalah hamba Allah Yang Mahakasih. Dia akan memberiku sebuah Kitab Injil sesuai ketetapan-Nya, dan Dia juga akan menjadikan aku seorang nabi untuk menyampaikan ajaran-ajaran-Nya kepada Bani Israil.",
        "tahlili": "Isa a.s. yang masih dalam gendongan ibunya kemudian berkata, \u201cSesungguhnya aku ini hamba Allah, Dia yang akan memberikan aku kitab suci Injil dan Dia yang akan menjadikan aku seorang Nabi.\u201d Ucapan ini mengandung penjelasan bahwa ibunya adalah seorang wanita yang suci karena seorang Nabi harus dari keturunan orang yang saleh dan suci.",
        "intro_surah": "Surah Maryam terdiri atas 98 ayat, termasuk golongan surah-surah Makkiyyah karena hampir seluruh ayatnya diturunkan sebelum Nabi Muhammad saw hijrah ke Medinah, bahkan sebelum sahabat-sahabat beliau hijrah ke Negeri Habsyah (Ethiopia). Menurut riwayat Ibnu Mas`ud, Ja`far bin Abi Talib membacakan permulaan Surah Maryam kepada raja Najasyi dan pengikut-pengikutnya di waktu ia ikut hijrah bersama-sama sahabatsahabat yang lain ke negeri itu. Surah ini dinamai \u201cMaryam\u201d, karena surah ini mengandung kisah Maryam, Ibu Nabi Isa a.s. yang serba ajaib, yaitu melahirkan putranya Isa a.s. sedang ia sebelumnya belum pernah dinikahi atau dicampuri oleh seorang laki-laki pun. Kelahiran Isa a.s. tanpa bapak merupakan suatu bukti kekuasaan Allah. Pengutaraan kisah Maryam sebagai kejadian yang luar biasa dan ajaib dalam Surah ini, diawali dengan kisah kejadian yang luar biasa dan ajaib pula, yaitu dikabulkannya doa Zakaria a.s. oleh Allah agar beliau dianugerahi seorang putra sebagai pewaris dan pelanjut cita-cita dan kepercayaan beliau, sedang usia beliau sudah sangat tua dan istri beliau seorang yang mandul, yang menurut ukuran ilmu biologi tidak mungkin bisa hamil.\n\nPOKOK-POKOK ISINYA\n1. Keimanan: \nAllah berbuat sesuatu menurut yang dikehendaki-Nya, kendati pun menyimpang dari hukum-hukum alam, Isa a.s., bukan anak Allah karena mustahil Allah mempunyai anak. Jibril a.s. turun kepada rasul-rasul membawa wahyu atas perintah Allah. Semua manusia akan masuk neraka, kecuali yang beriman lagi bertakwa kepada Allah.\n2. Kisah:\nAllah mengabulkan doa Zakaria a.s. untuk memperoleh anak, sekalipun usia beliau sudah sangat tua dan istri beliau mandul. Kisah kelahiran Isa a.s. tanpa bapak, kisah Ibrahim a.s. dengan bapaknya, Musa a.s. seorang yang dipilih Allah, Ismail a.s. seorang yang benar dalam janjinya dan Idris a.s. seorang yang sangat kuat kepercayaannya.\n3. Dan lain-lain: \nAncaman terhadap orang yang meninggalkan salat dan mengikuti hawa nafsunya serta kabar gembira untuk orang-orang yang telah tobat dan mengamalkan amal-amal yang saleh, keadaan di surga, membiarkan orang yang sesat dari petunjuk bergelimang dalam kesesatannya adalah Sunnah Allah.\n ",
        "outro_surah": null,
        "munasabah_prev_surah": "HUBUNGAN SURAH AL-KAHF DENGAN\nSURAH MARYAM\n\n1. \tKedua surah ini sama-sama mengandung kisah yang ajaib, seperti Surah al-Kahf mengemukakan kisah A\u1e63\u1e25\u0101bul Kahfi, kisah Musa a.s. kisah Zulkarnain, sedang surah Maryam mengemukakan kisah kelahiran Yahya a.s. diwaktu bapaknya Zakaria a.s. telah sangat tua dan ibunya seorang wanita tua pula lagi mandul dan kisah kelahiran Isa a.s. tanpa bapak.\n2. \tBagian akhir surah al-Kahf menerangkan tentang ancaman Allah terhadap orang-orang kafir yang mencari pelindungan kepada selain Allah, semua amal mereka sia-sia dan mereka dimasukkan dalam neraka, sedang pada bagian akhir surah Maryam diulang lagi celaan dan ancaman Allah terhadap orang-orang yang mempersekutukan-Nya.",
        "munasabah_prev_theme": "Pada ayat-ayat yang lalu diterangkan bahwa Maryam binti \u2018Imr\u0101n hamil dan melahirkan bayi yang sehat dengan segala limpahan karunia Allah, seperti mengalirnya air bersih di dekat tempat melahirkan, berbuahnya pohon kurma yang selama ini tidak berbuah. Maka pada ayat-ayat ini Allah menerangkan tentang ejekan dan berbagai tuduhan terhadap Maryam yang melahirkan anak tanpa suami, tetapi semua itu tidak dijawab sendiri oleh Maryam, melainkan dijawab oleh Isa yang masih bayi.",
        "theme_group": "TUDUHAN KEPADA MARYAM DAN PEMBELAAN \n NABI ISA TERHADAP IBUNYA ",
        "kosakata": "1. Fariyy\u0101 \u0641\u064e\u0631\u0650\u064a\u0651\u064b\u0627 (Maryam/19:27)\nFariyy\u0101 artinya yang amat mungkar. Kata ini terambil dari akar (\u0641- \u0631- \u062d\u0631\u0641 \u0639\u0644\u0629 \u064a) artinya memotong sesuatu untuk memperbaikinya atau merusaknya, atau melubangi sesuatu. Ragib dalam \u201cMufradat-nya\u201d menjelaskan bahwa kata al-faryu artinya memotong kulit untuk dijahit dan diperbaiki, Sedangkan iftira\u2019 adalah digunakan untuk arti memperbaiki atau merusak. Arti yang kedua (merusak) lebih banyak digunakan dalam Al-Qur\u2019an. Kebohongan, syirik, dan kezaliman masuk dalam katagori iftira\u2019. Dari beberapa arti dasar ini lalu berkembang ke arti lain yang semisal. Sesuatu yang membikin seseorang terheran-heran dikatakan al-Fariyy, seakan-akan dia telah memotong sesuatu itu dengan potongan yang mengherankan. Pada ayat ini Siti Maryam dituduh melakukan perbuatan zina karena hal ini sesuatu yang amat besar dan mengherankan bagi orang sesuci Maryam. Tuduhan tersebut merusak citra diri Maryam.\n2. Bagiyy\u0101 \u0628\u064e\u063a\u0650\u064a\u0651\u064b\u0627 (Maryam/19: 28)\nArtinya: seorang pezina. Akar kata dari kalimat ini seperti dikatakan Ibn Faris adalah (\u0628- \u063a- \u064a) mempunyai dua arti dasar. Pertama, mencari. Kedua, sebuah bentuk kerusakan. Sementara Ragib mengartikan kata bagy untuk mencari pelampauan hal-hal yang wajar dari semestinya, baik betul- betul telah dilampaui atau tidak. Hal tersebut baik terkait dengan hal yang bersifat kualitas sesuatu atau maupun kuantitasnya. Ungkapan, \u201cBagaitusy syai\" artinya engkau mencari melebihi dari apa yang seharusnya. Kemudian menurut Ragib kata bagy bisa terpuji, bisa juga tercela. Terpuji jika beranjak dari keadilan menuju ihsan (berbuat baik) dan tercela jika beralih dari yang hak menuju kepada kebatilan. Kata bagiyy diartikan pezina karena konteks ayatnya mengarah kepada arti ini. Zina sendiri merupakan perbuatan yang melampaui batas dan sesuatu yang membuat kerusakan.",
        "sabab_nuzul": null,
        "conclusion": null
    }
}