{
    "id": 2330,
    "surah_id": 19,
    "ayah": 80,
    "page": 311,
    "quarter_hizb": 31.75,
    "juz": 16,
    "manzil": 4,
    "arabic": "\u0648\u0651\u064e\u0646\u064e\u0631\u0650\u062b\u064f\u0647\u0657 \u0645\u064e\u0627 \u064a\u064e\u0642\u064f\u0648\u0652\u0644\u064f \u0648\u064e\u064a\u064e\u0623\u0652\u062a\u0650\u064a\u0652\u0646\u064e\u0627 \u0641\u064e\u0631\u0652\u062f\u064b\u0627 ",
    "latin": "Wa nari\u1e61uh\u016b m\u0101 yaq\u016blu wa ya't\u012bn\u0101 fard\u0101(n).",
    "translation": "Kami akan mengambil kembali apa yang dia katakan itu (harta dan anak) dan dia datang kepada Kami seorang diri.",
    "no_footnote": null,
    "footnotes": null,
    "surah": {
        "id": 19,
        "arabic": " \u0645\u0631\u064a\u0645",
        "latin": "Maryam",
        "transliteration": "Maryam",
        "translation": "Maryam",
        "num_ayah": 98,
        "page": 305,
        "location": "Makkiyah"
    },
    "tafsir": {
        "wajiz": "Sama sekali tidak! Dia tidak mengetahui hal gaib, apalagi membuat perjanjian dengan Allah. Jika dia tidak menghentikan kebohongannya, Kami akan menulis dan meminta pertanggungjawaban atas apa yang dia katakan dan Kami akan memperpanjang azab untuknya secara sempurna sampai batas tertentu, dan Kami akan mewarisi serta membinasakan apa yang dia katakan dan banggakan itu, berupa harta dan keturunan, dan dia akan datang kepada Kami seorang diri setelah kematiannya tanpa ditemani harta atau anaknya.",
        "tahlili": "Pada ayat ini Allah mengancam mereka dengan ancaman yang keras karena kelancangannya menisbahkan sesuatu terhadap Allah tanpa ilmu dan tanpa dasar yang dapat dipertanggungjawabkan secara rasional. Allah akan mengambil semua harta mereka sebagai balasan yang setimpal dengan keingkaran dan kedurhakaannya dan menyiksanya dengan siksaan yang tiada putus-putusnya. Allah akan mengambil semua harta dan anak-anaknya yang ditinggalkannya ketika dia mati sehingga di akhirat nanti dia datang menghadap Allah sendirian, tidak ada yang akan membela dan menolongnya. Memang pada hari itu tak ada sesuatu pun yang dapat menolong manusia kecuali iman dan amal perbuatannya sesuai dengan firman Allah:\n\u064a\u064e\u0648\u0652\u0645\u064e \u0644\u064e\u0627 \u064a\u064e\u0646\u0652\u0641\u064e\u0639\u064f \u0645\u064e\u0627\u0644\u064c \u0648\u0651\u064e\u0644\u064e\u0627 \u0628\u064e\u0646\u064f\u0648\u0652\u0646\u064e \u06d9 \u0668\u0668 \u0627\u0650\u0644\u0651\u064e\u0627 \u0645\u064e\u0646\u0652 \u0627\u064e\u062a\u064e\u0649 \u0627\u0644\u0644\u0651\u0670\u0647\u064e \u0628\u0650\u0642\u064e\u0644\u0652\u0628\u064d \u0633\u064e\u0644\u0650\u064a\u0652\u0645\u064d \u06d7 \u0668\u0669\n(yaitu) pada hari (ketika) harta dan anak-anak tidak berguna, kecuali orang-orang yang menghadap Allah dengan hati yang bersih. (asy- Syu\u2018ar\u0101\u2019/26: 88-89)\n\u0648\u064e\u0639\u064f\u0631\u0650\u0636\u064f\u0648\u0652\u0627 \u0639\u064e\u0644\u0670\u0649 \u0631\u064e\u0628\u0651\u0650\u0643\u064e \u0635\u064e\u0641\u0651\u064b\u0627\u06d7 \u0644\u064e\u0642\u064e\u062f\u0652 \u062c\u0650\u0626\u0652\u062a\u064f\u0645\u064f\u0648\u0652\u0646\u064e\u0627 \u0643\u064e\u0645\u064e\u0627 \u062e\u064e\u0644\u064e\u0642\u0652\u0646\u0670\u0643\u064f\u0645\u0652 \u0627\u064e\u0648\u0651\u064e\u0644\u064e \u0645\u064e\u0631\u0651\u064e\u0629\u064d\u06e2 \u06d6\u0628\u064e\u0644\u0652 \u0632\u064e\u0639\u064e\u0645\u0652\u062a\u064f\u0645\u0652 \u0627\u064e\u0644\u0651\u064e\u0646\u0652 \u0646\u0651\u064e\u062c\u0652\u0639\u064e\u0644\u064e \u0644\u064e\u0643\u064f\u0645\u0652 \u0645\u0651\u064e\u0648\u0652\u0639\u0650\u062f\u064b\u0627 \u0664\u0668\nDan mereka akan dibawa ke hadapan Tuhanmu dengan berbaris. (Allah berfirman), \u201cSesungguhnya kamu datang kepada Kami, sebagaimana Kami menciptakan kamu pada pertama kali; bahkan kamu menganggap bahwa Kami tidak akan menetapkan bagi kamu waktu (berbangkit untuk memenuhi) perjanjian.\u201d (al-Kahf/18: 48) ",
        "intro_surah": "Surah Maryam terdiri atas 98 ayat, termasuk golongan surah-surah Makkiyyah karena hampir seluruh ayatnya diturunkan sebelum Nabi Muhammad saw hijrah ke Medinah, bahkan sebelum sahabat-sahabat beliau hijrah ke Negeri Habsyah (Ethiopia). Menurut riwayat Ibnu Mas`ud, Ja`far bin Abi Talib membacakan permulaan Surah Maryam kepada raja Najasyi dan pengikut-pengikutnya di waktu ia ikut hijrah bersama-sama sahabatsahabat yang lain ke negeri itu. Surah ini dinamai \u201cMaryam\u201d, karena surah ini mengandung kisah Maryam, Ibu Nabi Isa a.s. yang serba ajaib, yaitu melahirkan putranya Isa a.s. sedang ia sebelumnya belum pernah dinikahi atau dicampuri oleh seorang laki-laki pun. Kelahiran Isa a.s. tanpa bapak merupakan suatu bukti kekuasaan Allah. Pengutaraan kisah Maryam sebagai kejadian yang luar biasa dan ajaib dalam Surah ini, diawali dengan kisah kejadian yang luar biasa dan ajaib pula, yaitu dikabulkannya doa Zakaria a.s. oleh Allah agar beliau dianugerahi seorang putra sebagai pewaris dan pelanjut cita-cita dan kepercayaan beliau, sedang usia beliau sudah sangat tua dan istri beliau seorang yang mandul, yang menurut ukuran ilmu biologi tidak mungkin bisa hamil.\n\nPOKOK-POKOK ISINYA\n1. Keimanan: \nAllah berbuat sesuatu menurut yang dikehendaki-Nya, kendati pun menyimpang dari hukum-hukum alam, Isa a.s., bukan anak Allah karena mustahil Allah mempunyai anak. Jibril a.s. turun kepada rasul-rasul membawa wahyu atas perintah Allah. Semua manusia akan masuk neraka, kecuali yang beriman lagi bertakwa kepada Allah.\n2. Kisah:\nAllah mengabulkan doa Zakaria a.s. untuk memperoleh anak, sekalipun usia beliau sudah sangat tua dan istri beliau mandul. Kisah kelahiran Isa a.s. tanpa bapak, kisah Ibrahim a.s. dengan bapaknya, Musa a.s. seorang yang dipilih Allah, Ismail a.s. seorang yang benar dalam janjinya dan Idris a.s. seorang yang sangat kuat kepercayaannya.\n3. Dan lain-lain: \nAncaman terhadap orang yang meninggalkan salat dan mengikuti hawa nafsunya serta kabar gembira untuk orang-orang yang telah tobat dan mengamalkan amal-amal yang saleh, keadaan di surga, membiarkan orang yang sesat dari petunjuk bergelimang dalam kesesatannya adalah Sunnah Allah.\n ",
        "outro_surah": null,
        "munasabah_prev_surah": "HUBUNGAN SURAH AL-KAHF DENGAN\nSURAH MARYAM\n\n1. \tKedua surah ini sama-sama mengandung kisah yang ajaib, seperti Surah al-Kahf mengemukakan kisah A\u1e63\u1e25\u0101bul Kahfi, kisah Musa a.s. kisah Zulkarnain, sedang surah Maryam mengemukakan kisah kelahiran Yahya a.s. diwaktu bapaknya Zakaria a.s. telah sangat tua dan ibunya seorang wanita tua pula lagi mandul dan kisah kelahiran Isa a.s. tanpa bapak.\n2. \tBagian akhir surah al-Kahf menerangkan tentang ancaman Allah terhadap orang-orang kafir yang mencari pelindungan kepada selain Allah, semua amal mereka sia-sia dan mereka dimasukkan dalam neraka, sedang pada bagian akhir surah Maryam diulang lagi celaan dan ancaman Allah terhadap orang-orang yang mempersekutukan-Nya.",
        "munasabah_prev_theme": "Pada ayat-ayat yang lalu Allah telah menolak alasan yang dikemukakan orang-orang kafir tentang hari kebangkitan dengan dalil yang tak dapat dibantah lagi oleh orang yang mempergunakan akal dan pikirannya. Meskipun demikian orang-orang kafir itu tetap ingkar bahkan menyambut dalil itu dengan cemoohan dan olok-olok. Maka pada ayat-ayat berikut ini cemoohan mereka itu dibalas dengan mengemukakan kritik yang tajam, bila mereka memperhatikan benar-benar kritikan tersebut tentulah mereka akan malu sendiri. Allah mengancam mereka dengan ancaman yang keras yaitu semua ucapan dan cemoohan mereka akan dicatat dan tindakan mereka akan dibalas dengan siksaan yang terus-menerus.\n",
        "theme_group": "JAWABAN ATAS CEMOOHAN ORANG KAFIR \nTENTANG HARI KEBANGKITAN ",
        "kosakata": "1. Al-Gaib \u0627\u064e\u0644\u0652\u063a\u064e\u064a\u0652\u0628\u0650 (Maryam/19: 78)\n\u0627\u064e\u0644\u0652\u063a\u064e\u064a\u0652\u0628\u0650 artinya yang tersembunyi, rahasia dan tidak tampak. Lawan dari \u2018\u0101lam gaib ialah \u2018\u0101lam al-syah\u0101dah yaitu alam lahir yang tampak, dapat ditangkap pancaindera, dapat dilihat, dapat diraba, dapat didengar, dan sebagainya. Jika pada ayat 77 surah Maryam diterangkan bahwa orang kafir telah memastikan bahwa dirinya akan kaya dan memiliki banyak anak, maka pada ayat 78 ini kepada orang kafir dipertanyakan, apakah orang kafir mengetahui yang gaib dan tersembunyi, atau telah ada perjanjian dengan Allah bahwa ia akan diberi banyak harta dan anak. Istifh\u0101m atau kalimat tanya disini dalam ilmu balagah berarti ingkari, yaitu tidak mungkin orang kafir mengetahui yang gaib dan juga tidak mungkin Allah telah membuat janji kepada orang kafir untuk memberi banyak harta dan anak. Hal ini hanya menunjukkan kesombongan orang kafir saja bahwa ia tidak perlu beriman dan mengikuti petunjuk Nabi Muhammad, karena ia kaya dan banyak anak yang dianggap sebagai pertanda kehidupannya telah diridai Allah. Padahal sebetulnya tidak demikian, anggapan orang kafir sangat keliru.\n2. Madd\u0101 \u0645\u064e\u062f\u0651\u064b\u0627 (Maryam/19: 79)\nLafal \u0645\u062f\u0651\u0627 adalah masdar dari fi\u2019il \u0645\u062f\u0651 -\u064a\u0645\u062f\u0651 -\u0645\u062f\u0651\u0627 artinya memperpanjang, membentangkan. \u0645\u062f\u0651\u0627 dalam kalimat sebagaimana pada ayat 79 surah Maryam ini berfungsi sebagai maf\u2019ul mu\u1e6dlaq, yaitu maf\u2019ul dengan mempergunakan masdar dari fi\u2019il yang dipergunakan pada kalimat tersebut, artinya untuk ta\u2019kid atau memperkuat yang disebutkan fi\u2019il, atau menunjukkan kualitas sifat atau corak dari perbuatan yang disebutkan fi\u2019il tersebut. Maka firman Allah dalam kalimat wa namuddu lah\u016b minal-\u2018a\u017c\u0101bi madd\u0101 artinya Kami akan memperpanjang azab baginya dengan sempurna. Menyempurnakan azab ini adalah penegasan Allah setelah pada awal ayat ini Allah mengatakan, \u201cTidak, sama sekali tidak,\u201d Allah tidak akan memberikan seperti yang dikatakan orang kafir ini yaitu katanya akan diberi harta dan anak pada hari akhir nanti, karena bukan saatnya pada hari akhir dan hari kebangkitan itu untuk mengembangbiakkan keturunan. Yang pasti pada hari kebangkitan itu orang-orang kafir akan mendapat azab yang berat dan terus-menerus.",
        "sabab_nuzul": null,
        "conclusion": "1. \tAllah mengecam orang yang mengada-ada tentang kehidupan di akhirat, seperti ucapan seseorang bahwa di akhirat Allah akan memberinya rezeki yang banyak.\n2. \tAllah akan mencatat semua ucapan mereka dan menimpakan kepadanya balasan yang setimpal di akhirat di mana dia akan menghadap ke hadirat Allah seorang diri."
    }
}