{
    "id": 2401,
    "surah_id": 20,
    "ayah": 53,
    "page": 315,
    "quarter_hizb": 32,
    "juz": 16,
    "manzil": 4,
    "arabic": "\u0627\u0644\u0651\u064e\u0630\u0650\u064a\u0652 \u062c\u064e\u0639\u064e\u0644\u064e \u0644\u064e\u0643\u064f\u0645\u064f \u0627\u0644\u0652\u0627\u064e\u0631\u0652\u0636\u064e \u0645\u064e\u0647\u0652\u062f\u064b\u0627 \u0648\u0651\u064e\u0633\u064e\u0644\u064e\u0643\u064e \u0644\u064e\u0643\u064f\u0645\u0652 \u0641\u0650\u064a\u0652\u0647\u064e\u0627 \u0633\u064f\u0628\u064f\u0644\u064b\u0627 \u0648\u0651\u064e\u0627\u064e\u0646\u0652\u0632\u064e\u0644\u064e \u0645\u0650\u0646\u064e \u0627\u0644\u0633\u0651\u064e\u0645\u064e\u0627\u06e4\u0621\u0650 \u0645\u064e\u0627\u06e4\u0621\u064b\u06d7 \u0641\u064e\u0627\u064e\u062e\u0652\u0631\u064e\u062c\u0652\u0646\u064e\u0627 \u0628\u0650\u0647\u0656\u0653 \u0627\u064e\u0632\u0652\u0648\u064e\u0627\u062c\u064b\u0627 \u0645\u0651\u0650\u0646\u0652 \u0646\u0651\u064e\u0628\u064e\u0627\u062a\u064d \u0634\u064e\u062a\u0651\u0670\u0649 ",
    "latin": "Al-la\u017c\u012b ja\u2018ala lakumul-ar\u1e0da mahdaw wa salaka lakum f\u012bh\u0101 subulaw wa anzala minas-sam\u0101'i m\u0101'\u0101(n), fa akhrajn\u0101 bih\u012b azw\u0101jam min nab\u0101tin syatt\u0101.",
    "translation": "(Dialah Tuhan) yang telah menjadikan bumi sebagai hamparan dan meratakan jalan-jalan di atasnya bagimu serta menurunkan air (hujan) dari langit.\u201d Kemudian, Kami menumbuhkan dengannya (air hujan itu) beraneka macam tumbuh-tumbuhan.",
    "no_footnote": null,
    "footnotes": null,
    "surah": {
        "id": 20,
        "arabic": " \u0637\u0670\u0647\u0670",
        "latin": "\u1e6c\u0101h\u0101",
        "transliteration": "Taha",
        "translation": "Taha",
        "num_ayah": 135,
        "page": 312,
        "location": "Makkiyah"
    },
    "tafsir": {
        "wajiz": "Wahai Fir\u2019aun, Allah adalah Tuhan yang telah menjadikan bumi sebagai hamparan bagimu, juga bagi seluruh manusia, dan menjadikan jalan-jalan yang rata dan lebar di atasnya bagimu agar kamu mudah bepergian, dan Dia pula yang menurunkan air hujan dari langit untuk menyuburkan tanah di sekitarmu.\u201d Allah beralih menggunakan kalimat langsung dari- Nya, \u201cKemudian, Kami tumbuhkan dengannya, yakni dengan air hujan itu, berjenis-jenis tumbuh-tumbuhan dengan beragam bentuk, rasa, dan kegunaan.",
        "tahlili": "Untuk memperkuat bahwa Allah itu tidak akan salah dan lupa, dan untuk menolak kemungkinan timbulnya sangkaan bahwa catatan yang ada di \u201cLau\u1e25 Ma\u1e25f\u016b\u1e93\u201d itu bisa salah dan ada yang tidak tercatat karena lupa, maka pada ayat ini ditegaskan bahwa Tuhan yang menguasai pencatatan itu, ialah Tuhan Yang menjadikan bumi ini sebagai hamparan bagi manusia yang terbentang luas untuk dipergunakan sebagai tempat tinggal, bangun, tidur dan berpergian dengan bebas ke mana-mana, sebagaimana firman Allah:\n\u0627\u064e\u0644\u0644\u0651\u0670\u0647\u064f \u0627\u0644\u0651\u064e\u0630\u0650\u064a\u0652 \u062c\u064e\u0639\u064e\u0644\u064e \u0644\u064e\u0643\u064f\u0645\u064f \u0627\u0644\u0652\u0627\u064e\u0631\u0652\u0636\u064e \u0642\u064e\u0631\u064e\u0627\u0631\u064b\u0627\nAllah-lah yang menjadikan bumi untukmu sebagai tempat menetap. (al-Mu\u2019min/40: 64)\nDan firman-Nya:\n\u0647\u064f\u0648\u064e \u0627\u0644\u0651\u064e\u0630\u0650\u064a\u0652 \u062c\u064e\u0639\u064e\u0644\u064e \u0644\u064e\u0643\u064f\u0645\u064f \u0627\u0644\u0652\u0627\u064e\u0631\u0652\u0636\u064e \u0630\u064e\u0644\u064f\u0648\u0652\u0644\u064b\u0627 \u0641\u064e\u0627\u0645\u0652\u0634\u064f\u0648\u0652\u0627 \u0641\u0650\u064a\u0652 \u0645\u064e\u0646\u064e\u0627\u0643\u0650\u0628\u0650\u0647\u064e\u0627\nDialah yang menjadikan bumi untuk kamu yang mudah dijelajahi, maka jelajahilah di segala penjurunya. (al-Mulk/67: 15)\nTuhanlah yang telah menjadikan jalan-jalan di bumi ini, baik di gunung-gunung maupun di tempat-tempat yang rendah untuk menghubungkan satu tempat dengan tempat yang lain, antara satu kota dengan kota yang lain, antar satu desa dengan desa yang lain, guna memudahkan melaksanakan keperluan-keperluan manusia. Sejalan dengan firman Allah:\n\u0648\u064e\u0627\u0644\u0644\u0651\u0670\u0647\u064f \u062c\u064e\u0639\u064e\u0644\u064e \u0644\u064e\u0643\u064f\u0645\u064f \u0627\u0644\u0652\u0627\u064e\u0631\u0652\u0636\u064e \u0628\u0650\u0633\u064e\u0627\u0637\u064b\u0627\u06d9 \u0661\u0669 \u0644\u0651\u0650\u062a\u064e\u0633\u0652\u0644\u064f\u0643\u064f\u0648\u0652\u0627 \u0645\u0650\u0646\u0652\u0647\u064e\u0627 \u0633\u064f\u0628\u064f\u0644\u064b\u0627 \u0641\u0650\u062c\u064e\u0627\u062c\u064b\u0627 \u08d6 \u0662\u0660\nDan Allah menjadikan bumi untukmu sebagai hamparan, agar kamu dapat pergi kian kemari di jalan-jalan yang luas. (N\u016b\u1e25/71: 19-20)\nDan firman-Nya:\n\u0648\u064e\u062c\u064e\u0639\u064e\u0644\u0652\u0646\u064e\u0627 \u0641\u0650\u0649 \u0627\u0644\u0652\u0627\u064e\u0631\u0652\u0636\u0650 \u0631\u064e\u0648\u064e\u0627\u0633\u0650\u064a\u064e \u0627\u064e\u0646\u0652 \u062a\u064e\u0645\u0650\u064a\u0652\u062f\u064e \u0628\u0650\u0647\u0650\u0645\u06d6\u0652 \u0648\u064e\u062c\u064e\u0639\u064e\u0644\u0652\u0646\u064e\u0627 \u0641\u0650\u064a\u0652\u0647\u064e\u0627 \u0641\u0650\u062c\u064e\u0627\u062c\u064b\u0627 \u0633\u064f\u0628\u064f\u0644\u064b\u0627 \u0644\u0651\u064e\u0639\u064e\u0644\u0651\u064e\u0647\u064f\u0645\u0652 \u064a\u064e\u0647\u0652\u062a\u064e\u062f\u064f\u0648\u0652\u0646\u064e \u0663\u0661\n\u201cDan Kami telah menjadikan di bumi ini gunung-gunung yang kokoh agar ia (tidak) guncang bersama mereka, dan Kami jadikan (pula) di sana jalan-jalan yang luas, agar mereka mendapat petunjuk.\u201d (al-Anbiy\u0101\u2019/21: 31)\nTuhanlah, yang menurunkan air hujan dari langit yang menyebabkan tumbuhnya tanam-tanaman dan buah-buahan yang bermacam-macam cita rasanya, ada yang masam, ada yang manis, bermacam ragam dan jenis dan manfaatnya. Ada yang layak untuk manusia, dan ada yang baik untuk binatang yang kesemuanya itu menunjukkan atas besarnya karunia dan banyaknya nikmat yang dilimpahkan Allah kepada semua hamba-Nya. Sejalan dengan firman Allah:\n\u0648\u0651\u064e\u0627\u064e\u0646\u0652\u0632\u064e\u0644\u064e \u0645\u0650\u0646\u064e \u0627\u0644\u0633\u0651\u064e\u0645\u064e\u0627\u06e4\u0621\u0650 \u0645\u064e\u0627\u06e4\u0621\u064b \u0641\u064e\u0627\u064e\u062e\u0652\u0631\u064e\u062c\u064e \u0628\u0650\u0647\u0656 \u0645\u0650\u0646\u064e \u0627\u0644\u062b\u0651\u064e\u0645\u064e\u0631\u0670\u062a\u0650 \u0631\u0650\u0632\u0652\u0642\u064b\u0627 \u0644\u0651\u064e\u0643\u064f\u0645\u0652\nDialah yang menurunkan air (hujan) dari langit, lalu Dia hasilkan dengan (hujan) itu buah-buahan sebagai rezeki untukmu. (al-Baqarah/2: 22)",
        "intro_surah": "Surah \u1e6c\u0101h\u0101 terdiri atas 135 ayat, diturunkan sesudah Surah Maryam, termasuk golongan Surah-surah Makkiyyah. Surah ini dinamakan \u201c\u1e6c\u0101h\u0101\u201d, diambil dari perkataan yang berasal dari ayat pertama Surah ini. Sebagaimana lazimnya Surah-surah yang memakai huruf-huruf Hijaiyyah pada permulaannya, huruf tersebut merupakan pemberitahuan Allah kepada orang-orang yang membacanya, bahwa sesudah huruf itu akan dikemukakan hal-hal yang sangat penting diketahui. Demikian pula halnya dengan ayat-ayat yang terdapat sesudah huruf \u201c\u1e6c\u0101h\u0101\u201d. Ayat ini menerangkan bahwa Al-Qur\u2019an diturunkan bukanlah untuk menyusahkan manusia, tetapi justeru berisi peringatan bagi manusia dan berasal dari Tuhan Yang Maha Penyayang. Selain hal-hal tersebut di atas, juga Surah ini mengandung pokok-pokok isi sebagai berikut:\n\nPOKOK-POKOK ISINYA\n1. Keimanan:\nPenjelasan mengenai pokok-pokok keimanan kepada Allah, Al-Qur\u2019an, Rasul dan Hari Kemudian. \n2. Hukum:\nBeberapa perintah kepada Nabi Muhammad seperti sabar menghadapi penolakan orang-orang kafir, mendidik keluarga untuk mengerjakan salat dan mempersilahkan orang-orang kafir menunggu ketentuan Allah pada Hari Kemudian.\n3. Kisah:\nKisah Musa a.s. dan kisah Harun a.s. dalam menghadapi Fir\u2018aun dan Bani Israil; kisah Nabi Adam a.s., Malaikat dan Iblis.\n4. Lain-lain:\nPerintah Allah kepada Nabi Muhammad saw supaya dia meminta tambahan ilmu kepada Allah sekalipun telah menjadi rasul; Allah tidak akan mengazab sesuatu kaum sebelum diutus rasul kepada mereka; jangan terpengaruh oleh kesenangan kehidupan dunia.\n",
        "outro_surah": null,
        "munasabah_prev_surah": "MUNASABAH SURAH MARYAM\nDENGAN SURAH \u1e6c\u0100H\u0100\n1. \tSurah Maryam memuat kisah beberapa Nabi dan Rasul, ada yang secara terperinci, ada yang secara ringkas dan ada pula yang disebut namanya saja yaitu Nabi Adam as. Surah \u1e6c\u0101h\u0101 memuat pula kisah beberapa Nabi dan Rasul seperti Surah Maryam. Kisah Musa a.s. disebut secara ringkas, sedang dalam Surah \u1e6c\u0101h\u0101 dikemukakan secara terperinci. Begitu pula kisah Adam as yang hanya namanya saja disebut dalam Surah Maryam sedang dalam Surah \u1e6c\u0101h\u0101 dikemukakan secara terperinci.\n2. \tMenurut riwayat Ibnu \u2018Abbas, Surah \u1e6c\u0101h\u0101 diturunkan kepada Nabi Muhammad setelah turunnya Surah Maryam.\n ",
        "munasabah_prev_theme": "Pada ayat-ayat yang lalu Allah menghibur Musa dan Harun supaya keduanya jangan takut berdakwah menghadapi Fir\u2018aun, karena Allah yang selalu menjaganya, dan supaya keduanya pergi menemui Fir\u2018aun tanpa ragu-ragu, maka pada ayat-ayat yang berikut ini, Allah menerangkan bahwa setelah Musa dan Harun melaksanakan perintah Allah, dan setelah keduanya tiba di depan istana Fir\u2018aun terjadilah tanya jawab antara mereka seputar Tuhan Musa, tugasnya sebagai pemberi karunia dan rahmat kepada manusia.",
        "theme_group": "\nDIALOG ANTARA FIR\u2018AUN DAN MUSA ",
        "kosakata": "1. al-Qur\u016bn al-\u016bl\u0101 \u0627\u064e\u0644\u0652\u0642\u064f\u0631\u064f\u0648\u0652\u0646\u0650 \u0627\u0652\u0644\u0623\u064f\u0648\u0652\u0644\u064e\u0649 (\u1e6c\u0101h\u0101/20:51)\n\u0627\u0644\u0623\u0648\u0644\u0649 \u0627\u0644\u0642\u0631\u0648\u0646, \u0627\u0644\u0642\u0631\u0648\u0646 jamak dari \u0627\u0644\u0642\u0631\u0646 dari akar kata \u0642 \u0631 \u0646 , artinya mengumpulkan antara dua hal. Dari sini muncul kata \u0627\u0644\u0642\u0631\u0646 (al-qarnu) berarti satu masa atau abad dalam tahun syamsiah (100 tahun), dan kata lainnya \u0627\u0644\u0642\u0631\u0646 (al-qaranu) artinya tanduk. \nAl-Qarn pada ayat ini artinya sekumpulan orang yang hidup dan berkumpul pada satu masa (Y\u016bnus/10: 13). Sedangkan \u0627\u0644\u0623\u0648\u0644\u0649 \u0627\u0644\u0642\u0631\u0648\u0646 artinya generasi-generasi terdahulu. Maksudnya generasi-generasi sebelum Fir\u2018aun yang juga menganut kepercayaan seperti yang dianut oleh Fir\u2018aun. \nPertanyaan tentang nasib generasi terdahulu diajukan Fir\u2018aun kepada Musa sesudah Musa menjelaskan hakekat tuhan seluruh manusia, seakan-akan Fira\u2019un meremehkan risalah Nabi Musa dan Harun dengan menanyakan nasib orang-orang terdahulu, apakah mereka akan disiksa, dan mampukah keduanya memalingkan kepercayaan pengikut Fir\u2018aun dari kepercayaan leluhurnya.\n2. Mahdan \u0645\u064e\u0647\u0652\u062f\u064b\u0627 (\u1e6c\u0101h\u0101/20: 53)\n\u0645\u0647\u062f\u0627 (mahdan) artinya terhampar. Allah jadikan bumi datar terhampar sehingga mudah bagi manusia untuk berjalan, duduk dan berbaring di atasnya. Setelah pada ayat lalu Musa menjelaskan kuasa dan pengetahuan Allah serta penciptaan-Nya, kini Nabi Musa mengingatkan manusia berbagai kenikmatannya, seperti mengatakan bumi datar, sebagai saksi dan bukti kehadiran Allah agar manusia mau beriman kepada-Nya. \nKata mahdan disebutkan dua kali dalam Al-Qur\u2019an yaitu pada ayat ini dan az-Zukhruf/43: 10.\n3.Ulin-Nuh\u0101 \u0623\u064f\u0648\u0644\u0650\u0649 \u0627\u0644\u0646\u0651\u064f\u0647\u064e\u0649 (\u1e6c\u0101h\u0101/20:54)\n\u0627\u0644\u0646\u0651\u0647\u0649 \u0623\u0648\u0644\u0649 (ulin-nuh\u0101) artinya orang yang berakal. An-Nuha jamak dari \u0627\u0644\u0646\u0647\u064a\u0629 (an-nuhyah) yang berarti akal, dari akar kata yang sama muncul kata \u0646\u0647\u0649 (nah\u0101) artinya melarang, \u0623\u0646\u0647\u0649 mengakhiri, \u0646\u0647\u0627\u064a\u0629 selesai. Akal disebut al-nuhyah karena akallah yang melarang dan menghalangi manusia dari berbagai perbuatan yang bisa merusak dan mencelakakan mereka. Kata ini disebutkan dua kali dalam Al-Qur\u2019an, pada ayat ini dan pada \u1e6c\u0101ha/20: 128.",
        "sabab_nuzul": null,
        "conclusion": null
    }
}