{
    "id": 2391,
    "surah_id": 20,
    "ayah": 43,
    "page": 314,
    "quarter_hizb": 32,
    "juz": 16,
    "manzil": 4,
    "arabic": "\u0627\u0650\u0630\u0652\u0647\u064e\u0628\u064e\u0627\u0653 \u0627\u0650\u0644\u0670\u0649 \u0641\u0650\u0631\u0652\u0639\u064e\u0648\u0652\u0646\u064e \u0627\u0650\u0646\u0651\u064e\u0647\u0657 \u0637\u064e\u063a\u0670\u0649\u06da ",
    "latin": "I\u017chab\u0101 il\u0101 fir\u2018auna innah\u016b \u1e6dag\u0101. ",
    "translation": "Pergilah kamu berdua kepada Fir\u2018aun! Sesungguhnya dia telah melampaui batas.",
    "no_footnote": null,
    "footnotes": null,
    "surah": {
        "id": 20,
        "arabic": " \u0637\u0670\u0647\u0670",
        "latin": "\u1e6c\u0101h\u0101",
        "transliteration": "Taha",
        "translation": "Taha",
        "num_ayah": 135,
        "page": 312,
        "location": "Makkiyah"
    },
    "tafsir": {
        "wajiz": "Wahai Nabi Musa dan Harun, pergilah kamu berdua kepada Fir\u2019aun yang sombong itu dengan bekal mukjizat dari-Ku karena dia benar-benar telah melampaui batas dalam kedurhakannya. Begitu berhadapan dengannya, maka berbicaralah kamu berdua kepadanya dengan kata-kata yang lemah lembut. Ajaklah dia beriman kepada Allah dan serulah pada kebenaran dengan cara yang baik. Mudah-mudahan dengan cara demikian dia menjadi sadar atau takut pada azab Allah bila terus durhaka.\u201d",
        "tahlili": "Ayat ini menerangkan bahwa Allah memerintahkan Musa a.s. dan Harun a.s. pergi kepada Fir\u2018aun untuk mengemukakan bukti-bukti kebenaran kenabiannya yang dianugerahkan Allah, dan menjelaskan kesesatan Fir\u2018aun, karena Fir\u2018aun itu sudah keterlaluan sepak terjangnya melampaui batas, sampai-sampai mengaku bahwa dia adalah tuhan. Dia menyatakan kepada kaumnya dengan ucapan, \u201cSaya tuhanmu yang paling tinggi.\u201d \nAyat ini mengkhususkan dakwah dan seruan kepada Fir\u2018aun sedang pada ayat sebelumnya dakwah diserukan untuk umum, karena kalau Fir\u2018aun sudah beriman kepada ajaran yang dibawa Nabi Musa a.s., dan Nabi Harun tentunya segenap orang-orang Mesir akan mengikutinya sebagaimana pepatah:\n\u0627\u064e\u0644\u0646\u0651\u064e\u0627\u0633\u064f \u0639\u064e\u0644\u064e\u0649 \u062f\u0650\u064a\u0652\u0646\u0650 \u0645\u064f\u0644\u064f\u0648\u0652\u0643\u0650\u0647\u0650\u0645\u0652 \n\u2018Rakyat itu menurut agama rajanya.\u2019",
        "intro_surah": "Surah \u1e6c\u0101h\u0101 terdiri atas 135 ayat, diturunkan sesudah Surah Maryam, termasuk golongan Surah-surah Makkiyyah. Surah ini dinamakan \u201c\u1e6c\u0101h\u0101\u201d, diambil dari perkataan yang berasal dari ayat pertama Surah ini. Sebagaimana lazimnya Surah-surah yang memakai huruf-huruf Hijaiyyah pada permulaannya, huruf tersebut merupakan pemberitahuan Allah kepada orang-orang yang membacanya, bahwa sesudah huruf itu akan dikemukakan hal-hal yang sangat penting diketahui. Demikian pula halnya dengan ayat-ayat yang terdapat sesudah huruf \u201c\u1e6c\u0101h\u0101\u201d. Ayat ini menerangkan bahwa Al-Qur\u2019an diturunkan bukanlah untuk menyusahkan manusia, tetapi justeru berisi peringatan bagi manusia dan berasal dari Tuhan Yang Maha Penyayang. Selain hal-hal tersebut di atas, juga Surah ini mengandung pokok-pokok isi sebagai berikut:\n\nPOKOK-POKOK ISINYA\n1. Keimanan:\nPenjelasan mengenai pokok-pokok keimanan kepada Allah, Al-Qur\u2019an, Rasul dan Hari Kemudian. \n2. Hukum:\nBeberapa perintah kepada Nabi Muhammad seperti sabar menghadapi penolakan orang-orang kafir, mendidik keluarga untuk mengerjakan salat dan mempersilahkan orang-orang kafir menunggu ketentuan Allah pada Hari Kemudian.\n3. Kisah:\nKisah Musa a.s. dan kisah Harun a.s. dalam menghadapi Fir\u2018aun dan Bani Israil; kisah Nabi Adam a.s., Malaikat dan Iblis.\n4. Lain-lain:\nPerintah Allah kepada Nabi Muhammad saw supaya dia meminta tambahan ilmu kepada Allah sekalipun telah menjadi rasul; Allah tidak akan mengazab sesuatu kaum sebelum diutus rasul kepada mereka; jangan terpengaruh oleh kesenangan kehidupan dunia.\n",
        "outro_surah": null,
        "munasabah_prev_surah": "MUNASABAH SURAH MARYAM\nDENGAN SURAH \u1e6c\u0100H\u0100\n1. \tSurah Maryam memuat kisah beberapa Nabi dan Rasul, ada yang secara terperinci, ada yang secara ringkas dan ada pula yang disebut namanya saja yaitu Nabi Adam as. Surah \u1e6c\u0101h\u0101 memuat pula kisah beberapa Nabi dan Rasul seperti Surah Maryam. Kisah Musa a.s. disebut secara ringkas, sedang dalam Surah \u1e6c\u0101h\u0101 dikemukakan secara terperinci. Begitu pula kisah Adam as yang hanya namanya saja disebut dalam Surah Maryam sedang dalam Surah \u1e6c\u0101h\u0101 dikemukakan secara terperinci.\n2. \tMenurut riwayat Ibnu \u2018Abbas, Surah \u1e6c\u0101h\u0101 diturunkan kepada Nabi Muhammad setelah turunnya Surah Maryam.\n ",
        "munasabah_prev_theme": "Pada ayat-ayat yang lalu Allah mengungkapkan delapan macam karunia yang telah dianugerahkan kepada Musa tanpa diminta, dan Allah mengabulkan permintaannya, maka pada ayat-ayat berikut ini Allah menerangkan perintah dan larangan dalam menjalankan dakwahnya yang harus dilaksanakan dan perintah agar Musa benar-benar melaksanakan tugasnya sebagai Rasul.",
        "theme_group": "\nMUSA DAN HARUN DIPERINTAHKAN\nMENGHADAPI FIR\u2018AUN\n",
        "kosakata": "1. L\u0101 Taniy\u0101 \u0644\u0627\u064e \u062a\u064e\u0646\u0650\u064a\u064e\u0627 (\u1e6c\u0101h\u0101/20: 42)\n\u062a\u0646\u064a\u0627 \u0644\u0627 (l\u0101 taniy\u0101) artinya jangan kamu berdua lalai dan lemah, terambil dari kata \u0648\u064e\u0646\u0649 \u064a\u0646\u0649 artinya melemah, tidak bersegera atau tidak memperhatikan.\nDalam ayat ini Allah memerintahkan Nabi Musa dan Harun yang dipilihnya sebagai pembantunya untuk menghadap Fir\u2018aun dengan membawa serta semua mukjizat yang Allah anugerahkan kepada Nabi Musa sebagai tanda kekuasaan Allah. Allah juga memerintahkan kepada keduanya untuk tidak lalai, lemah dan terlena dalam mengingat Allah.\n2.Yafru\u1e6d \u064a\u064e\u0641\u0652\u0631\u064f\u0637\u0652 (\u1e6c\u0101h\u0101/20: 45)\n\u064a\u0641\u0631\u0637 (yafru\u1e6d), terambil dari kata \u0641\u0631\u0637 (fara\u1e6da) yang berarti mendahului. Yang dimaksud mendahului dalam ayat ini adalah bersegera menyiksa. Makna ini dipahami dari adanya rasa takut pada diri Nabi Musa dan Harun terhadap Fir\u2018aun yang akan melampaui batas dalam menyiksa keduanya, jika keduanya datang menghadap Fir\u2018aun untuk menyampaikan risalah kenabiannya, karena keduanya sadar, apa yang akan mereka sampaikan mengancam kekuasaan Fir\u2018aun.\n3. Layyinan \u0644\u064e\u064a\u0651\u0650\u0646\u064b\u0627 (\u1e6c\u0101h\u0101/20: 44)\n\u0644\u064a\u0646\u0627 (layyinan) arti kata al-layyin adalah lembut lawan dari \u0627\u0644\u062d\u0634\u0648\u0646\u0629 atau kasar. Kata al-layyin biasa digunakan untuk tubuh, tetapi kemudian digunakan juga untuk akhlak, seperti firman Allah pada \u0100li \u2018Imr\u0101n/3:159, layyin juga digunakan untuk kulit dan hati, seperti pada az-Zumar/39: 23. Dengan kata-kata seperti pada ayat ini Allah memerintahkan Nabi Musa dan Harun untuk mengajak Fir\u2018aun beriman dengan kata-kata yang lemah lembut. Perintah ini menjadi dasar tentang perlunya bersikap bijaksana dalam berdakwah dengan cara menyampaikan materi dakwah dengan kata-kata yang lembut penuh dengan sopan santun.",
        "sabab_nuzul": null,
        "conclusion": null
    }
}