{
    "id": 2398,
    "surah_id": 20,
    "ayah": 50,
    "page": 314,
    "quarter_hizb": 32,
    "juz": 16,
    "manzil": 4,
    "arabic": "\u0642\u064e\u0627\u0644\u064e \u0631\u064e\u0628\u0651\u064f\u0646\u064e\u0627 \u0627\u0644\u0651\u064e\u0630\u0650\u064a\u0652\u0653 \u0627\u064e\u0639\u0652\u0637\u0670\u0649 \u0643\u064f\u0644\u0651\u064e \u0634\u064e\u064a\u0652\u0621\u064d \u062e\u064e\u0644\u0652\u0642\u064e\u0647\u0657 \u062b\u064f\u0645\u0651\u064e \u0647\u064e\u062f\u0670\u0649 ",
    "latin": "Q\u0101la rabbunal-la\u017c\u012b a\u2018\u1e6d\u0101 kulla syai'in khalqah\u016b \u1e61umma had\u0101. ",
    "translation": "Dia (Musa) menjawab, \u201cTuhan kami ialah (Tuhan) yang telah menganugerahkan kepada segala sesuatu bentuk penciptaannya (yang layak), kemudian memberinya petunjuk.\u201d471)",
    "no_footnote": "471",
    "footnotes": "471) Yang dimaksud dengan petunjuk di sini adalah akal, insting (naluri), dan kodrat alamiah untuk kelanjutan hidupnya masing-masing.",
    "surah": {
        "id": 20,
        "arabic": " \u0637\u0670\u0647\u0670",
        "latin": "\u1e6c\u0101h\u0101",
        "transliteration": "Taha",
        "translation": "Taha",
        "num_ayah": 135,
        "page": 312,
        "location": "Makkiyah"
    },
    "tafsir": {
        "wajiz": "Nabi Musa menjawab, \u201cTuhan kita semua ialah Tuhan yang telah menciptakan semua makhluk dan memberikan bentuk kejadian kepada segala sesuatu di alam semesta ini, kemudian memberinya petunjuk dan potensi untuk dapat melakukan segala sesuatu sesuai fungsinya.\u201d",
        "tahlili": "Pada ayat ini Allah menerangkan jawaban Musa atas pertanyaan Fir\u2018aun bahwa yang mengutus keduanya ialah Tuhan yang telah melengkapi makhluk yang diciptakannya dengan anggota tubuh sesuai dengan kepentingannya masing-masing, seperti mata untuk melihat, telinga untuk mendengar, begitu juga tangan, kaki, hidung dan lain-lain anggota tubuh menurut fungsinya masing-masing sesuai dengan petunjuk dari Allah. Firman Allah:\n\u0648\u064e\u0627\u0644\u0644\u0651\u0670\u0647\u064f \u0627\u064e\u062e\u0652\u0631\u064e\u062c\u064e\u0643\u064f\u0645\u0652 \u0645\u0651\u0650\u0646\u0652\u06e2 \u0628\u064f\u0637\u064f\u0648\u0652\u0646\u0650 \u0627\u064f\u0645\u0651\u064e\u0647\u0670\u062a\u0650\u0643\u064f\u0645\u0652 \u0644\u064e\u0627 \u062a\u064e\u0639\u0652\u0644\u064e\u0645\u064f\u0648\u0652\u0646\u064e \u0634\u064e\u064a\u0652\u0640\u0654\u064b\u0627\u06d9 \u0648\u0651\u064e\u062c\u064e\u0639\u064e\u0644\u064e \u0644\u064e\u0643\u064f\u0645\u064f \u0627\u0644\u0633\u0651\u064e\u0645\u0652\u0639\u064e \u0648\u064e\u0627\u0644\u0652\u0627\u064e\u0628\u0652\u0635\u064e\u0627\u0631\u064e \u0648\u064e\u0627\u0644\u0652\u0627\u064e\u0641\u0652\u0640\u0655\u0650\u062f\u064e\u0629\u064e \u06d9 \u0644\u064e\u0639\u064e\u0644\u0651\u064e\u0643\u064f\u0645\u0652 \u062a\u064e\u0634\u0652\u0643\u064f\u0631\u064f\u0648\u0652\u0646\u064e \u0667\u0668\nDan Allah mengeluarkan kamu dari perut ibumu dalam keadaan tidak mengetahui sesuatu pun, dan Dia memberimu pendengaran, penglihatan dan hati nurani, agar kamu bersyukur. (an-Na\u1e25l/16: 78)\n Kemudian Allah-lah yang membimbing dengan memberinya fungsi anggota tersebut untuk dapat membedakan mana yang baik dan mana yang buruk. Sejalan dengan ayat ini.\nFirman Allah:\n\u0648\u064e\u0646\u064e\u0641\u0652\u0633\u064d \u0648\u0651\u064e\u0645\u064e\u0627 \u0633\u064e\u0648\u0651\u0670\u0649\u0647\u064e\u0627\u06d6 \u0667 \u0641\u064e\u0627\u064e\u0644\u0652\u0647\u064e\u0645\u064e\u0647\u064e\u0627 \u0641\u064f\u062c\u064f\u0648\u0652\u0631\u064e\u0647\u064e\u0627 \u0648\u064e\u062a\u064e\u0642\u0652\u0648\u0670\u0649\u0647\u064e\u0627\u06d6 \u0668\nDemi jiwa serta penyempurnaan (ciptaan)nya, maka Dia mengilhamkan kepadanya (jalan) kejahatan dan ketakwaannya, (asy-Syams/91: 7 dan 8)\nDan firman-Nya:\n\u0648\u064e\u0647\u064e\u062f\u064e\u064a\u0652\u0646\u0670\u0647\u064f \u0627\u0644\u0646\u0651\u064e\u062c\u0652\u062f\u064e\u064a\u0652\u0646\u0650\u06d9 \u0661\u0660\nDan Kami telah menunjukkan kepadanya dua jalan (kebajikan dan kejahatan). (al-Balad/90: 10)",
        "intro_surah": "Surah \u1e6c\u0101h\u0101 terdiri atas 135 ayat, diturunkan sesudah Surah Maryam, termasuk golongan Surah-surah Makkiyyah. Surah ini dinamakan \u201c\u1e6c\u0101h\u0101\u201d, diambil dari perkataan yang berasal dari ayat pertama Surah ini. Sebagaimana lazimnya Surah-surah yang memakai huruf-huruf Hijaiyyah pada permulaannya, huruf tersebut merupakan pemberitahuan Allah kepada orang-orang yang membacanya, bahwa sesudah huruf itu akan dikemukakan hal-hal yang sangat penting diketahui. Demikian pula halnya dengan ayat-ayat yang terdapat sesudah huruf \u201c\u1e6c\u0101h\u0101\u201d. Ayat ini menerangkan bahwa Al-Qur\u2019an diturunkan bukanlah untuk menyusahkan manusia, tetapi justeru berisi peringatan bagi manusia dan berasal dari Tuhan Yang Maha Penyayang. Selain hal-hal tersebut di atas, juga Surah ini mengandung pokok-pokok isi sebagai berikut:\n\nPOKOK-POKOK ISINYA\n1. Keimanan:\nPenjelasan mengenai pokok-pokok keimanan kepada Allah, Al-Qur\u2019an, Rasul dan Hari Kemudian. \n2. Hukum:\nBeberapa perintah kepada Nabi Muhammad seperti sabar menghadapi penolakan orang-orang kafir, mendidik keluarga untuk mengerjakan salat dan mempersilahkan orang-orang kafir menunggu ketentuan Allah pada Hari Kemudian.\n3. Kisah:\nKisah Musa a.s. dan kisah Harun a.s. dalam menghadapi Fir\u2018aun dan Bani Israil; kisah Nabi Adam a.s., Malaikat dan Iblis.\n4. Lain-lain:\nPerintah Allah kepada Nabi Muhammad saw supaya dia meminta tambahan ilmu kepada Allah sekalipun telah menjadi rasul; Allah tidak akan mengazab sesuatu kaum sebelum diutus rasul kepada mereka; jangan terpengaruh oleh kesenangan kehidupan dunia.\n",
        "outro_surah": null,
        "munasabah_prev_surah": "MUNASABAH SURAH MARYAM\nDENGAN SURAH \u1e6c\u0100H\u0100\n1. \tSurah Maryam memuat kisah beberapa Nabi dan Rasul, ada yang secara terperinci, ada yang secara ringkas dan ada pula yang disebut namanya saja yaitu Nabi Adam as. Surah \u1e6c\u0101h\u0101 memuat pula kisah beberapa Nabi dan Rasul seperti Surah Maryam. Kisah Musa a.s. disebut secara ringkas, sedang dalam Surah \u1e6c\u0101h\u0101 dikemukakan secara terperinci. Begitu pula kisah Adam as yang hanya namanya saja disebut dalam Surah Maryam sedang dalam Surah \u1e6c\u0101h\u0101 dikemukakan secara terperinci.\n2. \tMenurut riwayat Ibnu \u2018Abbas, Surah \u1e6c\u0101h\u0101 diturunkan kepada Nabi Muhammad setelah turunnya Surah Maryam.\n ",
        "munasabah_prev_theme": "Pada ayat-ayat yang lalu Allah menghibur Musa dan Harun supaya keduanya jangan takut berdakwah menghadapi Fir\u2018aun, karena Allah yang selalu menjaganya, dan supaya keduanya pergi menemui Fir\u2018aun tanpa ragu-ragu, maka pada ayat-ayat yang berikut ini, Allah menerangkan bahwa setelah Musa dan Harun melaksanakan perintah Allah, dan setelah keduanya tiba di depan istana Fir\u2018aun terjadilah tanya jawab antara mereka seputar Tuhan Musa, tugasnya sebagai pemberi karunia dan rahmat kepada manusia.",
        "theme_group": "\nDIALOG ANTARA FIR\u2018AUN DAN MUSA ",
        "kosakata": "1. al-Qur\u016bn al-\u016bl\u0101 \u0627\u064e\u0644\u0652\u0642\u064f\u0631\u064f\u0648\u0652\u0646\u0650 \u0627\u0652\u0644\u0623\u064f\u0648\u0652\u0644\u064e\u0649 (\u1e6c\u0101h\u0101/20:51)\n\u0627\u0644\u0623\u0648\u0644\u0649 \u0627\u0644\u0642\u0631\u0648\u0646, \u0627\u0644\u0642\u0631\u0648\u0646 jamak dari \u0627\u0644\u0642\u0631\u0646 dari akar kata \u0642 \u0631 \u0646 , artinya mengumpulkan antara dua hal. Dari sini muncul kata \u0627\u0644\u0642\u0631\u0646 (al-qarnu) berarti satu masa atau abad dalam tahun syamsiah (100 tahun), dan kata lainnya \u0627\u0644\u0642\u0631\u0646 (al-qaranu) artinya tanduk. \nAl-Qarn pada ayat ini artinya sekumpulan orang yang hidup dan berkumpul pada satu masa (Y\u016bnus/10: 13). Sedangkan \u0627\u0644\u0623\u0648\u0644\u0649 \u0627\u0644\u0642\u0631\u0648\u0646 artinya generasi-generasi terdahulu. Maksudnya generasi-generasi sebelum Fir\u2018aun yang juga menganut kepercayaan seperti yang dianut oleh Fir\u2018aun. \nPertanyaan tentang nasib generasi terdahulu diajukan Fir\u2018aun kepada Musa sesudah Musa menjelaskan hakekat tuhan seluruh manusia, seakan-akan Fira\u2019un meremehkan risalah Nabi Musa dan Harun dengan menanyakan nasib orang-orang terdahulu, apakah mereka akan disiksa, dan mampukah keduanya memalingkan kepercayaan pengikut Fir\u2018aun dari kepercayaan leluhurnya.\n2. Mahdan \u0645\u064e\u0647\u0652\u062f\u064b\u0627 (\u1e6c\u0101h\u0101/20: 53)\n\u0645\u0647\u062f\u0627 (mahdan) artinya terhampar. Allah jadikan bumi datar terhampar sehingga mudah bagi manusia untuk berjalan, duduk dan berbaring di atasnya. Setelah pada ayat lalu Musa menjelaskan kuasa dan pengetahuan Allah serta penciptaan-Nya, kini Nabi Musa mengingatkan manusia berbagai kenikmatannya, seperti mengatakan bumi datar, sebagai saksi dan bukti kehadiran Allah agar manusia mau beriman kepada-Nya. \nKata mahdan disebutkan dua kali dalam Al-Qur\u2019an yaitu pada ayat ini dan az-Zukhruf/43: 10.\n3.Ulin-Nuh\u0101 \u0623\u064f\u0648\u0644\u0650\u0649 \u0627\u0644\u0646\u0651\u064f\u0647\u064e\u0649 (\u1e6c\u0101h\u0101/20:54)\n\u0627\u0644\u0646\u0651\u0647\u0649 \u0623\u0648\u0644\u0649 (ulin-nuh\u0101) artinya orang yang berakal. An-Nuha jamak dari \u0627\u0644\u0646\u0647\u064a\u0629 (an-nuhyah) yang berarti akal, dari akar kata yang sama muncul kata \u0646\u0647\u0649 (nah\u0101) artinya melarang, \u0623\u0646\u0647\u0649 mengakhiri, \u0646\u0647\u0627\u064a\u0629 selesai. Akal disebut al-nuhyah karena akallah yang melarang dan menghalangi manusia dari berbagai perbuatan yang bisa merusak dan mencelakakan mereka. Kata ini disebutkan dua kali dalam Al-Qur\u2019an, pada ayat ini dan pada \u1e6c\u0101ha/20: 128.",
        "sabab_nuzul": null,
        "conclusion": null
    }
}