{
    "id": 2418,
    "surah_id": 20,
    "ayah": 70,
    "page": 316,
    "quarter_hizb": 32.25,
    "juz": 16,
    "manzil": 4,
    "arabic": "\u0641\u064e\u0627\u064f\u0644\u0652\u0642\u0650\u064a\u064e \u0627\u0644\u0633\u0651\u064e\u062d\u064e\u0631\u064e\u0629\u064f \u0633\u064f\u062c\u0651\u064e\u062f\u064b\u0627 \u0642\u064e\u0627\u0644\u064f\u0648\u0652\u0653\u0627 \u0627\u0670\u0645\u064e\u0646\u0651\u064e\u0627 \u0628\u0650\u0631\u064e\u0628\u0651\u0650 \u0647\u0670\u0631\u064f\u0648\u0652\u0646\u064e \u0648\u064e\u0645\u064f\u0648\u0652\u0633\u0670\u0649 ",
    "latin": "Fa ulqiyas-sa\u1e25aratu sujjadan q\u0101l\u016b \u0101mann\u0101 birabbi h\u0101r\u016bna wa m\u016bs\u0101. ",
    "translation": "Lalu, para penyihir itu merunduk sujud seraya berkata, \u201cKami telah percaya kepada Tuhannya Harun dan Musa.\u201d",
    "no_footnote": null,
    "footnotes": null,
    "surah": {
        "id": 20,
        "arabic": " \u0637\u0670\u0647\u0670",
        "latin": "\u1e6c\u0101h\u0101",
        "transliteration": "Taha",
        "translation": "Taha",
        "num_ayah": 135,
        "page": 312,
        "location": "Makkiyah"
    },
    "tafsir": {
        "wajiz": "Setelah melihat ular-ular hasil sihir mereka ditelan oleh ular yang berasal dari tongkat Nabi Musa, lalu para penyihir itu ditiarapkan oleh rasa takut pada Allah dan kagum pada kehebatan mukjizat Nabi Musa. Mereka segera merunduk bersujud kepada Tuhan Yang Maha Esa seraya berkata, \u201cKami telah percaya dan beriman kepada Tuhan Harun dan Musa.\u201d",
        "tahlili": "Di dalam ayat ini dikisahkan bahwa setelah Musa melemparkan tongkat yang ada di tangan kanannya, tongkat itu menjadi ular besar dan menelan semua apa yang diperbuat ahli-ahli sihir Fir\u2018aun. Ahli-ahli sihir Fir\u2018aun setelah melihat keagungan kejadian itu, dan mengetahui bahwa apa yang diperbuat Musa itu, bukanlah sihir, melainkan mukjizat, bukan berasal dari ilmu-ilmu sihir yang mereka ketahui, dan bukan pula tipu daya yang mereka kenal, dan itu adalah kebenaran yang tidak dapat diragukan, serta tidak ada yang dapat melakukan seperti itu, kecuali yang mempunyai kekuasaan yang apabila Dia menghendaki sesuatu, cukup mengatakan, \u201cjadilah,\u201d maka jadilah sesuatu itu; mereka segera menyungkurkan diri, bersujud disertai ikrar bahwa mereka telah beriman kepada Tuhan seluruh alam. Tuhan Musa dan Harun.",
        "intro_surah": "Surah \u1e6c\u0101h\u0101 terdiri atas 135 ayat, diturunkan sesudah Surah Maryam, termasuk golongan Surah-surah Makkiyyah. Surah ini dinamakan \u201c\u1e6c\u0101h\u0101\u201d, diambil dari perkataan yang berasal dari ayat pertama Surah ini. Sebagaimana lazimnya Surah-surah yang memakai huruf-huruf Hijaiyyah pada permulaannya, huruf tersebut merupakan pemberitahuan Allah kepada orang-orang yang membacanya, bahwa sesudah huruf itu akan dikemukakan hal-hal yang sangat penting diketahui. Demikian pula halnya dengan ayat-ayat yang terdapat sesudah huruf \u201c\u1e6c\u0101h\u0101\u201d. Ayat ini menerangkan bahwa Al-Qur\u2019an diturunkan bukanlah untuk menyusahkan manusia, tetapi justeru berisi peringatan bagi manusia dan berasal dari Tuhan Yang Maha Penyayang. Selain hal-hal tersebut di atas, juga Surah ini mengandung pokok-pokok isi sebagai berikut:\n\nPOKOK-POKOK ISINYA\n1. Keimanan:\nPenjelasan mengenai pokok-pokok keimanan kepada Allah, Al-Qur\u2019an, Rasul dan Hari Kemudian. \n2. Hukum:\nBeberapa perintah kepada Nabi Muhammad seperti sabar menghadapi penolakan orang-orang kafir, mendidik keluarga untuk mengerjakan salat dan mempersilahkan orang-orang kafir menunggu ketentuan Allah pada Hari Kemudian.\n3. Kisah:\nKisah Musa a.s. dan kisah Harun a.s. dalam menghadapi Fir\u2018aun dan Bani Israil; kisah Nabi Adam a.s., Malaikat dan Iblis.\n4. Lain-lain:\nPerintah Allah kepada Nabi Muhammad saw supaya dia meminta tambahan ilmu kepada Allah sekalipun telah menjadi rasul; Allah tidak akan mengazab sesuatu kaum sebelum diutus rasul kepada mereka; jangan terpengaruh oleh kesenangan kehidupan dunia.\n",
        "outro_surah": null,
        "munasabah_prev_surah": "MUNASABAH SURAH MARYAM\nDENGAN SURAH \u1e6c\u0100H\u0100\n1. \tSurah Maryam memuat kisah beberapa Nabi dan Rasul, ada yang secara terperinci, ada yang secara ringkas dan ada pula yang disebut namanya saja yaitu Nabi Adam as. Surah \u1e6c\u0101h\u0101 memuat pula kisah beberapa Nabi dan Rasul seperti Surah Maryam. Kisah Musa a.s. disebut secara ringkas, sedang dalam Surah \u1e6c\u0101h\u0101 dikemukakan secara terperinci. Begitu pula kisah Adam as yang hanya namanya saja disebut dalam Surah Maryam sedang dalam Surah \u1e6c\u0101h\u0101 dikemukakan secara terperinci.\n2. \tMenurut riwayat Ibnu \u2018Abbas, Surah \u1e6c\u0101h\u0101 diturunkan kepada Nabi Muhammad setelah turunnya Surah Maryam.\n ",
        "munasabah_prev_theme": "Pada ayat-ayat yang lalu Allah mengisahkan jalannya pertandingan antar Musa dan ahli-ahli sihir Fir\u2018aun, yang berakhir dengan kemenangan Musa. Maka pada ayat-ayat berikut ini, Allah menerangkan bahwa ahli-ahli sihir Fir\u2018aun menyerah kalah dan berimanlah mereka, Fir\u2018aun sangat marah dan dengan segala keangkuhan dan kesombongannya, ia mengancam akan memotong tangan dan kaki mereka dengan bersilang secara timbal balik, dan menyalib mereka pada pangkal pohon kurma, karena berbuat sesuatu sebelum diberi izin olehnya; ancaman Fir\u2018aun itu, dihadapi oleh ahli-ahli sihir dengan olok-olok dan ejekan.",
        "theme_group": "PARA AHLI SIHIR FIR\u2018AUN MENJADI\nORANG-ORANG BERIMAN",
        "kosakata": "1. Wa la\u2019u\u1e63allibannakum \u0648\u064e\u0644\u064e\u0623\u064f\u0635\u064e\u0644\u0651\u0650\u0628\u064e\u0646\u0651\u064e\u0643\u064f\u0645\u0652 (\u1e6c\u0101h\u0101/20: 71)\nSecara etimologis, la\u2019u\u1e63allibannakum berarti \u2018\u2018sungguh akan aku salib kalian.\u201d Dalam kontek ayat di atas, kata la\u2019u\u1e63allibannakum menggambarkan kemarahan Fir\u2018aun yang luar biasa kepada tukang-tukang sihirnya. Karena sihir-sihir mereka berhasil dilumpuhkan mukjizat Nabi Musa, mereka lantas berbondong-bondong membenarkan kenabian Musa dan menjadi pengikutnya. Kenyataan ini memantik kemarahan Fir\u2018aun. Mereka pun diancam hukuman mati dengan cara disalib di pangkal pohon kurma (f\u012b ju\u017cu\u2019 al-nakhl). Dari perkataan Fir\u2018aun ini bisa diketahui bentuk-bentuk siksaan yang diberlakukan kepada lawan-lawan politiknya.\n3. \tNu\u2019\u1e61iruka \u0646\u064f\u0624\u0652\u062b\u0650\u0631\u064f\u0643\u064e (\u1e6c\u0101h\u0101/20: 72)\nSecara etimologis, nu\u2019\u1e61iruka berarti memilih atau memutuskan sesuatu. Dalam kontek ayat di atas, kata nu\u2019\u1e61iruka menggambarkan penolakan keras tukang-tukang sihir Fir\u2018aun atas permintaannya supaya mereka tidak mengikuti Nabi Musa. Kendati mereka diancam hukum potong tangan dan kaki secara bersilang, dan disalib di pangkal pohon kurma, mereka kukuh tidak akan meninggalkan keyakinan mereka yang baru terhadap kebenaran Nabi Muda. Mereka mengatakan, \u201cKami tidak akan memilih (tunduk) kepadamu (Fir\u2018aun) atas bukti-bukti nyata (mukjizat) yang telah datang kepada kami dan atas (Allah) yang telah menciptakan kami.\u201d \n3. Faq\u1e0di \u0641\u064e\u0627\u0642\u0652\u0636\u0650 (\u1e6c\u0101h\u0101/20: 72).\nSecara etimologis, faq\u1e0di yang berbentuk fi\u2019il amar berarti putuskanlah! Dalam konteks ayat di atas, kata ini menggambarkan keberanian mantan tukang-tukang sihir Fir\u2018aun itu menentang Fir\u2018aun. Kendati ancamannya dibunuh, mereka tegar. Bahkan mereka menantang dengan gagah berani, supaya Fir\u2018aun melaksanakan ancamannya itu. \u201cSesungguhnya engkau (Fir\u2018aun) hanya dapat memutuskan pada kehidupan di dunia ini,\u201d tantang mereka penuh keberanian. Dari pernyataan tukang sihir ini terlihat bahwa keimanan yang sudah tertanam dalam hati seseorang tidak akan tergoyahkan oleh kekuatan apapun. ",
        "sabab_nuzul": null,
        "conclusion": null
    }
}