{
    "id": 2439,
    "surah_id": 20,
    "ayah": 91,
    "page": 318,
    "quarter_hizb": 32.5,
    "juz": 16,
    "manzil": 4,
    "arabic": "\u0642\u064e\u0627\u0644\u064f\u0648\u0652\u0627 \u0644\u064e\u0646\u0652 \u0646\u0651\u064e\u0628\u0652\u0631\u064e\u062d\u064e \u0639\u064e\u0644\u064e\u064a\u0652\u0647\u0650 \u0639\u0670\u0643\u0650\u0641\u0650\u064a\u0652\u0646\u064e \u062d\u064e\u062a\u0651\u0670\u0649 \u064a\u064e\u0631\u0652\u062c\u0650\u0639\u064e \u0627\u0650\u0644\u064e\u064a\u0652\u0646\u064e\u0627 \u0645\u064f\u0648\u0652\u0633\u0670\u0649 ",
    "latin": "Q\u0101l\u016b lan nabra\u1e25a \u2018alaihi \u2018\u0101kif\u012bna \u1e25att\u0101 yarji\u2018a ilain\u0101 m\u016bs\u0101. ",
    "translation": "Mereka menjawab, \u201cKami tidak akan meninggalkannya (patung anak sapi) (dan) tetap akan menyembahnya sampai Musa kembali kepada kami.\u201d",
    "no_footnote": null,
    "footnotes": null,
    "surah": {
        "id": 20,
        "arabic": " \u0637\u0670\u0647\u0670",
        "latin": "\u1e6c\u0101h\u0101",
        "transliteration": "Taha",
        "translation": "Taha",
        "num_ayah": 135,
        "page": 312,
        "location": "Makkiyah"
    },
    "tafsir": {
        "wajiz": "Mereka tidak menghiraukan nasihat Nabi Harun seraya menjawab, \u201cSungguh, kami tidak akan meninggalkannya, yaitu patung anak sapi itu. Kami tetap akan menyembahnya sampai Musa kembali kepada kami.\u201d",
        "tahlili": "Semua nasehat Harun itu walaupun dikemukakan dengan lemah lembut dan dengan hujjah dan alasan yang dapat diterima akal, tidak mendapat sambutan yang baik di kalangan mereka. Mereka lebih tertarik kepada bujuk rayu tipu daya Samiri mereka berkata kepada Harun, \u201cKami akan tetap menyembah patung itu sampai Musa kembali kepada kami dan dialah yang akan memutuskan apa kami dalam kesesatan dan penyelewengan ataukah patung yang kami sembah itu hanya tipu daya Samiri saja.",
        "intro_surah": "Surah \u1e6c\u0101h\u0101 terdiri atas 135 ayat, diturunkan sesudah Surah Maryam, termasuk golongan Surah-surah Makkiyyah. Surah ini dinamakan \u201c\u1e6c\u0101h\u0101\u201d, diambil dari perkataan yang berasal dari ayat pertama Surah ini. Sebagaimana lazimnya Surah-surah yang memakai huruf-huruf Hijaiyyah pada permulaannya, huruf tersebut merupakan pemberitahuan Allah kepada orang-orang yang membacanya, bahwa sesudah huruf itu akan dikemukakan hal-hal yang sangat penting diketahui. Demikian pula halnya dengan ayat-ayat yang terdapat sesudah huruf \u201c\u1e6c\u0101h\u0101\u201d. Ayat ini menerangkan bahwa Al-Qur\u2019an diturunkan bukanlah untuk menyusahkan manusia, tetapi justeru berisi peringatan bagi manusia dan berasal dari Tuhan Yang Maha Penyayang. Selain hal-hal tersebut di atas, juga Surah ini mengandung pokok-pokok isi sebagai berikut:\n\nPOKOK-POKOK ISINYA\n1. Keimanan:\nPenjelasan mengenai pokok-pokok keimanan kepada Allah, Al-Qur\u2019an, Rasul dan Hari Kemudian. \n2. Hukum:\nBeberapa perintah kepada Nabi Muhammad seperti sabar menghadapi penolakan orang-orang kafir, mendidik keluarga untuk mengerjakan salat dan mempersilahkan orang-orang kafir menunggu ketentuan Allah pada Hari Kemudian.\n3. Kisah:\nKisah Musa a.s. dan kisah Harun a.s. dalam menghadapi Fir\u2018aun dan Bani Israil; kisah Nabi Adam a.s., Malaikat dan Iblis.\n4. Lain-lain:\nPerintah Allah kepada Nabi Muhammad saw supaya dia meminta tambahan ilmu kepada Allah sekalipun telah menjadi rasul; Allah tidak akan mengazab sesuatu kaum sebelum diutus rasul kepada mereka; jangan terpengaruh oleh kesenangan kehidupan dunia.\n",
        "outro_surah": null,
        "munasabah_prev_surah": "MUNASABAH SURAH MARYAM\nDENGAN SURAH \u1e6c\u0100H\u0100\n1. \tSurah Maryam memuat kisah beberapa Nabi dan Rasul, ada yang secara terperinci, ada yang secara ringkas dan ada pula yang disebut namanya saja yaitu Nabi Adam as. Surah \u1e6c\u0101h\u0101 memuat pula kisah beberapa Nabi dan Rasul seperti Surah Maryam. Kisah Musa a.s. disebut secara ringkas, sedang dalam Surah \u1e6c\u0101h\u0101 dikemukakan secara terperinci. Begitu pula kisah Adam as yang hanya namanya saja disebut dalam Surah Maryam sedang dalam Surah \u1e6c\u0101h\u0101 dikemukakan secara terperinci.\n2. \tMenurut riwayat Ibnu \u2018Abbas, Surah \u1e6c\u0101h\u0101 diturunkan kepada Nabi Muhammad setelah turunnya Surah Maryam.\n ",
        "munasabah_prev_theme": "Setelah pada ayat-ayat yang lalu Allah menjelaskan teguran dan celaan-Nya terhadap Musa karena ia tergesa-gesa naik ke gunung seorang diri tanpa membawa kaumnya dan jawaban Musa atas teguran itu hanya karena ia ingin cepat-cepat bermunajat dengan Tuhannya dan segera menerima kepingan-kepingan Taurat, maka pada ayat berikut ini, Allah menerangkan bahwa Dia memberitahukan kepada Musa bahwa kaumnya selama ditinggalkannya telah menyeleweng dari agama tauhid dan telah menyembah patung anak sapi yang dibikin oleh Samiri, sehingga Musa terpaksa segera kembali kepada kaumnya.\n",
        "theme_group": "PENGKHIANATAN SAMIRI",
        "kosakata": "1. As-S\u0101miriy \u0627\u064e\u0644\u0633\u0651\u064e\u0627\u0645\u0650\u0631\u0650\u064a\u0651 (\u1e6c\u0101h\u0101/20: 85) \nPendapat para ahli dan para mufasir mengenai kata \u201csamiri\u201d ini sangat beragam. Di antaranya ada yang mengatakan, bahwa samiri kata nisbah, yakni orang dari Samirah di Palestina. Tetapi ini tidak mungkin, karena pada zaman Musa kota itu belum ada (An-Najjar). Pendapat lain mengatakan (Muhammad Asad), Samaritan, \u201corang dari Samirah di Palestina; orang yang suka memberi pertolongan.\u201d Asy-Syaukani (Fathul Qadir) berpendapat bahwa Samiri itu nama kabilah, Samirah, yang biasa menyembah sapi. Lahirnya ia menganut agama Yahudi, tapi hatinya tetap sebagai penyembah sapi. \nMengenai Musa terlambat memenuhi perjanjian dengan mereka, versi Bibel mengatakan, bahwa karena mereka masih menyimpan perhiasan, sedang itu haram bagi mereka. Maka dimintanya mereka melemparkan perhiasan-perhiasan itu ke dalam api. Pendapat agak berbeda dan agak panjang terdapat dalam Tafsir Yusuf Ali: Siapa Samiri ini? Kalau itu nama pribadi, untuk mendekati arti akar kata aslinya cukup dengan menambahkan kata sandang pada kata itu\u2026 Untuk \u201cSamiri\u201d apa akar katanya? Kalau kita melihat kata Mesir kuno, kita mengenal kata Shemer = orang asing (Egyptian Hieroglyphic Dictionary, Sir E. A. Wallis Budge, 1820, h. 815b). Karena orang-orang Israil baru saja meninggalkan Mesir, di antara mereka yang sudah menjadi orang Mesir mungkin sudah biasa memakai julukan demikian. Bahwa nama Semer (Shemer), yang kemudian bukan tidak dikenal di kalangan orang-orang Ibrani, dapat dilihat dalam Perjanjian Lama. Dalam Kitab Raja-raja I, xvi. 24 kita baca, bahwa Omri, raja Israil belahan utara kerajaan yang sudah dibagi, yang berkuasa sekitar 903-896 Pra-Masehi, membangun sebuah kota baru, Samaria, di atas bukit yang dibelinya dari Semer, pemilik bukit itu\u2026 Kalau akar kata itu yang berasal dari bahasa Mesir tak dapat diterima, kita dapat melihat kata \u201cshomer,\u201d yang berasal dari bahasa Ibrani, yang berarti pengawal, penjaga; serumpun dengan bahasa Arab samara, yasmuru, berjaga, bergadang malam hari, mengobrol malam hari; samir, orang yang bergadang malam hari. Samiri mungkin seorang penjaga malam, sebagai kenyataan atau sebagai julukan, dengan harga dua talenta perak. Lihat juga buku Renan History of Israel, ii. 210.\n2. Khuw\u0101run \u062e\u064f\u0648\u064e\u0627\u0631\u064c (\u1e6c\u0101h\u0101/20: 88)\nKhuw\u0101run, yakh\u016bru, khuw\u0101ran, arti harfiah: lenguh, denguh, tenguh, bunyi sapi, kerbau. Sudah banyak sekali takhayul yang membumbui cerita sekitar Samiri dan kata \u201ckhuwar\u201d ini, termasuk ada beberapa mufasir klasik yang juga ikut terbawa. Tetapi rasanya kita tidak perlu merinci semua itu. Di dalam Al-Qur\u2019an kata ini terdapat dalam dua ayat, al-A\u2019raf/7: 148, dan Taha/20: 88, yang melukiskan patung anak sapi yang terbuat dari emas itu dapat melenguh seperti bunyi sapi. Bagaimana mungkin anak sapi atau lembu yang terbuat dari benda dapat bersuara, melenguh seperti lenguhan anak sapi. Jelas ini suatu tipuan, yang sudah menjadi kepandaian pendeta-pendeta Isis, dewi Mesir dan permaisuri Osiris, dalam agama Mesir kuno. Salah satu di antaranya, dengan cara menempatkan orang bersembunyi di balik patung-patung itu dan menirukan suara lembu, lalu disuguhkan untuk masyarakat awam yang memang mudah percaya. Untuk itu tentu mereka sudah menyiapkan tempatnya. Ada juga yang mengatakan, bahwa karena kepandaian tukang emas ia dapat membuat lubang dari dubur patung itu dan keluar dari mulutnya. Bila angin bertiup, maka terdengarlah suara menyerupai lenguhan sapi keluar dari mulut patung anak sapi itu.",
        "sabab_nuzul": null,
        "conclusion": "1. \tMusa segera kembali kepada kaumnya setelah mendengar firman Tuhannya yang menerangkan bahwa kaumnya telah diperdayakan oleh Samiri sehingga mereka menyembah patung.\n2. \tMusa sangat marah dan menyesal atas perbuatan kaumnya karena mereka telah melanggar janji mereka yaitu akan tetap menyembah Allah dan tidak mempersekutukan-Nya.\n3. \tKaum Musa menjawab bahwa mereka tidak berdaya sama sekali terhadap bujuk rayu dan tipu daya Samiri sehingga mereka menerima ajakannya. Apalagi patung yang dibuatnya itu amat indah, menarik terbuat dari emas yang berkilauan, bersuara seperti anak sapi, dan Samiri mengatakan bahwa inilah tuhan kami dan tuhan Musa sendiri.\n4. \tNabi Harun telah menasehati dan memperingatkan mereka bahwa mereka telah sesat tetapi nasehat itu ditolak mereka sampai Musa pulang dari atas bukit."
    }
}