{
    "id": 2356,
    "surah_id": 20,
    "ayah": 8,
    "page": 312,
    "quarter_hizb": 32,
    "juz": 16,
    "manzil": 4,
    "arabic": "\u0627\u064e\u0644\u0644\u0651\u0670\u0647\u064f \u0644\u064e\u0627\u0653 \u0627\u0650\u0644\u0670\u0647\u064e \u0627\u0650\u0644\u0651\u064e\u0627 \u0647\u064f\u0648\u064e\u06d7  \u0644\u064e\u0647\u064f \u0627\u0644\u0652\u0627\u064e\u0633\u0652\u0645\u064e\u0627\u06e4\u0621\u064f \u0627\u0644\u0652\u062d\u064f\u0633\u0652\u0646\u0670\u0649 ",
    "latin": "All\u0101hu l\u0101 il\u0101ha ill\u0101 huw(a), lahul-asm\u0101'ul-\u1e25usn\u0101. ",
    "translation": "Allah tidak ada tuhan selain Dia. Milik-Nyalah nama-nama yang terbaik.",
    "no_footnote": null,
    "footnotes": null,
    "surah": {
        "id": 20,
        "arabic": " \u0637\u0670\u0647\u0670",
        "latin": "\u1e6c\u0101h\u0101",
        "transliteration": "Taha",
        "translation": "Taha",
        "num_ayah": 135,
        "page": 312,
        "location": "Makkiyah"
    },
    "tafsir": {
        "wajiz": "Dialah Allah yang tidak ada tuhan penguasa alam semesta yang patut disembah selain Dia. Hanya Dia pula yang mempunyai nama-nama yang terbaik.",
        "tahlili": "Allah yang menurunkan Al-Qur\u2019an itu adalah yang menciptakan dan Pemilik alam ini, karena itu Al-Qur\u2019an itu tidak diragukan kebenarannya. Allah Mahakuasa dan tempat manusia meminta. Untuk memanggil-Nya, Allah memiliki banyak nama. Semua nama itu baik, karena menunjukkan kepada kesempurnaan-Nya, keperkasaan dan keagungan-Nya. Namun demikian, zat-Nya tetap, tidak terbilang. Di dalam hadis yang mutawatir, disebutkan bahwa Allah mempunyai 99 nama. Sabda Nabi Muhammad saw:\n\u0627\u0650\u0646\u0651\u064e \u0650\u0644\u0644\u0651\u0670\u0647\u0650 \u062a\u0650\u0633\u0652\u0639\u064b\u0627 \u0648\u064e\u062a\u0650\u0633\u0652\u0639\u0650\u064a\u0652\u0646\u064e \u0627\u0650\u0633\u0652\u0645\u064b\u0627 \u0645\u0650\u0627\u0626\u064e\u0629\u064b \u0627\u0650\u0644\u0651\u064e\u0627 \u0648\u064e\u0627\u062d\u0650\u062f\u064b\u0627 \u0645\u064e\u0646\u0652 \u0627\u064e\u062d\u0652\u0635\u064e\u0627\u0647\u064e\u0627 \u062f\u064e\u062e\u064e\u0644\u064e \u0627\u0644\u0652\u062c\u064e\u0646\u0651\u064e\u0629\u064e. (\u0631\u0648\u0627\u0647 \u0627\u0644\u0628\u062e\u0627\u0631\u064a \u0648\u0645\u0633\u0644\u0645 \u0639\u0646 \u0627\u0628\u064a \u0647\u0631\u064a\u0631\u0629)\nSesungguhnya Allah mempunyai 99 nama, seratus kurang satu. Barangsiapa menghafalkannya (menyesuaikannya) masuk surga. (Riwayat al-Bukh\u0101r\u012b dan Muslim dari Abu Hurairah)\nDiriwayatkan bahwa ketika Abu Jahal mendengar Nabi Muhammad saw di dalam seruannya menyebut, \u201cYa Allah! Ya Rahman!\u201d Berkata Abu Jahal kepada Walid bin Mugirah, \u201cMuhammad melarang kita menyeru bersama Allah dengan Tuhan yang lain, padahal dia sendiri menyeru Allah bersama Ar Rahman.\u201d Maka turunlah ayat yang menegaskan bahwa Allah itu mempunyai banyak nama, sebagaimana firman Allah:\n\u0642\u064f\u0644\u0650 \u0627\u062f\u0652\u0639\u064f\u0648\u0627 \u0627\u0644\u0644\u0651\u0670\u0647\u064e \u0627\u064e\u0648\u0650 \u0627\u062f\u0652\u0639\u064f\u0648\u0627 \u0627\u0644\u0631\u0651\u064e\u062d\u0652\u0645\u0670\u0646\u064e\u06d7 \u0627\u064e\u064a\u0651\u064b\u0627 \u0645\u0651\u064e\u0627 \u062a\u064e\u062f\u0652\u0639\u064f\u0648\u0652\u0627 \u0641\u064e\u0644\u064e\u0647\u064f \u0627\u0644\u0652\u0627\u064e\u0633\u0652\u0645\u064e\u0627\u06e4\u0621\u064f \u0627\u0644\u0652\u062d\u064f\u0633\u0652\u0646\u0670\u0649\u06da \u0648\u064e\u0644\u064e\u0627 \u062a\u064e\u062c\u0652\u0647\u064e\u0631\u0652 \u0628\u0650\u0635\u064e\u0644\u064e\u0627\u062a\u0650\u0643\u064e \u0648\u064e\u0644\u064e\u0627 \u062a\u064f\u062e\u064e\u0627\u0641\u0650\u062a\u0652 \u0628\u0650\u0647\u064e\u0627 \u0648\u064e\u0627\u0628\u0652\u062a\u064e\u063a\u0650 \u0628\u064e\u064a\u0652\u0646\u064e \u0630\u0670\u0644\u0650\u0643\u064e \u0633\u064e\u0628\u0650\u064a\u0652\u0644\u064b\u0627 \u0661\u0661\u0660\nKatakanlah (Muhammad), \u201cSerulah Allah atau serulah Ar-Rahm\u0101n. Dengan nama yang mana saja kamu dapat menyeru, karena Dia mempunyai nama-nama yang terbaik (Asm\u0101\u2019ul \u1e24usn\u0101) dan janganlah engkau mengeraskan suaramu dalam salat dan janganlah (pula) merendahkannya dan usahakan jalan tengah di antara kedua itu.\u201d. (al-Isr\u0101\u2019/17: 110)",
        "intro_surah": "Surah \u1e6c\u0101h\u0101 terdiri atas 135 ayat, diturunkan sesudah Surah Maryam, termasuk golongan Surah-surah Makkiyyah. Surah ini dinamakan \u201c\u1e6c\u0101h\u0101\u201d, diambil dari perkataan yang berasal dari ayat pertama Surah ini. Sebagaimana lazimnya Surah-surah yang memakai huruf-huruf Hijaiyyah pada permulaannya, huruf tersebut merupakan pemberitahuan Allah kepada orang-orang yang membacanya, bahwa sesudah huruf itu akan dikemukakan hal-hal yang sangat penting diketahui. Demikian pula halnya dengan ayat-ayat yang terdapat sesudah huruf \u201c\u1e6c\u0101h\u0101\u201d. Ayat ini menerangkan bahwa Al-Qur\u2019an diturunkan bukanlah untuk menyusahkan manusia, tetapi justeru berisi peringatan bagi manusia dan berasal dari Tuhan Yang Maha Penyayang. Selain hal-hal tersebut di atas, juga Surah ini mengandung pokok-pokok isi sebagai berikut:\n\nPOKOK-POKOK ISINYA\n1. Keimanan:\nPenjelasan mengenai pokok-pokok keimanan kepada Allah, Al-Qur\u2019an, Rasul dan Hari Kemudian. \n2. Hukum:\nBeberapa perintah kepada Nabi Muhammad seperti sabar menghadapi penolakan orang-orang kafir, mendidik keluarga untuk mengerjakan salat dan mempersilahkan orang-orang kafir menunggu ketentuan Allah pada Hari Kemudian.\n3. Kisah:\nKisah Musa a.s. dan kisah Harun a.s. dalam menghadapi Fir\u2018aun dan Bani Israil; kisah Nabi Adam a.s., Malaikat dan Iblis.\n4. Lain-lain:\nPerintah Allah kepada Nabi Muhammad saw supaya dia meminta tambahan ilmu kepada Allah sekalipun telah menjadi rasul; Allah tidak akan mengazab sesuatu kaum sebelum diutus rasul kepada mereka; jangan terpengaruh oleh kesenangan kehidupan dunia.\n",
        "outro_surah": null,
        "munasabah_prev_surah": "MUNASABAH SURAH MARYAM\nDENGAN SURAH \u1e6c\u0100H\u0100\n1. \tSurah Maryam memuat kisah beberapa Nabi dan Rasul, ada yang secara terperinci, ada yang secara ringkas dan ada pula yang disebut namanya saja yaitu Nabi Adam as. Surah \u1e6c\u0101h\u0101 memuat pula kisah beberapa Nabi dan Rasul seperti Surah Maryam. Kisah Musa a.s. disebut secara ringkas, sedang dalam Surah \u1e6c\u0101h\u0101 dikemukakan secara terperinci. Begitu pula kisah Adam as yang hanya namanya saja disebut dalam Surah Maryam sedang dalam Surah \u1e6c\u0101h\u0101 dikemukakan secara terperinci.\n2. \tMenurut riwayat Ibnu \u2018Abbas, Surah \u1e6c\u0101h\u0101 diturunkan kepada Nabi Muhammad setelah turunnya Surah Maryam.\n ",
        "munasabah_prev_theme": "Akhir Surah Maryam menerangkan bahwa Al-Qur\u2019an diturunkan dalam bahasa Arab supaya mudah bagi Nabi Muhammad menyampaikan kepada kaumnya yang juga berbahasa Arab. Al-Qur\u2019an berisi kabar gembira bagi orang-orang yang bertakwa dan sebagai peringatan bagi orang-orang yang ingkar, sedang awal Surah \u1e6c\u0101h\u0101 menguatkan penjelasan di atas, di samping menerangkan bahwa Al-Qur\u2019an adalah kalam Allah, Pencipta langit dan bumi.",
        "theme_group": "AL-QUR\u2019AN DITURUNKAN SEBAGAI \nPERINGATAN BAGI MANUSIA ",
        "kosakata": "Kosakata: \u1e6c\u0101h\u0101 \u0637\u0647 (\u1e6c\u0101h\u0101/20: 1) \n\u1e6c\u0101h\u0101, para mufasir sepakat, bahwa kata ini terdiri atas dua huruf singkatan \u1e6c\u0101 dan H\u0101 seperti huruf-huruf singkatan (al-muqattaat) yang lain, Y\u0101-S\u012bn, Alif L\u0101m M\u012bm, \u1e24\u0101 M\u012bm dan lain-lain seperti yang terdapat dalam beberapa surah. \u1e6c\u0101 merupakan huruf yang ke-16 dan h\u0101\u2019 huruf yang ke-26 hija\u2019iyah (alfabet). Para mufasir menguraikan asal dan arti kata ini panjang lebar dari berbagai sumber. Umumnya mereka mengutip beberapa pendapat, antara lain dari sahabat-sahabat Nabi dan para tabiin (tabi\u2019in), bahwa huruf-huruf ini bukan sekadar singkatan, tetapi juga mengandung arti \u201cHai laki-laki\u201d (ya rajul) yang ditujukan kepada Nabi. Kosakata ini dari bahasa Nabatea, Suryani (Aram) atau Abisinia yang semua itu masih serumpun dan salah satu cabang bahasa Arab; ada juga yang mengatakan itu bahasa \u2018Akk, salah satu dialek di Yaman, yang juga sama dengan dialek Quraisy. \n2. A\u1e61-\u1e60ar\u0101 \u0627\u064e\u0644\u062b\u0651\u064e\u0631\u064e\u0649 (\u1e6c\u0101h\u0101/20: 6)\n\u0627\u0644\u062b\u0651\u0631\u0649 (a\u1e61-\u1e61ar\u0101) artinya adalah tanah, baik tanah secara mutlak maupun yang dimaksud adalah tanah yang basah. Sedangkan yang dimaksud dengan kata \u0627\u0644\u062b\u0651\u0631\u0649 \u062a\u062d\u062a (ta\u1e25ta\u1e61-\u1e61ar\u0101) adalah apa-apa yang ada di perut bumi seperti minyak, alumunium, fosfor, batu-batu mulia, biji besi, dan lain-lain. Ayat ini menegaskan bahwa semua yang ada di langit, di bumi dan di antara keduanya bahkan di perut bumi adalah milik Allah. Kata \u1e61ar\u0101 hanya disebutkan satu kali dalam Al-Qur\u2019an yaitu pada ayat ini.",
        "sabab_nuzul": null,
        "conclusion": "1. \tMaksud Kitab Suci Al-Qur\u2019an diturunkan bukanlah untuk menyusahkan dan mencelakakan, tetapi untuk menjadi peringatan dan pelajaran agar manusia menjadi bertakwa.\n2. \tAl-Qur\u2019an diturunkan oleh Allah, Pencipta bumi dan langit yang luas, Tuhan yang bersemayam di atas \u2018Arsy.\n3. \tApa yang ada di langit, di bumi dan yang ada di antara keduanya, begitu juga yang ada di bawah tanah adalah kepunyaan Allah.\n4. \tBerdoa atau berzikir, tidak mesti dengan suara keras, karena Allah mengetahui sehalus apa pun suara, bahkan apa yang terbetik di dalam hati manusia.\n5. \tTuhan Yang Mahakuasa adalah Allah. Dia mempunyai 99 nama yang terbaik."
    }
}