{
    "id": 2357,
    "surah_id": 20,
    "ayah": 9,
    "page": 312,
    "quarter_hizb": 32,
    "juz": 16,
    "manzil": 4,
    "arabic": "\u0648\u064e\u0647\u064e\u0644\u0652 \u0627\u064e\u062a\u0670\u0649\u0643\u064e \u062d\u064e\u062f\u0650\u064a\u0652\u062b\u064f \u0645\u064f\u0648\u0652\u0633\u0670\u0649 \u06d8",
    "latin": "Wa hal at\u0101ka \u1e25ad\u012b\u1e61u m\u016bs\u0101. ",
    "translation": "Apakah telah sampai kepadamu (Nabi Muhammad) kisah Musa?",
    "no_footnote": null,
    "footnotes": null,
    "surah": {
        "id": 20,
        "arabic": " \u0637\u0670\u0647\u0670",
        "latin": "\u1e6c\u0101h\u0101",
        "transliteration": "Taha",
        "translation": "Taha",
        "num_ayah": 135,
        "page": 312,
        "location": "Makkiyah"
    },
    "tafsir": {
        "wajiz": "Usai menjelaskan keagungan Al-Qur\u2019an dan tugas berat yang diamanahkan kepada Rasulullah, pada ayat-ayat berikut Allah menguraikan kisah Nabi Musa yang juga diberi amanah berat, yaitu berdakwah kepada Fir\u2019aun yang sangat ingkar. Kisah ini dimaksudkan untuk menguatkan Nabi Muhammad dalam berdakwah. Dan apakah telah sampai kepadamu, wahai Nabi Muhammad, kisah Musa saat akan menerima tugas kerasulan?",
        "tahlili": "Pada ayat ini Allah memulai kisah Nabi Musa a.s. dengan ungkapan seakan-akan bertanya kepada Nabi Muhammad saw, apakah telah sampai kepadanya peristiwa dan kisah Nabi Musa ketika berdakwah kepada umatnya? Cara yang demikian biasa dilakukan untuk memfokuskan perhatian, dalam hal ini perhatian Nabi Muhammad saw dan juga umatnya kepada apa yang akan disampaikan. Telah menjadi kebiasaan orang Arab, apabila akan dikemukakan suatu berita atau kisah, maka didahului dengan ungkapan berbentuk pertanyaan, untuk menarik perhatian supaya pendengar mengikuti berita atau kisah itu dengan penuh perhatian.",
        "intro_surah": "Surah \u1e6c\u0101h\u0101 terdiri atas 135 ayat, diturunkan sesudah Surah Maryam, termasuk golongan Surah-surah Makkiyyah. Surah ini dinamakan \u201c\u1e6c\u0101h\u0101\u201d, diambil dari perkataan yang berasal dari ayat pertama Surah ini. Sebagaimana lazimnya Surah-surah yang memakai huruf-huruf Hijaiyyah pada permulaannya, huruf tersebut merupakan pemberitahuan Allah kepada orang-orang yang membacanya, bahwa sesudah huruf itu akan dikemukakan hal-hal yang sangat penting diketahui. Demikian pula halnya dengan ayat-ayat yang terdapat sesudah huruf \u201c\u1e6c\u0101h\u0101\u201d. Ayat ini menerangkan bahwa Al-Qur\u2019an diturunkan bukanlah untuk menyusahkan manusia, tetapi justeru berisi peringatan bagi manusia dan berasal dari Tuhan Yang Maha Penyayang. Selain hal-hal tersebut di atas, juga Surah ini mengandung pokok-pokok isi sebagai berikut:\n\nPOKOK-POKOK ISINYA\n1. Keimanan:\nPenjelasan mengenai pokok-pokok keimanan kepada Allah, Al-Qur\u2019an, Rasul dan Hari Kemudian. \n2. Hukum:\nBeberapa perintah kepada Nabi Muhammad seperti sabar menghadapi penolakan orang-orang kafir, mendidik keluarga untuk mengerjakan salat dan mempersilahkan orang-orang kafir menunggu ketentuan Allah pada Hari Kemudian.\n3. Kisah:\nKisah Musa a.s. dan kisah Harun a.s. dalam menghadapi Fir\u2018aun dan Bani Israil; kisah Nabi Adam a.s., Malaikat dan Iblis.\n4. Lain-lain:\nPerintah Allah kepada Nabi Muhammad saw supaya dia meminta tambahan ilmu kepada Allah sekalipun telah menjadi rasul; Allah tidak akan mengazab sesuatu kaum sebelum diutus rasul kepada mereka; jangan terpengaruh oleh kesenangan kehidupan dunia.\n",
        "outro_surah": null,
        "munasabah_prev_surah": "MUNASABAH SURAH MARYAM\nDENGAN SURAH \u1e6c\u0100H\u0100\n1. \tSurah Maryam memuat kisah beberapa Nabi dan Rasul, ada yang secara terperinci, ada yang secara ringkas dan ada pula yang disebut namanya saja yaitu Nabi Adam as. Surah \u1e6c\u0101h\u0101 memuat pula kisah beberapa Nabi dan Rasul seperti Surah Maryam. Kisah Musa a.s. disebut secara ringkas, sedang dalam Surah \u1e6c\u0101h\u0101 dikemukakan secara terperinci. Begitu pula kisah Adam as yang hanya namanya saja disebut dalam Surah Maryam sedang dalam Surah \u1e6c\u0101h\u0101 dikemukakan secara terperinci.\n2. \tMenurut riwayat Ibnu \u2018Abbas, Surah \u1e6c\u0101h\u0101 diturunkan kepada Nabi Muhammad setelah turunnya Surah Maryam.\n ",
        "munasabah_prev_theme": "Pada ayat-ayat yang lalu Allah menunjukkan keagungan kitab suci Al-Qur\u2019an yang turun dari Allah yang Mahakuasa dan beratnya tugas Nabi Muhammad saw dalam menyampaikan dakwah, kabar gembira dan peringatan kepada umatnya, maka pada ayat-ayat berikut ini Allah menjelaskan kisah nabi-nabi sebelum beliau, yaitu kisah Nabi Musa dalam berdakwah kepada Fir\u2018aun, Nabi Musa mendapat tantangan hebat dari Fir\u2018aun tetapi pada akhirnya Nabi Musalah yang menang. Kisah itu berguna bagi Nabi Muhammad, yaitu untuk menguatkan hati Nabi Muhammad saw di dalam menghadapi reaksi dan tantangan umatnya.",
        "theme_group": "NABI MUSA A.S. MENERIMA WAHYU PERTAMA",
        "kosakata": "1. Al-W\u0101dil-Muqaddas \u0627\u064e\u0644\u0652\u0648\u064e\u0627\u062f\u0650\u0649 \u0627\u0644\u0652\u0645\u064f\u0642\u064e\u062f\u0651\u064e\u0633\u0650 (\u1e6c\u0101h\u0101/20: 12)\nW\u0101d\u012b, berarti lembah dan muqaddas, yang suci dan disucikan. Letak lembah ini di kaki Gunung Sinai, tempat Nabi Musa kemudian menerima Taurat. Allah memerintahkan kepada Musa agar melepaskan alas kakinya sebagai tanda penghormatan pada tempat ini, dan kata \u1e6duw\u0101 sesudah itu, umumnya kata ini diartikan sebagai nama lembah itu, kendati ada juga yang mengatakan, bahwa \u1e6duw\u0101 adalah kosakata yang berarti dua kali, yakni lembah itu dua kali disucikan, atau Musa dua kali dipanggil.\n2. li \u017bikr\u012b \u0644\u0650\u0630\u0650\u0643\u0652\u0631\u0650\u064a\u0652 (\u1e6c\u0101h\u0101/20: 12)\n \u017bikr\u012b artinya mengingat, baik mengingat sesuatu yang terlupa atau mengingat sesuatu agar tidak terlupa. \nMenurut Quraish Shihab dalam tafsir al-Mishbah, ulama berbeda pendapat tentang makna li \u017cikr\u012b pada ayat ini dan juga pada huruf lam yang mendahului kata \u017cikri. Kata \u017cikr ada yang memahaminya dalam arti zikir dengan ucapan, ada juga yang mengartikan zikir dengan qalbu. \nSedang huruf lam ada yang memahaminya dalam arti \u2018agar supaya\u2019 sehingga arti kata li \u017cikr\u012b adalah perintah melaksanakan salat agar dengan salat seseorang selalu mengingat kehadiran Allah. Salat yang benar-benar khusyu\u2019 bisa mengajak seseorang untuk selalu mengingat Allah dan melaksanakan perintah-perintah-Nya serta menjauhi larangan-Nya. Makna yang dikandung kata li \u017cikr\u012b adalah isyarat kepada hikmah dibalik perintah salat. ",
        "sabab_nuzul": null,
        "conclusion": null
    }
}