{
    "id": 2351,
    "surah_id": 20,
    "ayah": 3,
    "page": 312,
    "quarter_hizb": 32,
    "juz": 16,
    "manzil": 4,
    "arabic": "\u0627\u0650\u0644\u0651\u064e\u0627 \u062a\u064e\u0630\u0652\u0643\u0650\u0631\u064e\u0629\u064b \u0644\u0651\u0650\u0645\u064e\u0646\u0652 \u064a\u0651\u064e\u062e\u0652\u0634\u0670\u0649 \u06d9",
    "latin": "Ill\u0101 ta\u017ckiratal limay yakhsy\u0101.",
    "translation": "(Kami tidak menurunkannya,) kecuali sebagai peringatan bagi orang yang takut (kepada Allah).",
    "no_footnote": null,
    "footnotes": null,
    "surah": {
        "id": 20,
        "arabic": " \u0637\u0670\u0647\u0670",
        "latin": "\u1e6c\u0101h\u0101",
        "transliteration": "Taha",
        "translation": "Taha",
        "num_ayah": 135,
        "page": 312,
        "location": "Makkiyah"
    },
    "tafsir": {
        "wajiz": "Kami tidak menurunkan Al-Qur\u2019an kepadamu melainkan sebagai peringatan bagi orang yang takut kepada Allah dan ikhlas menaati ajaran dan perintah-Nya.",
        "tahlili": "Pada ayat ini Allah menerangkan bahwa Al-Qur\u2019an itu diturunkan untuk menjadi peringatan dan pelajaran bagi manusia. Manusia yang takut kepada Allah akan segera menerimanya dan memanfaatkan peringatan dan pelajaran itu baginya. Sedang orang yang tidak takut kepada Allah, karena jiwanya beku, mempunyai hati yang keras seperti batu atau lebih keras lagi, tidak akan membekas sedikit pun peringatan dan pelajaran yang terkandung di dalam Al-Qur\u2019an itu kepadanya. Mereka itu seakan-akan tuli, bisu dan buta tidak berakal, seperti halnya makhluk-makhluk yang lain. Mereka itu akan dimasukkan ke dalam neraka kelak. Seperti tersebut dalam firman Allah:\n\u0648\u064e\u0644\u064e\u0642\u064e\u062f\u0652 \u0630\u064e\u0631\u064e\u0623\u0652\u0646\u064e\u0627 \u0644\u0650\u062c\u064e\u0647\u064e\u0646\u0651\u064e\u0645\u064e \u0643\u064e\u062b\u0650\u064a\u0652\u0631\u064b\u0627 \u0645\u0651\u0650\u0646\u064e \u0627\u0644\u0652\u062c\u0650\u0646\u0651\u0650 \u0648\u064e\u0627\u0644\u0652\u0627\u0650\u0646\u0652\u0633\u0650\u06d6 \u0644\u064e\u0647\u064f\u0645\u0652 \u0642\u064f\u0644\u064f\u0648\u0652\u0628\u064c \u0644\u0651\u064e\u0627 \u064a\u064e\u0641\u0652\u0642\u064e\u0647\u064f\u0648\u0652\u0646\u064e \u0628\u0650\u0647\u064e\u0627\u06d6 \u0648\u064e\u0644\u064e\u0647\u064f\u0645\u0652 \u0627\u064e\u0639\u0652\u064a\u064f\u0646\u064c \u0644\u0651\u064e\u0627 \u064a\u064f\u0628\u0652\u0635\u0650\u0631\u064f\u0648\u0652\u0646\u064e \u0628\u0650\u0647\u064e\u0627\u06d6 \u0648\u064e\u0644\u064e\u0647\u064f\u0645\u0652 \u0627\u0670\u0630\u064e\u0627\u0646\u064c \u0644\u0651\u064e\u0627 \u064a\u064e\u0633\u0652\u0645\u064e\u0639\u064f\u0648\u0652\u0646\u064e \u0628\u0650\u0647\u064e\u0627\u06d7 \u0627\u064f\u0648\u0644\u0670\u06e4\u0649\u0655\u0650\u0643\u064e \u0643\u064e\u0627\u0644\u0652\u0627\u064e\u0646\u0652\u0639\u064e\u0627\u0645\u0650 \u0628\u064e\u0644\u0652 \u0647\u064f\u0645\u0652 \u0627\u064e\u0636\u064e\u0644\u0651\u064f \u06d7 \u0627\u064f\u0648\u0644\u0670\u06e4\u0649\u0655\u0650\u0643\u064e \u0647\u064f\u0645\u064f \u0627\u0644\u0652\u063a\u0670\u0641\u0650\u0644\u064f\u0648\u0652\u0646\u064e \u0661\u0667\u0669\nDan sungguh, akan Kami isi neraka Jahanam banyak dari kalangan jin dan manusia. Mereka memiliki hati, tetapi tidak dipergunakannya untuk memahami (ayat-ayat Allah) dan mereka memiliki mata (tetapi) tidak dipergunakannya untuk melihat (tanda-tanda kekuasaan Allah), dan mereka mempunyai telinga (tetapi) tidak dipergunakannya untuk mendengarkan (ayat-ayat Allah). Mereka seperti hewan ternak, bahkan lebih sesat lagi. Mereka itulah orang-orang yang lengah. (al-A\u2018r\u0101f/7: 179)",
        "intro_surah": "Surah \u1e6c\u0101h\u0101 terdiri atas 135 ayat, diturunkan sesudah Surah Maryam, termasuk golongan Surah-surah Makkiyyah. Surah ini dinamakan \u201c\u1e6c\u0101h\u0101\u201d, diambil dari perkataan yang berasal dari ayat pertama Surah ini. Sebagaimana lazimnya Surah-surah yang memakai huruf-huruf Hijaiyyah pada permulaannya, huruf tersebut merupakan pemberitahuan Allah kepada orang-orang yang membacanya, bahwa sesudah huruf itu akan dikemukakan hal-hal yang sangat penting diketahui. Demikian pula halnya dengan ayat-ayat yang terdapat sesudah huruf \u201c\u1e6c\u0101h\u0101\u201d. Ayat ini menerangkan bahwa Al-Qur\u2019an diturunkan bukanlah untuk menyusahkan manusia, tetapi justeru berisi peringatan bagi manusia dan berasal dari Tuhan Yang Maha Penyayang. Selain hal-hal tersebut di atas, juga Surah ini mengandung pokok-pokok isi sebagai berikut:\n\nPOKOK-POKOK ISINYA\n1. Keimanan:\nPenjelasan mengenai pokok-pokok keimanan kepada Allah, Al-Qur\u2019an, Rasul dan Hari Kemudian. \n2. Hukum:\nBeberapa perintah kepada Nabi Muhammad seperti sabar menghadapi penolakan orang-orang kafir, mendidik keluarga untuk mengerjakan salat dan mempersilahkan orang-orang kafir menunggu ketentuan Allah pada Hari Kemudian.\n3. Kisah:\nKisah Musa a.s. dan kisah Harun a.s. dalam menghadapi Fir\u2018aun dan Bani Israil; kisah Nabi Adam a.s., Malaikat dan Iblis.\n4. Lain-lain:\nPerintah Allah kepada Nabi Muhammad saw supaya dia meminta tambahan ilmu kepada Allah sekalipun telah menjadi rasul; Allah tidak akan mengazab sesuatu kaum sebelum diutus rasul kepada mereka; jangan terpengaruh oleh kesenangan kehidupan dunia.\n",
        "outro_surah": null,
        "munasabah_prev_surah": "MUNASABAH SURAH MARYAM\nDENGAN SURAH \u1e6c\u0100H\u0100\n1. \tSurah Maryam memuat kisah beberapa Nabi dan Rasul, ada yang secara terperinci, ada yang secara ringkas dan ada pula yang disebut namanya saja yaitu Nabi Adam as. Surah \u1e6c\u0101h\u0101 memuat pula kisah beberapa Nabi dan Rasul seperti Surah Maryam. Kisah Musa a.s. disebut secara ringkas, sedang dalam Surah \u1e6c\u0101h\u0101 dikemukakan secara terperinci. Begitu pula kisah Adam as yang hanya namanya saja disebut dalam Surah Maryam sedang dalam Surah \u1e6c\u0101h\u0101 dikemukakan secara terperinci.\n2. \tMenurut riwayat Ibnu \u2018Abbas, Surah \u1e6c\u0101h\u0101 diturunkan kepada Nabi Muhammad setelah turunnya Surah Maryam.\n ",
        "munasabah_prev_theme": "Akhir Surah Maryam menerangkan bahwa Al-Qur\u2019an diturunkan dalam bahasa Arab supaya mudah bagi Nabi Muhammad menyampaikan kepada kaumnya yang juga berbahasa Arab. Al-Qur\u2019an berisi kabar gembira bagi orang-orang yang bertakwa dan sebagai peringatan bagi orang-orang yang ingkar, sedang awal Surah \u1e6c\u0101h\u0101 menguatkan penjelasan di atas, di samping menerangkan bahwa Al-Qur\u2019an adalah kalam Allah, Pencipta langit dan bumi.",
        "theme_group": "AL-QUR\u2019AN DITURUNKAN SEBAGAI \nPERINGATAN BAGI MANUSIA ",
        "kosakata": "Kosakata: \u1e6c\u0101h\u0101 \u0637\u0647 (\u1e6c\u0101h\u0101/20: 1) \n\u1e6c\u0101h\u0101, para mufasir sepakat, bahwa kata ini terdiri atas dua huruf singkatan \u1e6c\u0101 dan H\u0101 seperti huruf-huruf singkatan (al-muqattaat) yang lain, Y\u0101-S\u012bn, Alif L\u0101m M\u012bm, \u1e24\u0101 M\u012bm dan lain-lain seperti yang terdapat dalam beberapa surah. \u1e6c\u0101 merupakan huruf yang ke-16 dan h\u0101\u2019 huruf yang ke-26 hija\u2019iyah (alfabet). Para mufasir menguraikan asal dan arti kata ini panjang lebar dari berbagai sumber. Umumnya mereka mengutip beberapa pendapat, antara lain dari sahabat-sahabat Nabi dan para tabiin (tabi\u2019in), bahwa huruf-huruf ini bukan sekadar singkatan, tetapi juga mengandung arti \u201cHai laki-laki\u201d (ya rajul) yang ditujukan kepada Nabi. Kosakata ini dari bahasa Nabatea, Suryani (Aram) atau Abisinia yang semua itu masih serumpun dan salah satu cabang bahasa Arab; ada juga yang mengatakan itu bahasa \u2018Akk, salah satu dialek di Yaman, yang juga sama dengan dialek Quraisy. \n2. A\u1e61-\u1e60ar\u0101 \u0627\u064e\u0644\u062b\u0651\u064e\u0631\u064e\u0649 (\u1e6c\u0101h\u0101/20: 6)\n\u0627\u0644\u062b\u0651\u0631\u0649 (a\u1e61-\u1e61ar\u0101) artinya adalah tanah, baik tanah secara mutlak maupun yang dimaksud adalah tanah yang basah. Sedangkan yang dimaksud dengan kata \u0627\u0644\u062b\u0651\u0631\u0649 \u062a\u062d\u062a (ta\u1e25ta\u1e61-\u1e61ar\u0101) adalah apa-apa yang ada di perut bumi seperti minyak, alumunium, fosfor, batu-batu mulia, biji besi, dan lain-lain. Ayat ini menegaskan bahwa semua yang ada di langit, di bumi dan di antara keduanya bahkan di perut bumi adalah milik Allah. Kata \u1e61ar\u0101 hanya disebutkan satu kali dalam Al-Qur\u2019an yaitu pada ayat ini.",
        "sabab_nuzul": null,
        "conclusion": null
    }
}