{
    "id": 2383,
    "surah_id": 20,
    "ayah": 35,
    "page": 313,
    "quarter_hizb": 32,
    "juz": 16,
    "manzil": 4,
    "arabic": "\u0627\u0650\u0646\u0651\u064e\u0643\u064e \u0643\u064f\u0646\u0652\u062a\u064e \u0628\u0650\u0646\u064e\u0627 \u0628\u064e\u0635\u0650\u064a\u0652\u0631\u064b\u0627 ",
    "latin": "Innaka kunta bin\u0101 ba\u1e63\u012br\u0101(n). ",
    "translation": "Sesungguhnya Engkau Maha Melihat (keadaan) kami.\u201d",
    "no_footnote": null,
    "footnotes": null,
    "surah": {
        "id": 20,
        "arabic": " \u0637\u0670\u0647\u0670",
        "latin": "\u1e6c\u0101h\u0101",
        "transliteration": "Taha",
        "translation": "Taha",
        "num_ayah": 135,
        "page": 312,
        "location": "Makkiyah"
    },
    "tafsir": {
        "wajiz": "Ya Allah, aku ajukan permohonan itu kepada-Mu agar kami banyak bertasbih kepada-Mu, menyucikan-Mu dari segala hal yang tidak layak bagi-Mu, dan banyak mengingat-Mu atas anugerah dan nikmat yang Engkau limpahkan kepada kami. Sesungguhnya Engkau Maha Melihat dan Mengetahui keadaan kami.\u201d",
        "tahlili": "Pada ayat ini Musa a.s. menandaskan bahwa segala apa yang dimohonkannya kepada Allah, Dia lebih mengetahui hakekat dan tujuannya. Semoga bersama Harun penyebaran agama dapat dilaksanakan dengan baik, lancar, sukses, serta dapat melumpuhkan berbagai usaha dari orang-orang yang sesat dan menyesatkan, dapat membimbing mereka ke jalan yang benar. ",
        "intro_surah": "Surah \u1e6c\u0101h\u0101 terdiri atas 135 ayat, diturunkan sesudah Surah Maryam, termasuk golongan Surah-surah Makkiyyah. Surah ini dinamakan \u201c\u1e6c\u0101h\u0101\u201d, diambil dari perkataan yang berasal dari ayat pertama Surah ini. Sebagaimana lazimnya Surah-surah yang memakai huruf-huruf Hijaiyyah pada permulaannya, huruf tersebut merupakan pemberitahuan Allah kepada orang-orang yang membacanya, bahwa sesudah huruf itu akan dikemukakan hal-hal yang sangat penting diketahui. Demikian pula halnya dengan ayat-ayat yang terdapat sesudah huruf \u201c\u1e6c\u0101h\u0101\u201d. Ayat ini menerangkan bahwa Al-Qur\u2019an diturunkan bukanlah untuk menyusahkan manusia, tetapi justeru berisi peringatan bagi manusia dan berasal dari Tuhan Yang Maha Penyayang. Selain hal-hal tersebut di atas, juga Surah ini mengandung pokok-pokok isi sebagai berikut:\n\nPOKOK-POKOK ISINYA\n1. Keimanan:\nPenjelasan mengenai pokok-pokok keimanan kepada Allah, Al-Qur\u2019an, Rasul dan Hari Kemudian. \n2. Hukum:\nBeberapa perintah kepada Nabi Muhammad seperti sabar menghadapi penolakan orang-orang kafir, mendidik keluarga untuk mengerjakan salat dan mempersilahkan orang-orang kafir menunggu ketentuan Allah pada Hari Kemudian.\n3. Kisah:\nKisah Musa a.s. dan kisah Harun a.s. dalam menghadapi Fir\u2018aun dan Bani Israil; kisah Nabi Adam a.s., Malaikat dan Iblis.\n4. Lain-lain:\nPerintah Allah kepada Nabi Muhammad saw supaya dia meminta tambahan ilmu kepada Allah sekalipun telah menjadi rasul; Allah tidak akan mengazab sesuatu kaum sebelum diutus rasul kepada mereka; jangan terpengaruh oleh kesenangan kehidupan dunia.\n",
        "outro_surah": null,
        "munasabah_prev_surah": "MUNASABAH SURAH MARYAM\nDENGAN SURAH \u1e6c\u0100H\u0100\n1. \tSurah Maryam memuat kisah beberapa Nabi dan Rasul, ada yang secara terperinci, ada yang secara ringkas dan ada pula yang disebut namanya saja yaitu Nabi Adam as. Surah \u1e6c\u0101h\u0101 memuat pula kisah beberapa Nabi dan Rasul seperti Surah Maryam. Kisah Musa a.s. disebut secara ringkas, sedang dalam Surah \u1e6c\u0101h\u0101 dikemukakan secara terperinci. Begitu pula kisah Adam as yang hanya namanya saja disebut dalam Surah Maryam sedang dalam Surah \u1e6c\u0101h\u0101 dikemukakan secara terperinci.\n2. \tMenurut riwayat Ibnu \u2018Abbas, Surah \u1e6c\u0101h\u0101 diturunkan kepada Nabi Muhammad setelah turunnya Surah Maryam.\n ",
        "munasabah_prev_theme": "Pada ayat-ayat yang lalu Allah menerangkan mukjizat yang menunjukkan kenabian Musa a.s. dan kebenaran kerasulannya, yaitu tongkat berubah menjadi ular yang gesit merayap ke mana-mana, dan tangan yang berubah menjadi putih bersinar, maka pada ayat-ayat ini Allah menyuruh Musa pergi ke Fir\u2018aun untuk menyampaikan berita kerasulannya; Musa berdoa kepada Allah supaya melapangkan dadanya, memudahkan urusan-Nya dan supaya Harun saudaranya diangkat menjadi Nabi untuk membantunya dalam melaksanakan tugasnya, sehingga keduanya saling tolong-menolong mengingat Allah dan beribadat kepada-Nya.",
        "theme_group": "DAKWAH NABI MUSA A.S. KEPADA FIR\u2018AUN\nDAN PERMOHONANNYA",
        "kosakata": "1. H\u0101r\u016bn \u0647\u064e\u0627\u0631\u064f\u0648\u0652\u0646\u064e \u0639\u064e\u0644\u064e\u064a\u0652\u0647\u0650 \u0627\u0644\u0633\u0651\u064e\u0644\u0627\u064e\u0645\u0650 (\u1e6c\u0101h\u0101/20:30)\n\u201cSelamat sejahtera bagi Musa dan Harun. Demikinlah Kami memberi balasan kepada orang-orang yang berbuat baik. Sungguh, keduanya termasuk hamba-hamba Kami yang beriman.\u201d (QS. 37: 120-122).\nPerjalanan hidup Harun yang dikisahkan di dalam Al-Qur\u2019an dapat dikatakan menyatu dengan Musa, saudaranya. Allah sudah memberi kemampuan menilai mana yang benar dan mana yang salah, memberi pencerahan dan risalah kenabian kepada keduanya (QS.21:48). Hampir semua kisah Harun sudah terdapat dalam kisah Musa setelah ia kembali lagi ke Mesir untuk membebaskan orang-orang Israil dari penindasan Fir\u2018aun\u2014kecuali sebagian kecil ada kisah yang terpisah. Tetapi watak mereka saling bertolak belakang. Ketika orang Israil di Mesir sedang mengalami penderitaan berat dalam menghadapi kezaliman Fir\u2018aun, Allah memerintahkan kepada Musa dan Harun untuk mendatangi Fir\u2018aun yang zalim itu. Harun mendampingi Musa atas permintaan Musa sebelum itu, karena ia tidak lancar berbicara untuk menghadapi Fir\u2018aun (asy-Syu\u2019ar\u0101\u2019/26: 9-13). Peranan Harun sangat penting membantu adiknya itu sebagai juru bicara. Harun sangat lancar berbicara, wajahnya lebih tampan, putih, sedang Musa sawo matang dan berambut keriting. \nHarun bersama Musa pergi ke Mesir dan perjuangannya di sana dalam menghadapi Fir\u2018aun dan para pembesarnya, sampai mereka keluar dari Mesir bersama-sama, dan begitu seterusnya. Oleh karena itu, membaca perjuangan Musa di Mesir dan di Gunung Sinai, sudah juga mencakup kisah Harun. Hampir tidak ada kisah Harun dalam Al-Qur\u2019an yang berdiri sendiri, juga tidak disebutkan, siapa yang lebih tua di antara keduanya. Memang tidak penting, karena perjuangan mereka menyatu, hendak melawan syirik dan membebaskan Bani Israil dari penindasan Fir\u2018aun. Melihat kebenaran itu ada pada Musa dan Harun, pengikut-pengikut Fir\u2018aun pun beriman kepada Musa-Harun. \nBila akhirnya Musa membebaskan Bani Israil keluar dari Mesir, yang dikenal sebagai Exodus, oleh mereka dipandang sebagai karunia Yahweh kepada Harun dan Musa. Peristiwa ini mereka peringati setiap tahun sebagai hari Paskah (Paasover). Tetapi pengaruh penyembahan anak sapi di Mesir itu masih sangat kuat pada mereka. Ketika Musa seorang diri naik ke atas Gunung Sinai (Horeb), kaumnya yang ditinggalkan bersama Harun di bawah, membuat patung anak sapi dari perhiasan mereka dan bila kemudian Musa kembali kepada kaumnya, ia menemukan mereka menyembah patung anak sapi itu. Musa marah dan sedih sekali, dan dilemparkannya loh-loh itu, dan direnggutnya kepala saudaranya Harun. Tetapi Harun mengatakan bahwa mereka hampir saja membunuhnya. Musa sebagai manusia tak dapat menahan amarahnya, karena sebelum itu (al-A\u2018r\u0101f/7: 142), sebelum naik ke Gunung Sinai ia sudah meminta Harun menggantikannya memimpin kaumnya selama ia tak ada; \u201cPerbaikilah mereka dan janganlah ikuti orang yang berbuat kerusakan,\u201d kata Musa. Tetapi karena sesudah itu ia yakin saudaranya tidak bersalah, ia berdoa, \u201cTuhan, ampunilah aku dan saudaraku. Masukkanlah kami ke dalam rahmat-Mu.\u201d (al-A\u2018r\u0101f/7: 148-151).\nMenurut Bibel yang berperan dalam menghadapi Fir\u2018aun adalah Harun, bukan Musa. Peranan Musa ialah sesudah mereka keluar dari Mesir. (Sekitar Harun dengan Musa memang terjadi kontroversial di kalangan Yahudi sendiri). Dalam Kitab Keluaran 32: 1-6, yang mengumpulkan perhiasan emas itu Harun. Harun memerintahkan istri dan anak, laki-laki dan perempuan melepaskan anting-anting emasnya dan dibawa semua kepadanya, yang setelah itu kemudian dibentuknya dengan pahat dan dibuatnya daripadanya anak lembu tuangan. Sudah tentu ini tidak masuk akal, karena Harun dan Musa sama-sama berjuang mati-matian untuk menegakkan tauhid, dan sebelum itu pun Harun telah mengatakan kepada kaumnya bahwa yang patut disembah hanya Tuhan Yang Maha Esa (\u1e6c\u0101h\u0101/20: 90). Dalam peristiwa ini dan peristiwa-peristiwa lain terdapat banyak perbedaan dengan Al-Qur\u2019an. Yang kita baca di dalam Al-Qur\u2019an, bahwa sementara Musa pergi ke Gunung Sinai untuk memenuhi janjinya dengan Tuhan itu, ada orang yang pandai dan licik, yang di dalam Al-Qur\u2019an disebut \u201cSamiri\u201d* memanfaatkan kesempatan itu dengan membuat anak sapi dari emas yang dapat bersuara (melenguh) untuk menjadi sembahan mereka (\u1e6c\u0101h\u0101/20: 85-97). \nAkhir hayat Harun. Dalam Kitab Bilangan disebutkan 33: 38-39: \u201cKetika itu imam Harun naik ke gunung Hor sesuai dengan titah Tuhan dan di situ ia mati pada tahun keempat puluh sesudah orang Israel keluar dari tanah Mesir, pada bulan yang kelima; pada tanggal satu bulan itu; Harun berumur 123 tahun, ketika mati di gunung Hor.\u201d Adapun Musa, mendapat perintah dari Allah agar ia naik ke gunung Nebo dan dia melihat tanah yang dijanjikan, untuk pertama kali dan yang terakhir. Setelah itu Musa mati di sana di tanah Moab, dan dikuburkan di suatu lembah di tanah Moab, dalam usia 120 tahun (Ulangan 32: 49; 34: 1; ). Beberapa mufasir mengatakan Harun lebih tua dari Musa empat tahun, sementara dalam Kitab Keluaran disebutkan Harun lebih tua tiga tahun. Kalau pun ada perbedaan mungkin hanya pada akhir hayat mereka.\nSiapa Harun dan hubungannya dengan Musa. Bibel menceritakan asal usul Harun dan Musa, anak-anak Amram. Dimulai dari Amram anak Kehat (Kohath) anak Lewi anak Yakub, kawin dengan bibinya, Yokhebed (Jochebed) anak Lawi (Keluaran 6: 19). Jadi bibi Amram dan sekaligus istrinya yang kemudian melahirkan Harun, Musa dan Miryam (Bilangan, 26: 59). (Lihat juga \u201cNabi Musa\u201d di atas).\n2. \u2018Uqdah \u0639\u064f\u0642\u0652\u062f\u064e\u0629\u064c (\u1e6c\u0101h\u0101/20: 27)\n\u0639\u0642\u062f\u0629 (\u2018uqdah) artinya simpul tempat bertemunya dua tali atau tambang yang diikatkan, arti ini kemudian dialihkan pada kesulitan lidah mengucapkan kata-kata atau menyebutkan huruf tertentu yang disebut cadel. Pada ayat ini dijelaskan bagaimana Nabi Musa berdoa agar dilepaskan dari kekakuan lidah beliau ketika berbicara, dalam arti kekurangfasihan berbahasa ketika berbicara dengan Fir\u2018aun untuk menghimbaunya agar beriman kepada Allah. Meskipun Nabi Musa pernah tinggal di istana Fir\u2018aun, namun ia merasa bahasanya tidak sebagus pengikut-pengikut Fir\u2018aun.\n3. Azr\u012b \u0623\u064e\u0632\u0652\u0631\u0650\u0649 (\u1e6c\u0101h\u0101/20: 31)\n\u0623\u0632\u0631\u0649 (azri) artinya tulang punggung yang menjadi tumpuan semua gerakan tubuh sekaligus penopang tubuh agar bisa berdiri tegak lurus. Kata \u0627\u0644\u0623\u0632\u0631 (al-azr) bisa juga berarti kekuatan. Dengan demikian al-azr adalah perumpamaan dari keadaan seorang penolong yang memberi kekuatan dan dukungan kepada orang yang ditolongnya. Seperti keberadaan tulang punggung bagi tubuh yang menopang dan menjadi tumpuan dari semua gerakannya.\nDalam ayat ini Nabi Musa memohon kepada Allah agar Nabi Harun lebih bisa meneguhkan kekuatannya dan menjadi mitranya dalam semua urusan sehingga misi kenabian bisa didakwahkan dengan sempurna.\n",
        "sabab_nuzul": null,
        "conclusion": "1. \tAllah menyuruh Musa pergi kepada Fir\u2018aun untuk mengajaknya me-nyembah Allah, karena ia sudah melampaui batas.\n2. \tMusa memohon kepada Allah supaya dilapangkan dadanya, dimudahkan urusannya, dihilangkan kekakuan lidahnya, agar dakwahnya mudah dimengerti oleh kaumnya.\n3. \tMusa memohon kepada Allah supaya Harun saudaranya dijadikan pembantunya yang menyertainya dalam segala urusannya, semoga ber-sama Harun kekuatan dan kemampuan bertambah meningkat, banyak bertasbih dan berzikir kepada Allah.\n4. \tBagi siapapun yang menginginkan kemudahan dalam menghadapi berbagai urusan hidupnya dan dilancarkan bicaranya, baik dalam dakwah atau lainnya dianjurkan untuk memanjatkan doa seperti yang disampaikan Musa."
    }
}