{
    "id": 2447,
    "surah_id": 20,
    "ayah": 99,
    "page": 319,
    "quarter_hizb": 32.5,
    "juz": 16,
    "manzil": 4,
    "arabic": "\u0643\u064e\u0630\u0670\u0644\u0650\u0643\u064e \u0646\u064e\u0642\u064f\u0635\u0651\u064f \u0639\u064e\u0644\u064e\u064a\u0652\u0643\u064e \u0645\u0650\u0646\u0652 \u0627\u064e\u0646\u0652\u06e2\u0628\u064e\u0627\u06e4\u0621\u0650 \u0645\u064e\u0627 \u0642\u064e\u062f\u0652 \u0633\u064e\u0628\u064e\u0642\u064e\u06da \u0648\u064e\u0642\u064e\u062f\u0652 \u0627\u0670\u062a\u064e\u064a\u0652\u0646\u0670\u0643\u064e \u0645\u0650\u0646\u0652 \u0644\u0651\u064e\u062f\u064f\u0646\u0651\u064e\u0627 \u0630\u0650\u0643\u0652\u0631\u064b\u0627 \u06da",
    "latin": "Ka\u017c\u0101lika naqu\u1e63\u1e63u \u2018alaika min amb\u0101'i m\u0101 sabaq(a), wa qad \u0101tain\u0101ka mil ladunn\u0101 \u017cikr\u0101(n).",
    "translation": "Demikianlah Kami kisahkan kepadamu (Nabi Muhammad) sebagian kisah umat yang terdahulu dan sungguh, telah Kami anugerahkan kepadamu suatu peringatan (Al-Qur\u2019an) dari sisi Kami.",
    "no_footnote": null,
    "footnotes": null,
    "surah": {
        "id": 20,
        "arabic": " \u0637\u0670\u0647\u0670",
        "latin": "\u1e6c\u0101h\u0101",
        "transliteration": "Taha",
        "translation": "Taha",
        "num_ayah": 135,
        "page": 312,
        "location": "Makkiyah"
    },
    "tafsir": {
        "wajiz": "Wahai Nabi Muhammad, demikianlah Kami kisahkan kepadamu sebagian kisah umat yang telah lalu agar menjadi ibrah dan pelajaran bagi umatmu. Dan selain itu, sesungguhnya telah Kami berikan pula kepadamu dari sisi Kami suatu peringatan, yaitu Al-Qur\u2019an, sebagai tuntunan dan petunjuk menuju kesejahteraan hidup mereka di dunia dan akhirat.",
        "tahlili": "Pada ayat ini Allah menjelaskan kepada Nabi Muhammad saw bahwa kisah-kisah yang diberitakan pada ayat-ayat yang lalu seperti kisah Musa bersama Fir\u2018aun dan Samiri itu, demikian pula kisah nabi-nabi sebelumnya patut menjadi contoh teladan baginya dalam menghadapi kaumnya yang sangat ingkar dan durhaka. Karena memang demikianlah keadaan setiap rasul walaupun telah diturunkan kepadanya kitab-kitab dan mukjizat-mukjizat untuk menyatakan kebenaran dakwahnya namun kaumnya tetap juga ingkar dan berusaha sekuat tenaga menentang seruannya dan tetap memusuhi bahkan ingin membunuhnya untuk melenyapkannya sehingga tidak terdengar lagi suara kebenaran yang disampaikannya. \nSebagaimana Allah telah menurunkan Kitab Zabur kepada Nabi Daud a.s. Taurat kepada Nabi Musa a.s. dan Injil kepada Nabi Isa a.s., Allah telah menurunkan Al-Qur\u2019an kepada Muhammad, Kitab yang patut mereka terima dengan baik karena ajaran-ajaran yang terkandung di dalamnya adalah untuk kemaslahatan dan kebahagian mereka di dunia dan di akhirat. Al-Qur\u2019an adalah Kitab suci yang lengkap mengandung berbagai pedoman tentang hukum-hukum, pergaulan, ekonomi, akhlak dan sebagainya. Selain itu Al-Qur\u2019an adalah mukjizat terbesar bagi Nabi. Tiada seorang pun sanggup menandingi keindahan bahasanya dan ketinggian sastranya. Oleh sebab itu hendaklah Nabi bersabar dan jangan sekali-kali berputus asa atau bersedih hati, tetap berjuang sampai tercapai kemenangan dan semua kebatilan lenyap dari muka bumi, tidak ada yang patut disembah kecuali Allah Yang Maha Esa, dan Mahakuasa.",
        "intro_surah": "Surah \u1e6c\u0101h\u0101 terdiri atas 135 ayat, diturunkan sesudah Surah Maryam, termasuk golongan Surah-surah Makkiyyah. Surah ini dinamakan \u201c\u1e6c\u0101h\u0101\u201d, diambil dari perkataan yang berasal dari ayat pertama Surah ini. Sebagaimana lazimnya Surah-surah yang memakai huruf-huruf Hijaiyyah pada permulaannya, huruf tersebut merupakan pemberitahuan Allah kepada orang-orang yang membacanya, bahwa sesudah huruf itu akan dikemukakan hal-hal yang sangat penting diketahui. Demikian pula halnya dengan ayat-ayat yang terdapat sesudah huruf \u201c\u1e6c\u0101h\u0101\u201d. Ayat ini menerangkan bahwa Al-Qur\u2019an diturunkan bukanlah untuk menyusahkan manusia, tetapi justeru berisi peringatan bagi manusia dan berasal dari Tuhan Yang Maha Penyayang. Selain hal-hal tersebut di atas, juga Surah ini mengandung pokok-pokok isi sebagai berikut:\n\nPOKOK-POKOK ISINYA\n1. Keimanan:\nPenjelasan mengenai pokok-pokok keimanan kepada Allah, Al-Qur\u2019an, Rasul dan Hari Kemudian. \n2. Hukum:\nBeberapa perintah kepada Nabi Muhammad seperti sabar menghadapi penolakan orang-orang kafir, mendidik keluarga untuk mengerjakan salat dan mempersilahkan orang-orang kafir menunggu ketentuan Allah pada Hari Kemudian.\n3. Kisah:\nKisah Musa a.s. dan kisah Harun a.s. dalam menghadapi Fir\u2018aun dan Bani Israil; kisah Nabi Adam a.s., Malaikat dan Iblis.\n4. Lain-lain:\nPerintah Allah kepada Nabi Muhammad saw supaya dia meminta tambahan ilmu kepada Allah sekalipun telah menjadi rasul; Allah tidak akan mengazab sesuatu kaum sebelum diutus rasul kepada mereka; jangan terpengaruh oleh kesenangan kehidupan dunia.\n",
        "outro_surah": null,
        "munasabah_prev_surah": "MUNASABAH SURAH MARYAM\nDENGAN SURAH \u1e6c\u0100H\u0100\n1. \tSurah Maryam memuat kisah beberapa Nabi dan Rasul, ada yang secara terperinci, ada yang secara ringkas dan ada pula yang disebut namanya saja yaitu Nabi Adam as. Surah \u1e6c\u0101h\u0101 memuat pula kisah beberapa Nabi dan Rasul seperti Surah Maryam. Kisah Musa a.s. disebut secara ringkas, sedang dalam Surah \u1e6c\u0101h\u0101 dikemukakan secara terperinci. Begitu pula kisah Adam as yang hanya namanya saja disebut dalam Surah Maryam sedang dalam Surah \u1e6c\u0101h\u0101 dikemukakan secara terperinci.\n2. \tMenurut riwayat Ibnu \u2018Abbas, Surah \u1e6c\u0101h\u0101 diturunkan kepada Nabi Muhammad setelah turunnya Surah Maryam.\n ",
        "munasabah_prev_theme": "Pada ayat-ayat yang lalu Allah telah menerangkan kisah Nabi Musa a.s. bersama Fir\u2018aun dan Samiri, dua pemimpin yang kafir dan durhaka, ini merupakan pengalaman pahit yang biasa diderita oleh setiap rasul dan orang-orang yang berusaha menegakkan kebenaran dan meninggikan kalimah Allah. Maka pada ayat-ayat ini Allah menerangkan kepada Nabi Muhammad saw kisah para nabi sebelumnya sebagai peringatan bagi umat manusia dan hiburan yang bisa melenyapkan kesedihan yang bersemi dalam hati Nabi karena sikap kaumnya yang tetap saja ingkar dan tidak mau menerima petunjuk-petunjuk Allah yang telah disampaikannya, ditambah lagi dengan penganiayaan dan cemohan yang dilontarkan mereka atas dirinya. Jadi apa yang diderita oleh Nabi Muhammad saw dalam menyampaikan risalah-Nya telah dirasakan pula oleh nabi-nabi dan rasul-rasul sebelumnya.",
        "theme_group": "KISAH UMAT TERDAHULU DAN BERITA TENTANG HARI \nKIAMAT MERUPAKAN PERINGATAN BAGI MANUSIA",
        "kosakata": "1. Zurqa \u0632\u064f\u0631\u0652\u0642\u0627\u064b (\u1e6c\u0101h\u0101/20:102)\nZurq secara harfiyah berarti \u201cberwarna biru\u201d. Yang dimaksudkan adalah bahwa mata orang-orang yang bergelimang dosa ketika digiring ke depan pengadilan Allah nanti di hari kiamat akan membiru akibat dahaga yang amat sangat. Mata itu tidak lagi bercahaya, bahkan buta, karena hebatnya penderitaan. \n2. Yatakh\u0101fat\u016bn \u064a\u064e\u062a\u064e\u062e\u064e\u0627\u0641\u064e\u062a\u064f\u0648\u0652\u0646\u064e (\u1e6c\u0101h\u0101/20:103)\nYatakh\u0101fat\u016bn dari akar kata khafata artinya \u201cberbisik-bisik\u201d. Dalam Surah \u1e6c\u0101h\u0101/20:103, maksud kata itu adalah bahwa orang-orang yang bergelimang dosa pada saat pengadilan Allah nanti di padang mahsyar akan berbisik-bisik sesama mereka, bahwa mereka pernah hidup di dunia hanya selama sepuluh hari. Hal itu karena dahsyatnya hari kemudian itu sehingga mereka lupa masa sebenarnya mereka dulu di dunia. Mereka sesungguhnya cukup lama hidup di dunia. Waktu itu sesungguhnya cukup untuk menyiapkan diri bagi kehidupan di akhirat itu. Tetapi mereka lalai. Karena itulah dengan perasaan singkatnya hidup di dunia, mereka ingin kembali ke dunia untuk bisa mengerjakan amal kebajikan. Tetapi hal itu tidak mungkin lagi. Allah menegaskan bahwa walaupun mereka berbisik-bisik, Ia tahu apa yang mereka perbisikkan. ",
        "sabab_nuzul": null,
        "conclusion": null
    }
}