{
    "id": 2392,
    "surah_id": 20,
    "ayah": 44,
    "page": 314,
    "quarter_hizb": 32,
    "juz": 16,
    "manzil": 4,
    "arabic": "\u0641\u064e\u0642\u064f\u0648\u0652\u0644\u064e\u0627 \u0644\u064e\u0647\u0657 \u0642\u064e\u0648\u0652\u0644\u064b\u0627 \u0644\u0651\u064e\u064a\u0651\u0650\u0646\u064b\u0627 \u0644\u0651\u064e\u0639\u064e\u0644\u0651\u064e\u0647\u0657 \u064a\u064e\u062a\u064e\u0630\u064e\u0643\u0651\u064e\u0631\u064f \u0627\u064e\u0648\u0652 \u064a\u064e\u062e\u0652\u0634\u0670\u0649 ",
    "latin": "Fa q\u016bl\u0101 lah\u016b qaulal layyinal la\u2018allah\u016b yata\u017cakkaru au yakhsy\u0101. ",
    "translation": "Berbicaralah kamu berdua kepadanya (Fir\u2018aun) dengan perkataan yang lemah lembut, mudah-mudahan dia sadar atau takut.\u201d",
    "no_footnote": null,
    "footnotes": null,
    "surah": {
        "id": 20,
        "arabic": " \u0637\u0670\u0647\u0670",
        "latin": "\u1e6c\u0101h\u0101",
        "transliteration": "Taha",
        "translation": "Taha",
        "num_ayah": 135,
        "page": 312,
        "location": "Makkiyah"
    },
    "tafsir": {
        "wajiz": "Wahai Nabi Musa dan Harun, pergilah kamu berdua kepada Fir\u2019aun yang sombong itu dengan bekal mukjizat dari-Ku karena dia benar-benar telah melampaui batas dalam kedurhakannya. Begitu berhadapan dengannya, maka berbicaralah kamu berdua kepadanya dengan kata-kata yang lemah lembut. Ajaklah dia beriman kepada Allah dan serulah pada kebenaran dengan cara yang baik. Mudah-mudahan dengan cara demikian dia menjadi sadar atau takut pada azab Allah bila terus durhaka.\u201d",
        "tahlili": "Allah mengajarkan kepada Musa dan Harun a.s. bagaimana cara menghadapi Fir\u2018aun, yaitu dengan kata-kata yang halus dan ucapan yang lemah lembut. Seseorang yang dihadapi dengan cara demikian, akan terkesan di hatinya dan akan cenderung menyambut baik dan menerima dakwah dan ajakan yang diserukan kepadanya. Cara yang bijaksana seperti ini telah diajarkan pula kepada Nabi Muhammad oleh Allah, sebagaimana firman-Nya:\n\u0627\u064f\u062f\u0652\u0639\u064f \u0627\u0650\u0644\u0670\u0649 \u0633\u064e\u0628\u0650\u064a\u0652\u0644\u0650 \u0631\u064e\u0628\u0651\u0650\u0643\u064e \u0628\u0650\u0627\u0644\u0652\u062d\u0650\u0643\u0652\u0645\u064e\u0629\u0650 \u0648\u064e\u0627\u0644\u0652\u0645\u064e\u0648\u0652\u0639\u0650\u0638\u064e\u0629\u0650 \u0627\u0644\u0652\u062d\u064e\u0633\u064e\u0646\u064e\u0629\u0650 \u0648\u064e\u062c\u064e\u0627\u062f\u0650\u0644\u0652\u0647\u064f\u0645\u0652 \u0628\u0650\u0627\u0644\u0651\u064e\u062a\u0650\u064a\u0652 \u0647\u0650\u064a\u064e \u0627\u064e\u062d\u0652\u0633\u064e\u0646\u064f\n\u201cSerulah (manusia) kepada jalan Tuhanmu dengan hikmah dan pelajaran yang baik dan bantahlah mereka dengan cara yang baik.\u201d (an-Na\u1e25l/16: 125)\nSebaliknya kalau seseorang itu dihadapi dengan kekerasan dan dengan bentakan, jangankan akan takluk dan tunduk, justeru dia akan menentang dan menjauhkan diri, sebagaimana dijelaskan dalam firman Allah:\n\u0648\u064e\u0644\u064e\u0648\u0652 \u0643\u064f\u0646\u0652\u062a\u064e \u0641\u064e\u0638\u0651\u064b\u0627 \u063a\u064e\u0644\u0650\u064a\u0652\u0638\u064e \u0627\u0644\u0652\u0642\u064e\u0644\u0652\u0628\u0650 \u0644\u064e\u0627\u0646\u0652\u0641\u064e\u0636\u0651\u064f\u0648\u0652\u0627 \u0645\u0650\u0646\u0652 \u062d\u064e\u0648\u0652\u0644\u0650\u0643\u064e\nSekiranya engkau bersikap keras dan berhati kasar, tentulah mereka menjauhkan diri dari sekitarmu. (\u0100li \u2018Imr\u0101n/3: 159)\nSelain petunjuk Allah kepada Musa dan saudaranya, agar mereka bersikap santun menghadapi Fir\u2018aun, juga diajarkan kata-kata yang akan disampaikan Musa kepada Fir\u2018aun, sebagaimana dikisahkan Allah di dalam firman-Nya:\n\u0641\u064e\u0642\u064f\u0644\u0652 \u0647\u064e\u0644\u0652 \u0644\u0651\u064e\u0643\u064e \u0627\u0650\u0644\u0670\u0653\u0649 \u0627\u064e\u0646\u0652 \u062a\u064e\u0632\u064e\u0643\u0651\u0670\u0649\u06d9 \u0661\u0668 \u0648\u064e\u0627\u064e\u0647\u0652\u062f\u0650\u064a\u064e\u0643\u064e \u0627\u0650\u0644\u0670\u0649 \u0631\u064e\u0628\u0651\u0650\u0643\u064e \u0641\u064e\u062a\u064e\u062e\u0652\u0634\u0670\u0649\u06da \u0661\u0669\nMaka katakanlah (kepada Fir\u2018aun), \u201cAdakah keinginanmu untuk membersihkan diri (dari kesesatan), dan engkau akan kupimpin ke jalan Tuhanmu agar engkau takut kepada-Nya?\u201d (an-N\u0101zi\u2019\u0101t/79: 18-19)\nDengan cara dan kata-kata yang demikian itu diharapkan Fir\u2018aun dapat menyadari kesesatannya, dan takut kepada azab yang akan ditimpakan kepadanya apabila dia tetap membangkang.",
        "intro_surah": "Surah \u1e6c\u0101h\u0101 terdiri atas 135 ayat, diturunkan sesudah Surah Maryam, termasuk golongan Surah-surah Makkiyyah. Surah ini dinamakan \u201c\u1e6c\u0101h\u0101\u201d, diambil dari perkataan yang berasal dari ayat pertama Surah ini. Sebagaimana lazimnya Surah-surah yang memakai huruf-huruf Hijaiyyah pada permulaannya, huruf tersebut merupakan pemberitahuan Allah kepada orang-orang yang membacanya, bahwa sesudah huruf itu akan dikemukakan hal-hal yang sangat penting diketahui. Demikian pula halnya dengan ayat-ayat yang terdapat sesudah huruf \u201c\u1e6c\u0101h\u0101\u201d. Ayat ini menerangkan bahwa Al-Qur\u2019an diturunkan bukanlah untuk menyusahkan manusia, tetapi justeru berisi peringatan bagi manusia dan berasal dari Tuhan Yang Maha Penyayang. Selain hal-hal tersebut di atas, juga Surah ini mengandung pokok-pokok isi sebagai berikut:\n\nPOKOK-POKOK ISINYA\n1. Keimanan:\nPenjelasan mengenai pokok-pokok keimanan kepada Allah, Al-Qur\u2019an, Rasul dan Hari Kemudian. \n2. Hukum:\nBeberapa perintah kepada Nabi Muhammad seperti sabar menghadapi penolakan orang-orang kafir, mendidik keluarga untuk mengerjakan salat dan mempersilahkan orang-orang kafir menunggu ketentuan Allah pada Hari Kemudian.\n3. Kisah:\nKisah Musa a.s. dan kisah Harun a.s. dalam menghadapi Fir\u2018aun dan Bani Israil; kisah Nabi Adam a.s., Malaikat dan Iblis.\n4. Lain-lain:\nPerintah Allah kepada Nabi Muhammad saw supaya dia meminta tambahan ilmu kepada Allah sekalipun telah menjadi rasul; Allah tidak akan mengazab sesuatu kaum sebelum diutus rasul kepada mereka; jangan terpengaruh oleh kesenangan kehidupan dunia.\n",
        "outro_surah": null,
        "munasabah_prev_surah": "MUNASABAH SURAH MARYAM\nDENGAN SURAH \u1e6c\u0100H\u0100\n1. \tSurah Maryam memuat kisah beberapa Nabi dan Rasul, ada yang secara terperinci, ada yang secara ringkas dan ada pula yang disebut namanya saja yaitu Nabi Adam as. Surah \u1e6c\u0101h\u0101 memuat pula kisah beberapa Nabi dan Rasul seperti Surah Maryam. Kisah Musa a.s. disebut secara ringkas, sedang dalam Surah \u1e6c\u0101h\u0101 dikemukakan secara terperinci. Begitu pula kisah Adam as yang hanya namanya saja disebut dalam Surah Maryam sedang dalam Surah \u1e6c\u0101h\u0101 dikemukakan secara terperinci.\n2. \tMenurut riwayat Ibnu \u2018Abbas, Surah \u1e6c\u0101h\u0101 diturunkan kepada Nabi Muhammad setelah turunnya Surah Maryam.\n ",
        "munasabah_prev_theme": "Pada ayat-ayat yang lalu Allah mengungkapkan delapan macam karunia yang telah dianugerahkan kepada Musa tanpa diminta, dan Allah mengabulkan permintaannya, maka pada ayat-ayat berikut ini Allah menerangkan perintah dan larangan dalam menjalankan dakwahnya yang harus dilaksanakan dan perintah agar Musa benar-benar melaksanakan tugasnya sebagai Rasul.",
        "theme_group": "\nMUSA DAN HARUN DIPERINTAHKAN\nMENGHADAPI FIR\u2018AUN\n",
        "kosakata": "1. L\u0101 Taniy\u0101 \u0644\u0627\u064e \u062a\u064e\u0646\u0650\u064a\u064e\u0627 (\u1e6c\u0101h\u0101/20: 42)\n\u062a\u0646\u064a\u0627 \u0644\u0627 (l\u0101 taniy\u0101) artinya jangan kamu berdua lalai dan lemah, terambil dari kata \u0648\u064e\u0646\u0649 \u064a\u0646\u0649 artinya melemah, tidak bersegera atau tidak memperhatikan.\nDalam ayat ini Allah memerintahkan Nabi Musa dan Harun yang dipilihnya sebagai pembantunya untuk menghadap Fir\u2018aun dengan membawa serta semua mukjizat yang Allah anugerahkan kepada Nabi Musa sebagai tanda kekuasaan Allah. Allah juga memerintahkan kepada keduanya untuk tidak lalai, lemah dan terlena dalam mengingat Allah.\n2.Yafru\u1e6d \u064a\u064e\u0641\u0652\u0631\u064f\u0637\u0652 (\u1e6c\u0101h\u0101/20: 45)\n\u064a\u0641\u0631\u0637 (yafru\u1e6d), terambil dari kata \u0641\u0631\u0637 (fara\u1e6da) yang berarti mendahului. Yang dimaksud mendahului dalam ayat ini adalah bersegera menyiksa. Makna ini dipahami dari adanya rasa takut pada diri Nabi Musa dan Harun terhadap Fir\u2018aun yang akan melampaui batas dalam menyiksa keduanya, jika keduanya datang menghadap Fir\u2018aun untuk menyampaikan risalah kenabiannya, karena keduanya sadar, apa yang akan mereka sampaikan mengancam kekuasaan Fir\u2018aun.\n3. Layyinan \u0644\u064e\u064a\u0651\u0650\u0646\u064b\u0627 (\u1e6c\u0101h\u0101/20: 44)\n\u0644\u064a\u0646\u0627 (layyinan) arti kata al-layyin adalah lembut lawan dari \u0627\u0644\u062d\u0634\u0648\u0646\u0629 atau kasar. Kata al-layyin biasa digunakan untuk tubuh, tetapi kemudian digunakan juga untuk akhlak, seperti firman Allah pada \u0100li \u2018Imr\u0101n/3:159, layyin juga digunakan untuk kulit dan hati, seperti pada az-Zumar/39: 23. Dengan kata-kata seperti pada ayat ini Allah memerintahkan Nabi Musa dan Harun untuk mengajak Fir\u2018aun beriman dengan kata-kata yang lemah lembut. Perintah ini menjadi dasar tentang perlunya bersikap bijaksana dalam berdakwah dengan cara menyampaikan materi dakwah dengan kata-kata yang lembut penuh dengan sopan santun.",
        "sabab_nuzul": null,
        "conclusion": null
    }
}