{
    "id": 2386,
    "surah_id": 20,
    "ayah": 38,
    "page": 314,
    "quarter_hizb": 32,
    "juz": 16,
    "manzil": 4,
    "arabic": "\u0627\u0650\u0630\u0652 \u0627\u064e\u0648\u0652\u062d\u064e\u064a\u0652\u0646\u064e\u0627\u0653 \u0627\u0650\u0644\u0670\u0653\u0649 \u0627\u064f\u0645\u0651\u0650\u0643\u064e \u0645\u064e\u0627 \u064a\u064f\u0648\u0652\u062d\u0670\u0649\u0653 \u06d9",
    "latin": "I\u017c au\u1e25ain\u0101 il\u0101 ummika m\u0101 y\u016b\u1e25\u0101. ",
    "translation": "(yaitu) ketika Kami mengilhamkan kepada ibumu sesuatu yang diilhamkan.",
    "no_footnote": null,
    "footnotes": null,
    "surah": {
        "id": 20,
        "arabic": " \u0637\u0670\u0647\u0670",
        "latin": "\u1e6c\u0101h\u0101",
        "transliteration": "Taha",
        "translation": "Taha",
        "num_ayah": 135,
        "page": 312,
        "location": "Makkiyah"
    },
    "tafsir": {
        "wajiz": "Dan wahai Musa, ketahuilah bahwa sesungguhnya tanpa engkau minta pun, Kami telah memberi nikmat kepadamu pada kesempatan yang lain sebelum ini, yaitu ketika Kami mengilhamkan kepada ibumu sesudah kelahiranmu sesuatu yang diilhamkan, yaitu cara menyelamatkanmu dari rencana keji Fir\u2019aun.",
        "tahlili": "Ayat ini mengingatkan bahwa ketika Allah akan menganugerahkan delapan macam karunia kepada Nabi Musa a.s., maka Allah memberi ilham kepada ibu Musa di antaranya memberitahukan dan mengajarkan ibu Musa bagaimana caranya menyelamatkan anaknya dari kezaliman Fir\u2018aun, yang memerintahkan tentaranya untuk membunuh semua bayi laki-laki yang ada di bawah kekuasaannya dibunuh semuanya.",
        "intro_surah": "Surah \u1e6c\u0101h\u0101 terdiri atas 135 ayat, diturunkan sesudah Surah Maryam, termasuk golongan Surah-surah Makkiyyah. Surah ini dinamakan \u201c\u1e6c\u0101h\u0101\u201d, diambil dari perkataan yang berasal dari ayat pertama Surah ini. Sebagaimana lazimnya Surah-surah yang memakai huruf-huruf Hijaiyyah pada permulaannya, huruf tersebut merupakan pemberitahuan Allah kepada orang-orang yang membacanya, bahwa sesudah huruf itu akan dikemukakan hal-hal yang sangat penting diketahui. Demikian pula halnya dengan ayat-ayat yang terdapat sesudah huruf \u201c\u1e6c\u0101h\u0101\u201d. Ayat ini menerangkan bahwa Al-Qur\u2019an diturunkan bukanlah untuk menyusahkan manusia, tetapi justeru berisi peringatan bagi manusia dan berasal dari Tuhan Yang Maha Penyayang. Selain hal-hal tersebut di atas, juga Surah ini mengandung pokok-pokok isi sebagai berikut:\n\nPOKOK-POKOK ISINYA\n1. Keimanan:\nPenjelasan mengenai pokok-pokok keimanan kepada Allah, Al-Qur\u2019an, Rasul dan Hari Kemudian. \n2. Hukum:\nBeberapa perintah kepada Nabi Muhammad seperti sabar menghadapi penolakan orang-orang kafir, mendidik keluarga untuk mengerjakan salat dan mempersilahkan orang-orang kafir menunggu ketentuan Allah pada Hari Kemudian.\n3. Kisah:\nKisah Musa a.s. dan kisah Harun a.s. dalam menghadapi Fir\u2018aun dan Bani Israil; kisah Nabi Adam a.s., Malaikat dan Iblis.\n4. Lain-lain:\nPerintah Allah kepada Nabi Muhammad saw supaya dia meminta tambahan ilmu kepada Allah sekalipun telah menjadi rasul; Allah tidak akan mengazab sesuatu kaum sebelum diutus rasul kepada mereka; jangan terpengaruh oleh kesenangan kehidupan dunia.\n",
        "outro_surah": null,
        "munasabah_prev_surah": "MUNASABAH SURAH MARYAM\nDENGAN SURAH \u1e6c\u0100H\u0100\n1. \tSurah Maryam memuat kisah beberapa Nabi dan Rasul, ada yang secara terperinci, ada yang secara ringkas dan ada pula yang disebut namanya saja yaitu Nabi Adam as. Surah \u1e6c\u0101h\u0101 memuat pula kisah beberapa Nabi dan Rasul seperti Surah Maryam. Kisah Musa a.s. disebut secara ringkas, sedang dalam Surah \u1e6c\u0101h\u0101 dikemukakan secara terperinci. Begitu pula kisah Adam as yang hanya namanya saja disebut dalam Surah Maryam sedang dalam Surah \u1e6c\u0101h\u0101 dikemukakan secara terperinci.\n2. \tMenurut riwayat Ibnu \u2018Abbas, Surah \u1e6c\u0101h\u0101 diturunkan kepada Nabi Muhammad setelah turunnya Surah Maryam.\n ",
        "munasabah_prev_theme": "Pada ayat-ayat yang lalu Allah menerangkan beberapa permintaan Musa untuk meringankan dan memudahkan dalam pelaksanaan dakwahnya terutama pada saat menghadapi Fir\u2018aun, maka pada ayat-ayat berikut ini dijelaskan bahwa Allah telah memperkenankan semua permohonannya itu, dan mengungkap kembali berbagai karunia yang telah diberikan kepada Musa sejak masih kanak-kanak.",
        "theme_group": "NIKMAT ALLAH KEPADA \nNABI MUSA A.S. SEJAK KECIL",
        "kosakata": "1. At-T\u0101b\u016bt \u0627\u064e\u0644\u062a\u0651\u064e\u0627\u0628\u064f\u0648\u0652\u062a (\u1e6c\u0101h\u0101/20: 39) \nAt-T\u0101b\u016bt secara harfiah berarti peti, segala macam peti. Tabut dalam ayat ini tidak sama dengan tabut dalam QS. 2: 248 yang berisi Taurat (tabut perjanjian, ark of the covenant). Dalam ayat ini tabut (atau keranjang) tempat bayi Musa dihanyutkan di sungai. Allah mewahyukan kepada ibunda Musa agar anaknya dimasukkan ke dalam peti dan dilemparkan ke sungai (Nil), dan sungai itu akan melemparkannya ke pantai, selanjutnya dia akan dipungut oleh musuh Tuhan dan musuhnya. Tetapi Allah membuat anak itu disenangi orang dan disenangi Allah dan dia akan diasuh di bawah pengawasan-Nya. Tetapi saudara perempuannya mengikutinya dari pantai sepanjang sungai itu (lih. juga QS.28: 3-21). Ketika peti itu dipungut oleh salah seorang anggota keluarga Fir\u2018aun, dan disambut dengan gembira dan minta jangan dibunuh, kalau-kalau kelak akan sangat berguna. Hal ini dilakukan, karena Fir\u2018aun memerintahkan agar semua bayi laki-laki dari Bani Israil dibunuh. Mereka tentu tidak menyadari akibat apa yang akan terjadi. Diperkirakan Fir\u2018aun ini adalah Thothmes I. Kisah ini terdapat juga dalam Perjanjian Lama dengan sedikit perbedaan (Kitab Keluaran 2: 1\u201410). Lihat juga \u201cMusa \u2018alaihissalam.\u201d \n2. al-Gamm \u0627\u064e\u0644\u0652\u063a\u064e\u0645\u0651\u0650 (\u1e6c\u0101h\u0101/20:40)\n\u0627\u0644\u063a\u0645 (al-gamm) berasal dari kata \u0645 \u0645 \u063a artinya penutup sesuatu. Dari kata ini terambil kata \u0627\u0644\u063a\u0645\u0627\u0645 (al-gam\u0101m) artinya mendung yang menutup cahaya matahari (al-Baqarah/2:210). Juga kata \u063a\u0645\u0629 (gummah) yang berarti bencana, kesusahan dan sebagainya (Y\u016bnus/10: 71). Sedangkan \u0627\u0644\u063a\u0645\u0627\u0645\u0629 (al-gim\u0101mah) adalah secarik kain yang menutupi hidung dan kedua mata unta.\nPada ayat ini Allah telah menyelamatkan ibunda Nabi Musa dari bencana atau kesusahan, karena Nabi Musa yang dilempar di sungai Nil dan hanyut, ditakutkan tenggelam, tapi ternyata tidak, bahkan kembali dengan selamat ke pangkuan ibundanya.",
        "sabab_nuzul": null,
        "conclusion": null
    }
}