{
    "id": 2473,
    "surah_id": 20,
    "ayah": 125,
    "page": 320,
    "quarter_hizb": 32.75,
    "juz": 16,
    "manzil": 4,
    "arabic": "\u0642\u064e\u0627\u0644\u064e \u0631\u064e\u0628\u0651\u0650 \u0644\u0650\u0645\u064e \u062d\u064e\u0634\u064e\u0631\u0652\u062a\u064e\u0646\u0650\u064a\u0652\u0653 \u0627\u064e\u0639\u0652\u0645\u0670\u0649 \u0648\u064e\u0642\u064e\u062f\u0652 \u0643\u064f\u0646\u0652\u062a\u064f \u0628\u064e\u0635\u0650\u064a\u0652\u0631\u064b\u0627 ",
    "latin": "Q\u0101la rabbi lima \u1e25asyartan\u012b a\u2018m\u0101 wa qad kuntu ba\u1e63\u012br\u0101(n). ",
    "translation": "Dia berkata, \u201cYa Tuhanku, mengapa Engkau mengumpulkan aku dalam keadaan buta, padahal sungguh dahulu aku dapat melihat?\u201d",
    "no_footnote": null,
    "footnotes": null,
    "surah": {
        "id": 20,
        "arabic": " \u0637\u0670\u0647\u0670",
        "latin": "\u1e6c\u0101h\u0101",
        "transliteration": "Taha",
        "translation": "Taha",
        "num_ayah": 135,
        "page": 312,
        "location": "Makkiyah"
    },
    "tafsir": {
        "wajiz": "Ketika orang yang ingkar itu merasakan balasan Allah, dia berkata, \u201cYa Tuhanku, mengapa Engkau kumpulkan aku dalam keadaan buta sehingga tidak dapat melihat, padahal di dunia dahulu aku dapat melihat?\u201d",
        "tahlili": "Orang-orang yang kafir itu akan bertanya kepada Allah mengapa Engkau jadikan aku buta sedang mataku dahulu terang dapat melihat. Allah menjawab, bahwa hal itu memang demikian! Karena di dunia ketika datang kepadanya rasul-rasul membawa petunjuk-petunjuk-Nya dia berpaling darinya seakan-akan matanya telah buta dan seakan-akan ia telah melupakannya karena tidak mengindahkan dan memperhatikannya. Oleh sebab itu Allah jadikan mata hatinya buta pada hari Kiamat sehingga engkau tidak dapat mengemukakan suatu alasan untuk membela dirimu dari azab yang telah disediakan baginya sebagai balasan atas kebutaan mereka selama di dunia.",
        "intro_surah": "Surah \u1e6c\u0101h\u0101 terdiri atas 135 ayat, diturunkan sesudah Surah Maryam, termasuk golongan Surah-surah Makkiyyah. Surah ini dinamakan \u201c\u1e6c\u0101h\u0101\u201d, diambil dari perkataan yang berasal dari ayat pertama Surah ini. Sebagaimana lazimnya Surah-surah yang memakai huruf-huruf Hijaiyyah pada permulaannya, huruf tersebut merupakan pemberitahuan Allah kepada orang-orang yang membacanya, bahwa sesudah huruf itu akan dikemukakan hal-hal yang sangat penting diketahui. Demikian pula halnya dengan ayat-ayat yang terdapat sesudah huruf \u201c\u1e6c\u0101h\u0101\u201d. Ayat ini menerangkan bahwa Al-Qur\u2019an diturunkan bukanlah untuk menyusahkan manusia, tetapi justeru berisi peringatan bagi manusia dan berasal dari Tuhan Yang Maha Penyayang. Selain hal-hal tersebut di atas, juga Surah ini mengandung pokok-pokok isi sebagai berikut:\n\nPOKOK-POKOK ISINYA\n1. Keimanan:\nPenjelasan mengenai pokok-pokok keimanan kepada Allah, Al-Qur\u2019an, Rasul dan Hari Kemudian. \n2. Hukum:\nBeberapa perintah kepada Nabi Muhammad seperti sabar menghadapi penolakan orang-orang kafir, mendidik keluarga untuk mengerjakan salat dan mempersilahkan orang-orang kafir menunggu ketentuan Allah pada Hari Kemudian.\n3. Kisah:\nKisah Musa a.s. dan kisah Harun a.s. dalam menghadapi Fir\u2018aun dan Bani Israil; kisah Nabi Adam a.s., Malaikat dan Iblis.\n4. Lain-lain:\nPerintah Allah kepada Nabi Muhammad saw supaya dia meminta tambahan ilmu kepada Allah sekalipun telah menjadi rasul; Allah tidak akan mengazab sesuatu kaum sebelum diutus rasul kepada mereka; jangan terpengaruh oleh kesenangan kehidupan dunia.\n",
        "outro_surah": null,
        "munasabah_prev_surah": "MUNASABAH SURAH MARYAM\nDENGAN SURAH \u1e6c\u0100H\u0100\n1. \tSurah Maryam memuat kisah beberapa Nabi dan Rasul, ada yang secara terperinci, ada yang secara ringkas dan ada pula yang disebut namanya saja yaitu Nabi Adam as. Surah \u1e6c\u0101h\u0101 memuat pula kisah beberapa Nabi dan Rasul seperti Surah Maryam. Kisah Musa a.s. disebut secara ringkas, sedang dalam Surah \u1e6c\u0101h\u0101 dikemukakan secara terperinci. Begitu pula kisah Adam as yang hanya namanya saja disebut dalam Surah Maryam sedang dalam Surah \u1e6c\u0101h\u0101 dikemukakan secara terperinci.\n2. \tMenurut riwayat Ibnu \u2018Abbas, Surah \u1e6c\u0101h\u0101 diturunkan kepada Nabi Muhammad setelah turunnya Surah Maryam.\n ",
        "munasabah_prev_theme": "Pada ayat-ayat yang lalu diterangkan tentang kisah Adam yang terusir dari surga akibat mengikuti bujukan setan sehingga ia melanggar perintah Allah. Maka pada ayat-ayat ini diterangkan hukuman bagi orang yang berpaling dari Allah dan ajaran-ajaran-Nya. Hukuman bagi mereka adalah kesengsaraan hidup di dunia dan azab yang pedih di akhirat.",
        "theme_group": "HUKUMAN BAGI ORANG YANG \nBERPALING DARI ALLAH",
        "kosakata": "Kosakata: Ma\u2019\u012bsyatan \u1e0cank\u0101 \u0645\u064e\u0639\u0650\u064a\u0652\u0634\u064e\u0629\u064b \u0636\u064e\u0646\u0652\u0643\u064b\u0627 (\u1e6c\u0101h\u0101/20:124)\nMa\u2019\u012bsyah artinya \u201ckehidupan\u201d berasal dari akar kata \u2018asya \u201chidup\u201d. Terdapat kosakata lain untuk \u201chidup\u201d dalam Al-Qur\u2019an yaitu \u1e25ay\u0101h. Kata \u1e25ay\u0101h ini lebih luas, yaitu diperuntukkan pula bagi Allah dan malaikat. Sedangkan ma\u2019\u012bsyah khusus dimaksudkan untuk manusia atau hewan.\n\u1e0cank berarti \u201csempit\u201d. Dalam Taha/20:124 Allah menegaskan bahwa mereka yang tidak mau mengingat-Nya atau menyebut nama-Nya maka yang akan diperolehnya adalah kehidupan yang sempit, yaitu merana di dunia dan masuk neraka di akhirat.",
        "sabab_nuzul": null,
        "conclusion": null
    }
}