{
    "id": 2462,
    "surah_id": 20,
    "ayah": 114,
    "page": 320,
    "quarter_hizb": 32.75,
    "juz": 16,
    "manzil": 4,
    "arabic": "\u0641\u064e\u062a\u064e\u0639\u0670\u0644\u064e\u0649 \u0627\u0644\u0644\u0651\u0670\u0647\u064f \u0627\u0644\u0652\u0645\u064e\u0644\u0650\u0643\u064f \u0627\u0644\u0652\u062d\u064e\u0642\u0651\u064f\u06da \u0648\u064e\u0644\u064e\u0627 \u062a\u064e\u0639\u0652\u062c\u064e\u0644\u0652 \u0628\u0650\u0627\u0644\u0652\u0642\u064f\u0631\u0652\u0627\u0670\u0646\u0650 \u0645\u0650\u0646\u0652 \u0642\u064e\u0628\u0652\u0644\u0650 \u0627\u064e\u0646\u0652 \u064a\u0651\u064f\u0642\u0652\u0636\u0653\u0670\u0649 \u0627\u0650\u0644\u064e\u064a\u0652\u0643\u064e \u0648\u064e\u062d\u0652\u064a\u064f\u0647\u0657 \u06d6\u0648\u064e\u0642\u064f\u0644\u0652 \u0631\u0651\u064e\u0628\u0651\u0650 \u0632\u0650\u062f\u0652\u0646\u0650\u064a\u0652 \u0639\u0650\u0644\u0652\u0645\u064b\u0627 ",
    "latin": "Fa ta\u2018\u0101lall\u0101hul-malikul-\u1e25aqq(u), wa l\u0101 ta\u2018jal bil-qur'\u0101ni min qabli ay yuq\u1e0d\u0101 ilaika wa\u1e25yuh(\u016b), wa qur rabbi zidn\u012b \u2018ilm\u0101(n). ",
    "translation": "Maha Tinggi Allah, Raja yang sebenar-benarnya. Janganlah engkau (Nabi Muhammad) tergesa-gesa (membaca) Al-Qur\u2019an sebelum selesai pewahyuannya kepadamu483) dan katakanlah, \u201cYa Tuhanku, tambahkanlah ilmu kepadaku.\u201d",
    "no_footnote": "483",
    "footnotes": "483) Nabi Muhammad saw. dilarang oleh Allah Swt. mengikuti bacaan Jibril kata demi kata sebelum Jibril selesai membacakannya agar beliau menghafal dan memahami betul-betul ayat yang diturunkan. Allah Swt. menjamin bahwa beliau akan mampu menghafal ayat-ayat yang diturunkan kepadanya.",
    "surah": {
        "id": 20,
        "arabic": " \u0637\u0670\u0647\u0670",
        "latin": "\u1e6c\u0101h\u0101",
        "transliteration": "Taha",
        "translation": "Taha",
        "num_ayah": 135,
        "page": 312,
        "location": "Makkiyah"
    },
    "tafsir": {
        "wajiz": "Dengan semua sifat itu, maka sesungguhnya Mahatinggi Allah, Raja yang sebenar-benarnya. Dan karena itu, janganlah kamu, wahai Nabi Muhammad, tergesa-gesa membaca Al-Qur\u2019an sebelum disempurnakan pewahyuannya kepadamu agar kamu tidak salah memahami dan mengajarkannya, dan katakanlah, \u201cYa Tuhanku, tambahkanlah kepadaku ilmu pengetahuan yang bermanfaat.\u201d",
        "tahlili": "Diriwayatkan bahwa Nabi Muhammad saw ketika Jibril membacakan kepadanya beberapa ayat yang diturunkan, dia cepat-cepat membacanya kembali padahal Jibril belum selesai membacakan seluruh ayat yang akan disampaikan pada Nabi. Hal ini karena Nabi takut kalau dia tidak cepat-cepat mengulanginya, mungkin dia lupa dan tidak dapat mengingat kembali. Oleh sebab itu Allah melarangnya bertindak seperti itu, karena tindakan seperti itu mungkin akan lebih mengacaukan hafalannya sebab di waktu dia mengulangi membaca apa yang telah dibacakan kepadanya perhatiannya tertuju kepada pengulangan bacaan itu tidak kepada ayat-ayat selanjutnya yang akan dibacakan jibril padahal Allah menjamin akan memelihara Al-Qur\u2019an dengan sebaik-baiknya, jadi tidak mungkin Nabi Muhammad lupa atau dijadikan Allah lupa kalau dia mendengarkan baik-baik lebih dahulu semua ayat-ayat yang dibacakan Jibril kemudian bila Jibril telah selesai membacakan seluruhnya, barulah Nabi membacanya kembali.\nAyat ini menegaskan bahwa Allah Yang Mahatinggi, Mahabesar amat Luas Ilmu-Nya yang dengan Ilmu-Nya itu Dia mengatur segala sesuatu dan membuat peraturan-peraturan yang sesuai dengan kepentingan makhluk-Nya, tidak terkecuali peraturan-peraturan untuk keselamatan dan kebahagiaan umat manusia. Dialah yang mengutus para nabi dan para rasul dan menurunkan kitab-kitab suci seperti Zabur, Taurat dan Injil serta Dia pulalah yang menurunkan Al-Qur\u2019an kepada Nabi Muhammad saw. Al-Qur\u2019an diturunkan kepada Nabi Muhammad dengan berangsur-angsur bukan sekaligus sesuai dengan hikmah kebijaksanaan-Nya. Kadang-kadang diturunkan hanya beberapa ayat pendek saja atau surah yang pendek pula dan kadang-kadang diturunkan ayat-ayat yang panjang sesuai dengan keperluan dan kebutuhan pada waktu itu.\nMengenai hal ini Allah berfirman:\n\u0644\u064e\u0627 \u062a\u064f\u062d\u064e\u0631\u0651\u0650\u0643\u0652 \u0628\u0650\u0647\u0656 \u0644\u0650\u0633\u064e\u0627\u0646\u064e\u0643\u064e \u0644\u0650\u062a\u064e\u0639\u0652\u062c\u064e\u0644\u064e \u0628\u0650\u0647\u0656\u06d7 \u0661\u0666 \u0627\u0650\u0646\u0651\u064e \u0639\u064e\u0644\u064e\u064a\u0652\u0646\u064e\u0627 \u062c\u064e\u0645\u0652\u0639\u064e\u0647\u0657 \u0648\u064e\u0642\u064f\u0631\u0652\u0627\u0670\u0646\u064e\u0647\u0657 \u06da \u0661\u0667 \u0641\u064e\u0627\u0650\u0630\u064e\u0627 \u0642\u064e\u0631\u064e\u0623\u0652\u0646\u0670\u0647\u064f \u0641\u064e\u0627\u062a\u0651\u064e\u0628\u0650\u0639\u0652 \u0642\u064f\u0631\u0652\u0627\u0670\u0646\u064e\u0647\u0657 \u06da \u0661\u0668 \u062b\u064f\u0645\u0651\u064e \u0627\u0650\u0646\u0651\u064e \u0639\u064e\u0644\u064e\u064a\u0652\u0646\u064e\u0627 \u0628\u064e\u064a\u064e\u0627\u0646\u064e\u0647\u0657 \u06d7 \u0661\u0669\nJangan engkau (Muhammad) gerakkan lidahmu (untuk membaca Al-Qur\u2019an) karena hendak cepat-cepat (menguasai)nya. Sesungguhnya Kami yang akan mengumpulkannya (di dadamu) dan membacakannya.Apabila Kami telah selesai membacakannya maka ikutilah bacaannya itu. Kemudian sesungguhnya Kami yang akan menjelaskannya. (al-Qiy\u0101mah/75: 16-19)\nMengenai jaminan Allah dan terpeliharanya Al-Qur\u2019an tersebut dalam ayat:\n\u0627\u0650\u0646\u0651\u064e\u0627 \u0646\u064e\u062d\u0652\u0646\u064f \u0646\u064e\u0632\u0651\u064e\u0644\u0652\u0646\u064e\u0627 \u0627\u0644\u0630\u0651\u0650\u0643\u0652\u0631\u064e \u0648\u064e\u0627\u0650\u0646\u0651\u064e\u0627 \u0644\u064e\u0647\u0657 \u0644\u064e\u062d\u0670\u0641\u0650\u0638\u064f\u0648\u0652\u0646\u064e \u0669\nSesungguhnya Kamilah yang menurunkan Al-Qur\u2019an, dan pasti Kami (pula) yang memeliharanya. (al-\u1e24ijr/15: 9)\nKemudian Allah menyuruh Nabi Muhammad saw agar berdoa supaya Dia memberikan kepadanya tambahan ilmu. Diriwayatkan oleh at-Tirmizi dari Abu Hurairah bahwa Rasulullah berdoa seperti berikut:\n\u0627\u064e\u0644\u0644\u0651\u0670\u0647\u064f\u0645\u0651\u064e \u0627\u0646\u0652\u0641\u064e\u0639\u0652\u0646\u0650\u064a\u0652 \u0628\u0650\u0645\u064e\u0627 \u0639\u064e\u0644\u0651\u064e\u0645\u0652\u062a\u064e\u0646\u0650\u064a\u0652 \u0648\u064e\u0639\u064e\u0644\u0651\u0650\u0645\u0652\u0646\u0650\u064a\u0652 \u0645\u064e\u0627 \u064a\u064e\u0646\u0652\u0641\u064e\u0639\u064f\u0646\u0650\u064a\u0652 \u0648\u064e\u0632\u0650\u062f\u0652\u0646\u0650\u064a\u0652 \u0639\u0650\u0644\u0652\u0645\u064b\u0627 \u0648\u064e\u0627\u0644\u0652\u062d\u064e\u0645\u0652\u062f\u064f \u0644\u0650\u0644\u0651\u0670\u0647\u0650 \u0639\u064e\u0644\u064e\u0649 \u0643\u064f\u0644\u0651\u0650 \u062d\u064e\u0627\u0644\u064d \u0648\u064e\u0627\u064e\u0639\u064f\u0648\u0652\u0630\u064f \u0628\u0650\u0627\u0644\u0644\u0651\u0670\u0647\u0650 \u0645\u0650\u0646\u0652 \u062d\u064e\u0627\u0644\u0650 \u0627\u064e\u0647\u0652\u0644\u0650 \u0627\u0644\u0646\u0651\u064e\u0627\u0631\u0650 (\u0631\u0648\u0627\u0647 \u0627\u0644\u062a\u0631\u0645\u0630\u064a \u0648\u0627\u0628\u0646 \u0645\u0627\u062c\u0647 \u0648\u0627\u0644\u0628\u0632\u0627\u0631)\nYa Allah Jadikanlah ilmu yang Engkau ajarkan kepadaku bermanfaat bagiku, ajarkanlah kepadaku ilmu yang berguna untukku dan berikanlah kepadaku tambahan ilmu. Segala puji bagi Allah atas segala hal, aku berlindung kepada Allah dari keadaan dan segala hal yang dilakukan oleh penghuni neraka. (at-Tirmi\u017ci, Ibnu M\u0101jah dan al-Bazz\u0101r)",
        "intro_surah": "Surah \u1e6c\u0101h\u0101 terdiri atas 135 ayat, diturunkan sesudah Surah Maryam, termasuk golongan Surah-surah Makkiyyah. Surah ini dinamakan \u201c\u1e6c\u0101h\u0101\u201d, diambil dari perkataan yang berasal dari ayat pertama Surah ini. Sebagaimana lazimnya Surah-surah yang memakai huruf-huruf Hijaiyyah pada permulaannya, huruf tersebut merupakan pemberitahuan Allah kepada orang-orang yang membacanya, bahwa sesudah huruf itu akan dikemukakan hal-hal yang sangat penting diketahui. Demikian pula halnya dengan ayat-ayat yang terdapat sesudah huruf \u201c\u1e6c\u0101h\u0101\u201d. Ayat ini menerangkan bahwa Al-Qur\u2019an diturunkan bukanlah untuk menyusahkan manusia, tetapi justeru berisi peringatan bagi manusia dan berasal dari Tuhan Yang Maha Penyayang. Selain hal-hal tersebut di atas, juga Surah ini mengandung pokok-pokok isi sebagai berikut:\n\nPOKOK-POKOK ISINYA\n1. Keimanan:\nPenjelasan mengenai pokok-pokok keimanan kepada Allah, Al-Qur\u2019an, Rasul dan Hari Kemudian. \n2. Hukum:\nBeberapa perintah kepada Nabi Muhammad seperti sabar menghadapi penolakan orang-orang kafir, mendidik keluarga untuk mengerjakan salat dan mempersilahkan orang-orang kafir menunggu ketentuan Allah pada Hari Kemudian.\n3. Kisah:\nKisah Musa a.s. dan kisah Harun a.s. dalam menghadapi Fir\u2018aun dan Bani Israil; kisah Nabi Adam a.s., Malaikat dan Iblis.\n4. Lain-lain:\nPerintah Allah kepada Nabi Muhammad saw supaya dia meminta tambahan ilmu kepada Allah sekalipun telah menjadi rasul; Allah tidak akan mengazab sesuatu kaum sebelum diutus rasul kepada mereka; jangan terpengaruh oleh kesenangan kehidupan dunia.\n",
        "outro_surah": null,
        "munasabah_prev_surah": "MUNASABAH SURAH MARYAM\nDENGAN SURAH \u1e6c\u0100H\u0100\n1. \tSurah Maryam memuat kisah beberapa Nabi dan Rasul, ada yang secara terperinci, ada yang secara ringkas dan ada pula yang disebut namanya saja yaitu Nabi Adam as. Surah \u1e6c\u0101h\u0101 memuat pula kisah beberapa Nabi dan Rasul seperti Surah Maryam. Kisah Musa a.s. disebut secara ringkas, sedang dalam Surah \u1e6c\u0101h\u0101 dikemukakan secara terperinci. Begitu pula kisah Adam as yang hanya namanya saja disebut dalam Surah Maryam sedang dalam Surah \u1e6c\u0101h\u0101 dikemukakan secara terperinci.\n2. \tMenurut riwayat Ibnu \u2018Abbas, Surah \u1e6c\u0101h\u0101 diturunkan kepada Nabi Muhammad setelah turunnya Surah Maryam.\n ",
        "munasabah_prev_theme": "Pada ayat-ayat yang lalu dijelaskan bagaimana menakutkan dan dahsyatnya suasana pada hari Kiamat, maka pada ayat berikut ini Allah menerangkan bahwa Al-Qur\u2019an mengandung peringatan dan ancaman akan datangnya hari Kiamat sebelum mereka dihadapkan pada peristiwa tersebut, ancaman ini diutarakan dalam gaya bahasa yang indah dan mudah dipahami, agar orang-orang musyrik Mekah dan manusia umumnya dapat memahami dan merenungkan isinya. Sehingga mereka diharapkan akan menjadi manusia-manusia yang bertakwa kepada Allah. ",
        "theme_group": "ANCAMAN DAN PERINGATAN\nDALAM AL-QUR\u2019AN",
        "kosakata": "1. \u1e63arrafn\u0101 \u0635\u064e\u0631\u0651\u064e\u0641\u0652\u0646\u064e\u0627 (\u1e6c\u0101h\u0101/20:113)\nKata dasar kata itu adalah \u1e63arrafa yang secara harfiyah berarti \u201cmenukar-nukarkan sesuatu dari suatu keadaan menjadi keadaan lain.\u201d Ta\u1e63rif ar-riyah artinya \u201cmenghembuskan angin\u201d, yaitu membuat angin datang silih berganti (al-Baqarah/2:164). Nu\u1e63arrif al-\u0101y\u0101t artinya \u201cKami mencurahkan ayat-ayat\u201d, yaitu menurunkan ayat-ayat silih berganti (al-An\u2018\u0101m/6:46). Di dalam ayat 113 Surah \u1e6c\u0101h\u0101/20 ini Allah menyatakan bahwa Ia memberikan peringatan kepada kaum yang kafir supaya mereka kembali. Peringatan-peringatan itu adalah apa yang terdapat dalam Al-Qur\u2019an. Harapan Allah dengan peringatan-peringatan yang silih berganti itu adalah agar mereka takwa atau beriman dengan sungguh-sungguh.\n2. Al-Wa\u2019\u012bd \u0627\u064e\u0644\u0652\u0648\u064e\u0639\u0650\u064a\u0652\u062f\u0650 (\u1e6c\u0101h\u0101/20:113)\nAl-Wa\u2019\u012bd terambil dari kata al-wa\u2019d yang mengandung dua arti yang berlawanan, \u201cjanji baik\u201d atau \u201cjanji buruk\u201d Yang berarti janji baik misalnya, \u201cAllah menjanjikan kepada orang-orang yang beriman\u2026 (al-M\u0101\u2019idah/5:59). Dan yang berarti janji buruk misalnya, \u201cMereka meminta kepadamu agar disegerakan azab mereka, katakan kepada mereka \u2018Allah tidak memungkiri janji-Nya\u201d (al-\u1e24ajj/22:47). al-Wa\u2019\u012bd khusus maksudnya untuk janji buruk atau peringatan, dan peringatan itu ditujukan kepada orang kafir. Dalam \u1e6c\u0101h\u0101/20:113 Allah menegaskan bahwa Ia telah mencurahkan berbagai macam peringatan, supaya orang-orang yang kafir itu takwa dan beriman dengan sebenar-benarnya.",
        "sabab_nuzul": null,
        "conclusion": "1. \tAl-Qur\u2019an diturunkan dalam bahasa Arab agar mudah dipahami oleh manusia termasuk kaum musyrik Mekah, agar mereka menerima ajaran-ajarannya serta memperhatikan peringatan dan ancaman yang terkandung di dalamnya. Dengan demikian mereka akan menjadi orang-orang yang bertakwa kepada Tuhan.\n2. \tNabi dilarang cepat-cepat mengulangi bacaan Al-Qur\u2019an yang dibacakan Jibril kepadanya sedang Jibril belum selesai membacakan semuanya, karena hal itu akan lebih mengacaukan hafalan Nabi seluruhnya, sedang Allah menjamin bahwa Al-Qur\u2019an itu akan dihapal Nabi seluruhnya dan tetap terkumpul dalam ingatannya.\n3. \tDianjurkan untuk selalu memohon kepada Allah tambahan ilmu yang bermanfaat."
    }
}