{
    "id": 2467,
    "surah_id": 20,
    "ayah": 119,
    "page": 320,
    "quarter_hizb": 32.75,
    "juz": 16,
    "manzil": 4,
    "arabic": "\u0648\u064e\u0627\u064e\u0646\u0651\u064e\u0643\u064e \u0644\u064e\u0627 \u062a\u064e\u0638\u0652\u0645\u064e\u0624\u064f\u0627 \u0641\u0650\u064a\u0652\u0647\u064e\u0627 \u0648\u064e\u0644\u064e\u0627 \u062a\u064e\u0636\u0652\u062d\u0670\u0649 ",
    "latin": "Wa annaka l\u0101 ta\u1e93ma'u f\u012bh\u0101 wa l\u0101 ta\u1e0d\u1e25\u0101. ",
    "translation": "Sesungguhnya di sana pun engkau tidak akan merasa dahaga dan tidak akan ditimpa terik matahari.\u201d",
    "no_footnote": null,
    "footnotes": null,
    "surah": {
        "id": 20,
        "arabic": " \u0637\u0670\u0647\u0670",
        "latin": "\u1e6c\u0101h\u0101",
        "transliteration": "Taha",
        "translation": "Taha",
        "num_ayah": 135,
        "page": 312,
        "location": "Makkiyah"
    },
    "tafsir": {
        "wajiz": "Wahai Adam, sungguh, ada jaminan untukmu di surga sana bahwa engkau tidak akan kelaparan di dalamnya. Allah telah menyediakan bagimu di sana buah-buahan dan makanan lain. Dan kamu di surga itu juga tidak akan telanjang karena Allah telah menyiapkan pakaian untukmu. Dan sungguh, di surga sana engkau tidak akan merasa dahaga karena ada mata air yang selalu memancarkan air yang jernih di sana. Dan di sana tidak pula kamu akan ditimpa panas matahari di dalamnya karena rimbunnya dedaunan dari beragam pepohonan di sana.\u201d",
        "tahlili": "Setelah Iblis melihat bagaimana senangnya Adam dan istrinya di dalam surga menikmati berbagai macam anugerah Ilahi, timbul rasa iri dan dengki dalam hatinya dan dia ingin sekali agar nikmat dan karunia yang dilimpahkan Allah itu dengan segera tercabut dari keduanya. Dia melihat tak ada cara yang lebih tepat dan ampuh untuk mewujudkan keinginan itu selain menggoda keduanya, supaya memakan buah khuldi yang terlarang memakannya. Dengan demikian tentulah Allah akan murka kepada Adam dan mengusirnya dari surga karena telah melanggar perintah-Nya. Lalu Iblis mendatangi Adam berpura-pura sebagai sahabat yang setia yang selalu mementingkan kebaikan dan kebahagiaannya, dan berceritalah dia bahwa pohon khuldi itu adalah pohon yang istimewa, buahnya amat lezat sekali rasanya, tak ada buah-buahan di dalam surga yang lebih lezat dari khuldi itu. Barang siapa memakannya pastilah dia akan kekal hidup selama-lamanya dan kekal pula tinggal di dalam surga. Jika Adam ingin tetap selama-lamanya di dalam surga ini maka ia harus makan buah itu, niscaya ia akan kekal hidup selama-lamanya dalam surga yang tidak akan runtuh selama-lamanya.",
        "intro_surah": "Surah \u1e6c\u0101h\u0101 terdiri atas 135 ayat, diturunkan sesudah Surah Maryam, termasuk golongan Surah-surah Makkiyyah. Surah ini dinamakan \u201c\u1e6c\u0101h\u0101\u201d, diambil dari perkataan yang berasal dari ayat pertama Surah ini. Sebagaimana lazimnya Surah-surah yang memakai huruf-huruf Hijaiyyah pada permulaannya, huruf tersebut merupakan pemberitahuan Allah kepada orang-orang yang membacanya, bahwa sesudah huruf itu akan dikemukakan hal-hal yang sangat penting diketahui. Demikian pula halnya dengan ayat-ayat yang terdapat sesudah huruf \u201c\u1e6c\u0101h\u0101\u201d. Ayat ini menerangkan bahwa Al-Qur\u2019an diturunkan bukanlah untuk menyusahkan manusia, tetapi justeru berisi peringatan bagi manusia dan berasal dari Tuhan Yang Maha Penyayang. Selain hal-hal tersebut di atas, juga Surah ini mengandung pokok-pokok isi sebagai berikut:\n\nPOKOK-POKOK ISINYA\n1. Keimanan:\nPenjelasan mengenai pokok-pokok keimanan kepada Allah, Al-Qur\u2019an, Rasul dan Hari Kemudian. \n2. Hukum:\nBeberapa perintah kepada Nabi Muhammad seperti sabar menghadapi penolakan orang-orang kafir, mendidik keluarga untuk mengerjakan salat dan mempersilahkan orang-orang kafir menunggu ketentuan Allah pada Hari Kemudian.\n3. Kisah:\nKisah Musa a.s. dan kisah Harun a.s. dalam menghadapi Fir\u2018aun dan Bani Israil; kisah Nabi Adam a.s., Malaikat dan Iblis.\n4. Lain-lain:\nPerintah Allah kepada Nabi Muhammad saw supaya dia meminta tambahan ilmu kepada Allah sekalipun telah menjadi rasul; Allah tidak akan mengazab sesuatu kaum sebelum diutus rasul kepada mereka; jangan terpengaruh oleh kesenangan kehidupan dunia.\n",
        "outro_surah": null,
        "munasabah_prev_surah": "MUNASABAH SURAH MARYAM\nDENGAN SURAH \u1e6c\u0100H\u0100\n1. \tSurah Maryam memuat kisah beberapa Nabi dan Rasul, ada yang secara terperinci, ada yang secara ringkas dan ada pula yang disebut namanya saja yaitu Nabi Adam as. Surah \u1e6c\u0101h\u0101 memuat pula kisah beberapa Nabi dan Rasul seperti Surah Maryam. Kisah Musa a.s. disebut secara ringkas, sedang dalam Surah \u1e6c\u0101h\u0101 dikemukakan secara terperinci. Begitu pula kisah Adam as yang hanya namanya saja disebut dalam Surah Maryam sedang dalam Surah \u1e6c\u0101h\u0101 dikemukakan secara terperinci.\n2. \tMenurut riwayat Ibnu \u2018Abbas, Surah \u1e6c\u0101h\u0101 diturunkan kepada Nabi Muhammad setelah turunnya Surah Maryam.\n ",
        "munasabah_prev_theme": "Pada ayat-ayat yang lalu Allah menerangkan bahwa Al-Qur\u2019an mengandung peringatan dan ancaman bagi manusia. Diharapkan dengan peringatan dan ancaman itu manusia menjadi insaf, sadar dan menjadi orang-orang yang bertakwa kepada Allah. Peringatan dan ancaman itu berguna pula bagi orang-orang yang telah beriman agar mereka jangan terperosok ke lembah kesesatan dan kedurhakaan. Maka pada ayat-ayat berikut ini Allah menceritakan kisah Nabi Adam sebelum turun ke dunia, meskipun sejak semula nenek moyang kita Adam, telah diperingatkan tentang Iblis yang menjadi musuhnya. Tetapi Nabi Adam lupa akan peringatan itu, sehingga ia teperdaya oleh rayuan Iblis. Sehingga pada akhirnya Nabi Adam dan Hawa diperintahkan oleh Allah untuk turun ke bumi.",
        "theme_group": "KISAH NABI ADAM DAN PEMBANGKANGAN IBLIS",
        "kosakata": "1. \u2018Azman \u0639\u064e\u0632\u0652\u0645\u064b\u0627 (\u1e6c\u0101h\u0101/20:115)\n\u2018Azm secara harfiyah berarti \u201cmeneguhkan hati untuk mengerjakan sesuatu\u201d, atau \u201ctekad\u201d. Dalam Al-Qur\u2019an terdapat ayat \u201cBila engkau sudah berazam,\u201d yaitu tekad untuk mengerjakan sesuatu, \u201cmaka bertawakallah kepada Allah,\u201d (\u0100li \u2018Imr\u0101n/3:159). Dalam al-Baqarah/2:235 Allah melarang laki-laki punya azam atau mengutarakan maksudnya untuk menikahi perempuan yang kematian suami sebelum idahnya habis. Dan di dalam \u1e6c\u0101h\u0101/20: 115 Allah menerangkan bahwa Ia telah memesankan sekali dari awal kepada Adam a.s. bahwa Iblis itu musuh yang selalu berusaha menjatuhkannya. Tetapi sayang Adam a.s. lupa dan tidak punya azam atau kemauan kuat untuk memenuhi pesan itu. \n2. Ta\u2019r\u0101 \u062a\u064e\u0639\u0652\u0631\u064e\u0649 (\u1e6c\u0101h\u0101/20:118)\nTa\u2019r\u0101 kata dasarnya adalah \u2018ara yang berarti \u201ctelanjang\u201d. Di dalam \u1e6c\u0101h\u0101/20: 118 Allah menyampaikan kepada Adam a.s. bahwa di dalam surga ia tidak akan pernah merasakan lapar dan tidak akan pernah pula telanjang, karena penghuni surga akan diberi pakaian yang indah dari sutera.",
        "sabab_nuzul": null,
        "conclusion": null
    }
}