{
    "id": 2544,
    "surah_id": 21,
    "ayah": 61,
    "page": 327,
    "quarter_hizb": 33.5,
    "juz": 17,
    "manzil": 4,
    "arabic": "\u0642\u064e\u0627\u0644\u064f\u0648\u0652\u0627 \u0641\u064e\u0623\u0652\u062a\u064f\u0648\u0652\u0627 \u0628\u0650\u0647\u0656 \u0639\u064e\u0644\u0670\u0653\u0649 \u0627\u064e\u0639\u0652\u064a\u064f\u0646\u0650 \u0627\u0644\u0646\u0651\u064e\u0627\u0633\u0650 \u0644\u064e\u0639\u064e\u0644\u0651\u064e\u0647\u064f\u0645\u0652 \u064a\u064e\u0634\u0652\u0647\u064e\u062f\u064f\u0648\u0652\u0646\u064e ",
    "latin": "Q\u0101l\u016b fa't\u016b bih\u012b \u2018al\u0101 a\u2018yunin-n\u0101si la\u2018allahum yasyhad\u016bn(a).",
    "translation": "Mereka berkata, \u201c(Kalau demikian,) bawalah dia dengan diperlihatkan kepada orang banyak agar mereka menyaksikan(-nya).\u201d",
    "no_footnote": null,
    "footnotes": null,
    "surah": {
        "id": 21,
        "arabic": " \u0627\u0644\u0627\u0646\u0628\u064a\u0627\u06e4\u0621",
        "latin": "Al-Anbiy\u0101' ",
        "transliteration": "Al-Anbiya'",
        "translation": "Para Nabi",
        "num_ayah": 112,
        "page": 322,
        "location": "Makkiyah"
    },
    "tafsir": {
        "wajiz": "Mendengar laporan masyarakat ini, pemerintah Babilonia bersikap tegas. Mereka berkata dan memerintahkan kepada penegak hukum, \u201cKalau demikian, bawalah dia, pemuda nekat yang bertindak subversif ini ke pusat kota dengan diperlihatkan kepada orang banyak, agar mereka melihat wajahnya dan menyaksikan hukuman yang akan dijatuhkan kepadanya.\u201d",
        "tahlili": "Ayat ini menjelaskan bahwa setelah mereka mendapat jawaban bahwa yang merusakkan patung-patung itu adalah seorang pemuda yang bernama Ibrahim, maka mereka menyuruh agar pemuda itu dihadapkan kepada orang banyak, dengan harapan kalau-kalau ada orang lain yang menyaksikan pemuda tersebut melakukan pengrusakan itu, sehingga kesaksian itu akan dapat dijadikan bukti.\nHal ini memberikan pengertian bahwa di kalangan mereka pada masa itu sudah berlaku suatu peraturan, bahwa mereka tidak akan menindak secara langsung seseorang yang dituduh sebelum ada bukti-bukti, baik berupa persaksian dari seseorang, maupun berupa pengakuan dari pihak yang tertuduh.",
        "intro_surah": "Surah al-Anbiy\u0101\u2019 terdiri atas 112 ayat, termasuk golongan Surah-surah Makkiyyah.\nSurah ini dinamai dengan \u201cal-Anbiy\u0101\u2019\u201d (Nabi-nabi), karena Surah ini mengutarakan kisah beberapa orang nabi. Permulaan Surah al-Anbiy\u0101\u2019 menegaskan bahwa manusia lalai dalam menghadapi hari berhisab, kemudian berhubung adanya pengingkaran kaum musyrik Mekah terhadap wahyu yang dibawa oleh Nabi Muhammad, maka Allah menegaskan bahwa nabi-nabi itu manusia biasa, tetapi masing-masing mereka adalah manusia yang membawa wahyu yang berisi pokok ajaran tauhid, dan keharusan manusia menyembah Allah Penciptanya. Orang yang tidak mau mengakui kekuasaan Allah dan mengingkari ajaran yang dibawa oleh  para nabi akan diazab di dunia dan di akhirat. Kemudian dikemukakan kisah beberapa orang nabi dengan umatnya. Akhirnya Surah ini ditutup dengan seruan agar kaum musyrik Mekah percaya kepada ajaran yang dibawa oleh Nabi Muhammad, supaya tidak mengalami apa yang telah dialami oleh umat-umat yang kafir kepada para nabinya dahulu.\n\nPOKOK-POKOK ISINYA\n1.  Keimanan:\nPara nabi dan para rasul itu selamanya diangkat Allah dari jenis manusia; langit dan bumi akan binasa kalau ada tuhan selain Allah; semua rasul membawa ajaran tauhid dan keharusan manusia menyembah Allah; tiap-tiap yang bernyawa akan merasakan mati; cobaan Allah kepada manusia ada yang berupa kebaikan dan ada pula yang berupa keburukan; hari Kiamat datangnya dengan tiba-tiba.\n\n2.  Kisah:\nKisah Ibrahim a.s., himbauan Ibrahim a.s., kepada ayahnya untuk me-nyembah Allah, bantahan Ibrahim terhadap kaumnya yang menyembah berhala; bantahan Ibrahim a.s. terhadap Namruz yang menganggap dirinya tuhan; kisah para nabi, seperti kisah Nuh a.s., Daud a.s., Sulaiman a.s., Ayyub a.s.; Yunus a.s. dan Zakaria a.s.\n\n3.  Dan lain-lain:\nAl-Qur\u2019an adalah karunia Allah yang agung; tuntutan kaum musyrikin kepada Nabi Muhammad saw untuk mendatangkan mukjizat selain Al-Qur\u2019an; kehancuran suatu umat adalah akibat kezalimannya; Allah menciptakan langit dan bumi beserta hikmah dibalik penciptannya; tanya jawab antara berhala dan penyembahnya dalam neraka; kemunculan Yakjuj dan Makjuj sebagai tanda kedatangan hari Kiamat, bumi akan diwariskan kepada hamba Allah yang dapat memakmurkannya; kejadian alam semesta; segala sesuatu yang hidup berasal dari air.",
        "outro_surah": null,
        "munasabah_prev_surah": "Surah \u1e6c\u0101h\u0101 diakhiri dengan penjelasan bahwa manusia mudah di-pengaruhi oleh kenikmatan hidup duniawi, yang oleh Allah dijadikan sebagai cobaan bagi manusia, juga diakhiri dengan perintah bersabar dan mendirikan salat, serta menerangkan imbalan orang-orang yang bertakwa. Penjelasan ini diulangi kembali pada permulaan Surah al-Anbiy\u0101\u2019 dan ditegaskan bahwa manusia selalu lalai dan lupa terhadap perbuatan-perbuatan yang harus dilaksanakannya sebagai bekal menghadapi hari Kiamat dan berhisab di akhirat nanti.\n",
        "munasabah_prev_theme": "Pada ayat-ayat yang lalu diterangkan bahwa Nabi Ibrahim menentang ayah dan kaumnya yang menyembah berhala dan menyadarkan mereka agar menyembah hanya kepada Allah, Tuhan Yang Maha Pencipta, maka pada ayat-ayat berikut ini dijelaskan tentang penghancuran berhala-berhala yang disembah ayah dan kaumnya, dan reaksi kaumnya terhadap Nabi Ibrahim serta hukuman bakar yang diterimanya dari kaumnya.",
        "theme_group": "NABI IBRAHIM MENGHANCURKAN\nBERHALA-BERHALA",
        "kosakata": "Kosakata: Nukis\u016b \u0646\u064f\u0643\u0650\u0633\u064f\u0648\u0652\u0627 (al-Anbiy\u0101\u2019/21: 65)\nLafal nukis\u016b secara bahasa berarti membalik dari atas ke bawah, yakni menjadikan kepala di bawah dan kaki di atas. Kata tersebut digunakan juga untuk menggambarkan kelahiran anak yang kakinya lebih dahulu keluar sebelum  kepalanya. Ayat menjelaskan bahwa mereka sebelumnya tegak dan garang dalam menghadapi  Nabi Ibrahim, namun berbalik menjadi tunduk dan lesu, karena apa yang dikatakan oleh Nabi Ibrahim adalah benar sesuai dengan kata hatinya.\n",
        "sabab_nuzul": null,
        "conclusion": null
    }
}