{
    "id": 2491,
    "surah_id": 21,
    "ayah": 8,
    "page": 322,
    "quarter_hizb": 33,
    "juz": 17,
    "manzil": 4,
    "arabic": "\u0648\u064e\u0645\u064e\u0627 \u062c\u064e\u0639\u064e\u0644\u0652\u0646\u0670\u0647\u064f\u0645\u0652 \u062c\u064e\u0633\u064e\u062f\u064b\u0627 \u0644\u0651\u064e\u0627 \u064a\u064e\u0623\u0652\u0643\u064f\u0644\u064f\u0648\u0652\u0646\u064e \u0627\u0644\u0637\u0651\u064e\u0639\u064e\u0627\u0645\u064e \u0648\u064e\u0645\u064e\u0627 \u0643\u064e\u0627\u0646\u064f\u0648\u0652\u0627 \u062e\u0670\u0644\u0650\u062f\u0650\u064a\u0652\u0646\u064e ",
    "latin": "Wa m\u0101 ja\u2018aln\u0101hum jasadal l\u0101 ya'kul\u016bna\u1e6d-\u1e6da\u2018\u0101ma wa m\u0101 k\u0101n\u016b kh\u0101lid\u012bn(a). ",
    "translation": "Kami tidak menjadikan mereka (para utusan) sebagai jasad yang tidak membutuhkan makanan. Mereka tidak (pula) hidup kekal.",
    "no_footnote": null,
    "footnotes": null,
    "surah": {
        "id": 21,
        "arabic": " \u0627\u0644\u0627\u0646\u0628\u064a\u0627\u06e4\u0621",
        "latin": "Al-Anbiy\u0101' ",
        "transliteration": "Al-Anbiya'",
        "translation": "Para Nabi",
        "num_ayah": 112,
        "page": 322,
        "location": "Makkiyah"
    },
    "tafsir": {
        "wajiz": "Dan Kami tidak menjadikan mereka, para rasul sebelum engkau, wahai Muhammad, manusia yang menyalahi sifat kemanusiaan, yaitu suatu tubuh yang tidak memakan makanan, tidak membutuhkan minuman sebagai asupan untuk menjaga kelangsungan hidup; dan mereka, para rasul itu, tidak hidup kekal di dunia ini. Mereka pun mati sebagimana manusia pada umumnya.",
        "tahlili": "Kaum musyrikin menyerang Rasulullah, di mana mereka menyinggung sifat-sifat kemanusiaan yang terlihat pada diri Rasulullah saw. Mereka mengatakan, mengapa rasul itu memakan makanan seperti manusia lainnya, dan berjalan di pasar (untuk berdagang), sebagaimana disebutkan dalam Surah al-Furq\u0101n, ayat 7. Maka dalam ayat ini Allah menjelaskan bahwa Dia menjadikan rasul-rasul itu orang-orang yang memakan makanan, dan tidak pula mereka hidup kekal di dunia, karena mereka itu adalah manusia juga, yang memerlukan makanan, minuman, tidur dan hidup berumah tangga. Hanya saja Allah telah memilih mereka untuk menyampaikan risalah-Nya kepada umat manusia, dan diberinya wahyu yang berisi petunjuk dan bimbingan, untuk mengeluarkan umat manusia dari kegelapan kekufuran kepada cahaya iman yang terang benderang. Rasul sebagai pembimbing adalah manusia biasa yang tidak memiliki kualitas supranatural, melainkan hanya diberi wahyu.",
        "intro_surah": "Surah al-Anbiy\u0101\u2019 terdiri atas 112 ayat, termasuk golongan Surah-surah Makkiyyah.\nSurah ini dinamai dengan \u201cal-Anbiy\u0101\u2019\u201d (Nabi-nabi), karena Surah ini mengutarakan kisah beberapa orang nabi. Permulaan Surah al-Anbiy\u0101\u2019 menegaskan bahwa manusia lalai dalam menghadapi hari berhisab, kemudian berhubung adanya pengingkaran kaum musyrik Mekah terhadap wahyu yang dibawa oleh Nabi Muhammad, maka Allah menegaskan bahwa nabi-nabi itu manusia biasa, tetapi masing-masing mereka adalah manusia yang membawa wahyu yang berisi pokok ajaran tauhid, dan keharusan manusia menyembah Allah Penciptanya. Orang yang tidak mau mengakui kekuasaan Allah dan mengingkari ajaran yang dibawa oleh  para nabi akan diazab di dunia dan di akhirat. Kemudian dikemukakan kisah beberapa orang nabi dengan umatnya. Akhirnya Surah ini ditutup dengan seruan agar kaum musyrik Mekah percaya kepada ajaran yang dibawa oleh Nabi Muhammad, supaya tidak mengalami apa yang telah dialami oleh umat-umat yang kafir kepada para nabinya dahulu.\n\nPOKOK-POKOK ISINYA\n1.  Keimanan:\nPara nabi dan para rasul itu selamanya diangkat Allah dari jenis manusia; langit dan bumi akan binasa kalau ada tuhan selain Allah; semua rasul membawa ajaran tauhid dan keharusan manusia menyembah Allah; tiap-tiap yang bernyawa akan merasakan mati; cobaan Allah kepada manusia ada yang berupa kebaikan dan ada pula yang berupa keburukan; hari Kiamat datangnya dengan tiba-tiba.\n\n2.  Kisah:\nKisah Ibrahim a.s., himbauan Ibrahim a.s., kepada ayahnya untuk me-nyembah Allah, bantahan Ibrahim terhadap kaumnya yang menyembah berhala; bantahan Ibrahim a.s. terhadap Namruz yang menganggap dirinya tuhan; kisah para nabi, seperti kisah Nuh a.s., Daud a.s., Sulaiman a.s., Ayyub a.s.; Yunus a.s. dan Zakaria a.s.\n\n3.  Dan lain-lain:\nAl-Qur\u2019an adalah karunia Allah yang agung; tuntutan kaum musyrikin kepada Nabi Muhammad saw untuk mendatangkan mukjizat selain Al-Qur\u2019an; kehancuran suatu umat adalah akibat kezalimannya; Allah menciptakan langit dan bumi beserta hikmah dibalik penciptannya; tanya jawab antara berhala dan penyembahnya dalam neraka; kemunculan Yakjuj dan Makjuj sebagai tanda kedatangan hari Kiamat, bumi akan diwariskan kepada hamba Allah yang dapat memakmurkannya; kejadian alam semesta; segala sesuatu yang hidup berasal dari air.",
        "outro_surah": null,
        "munasabah_prev_surah": "Surah \u1e6c\u0101h\u0101 diakhiri dengan penjelasan bahwa manusia mudah di-pengaruhi oleh kenikmatan hidup duniawi, yang oleh Allah dijadikan sebagai cobaan bagi manusia, juga diakhiri dengan perintah bersabar dan mendirikan salat, serta menerangkan imbalan orang-orang yang bertakwa. Penjelasan ini diulangi kembali pada permulaan Surah al-Anbiy\u0101\u2019 dan ditegaskan bahwa manusia selalu lalai dan lupa terhadap perbuatan-perbuatan yang harus dilaksanakannya sebagai bekal menghadapi hari Kiamat dan berhisab di akhirat nanti.\n",
        "munasabah_prev_theme": "Pada ayat yang lalu Allah telah menegaskan bahwa kaum musyrikin tetap tidak akan beriman, walaupun permintaan mereka untuk mendatangkan mukjizat selain dari Al-Qur\u2019an itu dipenuhi. Maka pada ayat ini Allah menegaskan bahwa sebenarnya tidak ada alasan bagi kaum musyrikin Mekah itu untuk mengingkari bahwa rasul-rasul Allah adalah manusia biasa, sebab semua rasul-rasul yang diutus-Nya sebelum Nabi Muhammad adalah manusia-manusia biasa yang telah diberi-Nya wahyu. \nPada ayat yang lalu Allah telah menegaskan bahwa kaum musyrikin tetap tidak akan beriman, walaupun permintaan mereka untuk mendatangkan mukjizat selain dari Al-Qur\u2019an itu dipenuhi. Maka pada ayat ini Allah menegaskan bahwa sebenarnya tidak ada alasan bagi kaum musyrikin Mekah itu untuk mengingkari bahwa rasul-rasul Allah adalah manusia biasa, sebab semua rasul-rasul yang diutus-Nya sebelum Nabi Muhammad adalah manusia-manusia biasa yang telah diberi-Nya wahyu. \n",
        "theme_group": "JAWABAN ATAS TUDUHAN\nKAUM MUSYRIKIN",
        "kosakata": "Kosakata: Jasadan \u062c\u064e\u0633\u064e\u062f\u064b\u0627 (al-Anbiy\u0101\u2019/21: 8)\nJasad sama artinya dengan jism \u201ctubuh\u201d. Bedanya jism adalah \u201ctubuh\u201d dalam arti umum, sedangkan jasad lebih khusus pengertiannya pada tubuh manusia, misalnya al-Anbiy\u0101\u2019/21:8 ini. Ayat ini menyatakan bahwa nabi-nabi sebelumnya adalah juga manusia yang merupakan tubuh-tubuh yang butuh makan dan tidak abadi. Karena itu keingkaran orang kafir kepada Nabi Muhammad, yang makan dan juga akan mati, tidak beralasan. Dalam Al-Qur\u2019an memang terdapat penggunaan kata jasad untuk yang bukan manusia, seperti \u201canak sapi\u201d (\u1e6c\u0101h\u0101/20:88). Tetapi anak sapi di sini perlu diingat bahwa itu adalah yang dipertuhankan Bani Israil sehingga seakan-akan memiliki kedudukan lebih dari manusia.",
        "sabab_nuzul": null,
        "conclusion": null
    }
}