{
    "id": 2497,
    "surah_id": 21,
    "ayah": 14,
    "page": 323,
    "quarter_hizb": 33,
    "juz": 17,
    "manzil": 4,
    "arabic": "\u0642\u064e\u0627\u0644\u064f\u0648\u0652\u0627 \u064a\u0670\u0648\u064e\u064a\u0652\u0644\u064e\u0646\u064e\u0627\u0653 \u0627\u0650\u0646\u0651\u064e\u0627 \u0643\u064f\u0646\u0651\u064e\u0627 \u0638\u0670\u0644\u0650\u0645\u0650\u064a\u0652\u0646\u064e ",
    "latin": "Q\u0101l\u016b y\u0101 wailan\u0101 inn\u0101 kunn\u0101 \u1e93\u0101lim\u012bn(a).",
    "translation": "Mereka berkata, \u201cBetapa celaka kami! Sesungguhnya kami adalah orang-orang zalim.\u201d",
    "no_footnote": null,
    "footnotes": null,
    "surah": {
        "id": 21,
        "arabic": " \u0627\u0644\u0627\u0646\u0628\u064a\u0627\u06e4\u0621",
        "latin": "Al-Anbiy\u0101' ",
        "transliteration": "Al-Anbiya'",
        "translation": "Para Nabi",
        "num_ayah": 112,
        "page": 322,
        "location": "Makkiyah"
    },
    "tafsir": {
        "wajiz": "Tidak ada jawaban mereka selain pengakuan dengan penuh kesadaran bahwa mereka telah ingkar kepada Allah. Mereka berkata, \u201cBetapa celaka kami, sungguh, kami selama hidup di dunia termasuk orang-orang yang zalim dengan menolak ajaran para rasul.\u201d",
        "tahlili": "Dalam ayat ini Allah menjelaskan apa jawaban kaum kafir itu terhadap perintah di atas, ketika itu barulah mereka menyesal dan mengakui kezaliman yang telah mereka perbuat selama ini. Mereka berkata, \u201cAduhai, celaka sesungguhnya kami adalah orang-orang yang zalim.\u201d Akan tetapi, pengakuan dan penyesalan itu sudah tidak berguna lagi. Azab Allah tidak dapat dielakkan lagi. Sesal dahulu pendapatan, sesal kemudian tidak berguna.",
        "intro_surah": "Surah al-Anbiy\u0101\u2019 terdiri atas 112 ayat, termasuk golongan Surah-surah Makkiyyah.\nSurah ini dinamai dengan \u201cal-Anbiy\u0101\u2019\u201d (Nabi-nabi), karena Surah ini mengutarakan kisah beberapa orang nabi. Permulaan Surah al-Anbiy\u0101\u2019 menegaskan bahwa manusia lalai dalam menghadapi hari berhisab, kemudian berhubung adanya pengingkaran kaum musyrik Mekah terhadap wahyu yang dibawa oleh Nabi Muhammad, maka Allah menegaskan bahwa nabi-nabi itu manusia biasa, tetapi masing-masing mereka adalah manusia yang membawa wahyu yang berisi pokok ajaran tauhid, dan keharusan manusia menyembah Allah Penciptanya. Orang yang tidak mau mengakui kekuasaan Allah dan mengingkari ajaran yang dibawa oleh  para nabi akan diazab di dunia dan di akhirat. Kemudian dikemukakan kisah beberapa orang nabi dengan umatnya. Akhirnya Surah ini ditutup dengan seruan agar kaum musyrik Mekah percaya kepada ajaran yang dibawa oleh Nabi Muhammad, supaya tidak mengalami apa yang telah dialami oleh umat-umat yang kafir kepada para nabinya dahulu.\n\nPOKOK-POKOK ISINYA\n1.  Keimanan:\nPara nabi dan para rasul itu selamanya diangkat Allah dari jenis manusia; langit dan bumi akan binasa kalau ada tuhan selain Allah; semua rasul membawa ajaran tauhid dan keharusan manusia menyembah Allah; tiap-tiap yang bernyawa akan merasakan mati; cobaan Allah kepada manusia ada yang berupa kebaikan dan ada pula yang berupa keburukan; hari Kiamat datangnya dengan tiba-tiba.\n\n2.  Kisah:\nKisah Ibrahim a.s., himbauan Ibrahim a.s., kepada ayahnya untuk me-nyembah Allah, bantahan Ibrahim terhadap kaumnya yang menyembah berhala; bantahan Ibrahim a.s. terhadap Namruz yang menganggap dirinya tuhan; kisah para nabi, seperti kisah Nuh a.s., Daud a.s., Sulaiman a.s., Ayyub a.s.; Yunus a.s. dan Zakaria a.s.\n\n3.  Dan lain-lain:\nAl-Qur\u2019an adalah karunia Allah yang agung; tuntutan kaum musyrikin kepada Nabi Muhammad saw untuk mendatangkan mukjizat selain Al-Qur\u2019an; kehancuran suatu umat adalah akibat kezalimannya; Allah menciptakan langit dan bumi beserta hikmah dibalik penciptannya; tanya jawab antara berhala dan penyembahnya dalam neraka; kemunculan Yakjuj dan Makjuj sebagai tanda kedatangan hari Kiamat, bumi akan diwariskan kepada hamba Allah yang dapat memakmurkannya; kejadian alam semesta; segala sesuatu yang hidup berasal dari air.",
        "outro_surah": null,
        "munasabah_prev_surah": "Surah \u1e6c\u0101h\u0101 diakhiri dengan penjelasan bahwa manusia mudah di-pengaruhi oleh kenikmatan hidup duniawi, yang oleh Allah dijadikan sebagai cobaan bagi manusia, juga diakhiri dengan perintah bersabar dan mendirikan salat, serta menerangkan imbalan orang-orang yang bertakwa. Penjelasan ini diulangi kembali pada permulaan Surah al-Anbiy\u0101\u2019 dan ditegaskan bahwa manusia selalu lalai dan lupa terhadap perbuatan-perbuatan yang harus dilaksanakannya sebagai bekal menghadapi hari Kiamat dan berhisab di akhirat nanti.\n",
        "munasabah_prev_theme": "Pada ayat-ayat yang lalu dijelaskan bahwa Allah membinasakan kaum kafir karena kekufuran mereka yang melampaui batas terhadap-Nya, dan keingkaran mereka terhadap peraturan-peraturan yang telah ditetapkan-Nya, baik berupa perintah maupun larangan. Dalam ayat-ayat ini Allah menerangkan bagaimana proses terjadinya kebinasaan kaum kafir itu, dan apa akibatnya terhadap mereka.\n",
        "theme_group": "CARA ALLAH MEMBINASAKAN\nORANG KAFIR",
        "kosakata": "1. Qa\u1e63amn\u0101 \u0642\u064e\u0635\u064e\u0645\u0652\u0646\u064e\u0627 (al-Anbiy\u0101\u2019/21: 11)\nKata dasarnya adalah qa\u1e63ama artinya \u201cmemecah,\u201d \u201cmenghancurkan\u201d. Dalam al-Anbiy\u0101\u2019/21:11 ini Allah menegaskan bahwa banyak sudah negeri-negeri yang telah Allah hancurkan karena dosa-dosa mereka dan kemudian Allah munculkan setelah itu generasi-generasi baru. Hal itu hendaknya menjadi pelajaran bagi kafir Quraisy. Mereka tidak akan dihancurkan di dunia ini, dan itu sudah menjadi janji-Nya. Tetapi di akhirat mereka pasti menemukan hukuman Allah.\n2. \u1e24a\u1e63\u012bdan Kh\u0101mid\u012bn \u062d\u064e\u0635\u0650\u064a\u0652\u062f\u064b\u0627 \u062e\u064e\u0627\u0645\u0650\u062f\u0650\u064a\u0652\u0646\u064e   (al-Anbiy\u0101\u2019/21:15)\n\u1e25a\u1e63\u012bd terambil dari kata \u1e25a\u1e63ada yang berarti memotong tanaman. Al-\u1e25i\u1e63\u0101d berarti telah datang masa untuk memanen (al-An\u2018\u0101m/6:141). Sedangkan lafal  kh\u0101mid\u012bn adalah bentuk jamak dari lafal kh\u0101mid yang terambil dari kata khamada berarti padam seperti pernyataan khamadat an-n\u0101r (api telah padam). Khamada juga digunakan untuk mengibaratkan sesuatu yang telah mati dan hancur, seperti firman Allah dalam Surah Y\u0101s\u012bn/36 :29 \u201cFa\u2019i\u017c\u0101 hum kh\u0101mid\u016bn\u201d (dengan satu teriakan saja, tiba-tiba mereka semuanya mati). Penafsiran lafal ini adalah ketika orang zalim merasakan azab Allah, mereka berlari dengan tergesa-gesa, sambil berucap, \u201cSungguh celaka kami, sesungguhnya kami termasuk orang-orang zalim.\u201d Tetapi Allah tidak mengindahkan keluh kesah mereka, malah Allah menjadikan mereka seperti tanaman yang telah dituai yang tidak dapat hidup lagi.",
        "sabab_nuzul": null,
        "conclusion": null
    }
}