{
    "id": 2530,
    "surah_id": 21,
    "ayah": 47,
    "page": 326,
    "quarter_hizb": 33.25,
    "juz": 17,
    "manzil": 4,
    "arabic": "\u0648\u064e\u0646\u064e\u0636\u064e\u0639\u064f \u0627\u0644\u0652\u0645\u064e\u0648\u064e\u0627\u0632\u0650\u064a\u0652\u0646\u064e \u0627\u0644\u0652\u0642\u0650\u0633\u0652\u0637\u064e \u0644\u0650\u064a\u064e\u0648\u0652\u0645\u0650 \u0627\u0644\u0652\u0642\u0650\u064a\u0670\u0645\u064e\u0629\u0650 \u0641\u064e\u0644\u064e\u0627 \u062a\u064f\u0638\u0652\u0644\u064e\u0645\u064f \u0646\u064e\u0641\u0652\u0633\u064c \u0634\u064e\u064a\u0652\u0640\u0654\u064b\u0627\u06d7 \u0648\u064e\u0627\u0650\u0646\u0652 \u0643\u064e\u0627\u0646\u064e \u0645\u0650\u062b\u0652\u0642\u064e\u0627\u0644\u064e \u062d\u064e\u0628\u0651\u064e\u0629\u064d \u0645\u0651\u0650\u0646\u0652 \u062e\u064e\u0631\u0652\u062f\u064e\u0644\u064d \u0627\u064e\u062a\u064e\u064a\u0652\u0646\u064e\u0627 \u0628\u0650\u0647\u064e\u0627\u06d7 \u0648\u064e\u0643\u064e\u0641\u0670\u0649 \u0628\u0650\u0646\u064e\u0627 \u062d\u0670\u0633\u0650\u0628\u0650\u064a\u0652\u0646\u064e ",
    "latin": "Wa na\u1e0da\u2018ul-maw\u0101z\u012bnal-qis\u1e6da liyaumil-qiy\u0101mati fal\u0101 tu\u1e93lamu nafsun syai'\u0101(n), wa in k\u0101na mi\u1e61q\u0101la \u1e25abbatim min khardalin atain\u0101 bih\u0101, wa kaf\u0101 bin\u0101 \u1e25\u0101sib\u012bn(a).",
    "translation": "Kami akan meletakkan timbangan (amal) yang tepat pada hari Kiamat, sehingga tidak seorang pun dirugikan walaupun sedikit. Sekalipun (amal itu) hanya seberat biji sawi, pasti Kami mendatangkannya. Cukuplah Kami sebagai pembuat perhitungan.",
    "no_footnote": null,
    "footnotes": null,
    "surah": {
        "id": 21,
        "arabic": " \u0627\u0644\u0627\u0646\u0628\u064a\u0627\u06e4\u0621",
        "latin": "Al-Anbiy\u0101' ",
        "transliteration": "Al-Anbiya'",
        "translation": "Para Nabi",
        "num_ayah": 112,
        "page": 322,
        "location": "Makkiyah"
    },
    "tafsir": {
        "wajiz": "Dalam menilai perbuatan hamba-hamba-Nya di akhirat, Allah menjamin akan menegakkan keadilan yang sebenarnya. Dan Kami akan memasang timbangan yang tepat pada hari Kiamat, dengan data yang objektif dan akurat; maka tidak seorang pun dirugikan walau sedikit, sehingga tidak ada seorang hamba yang amal kebaikannya dikurangi atau kejahatannya dilebih-lebihkan, sekalipun hanya seberat biji sawi, pasti Kami mendatangkan pahala untuk perbuatan baik dan hukuman untuk perbuatan jahat. Dan cukuplah Kami yang membuat perhitungan terhadap perbuatan manusia dengan seadil-adilnya, objektif, tepat, dan akurat.",
        "tahlili": "Dengan tegas Allah menyatakan dalam ayat ini, bahwa dalam menilai perbuatan hamba-Nya kelak di hari Kiamat. Allah akan menegakkan neraca keadilan yang benar-benar adil, sehingga tidak seorang pun akan dirugikan dalam penilaian itu. \nMaksudnya penilaian itu akan dilakukan setepat-tepatnya, sehingga tidak akan ada seorang hamba yang amal kebaikannya akan dikurangi sedikit pun, sehingga menyebabkan pahalanya dikurangi dari yang semestinya ia terima. Sebaliknya tidak seorang pun di antara mereka yang kejahatannya dilebih-lebihkan, sehingga menyebabkan ia mendapat azab yang lebih berat daripada yang semestinya, walaupun Allah kuasa berbuat demikian.\nAdapun memberikan pahala yang berlipat ganda dari jumlah kebaikannya atau menimpakan azab yang lebih ringan dari kejahatannya adalah terserah kepada kehendak Allah, dan Allah adalah Maha Pengasih dan Maha Penyayang. \nDalam keadilan Allah dijelaskan bahwa semua kebajikan manusia, betapapun kecilnya niscaya dibalas-Nya dengan pahala, dan semua kejahatannya betapapun kecilnya niscaya dibalas-Nya dengan azab atau siksa-Nya. Dalam hubungan ini, Allah berfirman dalam ayat yang lain:\n\u0641\u064e\u0645\u064e\u0646\u0652 \u064a\u0651\u064e\u0639\u0652\u0645\u064e\u0644\u0652 \u0645\u0650\u062b\u0652\u0642\u064e\u0627\u0644\u064e \u0630\u064e\u0631\u0651\u064e\u0629\u064d \u062e\u064e\u064a\u0652\u0631\u064b\u0627 \u064a\u0651\u064e\u0631\u064e\u0647\u0657\u06da \u0667 \u0648\u064e\u0645\u064e\u0646\u0652 \u064a\u0651\u064e\u0639\u0652\u0645\u064e\u0644\u0652 \u0645\u0650\u062b\u0652\u0642\u064e\u0627\u0644\u064e \u0630\u064e\u0631\u0651\u064e\u0629\u064d \u0634\u064e\u0631\u0651\u064b\u0627 \u064a\u0651\u064e\u0631\u064e\u0647\u0657 \u08d6 \u0668\nMaka barang siapa mengerjakan kebaikan seberat zarrah, niscaya dia akan melihat (balasan)nya, dan barang siapa mengerjakan kejahatan seberat zarrah, niscaya dia akan melihat (balasan)nya.(az-Zalz\u0101lah/99: 7-8)\n\nKemampuan teknologi saat ini telah mampu mencatat segala peristiwa dengan teliti dan menyimpan dalam waktu yang lama, apalagi kemampuan Allah.\nPada akhir ayat ini Allah menegaskan bahwa cukuplah Dia sebagai saksi pembuat perhitungan yang paling adil. Ini merupakan jaminan bahwa penilaian yang akan dilakukan terhadap segala perbuatan hamba-Nya akan dilakukan-Nya kelak di hari perhitungan dengan penilaian yang seadil-adilnya, sehingga tidak seorang pun hamba yang dirugikan atau dianiaya ketika menerima pahala dari kebaikannya atau menerima azab dari kejahatan yang telah dilakukannya.",
        "intro_surah": "Surah al-Anbiy\u0101\u2019 terdiri atas 112 ayat, termasuk golongan Surah-surah Makkiyyah.\nSurah ini dinamai dengan \u201cal-Anbiy\u0101\u2019\u201d (Nabi-nabi), karena Surah ini mengutarakan kisah beberapa orang nabi. Permulaan Surah al-Anbiy\u0101\u2019 menegaskan bahwa manusia lalai dalam menghadapi hari berhisab, kemudian berhubung adanya pengingkaran kaum musyrik Mekah terhadap wahyu yang dibawa oleh Nabi Muhammad, maka Allah menegaskan bahwa nabi-nabi itu manusia biasa, tetapi masing-masing mereka adalah manusia yang membawa wahyu yang berisi pokok ajaran tauhid, dan keharusan manusia menyembah Allah Penciptanya. Orang yang tidak mau mengakui kekuasaan Allah dan mengingkari ajaran yang dibawa oleh  para nabi akan diazab di dunia dan di akhirat. Kemudian dikemukakan kisah beberapa orang nabi dengan umatnya. Akhirnya Surah ini ditutup dengan seruan agar kaum musyrik Mekah percaya kepada ajaran yang dibawa oleh Nabi Muhammad, supaya tidak mengalami apa yang telah dialami oleh umat-umat yang kafir kepada para nabinya dahulu.\n\nPOKOK-POKOK ISINYA\n1.  Keimanan:\nPara nabi dan para rasul itu selamanya diangkat Allah dari jenis manusia; langit dan bumi akan binasa kalau ada tuhan selain Allah; semua rasul membawa ajaran tauhid dan keharusan manusia menyembah Allah; tiap-tiap yang bernyawa akan merasakan mati; cobaan Allah kepada manusia ada yang berupa kebaikan dan ada pula yang berupa keburukan; hari Kiamat datangnya dengan tiba-tiba.\n\n2.  Kisah:\nKisah Ibrahim a.s., himbauan Ibrahim a.s., kepada ayahnya untuk me-nyembah Allah, bantahan Ibrahim terhadap kaumnya yang menyembah berhala; bantahan Ibrahim a.s. terhadap Namruz yang menganggap dirinya tuhan; kisah para nabi, seperti kisah Nuh a.s., Daud a.s., Sulaiman a.s., Ayyub a.s.; Yunus a.s. dan Zakaria a.s.\n\n3.  Dan lain-lain:\nAl-Qur\u2019an adalah karunia Allah yang agung; tuntutan kaum musyrikin kepada Nabi Muhammad saw untuk mendatangkan mukjizat selain Al-Qur\u2019an; kehancuran suatu umat adalah akibat kezalimannya; Allah menciptakan langit dan bumi beserta hikmah dibalik penciptannya; tanya jawab antara berhala dan penyembahnya dalam neraka; kemunculan Yakjuj dan Makjuj sebagai tanda kedatangan hari Kiamat, bumi akan diwariskan kepada hamba Allah yang dapat memakmurkannya; kejadian alam semesta; segala sesuatu yang hidup berasal dari air.",
        "outro_surah": null,
        "munasabah_prev_surah": "Surah \u1e6c\u0101h\u0101 diakhiri dengan penjelasan bahwa manusia mudah di-pengaruhi oleh kenikmatan hidup duniawi, yang oleh Allah dijadikan sebagai cobaan bagi manusia, juga diakhiri dengan perintah bersabar dan mendirikan salat, serta menerangkan imbalan orang-orang yang bertakwa. Penjelasan ini diulangi kembali pada permulaan Surah al-Anbiy\u0101\u2019 dan ditegaskan bahwa manusia selalu lalai dan lupa terhadap perbuatan-perbuatan yang harus dilaksanakannya sebagai bekal menghadapi hari Kiamat dan berhisab di akhirat nanti.\n",
        "munasabah_prev_theme": "Pada ayat yang lalu telah disebutkan bahwa tugas pokok Rasulullah adalah menyampaikan wahyu Allah yang memperingatkan tentang akibat-akibat kekufuran kepada Allah. Adapun hisab dan balasan atas perbuatan manusia adalah termasuk kekuasaan Allah. Maka pada ayat ini Allah men-jelaskan sifat keadilan-Nya, baik dalam menilai atau melakukan hisab atas perbuatan hamba-Nya, maupun dalam memberikan balasan berupa pahala atau pun siksa.",
        "theme_group": "KEADILAN TUHAN",
        "kosakata": "Kosakata: Maw\u0101z\u012bn \u0645\u064e\u0648\u064e\u0627\u0632\u0650\u064a\u0652\u0646 (al-Anbiy\u0101\u2019/21: 47)\nLafal maw\u0101z\u012bn adalah bentuk jamak dari lafal m\u012bz\u0101n, artinya timbangan. Lafal ini mengisyaratkan bahwa setiap amal yang lahir maupun yang batin kelak akan ditimbang atau mempunyai tolok ukur  masing-masing, sehingga semua amal benar-benar menghasilkan ketepatan timbangan.",
        "sabab_nuzul": null,
        "conclusion": "1. \tKeadilan Allah di hari Kiamat kelak berlaku dalam penilaian dan pemberian balasan atas segala perbuatan hamba-Nya.\n2. \tAllah adalah Penilai yang paling adil, sehingga tidak seorang pun di antara hamba-Nya akan dirugikan atau dianiaya dalam penilaian-Nya."
    }
}