{
    "id": 2545,
    "surah_id": 21,
    "ayah": 62,
    "page": 327,
    "quarter_hizb": 33.5,
    "juz": 17,
    "manzil": 4,
    "arabic": "\u0642\u064e\u0627\u0644\u064f\u0648\u0652\u0653\u0627 \u0621\u064e\u0627\u064e\u0646\u0652\u062a\u064e \u0641\u064e\u0639\u064e\u0644\u0652\u062a\u064e \u0647\u0670\u0630\u064e\u0627 \u0628\u0650\u0627\u0670\u0644\u0650\u0647\u064e\u062a\u0650\u0646\u064e\u0627 \u064a\u0670\u0653\u0627\u0650\u0628\u0652\u0631\u0670\u0647\u0650\u064a\u0652\u0645\u064f \u06d7",
    "latin": "Q\u0101l\u016b a'anta fa\u2018alta h\u0101\u017c\u0101 bi'\u0101lihatin\u0101 y\u0101 ibr\u0101h\u012bm(u).",
    "translation": "Mereka bertanya, \u201cApakah engkau yang melakukan (perbuatan) ini terhadap tuhan-tuhan kami, wahai Ibrahim?\u201d",
    "no_footnote": null,
    "footnotes": null,
    "surah": {
        "id": 21,
        "arabic": " \u0627\u0644\u0627\u0646\u0628\u064a\u0627\u06e4\u0621",
        "latin": "Al-Anbiy\u0101' ",
        "transliteration": "Al-Anbiya'",
        "translation": "Para Nabi",
        "num_ayah": 112,
        "page": 322,
        "location": "Makkiyah"
    },
    "tafsir": {
        "wajiz": "Dalam pengadilan terbuka, penegak hukum mengajukan pertanyaan-pertanyaan kepada Ibrahim. Mereka bertanya, \u201cApakah engkau, yang melakukan penghancuran ini terhadap tuhan-tuhan kami, wahai Ibrahim?\u201d",
        "tahlili": "Pada ayat ini diterangkan bahwa setelah Ibrahim mereka hadapkan kepada orang banyak, maka mereka mengadakan penyelidikan dan pemeriksaan terhadapnya dengan mengajukan pertanyaan, apakah betul dia yang melakukan pengrusakan terhadap berhala-berhala itu. Pertanyaan ini mereka ajukan dengan harapan bahwa Ibrahim akan mengakui bahwa dialah yang melakukan pengrusakan itu. Pengakuan itu akan mereka jadikan alasan untuk menghukum Ibrahim. ",
        "intro_surah": "Surah al-Anbiy\u0101\u2019 terdiri atas 112 ayat, termasuk golongan Surah-surah Makkiyyah.\nSurah ini dinamai dengan \u201cal-Anbiy\u0101\u2019\u201d (Nabi-nabi), karena Surah ini mengutarakan kisah beberapa orang nabi. Permulaan Surah al-Anbiy\u0101\u2019 menegaskan bahwa manusia lalai dalam menghadapi hari berhisab, kemudian berhubung adanya pengingkaran kaum musyrik Mekah terhadap wahyu yang dibawa oleh Nabi Muhammad, maka Allah menegaskan bahwa nabi-nabi itu manusia biasa, tetapi masing-masing mereka adalah manusia yang membawa wahyu yang berisi pokok ajaran tauhid, dan keharusan manusia menyembah Allah Penciptanya. Orang yang tidak mau mengakui kekuasaan Allah dan mengingkari ajaran yang dibawa oleh  para nabi akan diazab di dunia dan di akhirat. Kemudian dikemukakan kisah beberapa orang nabi dengan umatnya. Akhirnya Surah ini ditutup dengan seruan agar kaum musyrik Mekah percaya kepada ajaran yang dibawa oleh Nabi Muhammad, supaya tidak mengalami apa yang telah dialami oleh umat-umat yang kafir kepada para nabinya dahulu.\n\nPOKOK-POKOK ISINYA\n1.  Keimanan:\nPara nabi dan para rasul itu selamanya diangkat Allah dari jenis manusia; langit dan bumi akan binasa kalau ada tuhan selain Allah; semua rasul membawa ajaran tauhid dan keharusan manusia menyembah Allah; tiap-tiap yang bernyawa akan merasakan mati; cobaan Allah kepada manusia ada yang berupa kebaikan dan ada pula yang berupa keburukan; hari Kiamat datangnya dengan tiba-tiba.\n\n2.  Kisah:\nKisah Ibrahim a.s., himbauan Ibrahim a.s., kepada ayahnya untuk me-nyembah Allah, bantahan Ibrahim terhadap kaumnya yang menyembah berhala; bantahan Ibrahim a.s. terhadap Namruz yang menganggap dirinya tuhan; kisah para nabi, seperti kisah Nuh a.s., Daud a.s., Sulaiman a.s., Ayyub a.s.; Yunus a.s. dan Zakaria a.s.\n\n3.  Dan lain-lain:\nAl-Qur\u2019an adalah karunia Allah yang agung; tuntutan kaum musyrikin kepada Nabi Muhammad saw untuk mendatangkan mukjizat selain Al-Qur\u2019an; kehancuran suatu umat adalah akibat kezalimannya; Allah menciptakan langit dan bumi beserta hikmah dibalik penciptannya; tanya jawab antara berhala dan penyembahnya dalam neraka; kemunculan Yakjuj dan Makjuj sebagai tanda kedatangan hari Kiamat, bumi akan diwariskan kepada hamba Allah yang dapat memakmurkannya; kejadian alam semesta; segala sesuatu yang hidup berasal dari air.",
        "outro_surah": null,
        "munasabah_prev_surah": "Surah \u1e6c\u0101h\u0101 diakhiri dengan penjelasan bahwa manusia mudah di-pengaruhi oleh kenikmatan hidup duniawi, yang oleh Allah dijadikan sebagai cobaan bagi manusia, juga diakhiri dengan perintah bersabar dan mendirikan salat, serta menerangkan imbalan orang-orang yang bertakwa. Penjelasan ini diulangi kembali pada permulaan Surah al-Anbiy\u0101\u2019 dan ditegaskan bahwa manusia selalu lalai dan lupa terhadap perbuatan-perbuatan yang harus dilaksanakannya sebagai bekal menghadapi hari Kiamat dan berhisab di akhirat nanti.\n",
        "munasabah_prev_theme": "Pada ayat-ayat yang lalu diterangkan bahwa Nabi Ibrahim menentang ayah dan kaumnya yang menyembah berhala dan menyadarkan mereka agar menyembah hanya kepada Allah, Tuhan Yang Maha Pencipta, maka pada ayat-ayat berikut ini dijelaskan tentang penghancuran berhala-berhala yang disembah ayah dan kaumnya, dan reaksi kaumnya terhadap Nabi Ibrahim serta hukuman bakar yang diterimanya dari kaumnya.",
        "theme_group": "NABI IBRAHIM MENGHANCURKAN\nBERHALA-BERHALA",
        "kosakata": "Kosakata: Nukis\u016b \u0646\u064f\u0643\u0650\u0633\u064f\u0648\u0652\u0627 (al-Anbiy\u0101\u2019/21: 65)\nLafal nukis\u016b secara bahasa berarti membalik dari atas ke bawah, yakni menjadikan kepala di bawah dan kaki di atas. Kata tersebut digunakan juga untuk menggambarkan kelahiran anak yang kakinya lebih dahulu keluar sebelum  kepalanya. Ayat menjelaskan bahwa mereka sebelumnya tegak dan garang dalam menghadapi  Nabi Ibrahim, namun berbalik menjadi tunduk dan lesu, karena apa yang dikatakan oleh Nabi Ibrahim adalah benar sesuai dengan kata hatinya.\n",
        "sabab_nuzul": null,
        "conclusion": null
    }
}