{
    "id": 2484,
    "surah_id": 21,
    "ayah": 1,
    "page": 322,
    "quarter_hizb": 33,
    "juz": 17,
    "manzil": 4,
    "arabic": "\u0627\u0650\u0642\u0652\u062a\u064e\u0631\u064e\u0628\u064e \u0644\u0650\u0644\u0646\u0651\u064e\u0627\u0633\u0650 \u062d\u0650\u0633\u064e\u0627\u0628\u064f\u0647\u064f\u0645\u0652 \u0648\u064e\u0647\u064f\u0645\u0652 \u0641\u0650\u064a\u0652 \u063a\u064e\u0641\u0652\u0644\u064e\u0629\u064d \u0645\u0651\u064f\u0639\u0652\u0631\u0650\u0636\u064f\u0648\u0652\u0646\u064e \u06da ",
    "latin": "Iqtaraba lin-n\u0101si \u1e25is\u0101buhum wa hum f\u012b gaflatim mu\u2018ri\u1e0d\u016bn(a). ",
    "translation": "Telah makin dekat kepada manusia perhitungan (amal) mereka, sedangkan mereka dalam keadaan lengah lagi berpaling (darinya).",
    "no_footnote": null,
    "footnotes": null,
    "surah": {
        "id": 21,
        "arabic": " \u0627\u0644\u0627\u0646\u0628\u064a\u0627\u06e4\u0621",
        "latin": "Al-Anbiy\u0101' ",
        "transliteration": "Al-Anbiya'",
        "translation": "Para Nabi",
        "num_ayah": 112,
        "page": 322,
        "location": "Makkiyah"
    },
    "tafsir": {
        "wajiz": "Telah semakin dekat kepada manusia, yang kafir dan yang menyekutukan Allah, perhitungan amal mereka, pada hari Kiamat tentang semua yang mereka kerjakan di dunia, sedang mereka dalam keadaan lalai tentang dahsyatnya hari Kiamat, karena kesibukan mereka tentang dunia, mereka berpalingdari iman terhadap akhirat.",
        "tahlili": "Dalam ayat ini Allah menjelaskan bahwa hari hisab atau perhitungan amal untuk manusia sudah dekat. Pada hari hisab itu kelak akan diperhitungkan semua perbuatan yang telah mereka lakukan selagi mereka hidup di dunia. Selain itu, semua nikmat yang telah dilimpahkan Allah kepada mereka diminta pertanggungjawabannya, baik nikmat yang ada pada diri mereka sendiri, seperti akal pikiran, makanan dan minuman, serta anak keturunan dan harta benda. Mereka akan ditanya, apa yang telah mereka perbuat dengan semua nikmat itu? Apakah karunia Allah tersebut mereka gunakan untuk berbuat kebajikan dalam rangka ketaatan kepada-Nya, ataukah semuanya itu digunakan untuk melakukan perbuatan-perbuatan yang membuktikan keingkaran dan kedurhakaan mereka kepada-Nya?\nAllah menegaskan bahwa manusia sesungguhnya lalai terhadap apa yang akan diperbuat Allah kelak terhadap mereka di hari Kiamat. Kelalaian itulah yang menyebabkan mereka tidak mau berpikir mengenai hari Kiamat, sehingga mereka tidak mempersiapkan diri sebaik-baiknya untuk menjaga keselamatan diri mereka dari azab Allah.\nOrang-orang yang dimaksud dalam ayat ini adalah kaum musyrikin. Mereka adalah orang-orang yang tidak beriman tentang adanya hari Kiamat, dan mengingkari adanya hari kebangkitan dan hari hisab. Namun demikian, ayat ini memperingatkan kepada mereka bahwa hari hisab sudah dekat. Ini adalah untuk menekankan, bahwa hari Kiamat, termasuk hari kebangkitan dan hari hisab, pasti akan datang, walaupun mereka itu tidak mempercayainya; dan hari hisab itu akan diikuti pula oleh hari-hari pembalasan terhadap amal-amal yang baik atau pun yang buruk.\nKaum musyrikin itu lalai dan tidak mau berpikir tentang nasib jelek yang akan mereka temui kelak pada hari hisab dan hari pembalasan itu. Padahal, dengan akal sehat semata, orang dapat meyakini, bahwa perbuatan yang baik sepantasnya dibalas dengan kebaikan, dan perbuatan yang jahat sepatutnya dibalas dengan azab dan siksa. Akan tetapi karena mereka itu tidak mau memikirkan akibat buruk yang akan mereka terima di akhirat kelak, maka mereka senantiasa memalingkan muka dan menutup telinga, setiap kali mereka diperingatkan dengan ayat-ayat Al-Qur\u2019an, yang berisi ancaman dan sebagainya.",
        "intro_surah": "Surah al-Anbiy\u0101\u2019 terdiri atas 112 ayat, termasuk golongan Surah-surah Makkiyyah.\nSurah ini dinamai dengan \u201cal-Anbiy\u0101\u2019\u201d (Nabi-nabi), karena Surah ini mengutarakan kisah beberapa orang nabi. Permulaan Surah al-Anbiy\u0101\u2019 menegaskan bahwa manusia lalai dalam menghadapi hari berhisab, kemudian berhubung adanya pengingkaran kaum musyrik Mekah terhadap wahyu yang dibawa oleh Nabi Muhammad, maka Allah menegaskan bahwa nabi-nabi itu manusia biasa, tetapi masing-masing mereka adalah manusia yang membawa wahyu yang berisi pokok ajaran tauhid, dan keharusan manusia menyembah Allah Penciptanya. Orang yang tidak mau mengakui kekuasaan Allah dan mengingkari ajaran yang dibawa oleh  para nabi akan diazab di dunia dan di akhirat. Kemudian dikemukakan kisah beberapa orang nabi dengan umatnya. Akhirnya Surah ini ditutup dengan seruan agar kaum musyrik Mekah percaya kepada ajaran yang dibawa oleh Nabi Muhammad, supaya tidak mengalami apa yang telah dialami oleh umat-umat yang kafir kepada para nabinya dahulu.\n\nPOKOK-POKOK ISINYA\n1.  Keimanan:\nPara nabi dan para rasul itu selamanya diangkat Allah dari jenis manusia; langit dan bumi akan binasa kalau ada tuhan selain Allah; semua rasul membawa ajaran tauhid dan keharusan manusia menyembah Allah; tiap-tiap yang bernyawa akan merasakan mati; cobaan Allah kepada manusia ada yang berupa kebaikan dan ada pula yang berupa keburukan; hari Kiamat datangnya dengan tiba-tiba.\n\n2.  Kisah:\nKisah Ibrahim a.s., himbauan Ibrahim a.s., kepada ayahnya untuk me-nyembah Allah, bantahan Ibrahim terhadap kaumnya yang menyembah berhala; bantahan Ibrahim a.s. terhadap Namruz yang menganggap dirinya tuhan; kisah para nabi, seperti kisah Nuh a.s., Daud a.s., Sulaiman a.s., Ayyub a.s.; Yunus a.s. dan Zakaria a.s.\n\n3.  Dan lain-lain:\nAl-Qur\u2019an adalah karunia Allah yang agung; tuntutan kaum musyrikin kepada Nabi Muhammad saw untuk mendatangkan mukjizat selain Al-Qur\u2019an; kehancuran suatu umat adalah akibat kezalimannya; Allah menciptakan langit dan bumi beserta hikmah dibalik penciptannya; tanya jawab antara berhala dan penyembahnya dalam neraka; kemunculan Yakjuj dan Makjuj sebagai tanda kedatangan hari Kiamat, bumi akan diwariskan kepada hamba Allah yang dapat memakmurkannya; kejadian alam semesta; segala sesuatu yang hidup berasal dari air.",
        "outro_surah": null,
        "munasabah_prev_surah": "Surah \u1e6c\u0101h\u0101 diakhiri dengan penjelasan bahwa manusia mudah di-pengaruhi oleh kenikmatan hidup duniawi, yang oleh Allah dijadikan sebagai cobaan bagi manusia, juga diakhiri dengan perintah bersabar dan mendirikan salat, serta menerangkan imbalan orang-orang yang bertakwa. Penjelasan ini diulangi kembali pada permulaan Surah al-Anbiy\u0101\u2019 dan ditegaskan bahwa manusia selalu lalai dan lupa terhadap perbuatan-perbuatan yang harus dilaksanakannya sebagai bekal menghadapi hari Kiamat dan berhisab di akhirat nanti.\n",
        "munasabah_prev_theme": "Pada akhir Surah \u1e6c\u0101h\u0101 Allah memerintahkan kepada Muhammad untuk mengatakan bahwa masing-masing manusia saling menunggu apa yang akan terjadi pada dirinya sebagai konsekwensi dari jalan hidup yang ditempuh di dunia, baik mereka yang mengikuti petunjuk-Nya atau yang mengingkari-Nya. Pada permulaan Surah al-Anbiy\u0101\u2019 diterangkan bahwa pada saat hari perhitungan semakin dekat, manusia ternyata masih dalam keadaan lalai  bahkan berpaling dari hari hisab itu. ",
        "theme_group": "KELALAIAN MANUSIA AKAN HARI KIAMAT DAN SIKAP KAUM MUSYRIKIN TERHADAP NABI MUHAMMAD SERTA AL-QUR\u2019AN",
        "kosakata": "1.  Mu\u1e25da\u1e61 \u0645\u064f\u062d\u0652\u062f\u064e\u062b\u0652 (al-Anbiy\u0101\u2019/21: 2)\nKata ini berasal dari akar kata \u1e25ada\u1e61a artinya \u201cterwujudnya sesuatu dari tiada\u201d. A\u1e25da\u1e61a adalah bentuk transitif dari kata dasar itu, artinya adalah \u201cmewujudkan\u201d. Dari kata dasar itu dibentuk kata benda subyek mu\u1e25di\u1e61 \u201cpewujud,\u201d \u201cpencipta.\u201d Dan mu\u1e25da\u1e61 adalah bentuk kata benda obyeknya, \u201cyang terwujud\u201d \u201cyang tercipta\u201d. Dari akar kata itu dibentuk kata \u1e25adi\u1e61 yaitu segala yang diungkapkan sehingga terdengar, karena hal itu juga mengandung arti mencipta. Dalam al-Anbiy\u0101\u2019/21: 2 Allah menyampaikan bahwa apa saja peringatan, yaitu ayat Al-Qur\u2019an, yang mu\u1e25da\u1e61, yaitu yang diwujudkan atau diungkapkan kepada orang-orang kafir itu, mereka mendengarnya, tetapi mereka mengabaikannya.\n2. A\u1e0dg\u0101\u1e61u A\u1e25l\u0101m \u0623\u064e\u0636\u0652\u063a\u064e\u0627\u062b\u064f \u0623\u064e\u062d\u0652\u0644\u064e\u0627\u0645\u064d (al-Anbiy\u0101\u2019/21: 5)\nA\u1e0dg\u0101\u1e61 adalah bentuk jamak dig\u1e61 yang artinya \u201cseikat kembang, lidi, atau ranting\u201d, misalnya firman-Nya, \u201cAmbillah seikat lidi,\u201d \u1e62\u0101d/38:44, perintah Allah kepada Nabi Ayub agar melecut istrinya yang mengabaikannya ketika ia ditimpa sakit parah, sebagai hukuman bagi isterinya itu. Dan a\u1e25l\u0101m adalah jamak \u1e25ilm atau \u1e25ulm yaitu \u201cpenglihatan pada ketika tidur\u201d yakni \u201cmimpi\u201d. Dengan demikian a\u1e0dg\u0101\u1e61 a\u1e25l\u0101m (al-Anbiy\u0101\u2019/21:5) berarti mimpi yang campur aduk, semrawut, sulit ditakwilkan, seperti campur aduknya lidi, ranting, atau bunga dalam satu ikatan. Itu adalah penilaian orang-orang kafir terhadap Al-Qur\u2019an, di samping tuduhan mereka: sihir, dibikin-bikin, atau syair. \u1e25ilm dalam Al-Qur\u2019an berarti pula \u201cmengendalikan diri dari marah\u201d yang berarti bahwa orang itu sudah menunjukkan kedewasaannya atau kematangan pikirannya, sehingga kata \u1e25ilm kadang-kadang diartikan dengan \u201cpikiran\u201d. Dalam Al-Qur\u2019an terdapat ayat, \u201cApakah kedewasaan mereka menyuruh mereka (menyampaikan tuduhan) ini (yaitu menuduh Nabi Muhammad dukun, gila, atau penyair), ataukah mereka orang-orang yang melewati batas?,\u201d (a\u1e6d-\u1e6c\u016br/52:32), pertanyaan Allah yang ditujukan kepada orang kafir Mekah. Dan \u1e25ulm adalah usia akil baligh, misalnya ayat, \u201cBila anak-anak sudah sampai \u1e25ulm (kematangannya/akil baligh), maka mereka harus minta izin (bila masuk kamar orang tuanya) (an-N\u016br/24:59). ",
        "sabab_nuzul": null,
        "conclusion": null
    }
}