{
    "id": 2504,
    "surah_id": 21,
    "ayah": 21,
    "page": 323,
    "quarter_hizb": 33,
    "juz": 17,
    "manzil": 4,
    "arabic": "\u0627\u064e\u0645\u0650 \u0627\u062a\u0651\u064e\u062e\u064e\u0630\u064f\u0648\u0652\u0653\u0627 \u0627\u0670\u0644\u0650\u0647\u064e\u0629\u064b \u0645\u0651\u0650\u0646\u064e \u0627\u0644\u0652\u0627\u064e\u0631\u0652\u0636\u0650 \u0647\u064f\u0645\u0652 \u064a\u064f\u0646\u0652\u0634\u0650\u0631\u064f\u0648\u0652\u0646\u064e ",
    "latin": "Amittakha\u017c\u016b \u0101lihatam minal-ar\u1e0di  hum yunsyir\u016bn(a).",
    "translation": "Apakah mereka mengambil dari bumi tuhan-tuhan yang dapat menghidupkan (orang-orang yang mati)?",
    "no_footnote": null,
    "footnotes": null,
    "surah": {
        "id": 21,
        "arabic": " \u0627\u0644\u0627\u0646\u0628\u064a\u0627\u06e4\u0621",
        "latin": "Al-Anbiy\u0101' ",
        "transliteration": "Al-Anbiya'",
        "translation": "Para Nabi",
        "num_ayah": 112,
        "page": 322,
        "location": "Makkiyah"
    },
    "tafsir": {
        "wajiz": "Mengapa orang-orang kafir tidak beriman kepada Allah dan beribadah kepada-Nya dengan ikhlas? Apakah mereka mengambil tuhan-tuhan dari bumi, seperti patung dan berhala yang mereka duga dapat menghidupkan orang-orang yang mati?",
        "tahlili": "Dalam ayat ini Allah menunjukkan kesesatan dan kebodohan kaum musyrikin, karena mereka tidak berpegang kepada ajaran tauhid, bahkan menyembah \u201ctuhan-tuhan yang berasal dari bumi,\u201d yaitu patung-patung yang merupakan benda mati, yang dibuat oleh tangan mereka sendiri yang berasal dari benda-benda bumi. Sudah pasti, bahwa benda mati tidak akan dapat memelihara dan mengelola makhluk hidup apalagi menghidupkan orang-orang yang sudah mati. Sedang Tuhan kuasa berbuat demikian.\nPatung-patung yang mereka sembah itu dalam ayat ini disebut sebagai \u2018tuhan-tuhan dari bumi\u2019. Ini menunjukkan betapa rendahnya martabat tuhan mereka itu, sebab tuhan-tuhan tersebut mereka buat dari tanah, atau dari benda-benda yang lain yang terdapat di bumi ini, dan hanya disembah oleh manusia. Sedang Tuhan yang sebenarnya, disembah oleh seluruh makhluk, baik di bumi maupun di langit.\nDengan demikian jelaslah betapa sesatnya kepercayaan dan perbuatan kaum musyrikin itu, karena mereka mempertuhankan apa-apa yang tidak sepantasnya untuk dipertuhankan.",
        "intro_surah": "Surah al-Anbiy\u0101\u2019 terdiri atas 112 ayat, termasuk golongan Surah-surah Makkiyyah.\nSurah ini dinamai dengan \u201cal-Anbiy\u0101\u2019\u201d (Nabi-nabi), karena Surah ini mengutarakan kisah beberapa orang nabi. Permulaan Surah al-Anbiy\u0101\u2019 menegaskan bahwa manusia lalai dalam menghadapi hari berhisab, kemudian berhubung adanya pengingkaran kaum musyrik Mekah terhadap wahyu yang dibawa oleh Nabi Muhammad, maka Allah menegaskan bahwa nabi-nabi itu manusia biasa, tetapi masing-masing mereka adalah manusia yang membawa wahyu yang berisi pokok ajaran tauhid, dan keharusan manusia menyembah Allah Penciptanya. Orang yang tidak mau mengakui kekuasaan Allah dan mengingkari ajaran yang dibawa oleh  para nabi akan diazab di dunia dan di akhirat. Kemudian dikemukakan kisah beberapa orang nabi dengan umatnya. Akhirnya Surah ini ditutup dengan seruan agar kaum musyrik Mekah percaya kepada ajaran yang dibawa oleh Nabi Muhammad, supaya tidak mengalami apa yang telah dialami oleh umat-umat yang kafir kepada para nabinya dahulu.\n\nPOKOK-POKOK ISINYA\n1.  Keimanan:\nPara nabi dan para rasul itu selamanya diangkat Allah dari jenis manusia; langit dan bumi akan binasa kalau ada tuhan selain Allah; semua rasul membawa ajaran tauhid dan keharusan manusia menyembah Allah; tiap-tiap yang bernyawa akan merasakan mati; cobaan Allah kepada manusia ada yang berupa kebaikan dan ada pula yang berupa keburukan; hari Kiamat datangnya dengan tiba-tiba.\n\n2.  Kisah:\nKisah Ibrahim a.s., himbauan Ibrahim a.s., kepada ayahnya untuk me-nyembah Allah, bantahan Ibrahim terhadap kaumnya yang menyembah berhala; bantahan Ibrahim a.s. terhadap Namruz yang menganggap dirinya tuhan; kisah para nabi, seperti kisah Nuh a.s., Daud a.s., Sulaiman a.s., Ayyub a.s.; Yunus a.s. dan Zakaria a.s.\n\n3.  Dan lain-lain:\nAl-Qur\u2019an adalah karunia Allah yang agung; tuntutan kaum musyrikin kepada Nabi Muhammad saw untuk mendatangkan mukjizat selain Al-Qur\u2019an; kehancuran suatu umat adalah akibat kezalimannya; Allah menciptakan langit dan bumi beserta hikmah dibalik penciptannya; tanya jawab antara berhala dan penyembahnya dalam neraka; kemunculan Yakjuj dan Makjuj sebagai tanda kedatangan hari Kiamat, bumi akan diwariskan kepada hamba Allah yang dapat memakmurkannya; kejadian alam semesta; segala sesuatu yang hidup berasal dari air.",
        "outro_surah": null,
        "munasabah_prev_surah": "Surah \u1e6c\u0101h\u0101 diakhiri dengan penjelasan bahwa manusia mudah di-pengaruhi oleh kenikmatan hidup duniawi, yang oleh Allah dijadikan sebagai cobaan bagi manusia, juga diakhiri dengan perintah bersabar dan mendirikan salat, serta menerangkan imbalan orang-orang yang bertakwa. Penjelasan ini diulangi kembali pada permulaan Surah al-Anbiy\u0101\u2019 dan ditegaskan bahwa manusia selalu lalai dan lupa terhadap perbuatan-perbuatan yang harus dilaksanakannya sebagai bekal menghadapi hari Kiamat dan berhisab di akhirat nanti.\n",
        "munasabah_prev_theme": "Pada ayat-ayat yang lalu Allah menerangkan bahwa banyak di antara umat-umat yang mendustakan para rasul telah dibinasakan Allah, dan diganti dengan umat yang lain. Juga diterangkan, bahwa setelah mereka merasakan azab dan siksaan Allah, maka mereka menyesali dirinya, akan tetapi penyesalan itu sudah tidak berguna lagi. Maka pada ayat-ayat ini, Allah menjelaskan bukti-bukti kesesatan kaum musyrikin yang menyekutukan Allah dengan tuhan-tuhan lain, bahkan mereka mengatakan bahwa Allah mengambil anak dari jenis malaikat, padahal malaikat adalah makhluk yang dimuliakan. Allah mengancam kaum musyrikin dengan neraka Jahannam. ",
        "theme_group": "BUKTI-BUKTI KESESATAN KAUM MUSYRIKIN",
        "kosakata": "1.\tBurh\u0101nakum  \u0628\u064f\u0631\u0652\u0647\u064e\u0627\u0646\u064e\u0643\u064f\u0645\u0652    (al-Anbiy\u0101\u2019/21:24)\nLafal burh\u0101n merupakan bentukan dari lafal baraha dengan menggunakan pola fu\u2019l\u0101n yang berarti hujjah atau bukti, atau ia bentuk ma\u1e63dar dari kata baraha yabrahu yang berarti memutih, seperti ungkapan rajul abrah artinya lelaki yang putih. Barahratun artinya pemuda yang memiliki kulit yang sangat putih. Burhatun adalah waktu atau periode yang sangat singkat. Lafal burh\u0101n merupakan bukti yang paling kuat yang senantiasa menunjukkan kebenaran, karena dalil (bukti) terbagi menjadi lima bagian yaitu: dilalah yang pasti menunjukkan kebenaran, dilalah yang pasti menunjukan kebohongan, dilalah yang mendekati kebenaran, dilalah yang mendekati kebohongan, dan dilalah yang mendekati kepada keduanya. Qul h\u0101t\u016b burh\u0101nakum yang dimaksud dalam ayat ini adalah tantangan dari Allah kepada mereka yang menjadikan tuhan-tuhan selain Allah. Artinya tunjukkanlah bukti atau hujjah yang bisa membuktikan bahwa tuhan-tuhan itu dapat menghidupkan yang mati, karena sekiranya di alam ini ada tuhan-tuhan selain Allah tentu langit dan bumi akan mengalami kerusakan. \n2.\tMu\u2018ri\u1e0d\u016bn  \u0645\u064f\u0639\u0652\u0631\u0650\u0636\u064f\u0648\u0652\u0646\u064e  (al-Anbiy\u0101\u2019/21: 24)\nLafal mu\u2018ri\u1e0d\u016bn merupakan bentuk jamak dari lafal mu\u2018ri\u1e0d yang terambil dari kata \u2018ara\u1e0da antonim dari lafal \u1e6d\u016bl (panjang) yang berarti lebar.  Awalnya lafal ini digunakan pada jism kemudian dijadikan ungkapan kepada selain jism. \u2018Ara\u1e0da memiliki makna yang banyak, diantaranya adalah mengemukakan, memamerkan atau mendemonstrasikan seperti firman Allah: \u201c\u1e61umma \u2018ara\u1e0dahum \u2018alal-mal\u0101\u2019ikah\u201d (kemudian Adam mengemukakan kepada para malaikat) (al-Baqarah/2:31). \u2018Ara\u1e0da juga diartikan dengan barang-barang kenikmatan duniawi yang bersifat fana (al-Anf\u0101l/8:67) \u2018Ara\u1e0da juga diartikan dengan awan seperti yang disebutkan dalam al-A\u1e25q\u0101f/46 : 24. al-\u2018Ur\u1e0dah adalah penghalang (al-Baqarah/2: 224). Ba\u2018\u012br \u2018ur\u1e0dah berarti unta itu menjadi penghalang dalam perjalanan. A\u2018ra\u1e0da juga berarti berpaling, menghindar atau membuang. Arti inilah yang dimaksud dalam ayat di atas, yaitu bahwa orang-orang musyrik  tidak akan menjawab terhadap tantangan yang dikemukakan oleh Nabi Muhammad, sehingga mereka  berpaling dari Allah.\n3. Musyfiq\u016bn  \u0645\u064f\u0634\u0652\u0641\u0650\u0642\u064f\u0648\u0652\u0646\u064e  (al-Anbiy\u0101\u2019/21:28)\nMusyfiq\u016bn bentuk jamak dari lafal musyfiq yang terambil dari kata syafaqa yang berarti bercampurnya cahaya siang hari dengan gelapnya malam seiring dengan terbenamnya matahari. Allah bersumpah dalam Surah al-Insyiq\u0101q/84:16, \u201cFal\u0101 uqsimu bisy-syafaq\u201d (Maka sesungguhnya Allah bersumpah dengan cahaya merah di waktu senja). Dari lafal syafaqa lahir kata isyf\u0101q yang berarti perasaan kasihan yang bercampur antara rasa takut dan simpati. Seorang musyfiq (yang merasa kasihan) menyayangi musyfaq \u2018alaih (yang dikasihani) dan merasa takut sesuatu yang tidak diinginkan terjadi padanya. Jika lafal asyfaqa diikuti oleh huruf min maka menunjukkan perasaan takut lebih dominan, sedangkan jika diikuti dengan huruf fi maka rasa kasihan lebih besar. Dalam ayat ini dijelaskan tuduhan orang-orang kafir bahwa para malaikat adalah anak-anak Allah sangatlah keliru dan salah, karena sesungguhnya para malaikat adalah hamba-hamba Allah yang mulia, yang selalu berhati-hati karena merasa takut dan senantiasa patuh serta tunduk kepada-Nya. ",
        "sabab_nuzul": null,
        "conclusion": null
    }
}