{
    "id": 2584,
    "surah_id": 21,
    "ayah": 101,
    "page": 330,
    "quarter_hizb": 33.75,
    "juz": 17,
    "manzil": 4,
    "arabic": "\u0627\u0650\u0646\u0651\u064e \u0627\u0644\u0651\u064e\u0630\u0650\u064a\u0652\u0646\u064e \u0633\u064e\u0628\u064e\u0642\u064e\u062a\u0652 \u0644\u064e\u0647\u064f\u0645\u0652 \u0645\u0651\u0650\u0646\u0651\u064e\u0627 \u0627\u0644\u0652\u062d\u064f\u0633\u0652\u0646\u0670\u0649\u0653\u06d9 \u0627\u064f\u0648\u0644\u0670\u06e4\u0649\u0655\u0650\u0643\u064e \u0639\u064e\u0646\u0652\u0647\u064e\u0627 \u0645\u064f\u0628\u0652\u0639\u064e\u062f\u064f\u0648\u0652\u0646\u064e \u06d9",
    "latin": "Innal-la\u017c\u012bna sabaqat lahum minnal-\u1e25usn\u0101, ul\u0101'ika \u2018anh\u0101 mub\u2018ad\u016bn(a).",
    "translation": "Sesungguhnya orang-orang yang telah ada (ketetapan) yang baik untuk mereka dari Kami, mereka akan dijauhkan (dari neraka).",
    "no_footnote": null,
    "footnotes": null,
    "surah": {
        "id": 21,
        "arabic": " \u0627\u0644\u0627\u0646\u0628\u064a\u0627\u06e4\u0621",
        "latin": "Al-Anbiy\u0101' ",
        "transliteration": "Al-Anbiya'",
        "translation": "Para Nabi",
        "num_ayah": 112,
        "page": 322,
        "location": "Makkiyah"
    },
    "tafsir": {
        "wajiz": "Sungguh, merupakan ketetapan Kami yang mutlak, sejak dahulu bagi orang-orang yang telah ada ketetapan yang baik dari Kami, yang terpadu dengan pilihan, sikap, dan perbuatan mereka yang baik pula, mereka itu dengan seizin-Nya akan dijauhkan dari neraka.",
        "tahlili": "Pada ayat ini diterangkan keadaan orang-orang yang beriman dan mengerjakan amal saleh serta orang-orang yang telah diberi Allah taufik untuk taat kepada-Nya, bahwa mereka tidak dimasukkan ke dalam neraka bahkan mereka sedikit pun tidak didekatkan kepadanya.\nDiriwayatkan oleh al-\u1e25\u0101kim dari Ibnu Abbas, bahwa waktu ayat 98 diturunkan, orang-orang musyrik Quraisy merasa terpukul karenanya. Mereka berkata, \u201cMuhammad telah memaki-maki tuhan-tuhan kita. Lalu mereka pergi kepada Ibnu az-Ziba\u2019ra dan menceritakan tentang ayat yang diturunkan itu, dia menjawab, \u201cKalau saya berhadapan dengan Muhammad tentulah saya dapat membantahnya.\u201d Orang-orang musyrik Quraisy itu berkata, \u201cApakah yang kamu katakan.\u201d Dia menjawab, \u201cAku mengatakan kepadanya, \u201cAl- M\u0101sih disembah orang-orang Nasrani, \u2018Uzair disembah orang Yahudi, apakah Al-M\u0101sih dan \u2018Uzair itu akan menjadi bahan bakar api neraka? Orang-orang Quraisy tertarik hatinya mendengar ucapan Ibnu az-Ziba\u2019ra dan merasa telah dapat mengalahkan Muhammad. Maka turunlah ayat 99 sampai 101 Surah ini, yang menegaskan ayat 98 di atas.\nDengan turunnya ayat-ayat ini Ibnu az-Ziba\u2019ra bungkam dan bimbanglah kembali hati orang-orang musyrik. Tetapi karena kedengkian mereka kepada Nabi Muhammad dan kaum Muslimin, maka mereka tetap dalam kemusyrikan mereka.",
        "intro_surah": "Surah al-Anbiy\u0101\u2019 terdiri atas 112 ayat, termasuk golongan Surah-surah Makkiyyah.\nSurah ini dinamai dengan \u201cal-Anbiy\u0101\u2019\u201d (Nabi-nabi), karena Surah ini mengutarakan kisah beberapa orang nabi. Permulaan Surah al-Anbiy\u0101\u2019 menegaskan bahwa manusia lalai dalam menghadapi hari berhisab, kemudian berhubung adanya pengingkaran kaum musyrik Mekah terhadap wahyu yang dibawa oleh Nabi Muhammad, maka Allah menegaskan bahwa nabi-nabi itu manusia biasa, tetapi masing-masing mereka adalah manusia yang membawa wahyu yang berisi pokok ajaran tauhid, dan keharusan manusia menyembah Allah Penciptanya. Orang yang tidak mau mengakui kekuasaan Allah dan mengingkari ajaran yang dibawa oleh  para nabi akan diazab di dunia dan di akhirat. Kemudian dikemukakan kisah beberapa orang nabi dengan umatnya. Akhirnya Surah ini ditutup dengan seruan agar kaum musyrik Mekah percaya kepada ajaran yang dibawa oleh Nabi Muhammad, supaya tidak mengalami apa yang telah dialami oleh umat-umat yang kafir kepada para nabinya dahulu.\n\nPOKOK-POKOK ISINYA\n1.  Keimanan:\nPara nabi dan para rasul itu selamanya diangkat Allah dari jenis manusia; langit dan bumi akan binasa kalau ada tuhan selain Allah; semua rasul membawa ajaran tauhid dan keharusan manusia menyembah Allah; tiap-tiap yang bernyawa akan merasakan mati; cobaan Allah kepada manusia ada yang berupa kebaikan dan ada pula yang berupa keburukan; hari Kiamat datangnya dengan tiba-tiba.\n\n2.  Kisah:\nKisah Ibrahim a.s., himbauan Ibrahim a.s., kepada ayahnya untuk me-nyembah Allah, bantahan Ibrahim terhadap kaumnya yang menyembah berhala; bantahan Ibrahim a.s. terhadap Namruz yang menganggap dirinya tuhan; kisah para nabi, seperti kisah Nuh a.s., Daud a.s., Sulaiman a.s., Ayyub a.s.; Yunus a.s. dan Zakaria a.s.\n\n3.  Dan lain-lain:\nAl-Qur\u2019an adalah karunia Allah yang agung; tuntutan kaum musyrikin kepada Nabi Muhammad saw untuk mendatangkan mukjizat selain Al-Qur\u2019an; kehancuran suatu umat adalah akibat kezalimannya; Allah menciptakan langit dan bumi beserta hikmah dibalik penciptannya; tanya jawab antara berhala dan penyembahnya dalam neraka; kemunculan Yakjuj dan Makjuj sebagai tanda kedatangan hari Kiamat, bumi akan diwariskan kepada hamba Allah yang dapat memakmurkannya; kejadian alam semesta; segala sesuatu yang hidup berasal dari air.",
        "outro_surah": null,
        "munasabah_prev_surah": "Surah \u1e6c\u0101h\u0101 diakhiri dengan penjelasan bahwa manusia mudah di-pengaruhi oleh kenikmatan hidup duniawi, yang oleh Allah dijadikan sebagai cobaan bagi manusia, juga diakhiri dengan perintah bersabar dan mendirikan salat, serta menerangkan imbalan orang-orang yang bertakwa. Penjelasan ini diulangi kembali pada permulaan Surah al-Anbiy\u0101\u2019 dan ditegaskan bahwa manusia selalu lalai dan lupa terhadap perbuatan-perbuatan yang harus dilaksanakannya sebagai bekal menghadapi hari Kiamat dan berhisab di akhirat nanti.\n",
        "munasabah_prev_theme": "Pada ayat-ayat yang lalu diterangkan keadaan orang kafir pada saat dekatnya kedatangan hari kebangkitan dari kubur. Mereka menyesali diri mereka, karena mereka tidak mempunyai persiapan dan bekal untuk menghadapi hari kebangkitan itu. Maka pada ayat-ayat ini diterangkan keadaan orang-orang musyrik serta sembahan-sembahan mereka, semuanya akan dimasukkan ke dalam api neraka yang menyala. Diterangkan pula keadaan mereka dan keadaan orang-orang yang beriman di dalam surga.",
        "theme_group": "KEADAAN ORANG MUSYRIK DAN ORANG \nMUKMIN DI AKHIRAT  ",
        "kosakata": "1. \u1e25a\u1e63abu Jahannam \u062d\u064e\u0635\u064e\u0628\u064f \u062c\u064e\u0647\u064e\u0646\u0651\u064e\u0645\u064e (al-Anbiy\u0101\u2019/21: 98)\nIstilah \u1e25a\u1e63abu jahannam terdiri dari dua kata, yaitu \u1e25a\u1e63ab dan jahannam. Yang pertama (\u1e25a\u1e63ab) berasal dari kata kerja  \u1e25a\u1e63aba-ya\u1e25\u1e63ibu/ya\u1e25\u1e63ubu, yang artinya melempar dengan kerikil. \u1e25a\u1e63ab sendiri artinya adalah sesuatu yang dilempar ke dalam api sebagai bahan bakarnya, seperti kayu dan lainnya. Dalam ayat ini \u1e25a\u1e63ab diartikan sebagai apa yang dilempar ke dalam api untuk bahan bakar agar gejolak apinya bertambah. Yang kedua (jahannam) adalah tempat penyiksaan yang terdapat di akhirat, atau yang biasa disebut neraka. Dengan demikian, \u1e25a\u1e63abu jahannam maksudnya adalah bahan bakar neraka yang menjadi tempat penyiksaan di akhirat bagi orang-orang yang berbuat maksiat. Ungkapan ini mengisyaratkan bahwa orang yang beribadah kepada selain Allah dan yang disembah akan mendapat balasan yang pedih, yaitu dijadikan sebagai bahan bakar neraka jahannam. Dijadikannya sesembahan kaum musyrikin sebagai bahan bakar neraka merupakan siksaan tersendiri bagi para penyembah itu, karena mereka menyaksikan sendiri apa yang sepenuhnya bertentangan dengan kepercayaan mereka. \n2. Kh\u0101lid\u016bn  \u062e\u064e\u0627\u0644\u0650\u062f\u064f\u0648\u0652\u0646\u064e(al-Anbiy\u0101\u2019/21: 99)\nKh\u0101lid\u016bn merupakan bentuk jamak mu\u017cakar salim dari kh\u0101lid yang merupakan bentuk ism f\u0101\u2019il dari kata kerja khalada-yakhludu yang maknanya kekal atau abadi. Dengan demikian kh\u0101lid\u016bn berarti mereka menjadi kekal. Namun perlu diingat bahwa satu-satunya yang kekal itu hanya Allah. Sedangkan mahluk pada dasarnya tidak kekal, hanya saja mereka dikekalkan Allah dengan tujuan agar mereka dapat merasakan balasan dari perbuatan yang telah dilakukan. Karenanya, Allah itu kekal dengan sendiri-Nya (bi nafsihi), sedang mahluk kekal karena dikekalkan Allah (bi gairihi).\n3. Zaf\u012br \u0632\u064e\u0641\u0650\u064a\u0652\u0631  (al-Anbiy\u0101\u2019/21: 100)\nZaf\u012br merupakan bentuk ma\u1e63dar dari kata kerja zafara-yazfiru, yang artinya suara gejolak, suara tarikan nafas panjang, suara lenguhan keledai yang pertama. Dalam ayat ini, zaf\u012br diartikan sebagai suara rintihan nafas dari seseorang yang disertai rasa sakit yang kadang-kadang terdengar seperti orang yang tercekik karena nafas yang sesak. Dalam ayat ini, zaf\u012br dimaksudkan untuk menggambarkan rintihan orang musyrik ketika menarik nafas pada saat disiksa akibat perilaku syirik, yaitu menyembah kepada selain Allah.",
        "sabab_nuzul": null,
        "conclusion": null
    }
}