{
    "id": 2637,
    "surah_id": 22,
    "ayah": 42,
    "page": 337,
    "quarter_hizb": 34.5,
    "juz": 17,
    "manzil": 4,
    "arabic": "\u0648\u064e\u0627\u0650\u0646\u0652 \u064a\u0651\u064f\u0643\u064e\u0630\u0651\u0650\u0628\u064f\u0648\u0652\u0643\u064e \u0641\u064e\u0642\u064e\u062f\u0652 \u0643\u064e\u0630\u0651\u064e\u0628\u064e\u062a\u0652 \u0642\u064e\u0628\u0652\u0644\u064e\u0647\u064f\u0645\u0652 \u0642\u064e\u0648\u0652\u0645\u064f \u0646\u064f\u0648\u0652\u062d\u064d \u0648\u0651\u064e\u0639\u064e\u0627\u062f\u064c \u0648\u0651\u064e\u062b\u064e\u0645\u064f\u0648\u0652\u062f\u064f \u06d9",
    "latin": "Wa iy yuka\u017c\u017cib\u016bka faqad ka\u017c\u017cabat qablahum qaumu n\u016b\u1e25iw wa \u2018\u0101duw wa \u1e61am\u016bd(u).",
    "translation": "Jika mereka (orang-orang musyrik) mendustakan engkau (Nabi Muhammad), sungguh, sebelum mereka, kaum (Nabi) Nuh, \u2018Ad, dan Samud telah mendustakan (para rasul).",
    "no_footnote": null,
    "footnotes": null,
    "surah": {
        "id": 22,
        "arabic": "\u0627\u0644\u062d\u062c\u0651",
        "latin": "Al-\u1e24ajj",
        "transliteration": "Al-Hajj",
        "translation": "Haji",
        "num_ayah": 78,
        "page": 332,
        "location": "Madaniyah"
    },
    "tafsir": {
        "wajiz": "Dan jika mereka, orang-orang musyrik yang kaya dan berkuasa di Mekah, mendustakan ajaran engkau, Muhammad, yang bersumber dari wahyu Allah,maka sungguh begitulah sikap kaum sebelum mereka, mendustakan ajaran yang dibawa oleh para nabi mereka seperti kaum Nuh, \u2018Ad, dan Samud, dan demikian juga sifat dan karakter kaum Ibrahim dan kaum Lut yang secara terbuka menantang dan mendustakan ajaran para nabi yang diutus kepada mereka.",
        "tahlili": "Ayat-ayat ini merupakan penawar hati Nabi Muhammad saw dan hati para sahabat yang sedang susah dan gundah akibat tindakan sewenang-wenang yang dilakukan orang-orang musyrik Mekah terhadap mereka. Seakan-akan Allah mengatakan kepada Nabi Muhammad, hai Muhammad jika orang-orang musyrik Mekah mendustakanmu, tidak mengindahkanmu, bahkan menentang seruan engkau, berbuat kerusakan di muka bumi, menyakiti dan menyiksa para sahabatmu dengan cara yang beraneka ragam, janganlah kamu bersedih hati, janganlah putus asa dan kuatkanlah hatimu dalam menghadapi mereka, karena umat-umat dahulu pun telah men-dustakan para rasul yang diutus kepada mereka, tetapi Aku memberikan pertolongan kepada mereka, sehingga kemenangan berada pada mereka.\nAllah berfirman:\n\u062d\u064e\u062a\u0651\u0670\u0653\u0649 \u0627\u0650\u0630\u064e\u0627 \u0627\u0633\u0652\u062a\u064e\u064a\u0652\u0640\u0654\u064e\u0633\u064e \u0627\u0644\u0631\u0651\u064f\u0633\u064f\u0644\u064f \u0648\u064e\u0638\u064e\u0646\u0651\u064f\u0648\u0652\u0653\u0627 \u0627\u064e\u0646\u0651\u064e\u0647\u064f\u0645\u0652 \u0642\u064e\u062f\u0652 \u0643\u064f\u0630\u0650\u0628\u064f\u0648\u0652\u0627 \u062c\u064e\u0627\u06e4\u0621\u064e\u0647\u064f\u0645\u0652 \u0646\u064e\u0635\u0652\u0631\u064f\u0646\u064e\u0627\u06d9 \u0641\u064e\u0646\u064f\u062c\u0651\u0650\u064a\u064e \u0645\u064e\u0646\u0652 \u0646\u0651\u064e\u0634\u064e\u0627\u06e4\u0621\u064f \u06d7\u0648\u064e\u0644\u064e\u0627 \u064a\u064f\u0631\u064e\u062f\u0651\u064f \u0628\u064e\u0623\u0652\u0633\u064f\u0646\u064e\u0627 \u0639\u064e\u0646\u0650 \u0627\u0644\u0652\u0642\u064e\u0648\u0652\u0645\u0650 \u0627\u0644\u0652\u0645\u064f\u062c\u0652\u0631\u0650\u0645\u0650\u064a\u0652\u0646\u064e \u0661\u0661\u0660\nSehingga apabila para rasul tidak mempunyai harapan lagi (tentang keimanan kaumnya) dan telah meyakini bahwa mereka telah didustakan, datanglah kepada mereka (para rasul) itu pertolongan Kami, lalu diselamatkan orang yang Kami kehendaki. Dan siksa Kami tidak dapat ditolak dari orang yang berdosa. (Y\u016bsuf/12: 110)\nDemikianlah Nuh as telah didustakan oleh kaumnya, mereka mengancam dan mendurhakainya, termasuk anaknya sendiri. Nabi Hud as telah didustakan oleh kaumnya, yaitu kaum \u2018\u0100d, Nabi Saleh oleh kaumnya, yaitu kaum Sam\u016bd, begitu pula Ibrahim, Lut, Syu\u2019aib. Semuanya didustakan oleh kaumnya, disakiti dan disiksa, tetapi mereka tetap tabah dan sabar. Semakin keras siksa dan penentangan dari kaumnya, semakin bertambah kuat iman mereka. Akhirnya kemenangan berada di pihak mereka.\nMusa telah didustakan oleh Fir\u2018aun dan kaumnya, mereka tidak mempercayai semua mukjizat yang diperlihatkan Musa, sekalipun mereka tidak dapat mengalahkan Musa as atau mendatangkan mukjizat seperti mukjizat Nabi Musa itu. Karena mereka tetap ingkar, maka sunnah Allah berlaku bagi mereka, yaitu Allah menolong orang-orang yang beriman dan menghancurkan semua orang kafir yang durhaka kepada-Nya, pada saat yang ditentukan-Nya.\nPerhatikanlah sejarah umat-umat dahulu yang menentang para rasul yang diutus kepada mereka, akhirnya semua ditimpa malapetaka yang dahsyat, sehingga kesombongan, kegembiraan dan kesenangan yang ada pada mereka beralih seketika menjadi kesedihan dan kesengsaraan yang tiada taranya. Kemudian setelah mengalami malapetaka yang dahsyat itu, di akhirat mereka akan ditimpa azab yang pedih. Mengubah suatu kemewahan dan kesenangan menjadi suatu kesengsaraan dan penderitaan, suatu kemenangan berubah menjadi suatu kekalahan dalam waktu yang sangat singkat amatlah mudah bagi Allah Yang Mahakuasa dan Maha Bijaksana melakukannya.\nAllah berfirman:\n\u0627\u0650\u0646\u0651\u064e \u0628\u064e\u0637\u0652\u0634\u064e \u0631\u064e\u0628\u0651\u0650\u0643\u064e \u0644\u064e\u0634\u064e\u062f\u0650\u064a\u0652\u062f\u064c \u06d7 \u0661\u0662\nSungguh, azab Tuhanmu sangat keras. (al-Bur\u016bj/85: 12)\nDan firman Allah:\n\u0648\u064e\u0643\u064e\u0630\u0670\u0644\u0650\u0643\u064e \u0627\u064e\u062e\u0652\u0630\u064f \u0631\u064e\u0628\u0651\u0650\u0643\u064e \u0627\u0650\u0630\u064e\u0627\u0653 \u0627\u064e\u062e\u064e\u0630\u064e \u0627\u0644\u0652\u0642\u064f\u0631\u0670\u0649 \u0648\u064e\u0647\u0650\u064a\u064e \u0638\u064e\u0627\u0644\u0650\u0645\u064e\u0629\u064c \u06d7\u0627\u0650\u0646\u0651\u064e \u0627\u064e\u062e\u0652\u0630\u064e\u0647\u0657\u0653 \u0627\u064e\u0644\u0650\u064a\u0652\u0645\u064c \u0634\u064e\u062f\u0650\u064a\u0652\u062f\u064c \u0661\u0660\u0662\nDan begitulah siksa Tuhanmu apabila Dia menyiksa (penduduk) negeri-negeri yang berbuat zalim. Sungguh, siksa-Nya sangat pedih, sangat berat. (H\u016bd/11: 102)",
        "intro_surah": "Surah al-\u1e24ajj termasuk surah-surah Madaniyah, terdiri atas 78 ayat, menurut pendapat sebagian mufasir, surah ini termasuk golongan surah-surah Makiyah. Sebab perbedaan pendapat ini ialah karena sebagian ayat-ayat surah ini, ada yang diturunkan di Mekah dan sebagian lagi ada yang diturunkan di Medinah.\nSurah ini dinamai \u201cal-\u1e24ajj\u201d, karena mengemukakan hal-hal yang berhubungan dengan ibadah haji, seperti ihram, tawaf, sa\u2019i, wuquf di Arafah, mencukur rambut serta menerangkan tentang syiar-syiar Allah, faedah-faedah dan hikmah-hikmah disyariatkan haji, dan sebagainya. Ditegaskan pula bahwa ibadah haji itu telah disyariatkan semenjak masa Nabi Nuh as dan Ka\u2019bah didirikan kembali oleh Nabi Ibrahim as bersama putranya Ismail as.\nMenurut al-Gaznawi, Surah al-\u1e24ajj termasuk surah-surah yang ajaib; diturunkan di malam hari dan di siang hari, ketika musafir dan dalam keadaan tidak musafir, ada ayat-ayat yang diturunkan di Mekah, dan ada pula ayat-ayat yang diturunkan di Medinah, isinya ada yang berhubungan dengan peperangan dan ada pula yang berhubungan dengan perdamaian, ada ayat-ayat yang mu\u1e25kam\u0101t dan ada pula ayat-ayat yang mutasy\u0101bih\u0101t:\n\nPOKOK-POKOK ISINYA\n1.  Keimanan: \nKeimanan tentang adanya kebangkitan, dan huru hara yang terjadi pada hari Kiamat; keadaan alam semesta serta aturan-aturan dan proses kejadiannya dapat dijadikan bukti tentang Keesaan dan kekuasaan Allah.\n2.  Hukum:\nKewajiban haji bagi kaum Muslimin yang mampu; ibadah haji adalah ibadah yang telah disyariatkan sejak Nabi Ibrahim; hukum berdusta; larangan menyembah berhala; binatang-binatang yang halal dimakan; hukum menghalang-halangi manusia dari jalan Allah dan dari Masjidil Haram; izin berperang untuk mempertahankan diri dan agama; hukum-hukum yang berhubungan dengan haji.\n3.  Dan lain-lain:\nMembantah kebenaran tanpa pengetahuan adalah perbuatan yang tercela; tanda-tanda takwa yang sampai ke hati; tiap-tiap agama yang dibawa rasul-rasul dahulu mempunyai syariat tertentu dan cara-cara melakukannya; pahala orang yang mati karena berhijrah di jalan Allah; agama Islam tidak menimbulkan kesempitan bagi pemeluknya; sikap orang kafir bila mendengar ayat-ayat Al-Qur\u2019an; anjuran berjihad yang dilakukan dengan sungguh-sungguh; celaan agama Islam terhadap orang-orang yang tidak tetap pendiriannya dan selalu mencari keuntungan untuk diri sendiri.",
        "outro_surah": null,
        "munasabah_prev_surah": "MUNASABAH SURAH AL-ANBIY\u0100\u2019\nDENGAN SURAH AL-\u1e24AJJ\n\n1. \tPada akhir Surah al-Anbiy\u0101\u2019 dikemukakan hal-hal yang berhubungan dengan hari Kiamat, sedang pada bagian permulaan Surah al-\u1e24ajj mengemukakan bukti-bukti adanya hari kebangkitan dengan dalil akal.\n2. \tSurah al-Anbiy\u0101\u2019 mengutarakan bahwa Allah tidak menjadikan manusia sebagai makhluk yang kekal hidupnya; semuanya akan mengalami kematian. Kemudian mereka dibangkitkan di hari Kiamat untuk dihisab tentang perbuatan-perbuatan yang telah mereka lakukan di dunia. Pada Surah al-\u1e24ajj diterangkan bahwa manusia dapat menjadikan dalil keadaan yang terdapat di alam semesta, dari apa kepada tidak ada dan sebaliknya, sebagai bukti bahwa janji Allah tentang hari kebangkitan akan menjadi kenyataan.\n3. \tSurah al-Anbiy\u0101\u2019 menerangkan kisah nabi-nabi, dan dalil-dalil yang dipaparkan kepada kaumnya tentang kebenaran agama yang dibawanya, sedang Surah al-\u1e24ajj menuntut agar manusia memperhatikan aneka ragam ciptaan Allah dan pengaturannya, untuk memperkuat kepercayaan kepada kebenaran agama Allah.\n",
        "munasabah_prev_theme": "Pada ayat-ayat yang lalu Allah menerangkan kezaliman orang-orang musyrik Mekah terhadap Nabi Muhammad saw dan para sahabatnya, mereka mengusir Nabi dan para sahabat dari kampung halamannya, karena itu Allah mengizinkan mereka untuk membela diri dengan mengangkat senjata dan Allah menjanjikan kemenangan bagi mereka. Pada ayat ini Allah menenangkan hati Nabi yang sedih, karena tindakan orang-orang kafir itu, agar beliau tabah dan sabar, karena sudah menjadi kelaziman sejak dahulu bahwa rasul-rasul Allah dan pengikutnya selalu mengalami kesengsaraan dan penderitaan akibat tindakan orang-orang yang menentang mereka. Tetapi kemenangan selalu berada dipihak para rasul dan pengikutnya. Demikian pula halnya dengan Nabi Muhammad dan para sahabat, mereka juga akan menang, seperti rasul-rasul dahulu telah memperoleh kemenangan.\n",
        "theme_group": "AYAT-AYAT ALLAH SEBAGAI PELIPUR \nHATI NABI MUHAMMAD SAW",
        "kosakata": "1. Bi\u2019r Mu\u2019a\u1e6d\u1e6dalah  \u0628\u0650\u0626\u0652\u0631\u064d  \u0645\u064f\u0639\u064e\u0637\u0651\u064e\u0644\u064e\u0629\u064d   (al-\u1e24ajj/22:45)\nArtinya sumur yang sudah ditinggalkan. Kata mu\u2019a\u1e6d\u1e6dalah, akar katanya adalah \u0639- \u0637- \u0644)) menunjukkan arti kosong (khuluw-farag). Dari pengertian asal ini muncul pengertian lain seperti tidak diperhatikan, dibiarkan, dan lain sebagainya terkait dengan konteksnya. Seperti unta yang ditinggalkan dan dibiarkan begitu saja oleh pemiliknya.   Firman Allah    ( \u0648\u0627\u0630\u0627 \u0627\u0644\u0639\u0634\u0627\u0631 \u0639\u0637\u0644\u062a ) (at-Takw\u012br/81:4) artinya \u201cDan ketika unta-unta yang bunting ditinggalkan (tidak dipedulikan).\u201d Sumur yang sudah tidak digunakan dan tidak dipakai lagi, juga disebut dengan bi\u2019r mu\u2019a\u1e6d\u1e6dalah  sebagaimana pada ayat ini. Baik unta maupun sumur adalah dua kekayaan yang sangat berharga bagi orang arab atau orang yang mendiami padang pasir. Jika kedua hal tersebut sudah tidak diperhatikan lagi atau ditinggalkan, berarti pasti ada hal yang sangat menyibukkan penghuninya sehingga tidak memperdulikannya lagi, apakah mereka lari seperti pada surah at-Takw\u012br, atau mati seperti pada ayat ini.  \n2.Qa\u1e63r Masy\u012bd    \u0642\u064e\u0635\u0652\u0631\u064d \u0645\u064e\u0634\u0650\u064a\u0652\u062f\u064d (Al-Hajj/22:45)\nArtinya Istana yang tinggi. Kata qa\u1e63r akar katanya adalah \u0642- \u0635- \u0631)) yang mempunyai dua pengertian. Pertama,  tidak tercapainya sesuatu pada puncaknya. Salat yang diqasr adalah salat yang tidak disempurnakan. Seperti  empat rakaat menjadi dua rakaat. Qa\u1e63r juga lawan dari \u1e6d\u016bl (tinggi). At-taq\u1e63ir ialah lalai, lengah, karena tidak dikerjakan dengan sebenarnya. Kedua, tertahan. Allah menggambarkan bidadari surga yang pandangan matanya tidak diarahkan kecuali kepada suaminya sendiri dengan firman-Nya:  (\u0642\u0627\u0635\u0631\u0627\u062a \u0627\u0644\u0637\u0631\u0641 )  ar-Ra\u1e25m\u0101n/55: 56. Begitu juga bidadari yang dipingit dalam rumah/kemah  disebutnya sebagai    (\u062d\u0648\u0631 \u0645\u0642\u0635\u0648\u0631\u0627\u062a \u0641\u0649 \u0627\u0644\u062e\u064a\u0627\u0645) (ar-Ra\u1e25m\u0101n/55:72). Satu ruangan dalam mesjid, biasanya didekat mihrab, seperti kerangkeng yang diperuntukkan untuk orang penting disebut \u201cmaq\u1e63\u016brah.\u201d\nIstana disebut dengan qa\u1e63r karena  bangunan istana mengepung  orang yang berada didalamnya, sehingga orang yang ada didalamnya seperti  tertahan.\nMasy\u012bd berakar kata (\u0634-\u064a- \u062f) yang berarti tingginya sesuatu.   Asy-Sy\u012bd   \u0627\u0644\u0634\u064a\u062f  adalah juga berarti benda untuk melabur dinding atau benda campuran untuk membangun. Al-Isyadah adalah mengangkat citra seseorang. Dengan demikian maka ungkapan Qa\u1e63r Masyid bisa berarti istana yang dibangun, didirikan atau ditinggikan.\nSekali lagi qa\u1e63r adalah tempat yang sangat berharga bagi penghuninya. Tapi dosa yang dilakukan oleh mereka menyebabkan mereka dibinasakan oleh Allah. Semua harta peninggalan mereka termasuk qa\u1e63r ditinggal.",
        "sabab_nuzul": null,
        "conclusion": null
    }
}