{
    "id": 2648,
    "surah_id": 22,
    "ayah": 53,
    "page": 338,
    "quarter_hizb": 34.5,
    "juz": 17,
    "manzil": 4,
    "arabic": "\u0644\u0651\u0650\u064a\u064e\u062c\u0652\u0639\u064e\u0644\u064e \u0645\u064e\u0627 \u064a\u064f\u0644\u0652\u0642\u0650\u0649 \u0627\u0644\u0634\u0651\u064e\u064a\u0652\u0637\u0670\u0646\u064f \u0641\u0650\u062a\u0652\u0646\u064e\u0629\u064b \u0644\u0651\u0650\u0644\u0651\u064e\u0630\u0650\u064a\u0652\u0646\u064e \u0641\u0650\u064a\u0652 \u0642\u064f\u0644\u064f\u0648\u0652\u0628\u0650\u0647\u0650\u0645\u0652 \u0645\u0651\u064e\u0631\u064e\u0636\u064c \u0648\u0651\u064e\u0627\u0644\u0652\u0642\u064e\u0627\u0633\u0650\u064a\u064e\u0629\u0650 \u0642\u064f\u0644\u064f\u0648\u0652\u0628\u064f\u0647\u064f\u0645\u0652\u06d7 \u0648\u064e\u0627\u0650\u0646\u0651\u064e \u0627\u0644\u0638\u0651\u0670\u0644\u0650\u0645\u0650\u064a\u0652\u0646\u064e \u0644\u064e\u0641\u0650\u064a\u0652 \u0634\u0650\u0642\u064e\u0627\u0642\u064d\u06e2 \u0628\u064e\u0639\u0650\u064a\u0652\u062f\u064d \u06d9",
    "latin": "Liyaj\u2018ala m\u0101 yulqisy-syai\u1e6d\u0101nu fitnatal lil-la\u017c\u012bna f\u012b qul\u016bbihim mara\u1e0duw wal-q\u0101siyati qul\u016bbuhum, wa inna\u1e93-\u1e93\u0101lim\u012bna laf\u012b syiq\u0101qim ba\u2018\u012bd(in).",
    "translation": "Dia (Allah) hendak menjadikan apa yang dilontarkan setan itu sebagai cobaan bagi orang-orang yang di dalam hatinya ada penyakit dan hatinya keras. Sesungguhnya orang-orang yang zalim itu benar-benar dalam perselisihan yang jauh (dari kebenaran).",
    "no_footnote": null,
    "footnotes": null,
    "surah": {
        "id": 22,
        "arabic": "\u0627\u0644\u062d\u062c\u0651",
        "latin": "Al-\u1e24ajj",
        "transliteration": "Al-Hajj",
        "translation": "Haji",
        "num_ayah": 78,
        "page": 332,
        "location": "Madaniyah"
    },
    "tafsir": {
        "wajiz": "Allah mengizinkan setan menyisipkan kata-kata sesat ke dalam ayat-ayat-Nya ketika diwahyukan, karena Dia ingin menjadikan kata-kata sesat yang ditimbulkan setan itu sebagai cobaan yang bisa menyesatkan, bagi orang-orang yang lemah iman yaitu bagi orang-orang yang dalam hatinya ada penyakit kemunafikan dan orang yang berhati keras sehingga tertutup dari cahaya Allah. Dan sungguh orang-orang yang zalim itu, karena meyakini kata-kata setan itu bagian dari wahyu Allah, benar-benar dalam permusuhan terhadap Allah dan Rasul-Nya yang jauh dari kebenaran.",
        "tahlili": "Allah menjelaskan berbagai usaha setan-setan beserta pengikutpengikutnya untuk memperdayakan manusia dengan menambah pengertian yang salah dalam ayat-ayat Al-Qur\u2019an dan dalam agama Islam. Perbuatan mereka itu menjadi cobaan bagi manusia, terutama bagi orang-orang yang beriman, orang-orang yang ingkar dan sesat hatinya serta orang-orang munafik. Godaan setan itu menambahkan sesat dan menimbulkan penyakit dalam hatinya, sehingga kekafiran dan kemunafikan mereka bertambah.\nSedang orang-orang yang kuat imannya tidak akan tertipu oleh setan, setiap godaan setan yang datang kepadanya akan menambah kuat imannya. Sebaliknya orang-orang yang sesat hatinya dan ada penyakit di dalamnya akan jauh menyimpang dari jalan yang benar, karena itu sukar bagi mereka kembali ke jalan yang benar. Mereka tidak dapat lagi mengharapkan keridaan Allah dan tidak akan lepas dari siksaan Allah.",
        "intro_surah": "Surah al-\u1e24ajj termasuk surah-surah Madaniyah, terdiri atas 78 ayat, menurut pendapat sebagian mufasir, surah ini termasuk golongan surah-surah Makiyah. Sebab perbedaan pendapat ini ialah karena sebagian ayat-ayat surah ini, ada yang diturunkan di Mekah dan sebagian lagi ada yang diturunkan di Medinah.\nSurah ini dinamai \u201cal-\u1e24ajj\u201d, karena mengemukakan hal-hal yang berhubungan dengan ibadah haji, seperti ihram, tawaf, sa\u2019i, wuquf di Arafah, mencukur rambut serta menerangkan tentang syiar-syiar Allah, faedah-faedah dan hikmah-hikmah disyariatkan haji, dan sebagainya. Ditegaskan pula bahwa ibadah haji itu telah disyariatkan semenjak masa Nabi Nuh as dan Ka\u2019bah didirikan kembali oleh Nabi Ibrahim as bersama putranya Ismail as.\nMenurut al-Gaznawi, Surah al-\u1e24ajj termasuk surah-surah yang ajaib; diturunkan di malam hari dan di siang hari, ketika musafir dan dalam keadaan tidak musafir, ada ayat-ayat yang diturunkan di Mekah, dan ada pula ayat-ayat yang diturunkan di Medinah, isinya ada yang berhubungan dengan peperangan dan ada pula yang berhubungan dengan perdamaian, ada ayat-ayat yang mu\u1e25kam\u0101t dan ada pula ayat-ayat yang mutasy\u0101bih\u0101t:\n\nPOKOK-POKOK ISINYA\n1.  Keimanan: \nKeimanan tentang adanya kebangkitan, dan huru hara yang terjadi pada hari Kiamat; keadaan alam semesta serta aturan-aturan dan proses kejadiannya dapat dijadikan bukti tentang Keesaan dan kekuasaan Allah.\n2.  Hukum:\nKewajiban haji bagi kaum Muslimin yang mampu; ibadah haji adalah ibadah yang telah disyariatkan sejak Nabi Ibrahim; hukum berdusta; larangan menyembah berhala; binatang-binatang yang halal dimakan; hukum menghalang-halangi manusia dari jalan Allah dan dari Masjidil Haram; izin berperang untuk mempertahankan diri dan agama; hukum-hukum yang berhubungan dengan haji.\n3.  Dan lain-lain:\nMembantah kebenaran tanpa pengetahuan adalah perbuatan yang tercela; tanda-tanda takwa yang sampai ke hati; tiap-tiap agama yang dibawa rasul-rasul dahulu mempunyai syariat tertentu dan cara-cara melakukannya; pahala orang yang mati karena berhijrah di jalan Allah; agama Islam tidak menimbulkan kesempitan bagi pemeluknya; sikap orang kafir bila mendengar ayat-ayat Al-Qur\u2019an; anjuran berjihad yang dilakukan dengan sungguh-sungguh; celaan agama Islam terhadap orang-orang yang tidak tetap pendiriannya dan selalu mencari keuntungan untuk diri sendiri.",
        "outro_surah": null,
        "munasabah_prev_surah": "MUNASABAH SURAH AL-ANBIY\u0100\u2019\nDENGAN SURAH AL-\u1e24AJJ\n\n1. \tPada akhir Surah al-Anbiy\u0101\u2019 dikemukakan hal-hal yang berhubungan dengan hari Kiamat, sedang pada bagian permulaan Surah al-\u1e24ajj mengemukakan bukti-bukti adanya hari kebangkitan dengan dalil akal.\n2. \tSurah al-Anbiy\u0101\u2019 mengutarakan bahwa Allah tidak menjadikan manusia sebagai makhluk yang kekal hidupnya; semuanya akan mengalami kematian. Kemudian mereka dibangkitkan di hari Kiamat untuk dihisab tentang perbuatan-perbuatan yang telah mereka lakukan di dunia. Pada Surah al-\u1e24ajj diterangkan bahwa manusia dapat menjadikan dalil keadaan yang terdapat di alam semesta, dari apa kepada tidak ada dan sebaliknya, sebagai bukti bahwa janji Allah tentang hari kebangkitan akan menjadi kenyataan.\n3. \tSurah al-Anbiy\u0101\u2019 menerangkan kisah nabi-nabi, dan dalil-dalil yang dipaparkan kepada kaumnya tentang kebenaran agama yang dibawanya, sedang Surah al-\u1e24ajj menuntut agar manusia memperhatikan aneka ragam ciptaan Allah dan pengaturannya, untuk memperkuat kepercayaan kepada kebenaran agama Allah.\n",
        "munasabah_prev_theme": "Pada ayat-ayat yang lalu dijelaskan bahwa ancaman bagi orang-orang yang berusaha melemahkan ayat-ayat Allah akan dimasukkan ke dalam api neraka yang menyala-nyala. Pada ayat-ayat ini Allah menerangkan cara-cara yang dilakukan setan dan orang-orang musyrik untuk melemahkan dan mendustakan ayat-ayat Allah atau menyisipkan ke dalam tafsiran ayat-ayat Allah itu keragu-raguan agar dapat dijadikan fitnah untuk orang-orang yang lemah imannya. Tetapi Allah selalu menjaga ayat-ayat-Nya dengan cara-caranya sendiri, sehingga ayat-ayat Al-Qur\u2019an itu tetap terjaga kemurniannya dari campur tangan manusia.",
        "theme_group": " BERBAGAI CARA MENDUSTAKAN RASUL",
        "kosakata": "1. Alqasy-Syai\u1e6d\u0101n    \u0623\u064e\u0644\u0652\u0642\u064e\u0649 \u0627\u0644\u0634\u0651\u064e\u064a\u0652\u0637\u064e\u0627\u0646\u064f (al-\u1e24ajj/22: 52)\nAkar kata alqa adalah (\u0644- \u0642- \u064a) mempunyai beberapa arti antara lain bertemunya dua hal. Liqa\u2019 adalah pertemuan. Juga mengandung arti membuang dan melempar sesuatu. Kata syai\u1e6d\u0101n bisa terambil dari dua akar kata. Pertama, dari  (\u0634- \u0637- \u0646) yang berarti  jauh, karena setan jauh dari ke-benaran. Sesuatu yang jauh  dari kebenaran, melampaui batas, sombong, congkak, baik dari jenis manusia atau jin disebut setan. Kedua, bisa juga ter-ambil dari akar kata (\u0634- \u064a- \u0637) dimana n\u016bn tidak termasuk akar kata, yang artinya pergi atau larinya  sesuatu baik karena terbakar atau lainnya. Bisa juga berarti binasa dan batil. Dari beberapa kemungkinan arti ini setan berarti simbol keburukan. Ungkapan alqasy-syai\u1e6d\u0101n dalam ayat ini berarti setan melemparkan atau memasukkan  sesuatu godaan terhadap keinginan Nabi.\n2. Umniyyatih   \u0623\u064f\u0645\u0652\u0646\u0650\u064a\u0651\u064e\u062a\u0650\u0647\u0650    (al-\u1e24ajj/22:52)\nKata  \u0623\u0645\u0646\u064a\u0629  asalnya adalah  \u0623\u0645\u0646\u0648\u064a\u0629   mengikuti wazan \u0623\u0641\u0639\u0648\u0644\u0629 , setelah terjadi perubahan (i\u2019lal) maka muncul  kata  \u0623\u0645\u0646\u064a\u0629 . Akar katanya adalah (\u0645- \u0646- \u064a huruf illat) yang artinya ialah memperkirakan sesuatu . Dari pengertian ini muncul  dua kemungkinan arti. Pertama, keinginan yang ada dalam hati terhadap apa yang ada dan apa yang tidak ada. Kedua, membaca.  Suatu keinginan adalah apa yang diperkirakan dalam hati seseorang agar dia bisa mendapatkannya, begitu juga membaca adalah memperkirakan huruf-huruf yang akan dibaca didalam hati untuk kemudian disebutkan satu persatu. Perbedaan terhadap pemberian arti kata  \u062a\u0645\u0646\u0649  dan   \u0623\u0645\u0646\u064a\u062a\u0647  akan berdampak kepada penafsiran ayat 52 ini. Jika yang dimaksud adalah \u201cbacaan\u201d maka maksud tersebut ialah bahwa jika seorang nabi atau rasul membaca satu atau beberapa ayat, maka setan langsung melemparkan pernyataan-pernyataan bohong (syubuhat) kepada pengikut-pengikutnya agar mereka menolak dan mendebat dengan kebatilan terhadap kebenaran ayat-ayat tersebut. Bisa juga setan memperdengarkan perkataan-perkataan batil kepada pengikutnya seakan-akan perkataan tersebut berasal dari nabi, padahal nabi tidak mengatakannya demikian. Dan jika yang dimaksud adalah \u201ckeinginan diri\u201d maka maksud ayat ini ialah bahwa jika nabi atau rasul mempunyai  satu keinginan maka setan juga melakukan hal yang serupa, padahal nabi sama sekali tidak mengatakan demikian. Ayat ini memberikan ketenteraman kepada Nabi bahwa hal-hal yang batil tersebut tidak akan terjadi dan Allah akan membatalkan apa yang dilemparkan oleh setan tersebut sehingga wahyu Allah tetap terjaga.   Ayat ini juga bisa menunjukkan bahwa Al-Qur\u2019an akan terus dijaga oleh Allah. Segala upaya untuk membelokkan Al-Qur\u2019an dari arah yang sebenarnya akan ditangkal oleh Allah.",
        "sabab_nuzul": null,
        "conclusion": null
    }
}