{
    "id": 2628,
    "surah_id": 22,
    "ayah": 33,
    "page": 336,
    "quarter_hizb": 34.25,
    "juz": 17,
    "manzil": 4,
    "arabic": "\u0644\u064e\u0643\u064f\u0645\u0652 \u0641\u0650\u064a\u0652\u0647\u064e\u0627 \u0645\u064e\u0646\u064e\u0627\u0641\u0650\u0639\u064f \u0627\u0650\u0644\u0670\u0653\u0649 \u0627\u064e\u062c\u064e\u0644\u064d \u0645\u0651\u064f\u0633\u064e\u0645\u0651\u064b\u0649 \u062b\u064f\u0645\u0651\u064e \u0645\u064e\u062d\u0650\u0644\u0651\u064f\u0647\u064e\u0627\u0653 \u0627\u0650\u0644\u064e\u0649 \u0627\u0644\u0652\u0628\u064e\u064a\u0652\u062a\u0650 \u0627\u0644\u0652\u0639\u064e\u062a\u0650\u064a\u0652\u0642\u0650 \u08d6",
    "latin": "Lakum f\u012bh\u0101 man\u0101fi\u2018u il\u0101 ajalim musamman \u1e61umma ma\u1e25illuh\u0101 ilal-baitil-\u2018at\u012bq(i).",
    "translation": "Bagi kamu padanya (hewan hadyu)502) ada beberapa manfaat,503) sampai waktu yang ditentukan, kemudian tempat penyembelihannya berada di sekitar al-Bait al-\u2018At\u012bq (Tanah Haram seluruhnya).",
    "no_footnote": "502, 503",
    "footnotes": "502) Lihat surah al-Baqarah (2): 196.\n503) Maksudnya, hewan-hewan hadyu boleh diambil manfaatnya, seperti dikendarai, diperah susunya, dan sebagainya, sampai hari Nahar.",
    "surah": {
        "id": 22,
        "arabic": "\u0627\u0644\u062d\u062c\u0651",
        "latin": "Al-\u1e24ajj",
        "transliteration": "Al-Hajj",
        "translation": "Haji",
        "num_ayah": 78,
        "page": 332,
        "location": "Madaniyah"
    },
    "tafsir": {
        "wajiz": "Bagi kamu yang sedang menunaikan ibadah haji, padanya, yakni pada hewan hadyu yang disembelih sebagai pengganti (dam) pekerjaan wajib haji yang ditinggalkan; atau sebagai denda karena melanggar hal-hal yang terlarang mengerjakannya di dalam ibadah haji, ada beberapa manfaat yang bisa diambil seperti untuk dikendarai, diambil susunya, dan sebagainya, hingga waktu yang ditentukan, yakni hingga hari nahar, tanggal 10 Zulhijah, kemudian tempat penyembelihannya adalah di sekitar Baitul Atiq, Baitullah, di kawasan tanah haram.",
        "tahlili": "Pada ayat ini ditegaskan bahwa binatang kurban itu dapat diambil manfaatnya sebelum disembelih, yaitu dapat digunakan sebagai kendaraan dalam perjalanan menuju tanah suci, dapat diminum air susunya dan sebagainya. Setelah disembelih bulunya dapat dimanfaatkan, dagingnya dapat dimakan, disedekahkan kepada fakir dan miskin, sebagaimana yang diterangkan pada hadis Nabi saw:\n\n\u0639\u064e\u0646\u0652 \u0627\u064e\u0646\u064e\u0633\u064d \u0627\u064e\u0646\u0651\u064e \u0631\u064e\u0633\u064f\u0648\u0652\u0644\u064e \u0627\u0644\u0644\u0651\u0670\u0647\u0650 \u0635\u064e\u0644\u0651\u064e\u0649 \u0627\u0644\u0644\u0651\u0670\u0647\u064f \u0639\u064e\u0644\u064e\u064a\u0652\u0647\u0650 \u0648\u064e\u0633\u064e\u0644\u0651\u064e\u0645\u064e \u0631\u064e\u0623\u064e\u0649 \u0631\u064e\u062c\u064f\u0644\u0627\u064b \u064a\u064e\u0633\u064f\u0648\u0652\u0642\u064f \u0628\u064e\u062f\u064e\u0646\u064e\u0629\u064b \u0642\u064e\u0627\u0644\u064e \u0627\u0631\u0652\u0643\u064e\u0628\u0652\u0647\u064e\u0627 \u0642\u064e\u0627\u0644\u064e \u0627\u0650\u0646\u0651\u064e\u0647\u064e\u0627 \u0628\u064e\u062f\u064e\u0646\u064e\u0629\u064c \u0642\u064e\u0627\u0644\u064e \u0627\u0631\u0652\u0643\u064e\u0628\u0652\u0647\u064e\u0627 \u0648\u064e\u064a\u0652\u062d\u064e\u0643\u064e \u0641\u0650\u0649 \u0627\u0644\u062b\u0651\u064e\u0627\u0646\u0650\u064a\u064e\u0629\u0650 \u0627\u064e\u0648\u0650\u0627\u0644\u062b\u0651\u064e\u0627\u0644\u0650\u062b\u064e\u0629\u0650. (\u0631\u0648\u0627\u0647 \u0627\u0644\u0628\u062e\u0627\u0631\u064a \u0648\u0645\u0633\u0644\u0645)\nDari Anas bahwasanya Rasulullah saw melihat seorang menggiring seekor badanah (unta yang digemukkan untuk dijadikan kurban) maka beliau bersabda, Naikilah!\u201d Orang itu menjawab, \u201cDia digemukkan untuk dijadikan kurban! Maka Nabi bersabda, \u201cNaikilah! Rugilah kamu!\u201d pada yang kedua atau ketiga. (Riwayat al-Bukh\u0101r\u012b dan Muslim)\nTempat penyembelihan binatang kurban itu ialah di sekitar daerah Haram atau di tempat sekitar Ka\u2019bah. Allah berfirman:\n\u064a\u0670\u0653\u0627\u064e\u064a\u0651\u064f\u0647\u064e\u0627 \u0627\u0644\u0651\u064e\u0630\u0650\u064a\u0652\u0646\u064e \u0627\u0670\u0645\u064e\u0646\u064f\u0648\u0652\u0627 \u0644\u064e\u0627 \u062a\u064e\u0642\u0652\u062a\u064f\u0644\u064f\u0648\u0627 \u0627\u0644\u0635\u0651\u064e\u064a\u0652\u062f\u064e \u0648\u064e\u0627\u064e\u0646\u0652\u062a\u064f\u0645\u0652 \u062d\u064f\u0631\u064f\u0645\u064c \u06d7\u0648\u064e\u0645\u064e\u0646\u0652 \u0642\u064e\u062a\u064e\u0644\u064e\u0647\u0657 \u0645\u0650\u0646\u0652\u0643\u064f\u0645\u0652 \u0645\u0651\u064f\u062a\u064e\u0639\u064e\u0645\u0651\u0650\u062f\u064b\u0627 \u0641\u064e\u062c\u064e\u0632\u064e\u06e4\u0627\u0621\u064c \u0645\u0651\u0650\u062b\u0652\u0644\u064f \u0645\u064e\u0627 \u0642\u064e\u062a\u064e\u0644\u064e \u0645\u0650\u0646\u064e \u0627\u0644\u0646\u0651\u064e\u0639\u064e\u0645\u0650 \u064a\u064e\u062d\u0652\u0643\u064f\u0645\u064f \u0628\u0650\u0647\u0656 \u0630\u064e\u0648\u064e\u0627 \u0639\u064e\u062f\u0652\u0644\u064d \u0645\u0651\u0650\u0646\u0652\u0643\u064f\u0645\u0652 \u0647\u064e\u062f\u0652\u064a\u064b\u0627\u06e2 \u0628\u0670\u0644\u0650\u063a\u064e \u0627\u0644\u0652\u0643\u064e\u0639\u0652\u0628\u064e\u0629\u0650 \u0627\u064e\u0648\u0652 \u0643\u064e\u0641\u0651\u064e\u0627\u0631\u064e\u0629\u064c \u0637\u064e\u0639\u064e\u0627\u0645\u064f \u0645\u064e\u0633\u0670\u0643\u0650\u064a\u0652\u0646\u064e \u0627\u064e\u0648\u0652 \u0639\u064e\u062f\u0652\u0644\u064f \u0630\u0670\u0644\u0650\u0643\u064e \u0635\u0650\u064a\u064e\u0627\u0645\u064b\u0627 \u0644\u0651\u0650\u064a\u064e\u0630\u064f\u0648\u0652\u0642\u064e \u0648\u064e\u0628\u064e\u0627\u0644\u064e \u0627\u064e\u0645\u0652\u0631\u0650\u0647\u0656 \u06d7\u0639\u064e\u0641\u064e\u0627 \u0627\u0644\u0644\u0651\u0670\u0647\u064f \u0639\u064e\u0645\u0651\u064e\u0627 \u0633\u064e\u0644\u064e\u0641\u064e \u06d7\u0648\u064e\u0645\u064e\u0646\u0652 \u0639\u064e\u0627\u062f\u064e \u0641\u064e\u064a\u064e\u0646\u0652\u062a\u064e\u0642\u0650\u0645\u064f \u0627\u0644\u0644\u0651\u0670\u0647\u064f \u0645\u0650\u0646\u0652\u0647\u064f \u06d7\u0648\u064e\u0627\u0644\u0644\u0651\u0670\u0647\u064f \u0639\u064e\u0632\u0650\u064a\u0652\u0632\u064c \u0630\u064f\u0648 \u0627\u0646\u0652\u062a\u0650\u0642\u064e\u0627\u0645\u064d \u0669\u0665\nWahai orang-orang yang beriman! Janganlah kamu membunuh hewan buruan, ketika kamu sedang ihram (haji atau umrah). Barang siapa di antara kamu membunuhnya dengan sengaja, maka dendanya ialah mengganti dengan hewan ternak yang sepadan dengan buruan yang dibunuhnya, menurut putusan dua orang yang adil di antara kamu sebagai hadyu yang dibawa ke Ka\u2019bah, atau kafarat (membayar tebusan dengan) memberi makan kepada orang-orang miskin, atau berpuasa, seimbang dengan makanan yang dikeluarkan itu, agar dia merasakan akibat buruk dari perbuatannya. Allah telah memaafkan apa yang telah lalu. Dan barang siapa kembali mengerjakannya, niscaya Allah akan menyiksanya. Dan Allah Mahaperkasa, memiliki (kekuasaan untuk) menyiksa. (al-M\u0101\u2019idah/5: 95)\nMaksud dibawa sampai ke Ka\u2019bah menurut ayat di atas ialah membawanya ke daerah Haram untuk disembelih di tempat itu.",
        "intro_surah": "Surah al-\u1e24ajj termasuk surah-surah Madaniyah, terdiri atas 78 ayat, menurut pendapat sebagian mufasir, surah ini termasuk golongan surah-surah Makiyah. Sebab perbedaan pendapat ini ialah karena sebagian ayat-ayat surah ini, ada yang diturunkan di Mekah dan sebagian lagi ada yang diturunkan di Medinah.\nSurah ini dinamai \u201cal-\u1e24ajj\u201d, karena mengemukakan hal-hal yang berhubungan dengan ibadah haji, seperti ihram, tawaf, sa\u2019i, wuquf di Arafah, mencukur rambut serta menerangkan tentang syiar-syiar Allah, faedah-faedah dan hikmah-hikmah disyariatkan haji, dan sebagainya. Ditegaskan pula bahwa ibadah haji itu telah disyariatkan semenjak masa Nabi Nuh as dan Ka\u2019bah didirikan kembali oleh Nabi Ibrahim as bersama putranya Ismail as.\nMenurut al-Gaznawi, Surah al-\u1e24ajj termasuk surah-surah yang ajaib; diturunkan di malam hari dan di siang hari, ketika musafir dan dalam keadaan tidak musafir, ada ayat-ayat yang diturunkan di Mekah, dan ada pula ayat-ayat yang diturunkan di Medinah, isinya ada yang berhubungan dengan peperangan dan ada pula yang berhubungan dengan perdamaian, ada ayat-ayat yang mu\u1e25kam\u0101t dan ada pula ayat-ayat yang mutasy\u0101bih\u0101t:\n\nPOKOK-POKOK ISINYA\n1.  Keimanan: \nKeimanan tentang adanya kebangkitan, dan huru hara yang terjadi pada hari Kiamat; keadaan alam semesta serta aturan-aturan dan proses kejadiannya dapat dijadikan bukti tentang Keesaan dan kekuasaan Allah.\n2.  Hukum:\nKewajiban haji bagi kaum Muslimin yang mampu; ibadah haji adalah ibadah yang telah disyariatkan sejak Nabi Ibrahim; hukum berdusta; larangan menyembah berhala; binatang-binatang yang halal dimakan; hukum menghalang-halangi manusia dari jalan Allah dan dari Masjidil Haram; izin berperang untuk mempertahankan diri dan agama; hukum-hukum yang berhubungan dengan haji.\n3.  Dan lain-lain:\nMembantah kebenaran tanpa pengetahuan adalah perbuatan yang tercela; tanda-tanda takwa yang sampai ke hati; tiap-tiap agama yang dibawa rasul-rasul dahulu mempunyai syariat tertentu dan cara-cara melakukannya; pahala orang yang mati karena berhijrah di jalan Allah; agama Islam tidak menimbulkan kesempitan bagi pemeluknya; sikap orang kafir bila mendengar ayat-ayat Al-Qur\u2019an; anjuran berjihad yang dilakukan dengan sungguh-sungguh; celaan agama Islam terhadap orang-orang yang tidak tetap pendiriannya dan selalu mencari keuntungan untuk diri sendiri.",
        "outro_surah": null,
        "munasabah_prev_surah": "MUNASABAH SURAH AL-ANBIY\u0100\u2019\nDENGAN SURAH AL-\u1e24AJJ\n\n1. \tPada akhir Surah al-Anbiy\u0101\u2019 dikemukakan hal-hal yang berhubungan dengan hari Kiamat, sedang pada bagian permulaan Surah al-\u1e24ajj mengemukakan bukti-bukti adanya hari kebangkitan dengan dalil akal.\n2. \tSurah al-Anbiy\u0101\u2019 mengutarakan bahwa Allah tidak menjadikan manusia sebagai makhluk yang kekal hidupnya; semuanya akan mengalami kematian. Kemudian mereka dibangkitkan di hari Kiamat untuk dihisab tentang perbuatan-perbuatan yang telah mereka lakukan di dunia. Pada Surah al-\u1e24ajj diterangkan bahwa manusia dapat menjadikan dalil keadaan yang terdapat di alam semesta, dari apa kepada tidak ada dan sebaliknya, sebagai bukti bahwa janji Allah tentang hari kebangkitan akan menjadi kenyataan.\n3. \tSurah al-Anbiy\u0101\u2019 menerangkan kisah nabi-nabi, dan dalil-dalil yang dipaparkan kepada kaumnya tentang kebenaran agama yang dibawanya, sedang Surah al-\u1e24ajj menuntut agar manusia memperhatikan aneka ragam ciptaan Allah dan pengaturannya, untuk memperkuat kepercayaan kepada kebenaran agama Allah.\n",
        "munasabah_prev_theme": "Pada ayat-ayat yang lalu diterangkan bahwa siapa yang menghormati syi\u2019ar-syi\u2019ar Allah, memilih binatang kurban yang baik, gemuk, sehat dan tidak cacat, maka sesungguhnya perbuatan yang demikian adalah perbuatan orang yang benar-benar takwa kepada Allah. Pada ayat-ayat ini dijelaskan cara-cara berkurban, yaitu dengan menyebut nama Allah dan mengucapkan takbir waktu menyembelihnya. ",
        "theme_group": "PENSYARIATAN KURBAN",
        "kosakata": "1. Mansakan \u0645\u064e\u0646\u0652\u0633\u064e\u0643\u064b\u0627 (al-\u1e24ajj/22: 34)\n Kata mansak adalah bentuk ma\u1e63dar (kata jadian) dari kata nasaka-yansuku-nusukan-mansakan, yang berarti beribadah. Bentuk jamaknya adalah man\u0101sik. Darinya terambil kata nas\u012bkah yang berarti ibadah, atau hewan kurban yang harus disembelih saat seseorang melanggar suatu larangan di dalam haji. Bentuk jamaknya adalah nusuk sebagaimana yang disebutkan di dalam firman Allah Ta\u2019ala, \u201cJika ada di antaramu yang sakit atau ada gangguan di kepalanya (lalu ia bercukur), maka wajiblah atasnya berfidyah, yaitu berpuasa atau bersedekah atau berkorban.\u201d (al-Baqarah/2: 196) Tetapi, menurut \u1e60a\u2019lab kata ini terambil dari kalimat nasaka al-fi\u1e0d\u1e0dah yang berarti ia melebur perak hingga hilang kotorannya. Seorang ahli ibadah disebut n\u0101sik karena ia membersihkan dirinya dari kotoran dosa. Kata mansakan di dalam ayat yang sedang dibahas ini memiliki makna penyembelihan kurban. Jadi, maksud ayat ini adalah bahwa Allah menetapkan setiap umat untuk taqarub kepada Allah dengan cara menyembelih hewan kurban. \n2. Bah\u012bmatul-An\u2018\u0101m\u0628\u064e\u0647\u0650\u064a\u0652\u0645\u064e\u0629\u064f \u0627\u0652\u0644\u0623\u064e\u0646\u0652\u0639\u064e\u0627\u0645\u0650    (al-\u1e24ajj/22: 34)\nKata bah\u012bmah terambil dari kalimat abhama al-kalam yang berarti ia menyamarkan ucapannya. Binatang disebut demikian karena ia tidak berbahasa dan suaranya tidak bisa dimengerti. Pendapat lain mengatakan bahwa kata bah\u012bmah berarti setiap hewan yang tidak menalar. Bentuk jamaknya adalah bah\u0101\u2019im. Darinya terambil kata kal\u0101m mubham yang berarti ucapan yang samar. Kalimat \u1e0darabahu fawaqa\u2019a mubhaman berarti ia memukulnya sehingga jatuh pingsan tanpa bisa bicara dan berpikir sehat. Darinya juga diambil kata lailun bah\u012bm yang berarti malam yang gelap tanpa ada cahaya hingga subuh. \nKata al-An\u2018\u0101m adalah jamak dari kata na\u2019\u012bmah. Kata ini terbentuk dari kata ni\u2019mah yang berarti anugerah. Masyarakat Arab menyebut binatang ternak dengan kata na\u2019\u012bmah karena ia merupakan anugerah yang sangat berharga bagi mereka, hampir semua bagian dari binatang ternak bisa dimanfaatkan. Pada mulanya kata ini digunakan untuk menyebut unta, kemudian berkembang dan mencakup sapi dan kambing. Penyandaran kata bah\u012bmah pada kata al-An\u2018\u0101m itu sama kategorinya dengan penyandaran kata \u1e61aub (pakaian) pada kata khuzzin (sutera), maksudnya pakaian sutera.",
        "sabab_nuzul": null,
        "conclusion": null
    }
}