{
    "id": 2657,
    "surah_id": 22,
    "ayah": 62,
    "page": 339,
    "quarter_hizb": 34.75,
    "juz": 17,
    "manzil": 4,
    "arabic": "\u0630\u0670\u0644\u0650\u0643\u064e \u0628\u0650\u0627\u064e\u0646\u0651\u064e \u0627\u0644\u0644\u0651\u0670\u0647\u064e \u0647\u064f\u0648\u064e \u0627\u0644\u0652\u062d\u064e\u0642\u0651\u064f \u0648\u064e\u0627\u064e\u0646\u0651\u064e \u0645\u064e\u0627 \u064a\u064e\u062f\u0652\u0639\u064f\u0648\u0652\u0646\u064e \u0645\u0650\u0646\u0652 \u062f\u064f\u0648\u0652\u0646\u0650\u0647\u0656 \u0647\u064f\u0648\u064e \u0627\u0644\u0652\u0628\u064e\u0627\u0637\u0650\u0644\u064f \u0648\u064e\u0627\u064e\u0646\u0651\u064e \u0627\u0644\u0644\u0651\u0670\u0647\u064e \u0647\u064f\u0648\u064e \u0627\u0644\u0652\u0639\u064e\u0644\u0650\u064a\u0651\u064f \u0627\u0644\u0652\u0643\u064e\u0628\u0650\u064a\u0652\u0631\u064f ",
    "latin": "\u017b\u0101lika bi'annall\u0101ha huwal-\u1e25aqqu wa anna m\u0101 yad\u2018\u016bna min d\u016bnih\u012b huwal-b\u0101\u1e6dilu wa annall\u0101ha huwal-\u2018aliyyul-kab\u012br(u).",
    "translation": "Hal itu (kekuasaan Allah berlaku) karena Allah, Dialah (Tuhan) Yang Maha Benar dan apa saja yang mereka seru selain Dia itulah yang batil. Sesungguhnya Allah, Dialah Yang Maha Tinggi lagi Maha Besar.",
    "no_footnote": null,
    "footnotes": null,
    "surah": {
        "id": 22,
        "arabic": "\u0627\u0644\u062d\u062c\u0651",
        "latin": "Al-\u1e24ajj",
        "transliteration": "Al-Hajj",
        "translation": "Haji",
        "num_ayah": 78,
        "page": 332,
        "location": "Madaniyah"
    },
    "tafsir": {
        "wajiz": "Demikian Allah memperlihatkan kekuasan-Nya memasukkan malam ke dalam siang dan memasukkan siang ke dalam malam, karena allah, Dialah Tuhan yang Hak sehingga hanya Dia yang berhak disembah. Dan sungguh apa saja yang mereka seru  selain Dia yang dianggap tuhan dan disembah, itulah tuhan dan persembahan yang batil, salah, sesat, dan jauh dari kebenaran; dan sungguh allah, Dialah Yang Mahatinggi dari semua tuhan-tuhan yang dianggap tinggi oleh manusia; Mahabesar, kekuasaan-Nya atas segala sesuatu.",
        "tahlili": "Sifat-sifat yang demikian itu, yaitu kekuasaan yang sempurna, ilmu yang luas dan sempurna, meliputi segala macam ilmu ada pada Allah, karena Dialah yang wajibul-wujud, pasti adanya, mempunyai segala macam sifat kesempurnaan, tidak mempunyai kekurangan sedikit pun. Dialah yang memiliki agama yang benar, yang disampaikan nabi-nabi dan rasul-rasul yang diutus-Nya, yang paling akhir ialah Nabi Muhammad saw. Dialah Tuhan Yang Maha Esa, tiada seorang pun yang menjadi syarikat bagi-Nya. Karena itu beribadah kepada-Nya adalah suatu yang wajib, sesuatu yang paling benar, demikian pula pertolongan-Nya, janji-Nya adalah suatu yang hak. Segala yang disembah selain Allah adalah sembahan yang salah, dan ibadah itu merupakan ibadah yang tidak ada dasarnya. Dia berkuasa menciptakan segala yang dikehendaki-Nya. Jika Dia ingin menciptakan sesuatu, cukuplah Dia mengatakan, \u201cJadilah\u201d. Maka terwujudlah barang itu.\nSesungguhnya Allah Mahatinggi, semua berada dibawah-Nya da Dia di atas segala sesuatu. Tidak ada sesuatu pun yang menyamainya dalam kekuatan, ketinggian dan kebesaran serta pengetahuan-Nya.",
        "intro_surah": "Surah al-\u1e24ajj termasuk surah-surah Madaniyah, terdiri atas 78 ayat, menurut pendapat sebagian mufasir, surah ini termasuk golongan surah-surah Makiyah. Sebab perbedaan pendapat ini ialah karena sebagian ayat-ayat surah ini, ada yang diturunkan di Mekah dan sebagian lagi ada yang diturunkan di Medinah.\nSurah ini dinamai \u201cal-\u1e24ajj\u201d, karena mengemukakan hal-hal yang berhubungan dengan ibadah haji, seperti ihram, tawaf, sa\u2019i, wuquf di Arafah, mencukur rambut serta menerangkan tentang syiar-syiar Allah, faedah-faedah dan hikmah-hikmah disyariatkan haji, dan sebagainya. Ditegaskan pula bahwa ibadah haji itu telah disyariatkan semenjak masa Nabi Nuh as dan Ka\u2019bah didirikan kembali oleh Nabi Ibrahim as bersama putranya Ismail as.\nMenurut al-Gaznawi, Surah al-\u1e24ajj termasuk surah-surah yang ajaib; diturunkan di malam hari dan di siang hari, ketika musafir dan dalam keadaan tidak musafir, ada ayat-ayat yang diturunkan di Mekah, dan ada pula ayat-ayat yang diturunkan di Medinah, isinya ada yang berhubungan dengan peperangan dan ada pula yang berhubungan dengan perdamaian, ada ayat-ayat yang mu\u1e25kam\u0101t dan ada pula ayat-ayat yang mutasy\u0101bih\u0101t:\n\nPOKOK-POKOK ISINYA\n1.  Keimanan: \nKeimanan tentang adanya kebangkitan, dan huru hara yang terjadi pada hari Kiamat; keadaan alam semesta serta aturan-aturan dan proses kejadiannya dapat dijadikan bukti tentang Keesaan dan kekuasaan Allah.\n2.  Hukum:\nKewajiban haji bagi kaum Muslimin yang mampu; ibadah haji adalah ibadah yang telah disyariatkan sejak Nabi Ibrahim; hukum berdusta; larangan menyembah berhala; binatang-binatang yang halal dimakan; hukum menghalang-halangi manusia dari jalan Allah dan dari Masjidil Haram; izin berperang untuk mempertahankan diri dan agama; hukum-hukum yang berhubungan dengan haji.\n3.  Dan lain-lain:\nMembantah kebenaran tanpa pengetahuan adalah perbuatan yang tercela; tanda-tanda takwa yang sampai ke hati; tiap-tiap agama yang dibawa rasul-rasul dahulu mempunyai syariat tertentu dan cara-cara melakukannya; pahala orang yang mati karena berhijrah di jalan Allah; agama Islam tidak menimbulkan kesempitan bagi pemeluknya; sikap orang kafir bila mendengar ayat-ayat Al-Qur\u2019an; anjuran berjihad yang dilakukan dengan sungguh-sungguh; celaan agama Islam terhadap orang-orang yang tidak tetap pendiriannya dan selalu mencari keuntungan untuk diri sendiri.",
        "outro_surah": null,
        "munasabah_prev_surah": "MUNASABAH SURAH AL-ANBIY\u0100\u2019\nDENGAN SURAH AL-\u1e24AJJ\n\n1. \tPada akhir Surah al-Anbiy\u0101\u2019 dikemukakan hal-hal yang berhubungan dengan hari Kiamat, sedang pada bagian permulaan Surah al-\u1e24ajj mengemukakan bukti-bukti adanya hari kebangkitan dengan dalil akal.\n2. \tSurah al-Anbiy\u0101\u2019 mengutarakan bahwa Allah tidak menjadikan manusia sebagai makhluk yang kekal hidupnya; semuanya akan mengalami kematian. Kemudian mereka dibangkitkan di hari Kiamat untuk dihisab tentang perbuatan-perbuatan yang telah mereka lakukan di dunia. Pada Surah al-\u1e24ajj diterangkan bahwa manusia dapat menjadikan dalil keadaan yang terdapat di alam semesta, dari apa kepada tidak ada dan sebaliknya, sebagai bukti bahwa janji Allah tentang hari kebangkitan akan menjadi kenyataan.\n3. \tSurah al-Anbiy\u0101\u2019 menerangkan kisah nabi-nabi, dan dalil-dalil yang dipaparkan kepada kaumnya tentang kebenaran agama yang dibawanya, sedang Surah al-\u1e24ajj menuntut agar manusia memperhatikan aneka ragam ciptaan Allah dan pengaturannya, untuk memperkuat kepercayaan kepada kebenaran agama Allah.\n",
        "munasabah_prev_theme": "Pada ayat-ayat yang lalu diterangkan bahwa Allah selalu menjaga Rasul, kemurnian Al-Qur\u2019an, dan Allah akan memberi balasan yang adil di akhirat. Pada ayat-ayat ini Allah menyebutkan janji-Nya kepada orang-orang yang berhijrah di jalan Allah jika ia terbunuh atau mati, maka Allah akan meng-anugerahkan kepada mereka rezeki yang mulia dan surga. Allah sanggup melakukan yang demikian itu, karena Dialah yang berkuasa atas segala sesuatu di alam ini.",
        "theme_group": "BALASAN BAGI ORANG YANG MENINGGAL\nKETIKA HIJRAH DI JALAN ALLAH",
        "kosakata": "1. Mudkhalan    \u0645\u064f\u062f\u0652\u062e\u064e\u0644\u0627\u064b (al-\u1e24ajj/22: 59)\nKata ini adalah bisa berarti ma\u1e63dar mimi (kata jadian yang dimulai dengan huruf mim) atau isim mak\u0101n atau kata yang menunjukkan arti tempat yaitu tempatnya masuk. Jika menjadi ma\u1e63dar mimi maka kata ini  kedudukannya jadi maf\u2019ul mu\u1e6dlaq yang gunanya untuk meneguhkan/menguatkan kata kerja sebelumnya. Maka arti ayat tersebut, \u201cSesungguhnya Allah akan memasukkan mereka dengan memasukkan yang sesungguhnya (ke dalam sorga) yang mereka menyukainya.\u201d Jika menjadi isim mak\u0101n maka kedudukannya menjadi isim maf\u2019ul. Maka  arti ayat tersebut ialah, \u201cSesungguhnya Allah akan memasukkan mereka kedalam satu tempat (sorga) yang mereka sukai.\u201d\n2. Yar\u1e0daunah    \u064a\u064e\u0631\u0652\u0636\u064e\u0648\u0652\u0646\u064e\u0647\u064f (al-\u1e24ajj/22:59)\nYar\u1e0daunah adalah bentuk fi\u2019il mu\u1e0dari\u2019 atau kata kerja dari \u201cri\u1e0da\u201d untuk  masa kini dan masa yang akan datang. Ri\u1e0da adalah lawan dari benci (sukh\u1e6d). Maka ri\u1e0da yang didapat oleh penghuni surga adalah suatu kebahagiaan  yang mereka rasakan dari waktu ke waktu dan berlangsung terus berkelanjutan (at-tajaddud al-mustamirr) selama mereka di surga. Tidak ada sedikitpun perasaan jemu atau bosan menikmati kenikmatan surga. Tidak sebagaimana kenikmatan di dunia.",
        "sabab_nuzul": null,
        "conclusion": "1. \tAllah akan memberikan surga yang penuh kenikmatan kepada orang-orang yang berhijrah semata-mata karena Allah, kemudian ia terbunuh atau mati dalam melaksanakan hijrah itu.\n2. \tMenganugerahkan surga kepada orang yang dikehendaki-Nya adalah mudah bagi Allah. Karena Dia Maha Mengetahui segala perbuatan hamba-Nya dan Mahakuasa.\n3. \tAllah pasti menolong hamba-hamba-Nya yang teraniaya dalam melaksanakan tugas-tugas agama dan dalam mencari keridaan-Nya.\n4. \tAllah Mahakuasa memberikan pertolongan kepada hamba-hamba-Nya. Memberikan pertolongan kepada manusia adalah lebih mudah bagi-Nya daripada memasukkan malam kepada siang dan siang kepada malam.\n5. \tAllah, Tuhan yang berhak disembah, sedang menyembah selain Allah adalah perbuatan yang salah dan tidak diridai-Nya.\n"
    }
}