{
    "id": 2608,
    "surah_id": 22,
    "ayah": 13,
    "page": 333,
    "quarter_hizb": 34,
    "juz": 17,
    "manzil": 4,
    "arabic": "\u064a\u064e\u062f\u0652\u0639\u064f\u0648\u0652\u0627 \u0644\u064e\u0645\u064e\u0646\u0652 \u0636\u064e\u0631\u0651\u064f\u0647\u0657\u0653 \u0627\u064e\u0642\u0652\u0631\u064e\u0628\u064f \u0645\u0650\u0646\u0652 \u0646\u0651\u064e\u0641\u0652\u0639\u0650\u0647\u0656\u06d7  \u0644\u064e\u0628\u0650\u0626\u0652\u0633\u064e \u0627\u0644\u0652\u0645\u064e\u0648\u0652\u0644\u0670\u0649 \u0648\u064e\u0644\u064e\u0628\u0650\u0626\u0652\u0633\u064e \u0627\u0644\u0652\u0639\u064e\u0634\u0650\u064a\u0652\u0631\u064f ",
    "latin": "Yad\u2018\u016b laman \u1e0darruh\u016b aqrabu min naf\u2018ih(\u012b), labi'sal-maul\u0101 wa labi'sal-\u2018asy\u012br(u).",
    "translation": "Dia menyeru kepada sesuatu yang mudaratnya benar-benar lebih dekat daripada manfaatnya. Sungguh, itu seburuk-buruk penolong dan sejahat-jahat kawan.",
    "no_footnote": null,
    "footnotes": null,
    "surah": {
        "id": 22,
        "arabic": "\u0627\u0644\u062d\u062c\u0651",
        "latin": "Al-\u1e24ajj",
        "transliteration": "Al-Hajj",
        "translation": "Haji",
        "num_ayah": 78,
        "page": 332,
        "location": "Madaniyah"
    },
    "tafsir": {
        "wajiz": "Dia, orang kafir dan orang murtad itu, menyeru dalam ritual dan doanya kepada suatu sembahan yang sebenarnya bencananya dalam persembahan itu, lebih dekat daripada manfaatnya. Sungguh, jika mereka menyadari bahwa sembahan selain Allah itu adalah seburuk-buruk penolong karena menolong kepada kebinasaan, dan sejahat-jahat kawan karena berkawan dengan yang mencelakakan.",
        "tahlili": "Orang-orang kafir sebagaimana disebutkan dalam ayat ini adalah orang-orang yang menyembah sesuatu yang lebih banyak mudaratnya dari manfaatnya. Mereka menyembah sesuatu selain Allah, baik berupa manusia, maupun benda atau patung-patung. Disebabkan kekafirannya itu Allah menimpakan azab kepada mereka di dunia dan di akhirat. Di akhirat mereka akan mengetahui bahwa semua yang mereka puja dan sembah selama hidup di dunia, dan semua yang mereka anggap sebagai penolong, sebagai sesuatu yang dapat mengabulkan segala permintaan mereka dan sebagai teman yang baik, di akhirat nanti tidak mempunyai arti sedikitpun, bahkan semuanya itu akan menjadi teman-teman yang sama-sama ditimpa kemurkaan dan azab Allah.",
        "intro_surah": "Surah al-\u1e24ajj termasuk surah-surah Madaniyah, terdiri atas 78 ayat, menurut pendapat sebagian mufasir, surah ini termasuk golongan surah-surah Makiyah. Sebab perbedaan pendapat ini ialah karena sebagian ayat-ayat surah ini, ada yang diturunkan di Mekah dan sebagian lagi ada yang diturunkan di Medinah.\nSurah ini dinamai \u201cal-\u1e24ajj\u201d, karena mengemukakan hal-hal yang berhubungan dengan ibadah haji, seperti ihram, tawaf, sa\u2019i, wuquf di Arafah, mencukur rambut serta menerangkan tentang syiar-syiar Allah, faedah-faedah dan hikmah-hikmah disyariatkan haji, dan sebagainya. Ditegaskan pula bahwa ibadah haji itu telah disyariatkan semenjak masa Nabi Nuh as dan Ka\u2019bah didirikan kembali oleh Nabi Ibrahim as bersama putranya Ismail as.\nMenurut al-Gaznawi, Surah al-\u1e24ajj termasuk surah-surah yang ajaib; diturunkan di malam hari dan di siang hari, ketika musafir dan dalam keadaan tidak musafir, ada ayat-ayat yang diturunkan di Mekah, dan ada pula ayat-ayat yang diturunkan di Medinah, isinya ada yang berhubungan dengan peperangan dan ada pula yang berhubungan dengan perdamaian, ada ayat-ayat yang mu\u1e25kam\u0101t dan ada pula ayat-ayat yang mutasy\u0101bih\u0101t:\n\nPOKOK-POKOK ISINYA\n1.  Keimanan: \nKeimanan tentang adanya kebangkitan, dan huru hara yang terjadi pada hari Kiamat; keadaan alam semesta serta aturan-aturan dan proses kejadiannya dapat dijadikan bukti tentang Keesaan dan kekuasaan Allah.\n2.  Hukum:\nKewajiban haji bagi kaum Muslimin yang mampu; ibadah haji adalah ibadah yang telah disyariatkan sejak Nabi Ibrahim; hukum berdusta; larangan menyembah berhala; binatang-binatang yang halal dimakan; hukum menghalang-halangi manusia dari jalan Allah dan dari Masjidil Haram; izin berperang untuk mempertahankan diri dan agama; hukum-hukum yang berhubungan dengan haji.\n3.  Dan lain-lain:\nMembantah kebenaran tanpa pengetahuan adalah perbuatan yang tercela; tanda-tanda takwa yang sampai ke hati; tiap-tiap agama yang dibawa rasul-rasul dahulu mempunyai syariat tertentu dan cara-cara melakukannya; pahala orang yang mati karena berhijrah di jalan Allah; agama Islam tidak menimbulkan kesempitan bagi pemeluknya; sikap orang kafir bila mendengar ayat-ayat Al-Qur\u2019an; anjuran berjihad yang dilakukan dengan sungguh-sungguh; celaan agama Islam terhadap orang-orang yang tidak tetap pendiriannya dan selalu mencari keuntungan untuk diri sendiri.",
        "outro_surah": null,
        "munasabah_prev_surah": "MUNASABAH SURAH AL-ANBIY\u0100\u2019\nDENGAN SURAH AL-\u1e24AJJ\n\n1. \tPada akhir Surah al-Anbiy\u0101\u2019 dikemukakan hal-hal yang berhubungan dengan hari Kiamat, sedang pada bagian permulaan Surah al-\u1e24ajj mengemukakan bukti-bukti adanya hari kebangkitan dengan dalil akal.\n2. \tSurah al-Anbiy\u0101\u2019 mengutarakan bahwa Allah tidak menjadikan manusia sebagai makhluk yang kekal hidupnya; semuanya akan mengalami kematian. Kemudian mereka dibangkitkan di hari Kiamat untuk dihisab tentang perbuatan-perbuatan yang telah mereka lakukan di dunia. Pada Surah al-\u1e24ajj diterangkan bahwa manusia dapat menjadikan dalil keadaan yang terdapat di alam semesta, dari apa kepada tidak ada dan sebaliknya, sebagai bukti bahwa janji Allah tentang hari kebangkitan akan menjadi kenyataan.\n3. \tSurah al-Anbiy\u0101\u2019 menerangkan kisah nabi-nabi, dan dalil-dalil yang dipaparkan kepada kaumnya tentang kebenaran agama yang dibawanya, sedang Surah al-\u1e24ajj menuntut agar manusia memperhatikan aneka ragam ciptaan Allah dan pengaturannya, untuk memperkuat kepercayaan kepada kebenaran agama Allah.\n",
        "munasabah_prev_theme": "Pada ayat-ayat yang lalu diterangkan bahwa orang-orang yang sesat yang membantah keesaan dan kekuasaan Allah tanpa bukti dan dalil yang kuat dan mereka melakukan yang demikian semata-mata karena keangkuhan dan kesombongan belaka, mereka akan memperoleh kehinaan di dunia dan azab yang pedih di akhirat. Pada ayat-ayat ini Allah menerangkan orang-orang munafik yang masih ragu-ragu dan belum mempunyai keyakinan yang kuat; jika mereka memperoleh keuntungan, mereka gembira, tetapi jika mereka ditimpa musibah, mereka kafir kembali, dan menyatakan Islamlah yang menjadikan mereka miskin dan sengsara. Sebaliknya orang-orang yang kuat imannya akan memperoleh balasan yang berlipat ganda di akhirat nanti berupa surga yang penuh kenikmatan.",
        "theme_group": "AKIBAT ORANG YANG RAGU-RAGU",
        "kosakata": "1. \u2018Al\u0101 \u1e24arfin  \u0639\u064e\u0644\u064e\u0649 \u062d\u064e\u0631\u0652\u0641\u064d(al-\u1e24ajj/22: 11 )\nKata \u1e25arfin adalah bentuk ma\u1e63dar (kata jadian) dari \u1e25arafa \u2013 ya\u1e25rifu \u2013 \u1e25arfan, yang berarti membelokkan, memalingkan. Kata \u1e25arfin berarti pinggir atau ujung sesuatu, baik sesuatu itu berada di puncak, maupun di tempat yang datar. Dengan demikian, maka makna \u2018al\u0101 \u1e25arfin adalah membelokkan, atau berpaling dari ajaran Islam, sehingga keberadaan orang yang berpaling itu dipinggir satu tempat yang tinggi. Ajaran Islam digambarkan sebagai suatu jalan yang tinggi dan lebar lagi memiliki sifat moderasi/pertengahan. Yang bersangkutan enggan berada ditengah, tetapi memilih daerah pinggiran sehingga ketika terjadi cobaan, ia kehilangan keseimbangan dan akhirnya terjatuh ke bawah. \n2. al-Khusr\u0101nul-mub\u012bn \u0627\u064e\u0644\u0652\u062e\u064f\u0633\u0652\u0631\u064e\u0627\u0646\u064f \u0627\u0644\u0652\u0645\u064f\u0628\u0650\u064a\u0652\u0646\u064e  (al-\u1e24ajj/22: 11 )\nKata al-khusr\u0101n adalah bentuk ma\u1e63dar (kata jadian) dari khasira\u2013 yakhsaru\u2013khusran/khas\u0101ratan/khusr\u0101nan, yang berarti rugi, menderita kerugian. Kata khusr\u0101n dengan berbagai kata turunannya dipergunakan untuk menunjukkan berkurangnya modal, seperti kerugian dalam perniagaan. Kemudian kata khusr\u0101n/khusr dipakai untuk menunjukkan keadaan manusia. Dengan demikian dikenallah kerugian secara material, seperti kerugian harta dan kerugian keduniaan. Juga, kerugian yang bersifat inmateri seperti kejahatan, keselamatan, akal, iman dan pahala.\nBeberapa kerugian yang dikemukakan Al-Qur\u2019an ternyata tidak selalu identik dengan persoalan kehidupan di dunia, tetapi lebih ditekankan pada hal-hal spritual dan ukhrawi yang sifatnya iman seperti yang terdapat pada ayat tersebut di atas. Kata al-mub\u012bn berarti \u201cyang nyata, dan  yang terang.\u201d \nJadi maksud al-khusr\u0101nul-mub\u012bn pada ayat di atas adalah kerugian yang nyata, yakni rugilah orang munafik atau orang yang sangat lemah imannya di dunia, karena dengan demikian ia tidak memperoleh apa yang diharapkannya, bahkan kehilangan ketenangan, dan rugi pula ia di akhirat, karena sikapnya itu mengakibatkan ia tidak memperoleh anugerah Allah, bahkan mengakibatkan ia disiksa. Yang demikian itu, yakni kerugian ganda itu adalah kerugian besar yang nyata.",
        "sabab_nuzul": null,
        "conclusion": null
    }
}