{
    "id": 2746,
    "surah_id": 23,
    "ayah": 73,
    "page": 346,
    "quarter_hizb": 35.25,
    "juz": 18,
    "manzil": 4,
    "arabic": "\u0648\u064e\u0627\u0650\u0646\u0651\u064e\u0643\u064e \u0644\u064e\u062a\u064e\u062f\u0652\u0639\u064f\u0648\u0652\u0647\u064f\u0645\u0652 \u0627\u0650\u0644\u0670\u0649 \u0635\u0650\u0631\u064e\u0627\u0637\u064d \u0645\u0651\u064f\u0633\u0652\u062a\u064e\u0642\u0650\u064a\u0652\u0645\u064d ",
    "latin": "Wa innaka latad\u2018\u016bhum il\u0101 \u1e63ir\u0101\u1e6dim mustaq\u012bm(in).",
    "translation": "Sesungguhnya engkau benar-benar menyeru mereka ke jalan yang lurus.",
    "no_footnote": null,
    "footnotes": null,
    "surah": {
        "id": 23,
        "arabic": " \u0627\u0644\u0645\u0624\u0645\u0646\u0648\u0646",
        "latin": "Al-Mu'min\u016bn",
        "transliteration": "Al-Mu'minun",
        "translation": "Orang-Orang Mukmin",
        "num_ayah": 118,
        "page": 342,
        "location": "Makkiyah"
    },
    "tafsir": {
        "wajiz": "Dan sesungguhnya engkau pasti telah menyeru mereka kepada jalan yang lurus. Orang-orang kafir itu menolak seruan Nabi karena mereka tidak meyakini adanya hari Pembalasan. Dan sesungguhnya orang-orang yang tidak beriman kepada akhirat benar-benar telah menyimpang jauh dari jalan yang lurus menuju jalan kesesatan. Tidak ada jalan menuju kebahagiaan selain jalan Allah. Allah mengazab dan membinasakan mereka akibat bersikap keras kepala. Namun, seandainya mereka Kami kasihani, dan Kami lenyapkan malapetaka yang menimpa mereka, pasti mereka akan terus-menerus terombang-ambing dalam kesesatan mereka. Mereka akan tetap pada kekufuran dan kedurhakaan mereka seperti sediakala.",
        "tahlili": "Kemudian pada ayat ini Allah meyakinkan Nabi Muhammad saw bahwa dia benar-benar seorang rasul yang menyeru kaumnya kepada jalan yang lurus yang membawa mereka kepada kebahagiaan dunia dan akhirat. Allah menghimbau Muhammad agar tidak terpengaruh dengan kata-kata orang-orang kafir itu yang menghina dan mencemoohkannya. Semua ucapan-ucapan mereka itu adalah bohong belaka yang keluar dari mulut mereka karena dengki dan sakit hati.",
        "intro_surah": "Surah al-Mu\u2019min\u016bn terdiri dari 118 ayat, termasuk kelompok surah-surah Makiyah. Dinamai \u201cal-Mu\u2019min\u016bn\u201d, karena permulaan surah ini menerangkan bagaimana seharusnya sifat-sifat orang mukmin yang menyebabkan keberuntungan di akhirat dan ketenteraman jiwa mereka di dunia. Demikian tingginya sifat-sifat itu, hingga ia telah menjadi akhlak bagi Nabi Muhammad.\n\nPOKOK-POKOK ISINYA\n1. \tKeimanan:\nKepastian datangnya hari kebangkitan dan hal-hal yang terjadi pada hari kiamat; Allah tidak memerlukan anak atau sekutu.\n2. \tHukum:\nManusia dibebani sesuai dengan kesanggupannya; rasul-rasul semuanya menyuruh manusia makan makanan yang halal lagi baik; pokok-pokok agama yang dibawa para nabi adalah sama, hanya syariatnya yang berbeda-beda.\n3. \tKisah:\nKisah Nuh a.s.; kisah Hud a.s.; kisah Musa a.s.; kisah Harun a.s.; dan kisah Isa a.s.\n4. \tLain-lain:\nTujuh perkara yang harus dipenuhi oleh seorang mukmin yang ingin mendapat keberuntungan hidup di dunia maupun di akhirat; proses kejadian manusia; tanda-tanda orang yang selalu bergegas melaksanakan kebaikan; nikmat Allah yang dianugerahkan kepada manusia wajib disyukuri.",
        "outro_surah": null,
        "munasabah_prev_surah": "MUNASABAH SURAH AL-\u1e24AJJ DENGAN\nSURAH AL-MU\u2019MIN\u016aN\n1. \tSurah al-\u1e24ajj menyuruh orang-orang mukmin mendirikan salat, menunaikan zakat, mengerjakan semua kebaikan agar mendapat keberuntungan, sedang permulaan Surah al-Mu\u2019min\u016bn menegaskan bahwa orang-orang mukmin bila mereka betul-betul mengerjakan apa yang diperintahkan Allah dan menjauhi apa yang dilarang-Nya seperti zina, pasti mendapat keberuntungan.\n2. \tSama-sama mengemukakan tentang penciptaan manusia, perkembangan kejadian dan kehidupan, dan menjadikan hal yang demikian sebagai bukti adanya hari kebangkitan.\n3. \tSama-sama menyinggung umat-umat yang dahulu yang tidak mengindahkan seruan Nabi-nabi mereka, untuk menjadi i\u2019tibar bagi orang-orang yang datang di belakang mereka.\n4. \tSama-sama mengemukakan bukti-bukti adanya Allah dan Keesaan-Nya.",
        "munasabah_prev_theme": "Pada ayat-ayat yang lalu dijelaskan ketidakpedulian orang kafir terhadap Rasul dan Al-Qur\u2019an, dan kesombongan serta tuduhan-tuduhan mereka terhadap kerasulan Muhammad. Pada ayat berikut ini dipaparkan berbagai pertanyaan dan kemungkinan yang akan terjadi akibat dari sikap dan respon mereka terhadap petunjuk Allah yang disampaikan Nabi Muhammad, namun mereka tetap dalam kekafirannya.",
        "theme_group": "AZAB YANG DIANCAMKAN KEPADA\nORANG KAFIR",
        "kosakata": "1. Kharjan  \u062e\u064e\u0631\u0652\u062c\u064b\u0627 (al-Mu\u2019min\u016bn/23: 72)\nLafal al-kharj (\ufe8d\ufedf\ufea8\ufeae\ufe9d) artinya uang belanja, pengeluaran uang, atau imbalan, berasal dari fi\u2019il \ufe83\ufeed\ufea7\ufeae\ufeed\ufe9f\ufe8e  \ufea7\ufeae\ufe9f\ufe8e \ufef3\ufea8\ufeae\ufe9d \ufea7\ufeae\ufe9d artinya keluar. Lafal \ufea7\ufeae\ufe9f\ufe8e pada ayat 72 surah al-Mu\u2019minun ini sebagai maf\u2019ul atau obyek dari fi\u2019il sebelumnya. Firman Allah dalam ayat ini yaitu  \ufe83\ufee1 \ufe97\ufeb4\ufe84\ufedf\ufeec\ufee2 \ufea7\ufeae\ufe9f\ufe8e artinya: Apakah kamu (Muhammad) meminta imbalan dari mereka? Sesungguhnya Nabi tidak pernah meminta imbalan kepada orang-orang kafir dalam berdakwah dan mengajak mereka mengikuti petunjuk Al-Qur\u2019an, karena selain dakwah Nabi adalah suatu kewajiban dari Allah, juga Nabi sangat sadar bahwa beliau harus melaksanakannya dengan ikhlas, tanpa mengharap imbalan apa pun dari manusia. Pada akhir ayat dilukiskan bahwa soal imbalan, tentu dari Allah akan lebih baik dari manusia, karena Allah Maha memberi rezeki. Pertanyaan ini diajukan karena orang-orang kafir masih saja menolak dakwah Nabi yang membawa petunjuk Al-Qur\u2019an, padahal sebetulnya mereka sangat membutuhkan petunjuk tersebut.\n2. Lalajj\u016b \u0644\u064e\u0644\u064e\u062c\u0651\u064f\u0648\u0652\u0627 (al-Mu\u2019min\u016bn/23: 75)\nLafal lalajj\u016b (\ufedf\ufee0\ufea0\ufeee\ufe8d) berasal dari fi\u2019il \ufeed\ufedf\ufea0\ufe8e\ufe9f\ufe94 \ufedf\ufea0\ufea0\ufe8e \ufef3\ufee0\ufe9e \ufedf\ufe9e artinya berkeras hati, berketetapan, berkeras kepala (tidak mau mundur), kemudian didahului \ufefb\ufee1\ufe8d\ufedf\ufe97\ufeee\ufedc\ufef4\ufeaa yaitu lam yang memperkuat fi\u2019il tersebut dan disambung dengan  \ufeed\ufe8d\ufeed\ufe8d\ufedf\ufea0\ufee4\ufe8e\ufecb\ufe94  yaitu waw yang menjadi fa\u2019il atau pelaku perbuatan tersebut sebagai kata ganti mereka. Maka \ufedf\ufee0\ufea0\ufeee\ufe8d artinya : mereka pasti tetap berkeras kepala dan tidak mau mundur sama sekali. Pada ayat 75 surah al-Mu\u2019minun ini Allah menerangkan bahwa walaupun orang-orang kafir dikasihani dan Allah melenyapkan malapetaka yang menimpa mereka dengan menolong mereka dari kelaparan, tetapi mereka tetap saja tidak mau berhenti dari perbuatan yang dilarang Allah dan menyesatkan. Mereka tetap saja berkeras kepala dengan terus-menerus melakukan maksiat dan tetap ingkar pada agama serta durhaka kepada Allah.",
        "sabab_nuzul": null,
        "conclusion": null
    }
}