{
    "id": 2770,
    "surah_id": 23,
    "ayah": 97,
    "page": 348,
    "quarter_hizb": 35.5,
    "juz": 18,
    "manzil": 4,
    "arabic": "\u0648\u064e\u0642\u064f\u0644\u0652 \u0631\u0651\u064e\u0628\u0651\u0650 \u0627\u064e\u0639\u064f\u0648\u0652\u0630\u064f \u0628\u0650\u0643\u064e \u0645\u0650\u0646\u0652 \u0647\u064e\u0645\u064e\u0632\u0670\u062a\u0650 \u0627\u0644\u0634\u0651\u064e\u064a\u0670\u0637\u0650\u064a\u0652\u0646\u0650 \u06d9",
    "latin": "Wa qur rabbi a\u2018\u016b\u017cu bika min hamaz\u0101tisy-syay\u0101\u1e6d\u012bn(i).",
    "translation": "Katakanlah, \u201cYa Tuhanku, aku berlindung kepada-Mu dari bisikan-bisikan setan",
    "no_footnote": null,
    "footnotes": null,
    "surah": {
        "id": 23,
        "arabic": " \u0627\u0644\u0645\u0624\u0645\u0646\u0648\u0646",
        "latin": "Al-Mu'min\u016bn",
        "transliteration": "Al-Mu'minun",
        "translation": "Orang-Orang Mukmin",
        "num_ayah": 118,
        "page": 342,
        "location": "Makkiyah"
    },
    "tafsir": {
        "wajiz": "Dan katakanlah, wahai Nabi Muhammad, \u201cYa Tuhanku, aku berlindung kepada Engkau dari bisikan-bisikan setan, dan aku berlindung pula kepada Engkau ya Tuhanku, agar mereka tidak mendekati aku dalam segala aktivitasku.\u201d",
        "tahlili": "Pada ayat ini Allah memerintahkan kepada Nabi Muhammad supaya dia selalu berlindung kepada-Nya dari bisikan-bisikan setan dan dari godaan-godaannya, dan supaya setan itu selalu jauh daripadanya dan tidak dapat masuk ke dalam hatinya untuk memperdayakannya.\nDemikianlah seharusnya sikap setiap pejuang untuk menegakkan kebenaran. Mereka harus benar-benar menjaga supaya tidak sekalipun dipengaruhi hawa nafsunya dan terdorong untuk melakukan tindakan-tindakan yang tidak benar dan tidak jujur. Setan amat mudah sekali menjerumuskan manusia ke jurang kesalahan, penghinaan dan kejahatan apabila ia dapat memasuki hawa nafsu manusia. Karena itu hendaklah kita selalu berlindung kepada Allah dari tipu daya setan. Memang apabila seseorang benar-benar telah berserah diri kepada Tuhannya dalam segala tindakannya dan selalu memohon perlindungan-Nya dari tipu daya dan godaan setan, dirinya menjadi bersih dan hati nuraninya akan terketuk untuk selalu berbuat kebaikan dan menghindari kejahatan. Rasulullah selalu berlindung kepada Tuhannya supaya dijauhkan daripadanya campur tangan setan dalam segala perbuatannya terutama dalam salat ketika membaca Al-Qur\u2019an dan pada saat ajalnya akan tiba.\nDiriwayatkan oleh A\u1e25mad, Abu D\u0101ud dan at-Tirm\u00ec\u017ci dan dinilai sahih  oleh al-Baihaqi dari \u2018Amr bin Syu\u2019aib dan ayahnya dari kakeknya ia berkata, \u201cRasulullah saw mengajarkan kepada kami beberapa kata-kata (doa) pada waktu akan tidur.\u201d \n\u0628\u0650\u0627\u0633\u0652\u0645\u0650 \u0627\u0644\u0644\u0651\u0670\u0647\u0650 \u0627\u064e\u0639\u064f\u0648\u0652\u0630\u064f \u0628\u0650\u0643\u064e\u0644\u0650\u0645\u064e\u0627\u062a\u0650 \u0627\u0644\u0644\u0651\u0670\u0647\u0650 \u0627\u0644\u062a\u0651\u064e\u0627\u0645\u0651\u064e\u0629\u0650 \u0645\u0650\u0646\u0652 \u063a\u064e\u0636\u064e\u0628\u0650\u0647\u0650 \u0648\u064e\u0639\u0650\u0642\u064e\u0627\u0628\u0650\u0647\u0650 \u0648\u064e\u0634\u064e\u0631\u0651\u0650 \u0639\u0650\u0628\u064e\u0627\u062f\u0650\u0647\u0650 \u0648\u064e\u0645\u0650\u0646\u0652 \u0647\u064e\u0645\u064e\u0632\u064e\u0627\u062a\u0650 \u0627\u0644\u0634\u0651\u064e\u064a\u064e\u0627\u0637\u0650\u064a\u0652\u0646\u0650 \u0648\u064e\u0627\u064e\u0646\u0652 \u064a\u064e\u062d\u0652\u0636\u064f\u0631\u064f\u0648\u0652\u0646\u0650 (\u0631\u0648\u0627\u0647 \u0627\u062d\u0645\u062f \u0648\u0627\u0628\u0648 \u062f\u0627\u0648\u062f \u0648\u0627\u0644\u062a\u0631\u0645\u0630\u064a)\nDengan menyebut nama Allah, aku berlindung dengan kalimat Allah yang sempurna dari kemurkaan-Nya, dari siksa-Nya. Dari kejahatan hamba-Nya, dari bisikan-bisikan setan dan dari kahadiran setan kepadaku. (Riwayat A\u1e25mad, Abu D\u0101ud dan at-Tirmi\u017ci)",
        "intro_surah": "Surah al-Mu\u2019min\u016bn terdiri dari 118 ayat, termasuk kelompok surah-surah Makiyah. Dinamai \u201cal-Mu\u2019min\u016bn\u201d, karena permulaan surah ini menerangkan bagaimana seharusnya sifat-sifat orang mukmin yang menyebabkan keberuntungan di akhirat dan ketenteraman jiwa mereka di dunia. Demikian tingginya sifat-sifat itu, hingga ia telah menjadi akhlak bagi Nabi Muhammad.\n\nPOKOK-POKOK ISINYA\n1. \tKeimanan:\nKepastian datangnya hari kebangkitan dan hal-hal yang terjadi pada hari kiamat; Allah tidak memerlukan anak atau sekutu.\n2. \tHukum:\nManusia dibebani sesuai dengan kesanggupannya; rasul-rasul semuanya menyuruh manusia makan makanan yang halal lagi baik; pokok-pokok agama yang dibawa para nabi adalah sama, hanya syariatnya yang berbeda-beda.\n3. \tKisah:\nKisah Nuh a.s.; kisah Hud a.s.; kisah Musa a.s.; kisah Harun a.s.; dan kisah Isa a.s.\n4. \tLain-lain:\nTujuh perkara yang harus dipenuhi oleh seorang mukmin yang ingin mendapat keberuntungan hidup di dunia maupun di akhirat; proses kejadian manusia; tanda-tanda orang yang selalu bergegas melaksanakan kebaikan; nikmat Allah yang dianugerahkan kepada manusia wajib disyukuri.",
        "outro_surah": null,
        "munasabah_prev_surah": "MUNASABAH SURAH AL-\u1e24AJJ DENGAN\nSURAH AL-MU\u2019MIN\u016aN\n1. \tSurah al-\u1e24ajj menyuruh orang-orang mukmin mendirikan salat, menunaikan zakat, mengerjakan semua kebaikan agar mendapat keberuntungan, sedang permulaan Surah al-Mu\u2019min\u016bn menegaskan bahwa orang-orang mukmin bila mereka betul-betul mengerjakan apa yang diperintahkan Allah dan menjauhi apa yang dilarang-Nya seperti zina, pasti mendapat keberuntungan.\n2. \tSama-sama mengemukakan tentang penciptaan manusia, perkembangan kejadian dan kehidupan, dan menjadikan hal yang demikian sebagai bukti adanya hari kebangkitan.\n3. \tSama-sama menyinggung umat-umat yang dahulu yang tidak mengindahkan seruan Nabi-nabi mereka, untuk menjadi i\u2019tibar bagi orang-orang yang datang di belakang mereka.\n4. \tSama-sama mengemukakan bukti-bukti adanya Allah dan Keesaan-Nya.",
        "munasabah_prev_theme": "Pada ayat-ayat yang lalu diterangkan tentang bantahan Allah terhadap ucapan-ucapan kaum musyrik yang mengatakan Allah mempunyai anak dan sekutu, hari kebangkitan itu adalah bohong dan Al-Qur\u2019an tiada lain hanyalah dongengan orang-orang dahulu kala dan sebagainya. Sesungguhnya telah sepantasnya ditimpakan kepada mereka azab Allah dengan memusnahkan mereka seperti memusnahkan umat-umat yang durhaka sebelum mereka. Tetapi karena rahmat Allah kepada umat Muhammad azab itu ditangguhkan sampai hari Kiamat dan Muhammad saw harus menghadapi mereka dengan penuh kesabaran dan ketabahan hati. Maka pada ayat-ayat berikut ini Allah menganjurkan supaya Nabi Muhammad selalu berdoa kepada-Nya dan menghadapi sikap kaumnya yang kasar dan tidak senonoh itu dengan bijaksana dan selalu berlindung kepada-Nya dari godaan setan maupun manusia. \n",
        "theme_group": "BEBERAPA DOA DAN PETUNJUK YANG \nDIAJARKAN ALLAH KEPADA NABI MUHAMMAD ",
        "kosakata": "1.  Hamaz\u0101tisy-Syay\u0101\u1e6d\u012bn \u0647\u064e\u0645\u064e\u0632\u064e\u0627\u062a\u0650 \u0627\u0644\u0634\u0651\u064e\u064a\u064e\u0627\u0637\u0650\u064a\u0652\u0646\u0650 (al-Mu\u2019min\u016bn/23: 97)\nHamaz\u0101t berasal dari akar kata hamaza yang berarti \"menekan\", \"meremas\", atau \"mencekik\". Dalam al-Mu\u2019min\u016bn/23:97 Allah meminta Nabi Muhamad, berarti juga semua kaum Muslimin, agar memohon perlindungan kepada-Nya dari tekanan, remasan atau cekikan setan, yaitu dari penguasaan setan pada dirinya. Juga supaya setan itu tidak ikut serta dalam setiap pekerjaannya. Satu bentuk lain penguasaan itu adalah \"menjatuhkan nama baik\" seseorang, sehinga seseorang itu seakan-akan tertekan, teremas, dan tercekik, tidak dapat membela diri. Itulah pengertian hammaz dalam al-Qalam/68:11, pekerjaan yang dilakukan oleh orang yang tidak beriman. Di samping itu orang-orang kafir itu, dalam ayat itu, berkeliling-keliling (menguasai informasi) menyebar fitnah (masysya\u2019), dan mengadu domba (namim).\n2. Barzakh \u0628\u064e\u0631\u0652\u0632\u064e\u062e\u064c (al-Mu\u2019min\u016bn/23: 100)\nBarzakh secara harfiyah berarti \"pembatas\". Di dalam al-Mukminun/23:100 dinyatakan bahwa orang kafir menghadapi \"tembok\" pembatas antara dia dengan kehidupan yang baik di akhirat. Dalam ayat-ayat sebelumnya diterangkan bagaimana mereka ingin kembali ke dunia, dan kalau kembali ke dunia, mereka akan berbuat baik. Allah membantah, karena itu hanyalah omongan di mulut mereka, dan kalau mereka dikembalikan ke dunia, mereka tetap akan ingkar. Karena itulah keinginan mereka untuk memperoleh surga di akhirat akan menghadapi tembok tebal.",
        "sabab_nuzul": null,
        "conclusion": null
    }
}