{
    "id": 2693,
    "surah_id": 23,
    "ayah": 20,
    "page": 343,
    "quarter_hizb": 35,
    "juz": 18,
    "manzil": 4,
    "arabic": "\u0648\u064e\u0634\u064e\u062c\u064e\u0631\u064e\u0629\u064b \u062a\u064e\u062e\u0652\u0631\u064f\u062c\u064f \u0645\u0650\u0646\u0652 \u0637\u064f\u0648\u0652\u0631\u0650 \u0633\u064e\u064a\u0652\u0646\u064e\u0627\u06e4\u0621\u064e \u062a\u064e\u0646\u0652\u06e2\u0628\u064f\u062a\u064f \u0628\u0650\u0627\u0644\u062f\u0651\u064f\u0647\u0652\u0646\u0650 \u0648\u064e\u0635\u0650\u0628\u0652\u063a\u064d \u0644\u0651\u0650\u0644\u0652\u0627\u0670\u0643\u0650\u0644\u0650\u064a\u0652\u0646\u064e ",
    "latin": "Wa syajaratan takhruju min \u1e6d\u016bri sain\u0101'a tambutu bid-duhni wa \u1e63ibgil lil-\u0101kil\u012bn(a).",
    "translation": "(Kami tumbuhkan) pohon (zaitun) yang tumbuh di Bukit Sinai, yang menghasilkan minyak dan lauk-pauk pembangkit selera bagi orang-orang yang makan.",
    "no_footnote": null,
    "footnotes": null,
    "surah": {
        "id": 23,
        "arabic": " \u0627\u0644\u0645\u0624\u0645\u0646\u0648\u0646",
        "latin": "Al-Mu'min\u016bn",
        "transliteration": "Al-Mu'minun",
        "translation": "Orang-Orang Mukmin",
        "num_ayah": 118,
        "page": 342,
        "location": "Makkiyah"
    },
    "tafsir": {
        "wajiz": "Dan atas rahmat Kami pula Kami tumbuhkan pohon zaitun yang tumbuh pertama kali dari gunung Sinai dengan berbagai manfaatnya; buah yang menghasilkan minyak dan menjadi bahan pembangkit selera bagi orang-orang yang makan.",
        "tahlili": "Lalu dengan sebab air hujan itu Allah menumbuhkan untuk manusia kebun-kebun kurma dan anggur dan buah-buahan lain yang beraneka warna yang dapat di makan. Ada pula dari tanam-tanaman itu yang menjadi sumber penghidupan, seperti dari hasil pohon lada, pala, cengkeh dan sebagainya.\nDijadikan pula untuk manusia sejenis pohon kayu yang keluar dari gunung Sinai yaitu pohon zaitun yang banyak tumbuh di sekitar gunung itu, yang banyak menghasilkan minyak dan sering digunakan untuk melezatkan hidangan dan pada akhir-akhir ini dapat pula dijadikan bahan kosmetik dan obat-obatan karena minyak zaitun tidak mengandung kolesterol yang berbahaya bagi tubuh.",
        "intro_surah": "Surah al-Mu\u2019min\u016bn terdiri dari 118 ayat, termasuk kelompok surah-surah Makiyah. Dinamai \u201cal-Mu\u2019min\u016bn\u201d, karena permulaan surah ini menerangkan bagaimana seharusnya sifat-sifat orang mukmin yang menyebabkan keberuntungan di akhirat dan ketenteraman jiwa mereka di dunia. Demikian tingginya sifat-sifat itu, hingga ia telah menjadi akhlak bagi Nabi Muhammad.\n\nPOKOK-POKOK ISINYA\n1. \tKeimanan:\nKepastian datangnya hari kebangkitan dan hal-hal yang terjadi pada hari kiamat; Allah tidak memerlukan anak atau sekutu.\n2. \tHukum:\nManusia dibebani sesuai dengan kesanggupannya; rasul-rasul semuanya menyuruh manusia makan makanan yang halal lagi baik; pokok-pokok agama yang dibawa para nabi adalah sama, hanya syariatnya yang berbeda-beda.\n3. \tKisah:\nKisah Nuh a.s.; kisah Hud a.s.; kisah Musa a.s.; kisah Harun a.s.; dan kisah Isa a.s.\n4. \tLain-lain:\nTujuh perkara yang harus dipenuhi oleh seorang mukmin yang ingin mendapat keberuntungan hidup di dunia maupun di akhirat; proses kejadian manusia; tanda-tanda orang yang selalu bergegas melaksanakan kebaikan; nikmat Allah yang dianugerahkan kepada manusia wajib disyukuri.",
        "outro_surah": null,
        "munasabah_prev_surah": "MUNASABAH SURAH AL-\u1e24AJJ DENGAN\nSURAH AL-MU\u2019MIN\u016aN\n1. \tSurah al-\u1e24ajj menyuruh orang-orang mukmin mendirikan salat, menunaikan zakat, mengerjakan semua kebaikan agar mendapat keberuntungan, sedang permulaan Surah al-Mu\u2019min\u016bn menegaskan bahwa orang-orang mukmin bila mereka betul-betul mengerjakan apa yang diperintahkan Allah dan menjauhi apa yang dilarang-Nya seperti zina, pasti mendapat keberuntungan.\n2. \tSama-sama mengemukakan tentang penciptaan manusia, perkembangan kejadian dan kehidupan, dan menjadikan hal yang demikian sebagai bukti adanya hari kebangkitan.\n3. \tSama-sama menyinggung umat-umat yang dahulu yang tidak mengindahkan seruan Nabi-nabi mereka, untuk menjadi i\u2019tibar bagi orang-orang yang datang di belakang mereka.\n4. \tSama-sama mengemukakan bukti-bukti adanya Allah dan Keesaan-Nya.",
        "munasabah_prev_theme": "Pada ayat-ayat yang lalu Allah menerangkan penciptaan manusia dalam beberapa fase perkembangan. Semua proses itu menunjukkan kekuasaan-Nya yang sempurna dan hanya Dia yang pantas mengatur segala urusan-Nya, maka pada ayat-ayat berikut ini Allah menerangkan apa yang akan menjadi kebutuhan manusia itu untuk kelangsungan hidupnya dan kemanfaatan apa yang ia harus peroleh dari benda-benda yang ada di sekitarnya, baik yang di langit maupun yang di bumi.",
        "theme_group": "TANDA-TANDA KEKUASAAN ALLAH",
        "kosakata": "1. \u1e6car\u0101\u2019iqa  \u0637\u064e\u0631\u064e\u0627\u0626\u0650\u0642\u064e (Al-Mu\u2019minun 23: 17)\n\u1e6car\u0101\u2019iqa bentuk jamak dari \u0637\u0631\u064a\u0642\u0629. Terambil dari akar kata \u0637 \u0631 \u0642 berarti datang pada malam hari, memukul, meletakkan sesuatu di atas yang lain, terbentang datar, dan lain-lain.\nDi antara arti \u0637\u0631\u064a\u0642\u0629 menurut Ibnu Faris adalah jalan, karena ia lebih tinggi dari permukaan tanah. Namun Ibnu Asyur memahami arti jalan di sini adalah jalan yang dibuat manusia sebagai imajinasi dari tempat peredaran planet, karena planet dalam Al-Qur\u2019an juga disebut \u0637\u0627\u0631\u0642 (a\u1e6d-\u1e6c\u0101riq/86:1). Karena jalan pasti dilalui oleh pejalan, maka ayat tersebut seakan menyatakan, \u201cDan kami telah ciptakan di atas kamu planet-planet bersama dengan jalan-jalannya.\u201d\nMenurut \u1e6cab\u0101\u2019\u1e6dab\u0101\u2019\u012b sebagaimana dikutip Quraish Shihab, kata itu juga berarti jalan karena di sanalah jalur turunnya perintah Allah ke bumi (a\u1e6d-\u1e6calaq/ 65:12), jalan ini pula yang dilalui oleh amal-amal baik yang naik ke sisi Allah (F\u0101\u1e6dir/35:10). Dengan pemahaman demikian, menurut \u1e6cab\u0101\u2019\u1e6dab\u0101\u2019\u012b, bertemu awal ayat di atas dengan akhirnya yang menyatakan, \u201cDan Kami terhadap ciptaan tidaklah lengah.\u201d Dalam arti bahwa Allah selalu mengawasi mahluknya, bahkan ketujuh jalan tersebut terbentang antara Allah dan mahluknya, dimana malaikat turun naik membawa amal perbuatan manusia.\n2. Bid-Duhni \u0628\u0650\u0627\u0644\u062f\u0651\u064f\u0647\u0652\u0646\u0650 (al-Mu\u2019min\u016bn/23: 20)\nBid-duhn jamaknya \u0623\u062f\u0647\u0627\u0646 (adh\u0101n) artinya tumbuh, mengandung minyak, atau menghasilkan minyak. Menurut para ulama yang dimaksud dengan pohon yang mengandung minyak adalah pohon Zaitun yang muncul pertama kali di bukit Sina. Pohon Zaitun termasuk karunia Allah yang sangat besar karena manfaatnya yang begitu banyak. Penelitian terhadap pohon Zaitun membuktikan kandungan buah Zaitun yang terdiri dari zat besi, fosfor, zat garam, vitamin A, B, dan lain-lain yang sangat dibutuhkan tubuh. Minyak Zaitun banyak dipakai sebagai bahan utama kosmetik seperti sabun, cream rambut dan kulit. Selain buahnya bisa dimakan setelah diolah terlebih dahulu, minyak Zaitun juga dipakai sebagai minyak goreng, karena bebas dari kolesterol yang merusak jantung. Kata ad-duhn hanya satu kali disebut dalam Al-Qur\u2019an, yaitu pada ayat ini.",
        "sabab_nuzul": null,
        "conclusion": "1. \tAllah menciptakan tujuh lapis langit sebagai tempat peredaran planet-planet tertentu dengan peraturan yang tertentu pula.\n2. \tAllah menurunkan air hujan dari langit dengan kadar tertentu, yang sebagian menetap dalam lapisan bumi dan sebahagian besar lagi untuk menyuburkan bumi yang menumbuhkan bermacam-macam buah-buahan, di antaranya, kurma, anggur dan zaitun yang minyaknya sangat bermanfaat."
    }
}