{
    "id": 2743,
    "surah_id": 23,
    "ayah": 70,
    "page": 346,
    "quarter_hizb": 35.25,
    "juz": 18,
    "manzil": 4,
    "arabic": "\u0627\u064e\u0645\u0652 \u064a\u064e\u0642\u064f\u0648\u0652\u0644\u064f\u0648\u0652\u0646\u064e \u0628\u0650\u0647\u0656 \u062c\u0650\u0646\u0651\u064e\u0629\u064c \u06d7 \u0628\u064e\u0644\u0652 \u062c\u064e\u0627\u06e4\u0621\u064e\u0647\u064f\u0645\u0652 \u0628\u0650\u0627\u0644\u0652\u062d\u064e\u0642\u0651\u0650 \u0648\u064e\u0627\u064e\u0643\u0652\u062b\u064e\u0631\u064f\u0647\u064f\u0645\u0652 \u0644\u0650\u0644\u0652\u062d\u064e\u0642\u0651\u0650 \u0643\u0670\u0631\u0650\u0647\u064f\u0648\u0652\u0646\u064e ",
    "latin": "Am yaq\u016bl\u016bna bih\u012b jinnah(tun), bal j\u0101'ahum bil-\u1e25aqqi wa ak\u1e61aruhum lil-\u1e25aqqi k\u0101rih\u016bn(a).",
    "translation": "Atau, mereka berkata, \u201cOrang itu (Nabi Muhammad) gila.\u201d Padahal, dia telah datang membawa kebenaran kepada mereka, tetapi kebanyakan mereka membenci kebenaran itu.",
    "no_footnote": null,
    "footnotes": null,
    "surah": {
        "id": 23,
        "arabic": " \u0627\u0644\u0645\u0624\u0645\u0646\u0648\u0646",
        "latin": "Al-Mu'min\u016bn",
        "transliteration": "Al-Mu'minun",
        "translation": "Orang-Orang Mukmin",
        "num_ayah": 118,
        "page": 342,
        "location": "Makkiyah"
    },
    "tafsir": {
        "wajiz": "Maka keberpalingan dan perlakukan para pendurhaka itu kepada ayat-ayat Kami sungguh keterlaluan. Tidakkah mereka menggunakan akalnya sehingga dapat menghayati firman Kami, ataukah mereka mendustakan rasul dengan alasan telah datang kepada mereka apa yang tidak pernah datang kepada nenek moyang mereka terdahulu, yaitu risalah kenabian yang tidak dikenal oleh leluhur mereka? Jelas bukan itu alasannya! Risalah Nabi Muhamamd sama dengan risalah nabi-nabi terdahulu (Lihat juga: Surah al-Anbiya / 21: 25). Ataukah mereka ingkar dengan dalih bahwa mereka tidak mengenal Rasul mereka, yaitu Nabi Muhammad, karena itu mereka mengingkarinya? Ini pun bukanlah alasan yang dapat diterima karena mereka mengenal dengan baik Nabi Muhammad, bahkan mereka mengakui integritasnya dengan menggelarinya \u201cal-Amin\u201d. Atau apakah mereka menolak dakwah Nabi Muhamamd dengan berkata, \u201cOrang itu gila\u201d? Sungguh, tuduhan itu tidak masuk akal karena mereka tahu pasti Nabi Muhammad adalah orang yang paling lurus akalnya. Sebenarnya, pangkal penolakan adalah karena dia telah datang membawa kebenaran, yaitu Al-Qur\u2019an, kepada mereka, tetapi kebanyakan mereka membenci kebenaran karena bertentangan dengan hawa nafsu dan syahwat mereka.",
        "tahlili": "Penjelasan selanjutnya mengatakan bahwa mereka menganggap Muhammad saw sebagai orang gila yang tidak menyadari semua ucapannya. Sebetulnya, mereka tahu benar bahwa Muhammad tidak gila, dan mengakui bahwa dia adalah seorang yang paling cerdas di antara mereka, seorang cendekiawan yang bijaksana. Mereka sendiri pernah mengangkatnya sebagai hakim yang memutuskan perkara di antara mereka, ketika berselisih tentang siapa yang akan meletakkan hajar aswad di tempatnya semula setelah bangunan Ka\u2019bah dirombak dan diperbaiki.\nPada ayat ini Allah menegaskan bahwa Muhammad adalah pembawa kebenaran dari Tuhannya, bukan seperti yang mereka tuduhkan. Dia mengajak mereka supaya meninggalkan berbagai sembahan dan berhala serta kembali kepada agama tauhid yang murni, agama nenek moyang mereka Nabi Ibrahim. Dia adalah pembawa agama yang mempunyai syariat dan peraturan untuk kebahagiaan manusia di dunia dan di akhirat. Tetapi kebanyakan mereka benci kepada kebenaran yang dia serukan, karena hati mereka telah tertutup oleh syirik, dosa, dan kedurhakaan. Oleh sebab itu, mereka berpaling dari jalan yang benar, selalu menempuh jalan yang sesat, dan tak dapat lagi memahami kebenaran, bahkan mereka membencinya. Memang ada di antara mereka yang sadar dan insaf, mengakui dalam hatinya bahwa agama yang dibawa Muhammad itu adalah agama yang benar dan baik, tetapi karena takut dicemooh kaumnya yang kafir mereka tidak mau beriman seperti halnya paman Nabi sendiri yaitu Abu Talib. Ia pernah mengatakan, \u201cKalau tidak karena takut akan dicerca oleh pemimpin-pemimpin kabilah kami, tentulah kami benar-benar telah menjadi pengikutnya dalam segala hal.\u201d",
        "intro_surah": "Surah al-Mu\u2019min\u016bn terdiri dari 118 ayat, termasuk kelompok surah-surah Makiyah. Dinamai \u201cal-Mu\u2019min\u016bn\u201d, karena permulaan surah ini menerangkan bagaimana seharusnya sifat-sifat orang mukmin yang menyebabkan keberuntungan di akhirat dan ketenteraman jiwa mereka di dunia. Demikian tingginya sifat-sifat itu, hingga ia telah menjadi akhlak bagi Nabi Muhammad.\n\nPOKOK-POKOK ISINYA\n1. \tKeimanan:\nKepastian datangnya hari kebangkitan dan hal-hal yang terjadi pada hari kiamat; Allah tidak memerlukan anak atau sekutu.\n2. \tHukum:\nManusia dibebani sesuai dengan kesanggupannya; rasul-rasul semuanya menyuruh manusia makan makanan yang halal lagi baik; pokok-pokok agama yang dibawa para nabi adalah sama, hanya syariatnya yang berbeda-beda.\n3. \tKisah:\nKisah Nuh a.s.; kisah Hud a.s.; kisah Musa a.s.; kisah Harun a.s.; dan kisah Isa a.s.\n4. \tLain-lain:\nTujuh perkara yang harus dipenuhi oleh seorang mukmin yang ingin mendapat keberuntungan hidup di dunia maupun di akhirat; proses kejadian manusia; tanda-tanda orang yang selalu bergegas melaksanakan kebaikan; nikmat Allah yang dianugerahkan kepada manusia wajib disyukuri.",
        "outro_surah": null,
        "munasabah_prev_surah": "MUNASABAH SURAH AL-\u1e24AJJ DENGAN\nSURAH AL-MU\u2019MIN\u016aN\n1. \tSurah al-\u1e24ajj menyuruh orang-orang mukmin mendirikan salat, menunaikan zakat, mengerjakan semua kebaikan agar mendapat keberuntungan, sedang permulaan Surah al-Mu\u2019min\u016bn menegaskan bahwa orang-orang mukmin bila mereka betul-betul mengerjakan apa yang diperintahkan Allah dan menjauhi apa yang dilarang-Nya seperti zina, pasti mendapat keberuntungan.\n2. \tSama-sama mengemukakan tentang penciptaan manusia, perkembangan kejadian dan kehidupan, dan menjadikan hal yang demikian sebagai bukti adanya hari kebangkitan.\n3. \tSama-sama menyinggung umat-umat yang dahulu yang tidak mengindahkan seruan Nabi-nabi mereka, untuk menjadi i\u2019tibar bagi orang-orang yang datang di belakang mereka.\n4. \tSama-sama mengemukakan bukti-bukti adanya Allah dan Keesaan-Nya.",
        "munasabah_prev_theme": "Pada ayat-ayat yang lalu Allah menerangkan bahwa agama Islam adalah agama yang mudah dilaksanakan ajaran-ajaran-Nya karena Allah tidak akan membebani hamba-Nya di luar batas kemampuannya. Ayat yang lalu juga  menerangkan bahwa semua perbuatan hamba dicatat di dalam kitab baik yang besar, yang kecil, maupun yang baik dan yang buruk dan mereka akan menerima balasan sesuai dengan amal perbuatan itu. Pada ayat-ayat berikut ini Allah menerangkan bahwa orang-orang musyrikin tidak pernah meng-indahkan ajaran-ajaran yang disebutkan dalam Al-Qur\u2019an bahkan mereka sibuk dengan perbuatan dosa dan selalu mencela dan menjelek-jelekkan Islam dan kaum Muslimin, menganiaya dan menyakiti mereka. Di akhirat nanti mereka dihadapkan kepada siksaan berat karena pembangkangan dan kedurhakaan mereka, tetapi tidak ada yang dapat menolong dan melindungi mereka, sedang semua kekuasaan pada waktu itu berada di tangan Allah Yang Mahaadil. ",
        "theme_group": "TEGURAN KERAS TERHADAP ORANG-ORANG KAFIR",
        "kosakata": "Kosakata:  Yaj\u2019ar\u016bn \u064a\u064e\u062c\u0652\u0626\u064e\u0631\u064f\u0648\u0652\u0646\u064e (al-Mu\u2019min\u016bn/23: 64)\nYaj\u2019ar\u016bn artinya mereka berteriak-teriak minta tolong. Berasal dari fi\u2019il \u062c\u0623\u0631 - \u062c\u0623\u0631\u0627 artinya bersuara keras meminta tolong, menjerit-jerit. \ufe9f\ufe84\ufead\ufe8d\ufefb\ufeb3\ufeaa artinya singa itu meraung-raung. Dalam ayat 64 Surah al-Mu\u2019min\u016bn ini digambarkan sebagai kelanjutan dari perbuatan orang-orang kafir yang bertentangan dengan petunjuk Al-Qur\u2019an maka mereka menerima azab yang sangat pedih. Mereka yang di dunia hidup bermewah-mewah dan menghamburkan harta mereka dalam hal-hal yang dilarang agama, kemudian mereka mendapat azab di akhirat, maka berteriak-teriak histeris meminta tolong. Padahal di akhirat tidak ada yang dapat menolong mereka.",
        "sabab_nuzul": null,
        "conclusion": "1. \tHati orang-orang kafir itu telah tertutup oleh noda-noda kesalahan dan kedurhakaan sehingga mereka tidak punya kemauan sama sekali untuk menerima kebenaran.\n2. \tPemimpin dan pembesar mereka ketika dihadapkan kepada siksaan di akhirat nanti, berteriak-teriak meminta tolong, tetapi tak ada yang dapat menolong mereka. Kepada mereka telah disampaikan petunjuk Ilahi, tetapi mereka menolaknya dengan sombong dan takabur, bahkan mereka menjadikan ajaran itu bahan cemoohan dan olok-olokan pada waktu mereka bersantai di malam hari.\n3. \tAllah menegur perbuatan dan tindakan mereka karena mereka seolah-olah tidak mengetahui siapa Muhammad, bahkan mereka menuduhnya sebagai orang gila, tukang sihir, dan sebagainya.\n4. \tAllah menegaskan bahwa Muhammad saw benar-benar pembawa kebenaran dari Tuhannya, hanya orang-orang kafir itulah yang membangkang dan mengingkarinya.\n"
    }
}