{
    "id": 2763,
    "surah_id": 23,
    "ayah": 90,
    "page": 348,
    "quarter_hizb": 35.5,
    "juz": 18,
    "manzil": 4,
    "arabic": "\u0628\u064e\u0644\u0652 \u0627\u064e\u062a\u064e\u064a\u0652\u0646\u0670\u0647\u064f\u0645\u0652 \u0628\u0650\u0627\u0644\u0652\u062d\u064e\u0642\u0651\u0650 \u0648\u064e\u0627\u0650\u0646\u0651\u064e\u0647\u064f\u0645\u0652 \u0644\u064e\u0643\u0670\u0630\u0650\u0628\u064f\u0648\u0652\u0646\u064e",
    "latin": "Bal atain\u0101hum bil-\u1e25aqqi wa innahum lak\u0101\u017cib\u016bn(a).",
    "translation": "Padahal, Kami telah membawa kebenaran kepada mereka, tetapi sesungguhnya mereka benar-benar pendusta.",
    "no_footnote": null,
    "footnotes": null,
    "surah": {
        "id": 23,
        "arabic": " \u0627\u0644\u0645\u0624\u0645\u0646\u0648\u0646",
        "latin": "Al-Mu'min\u016bn",
        "transliteration": "Al-Mu'minun",
        "translation": "Orang-Orang Mukmin",
        "num_ayah": 118,
        "page": 342,
        "location": "Makkiyah"
    },
    "tafsir": {
        "wajiz": "Padahal, Kami melalui para rasul yang Kami utus telah membawa kebenaran yang mutlak, sempurna, dan tidak mengandung keraguan apalagi kebatilan, kepada mereka, yaitu orang-orang kafir itu, tetapi mereka benar-benar pendusta.",
        "tahlili": "Pada ayat ini Allah menegaskan kepada orang-orang kafir itu, karena semua pertanyaan yang dikemukakan kepada mereka mengenai Allah sebagai Pencipta, Pemilik dan Pengatur segalanya, mereka jawab dengan jawaban yang benar dan positif, bahwa Al-Qur\u2019an yang diturunkan kepada Nabi Muhammad untuk memperbaiki dan meluruskan akidah mereka yang telah sesat, adalah benar dan tuduhan-tuduhan yang mereka kemukakan terhadap Muhammad dan Al-Qur\u2019an yang dibawanya adalah keliru dan bohong. Al-Qur\u2019an bukanlah dongengan-dongengan orang dahulu, tetapi benar-benar wahyu dan petunjuk dari Allah Yang Maha Pencipta, Mahakuasa dan Yang Mengatur segala sesuatu, baik di bumi maupun di langit dengan hikmat dan kebijaksanaan-Nya.",
        "intro_surah": "Surah al-Mu\u2019min\u016bn terdiri dari 118 ayat, termasuk kelompok surah-surah Makiyah. Dinamai \u201cal-Mu\u2019min\u016bn\u201d, karena permulaan surah ini menerangkan bagaimana seharusnya sifat-sifat orang mukmin yang menyebabkan keberuntungan di akhirat dan ketenteraman jiwa mereka di dunia. Demikian tingginya sifat-sifat itu, hingga ia telah menjadi akhlak bagi Nabi Muhammad.\n\nPOKOK-POKOK ISINYA\n1. \tKeimanan:\nKepastian datangnya hari kebangkitan dan hal-hal yang terjadi pada hari kiamat; Allah tidak memerlukan anak atau sekutu.\n2. \tHukum:\nManusia dibebani sesuai dengan kesanggupannya; rasul-rasul semuanya menyuruh manusia makan makanan yang halal lagi baik; pokok-pokok agama yang dibawa para nabi adalah sama, hanya syariatnya yang berbeda-beda.\n3. \tKisah:\nKisah Nuh a.s.; kisah Hud a.s.; kisah Musa a.s.; kisah Harun a.s.; dan kisah Isa a.s.\n4. \tLain-lain:\nTujuh perkara yang harus dipenuhi oleh seorang mukmin yang ingin mendapat keberuntungan hidup di dunia maupun di akhirat; proses kejadian manusia; tanda-tanda orang yang selalu bergegas melaksanakan kebaikan; nikmat Allah yang dianugerahkan kepada manusia wajib disyukuri.",
        "outro_surah": null,
        "munasabah_prev_surah": "MUNASABAH SURAH AL-\u1e24AJJ DENGAN\nSURAH AL-MU\u2019MIN\u016aN\n1. \tSurah al-\u1e24ajj menyuruh orang-orang mukmin mendirikan salat, menunaikan zakat, mengerjakan semua kebaikan agar mendapat keberuntungan, sedang permulaan Surah al-Mu\u2019min\u016bn menegaskan bahwa orang-orang mukmin bila mereka betul-betul mengerjakan apa yang diperintahkan Allah dan menjauhi apa yang dilarang-Nya seperti zina, pasti mendapat keberuntungan.\n2. \tSama-sama mengemukakan tentang penciptaan manusia, perkembangan kejadian dan kehidupan, dan menjadikan hal yang demikian sebagai bukti adanya hari kebangkitan.\n3. \tSama-sama menyinggung umat-umat yang dahulu yang tidak mengindahkan seruan Nabi-nabi mereka, untuk menjadi i\u2019tibar bagi orang-orang yang datang di belakang mereka.\n4. \tSama-sama mengemukakan bukti-bukti adanya Allah dan Keesaan-Nya.",
        "munasabah_prev_theme": "Pada ayat-ayat yang lalu Allah menerangkan alasan penolakan orang-orang kafir terhadap hari kebangkitan untuk menghisab amal perbuatan manusia selama hidup di dunia. Pada ayat-ayat ini Allah menyebutkan dalil-dalil kekuasaan Allah yang dengan kekuasaan-Nya itu Dia memiliki seluruh alam semesta dan dapat melindungi segala sesuatu sementara tidak ada yang dapat melindungi dirinya dari azab Allah. Semua makhluk mengakuinya, namun masih banyak sekali manusia yang mengingkarinya.\n",
        "theme_group": "SANGGAHAN TERHADAP PENDIRIAN ORANG \nKAFIR TENTANG HARI KEBANGKITAN",
        "kosakata": "1. Al-\u2019Arsy al-\u2019A\u1e93\u012bm \u0627\u064e\u0644\u0652\u0639\u064e\u0631\u0652\u0634\u0650 \u0627\u0644\u0652\u0639\u064e\u0638\u0650\u064a\u0652\u0645\u0650 (al-Mu\u2019min\u016bn/23: 86)\n\ufe8d\ufedf\ufecc\ufeae\ufeb5\ufe8d\ufedf\ufecc\ufec8\ufef4\ufee2 yaitu \u2018arsy yang agung. Lafal \ufe8d\ufedf\ufecc\ufeae\ufeb5 mempunyai banyak arti, antara lain yaitu: takhta, singgasana raja, istana, kemah, bangsal tempat duduk tamu-tamu kehormatan. Dalam ayat 86 Surah al-Mu\u2019min\u016bn ini dan pada ayat sebelumnya serta beberapa ayat sesudahnya, Allah menerangkan bahwa sesungguhnya orang-orang kafir itu memahami dan percaya bahwa pencipta, pemilik dan pengatur bumi, langit dan segala isinya adalah Allah yang mempunyai kekuasaan yang sangat besar. Tetapi mereka tidak mau taat dan beribadah kepada Allah. Mereka mengakui Allah sebagai Tuhan secara Rububiyah yaitu pemelihara dan pengatur alam ini, tetapi mereka tidak mengakui Allah secara Uluhiyah yaitu satu-satunya Zat yang wajib disembah oleh semua hamba-Nya, yang wajib ditaati semua perintah dan dihindari semua larangan-larangan-Nya. Mereka lebih senang menyembah kepada benda-benda yang konkret seperti patung berhala, karena ini lebih jelas kelihatan oleh mereka.\n2. Malak\u016bt \u0645\u064e\u0644\u064e\u0643\u064f\u0648\u0652\u062a (al-Mu\u2019min\u016bn/23: 88)\nMalak\u016bt terambil dari akar kata malaka yang berarti  \u2018memiliki\u2019. Malak\u016bt adalah masdar dari malaka itu yang diberi tambahan waw dan ta\u2019, maknanya adalah segala yang khusus kepemilikannya hanya ada pada Allah, yang diterjemahkan dengan \"perbendaharaan\". Pada Surah al-Mu\u2019min\u016bn/23:88 Allah meminta Nabi Muhammad bertanya kepada orang kafir, \"Siapakah yang (menguasai) di tangannya perbendaharaan segala sesuatu, dan Ia melindungi dan tidak dilindungi, jika kalian tahu?\" Dalam al-An\u2018\u0101m/6:75 disampaikan, \"Demikianlah Kami perlihatkan kepada Ibrahim perbendaharaan langit dan bumi,\" yaitu isi langit dan bumi yang begitu banyaknya sehingga bisa disebut pula \"kerajaan\". ",
        "sabab_nuzul": null,
        "conclusion": "Pada hakikatnya orang-orang kafir mengakui kekuasaan Allah, tetapi mereka tidak mau beriman dan beribadah kepada Allah, bahkan mereka menyembah berhala. Penyebabnya adalah taklid buta dan mengikuti hawa nafsu belaka."
    }
}