{
    "id": 2772,
    "surah_id": 23,
    "ayah": 99,
    "page": 348,
    "quarter_hizb": 35.5,
    "juz": 18,
    "manzil": 4,
    "arabic": "\u062d\u064e\u062a\u0651\u0670\u0649\u0653 \u0627\u0650\u0630\u064e\u0627 \u062c\u064e\u0627\u06e4\u0621\u064e \u0627\u064e\u062d\u064e\u062f\u064e\u0647\u064f\u0645\u064f \u0627\u0644\u0652\u0645\u064e\u0648\u0652\u062a\u064f \u0642\u064e\u0627\u0644\u064e \u0631\u064e\u0628\u0651\u0650 \u0627\u0631\u0652\u062c\u0650\u0639\u064f\u0648\u0652\u0646\u0650 \u06d9",
    "latin": "\u1e24att\u0101 i\u017c\u0101 j\u0101'a a\u1e25adahumul-mautu q\u0101la rabbirji\u2018\u016bn(i).",
    "translation": "(Demikianlah keadaan orang-orang kafir itu) hingga apabila datang kematian kepada seseorang dari mereka, dia berkata, \u201cYa Tuhanku, kembalikanlah aku (ke dunia)",
    "no_footnote": null,
    "footnotes": null,
    "surah": {
        "id": 23,
        "arabic": " \u0627\u0644\u0645\u0624\u0645\u0646\u0648\u0646",
        "latin": "Al-Mu'min\u016bn",
        "transliteration": "Al-Mu'minun",
        "translation": "Orang-Orang Mukmin",
        "num_ayah": 118,
        "page": 342,
        "location": "Makkiyah"
    },
    "tafsir": {
        "wajiz": "Orang-orang kafir itu akan terus membangkang, hingga apabila datang kematian kepada seseorang dari mereka untuk mengakhiri kehi-dupannya di dunia dan menghentikan kenikmatan yang dirasakannya, hingga pada akhirnya ia melihat siksa yang akan diterimanya, dia berkata, \u201cYa Tuhanku, kembalikanlah aku ke dunia agar aku dapat berbuat kebajikan yang telah aku tinggalkan.\u201d Sekali-kali tidak! Allah tidak akan memenuhi permohonan mereka karena Allah tahu bahwa mereka tidak akan menepati janji.  Sesungguhnya itu adalah dalih yang diucapkannya saja. Dan di hadapan serta di belakang mereka ada barzakh, yaitu dinding pemisah antara kehidupan dunia dan akhirat, yang menghalangi mereka kembali ke dunia sampai pada hari mereka dibangkitkan.",
        "tahlili": "Pada ayat ini Allah memberitahukan tentang kata-kata yang diucapkan oleh orang kafir ketika menghadapi maut, walaupun kata-kata itu tidak dapat didengar oleh orang-orang yang hadir ketika itu. Orang kafir itu meminta kepada Allah supaya dia jangan dimatikan dahulu dan dibiarkan hidup seperti sediakala agar dia dapat bertobat dari kesalahan dan kedurhakaannya dan dapat beriman dan mengerjakan amal yang baik yang tidak dikerjakannya selama hidupnya.\nDemikianlah keadaan orang-orang kafir itu pada waktu dia masih sehat walafiat dan mempunyai kesanggupan untuk beriman dan beramal saleh, dia enggan menerima kebenaran, takabur dan sombong terhadap orang-orang yang beriman, selalu durhaka kepada Allah bahkan melakukan tindakan-tindakan yang bertentangan dengan perintah Allah dan mengucapkan kata-kata yang tidak benar terhadap-Nya. Akan tetapi, ketika dalam keadaan sakaratul maut, mereka teringat pada dosa dan kesalahan yang telah mereka lakukan. Ketika itu juga mereka menjadi insaf dan sadar lalu meminta dengan sepenuh hati kepada Allah agar diberi umur panjang untuk berbuat baik guna menutupi semua kedurhakaan dan kejahatan yang telah mereka lakukan. Namun demikian, saat sakaratul maut bukan waktu untuk meminta ampun dan bertobat sebagaimana tersebut dalam firman-Nya:\n\u0627\u0650\u0646\u0651\u064e\u0645\u064e\u0627 \u0627\u0644\u062a\u0651\u064e\u0648\u0652\u0628\u064e\u0629\u064f \u0639\u064e\u0644\u064e\u0649 \u0627\u0644\u0644\u0651\u0670\u0647\u0650 \u0644\u0650\u0644\u0651\u064e\u0630\u0650\u064a\u0652\u0646\u064e \u064a\u064e\u0639\u0652\u0645\u064e\u0644\u064f\u0648\u0652\u0646\u064e \u0627\u0644\u0633\u0651\u064f\u0648\u0652\u06e4\u0621\u064e \u0628\u0650\u062c\u064e\u0647\u064e\u0627\u0644\u064e\u0629\u064d \u062b\u064f\u0645\u0651\u064e \u064a\u064e\u062a\u064f\u0648\u0652\u0628\u064f\u0648\u0652\u0646\u064e \u0645\u0650\u0646\u0652 \u0642\u064e\u0631\u0650\u064a\u0652\u0628\u064d \u0641\u064e\u0627\u064f\u0648\u0644\u0670\u06e4\u0649\u0655\u0650\u0643\u064e \u064a\u064e\u062a\u064f\u0648\u0652\u0628\u064f \u0627\u0644\u0644\u0651\u0670\u0647\u064f \u0639\u064e\u0644\u064e\u064a\u0652\u0647\u0650\u0645\u0652 \u06d7 \u0648\u064e\u0643\u064e\u0627\u0646\u064e \u0627\u0644\u0644\u0651\u0670\u0647\u064f \u0639\u064e\u0644\u0650\u064a\u0652\u0645\u064b\u0627 \u062d\u064e\u0643\u0650\u064a\u0652\u0645\u064b\u0627 \u0661\u0667 \u0648\u064e\u0644\u064e\u064a\u0652\u0633\u064e\u062a\u0650 \u0627\u0644\u062a\u0651\u064e\u0648\u0652\u0628\u064e\u0629\u064f \u0644\u0650\u0644\u0651\u064e\u0630\u0650\u064a\u0652\u0646\u064e \u064a\u064e\u0639\u0652\u0645\u064e\u0644\u064f\u0648\u0652\u0646\u064e \u0627\u0644\u0633\u0651\u064e\u064a\u0651\u0650\u0627\u0670\u062a\u0650\u06da \u062d\u064e\u062a\u0651\u0670\u0649\u0653 \u0627\u0650\u0630\u064e\u0627 \u062d\u064e\u0636\u064e\u0631\u064e \u0627\u064e\u062d\u064e\u062f\u064e\u0647\u064f\u0645\u064f \u0627\u0644\u0652\u0645\u064e\u0648\u0652\u062a\u064f \u0642\u064e\u0627\u0644\u064e \u0627\u0650\u0646\u0651\u0650\u064a\u0652 \u062a\u064f\u0628\u0652\u062a\u064f \u0627\u0644\u0652\u0640\u0654\u0670\u0646\u064e \u0648\u064e\u0644\u064e\u0627 \u0627\u0644\u0651\u064e\u0630\u0650\u064a\u0652\u0646\u064e \u064a\u064e\u0645\u064f\u0648\u0652\u062a\u064f\u0648\u0652\u0646\u064e \u0648\u064e\u0647\u064f\u0645\u0652 \u0643\u064f\u0641\u0651\u064e\u0627\u0631\u064c \u06d7 \u0627\u064f\u0648\u0644\u0670\u06e4\u0649\u0655\u0650\u0643\u064e \u0627\u064e\u0639\u0652\u062a\u064e\u062f\u0652\u0646\u064e\u0627 \u0644\u064e\u0647\u064f\u0645\u0652 \u0639\u064e\u0630\u064e\u0627\u0628\u064b\u0627 \u0627\u064e\u0644\u0650\u064a\u0652\u0645\u064b\u0627 \u0661\u0668\n\nDan tidaklah tobat itu diterima Allah dari orang-orang yang mengerjakan kejahatan (yang) hingga apabila datang ajal kepada seseorang di antara mereka, (barulah) ia mengatakan: \u201cSesungguhnya saya bertobat sekarang.\u201d Dan tidak (pula diterima tobat) orang-orang yang mati sedang mereka di dalam keadaan kekafiran. Bagi orang-orang itu telah Kami sediakan siksa yang pedih. (an-Nis\u0101\u2019/4: 17-18)\n\nLalu Allah menegaskan bahwa permintaan orang-orang kafir itu hanyalah ucapan yang keluar dari mulut mereka saja dan tidak akan dikabulkan. Kalaupun benar-benar diberi umur panjang, mereka tidak juga akan kembali beriman dan tidak akan mau mengerjakan amal saleh sebagaimana ditegaskan Allah dalam firman-Nya:\n\u0648\u064e\u0644\u064e\u0648\u0652 \u062a\u064e\u0631\u0670\u0653\u0649 \u0627\u0650\u0630\u0652 \u0648\u064f\u0642\u0650\u0641\u064f\u0648\u0652\u0627 \u0639\u064e\u0644\u064e\u0649 \u0627\u0644\u0646\u0651\u064e\u0627\u0631\u0650 \u0641\u064e\u0642\u064e\u0627\u0644\u064f\u0648\u0652\u0627 \u064a\u0670\u0644\u064e\u064a\u0652\u062a\u064e\u0646\u064e\u0627 \u0646\u064f\u0631\u064e\u062f\u0651\u064f \u0648\u064e\u0644\u064e\u0627 \u0646\u064f\u0643\u064e\u0630\u0651\u0650\u0628\u064e \u0628\u0650\u0627\u0670\u064a\u0670\u062a\u0650 \u0631\u064e\u0628\u0651\u0650\u0646\u064e\u0627 \u0648\u064e\u0646\u064e\u0643\u064f\u0648\u0652\u0646\u064e \u0645\u0650\u0646\u064e \u0627\u0644\u0652\u0645\u064f\u0624\u0652\u0645\u0650\u0646\u0650\u064a\u0652\u0646\u064e \u0662\u0667 \u0628\u064e\u0644\u0652 \u0628\u064e\u062f\u064e\u0627 \u0644\u064e\u0647\u064f\u0645\u0652 \u0645\u0651\u064e\u0627 \u0643\u064e\u0627\u0646\u064f\u0648\u0652\u0627 \u064a\u064f\u062e\u0652\u0641\u064f\u0648\u0652\u0646\u064e \u0645\u0650\u0646\u0652 \u0642\u064e\u0628\u0652\u0644\u064f \u06d7\u0648\u064e\u0644\u064e\u0648\u0652 \u0631\u064f\u062f\u0651\u064f\u0648\u0652\u0627 \u0644\u064e\u0639\u064e\u0627\u062f\u064f\u0648\u0652\u0627 \u0644\u0650\u0645\u064e\u0627 \u0646\u064f\u0647\u064f\u0648\u0652\u0627 \u0639\u064e\u0646\u0652\u0647\u064f \u0648\u064e\u0627\u0650\u0646\u0651\u064e\u0647\u064f\u0645\u0652 \u0644\u064e\u0643\u0670\u0630\u0650\u0628\u064f\u0648\u0652\u0646\u064e \u0662\u0668\nDan seandainya engkau (Muhammad) melihat ketika mereka dihadapkan ke neraka, mereka berkata, \u201dSeandainya kami dikembalikan (ke dunia) tentu kami tidak akan mendustakan ayat-ayat Tuhan kami, serta menjadi orang-orang yang beriman.\u201d Tetapi (sebenarnya) bagi mereka telah nyata kejahatan yang mereka sembunyikan dahulu. Seandainya mereka dikembalikan ke dunia, tentu mereka akan mengulang kembali apa yang telah dilarang mengerjakannya. Mereka itu sungguh pendusta. (al-An\u2018\u0101m/6: 27-28)\n\nDemikianlah ucapan yang mereka lontarkan sebagai penghibur hati mereka sendiri, suatu ucapan yang tidak ada nilainya sama sekali karena tidak mungkin mereka akan hidup kembali karena ajal mereka telah tiba. Di hadapan mereka terbentang dinding yang menghalangi mereka kembali ke dunia sampai hari kiamat.",
        "intro_surah": "Surah al-Mu\u2019min\u016bn terdiri dari 118 ayat, termasuk kelompok surah-surah Makiyah. Dinamai \u201cal-Mu\u2019min\u016bn\u201d, karena permulaan surah ini menerangkan bagaimana seharusnya sifat-sifat orang mukmin yang menyebabkan keberuntungan di akhirat dan ketenteraman jiwa mereka di dunia. Demikian tingginya sifat-sifat itu, hingga ia telah menjadi akhlak bagi Nabi Muhammad.\n\nPOKOK-POKOK ISINYA\n1. \tKeimanan:\nKepastian datangnya hari kebangkitan dan hal-hal yang terjadi pada hari kiamat; Allah tidak memerlukan anak atau sekutu.\n2. \tHukum:\nManusia dibebani sesuai dengan kesanggupannya; rasul-rasul semuanya menyuruh manusia makan makanan yang halal lagi baik; pokok-pokok agama yang dibawa para nabi adalah sama, hanya syariatnya yang berbeda-beda.\n3. \tKisah:\nKisah Nuh a.s.; kisah Hud a.s.; kisah Musa a.s.; kisah Harun a.s.; dan kisah Isa a.s.\n4. \tLain-lain:\nTujuh perkara yang harus dipenuhi oleh seorang mukmin yang ingin mendapat keberuntungan hidup di dunia maupun di akhirat; proses kejadian manusia; tanda-tanda orang yang selalu bergegas melaksanakan kebaikan; nikmat Allah yang dianugerahkan kepada manusia wajib disyukuri.",
        "outro_surah": null,
        "munasabah_prev_surah": "MUNASABAH SURAH AL-\u1e24AJJ DENGAN\nSURAH AL-MU\u2019MIN\u016aN\n1. \tSurah al-\u1e24ajj menyuruh orang-orang mukmin mendirikan salat, menunaikan zakat, mengerjakan semua kebaikan agar mendapat keberuntungan, sedang permulaan Surah al-Mu\u2019min\u016bn menegaskan bahwa orang-orang mukmin bila mereka betul-betul mengerjakan apa yang diperintahkan Allah dan menjauhi apa yang dilarang-Nya seperti zina, pasti mendapat keberuntungan.\n2. \tSama-sama mengemukakan tentang penciptaan manusia, perkembangan kejadian dan kehidupan, dan menjadikan hal yang demikian sebagai bukti adanya hari kebangkitan.\n3. \tSama-sama menyinggung umat-umat yang dahulu yang tidak mengindahkan seruan Nabi-nabi mereka, untuk menjadi i\u2019tibar bagi orang-orang yang datang di belakang mereka.\n4. \tSama-sama mengemukakan bukti-bukti adanya Allah dan Keesaan-Nya.",
        "munasabah_prev_theme": "Pada ayat-ayat yang lalu diterangkan tentang bantahan Allah terhadap ucapan-ucapan kaum musyrik yang mengatakan Allah mempunyai anak dan sekutu, hari kebangkitan itu adalah bohong dan Al-Qur\u2019an tiada lain hanyalah dongengan orang-orang dahulu kala dan sebagainya. Sesungguhnya telah sepantasnya ditimpakan kepada mereka azab Allah dengan memusnahkan mereka seperti memusnahkan umat-umat yang durhaka sebelum mereka. Tetapi karena rahmat Allah kepada umat Muhammad azab itu ditangguhkan sampai hari Kiamat dan Muhammad saw harus menghadapi mereka dengan penuh kesabaran dan ketabahan hati. Maka pada ayat-ayat berikut ini Allah menganjurkan supaya Nabi Muhammad selalu berdoa kepada-Nya dan menghadapi sikap kaumnya yang kasar dan tidak senonoh itu dengan bijaksana dan selalu berlindung kepada-Nya dari godaan setan maupun manusia. \n",
        "theme_group": "BEBERAPA DOA DAN PETUNJUK YANG \nDIAJARKAN ALLAH KEPADA NABI MUHAMMAD ",
        "kosakata": "1.  Hamaz\u0101tisy-Syay\u0101\u1e6d\u012bn \u0647\u064e\u0645\u064e\u0632\u064e\u0627\u062a\u0650 \u0627\u0644\u0634\u0651\u064e\u064a\u064e\u0627\u0637\u0650\u064a\u0652\u0646\u0650 (al-Mu\u2019min\u016bn/23: 97)\nHamaz\u0101t berasal dari akar kata hamaza yang berarti \"menekan\", \"meremas\", atau \"mencekik\". Dalam al-Mu\u2019min\u016bn/23:97 Allah meminta Nabi Muhamad, berarti juga semua kaum Muslimin, agar memohon perlindungan kepada-Nya dari tekanan, remasan atau cekikan setan, yaitu dari penguasaan setan pada dirinya. Juga supaya setan itu tidak ikut serta dalam setiap pekerjaannya. Satu bentuk lain penguasaan itu adalah \"menjatuhkan nama baik\" seseorang, sehinga seseorang itu seakan-akan tertekan, teremas, dan tercekik, tidak dapat membela diri. Itulah pengertian hammaz dalam al-Qalam/68:11, pekerjaan yang dilakukan oleh orang yang tidak beriman. Di samping itu orang-orang kafir itu, dalam ayat itu, berkeliling-keliling (menguasai informasi) menyebar fitnah (masysya\u2019), dan mengadu domba (namim).\n2. Barzakh \u0628\u064e\u0631\u0652\u0632\u064e\u062e\u064c (al-Mu\u2019min\u016bn/23: 100)\nBarzakh secara harfiyah berarti \"pembatas\". Di dalam al-Mukminun/23:100 dinyatakan bahwa orang kafir menghadapi \"tembok\" pembatas antara dia dengan kehidupan yang baik di akhirat. Dalam ayat-ayat sebelumnya diterangkan bagaimana mereka ingin kembali ke dunia, dan kalau kembali ke dunia, mereka akan berbuat baik. Allah membantah, karena itu hanyalah omongan di mulut mereka, dan kalau mereka dikembalikan ke dunia, mereka tetap akan ingkar. Karena itulah keinginan mereka untuk memperoleh surga di akhirat akan menghadapi tembok tebal.",
        "sabab_nuzul": null,
        "conclusion": null
    }
}