{
    "id": 2710,
    "surah_id": 23,
    "ayah": 37,
    "page": 344,
    "quarter_hizb": 35.25,
    "juz": 18,
    "manzil": 4,
    "arabic": "\u0627\u0650\u0646\u0652 \u0647\u0650\u064a\u064e \u0627\u0650\u0644\u0651\u064e\u0627 \u062d\u064e\u064a\u064e\u0627\u062a\u064f\u0646\u064e\u0627 \u0627\u0644\u062f\u0651\u064f\u0646\u0652\u064a\u064e\u0627 \u0646\u064e\u0645\u064f\u0648\u0652\u062a\u064f \u0648\u064e\u0646\u064e\u062d\u0652\u064a\u064e\u0627 \u0648\u064e\u0645\u064e\u0627 \u0646\u064e\u062d\u0652\u0646\u064f \u0628\u0650\u0645\u064e\u0628\u0652\u0639\u064f\u0648\u0652\u062b\u0650\u064a\u0652\u0646\u064e \u06d6 ",
    "latin": "In hiya ill\u0101 \u1e25ay\u0101tunad-dun-y\u0101 nam\u016btu wa na\u1e25y\u0101 wa m\u0101 na\u1e25nu bimab\u2018\u016b\u1e61\u012bn(a).",
    "translation": "Ia (kehidupan itu) tidak lain hanyalah kehidupan kita di dunia ini. (Di sanalah) kita mati, hidup,507) dan tidak akan dibangkitkan (lagi).",
    "no_footnote": "507",
    "footnotes": "507) Sebagian manusia meninggal dunia dan sebagian lain dilahirkan.",
    "surah": {
        "id": 23,
        "arabic": " \u0627\u0644\u0645\u0624\u0645\u0646\u0648\u0646",
        "latin": "Al-Mu'min\u016bn",
        "transliteration": "Al-Mu'minun",
        "translation": "Orang-Orang Mukmin",
        "num_ayah": 118,
        "page": 342,
        "location": "Makkiyah"
    },
    "tafsir": {
        "wajiz": "Para pemuka yang kafir itu berkata dengan sinis sambil menggelengkan kepala, \u201cJauh! Jauh sekali apa yang diancamkan kepada kamu. Hal itu hanya omong kosong belaka. Ancaman itu tidak akan pernah terlaksanan. Kehidupan yang ada tidak lain hanyalah kehidupan kita di dunia ini. Di sinilah kita menyaksikan sebagian dari kita mati dan sebagiannya lagi dilahirkan untuk hidup, dan sekali-kali kita tidak akan dibangkitkan lagi setelah mati.\u201d Tidak cukup dengan mendurhakai dan menolak dakwah Nabi Hud, para pemuka kafir itu bahkan berbuat lebih jahat lagi dengan berkata, \u201cDia, Hud, tidak lain hanyalah seorang laki-laki yang mengada-adakan kebohongan terhadap Allah, dan sudah semestinya kita tidak akan pernah memercayainya atas segala yang dikatakannya.",
        "tahlili": "Kemudian mereka mempertegas keingkaran mereka dengan ucapan, \u201cKehidupan yang sebenarnya hanya kehidupan dunia ini saja. Sebagian kita ada yang hidup kemudian mati, disusul pula oleh yang lain secara silih berganti, generasi demi generasi, tak beda seperti tanaman, di sana ada yang bercocok tanam dan di situ ada yang panen. Kita sekalian tidak akan dibangkitkan lagi setelah mati.\u201d\nOrang-orang kafir hanya memandang kehidupan manusia seperti tumbuh-tumbuhan dan binatang yang dari waktu ke waktu hanya mengalami pergantian generasi, dan tidak ada perkembangan pikiran dan kebudayaan, serta tidak ada tanggung jawab dalam perbuatannya sehari-hari. ",
        "intro_surah": "Surah al-Mu\u2019min\u016bn terdiri dari 118 ayat, termasuk kelompok surah-surah Makiyah. Dinamai \u201cal-Mu\u2019min\u016bn\u201d, karena permulaan surah ini menerangkan bagaimana seharusnya sifat-sifat orang mukmin yang menyebabkan keberuntungan di akhirat dan ketenteraman jiwa mereka di dunia. Demikian tingginya sifat-sifat itu, hingga ia telah menjadi akhlak bagi Nabi Muhammad.\n\nPOKOK-POKOK ISINYA\n1. \tKeimanan:\nKepastian datangnya hari kebangkitan dan hal-hal yang terjadi pada hari kiamat; Allah tidak memerlukan anak atau sekutu.\n2. \tHukum:\nManusia dibebani sesuai dengan kesanggupannya; rasul-rasul semuanya menyuruh manusia makan makanan yang halal lagi baik; pokok-pokok agama yang dibawa para nabi adalah sama, hanya syariatnya yang berbeda-beda.\n3. \tKisah:\nKisah Nuh a.s.; kisah Hud a.s.; kisah Musa a.s.; kisah Harun a.s.; dan kisah Isa a.s.\n4. \tLain-lain:\nTujuh perkara yang harus dipenuhi oleh seorang mukmin yang ingin mendapat keberuntungan hidup di dunia maupun di akhirat; proses kejadian manusia; tanda-tanda orang yang selalu bergegas melaksanakan kebaikan; nikmat Allah yang dianugerahkan kepada manusia wajib disyukuri.",
        "outro_surah": null,
        "munasabah_prev_surah": "MUNASABAH SURAH AL-\u1e24AJJ DENGAN\nSURAH AL-MU\u2019MIN\u016aN\n1. \tSurah al-\u1e24ajj menyuruh orang-orang mukmin mendirikan salat, menunaikan zakat, mengerjakan semua kebaikan agar mendapat keberuntungan, sedang permulaan Surah al-Mu\u2019min\u016bn menegaskan bahwa orang-orang mukmin bila mereka betul-betul mengerjakan apa yang diperintahkan Allah dan menjauhi apa yang dilarang-Nya seperti zina, pasti mendapat keberuntungan.\n2. \tSama-sama mengemukakan tentang penciptaan manusia, perkembangan kejadian dan kehidupan, dan menjadikan hal yang demikian sebagai bukti adanya hari kebangkitan.\n3. \tSama-sama menyinggung umat-umat yang dahulu yang tidak mengindahkan seruan Nabi-nabi mereka, untuk menjadi i\u2019tibar bagi orang-orang yang datang di belakang mereka.\n4. \tSama-sama mengemukakan bukti-bukti adanya Allah dan Keesaan-Nya.",
        "munasabah_prev_theme": "Pada ayat-ayat yang lalu dikisahkan kebinasaan kaum Nuh akibat mendustakan nabi-Nya, dan seruan untuk mengabdi hanya kepada Allah. Pada ayat-ayat berikut ini Allah menerangkan kebinasaan kaum Ad yang mendustakan Nabi Hud a.s. Kisah ini dimunculkan dalam Al-Qur\u2019an agar menjadi pelajaran bagi umat-umat yang datang sesudahnya kemudian, agar tidak mengingkari kerasulan seorang pesuruh Allah yang membawa mukjizat yang jelas dari Tuhannya. Bila mereka mendustakannya, maka nasib buruk yang menimpa umat-umat dahulu dapat pula menimpa mereka berdasarkan sunnatullah. ",
        "theme_group": "KISAH NABI HUD A.S.",
        "kosakata": "1. Qarnan \u0642\u064e\u0631\u0652\u0646\u0627\u064b (Al-Mu\u2019min\u016bn/23: 31)\nKata qarn dapat diartikan sebagai tali yang terpintal dari bagian tumbuhan, benang dari pintalan wol, abad, umat atau generasi. Dalam ayat ini, yang dimaksud dengan qarn adalah umat atau generasi, yaitu mereka yang hidup semasa. Para ulama berbeda pendapat tentang siapa yang dimaksud dengan generasi rasul yang diungkap dalam ayat ini. Ada yang berpendapat bahwa mereka adalah kaum \u2018Ad yang rasul-Nya adalah Nabi Hud, dengan alasan bahwa Al-Qur\u2019an menyebut generasi yang sesudah Nabi Nuh adalah Nabi Hud. Ada juga yang berpendapat bahwa yang dimaksud adalah Nabi \u1e62alih dan kaumnya, yaitu \u1e60am\u016bd. Penganut pendapat ini beralasan bahwa siksaan yang disebut di sini adalah a\u1e63-\u1e63ai\u1e25ah (teriakan) yang membinasakan. Kaum Tsamud binasa karena teriakan ini, sedang kaum \u2018Ad binasa karena topan dahsyat yang melanda selama tujuh hari tujuh malam.\n2. Gu\u1e61\u0101\u2019a \u063a\u064f\u062b\u064e\u0627\u0621\u064b (al-Mu\u2019min\u016bn/23: 41)\nGu\u1e61\u0101\u2019a pada mulanya berarti segala sesuatu yang terpencar atau terbengkalai dari tumbuh-tumbuhan atau sesuatu yang mengapung di laut. Kemudian kata ini juga digunakan untuk menyebut segala sesuatu yang tidak bermanfaat atau yang diremehkan. Dalam ayat ini, gu\u1e61\u0101\u2019a digunakan sebagai perumpamaan bagi orang-orang yang selalu berbuat zalim, yang kemudian dibinasakan Allah, sehingga pada akhirnya mereka bagaikan sampah yang dihempaskan atau dibuang karena tidak ada gunanya lagi.\n\nMunasabah\nPada ayat-ayat yang lalu dikisahkan kebinasaan kaum Nuh akibat mendustakan nabi-Nya, dan seruan untuk mengabdi hanya kepada Allah. Pada ayat-ayat berikut ini Allah menerangkan kebinasaan kaum Ad yang mendustakan Nabi Hud a.s. Kisah ini dimunculkan dalam Al-Qur\u2019an agar menjadi pelajaran bagi umat-umat yang datang sesudahnya kemudian, agar tidak mengingkari kerasulan seorang pesuruh Allah yang membawa mukjizat yang jelas dari Tuhannya. Bila mereka mendustakannya, maka nasib buruk yang menimpa umat-umat dahulu dapat pula menimpa mereka berdasarkan sunnatullah. ",
        "sabab_nuzul": null,
        "conclusion": null
    }
}