{
    "id": 2721,
    "surah_id": 23,
    "ayah": 48,
    "page": 345,
    "quarter_hizb": 35.25,
    "juz": 18,
    "manzil": 4,
    "arabic": "\u0641\u064e\u0643\u064e\u0630\u0651\u064e\u0628\u064f\u0648\u0652\u0647\u064f\u0645\u064e\u0627 \u0641\u064e\u0643\u064e\u0627\u0646\u064f\u0648\u0652\u0627 \u0645\u0650\u0646\u064e \u0627\u0644\u0652\u0645\u064f\u0647\u0652\u0644\u064e\u0643\u0650\u064a\u0652\u0646\u064e ",
    "latin": "Fa ka\u017c\u017cab\u016bhum\u0101 fa k\u0101n\u016b minal-muhlak\u012bn(a).",
    "translation": "Maka, mereka mendustakan keduanya. Oleh karena itu, mereka termasuk orang-orang yang dibinasakan.",
    "no_footnote": null,
    "footnotes": null,
    "surah": {
        "id": 23,
        "arabic": " \u0627\u0644\u0645\u0624\u0645\u0646\u0648\u0646",
        "latin": "Al-Mu'min\u016bn",
        "transliteration": "Al-Mu'minun",
        "translation": "Orang-Orang Mukmin",
        "num_ayah": 118,
        "page": 342,
        "location": "Makkiyah"
    },
    "tafsir": {
        "wajiz": "Maka mereka mendustakan keduanya, yaitu Nabi Musa dan Harun, sehingga karenanya mereka termasuk orang yang dibinasakan dengan ditenggelamkan di Laut Merah.",
        "tahlili": "Fir\u2018aun dan para pembesar kaumnya tetap mendustakan Musa dan Harun. Dengan demikian, mereka termasuk orang-orang yang dibinasakan dengan cara ditenggelamkan di Laut Merah.",
        "intro_surah": "Surah al-Mu\u2019min\u016bn terdiri dari 118 ayat, termasuk kelompok surah-surah Makiyah. Dinamai \u201cal-Mu\u2019min\u016bn\u201d, karena permulaan surah ini menerangkan bagaimana seharusnya sifat-sifat orang mukmin yang menyebabkan keberuntungan di akhirat dan ketenteraman jiwa mereka di dunia. Demikian tingginya sifat-sifat itu, hingga ia telah menjadi akhlak bagi Nabi Muhammad.\n\nPOKOK-POKOK ISINYA\n1. \tKeimanan:\nKepastian datangnya hari kebangkitan dan hal-hal yang terjadi pada hari kiamat; Allah tidak memerlukan anak atau sekutu.\n2. \tHukum:\nManusia dibebani sesuai dengan kesanggupannya; rasul-rasul semuanya menyuruh manusia makan makanan yang halal lagi baik; pokok-pokok agama yang dibawa para nabi adalah sama, hanya syariatnya yang berbeda-beda.\n3. \tKisah:\nKisah Nuh a.s.; kisah Hud a.s.; kisah Musa a.s.; kisah Harun a.s.; dan kisah Isa a.s.\n4. \tLain-lain:\nTujuh perkara yang harus dipenuhi oleh seorang mukmin yang ingin mendapat keberuntungan hidup di dunia maupun di akhirat; proses kejadian manusia; tanda-tanda orang yang selalu bergegas melaksanakan kebaikan; nikmat Allah yang dianugerahkan kepada manusia wajib disyukuri.",
        "outro_surah": null,
        "munasabah_prev_surah": "MUNASABAH SURAH AL-\u1e24AJJ DENGAN\nSURAH AL-MU\u2019MIN\u016aN\n1. \tSurah al-\u1e24ajj menyuruh orang-orang mukmin mendirikan salat, menunaikan zakat, mengerjakan semua kebaikan agar mendapat keberuntungan, sedang permulaan Surah al-Mu\u2019min\u016bn menegaskan bahwa orang-orang mukmin bila mereka betul-betul mengerjakan apa yang diperintahkan Allah dan menjauhi apa yang dilarang-Nya seperti zina, pasti mendapat keberuntungan.\n2. \tSama-sama mengemukakan tentang penciptaan manusia, perkembangan kejadian dan kehidupan, dan menjadikan hal yang demikian sebagai bukti adanya hari kebangkitan.\n3. \tSama-sama menyinggung umat-umat yang dahulu yang tidak mengindahkan seruan Nabi-nabi mereka, untuk menjadi i\u2019tibar bagi orang-orang yang datang di belakang mereka.\n4. \tSama-sama mengemukakan bukti-bukti adanya Allah dan Keesaan-Nya.",
        "munasabah_prev_theme": "Pada ayat-ayat yang lalu Allah menerangkan kisah kaum Nabi Saleh, Lut, dan Syu\u2019aib yang dibinasakan akibat mendustakan para nabi-Nya. Pada ayat-ayat berikut ini Allah menerangkan kisah Nabi Musa dan Nabi Harun yang diutus kepada Fir\u2018aun dan kaumnya yang juga mendustakan kebenaran risalah Nabi Musa dan Harun. Mereka juga menerima nasib yang sama yaitu kebinasaan.",
        "theme_group": "KISAH NABI MUSA DAN NABI HARUN A.S.",
        "kosakata": "Kosakata: H\u0101r\u016bn \u0647\u064e\u0627\u0631\u064f\u0648\u0652\u0646\u064e \u0639\u064e\u0644\u064e\u064a\u0652\u0647\u0650 \u0627\u0644\u0633\u0651\u064e\u0644\u064e\u0627\u0645\u0650  (lihat Surah \u1e6c\u0101h\u0101/20: 30)",
        "sabab_nuzul": null,
        "conclusion": null
    }
}