{
    "id": 2697,
    "surah_id": 23,
    "ayah": 24,
    "page": 343,
    "quarter_hizb": 35,
    "juz": 18,
    "manzil": 4,
    "arabic": "\u0641\u064e\u0642\u064e\u0627\u0644\u064e \u0627\u0644\u0652\u0645\u064e\u0644\u064e\u0624\u064f\u0627 \u0627\u0644\u0651\u064e\u0630\u0650\u064a\u0652\u0646\u064e \u0643\u064e\u0641\u064e\u0631\u064f\u0648\u0652\u0627 \u0645\u0650\u0646\u0652 \u0642\u064e\u0648\u0652\u0645\u0650\u0647\u0656 \u0645\u064e\u0627 \u0647\u0670\u0630\u064e\u0627\u0653 \u0627\u0650\u0644\u0651\u064e\u0627 \u0628\u064e\u0634\u064e\u0631\u064c \u0645\u0651\u0650\u062b\u0652\u0644\u064f\u0643\u064f\u0645\u0652\u06d9 \u064a\u064f\u0631\u0650\u064a\u0652\u062f\u064f \u0627\u064e\u0646\u0652 \u064a\u0651\u064e\u062a\u064e\u0641\u064e\u0636\u0651\u064e\u0644\u064e \u0639\u064e\u0644\u064e\u064a\u0652\u0643\u064f\u0645\u0652\u06d7 \u0648\u064e\u0644\u064e\u0648\u0652 \u0634\u064e\u0627\u06e4\u0621\u064e \u0627\u0644\u0644\u0651\u0670\u0647\u064f \u0644\u064e\u0627\u064e\u0646\u0652\u0632\u064e\u0644\u064e \u0645\u064e\u0644\u0670\u06e4\u0649\u0655\u0650\u0643\u064e\u0629\u064b  \u06d6\u0645\u0651\u064e\u0627 \u0633\u064e\u0645\u0650\u0639\u0652\u0646\u064e\u0627 \u0628\u0650\u0647\u0670\u0630\u064e\u0627 \u0641\u0650\u064a\u0652\u0653 \u0627\u0670\u0628\u064e\u0627\u06e4\u0649\u0655\u0650\u0646\u064e\u0627 \u0627\u0644\u0652\u0627\u064e\u0648\u0651\u064e\u0644\u0650\u064a\u0652\u0646\u064e \u06da",
    "latin": "Fa q\u0101lal-mala'ul-la\u017c\u012bna kafar\u016b min qaumih\u012b m\u0101 h\u0101\u017c\u0101 ill\u0101 basyarum mi\u1e61lukum, yur\u012bdu ay yatafa\u1e0d\u1e0dala \u2018alaikum, wa lau sy\u0101'all\u0101hu la'anzala mal\u0101'ikah(tan), m\u0101 sami\u2018n\u0101 bih\u0101\u017c\u0101 f\u012b \u0101b\u0101'inal-awwal\u012bn(a).",
    "translation": "Maka, para pemuka orang-orang yang kufur dari kaumnya berkata, \u201cOrang ini tidak lain hanyalah manusia seperti kamu. Dia ingin menjadi orang yang lebih mulia daripada kamu. Seandainya Allah berkehendak, tentu Dia akan mengutus malaikat. Belum pernah kami dengar (seruan seperti) ini pada (masa) nenek moyang kami dahulu.",
    "no_footnote": null,
    "footnotes": null,
    "surah": {
        "id": 23,
        "arabic": " \u0627\u0644\u0645\u0624\u0645\u0646\u0648\u0646",
        "latin": "Al-Mu'min\u016bn",
        "transliteration": "Al-Mu'minun",
        "translation": "Orang-Orang Mukmin",
        "num_ayah": 118,
        "page": 342,
        "location": "Makkiyah"
    },
    "tafsir": {
        "wajiz": "Maka tanpa berpikir panjang, berkatalah para pemuka orang kafir dari kaumnya kepada para pengikut mereka sebagai respons atas ajakan Nabi Nuh, \u201cOrang ini tidak lain hanyalah manusia seperti kamu. Dia tidak punya keistimewaan apa pun untuk menjadi utusan Tuhan. Dia hanyalah orang yang ingin menjadi lebih mulia daripada kamu dengan mencitrakan diri agar dapat menjadi pemimpin kamu dengan mengaku sebagai utusan Tuhan. Dan seandainya Allah menghendaki mengutus seorang rasul, tentu Dia mengutus malaikat, bukan manusia seperti Nuh. Belum pernah kami mendengar seruan seperti ini pada masa nenek moyang kami dahulu.\u201d",
        "tahlili": "Seruan Nabi Nuh yang lemah lembut ini dijawab dengan cemoohan kaumnya, bahwa Nuh tidak lain hanya seorang manusia biasa seperti mereka, tidak mempunyai kelebihan apa-apa, baik fisik maupun mental sehingga ia pantas untuk menjadi utusan Allah dan menerima wahyu. Nuh dituduh hanya ingin menjadi orang yang kedudukannya lebih dari mereka, dan ingin lebih berkuasa. Untuk mencapai tujuannya itu, ia mengaku menjadi utusan Allah, padahal sebenarnya ia tidak pantas. Lalu mereka menyebutkan dua hal yang menjadi alasan untuk tidak mengakui Nuh sebagai utusan Allah.\nPertama, seandainya Allah menghendaki mengutus seorang rasul yang memerintahkan beribadah hanya kepada Allah saja, tentu Dia mengutus beberapa malaikat, dan bukan mengutus seorang manusia biasa.\nKedua, mereka belum pernah mendengar dari nenek moyang mereka sendiri apa yang dikemukakan oleh Nuh, tentang penyembahan hanya kepada Allah, Tuhan Yang Esa. Seruan kepada ketauhidan itu tidak ada dalam tradisi nenek moyang mereka, maka mereka menentang keras dakwah Nabi Nuh. Hal demikian menunjukkan bahwa mereka telah terseret dalam taklid buta dan kesesatan.",
        "intro_surah": "Surah al-Mu\u2019min\u016bn terdiri dari 118 ayat, termasuk kelompok surah-surah Makiyah. Dinamai \u201cal-Mu\u2019min\u016bn\u201d, karena permulaan surah ini menerangkan bagaimana seharusnya sifat-sifat orang mukmin yang menyebabkan keberuntungan di akhirat dan ketenteraman jiwa mereka di dunia. Demikian tingginya sifat-sifat itu, hingga ia telah menjadi akhlak bagi Nabi Muhammad.\n\nPOKOK-POKOK ISINYA\n1. \tKeimanan:\nKepastian datangnya hari kebangkitan dan hal-hal yang terjadi pada hari kiamat; Allah tidak memerlukan anak atau sekutu.\n2. \tHukum:\nManusia dibebani sesuai dengan kesanggupannya; rasul-rasul semuanya menyuruh manusia makan makanan yang halal lagi baik; pokok-pokok agama yang dibawa para nabi adalah sama, hanya syariatnya yang berbeda-beda.\n3. \tKisah:\nKisah Nuh a.s.; kisah Hud a.s.; kisah Musa a.s.; kisah Harun a.s.; dan kisah Isa a.s.\n4. \tLain-lain:\nTujuh perkara yang harus dipenuhi oleh seorang mukmin yang ingin mendapat keberuntungan hidup di dunia maupun di akhirat; proses kejadian manusia; tanda-tanda orang yang selalu bergegas melaksanakan kebaikan; nikmat Allah yang dianugerahkan kepada manusia wajib disyukuri.",
        "outro_surah": null,
        "munasabah_prev_surah": "MUNASABAH SURAH AL-\u1e24AJJ DENGAN\nSURAH AL-MU\u2019MIN\u016aN\n1. \tSurah al-\u1e24ajj menyuruh orang-orang mukmin mendirikan salat, menunaikan zakat, mengerjakan semua kebaikan agar mendapat keberuntungan, sedang permulaan Surah al-Mu\u2019min\u016bn menegaskan bahwa orang-orang mukmin bila mereka betul-betul mengerjakan apa yang diperintahkan Allah dan menjauhi apa yang dilarang-Nya seperti zina, pasti mendapat keberuntungan.\n2. \tSama-sama mengemukakan tentang penciptaan manusia, perkembangan kejadian dan kehidupan, dan menjadikan hal yang demikian sebagai bukti adanya hari kebangkitan.\n3. \tSama-sama menyinggung umat-umat yang dahulu yang tidak mengindahkan seruan Nabi-nabi mereka, untuk menjadi i\u2019tibar bagi orang-orang yang datang di belakang mereka.\n4. \tSama-sama mengemukakan bukti-bukti adanya Allah dan Keesaan-Nya.",
        "munasabah_prev_theme": "Pada ayat-ayat yang lalu dijelaskan beberapa nikmat Allah kepada umat manusia sejak penciptaan yang pertama, kemudian disusul dengan nikmat air hujan dan binatang ternak yang banyak mengandung manfaat yang beraneka rupa. Pada ayat-ayat berikut ini Allah menerangkan bahwa sebagian besar umat terdahulu tidak mengambil pelajaran daripadanya dan tidak mensyukuri nikmat-nikmat itu, bahkan mereka mengingkarinya, tidak menghiraukan penciptaannya, bahkan mereka menyembah selain-Nya, dan mendustakan rasul yang sengaja diutus kepada mereka yaitu Nabi Nuh. Akibatnya, mereka ditimpa azab dari langit sehingga mereka binasa semuanya. ",
        "theme_group": "KISAH NABI NUH",
        "kosakata": "1. Jinnah  \u062c\u0650\u0646\u0651\u064e\u0629\u064c(al-Mu\u2019min\u016bn/23: 25)\nJinnah berasal dari kata kerja janna-yajunnu, yang artinya menyembunyikan. Dari kata ini muncul istilah jinn, yaitu makhluk halus yang tercipta dari api dan tidak dapat dilihat, karena ia tertutup atau tersembunyi dari penglihatan manusia. Orang gila disebut majnun, karena ketika itu akalnya tertutup, sehingga tidak dapat dipergunakan, dan ia disebut sebagai orang yang tidak berakal. Kata jinnah pada ayat ini dimaksudkan sebagai adanya ketertutupan pada akal, yakni terganggu pikirannya. Namun pemuka masyarakat dari umat Nabi Nuh tidak menganggap bahwa Nabi Nuh betul-betul gila, karena mereka tahu betul bahwa ia memang tidak gila.\n2. At-Tann\u016br   \u0627\u064e\u0644\u062a\u0651\u064e\u0646\u0651\u064f\u0648\u0652\u0631\u0650(al-Mu\u2019min\u016bn/23: 27)\nDari segi bahasa tann\u016br dapat diartikan sebagai tempat memasak makanan atau periuk. Ulama berbeda pendapat tentang maksud kata tersebut pada ayat ini. Ada yang memahaminya dalam arti permukaan bumi, yakni muka bumi yang memancarkan air  yang deras sehingga menyebabkan timbulnya banjir yang besar, dan ada pula yang memahaminya sebagai pegunungan atau dataran tinggi, karena air bah atau banjir itu biasanya datang dari daerah yang tinggi. Kata ini dapat pula dipahami secara majazi (kiasan), yakni murka Allah telah benar-benar menjadi besar.\n3. Al-Mubtal\u012bna   \u0627\u064e\u0644\u0652\u0645\u064f\u0628\u0652\u062a\u064e\u0644\u0650\u064a\u0652\u0646\u064e(Al-Mu\u2019min\u016bn/23: 30)\nAl-mubtal\u012bna merupakan bentuk jamak muzakar salim dari al-mubtal\u012b. Kata ini merupakan bentuk ism fa\u2019il dari kata kerja ibtal\u0101-yabtal\u012b yang artinya menguji atau mengetahui. Dengan demikian mubtal\u012b berarti penguji. Dalam ayat ini, kata ini mengisyaratkan bahwa Allah memperlakukan manusia bagaikan perlakuan penguji guna mengetahui siapa yang taat dan siapa pula yang durhaka di antara mereka. Selain itu, hal ini juga untuk menegaskan bahwa hidup ini penuh dengan ujian yang dilakukan Allah kepada hamba-hamba-Nya. Ujian tersebut bermacam-macam, ada ujian yang berkaitan dengan kesabaran atau kesyukuran, ada ujian untuk meningkatkan kualitas diri atau untuk mendidik, ada juga ujian untuk pembersihan batin dan penghapusan dosa.",
        "sabab_nuzul": null,
        "conclusion": null
    }
}