{
    "id": 2681,
    "surah_id": 23,
    "ayah": 8,
    "page": 342,
    "quarter_hizb": 35,
    "juz": 18,
    "manzil": 4,
    "arabic": "\u0648\u064e\u0627\u0644\u0651\u064e\u0630\u0650\u064a\u0652\u0646\u064e \u0647\u064f\u0645\u0652 \u0644\u0650\u0627\u064e\u0645\u0670\u0646\u0670\u062a\u0650\u0647\u0650\u0645\u0652 \u0648\u064e\u0639\u064e\u0647\u0652\u062f\u0650\u0647\u0650\u0645\u0652 \u0631\u064e\u0627\u0639\u064f\u0648\u0652\u0646\u064e \u06d9",
    "latin": "Wal-la\u017c\u012bna hum li'am\u0101n\u0101tihim wa \u2018ahdihim r\u0101\u2018\u016bn(a).",
    "translation": "(Sungguh beruntung pula) orang-orang yang memelihara amanat dan janji mereka ",
    "no_footnote": null,
    "footnotes": null,
    "surah": {
        "id": 23,
        "arabic": " \u0627\u0644\u0645\u0624\u0645\u0646\u0648\u0646",
        "latin": "Al-Mu'min\u016bn",
        "transliteration": "Al-Mu'minun",
        "translation": "Orang-Orang Mukmin",
        "num_ayah": 118,
        "page": 342,
        "location": "Makkiyah"
    },
    "tafsir": {
        "wajiz": "Perkawinan adalah amanat, maka setiap orang harus memeliharanya dengan baik. Meski begitu, tidak hanya amanat perkawinan yang harus dipelihara, melainkan semua amanat. Dan beruntunglah orang yang memelihara amanat-amanat yang dipikulkan atas mereka dan memelihara janjinya yang dijalin dengan pihak lain.",
        "tahlili": "Memelihara amanat-amanat yang dipikulnya dan menepati janjinya. Dalam ayat ini Allah menerangkan sifat keenam dari orang mukmin yang beruntung itu, ialah suka memelihara amanat-amanat yang dipikulnya, baik dari Allah ataupun dari sesama manusia, yaitu bilamana kepada mereka dititipkan barang atau uang sebagai amanat yang harus disampaikan kepada orang lain, maka mereka benar-benar menyampaikan amanat itu sebagaimana mestinya, dan tidak berbuat khianat. Demikian pula bila mereka mengadakan perjanjian, mereka memenuhinya dengan sempurna. Mereka menjauhkan diri dari sifat kemunafikan seperti tersebut dalam sebuah hadis yang masyhur, yang menyatakan bahwa tanda-tanda orang munafik itu ada tiga, yaitu kalau berbicara suka berdusta, jika menjanjikan sesuatu suka menyalahi janji dan jika diberi amanat suka berkhianat.",
        "intro_surah": "Surah al-Mu\u2019min\u016bn terdiri dari 118 ayat, termasuk kelompok surah-surah Makiyah. Dinamai \u201cal-Mu\u2019min\u016bn\u201d, karena permulaan surah ini menerangkan bagaimana seharusnya sifat-sifat orang mukmin yang menyebabkan keberuntungan di akhirat dan ketenteraman jiwa mereka di dunia. Demikian tingginya sifat-sifat itu, hingga ia telah menjadi akhlak bagi Nabi Muhammad.\n\nPOKOK-POKOK ISINYA\n1. \tKeimanan:\nKepastian datangnya hari kebangkitan dan hal-hal yang terjadi pada hari kiamat; Allah tidak memerlukan anak atau sekutu.\n2. \tHukum:\nManusia dibebani sesuai dengan kesanggupannya; rasul-rasul semuanya menyuruh manusia makan makanan yang halal lagi baik; pokok-pokok agama yang dibawa para nabi adalah sama, hanya syariatnya yang berbeda-beda.\n3. \tKisah:\nKisah Nuh a.s.; kisah Hud a.s.; kisah Musa a.s.; kisah Harun a.s.; dan kisah Isa a.s.\n4. \tLain-lain:\nTujuh perkara yang harus dipenuhi oleh seorang mukmin yang ingin mendapat keberuntungan hidup di dunia maupun di akhirat; proses kejadian manusia; tanda-tanda orang yang selalu bergegas melaksanakan kebaikan; nikmat Allah yang dianugerahkan kepada manusia wajib disyukuri.",
        "outro_surah": null,
        "munasabah_prev_surah": "MUNASABAH SURAH AL-\u1e24AJJ DENGAN\nSURAH AL-MU\u2019MIN\u016aN\n1. \tSurah al-\u1e24ajj menyuruh orang-orang mukmin mendirikan salat, menunaikan zakat, mengerjakan semua kebaikan agar mendapat keberuntungan, sedang permulaan Surah al-Mu\u2019min\u016bn menegaskan bahwa orang-orang mukmin bila mereka betul-betul mengerjakan apa yang diperintahkan Allah dan menjauhi apa yang dilarang-Nya seperti zina, pasti mendapat keberuntungan.\n2. \tSama-sama mengemukakan tentang penciptaan manusia, perkembangan kejadian dan kehidupan, dan menjadikan hal yang demikian sebagai bukti adanya hari kebangkitan.\n3. \tSama-sama menyinggung umat-umat yang dahulu yang tidak mengindahkan seruan Nabi-nabi mereka, untuk menjadi i\u2019tibar bagi orang-orang yang datang di belakang mereka.\n4. \tSama-sama mengemukakan bukti-bukti adanya Allah dan Keesaan-Nya.",
        "munasabah_prev_theme": "Apabila pada akhir Surah al-\u1e24ajj Allah memerintahkan kepada orang-orang beriman supaya melaksanakan salat berjamaah, beribadah kepada Allah, berbuat kebaikan kepada sesama manusia, berjihad dan berjuang untuk agama yang merupakan kelanjutan agama Nabi Ibrahim yang lurus, menunaikan zakat dan senantiasa berpegang pada ketentuan Allah. Maka pada permulaan Surah al-Mu\u2019min\u016bn ini Allah menegaskan bahwa orang-orang beriman akan memperoleh kebahagiaan dan keberuntungan di akhirat di samping ketenteraman jiwa mereka dalam kehidupan dunia.\n",
        "theme_group": "KEBERUNTUNGAN ORANG-ORANG MUKMIN\nTujuh Sifat yang Menjadikan Orang-orang Mukmin Beruntung",
        "kosakata": "1. Afla\u1e25a \u0623\u064e\u0641\u0652\u0644\u064e\u062d\u064e (Al-Mu\u2019min\u016bn/23: 1)\nAfla\u1e25 ( \u0623\u0641\u0644\u062d ) artinya sukses bisa mencapai yang diinginkan. Kata afla\u1e25a terambil dari akar kata \u0641 \u0644 \u062d , artinya membelah, dari sini petani disebut \u0627\u0644\u0641\u0644\u0627\u0651\u062d (al-fall\u0101\u1e25), karena dia mencangkul untuk membelah tanah untuk ditanami benih, benih ini akan tumbuh dan memberi hasil yang sangat diharapkan, dari sini maka memperoleh apa yang diharapkan juga dinamai al-fal\u0101\u1e25.\nLayak diperhatikan penamaan al-fall\u0101\u1e25 pada petani dan kaitannya dengan kesuksesan memberi kesan bahwa suatu perbuatan baik membutuhkan proses dan waktu yang panjang dan juga usaha keras sampai tiba waktu menuai hasil. Tanpa usaha keras dan waktu yang panjang, kesuksesan sulit dicapai.\n2. Kh\u0101syi\u2019\u016bn \u062e\u064e\u0627\u0634\u0650\u0639\u064f\u0648\u0652\u0646\u064e (al-Mu\u2019min\u016bn/23: 2)\nKh\u0101syi\u2019\u016bn (\u062e\u0627\u0634\u0639\u0648\u0646) artinya orang-orang yang khusyuk. Terambil dari kata \u062e \u0634 \u0639 , berarti tenang atau tunduk (\u0627\u0644\u062e\u0636\u0648\u0639). Namun menurut Ibnu Faris tunduk digunakan untuk anggota badan, sedangkan khusyuk digunakan pada suara (\u1e6c\u0101h\u0101/20:108 \u0648\u062e\u0634\u0639\u062a \u0627\u0644\u0623\u0635\u0648\u0627\u062a ) dan pandangan (al-Qalam/68: 43 \u062e\u0627\u0634\u0639\u0629 \u0623\u0628\u0635\u0627\u0631\u0647\u0645). \nAl-A\u1e63fah\u0101n\u012b menafsirkan khusy\u016b\u2019 dengan \u0636\u0631\u0627\u0639\u0629 artinya diam. Khusy\u016b\u2019 digunakan untuk ketenangan anggota tubuh, sedangkan \u0627\u0644\u0636\u0631\u0627\u0639\u0629 digunakan  untuk ketenangan hati (al-Isr\u0101\u2019/17: 109 \u0648\u064a\u0632\u064a\u062f\u0647\u0645 \u062e\u0634\u0648\u0639\u0627). \nPepatah mengatakan \u0625\u0630\u0627 \u0636\u0631\u0639 \u0627\u0644\u0642\u0644\u0628 \u062e\u0634\u0639\u062a \u0627\u0644\u062c\u0648\u0627\u0631\u062d , jika hati sudah khusyuk maka anggota tubuh diam, tidak bergerak. \nDari dua definisi ini dapat dipahami bahwa khusyuk dalam ayat ini adalah kesan khusus dalam hati orang yang sedang menunaikan salat dengan mengerahkan seluruh pikiran dan isi hatinya pada bacaan salat dan mengabaikan hal-hal selainnya.\nSementara itu ulama mengatakan bahwa khusyuk yang dimaksud dalam ayat ini adalah rasa takut jangan sampai salat yang dilakukannya tertolak. Rasa takut ini antara lain ditandai dengan ketundukan mata ke tempat sujud. Rasa takut itu bercampur dengan kesigapan dan kerendahan hati serta harapan agar salatnya diterima.",
        "sabab_nuzul": null,
        "conclusion": null
    }
}