{
    "id": 2783,
    "surah_id": 23,
    "ayah": 110,
    "page": 349,
    "quarter_hizb": 35.5,
    "juz": 18,
    "manzil": 4,
    "arabic": "\u0641\u064e\u0627\u062a\u0651\u064e\u062e\u064e\u0630\u0652\u062a\u064f\u0645\u064f\u0648\u0652\u0647\u064f\u0645\u0652 \u0633\u0650\u062e\u0652\u0631\u0650\u064a\u0651\u064b\u0627 \u062d\u064e\u062a\u0651\u0670\u0649\u0653 \u0627\u064e\u0646\u0652\u0633\u064e\u0648\u0652\u0643\u064f\u0645\u0652 \u0630\u0650\u0643\u0652\u0631\u0650\u064a\u0652 \u0648\u064e\u0643\u064f\u0646\u0652\u062a\u064f\u0645\u0652 \u0645\u0651\u0650\u0646\u0652\u0647\u064f\u0645\u0652 \u062a\u064e\u0636\u0652\u062d\u064e\u0643\u064f\u0648\u0652\u0646\u064e",
    "latin": "Fattakha\u017ctum\u016bhum sikhriyyan \u1e25att\u0101 ansaukum \u017cikr\u012b wa kuntum minhum ta\u1e0d\u1e25ak\u016bn(a).",
    "translation": "Lalu, kamu jadikan mereka bahan ejekan sehingga itu membuatmu lupa mengingat-Ku dan kamu (selalu) menertawakan mereka.",
    "no_footnote": null,
    "footnotes": null,
    "surah": {
        "id": 23,
        "arabic": " \u0627\u0644\u0645\u0624\u0645\u0646\u0648\u0646",
        "latin": "Al-Mu'min\u016bn",
        "transliteration": "Al-Mu'minun",
        "translation": "Orang-Orang Mukmin",
        "num_ayah": 118,
        "page": 342,
        "location": "Makkiyah"
    },
    "tafsir": {
        "wajiz": "Kamu, wahai para pendurhaka, mendengar orang-orang mukmin tulus berdoa demikian, lalu kamu jadikan mereka buah ejekan. Begitu sibuk kamu mengejek mereka sehingga kamu lupa mengingat Aku, dan kamu pun selalu menghina dan menertawakan mereka.\u201d",
        "tahlili": "Pada ayat ini Allah menerangkan sebab musabab mereka disiksa dan diazab, serta jawaban yang menghina atas permintaan mereka kembali ke dunia. Hinaan itu muncul karena mereka menghina hamba-hamba Allah yang telah beriman, seperti Bilal, Khabb\u0101b, \u1e62uhaib dan orang-orang mukmin yang lemah lainnya, selalu mendekatkan diri kepada Allah, menegaskan ikrar dan pengakuan keimanan mereka kepada-Nya, membenar-kan para rasul yang telah diutus-Nya, senantiasa meminta ampunan dan memohon rahmat kepada-Nya karena Dialah pemberi rahmat yang sebaik-baiknya. Orang-orang kafir menghadapi orang-orang mukmin itu dengan sikap mengejek, menertawakan, dan menghina. Ayat ini juga menerangkan bahwa kesibukan orang-orang kafir itu mereka mengejek dan menertawakan orang-orang mukmin, membuat mereka lupa mengingat Allah. Sejalan dengan ayat ini, Allah berfirman:\n\u0627\u0650\u0646\u0651\u064e \u0627\u0644\u0651\u064e\u0630\u0650\u064a\u0652\u0646\u064e \u0627\u064e\u062c\u0652\u0631\u064e\u0645\u064f\u0648\u0652\u0627 \u0643\u064e\u0627\u0646\u064f\u0648\u0652\u0627 \u0645\u0650\u0646\u064e \u0627\u0644\u0651\u064e\u0630\u0650\u064a\u0652\u0646\u064e \u0627\u0670\u0645\u064e\u0646\u064f\u0648\u0652\u0627 \u064a\u064e\u0636\u0652\u062d\u064e\u0643\u064f\u0648\u0652\u0646\u064e\u06d6 \u0662\u0669 \u0648\u064e\u0627\u0650\u0630\u064e\u0627 \u0645\u064e\u0631\u0651\u064f\u0648\u0652\u0627 \u0628\u0650\u0647\u0650\u0645\u0652 \u064a\u064e\u062a\u064e\u063a\u064e\u0627\u0645\u064e\u0632\u064f\u0648\u0652\u0646\u064e\u06d6 \u0663\u0660 \u0648\u064e\u0627\u0650\u0630\u064e\u0627 \u0627\u0646\u0652\u0642\u064e\u0644\u064e\u0628\u064f\u0648\u0652\u0653\u0627 \u0627\u0650\u0644\u0670\u0653\u0649 \u0627\u064e\u0647\u0652\u0644\u0650\u0647\u0650\u0645\u064f \u0627\u0646\u0652\u0642\u064e\u0644\u064e\u0628\u064f\u0648\u0652\u0627 \u0641\u064e\u0643\u0650\u0647\u0650\u064a\u0652\u0646\u064e\u06d6 \u0663\u0661 \u0648\u064e\u0627\u0650\u0630\u064e\u0627 \u0631\u064e\u0627\u064e\u0648\u0652\u0647\u064f\u0645\u0652 \u0642\u064e\u0627\u0644\u064f\u0648\u0652\u0653\u0627 \u0627\u0650\u0646\u0651\u064e \u0647\u0653\u0670\u0624\u064f\u0644\u064e\u0627\u06e4\u0621\u0650 \u0644\u064e\u0636\u064e\u0627\u06e4\u0644\u0651\u064f\u0648\u0652\u0646\u064e\u06d9 \u0663\u0662 \u0648\u064e\u0645\u064e\u0627\u0653 \u0627\u064f\u0631\u0652\u0633\u0650\u0644\u064f\u0648\u0652\u0627 \u0639\u064e\u0644\u064e\u064a\u0652\u0647\u0650\u0645\u0652 \u062d\u0670\u0641\u0650\u0638\u0650\u064a\u0652\u0646\u064e\u06d7 \u0663\u0663\nSesungguhnya orang-orang yang berdosa, adalah mereka yang dahulu menertawakan orang-orang yang beriman. Dan apabila mereka (orang-orang yang beriman) melintas di hadapan mereka, mereka saling mengedip-ngedipkan matanya, dan apabila kembali kepada kaumnya, mereka kembali dengan gembira ria. Dan apabila mereka melihat (orang-orang mukmin), mereka mengatakan, \u201dSesungguhnya mereka benar-benar orang-orang sesat,\u201d padahal (orang-orang yang berdosa itu), mereka tidak diutus sebagai penjaga (orang-orang mukmin). (al-Mu\u1e6daffif\u012bn/83: 29-33)",
        "intro_surah": "Surah al-Mu\u2019min\u016bn terdiri dari 118 ayat, termasuk kelompok surah-surah Makiyah. Dinamai \u201cal-Mu\u2019min\u016bn\u201d, karena permulaan surah ini menerangkan bagaimana seharusnya sifat-sifat orang mukmin yang menyebabkan keberuntungan di akhirat dan ketenteraman jiwa mereka di dunia. Demikian tingginya sifat-sifat itu, hingga ia telah menjadi akhlak bagi Nabi Muhammad.\n\nPOKOK-POKOK ISINYA\n1. \tKeimanan:\nKepastian datangnya hari kebangkitan dan hal-hal yang terjadi pada hari kiamat; Allah tidak memerlukan anak atau sekutu.\n2. \tHukum:\nManusia dibebani sesuai dengan kesanggupannya; rasul-rasul semuanya menyuruh manusia makan makanan yang halal lagi baik; pokok-pokok agama yang dibawa para nabi adalah sama, hanya syariatnya yang berbeda-beda.\n3. \tKisah:\nKisah Nuh a.s.; kisah Hud a.s.; kisah Musa a.s.; kisah Harun a.s.; dan kisah Isa a.s.\n4. \tLain-lain:\nTujuh perkara yang harus dipenuhi oleh seorang mukmin yang ingin mendapat keberuntungan hidup di dunia maupun di akhirat; proses kejadian manusia; tanda-tanda orang yang selalu bergegas melaksanakan kebaikan; nikmat Allah yang dianugerahkan kepada manusia wajib disyukuri.",
        "outro_surah": null,
        "munasabah_prev_surah": "MUNASABAH SURAH AL-\u1e24AJJ DENGAN\nSURAH AL-MU\u2019MIN\u016aN\n1. \tSurah al-\u1e24ajj menyuruh orang-orang mukmin mendirikan salat, menunaikan zakat, mengerjakan semua kebaikan agar mendapat keberuntungan, sedang permulaan Surah al-Mu\u2019min\u016bn menegaskan bahwa orang-orang mukmin bila mereka betul-betul mengerjakan apa yang diperintahkan Allah dan menjauhi apa yang dilarang-Nya seperti zina, pasti mendapat keberuntungan.\n2. \tSama-sama mengemukakan tentang penciptaan manusia, perkembangan kejadian dan kehidupan, dan menjadikan hal yang demikian sebagai bukti adanya hari kebangkitan.\n3. \tSama-sama menyinggung umat-umat yang dahulu yang tidak mengindahkan seruan Nabi-nabi mereka, untuk menjadi i\u2019tibar bagi orang-orang yang datang di belakang mereka.\n4. \tSama-sama mengemukakan bukti-bukti adanya Allah dan Keesaan-Nya.",
        "munasabah_prev_theme": "Pada ayat-ayat yang lalu Allah menerangkan bahwa keinginan orang-orang kafir untuk hidup kembali agar bisa bertobat dan beramal saleh tidak dikabulkan Allah karena waktu untuk bertobat telah lewat. Keinginan ini juga hanya omong kosong belaka. Pada ayat-ayat berikut ini, Allah mene-rangkan peristiwa hari Kiamat dan berbagai peristiwa yang menyertainya, seperti hari kebangkitan dan pengembalian roh pada tubuh masing-masing. Ketika itu, pertalian nasab antara satu dengan yang lain tidak berguna lagi, mereka tidak dapat lagi saling bertanya, dan hanya dapat saling memandang satu sama lain.\n",
        "theme_group": "\nKEDAHSYATAN HARI KIAMAT",
        "kosakata": "1. Talfa\u1e25u \u062a\u064e\u0644\u0652\u0641\u064e\u062d\u064f  (al-Mu\u2019min\u016bn/23: 104)\nTalfa\u1e25 terambil dari kata dasar lafa\u1e25a artinya  \u2018menerpa\u2019, seperti cahaya matahari menerpa wajah seseorang, atau pedang menerpa leher. Dalam Surah al-Mu\u2019min\u016bn/23: 104 dijelaskan bahwa neraka menerpa wajah orang kafir, yaitu memanggangnya. Karena panasnya api neraka itu, mereka menyeringai sehingga gigi mereka tampak.\n2. K\u0101li\u1e25\u016bn  \u0643\u064e\u0627\u0644\u0650\u062d\u064f\u0648\u0652\u0646\u064e (al-Mu\u2019min\u016bn/23: 104)\nAkar katanya adalah kalaha \u2018menyeringai\u2019 sehingga bibir tertarik ke atas dan gigi kelihatan karena menahan sakit. Begitulah yang terjadi nanti bagi yang masuk neraka (al-Mukminun/23:104).",
        "sabab_nuzul": null,
        "conclusion": null
    }
}