{
    "id": 2790,
    "surah_id": 23,
    "ayah": 117,
    "page": 349,
    "quarter_hizb": 35.5,
    "juz": 18,
    "manzil": 4,
    "arabic": "\u0648\u064e\u0645\u064e\u0646\u0652 \u064a\u0651\u064e\u062f\u0652\u0639\u064f \u0645\u064e\u0639\u064e \u0627\u0644\u0644\u0651\u0670\u0647\u0650 \u0627\u0650\u0644\u0670\u0647\u064b\u0627 \u0627\u0670\u062e\u064e\u0631\u064e \u0644\u064e\u0627 \u0628\u064f\u0631\u0652\u0647\u064e\u0627\u0646\u064e \u0644\u064e\u0647\u0657 \u0628\u0650\u0647\u0656\u06d9 \u0641\u064e\u0627\u0650\u0646\u0651\u064e\u0645\u064e\u0627 \u062d\u0650\u0633\u064e\u0627\u0628\u064f\u0647\u0657 \u0639\u0650\u0646\u0652\u062f\u064e \u0631\u064e\u0628\u0651\u0650\u0647\u0656\u06d7 \u0627\u0650\u0646\u0651\u064e\u0647\u0657 \u0644\u064e\u0627 \u064a\u064f\u0641\u0652\u0644\u0650\u062d\u064f \u0627\u0644\u0652\u0643\u0670\u0641\u0650\u0631\u064f\u0648\u0652\u0646\u064e",
    "latin": "Wa may yad\u2018u ma\u2018all\u0101hi il\u0101han \u0101khara l\u0101 burh\u0101na lah\u016b bih(\u012b), fa innam\u0101 \u1e25is\u0101buh\u016b \u2018inda rabbih(\u012b), innah\u016b l\u0101 yufli\u1e25ul-k\u0101fir\u016bn(a).",
    "translation": "Siapa yang menyembah tuhan yang lain bersama Allah, padahal tidak ada suatu bukti pun baginya (yang membenarkan) tentang itu, maka perhitungan (amal)-nya hanya pada Tuhannya. Sesungguhnya orang-orang kafir itu tidak akan beruntung.",
    "no_footnote": null,
    "footnotes": null,
    "surah": {
        "id": 23,
        "arabic": " \u0627\u0644\u0645\u0624\u0645\u0646\u0648\u0646",
        "latin": "Al-Mu'min\u016bn",
        "transliteration": "Al-Mu'minun",
        "translation": "Orang-Orang Mukmin",
        "num_ayah": 118,
        "page": 342,
        "location": "Makkiyah"
    },
    "tafsir": {
        "wajiz": "Dan barang siapa menyembah tuhan yang lain selain Allah, padahal tidak ada suatu bukti pun baginya tentang kebenaran penyembahan itu, maka perhitungannya, yaitu balasannya, hanya pada Tuhannya. Sesungguhnya orang-orang kafir itu tidak akan beruntung. Melalui ayat ini Allah secara tersirat mengingatkan bahwa orang yang menyembah-Nya dengan tulus ikhlas akan memperoleh keberuntungan.",
        "tahlili": "Ayat ini menerangkan bahwa orang-orang yang menyembah Allah dan menyekutukan-Nya dengan tuhan yang lain, padahal tidak ada yang pantas disembah melainkan Allah, pada hakikatnya tidak ada alasan sama sekali yang dapat membenarkan perbuatan mereka itu. Mereka akan diajukan ke hadapan Allah, untuk memperhitungkan dan mempertanggung-jawabkan segala perbuatan mereka. Allah yang akan menyempurnakan ganjaran atas perbuatan mereka. Sesungguhnya orang-orang kafir itu tidak akan beruntung selama-lamanya, dan tidak akan luput dari azab yang menyiksanya.",
        "intro_surah": "Surah al-Mu\u2019min\u016bn terdiri dari 118 ayat, termasuk kelompok surah-surah Makiyah. Dinamai \u201cal-Mu\u2019min\u016bn\u201d, karena permulaan surah ini menerangkan bagaimana seharusnya sifat-sifat orang mukmin yang menyebabkan keberuntungan di akhirat dan ketenteraman jiwa mereka di dunia. Demikian tingginya sifat-sifat itu, hingga ia telah menjadi akhlak bagi Nabi Muhammad.\n\nPOKOK-POKOK ISINYA\n1. \tKeimanan:\nKepastian datangnya hari kebangkitan dan hal-hal yang terjadi pada hari kiamat; Allah tidak memerlukan anak atau sekutu.\n2. \tHukum:\nManusia dibebani sesuai dengan kesanggupannya; rasul-rasul semuanya menyuruh manusia makan makanan yang halal lagi baik; pokok-pokok agama yang dibawa para nabi adalah sama, hanya syariatnya yang berbeda-beda.\n3. \tKisah:\nKisah Nuh a.s.; kisah Hud a.s.; kisah Musa a.s.; kisah Harun a.s.; dan kisah Isa a.s.\n4. \tLain-lain:\nTujuh perkara yang harus dipenuhi oleh seorang mukmin yang ingin mendapat keberuntungan hidup di dunia maupun di akhirat; proses kejadian manusia; tanda-tanda orang yang selalu bergegas melaksanakan kebaikan; nikmat Allah yang dianugerahkan kepada manusia wajib disyukuri.",
        "outro_surah": null,
        "munasabah_prev_surah": "MUNASABAH SURAH AL-\u1e24AJJ DENGAN\nSURAH AL-MU\u2019MIN\u016aN\n1. \tSurah al-\u1e24ajj menyuruh orang-orang mukmin mendirikan salat, menunaikan zakat, mengerjakan semua kebaikan agar mendapat keberuntungan, sedang permulaan Surah al-Mu\u2019min\u016bn menegaskan bahwa orang-orang mukmin bila mereka betul-betul mengerjakan apa yang diperintahkan Allah dan menjauhi apa yang dilarang-Nya seperti zina, pasti mendapat keberuntungan.\n2. \tSama-sama mengemukakan tentang penciptaan manusia, perkembangan kejadian dan kehidupan, dan menjadikan hal yang demikian sebagai bukti adanya hari kebangkitan.\n3. \tSama-sama menyinggung umat-umat yang dahulu yang tidak mengindahkan seruan Nabi-nabi mereka, untuk menjadi i\u2019tibar bagi orang-orang yang datang di belakang mereka.\n4. \tSama-sama mengemukakan bukti-bukti adanya Allah dan Keesaan-Nya.",
        "munasabah_prev_theme": "Pada ayat-ayat yang lalu Allah menjelaskan hukuman bagi orang-orang kafir yang mengingkari hari kebangkitan dan mengejek orang-orang yang beriman kepada Allah dan memohon rahmat-Nya. Allah menolak keinginan mereka untuk keluar dari neraka dan hidup kembali untuk menebus dosa-dosa mereka. Pada ayat-ayat berikut ini, Allah menanyakan kepada mereka berapa lama mereka tinggal di dunia. Jika mereka sadar bahwa hidup di dunia sangat singkat tentu mereka akan memanfaatkannya untuk beramal saleh, sehingga hidup mereka selamat dunia dan akhirat.",
        "theme_group": "TUHAN MENCIPTAKAN MANUSIA\nTIDAK MAIN-MAIN",
        "kosakata": "Kosakata: \u2018Aba\u1e61an \u0639\u064e\u0628\u064e\u062b\u064b\u0627 (al-Mu\u2019min\u016bn/23: 115)\n\u2018Aba\u1e61an adalah bentuk masdar dari \u2018aba\u1e61a yang artinya, \"tak berarti\" dan \"sia-sia\". Dalam Surah al-Mu\u2019min\u016bn/23:115 Allah bertanya kepada orang kafir apakah mereka mengira bahwa Allah menciptakan mereka dengan sia-sia, tidak ada maksudnya. Itu adalah pertanyaan inkari, yaitu jawabannya adalah \"Tidak!\" Manusia diciptakan untuk menjalankan kehendak Allah, yaitu berbuat baik. Setelah itu mereka akan mati dan dipanggil menghadap-Nya untuk mempertanggungjawabkan perbuatannya. ",
        "sabab_nuzul": null,
        "conclusion": null
    }
}