{
    "id": 2812,
    "surah_id": 24,
    "ayah": 21,
    "page": 352,
    "quarter_hizb": 36,
    "juz": 18,
    "manzil": 4,
    "arabic": "\u06de \u064a\u0670\u0653\u0627\u064e\u064a\u0651\u064f\u0647\u064e\u0627 \u0627\u0644\u0651\u064e\u0630\u0650\u064a\u0652\u0646\u064e \u0627\u0670\u0645\u064e\u0646\u064f\u0648\u0652\u0627 \u0644\u064e\u0627 \u062a\u064e\u062a\u0651\u064e\u0628\u0650\u0639\u064f\u0648\u0652\u0627 \u062e\u064f\u0637\u064f\u0648\u0670\u062a\u0650 \u0627\u0644\u0634\u0651\u064e\u064a\u0652\u0637\u0670\u0646\u0650\u06d7 \u0648\u064e\u0645\u064e\u0646\u0652 \u064a\u0651\u064e\u062a\u0651\u064e\u0628\u0650\u0639\u0652 \u062e\u064f\u0637\u064f\u0648\u0670\u062a\u0650 \u0627\u0644\u0634\u0651\u064e\u064a\u0652\u0637\u0670\u0646\u0650 \u0641\u064e\u0627\u0650\u0646\u0651\u064e\u0647\u0657 \u064a\u064e\u0623\u0652\u0645\u064f\u0631\u064f \u0628\u0650\u0627\u0644\u0652\u0641\u064e\u062d\u0652\u0634\u064e\u0627\u06e4\u0621\u0650 \u0648\u064e\u0627\u0644\u0652\u0645\u064f\u0646\u0652\u0643\u064e\u0631\u0650\u06d7 \u0648\u064e\u0644\u064e\u0648\u0652\u0644\u064e\u0627 \u0641\u064e\u0636\u0652\u0644\u064f \u0627\u0644\u0644\u0651\u0670\u0647\u0650 \u0639\u064e\u0644\u064e\u064a\u0652\u0643\u064f\u0645\u0652 \u0648\u064e\u0631\u064e\u062d\u0652\u0645\u064e\u062a\u064f\u0647\u0657 \u0645\u064e\u0627 \u0632\u064e\u0643\u0670\u0649 \u0645\u0650\u0646\u0652\u0643\u064f\u0645\u0652 \u0645\u0651\u0650\u0646\u0652 \u0627\u064e\u062d\u064e\u062f\u064d \u0627\u064e\u0628\u064e\u062f\u064b\u0627\u06d9 \u0648\u0651\u064e\u0644\u0670\u0643\u0650\u0646\u0651\u064e \u0627\u0644\u0644\u0651\u0670\u0647\u064e \u064a\u064f\u0632\u064e\u0643\u0651\u0650\u064a\u0652 \u0645\u064e\u0646\u0652 \u064a\u0651\u064e\u0634\u064e\u0627\u06e4\u0621\u064f\u06d7 \u0648\u064e\u0627\u0644\u0644\u0651\u0670\u0647\u064f \u0633\u064e\u0645\u0650\u064a\u0652\u0639\u064c \u0639\u064e\u0644\u0650\u064a\u0652\u0645\u064c ",
    "latin": "Y\u0101 ayyuhal-la\u017c\u012bna \u0101man\u016b l\u0101 tattabi\u2018\u016b khu\u1e6duw\u0101tisy-syai\u1e6d\u0101n(i), wa may yattabi\u2018 khu\u1e6duw\u0101tisy-syai\u1e6d\u0101ni fa innah\u016b ya'muru bil-fa\u1e25sy\u0101'i wal-munkar(i), wa lau l\u0101 fa\u1e0dlull\u0101hi \u2018alaikum wa ra\u1e25matuh\u016b m\u0101 zak\u0101 minkum min a\u1e25adin abad\u0101(n), wa l\u0101kinnall\u0101ha yuzakk\u012b may yasy\u0101'(u), wall\u0101hu sam\u012b\u2018un \u2018al\u012bm(un).",
    "translation": "Wahai orang-orang yang beriman, janganlah kamu mengikuti langkah-langkah setan! Siapa yang mengikuti langkah-langkah setan, maka sesungguhnya dia (setan) menyuruh (manusia mengerjakan perbuatan) yang keji dan mungkar. Kalau bukan karena karunia Allah dan rahmat-Nya kepadamu, niscaya tidak seorang pun di antara kamu bersih (dari perbuatan keji dan mungkar itu) selama-lamanya. Akan tetapi, Allah membersihkan siapa yang Dia kehendaki. Allah Maha Mendengar lagi Maha Mengetahui.",
    "no_footnote": null,
    "footnotes": null,
    "surah": {
        "id": 24,
        "arabic": " \u0627\u0644\u0646\u0651\u0648\u0631",
        "latin": "An-N\u016br",
        "transliteration": "An-Nur",
        "translation": "Cahaya",
        "num_ayah": 64,
        "page": 350,
        "location": "Madaniyah"
    },
    "tafsir": {
        "wajiz": "Tuduhan kepada \u2018Aisyah, seperti yang telah dibantah pada ayat-ayat sebelumnya, adalah ulah setan. Karena itu, ayat ini melarang kaum mukmin mengikuti langkah-langkah setan. Wahai orang-orang yang beriman, bentengi dirimu dengan keimanan dan janganlah kamu memaksakan diri menentang fitrah kamu dengan mengikuti langkah-langkah setan yang membisikkan kejahatan, di antaranya menyebarkan berita bohong. Barang siapa mengikuti langkah-langkah setan dengan penuh kesadaran, bukan karena lalai atau tidak tahu, maka dia telah berbuat keji dan mungkar karena sesungguhnya setan menyuruh mengerjakan perbuatan yang keji, yaitu ucapan dan perbuatan yang tidak sejalan dengan tuntunan agama dan akal sehat, seperti zina dan tuduhan berzina, dan perbuatan mungkar, yaitu perbuatan buruk yang dicela oleh adat istiadat dan bertentangan dengan nilai-nilai agama. Kalau bukan karena karunia Allah dan rahmat-Nya kepadamu, di antaranya menunjukkan kepadamu jalan tobat, niscaya tidak seorang pun di antara kamu bersih dari perbuatan keji dan mungkar itu selama-lamanya, tetapi Allah membersihkan siapa yang Dia kehendaki dari dosa-dosa itu. Dan Allah Maha Mendengar permohonan siapa pun, Maha Mengetahui isi hati dan ketulusannya.",
        "tahlili": "Pada ayat ini Allah memperingatkan kepada orang-orang yang percaya kepada-Nya dan kepada Rasul-Nya, agar mereka itu jangan menuruti ajakan setan, mengikuti jejak dan langkahnya, seperti suka dan senang menyebarluaskan aib dan perbuatan keji di antara orang-orang yang beriman. Barangsiapa yang senang mengikuti langkah-langkah setan, pasti ia akan terjerumus ke lembah kehinaan, berbuat yang keji dan mungkar, karena setan itu memang suka berbuat yang demikian. Oleh karena itu jangan sekali-kali mau mencoba-coba mengikuti jejak dan langkahnya. Sekiranya Allah tidak memberikan karunia dan rahmat kepada hamba-Nya dan yang selalu membukakan kesempatan sebesar-besarnya untuk bertobat dari maksiat yang telah diperbuat mereka, tentunya mereka tidak akan bersih dari dosa-dosa mereka yang mengakibatkan kekecewaan dan kesengsaraan, bahkan akan disegerakan azab yang menyiksa mereka itu di dunia ini, sebagaimana firman Allah:\n\u0648\u064e\u0644\u064e\u0648\u0652 \u064a\u064f\u0624\u064e\u0627\u062e\u0650\u0630\u064f \u0627\u0644\u0644\u0651\u0670\u0647\u064f \u0627\u0644\u0646\u0651\u064e\u0627\u0633\u064e \u0628\u0650\u0638\u064f\u0644\u0652\u0645\u0650\u0647\u0650\u0645\u0652 \u0645\u0651\u064e\u0627 \u062a\u064e\u0631\u064e\u0643\u064e \u0639\u064e\u0644\u064e\u064a\u0652\u0647\u064e\u0627 \u0645\u0650\u0646\u0652 \u062f\u064e\u0627\u06e4\u0628\u0651\u064e\u0629\u064d \u0648\u0651\u064e\u0644\u0670\u0643\u0650\u0646\u0652 \u064a\u0651\u064f\u0624\u064e\u062e\u0651\u0650\u0631\u064f\u0647\u064f\u0645\u0652 \u0627\u0650\u0644\u0670\u0653\u0649 \u0627\u064e\u062c\u064e\u0644\u064d \u0645\u0651\u064f\u0633\u064e\u0645\u0651\u064b\u0649\u06da \nDan Allah menghukum manusia karena kezalimannya, niscaya Dia tidak akan ada yang ditinggalkan-Nya (di bumi) dari makhluk yang melata sekalipun, tetapi Allah menangguhkan mereka sampai waktu yang sudah ditentukan. (an-Na\u1e25l/16: 61)\nAllah Yang mempunyai kekuasaan yang tertinggi, bagaimana pun juga, Dia tetap akan membersihkan orang-orang yang dikehendaki-Nya dari hamba-Nya, dengan menerima tobat mereka seperti halnya Hassan,  Mistah bin U\u1e61\u0101\u1e61ah dan lainnya. Mereka itu telah dibersihkan dari penyakit nifak, sekalipun mereka itu telah berperang secara aktif di dalam penyebaran berita bohong yang dikenal dengan \u201c\u1e25ad\u012b\u1e61ul-ifki\u201d, Allah Maha Mendengar segala apa yang diucapkan yang sifatnya menuduh dan ketentuan kebersihan yang dituduh, Maha Mengetahui apa yang terkandung dan tersembunyi di dalam hati mereka yang senang menyebarkan berita-berita keji yang memalukan orang lain.",
        "intro_surah": "Surah an-N\u016br terdiri atas 64 ayat, dan termasuk golongan surah-surah Madaniyah. Dinamai \u201cAn-N\u016br\u201d yang berarti \u201cCahaya\u201d, diambil dari kata an-n\u016br yang terdapat pada ayat 35. Dalam ayat ini, Allah menjelaskan tentang nur Ilahi, petunjuk-petunjuk Allah itu merupakan cahaya yang terang benderang yang menerangi alam semesta. Surah ini sebagian besar isinya memuat petunjuk-petunjuk Allah yang berhubungan dengan soal kemasyarakatan dan rumah tangga.\n\nPOKOK-POKOK ISINYA\n1. \tKeimanan:\nKesaksian lidah, anggota-anggota tubuh lainnya atas segala perbuatan manusia pada hari Kiamat; hanya Allah yang menguasai langit dan bumi, kewajiban Rasul hanyalah menyampaikan agama Allah, iman merupakan dasar dari diterimanya amal ibadah.\n2. \tHukum:\nHukum-hukum sekitar masalah zina, tuduhan berzina terhadap perempuan baik-baik, li\u2019an dan tata cara pergaulan di luar dan di dalam rumah tangga.\n3. \tKisah:\nCerita tentang berita bohong terhadap Ummul Mukminin \u2018Aisyah r.a. (had\u016b\u1e61ul ifk).",
        "outro_surah": null,
        "munasabah_prev_surah": "MUNASABAH SURAH AL-MU\u2019MIN\u016aN\nDENGAN SURAH AN-N\u016aR\n\n1. \tPada bagian permulaan Surah al-Mu\u2019min\u016bn disebutkan bahwa salah satu tanda orang-orang mukmin itu ialah orang-orang yang menjaga kelamin-nya (kehormatannya), sedang permulaan Surah an-N\u016br menetapkan hukum bagi orang-orang yang tidak dapat menjaga kelaminnya, yaitu perempuan pezina, laki-laki pezina dan apa yang berhubungan dengan-nya, seperti menuduh orang yang berbuat zina, kisah ifk (gosip), keharusan menutup mata terhadap hal-hal yang akan menyeret seseorang kepada perbuatan zina, dan menyuruh orang-orang yang tidak sanggup melakukan pernikahan agar menahan diri dan sebagainya.\n2. \tPada Surah al-Mu\u2019min\u016bn dijelaskan bahwa di balik penciptaan alam ini pasti ada hikmahnya, yaitu agar semua makhluk yang diciptakan itu melaksanakan perintah dan larangan-Nya, sedang Surah an-N\u016br menyebutkan sejumlah perintah-perintah dan larangan-larangan itu.\n ",
        "munasabah_prev_theme": "Pada ayat yang lalu Allah menjelaskan tentang bahaya tersebarnya berita bohong dan akibatnya, bahwa hal itu bisa mendorong orang untuk berzina, maka pada ayat berikut ini dijelaskan bahwa Allah melarang manusia agar tidak menyebarkan fitnah dan berita bohong, karena perbuatan  itu adalah langkah dan taktik setan.",
        "theme_group": "MUSLIHAT  SETAN DALAM PENYEBARAN \nBERITA BOHONG ",
        "kosakata": "Kosakata: Khu\u1e6duw\u0101tisy-Syai\u1e6d\u0101n \u062e\u064f\u0637\u064f\u0648\u064e\u0627\u062a\u0650 \u0627\u0644\u0634\u0651\u064e\u064a\u0652\u0637\u064e\u0627\u0646\u0650 (an-N\u016br/24: 21)\nKata khu\u1e6duwat terambil dari kata kha\u1e6da \u2013 yakh\u1e6du \u2013 kha\u1e6dwan, yang berarti melangkah. Kata khu\u1e6duwat adalah jamak dari khu\u1e6dwah yang berarti langkah. Jadi makna Khu\u1e6duw\u0101tisy-Syai\u1e6d\u0101n adalah langkah-langkah setan meng-gambarkan dengan sangat teliti rayuan setan. Seakan-akan ayat ini berkata setan mempunyai jejak dan langkah-langkah. Ia menjerumuskan manusia langkah demi langkah, tahap demi tahap.  Langkah hanyalah jarak antara dua kaki sewaktu berjalan, tetapi bila tidak disadari, langkah demi langkah dapat menjerumuskan ke dalam bahaya. Setan pada mulanya hanya mengajak manusia melangkah selangkah, tetapi langkah itu disusul dengan langkah lain, sampai akhirnya ia mengantar manusia masuk bersama dia ke dalam neraka. Itulah sebabnya kata langkah setan dalam ayat ini disebutkan dalam bentuk jama\u2019, yaitu khu\u1e6duw\u0101tisy-syai\u1e6d\u0101n, bukan dengan khu\u1e6dwah asy-syai\u1e6dan.",
        "sabab_nuzul": null,
        "conclusion": "1.\tSetan berusaha menjatuhkan manusia melalui perbuatan manusia dengan menyebarkan fitnah dan berita bohong serta perzinaan.\n2.\tSebaliknya Allah terus menjaga agar manusia tetap suci, karenanya manusia perlu berusaha ke arah itu.\n"
    }
}