{
    "id": 2796,
    "surah_id": 24,
    "ayah": 5,
    "page": 350,
    "quarter_hizb": 35.75,
    "juz": 18,
    "manzil": 4,
    "arabic": "\u0627\u0650\u0644\u0651\u064e\u0627 \u0627\u0644\u0651\u064e\u0630\u0650\u064a\u0652\u0646\u064e \u062a\u064e\u0627\u0628\u064f\u0648\u0652\u0627 \u0645\u0650\u0646\u0652\u06e2 \u0628\u064e\u0639\u0652\u062f\u0650 \u0630\u0670\u0644\u0650\u0643\u064e \u0648\u064e\u0627\u064e\u0635\u0652\u0644\u064e\u062d\u064f\u0648\u0652\u0627\u06da \u0641\u064e\u0627\u0650\u0646\u0651\u064e \u0627\u0644\u0644\u0651\u0670\u0647\u064e \u063a\u064e\u0641\u064f\u0648\u0652\u0631\u064c \u0631\u0651\u064e\u062d\u0650\u064a\u0652\u0645\u064c",
    "latin": "Illal-la\u017c\u012bna t\u0101b\u016b mim ba\u2018di \u017c\u0101lika wa a\u1e63la\u1e25\u016b, fa innall\u0101ha gaf\u016brur ra\u1e25\u012bm(un).",
    "translation": "kecuali mereka yang bertobat setelah itu dan memperbaiki (dirinya), maka sesungguhnya Allah Maha Pengampun lagi Maha Penyayang.",
    "no_footnote": null,
    "footnotes": null,
    "surah": {
        "id": 24,
        "arabic": " \u0627\u0644\u0646\u0651\u0648\u0631",
        "latin": "An-N\u016br",
        "transliteration": "An-Nur",
        "translation": "Cahaya",
        "num_ayah": 64,
        "page": 350,
        "location": "Madaniyah"
    },
    "tafsir": {
        "wajiz": "Usai menjelaskan hukuman bagi pezina dan hukum menikahinya, Allah lalu menguraikan sanksi hukum terhadap orang yang menuduh orang lain berbuat zina. Dan orang-orang yang menuduh perempuan-perempuan yang baik telah berbuat zina, dan mereka tidak dapat mendatangkan empat orang saksi yang menjadi saksi atas kebenaran tuduhannya di hadapan pengadilan, maka deralah mereka, wahai kaum mukmin melalui penguasa kamu, sebanyak delapan puluh kali. Hukuman ini berlaku jika penuduh adalah orang merdeka. Jika ia adalah seorang hamba sahaya maka deralah ia empat puluh kali (Lihat juga: an-Nisa\u2019 / 4: 25). Dan janganlah kamu terima kesaksian mereka untuk selama-lamanya. Mereka itulah orang-orang yang fasik. Ketentuan ini berlaku atas semua orang yang berbuat demikian, kecuali mereka yang bertobat, menyesali perbuatannya, dan bertekad tidak akan mengulanginya setelah itu, yaitu setelah menerima hukuman itu, dan mereka membuktikan tobat mereka dengan memperbaiki diri dan beramal saleh. Jika mereka melakukannya maka sungguh, Allah Maha Pengampun, Maha Penyayang.",
        "tahlili": "Pada ayat ini Allah menerangkan bahwa orang-orang yang menuduh itu apabila tobat, yaitu menarik kembali tuduhan mereka, menyesali perbuatan mereka, memperbaiki diri dan memulihkan nama baik yang dituduh, maka mereka itu kesaksian mereka dapat diterima kembali. Sebagian mufassirin berpendapat bahwa kesaksian mereka tetap tidak dapat diterima selamanya walaupun mereka sudah bertobat, namun tidak lagi digolongkan sebagai orang-orang fasik. Allah Maha Pengampun dan Maha Pengasih bagi mereka yang benar-benar tobat (taubat na\u1e63\u016b\u1e25a), yaitu menyesal dan meninggalkan perbuatan jahat mereka selamanya, serta memperbaiki diri dari kerusakan yang mereka timbulkan.",
        "intro_surah": "Surah an-N\u016br terdiri atas 64 ayat, dan termasuk golongan surah-surah Madaniyah. Dinamai \u201cAn-N\u016br\u201d yang berarti \u201cCahaya\u201d, diambil dari kata an-n\u016br yang terdapat pada ayat 35. Dalam ayat ini, Allah menjelaskan tentang nur Ilahi, petunjuk-petunjuk Allah itu merupakan cahaya yang terang benderang yang menerangi alam semesta. Surah ini sebagian besar isinya memuat petunjuk-petunjuk Allah yang berhubungan dengan soal kemasyarakatan dan rumah tangga.\n\nPOKOK-POKOK ISINYA\n1. \tKeimanan:\nKesaksian lidah, anggota-anggota tubuh lainnya atas segala perbuatan manusia pada hari Kiamat; hanya Allah yang menguasai langit dan bumi, kewajiban Rasul hanyalah menyampaikan agama Allah, iman merupakan dasar dari diterimanya amal ibadah.\n2. \tHukum:\nHukum-hukum sekitar masalah zina, tuduhan berzina terhadap perempuan baik-baik, li\u2019an dan tata cara pergaulan di luar dan di dalam rumah tangga.\n3. \tKisah:\nCerita tentang berita bohong terhadap Ummul Mukminin \u2018Aisyah r.a. (had\u016b\u1e61ul ifk).",
        "outro_surah": null,
        "munasabah_prev_surah": "MUNASABAH SURAH AL-MU\u2019MIN\u016aN\nDENGAN SURAH AN-N\u016aR\n\n1. \tPada bagian permulaan Surah al-Mu\u2019min\u016bn disebutkan bahwa salah satu tanda orang-orang mukmin itu ialah orang-orang yang menjaga kelamin-nya (kehormatannya), sedang permulaan Surah an-N\u016br menetapkan hukum bagi orang-orang yang tidak dapat menjaga kelaminnya, yaitu perempuan pezina, laki-laki pezina dan apa yang berhubungan dengan-nya, seperti menuduh orang yang berbuat zina, kisah ifk (gosip), keharusan menutup mata terhadap hal-hal yang akan menyeret seseorang kepada perbuatan zina, dan menyuruh orang-orang yang tidak sanggup melakukan pernikahan agar menahan diri dan sebagainya.\n2. \tPada Surah al-Mu\u2019min\u016bn dijelaskan bahwa di balik penciptaan alam ini pasti ada hikmahnya, yaitu agar semua makhluk yang diciptakan itu melaksanakan perintah dan larangan-Nya, sedang Surah an-N\u016br menyebutkan sejumlah perintah-perintah dan larangan-larangan itu.\n ",
        "munasabah_prev_theme": "Pada ayat yang lalu Allah menerangkan hukuman atas perempuan dan laki-laki yang belum pernah menikah (bujangan) yang berzina dan larangan bagi mereka menikah dengan perempuan atau laki-laki baik-baik. Maka pada ayat-ayat berikut ini Allah menerangkan tentang larangan menuduh perempuan yang baik-baik berzina; dan larangan menerima kesaksian para penuduh itu karena mereka itu adalah orang-orang fasik.",
        "theme_group": "HUKUMAN MENUDUH ORANG BERZINA",
        "kosakata": "Kosakata: Yarm\u016bnal-mu\u1e25\u1e63an\u0101t \u064a\u064e\u0631\u0652\u0645\u064f\u0648\u0652\u0646\u064e \u0627\u0644\u0652\u0645\u064f\u062d\u0652\u0635\u064e\u0646\u064e\u0627\u062a\u0650 (an-N\u016br/24: 4)\nKata yarm\u016bna adalah bentuk fi\u2019il mu\u1e0d\u0101ri\u2019 dari ram\u0101-yarm\u016b-ramyan, yang pada mulanya berarti melempar, tetapi yang dimaksud dalam ayat ini adalah makna majazy,  yakni menuduh. Ayat ini tidak menjelaskan tuduhan apa yang dimaksud, tetapi dari konteksnya dipahami bahwa ia adalah tuduhan berzina. Memang pada masa Jahiliah sering kali tuduhan semacam ini dilontarkan bila mereka melihat hubungan akrab antara laki-laki dan perempuan. Mereka  juga sering kali  menuduh perempuan berzina, jika melihat anak yang dilahirkan tidak mirip dengan suami ibu yang melahirkannya.\nSedangkan kata al-muh\u1e63an\u0101t terambil dari akar kata \u1e25a\u1e63una\u2013ya\u1e25\u1e63unu\u2013 \u1e25a\u1e63anatan, yang berarti menghalangi. Benteng dinamai \u1e25i\u1e63nun karena dia menghalangi musuh masuk atau melintasinya. Perempuan-perempuan yang dilukiskan dengan akar kata ini oleh Al-Qur\u2019an, dapat diartikan sebagai perempuan-perempuan yang terpelihara dan terhalangi dari kekejian, karena mereka adalah orang yang bersih dan bermoral tinggi, karena mereka mendapat perlindungan dari suaminya masing-masing. Jadi yang dimaksudkan dengan al-mu\u1e25\u1e63an\u0101t dalam ayat ini adalah perempuan-perempuan yang suci dari perbuatan tercela, atau perempuan-perempuan yang telah nikah karena mereka telah terlindungi dari perbuatan yang keji oleh suaminya masing-masing sebagai benteng dari perbuatan keji itu.",
        "sabab_nuzul": null,
        "conclusion": "1. \tOrang-orang yang menuduh perempuan-perempuan mu\u1e25\u1e63an\u0101t berbuat zina, kemudian mereka tidak dapat mendatangkan empat orang saksi untuk memperkuat tuduhan mereka, maka hukuman mereka ialah didera delapan puluh kali dera dan tidak boleh diterima kesaksiannya selama-lamanya, serta digolongkan ke dalam orang-orang fasik. Hal yang sama berlaku bagi laki-laki yang dituduh berbuat zina.\n2. \tPenuduh-penuduh itu apabila tobat dengan taubat na\u1e63\u016b\u1e25a, maka kesaksian mereka itu dapat diterima kembali dan tidak lagi digolongkan ke dalam orang-orang fasik, karena Allah Maha Pengampun lagi Maha Pengasih."
    }
}