{
    "id": 2829,
    "surah_id": 24,
    "ayah": 38,
    "page": 355,
    "quarter_hizb": 36.25,
    "juz": 18,
    "manzil": 4,
    "arabic": "\u0644\u0650\u064a\u064e\u062c\u0652\u0632\u0650\u064a\u064e\u0647\u064f\u0645\u064f \u0627\u0644\u0644\u0651\u0670\u0647\u064f \u0627\u064e\u062d\u0652\u0633\u064e\u0646\u064e \u0645\u064e\u0627 \u0639\u064e\u0645\u0650\u0644\u064f\u0648\u0652\u0627 \u0648\u064e\u064a\u064e\u0632\u0650\u064a\u0652\u062f\u064e\u0647\u064f\u0645\u0652 \u0645\u0651\u0650\u0646\u0652 \u0641\u064e\u0636\u0652\u0644\u0650\u0647\u0656\u06d7 \u0648\u064e\u0627\u0644\u0644\u0651\u0670\u0647\u064f \u064a\u064e\u0631\u0652\u0632\u064f\u0642\u064f \u0645\u064e\u0646\u0652 \u064a\u0651\u064e\u0634\u064e\u0627\u06e4\u0621\u064f \u0628\u0650\u063a\u064e\u064a\u0652\u0631\u0650 \u062d\u0650\u0633\u064e\u0627\u0628\u064d",
    "latin": "Liyajziyahumull\u0101hu a\u1e25sana m\u0101 \u2018amil\u016b wa yaz\u012bduhum min fa\u1e0dlih(\u012b), wall\u0101hu yarzuqu may yasy\u0101'u bigairi \u1e25is\u0101b(in).",
    "translation": "(Mereka melakukan itu) agar Allah memberi balasan kepada mereka yang lebih baik daripada apa yang telah mereka kerjakan dan agar Dia menambah karunia-Nya kepada mereka. Allah menganugerahkan rezeki kepada siapa saja yang Dia kehendaki tanpa batas.",
    "no_footnote": null,
    "footnotes": null,
    "surah": {
        "id": 24,
        "arabic": " \u0627\u0644\u0646\u0651\u0648\u0631",
        "latin": "An-N\u016br",
        "transliteration": "An-Nur",
        "translation": "Cahaya",
        "num_ayah": 64,
        "page": 350,
        "location": "Madaniyah"
    },
    "tafsir": {
        "wajiz": "Orang-orang yang hatinya tidak terlalaikan oleh kesibukan duniawi itu berbuat demikian agar Allah memberi balasan kepada mereka dengan balasan yang terbaik atas apa yang telah mereka kerjakan, dan agar Dia menambah karunia-Nya kepada mereka selain balasan yang telah dijanjikan itu. Dan Allah dengan segala keagungan dan kesempurnaan-Nya melebihkan anugerah-Nya kepada hamba-hamba dan memberi rezeki kepada siapa saja yang Dia kehendaki, tanpa batas.",
        "tahlili": "Orang-orang yang demikian sifatnya, selalu bertakwa dan bertawakkal kepada Allah, mereka itu diridai Allah dan mendapat pancaran Nur Ilahi dalam hidupnya karena mereka selalu berpedoman kepada ajaran-Nya dan banyak melakukan perbuatan yang baik, mengerjakan amal saleh baik yang wajib maupun yang sunnah. Mereka akan mendapat ganjaran berlipat ganda dari Allah sesuai dengan firman-Nya:\n\u0645\u064e\u0646\u0652 \u062c\u064e\u0627\u06e4\u0621\u064e \u0628\u0650\u0627\u0644\u0652\u062d\u064e\u0633\u064e\u0646\u064e\u0629\u0650 \u0641\u064e\u0644\u064e\u0647\u0657 \u0639\u064e\u0634\u0652\u0631\u064f \u0627\u064e\u0645\u0652\u062b\u064e\u0627\u0644\u0650\u0647\u064e\u0627 \u06da\u0648\u064e\u0645\u064e\u0646\u0652 \u062c\u064e\u0627\u06e4\u0621\u064e \u0628\u0650\u0627\u0644\u0633\u0651\u064e\u064a\u0651\u0650\u0626\u064e\u0629\u0650 \u0641\u064e\u0644\u064e\u0627 \u064a\u064f\u062c\u0652\u0632\u0670\u0653\u0649 \u0627\u0650\u0644\u0651\u064e\u0627 \u0645\u0650\u062b\u0652\u0644\u064e\u0647\u064e\u0627 \u0648\u064e\u0647\u064f\u0645\u0652 \u0644\u064e\u0627 \u064a\u064f\u0638\u0652\u0644\u064e\u0645\u064f\u0648\u0652\u0646\u064e \u0661\u0666\u0660\n\nBarang siapa berbuat kebaikan mendapat balasan sepuluh kali lipat amalnya. Dan barang siapa berbuat kejahatan dibalas seimbang dengan kejahatannya. Mereka sedikit pun tidak dirugikan (dizalimi). (al-An\u2018\u0101m/6: 160)\nRasulullah menerangkan janji Allah kepada orang  yang saleh dalam sebuah hadis qudsi.\n\u0627\u064e\u0639\u0652\u062f\u064e\u062f\u0652\u062a\u064f \u0644\u0650\u0639\u0650\u0628\u064e\u0627\u062f\u0650\u064a\u064e \u0627\u0644\u0635\u0651\u064e\u0627\u0644\u0650\u062d\u0650\u064a\u0652\u0646\u064e \u0645\u064e\u0627\u0644\u064e\u0627 \u0639\u064e\u064a\u0652\u0646\u064c \u0631\u064e\u0623\u064e\u062a\u0652 \u0648\u064e\u0644\u064e\u0627\u0627\u064f\u0630\u064f\u0646\u064c \u0633\u064e\u0645\u0650\u0639\u064e\u062a\u0652 \u0648\u064e\u0644\u064e\u0627 \u062e\u064e\u0637\u064e\u0631\u064e \u0639\u064e\u0644\u064e\u0649 \u0642\u064e\u0644\u0652\u0628\u0650 \u0628\u064e\u0634\u064e\u0631\u064d. (\u0631\u0648\u0627\u0647 \u0627\u0644\u0634\u064a\u062e\u0627\u0646 \u0648\u0623\u062d\u0645\u062f \u0648\u0627\u0628\u0646 \u0645\u0627\u062c\u0647 \u0639\u0646 \u0627\u0628\u0649 \u0647\u0631\u064a\u0631\u0629)  \nAku (Allah) menyediakan bagi hamba-hambaKu yang saleh nikmat-nikmat yang belum dilihat mata, belum pernah didengar telinga dan belum pernah terlintas dalam hati manusia. (Riwayat asy-Syaikh\u0101n, A\u1e25mad dan Ibnu M\u0101jah dari Abu Hurairah)\nDemikianlah Allah memberi balasan kepada hamba-Nya yang saleh yang beriman dan bertakwa dengan nikmat serta karunia yang tak terhingga.",
        "intro_surah": "Surah an-N\u016br terdiri atas 64 ayat, dan termasuk golongan surah-surah Madaniyah. Dinamai \u201cAn-N\u016br\u201d yang berarti \u201cCahaya\u201d, diambil dari kata an-n\u016br yang terdapat pada ayat 35. Dalam ayat ini, Allah menjelaskan tentang nur Ilahi, petunjuk-petunjuk Allah itu merupakan cahaya yang terang benderang yang menerangi alam semesta. Surah ini sebagian besar isinya memuat petunjuk-petunjuk Allah yang berhubungan dengan soal kemasyarakatan dan rumah tangga.\n\nPOKOK-POKOK ISINYA\n1. \tKeimanan:\nKesaksian lidah, anggota-anggota tubuh lainnya atas segala perbuatan manusia pada hari Kiamat; hanya Allah yang menguasai langit dan bumi, kewajiban Rasul hanyalah menyampaikan agama Allah, iman merupakan dasar dari diterimanya amal ibadah.\n2. \tHukum:\nHukum-hukum sekitar masalah zina, tuduhan berzina terhadap perempuan baik-baik, li\u2019an dan tata cara pergaulan di luar dan di dalam rumah tangga.\n3. \tKisah:\nCerita tentang berita bohong terhadap Ummul Mukminin \u2018Aisyah r.a. (had\u016b\u1e61ul ifk).",
        "outro_surah": null,
        "munasabah_prev_surah": "MUNASABAH SURAH AL-MU\u2019MIN\u016aN\nDENGAN SURAH AN-N\u016aR\n\n1. \tPada bagian permulaan Surah al-Mu\u2019min\u016bn disebutkan bahwa salah satu tanda orang-orang mukmin itu ialah orang-orang yang menjaga kelamin-nya (kehormatannya), sedang permulaan Surah an-N\u016br menetapkan hukum bagi orang-orang yang tidak dapat menjaga kelaminnya, yaitu perempuan pezina, laki-laki pezina dan apa yang berhubungan dengan-nya, seperti menuduh orang yang berbuat zina, kisah ifk (gosip), keharusan menutup mata terhadap hal-hal yang akan menyeret seseorang kepada perbuatan zina, dan menyuruh orang-orang yang tidak sanggup melakukan pernikahan agar menahan diri dan sebagainya.\n2. \tPada Surah al-Mu\u2019min\u016bn dijelaskan bahwa di balik penciptaan alam ini pasti ada hikmahnya, yaitu agar semua makhluk yang diciptakan itu melaksanakan perintah dan larangan-Nya, sedang Surah an-N\u016br menyebutkan sejumlah perintah-perintah dan larangan-larangan itu.\n ",
        "munasabah_prev_theme": "Pada ayat yang lalu diterangkan bahwa Allah yang memberikan cahaya kepada alam semesta baik di langit dan di bumi maupun yang berada di antara keduanya serta memberikan perumpamaan bagi cahaya itu. Kemudian ditegaskan bahwa Allah menganugerahkan cahaya itu kepada siapa yang dikehendaki-Nya di antara hamba-Nya. Maka pada ayat-ayat berikut ini Allah menerangkan siapa di antara hamba-Nya yang mendapat pancaran cahaya itu dan bagaimana sifat-sifat mereka.",
        "theme_group": "ORANG YANG MENDAPAT PANCARAN NUR ILAHI",
        "kosakata": "Kosakata: Bil-guduwwi wal-\u0101\u1e63\u0101l  \u0628\u0650\u0627\u0644\u0652\u063a\u064f\u062f\u064f\u0648\u0651\u0650 \u0648\u064e\u0627\u0652\u0644\u0627\u0670\u0635\u064e\u0627\u0644\u0650 (an-N\u016br/23: 35)\nAl-Guduw berasal dari kata gad\u0101 yang berarti waktu menunjukan waktu pagi-pagi sekali (awwal nahar) sampai tergelincirnya matahari. Biasanya lafal ini dipadankan dengan lafal al-\u0101\u1e63\u0101l seperti dalam ayat ini. Terkadang disandingkan dengan lafal al-\u2019asyiyy yang berarti waktu petang (al-An\u2018\u0101m/6:52). Al-G\u0101diyah adalah awan yang menyertai munculnya waktu pagi. Sedangkan al-gad\u0101\u2019 diartikan dengan makanan yang disantap pada waktu pagi hari. Kata al-\u0101\u1e63\u0101l adalah bentuk jamak dari lafal a\u1e63\u012bl yang berarti waktu sore antara waktu asar dan magrib, ada juga yang menyatakan dari tergelincirnya matahari sampai pagi. Dalam ayat ini dijelaskan bahwa di antara orang-orang yang diberi pancaran Nur Ilahi, mereka senantiasa menyebut nama Allah, dan bertasbih di mesjid-mesjid baik pada waktu pagi maupun waktu petang. ",
        "sabab_nuzul": null,
        "conclusion": "1. \tOrang-orang yang selalu mengingat Allah berzikir menyebut nama-Nya mengerjakan salat dan menunaikan zakat serta tidak satu pun urusan duniawi yang dapat melalaikannya dari kewajibannya terhadap Tuhan-nya, karena itu ia selalu ingat dan taat memikirkan hari akhirat yang dahsyat yang penuh kesulitan, mereka itu diridai oleh Allah dan mendapat pancaran Nur Ilahi.\n2. \tMereka akan mendapat balasan berlipat ganda dan akan dikaruniai oleh Allah berbagai macam kesenangan yang menunjukkan betapa besar dan sempurnanya karunia Allah itu.\n"
    }
}