{
    "id": 2804,
    "surah_id": 24,
    "ayah": 13,
    "page": 351,
    "quarter_hizb": 35.75,
    "juz": 18,
    "manzil": 4,
    "arabic": "\u0644\u064e\u0648\u0652\u0644\u064e\u0627 \u062c\u064e\u0627\u06e4\u0621\u064f\u0648\u0652 \u0639\u064e\u0644\u064e\u064a\u0652\u0647\u0650 \u0628\u0650\u0627\u064e\u0631\u0652\u0628\u064e\u0639\u064e\u0629\u0650 \u0634\u064f\u0647\u064e\u062f\u064e\u0627\u06e4\u0621\u064e\u06da \u0641\u064e\u0627\u0650\u0630\u0652 \u0644\u064e\u0645\u0652 \u064a\u064e\u0623\u0652\u062a\u064f\u0648\u0652\u0627 \u0628\u0650\u0627\u0644\u0634\u0651\u064f\u0647\u064e\u062f\u064e\u0627\u06e4\u0621\u0650 \u0641\u064e\u0627\u064f\u0648\u0644\u0670\u06e4\u0649\u0655\u0650\u0643\u064e \u0639\u0650\u0646\u0652\u062f\u064e \u0627\u0644\u0644\u0651\u0670\u0647\u0650 \u0647\u064f\u0645\u064f \u0627\u0644\u0652\u0643\u0670\u0630\u0650\u0628\u064f\u0648\u0652\u0646\u064e",
    "latin": "Lau l\u0101 j\u0101'\u016b \u2018alaihi bi'arba\u2018ati syuhad\u0101'(a), fa i\u017c lam ya't\u016b bisy-syuhad\u0101'i fa ul\u0101'ika \u2018indall\u0101hi humul-k\u0101\u017cib\u016bn(a).",
    "translation": "Mengapa mereka (yang menuduh itu) tidak datang membawa empat saksi? Karena tidak membawa saksi-saksi, mereka itu adalah para pendusta dalam pandangan Allah.",
    "no_footnote": null,
    "footnotes": null,
    "surah": {
        "id": 24,
        "arabic": " \u0627\u0644\u0646\u0651\u0648\u0631",
        "latin": "An-N\u016br",
        "transliteration": "An-Nur",
        "translation": "Cahaya",
        "num_ayah": 64,
        "page": 350,
        "location": "Madaniyah"
    },
    "tafsir": {
        "wajiz": "Setelah mengecam umat Islam yang pasif atas berita bohong itu, Allah lalu beralih berbicara tentang penyebar berita bohong itu. Diskursus pada ayat ini tidak diarahkan secara langsung kepada mereka untuk mengisyaratkan betapa besarnya kemurkaan Allah. Mengapa mereka yang menuduh itu tidak datang membawa empat saksi yang bersaksi atas kebenaran tuduhan mereka? Oleh karena mereka tidak membawa saksi-saksi maka mereka itu dalam pandangan Allah, yaitu dalam ketetapan hukum-Nya, khususnya dalam kasus ini, adalah orang-orang yang berdusta.",
        "tahlili": "Ayat ini menunjukkan kemarahan Allah kepada para penyebar berita bohong itu, mengapa mereka tidak mendatangkan empat orang saksi atas kebenaran fitnahan yang disebarkan dan dituduhkan kepada Aisyah r.a. itu? Tidak didatangkannya empat orang saksi oleh mereka itu, berarti bahwa mereka itu bohong, baik di sisi Allah maupun di kalangan manusia.",
        "intro_surah": "Surah an-N\u016br terdiri atas 64 ayat, dan termasuk golongan surah-surah Madaniyah. Dinamai \u201cAn-N\u016br\u201d yang berarti \u201cCahaya\u201d, diambil dari kata an-n\u016br yang terdapat pada ayat 35. Dalam ayat ini, Allah menjelaskan tentang nur Ilahi, petunjuk-petunjuk Allah itu merupakan cahaya yang terang benderang yang menerangi alam semesta. Surah ini sebagian besar isinya memuat petunjuk-petunjuk Allah yang berhubungan dengan soal kemasyarakatan dan rumah tangga.\n\nPOKOK-POKOK ISINYA\n1. \tKeimanan:\nKesaksian lidah, anggota-anggota tubuh lainnya atas segala perbuatan manusia pada hari Kiamat; hanya Allah yang menguasai langit dan bumi, kewajiban Rasul hanyalah menyampaikan agama Allah, iman merupakan dasar dari diterimanya amal ibadah.\n2. \tHukum:\nHukum-hukum sekitar masalah zina, tuduhan berzina terhadap perempuan baik-baik, li\u2019an dan tata cara pergaulan di luar dan di dalam rumah tangga.\n3. \tKisah:\nCerita tentang berita bohong terhadap Ummul Mukminin \u2018Aisyah r.a. (had\u016b\u1e61ul ifk).",
        "outro_surah": null,
        "munasabah_prev_surah": "MUNASABAH SURAH AL-MU\u2019MIN\u016aN\nDENGAN SURAH AN-N\u016aR\n\n1. \tPada bagian permulaan Surah al-Mu\u2019min\u016bn disebutkan bahwa salah satu tanda orang-orang mukmin itu ialah orang-orang yang menjaga kelamin-nya (kehormatannya), sedang permulaan Surah an-N\u016br menetapkan hukum bagi orang-orang yang tidak dapat menjaga kelaminnya, yaitu perempuan pezina, laki-laki pezina dan apa yang berhubungan dengan-nya, seperti menuduh orang yang berbuat zina, kisah ifk (gosip), keharusan menutup mata terhadap hal-hal yang akan menyeret seseorang kepada perbuatan zina, dan menyuruh orang-orang yang tidak sanggup melakukan pernikahan agar menahan diri dan sebagainya.\n2. \tPada Surah al-Mu\u2019min\u016bn dijelaskan bahwa di balik penciptaan alam ini pasti ada hikmahnya, yaitu agar semua makhluk yang diciptakan itu melaksanakan perintah dan larangan-Nya, sedang Surah an-N\u016br menyebutkan sejumlah perintah-perintah dan larangan-larangan itu.\n ",
        "munasabah_prev_theme": "Pada ayat-ayat yang lalu diterangkan hukum yang harus diberlakukan kepada orang-orang yang menuduh perempuan lain berzina, hukum mengenai suami yang menuduh istrinya berzina, dan ketentuan yang berlaku bagi para istri yang dituduh berzina dan ingin membela dirinya untuk menolak tuduhan tersebut. Pada ayat-ayat berikut ini diterangkan tentang bagaimana jahat dan berbahayanya tuduhan yang tidak mempunyai bukti-bukti yang jelas kepada seorang wanita, seperti yang menimpa rumah tangga Rasulullah yaitu tuduhan berzina kepada Ummul Mukminin Aisyah r.a.",
        "theme_group": "FITNAH TERHADAP AISYAH UMMUL MUKMININ ",
        "kosakata": "Kosakata: Bil-Ifki \u0628\u0650\u0627\u0652\u0644\u0627\u0650\u0641\u0652\u0643\u0650 (an-N\u016br/24: 11)\nKata al-Ifku adalah bentuk ma\u1e63dar (kata jadian) dari afaka \u2013 ya\u2019fiku \u2013 afkan, yang berarti berbohong. Jadi kata al-ifku terambil dari kata al-afku yang berarti \u201cketerbalikan,\u201d baik material seperti akibat gempa yang menjungkirbalikkan negeri, maupun immaterial seperti keindahan bila dilukiskan dalam bentuk keburukan atau sebaliknya. Yang dimaksud dalam ayat ini adalah kebohongan besar, karena kebohongan adalah pemutarbalikkan fakta, seperti kisah terjadinya fitnah atas diri Aisyah sebagai akibat dari kebohongan berita  yang disebarkan oleh orang-orang munafik yang dipimpin oleh Abdullah Bin Ubay bin Salul. ",
        "sabab_nuzul": null,
        "conclusion": null
    }
}