{
    "id": 2843,
    "surah_id": 24,
    "ayah": 52,
    "page": 356,
    "quarter_hizb": 36.25,
    "juz": 18,
    "manzil": 4,
    "arabic": "\u0648\u064e\u0645\u064e\u0646\u0652 \u064a\u0651\u064f\u0637\u0650\u0639\u0650 \u0627\u0644\u0644\u0651\u0670\u0647\u064e \u0648\u064e\u0631\u064e\u0633\u064f\u0648\u0652\u0644\u064e\u0647\u0657 \u0648\u064e\u064a\u064e\u062e\u0652\u0634\u064e \u0627\u0644\u0644\u0651\u0670\u0647\u064e \u0648\u064e\u064a\u064e\u062a\u0651\u064e\u0642\u0652\u0647\u0650 \u0641\u064e\u0627\u064f\u0648\u0644\u0670\u06e4\u0649\u0655\u0650\u0643\u064e \u0647\u064f\u0645\u064f \u0627\u0644\u0652\u0641\u064e\u0627\u06e4\u0649\u0655\u0650\u0632\u064f\u0648\u0652\u0646\u064e",
    "latin": "Wa may yu\u1e6di\u2018ill\u0101ha wa ras\u016blah\u016b wa yakhsyall\u0101ha wa yattaqhi fa ul\u0101'ika humul-f\u0101'iz\u016bn(a).",
    "translation": "Siapa yang taat kepada Allah dan Rasul-Nya serta takut kepada Allah dan bertakwa kepada-Nya, mereka itulah orang-orang yang mendapat kemenangan.",
    "no_footnote": null,
    "footnotes": null,
    "surah": {
        "id": 24,
        "arabic": " \u0627\u0644\u0646\u0651\u0648\u0631",
        "latin": "An-N\u016br",
        "transliteration": "An-Nur",
        "translation": "Cahaya",
        "num_ayah": 64,
        "page": 350,
        "location": "Madaniyah"
    },
    "tafsir": {
        "wajiz": "Dan barang siapa taat kepada Allah dan Rasul-Nya dalam segala hal, tidak hanya dalam menerima keputusan Nabi terkait hal yang mereka perselisihkan, serta takut kepada Allah dengan seluruh jiwanya terkait dosa-dosa yang pernah dilakukan, dan bertakwa kepada-Nya, mereka itulah orang-orang yang mendapat kemenangan karena memperoleh ampun-an dari Allah dan surga-Nya.",
        "tahlili": "Siapa yang menaati semua perintah Allah dan menjauhi semua larangan-Nya karena meyakini bahwa mengerjakan perintah Allah itulah yang akan membawa kepada kebahagiaan hidup di dunia dan di akhirat, meninggalkan semua larangan-Nya, akan menjauhkan mereka dari bahaya dan malapetaka di dunia dan di akhirat dan selalu bertakwa kepada-Nya, dan berbuat baik terhadap sesama manusia, maka mereka itu termasuk golongan orang-orang yang mencapai keridaan Ilahi dan bebas dari segala siksaan-Nya di akhirat.",
        "intro_surah": "Surah an-N\u016br terdiri atas 64 ayat, dan termasuk golongan surah-surah Madaniyah. Dinamai \u201cAn-N\u016br\u201d yang berarti \u201cCahaya\u201d, diambil dari kata an-n\u016br yang terdapat pada ayat 35. Dalam ayat ini, Allah menjelaskan tentang nur Ilahi, petunjuk-petunjuk Allah itu merupakan cahaya yang terang benderang yang menerangi alam semesta. Surah ini sebagian besar isinya memuat petunjuk-petunjuk Allah yang berhubungan dengan soal kemasyarakatan dan rumah tangga.\n\nPOKOK-POKOK ISINYA\n1. \tKeimanan:\nKesaksian lidah, anggota-anggota tubuh lainnya atas segala perbuatan manusia pada hari Kiamat; hanya Allah yang menguasai langit dan bumi, kewajiban Rasul hanyalah menyampaikan agama Allah, iman merupakan dasar dari diterimanya amal ibadah.\n2. \tHukum:\nHukum-hukum sekitar masalah zina, tuduhan berzina terhadap perempuan baik-baik, li\u2019an dan tata cara pergaulan di luar dan di dalam rumah tangga.\n3. \tKisah:\nCerita tentang berita bohong terhadap Ummul Mukminin \u2018Aisyah r.a. (had\u016b\u1e61ul ifk).",
        "outro_surah": null,
        "munasabah_prev_surah": "MUNASABAH SURAH AL-MU\u2019MIN\u016aN\nDENGAN SURAH AN-N\u016aR\n\n1. \tPada bagian permulaan Surah al-Mu\u2019min\u016bn disebutkan bahwa salah satu tanda orang-orang mukmin itu ialah orang-orang yang menjaga kelamin-nya (kehormatannya), sedang permulaan Surah an-N\u016br menetapkan hukum bagi orang-orang yang tidak dapat menjaga kelaminnya, yaitu perempuan pezina, laki-laki pezina dan apa yang berhubungan dengan-nya, seperti menuduh orang yang berbuat zina, kisah ifk (gosip), keharusan menutup mata terhadap hal-hal yang akan menyeret seseorang kepada perbuatan zina, dan menyuruh orang-orang yang tidak sanggup melakukan pernikahan agar menahan diri dan sebagainya.\n2. \tPada Surah al-Mu\u2019min\u016bn dijelaskan bahwa di balik penciptaan alam ini pasti ada hikmahnya, yaitu agar semua makhluk yang diciptakan itu melaksanakan perintah dan larangan-Nya, sedang Surah an-N\u016br menyebutkan sejumlah perintah-perintah dan larangan-larangan itu.\n ",
        "munasabah_prev_theme": "Pada ayat-ayat yang lalu Allah menunjukkan bukti-bukti kekuasaan-Nya agar manusia beriman dan patuh kepada ajaran-Nya, maka pada ayat-ayat berikut ini Allah menyebutkan orang-orang yang tidak mau menerima petunjuk Allah, yaitu orang-orang munafik yang ucapannya selalu berlainan dengan apa yang tersimpan dalam hatinya. Mereka mengatakan kami beriman kepada Rasulullah tetapi perbuatan mereka bertentangan dengan apa yang mereka ucapkan itu. Bila mereka dipanggil untuk memutuskan suatu perkara sesuai dengan ajaran Al-Qur\u2019an, mereka enggan menerima putusan itu. Mereka banyak berdusta dan selalu bersifat riya\u2019. Mereka bersumpah akan taat dan patuh kepada semua perintah Rasul, tetapi di belakangnya mereka berkhianat dan berusaha melemahkan barisan kaum Muslimin.",
        "theme_group": "PERBEDAAN SIKAP ORANG MUNAFIK\nDENGAN ORANG MUKMIN ",
        "kosakata": "1. Mu\u2019ri\u1e0d\u016bn  \u0645\u064f\u0639\u0652\u0631\u0650\u0636\u064f\u0648\u0652\u0646\u064e  (an-N\u016br/24:48)\nLafal mu\u2019ri\u1e0d\u016bn  merupakan bentuk jamak dari lafal mu\u2019ri\u1e0d,  terambil dari kata \u2018ara\u1e0da yang merupakan antonim dari lafal \u1e6d\u016bl (panjang) yang berarti lebar. Awalnya lafal ini digunakan pada jism kemudian dijadikan ungkapan untuk selain jism. \u2018Ara\u1e0da memiliki makna yang banyak, di antaranya adalah mengemukakan, memamerkan atau mendemonstrasikan, seperti firman Allah QS 2:31 \u201c\u1e61umma \u2018ara\u1e0dahum \u2018ala al-mal\u0101ikah\u201d (kemudian Adam mengemukakan kepada para malaikat). \u2018Ara\u1e0da juga diartikan dengan barang-barang kenikmatan duniawi yang bersifat fana (al-Anf\u0101l/8:67). \u2018Ara\u1e0da juga diartikan dengan awan seperti yang disebutkan dalam al-A\u1e25q\u0101f/46:24. Al-\u2019Ur\u1e0dah adalah penghalang (al-Baqarah/2:224). Ba\u2019\u012br \u2018ur\u1e0dah berarti unta itu menjadi penghalang dalam perjalanan. A\u2019ra\u1e0da juga berarti berpaling, menghindar, menolak atau membuang. Dalam ayat ini, dijelaskan mengenai sifat orang-orang munafik dalam bertahkim kepada Rasul. Sikap mereka adalah tatkala mereka dipanggil untuk datang agar Rasul mengadili di antara mereka, tiba-tiba sebagian dari mereka menolak untuk datang bahkan mereka lebih senang bertahkim kepada selain Allah dan Rasul-Nya. \n2. Mu\u1e93\u2019in\u016bn \u0645\u064f\u0630\u0652\u0639\u0650\u0646\u0650\u064a\u0652\u0646\u064e  (an-N\u016br/24: 49)\nSecara etimologis, mu\u1e93\u2019in\u016bn berarti patuh. Dalam konteks ayat di atas, Allah menjelaskan sikap orang-orang munafik yang menolak kebenaran dakwah Rasulullah. Kendati mereka mengaku beriman, mereka tetap saja berpaling dari putusan Allah dan Rasul-Nya. Tetapi jika kebenaran ada di pihak mereka, mereka akan datang kepada Rasulullah dengan patuh. ",
        "sabab_nuzul": null,
        "conclusion": null
    }
}