{
    "id": 2794,
    "surah_id": 24,
    "ayah": 3,
    "page": 350,
    "quarter_hizb": 35.75,
    "juz": 18,
    "manzil": 4,
    "arabic": "\u0627\u064e\u0644\u0632\u0651\u064e\u0627\u0646\u0650\u064a\u0652 \u0644\u064e\u0627 \u064a\u064e\u0646\u0652\u0643\u0650\u062d\u064f \u0627\u0650\u0644\u0651\u064e\u0627 \u0632\u064e\u0627\u0646\u0650\u064a\u064e\u0629\u064b \u0627\u064e\u0648\u0652 \u0645\u064f\u0634\u0652\u0631\u0650\u0643\u064e\u0629\u064b \u06d6\u0648\u0651\u064e\u0627\u0644\u0632\u0651\u064e\u0627\u0646\u0650\u064a\u064e\u0629\u064f \u0644\u064e\u0627 \u064a\u064e\u0646\u0652\u0643\u0650\u062d\u064f\u0647\u064e\u0627\u0653 \u0627\u0650\u0644\u0651\u064e\u0627 \u0632\u064e\u0627\u0646\u064d \u0627\u064e\u0648\u0652 \u0645\u064f\u0634\u0652\u0631\u0650\u0643\u064c \u06da\u0648\u064e\u062d\u064f\u0631\u0651\u0650\u0645\u064e \u0630\u0670\u0644\u0650\u0643\u064e \u0639\u064e\u0644\u064e\u0649 \u0627\u0644\u0652\u0645\u064f\u0624\u0652\u0645\u0650\u0646\u0650\u064a\u0652\u0646\u064e",
    "latin": "Az-z\u0101n\u012b l\u0101 yanki\u1e25u ill\u0101 z\u0101niyatan au musyrikah(tan), waz-z\u0101niyatu l\u0101 yanki\u1e25uh\u0101 ill\u0101 z\u0101nin au musyrik(un), wa \u1e25urrima \u017c\u0101lika \u2018alal-mu'min\u012bn(a).",
    "translation": "Pezina laki-laki tidak pantas menikah, kecuali dengan pezina perempuan atau dengan perempuan musyrik dan pezina perempuan tidak pantas menikah, kecuali dengan pezina laki-laki atau dengan laki-laki musyrik. Yang demikian itu diharamkan bagi orang-orang mukmin.",
    "no_footnote": null,
    "footnotes": null,
    "surah": {
        "id": 24,
        "arabic": " \u0627\u0644\u0646\u0651\u0648\u0631",
        "latin": "An-N\u016br",
        "transliteration": "An-Nur",
        "translation": "Cahaya",
        "num_ayah": 64,
        "page": 350,
        "location": "Madaniyah"
    },
    "tafsir": {
        "wajiz": "Usai menjelaskan hukuman atas pezina, ayat ini mengingatkan keharusan menghindari pezina, khususnya untuk dijadikan pasangan hidup. Pezina laki-laki tidak boleh menikah kecuali dengan pezina perempuan atau dengan perempuan musyrik; dan demikian juga sebaliknya, pezina perempuan tidak boleh menikah kecuali dengan pezina laki-laki atau dengan laki-laki musyrik; dan yang demikian itu, yaitu menikah dengan pezina, diharamkan bagi orang-orang mukmin.",
        "tahlili": "Diriwayatkan oleh Muj\u0101hid dan At\u00e0 bahwa pada umumnya orang-orang Muhajirin yang datang dari Mekah ke Medinah adalah orang-orang miskin yang tidak mempunyai harta dan keluarga, sedang pada waktu itu di Medinah banyak perempuan tuna susila yang menyewakan dirinya, sehingga penghidupannya lebih lumayan dibanding dengan orang-orang yang lain. Di pintu rumah perempuan-perempuan tersebut, ada tanda-tanda untuk memperkenalkan dirinya sebagai wanita tuna susila. Maka berdatanganlah laki-laki hidung belang ke rumah mereka.\nMelihat kondisi ekonomi perempuan tuna susila itu yang agak lumayan, maka timbullah keinginan sebagian dari orang-orang Muslim yang miskin itu untuk mengawini perempun-perempuan tersebut, supaya penghidupan mereka lumayan, maka turunlah ayat ini sebagai teguran untuk tidak melaksanakan keinginannya itu.\nPada ayat ini Allah menerangkan bahwa laki-laki pezina tidak boleh menikahi perempuan kecuali perempuan pezina atau perempuan musyrik. Begitu juga perempuan pezina itu tidak boleh dinikahi kecuali oleh laki-laki pezina pula atau laki-laki musyrik. Artinya tidak pantas sama sekali seorang laki-laki baik-baik, mengawini perempuan pezina yang akan mencemarkan dan merusak nama baiknya. Sebaliknya, seorang perempuan baik-baik, tidak pantas dinikahi oleh laki-laki pezina yang dikenal oleh lingkungannya sebagai laki-laki yang bejat dan tidak bermoral, karena pernikahan itu akan merendahkan martabat perempuan tersebut dan mencemarkan nama baik keluarganya. Kecuali bila laki-laki atau perempuan pezina itu sudah bertobat, maka boleh menikah atau dinikahi oleh laki-laki atau perempuan baik-baik.",
        "intro_surah": "Surah an-N\u016br terdiri atas 64 ayat, dan termasuk golongan surah-surah Madaniyah. Dinamai \u201cAn-N\u016br\u201d yang berarti \u201cCahaya\u201d, diambil dari kata an-n\u016br yang terdapat pada ayat 35. Dalam ayat ini, Allah menjelaskan tentang nur Ilahi, petunjuk-petunjuk Allah itu merupakan cahaya yang terang benderang yang menerangi alam semesta. Surah ini sebagian besar isinya memuat petunjuk-petunjuk Allah yang berhubungan dengan soal kemasyarakatan dan rumah tangga.\n\nPOKOK-POKOK ISINYA\n1. \tKeimanan:\nKesaksian lidah, anggota-anggota tubuh lainnya atas segala perbuatan manusia pada hari Kiamat; hanya Allah yang menguasai langit dan bumi, kewajiban Rasul hanyalah menyampaikan agama Allah, iman merupakan dasar dari diterimanya amal ibadah.\n2. \tHukum:\nHukum-hukum sekitar masalah zina, tuduhan berzina terhadap perempuan baik-baik, li\u2019an dan tata cara pergaulan di luar dan di dalam rumah tangga.\n3. \tKisah:\nCerita tentang berita bohong terhadap Ummul Mukminin \u2018Aisyah r.a. (had\u016b\u1e61ul ifk).",
        "outro_surah": null,
        "munasabah_prev_surah": "MUNASABAH SURAH AL-MU\u2019MIN\u016aN\nDENGAN SURAH AN-N\u016aR\n\n1. \tPada bagian permulaan Surah al-Mu\u2019min\u016bn disebutkan bahwa salah satu tanda orang-orang mukmin itu ialah orang-orang yang menjaga kelamin-nya (kehormatannya), sedang permulaan Surah an-N\u016br menetapkan hukum bagi orang-orang yang tidak dapat menjaga kelaminnya, yaitu perempuan pezina, laki-laki pezina dan apa yang berhubungan dengan-nya, seperti menuduh orang yang berbuat zina, kisah ifk (gosip), keharusan menutup mata terhadap hal-hal yang akan menyeret seseorang kepada perbuatan zina, dan menyuruh orang-orang yang tidak sanggup melakukan pernikahan agar menahan diri dan sebagainya.\n2. \tPada Surah al-Mu\u2019min\u016bn dijelaskan bahwa di balik penciptaan alam ini pasti ada hikmahnya, yaitu agar semua makhluk yang diciptakan itu melaksanakan perintah dan larangan-Nya, sedang Surah an-N\u016br menyebutkan sejumlah perintah-perintah dan larangan-larangan itu.\n ",
        "munasabah_prev_theme": "Pada ayat yang lalu Allah menerangkan bahwa dalam Surah an-N\u016br ini, terdapat berbagai macam hukum Allah yang harus ditaati dan dilaksanakan oleh setiap orang mukmin dalam kehidupan sehari-hari. Pada ayat-ayat berikut ini, Allah mulai menjelaskan hukum-hukum itu, di antaranya adalah hukum perzinaan, larangan mengawini pezina kecuali oleh sesama pezina.\n",
        "theme_group": "ZINA DAN HUKUMANNYA",
        "kosakata": "1. Az-Z\u0101niyatu wa az-z\u0101n\u012b \u0627\u064e\u0644\u0632\u0651\u064e\u0627\u0646\u0650\u064a\u064e\u0629\u064f \u0648\u064e\u0627\u0644\u0632\u0651\u064e\u0627\u0646\u0650\u064a (an-N\u016br/24: 2)\nKata az-z\u0101niyah adalah bentuk isim fa\u2019il dari zan\u0101-yazn\u016b-zinan, yang berarti,  \u201cperempuan yang berzina, atau perempuan pezina.\u201d Sedangkan kata az-zan\u016b berarti \u201claki-laki yang berzina, atau laki-laki pezina.\u201d\nAyat di atas menggunakan kata az-z\u0101niyah dan az-z\u0101n\u012b,  yakni meng-gunakan patron kata yang mengandung makna kemantapan kelakuan itu pada yang bersangkutan. Tentu saja kemantapan tersebut tidak  mereka peroleh kecuali setelah berzina berulang-ulang kali. Mayoritas ulama berpendapat, bahwa  siapa pun yang ditemukan berzina atau mengaku ber-zina, dengan memenuhi syarat-syarat yang ditetapkan agama, walaupun baru sekali maka ia dijatuhi hukuman dera 100 kali bila yang berbuat zina itu belum pernah menikah, baik laki-laki maupun perempuan dan dirajam bila telah atau pernah menikah. \n2. Ra\u2019fah  \u0631\u064e\u0623\u0652\u0641\u064e\u0629\u064c(an-N\u016br/24: 2)\nKata ra\u2019fah adalah bentuk ma\u1e63dar (kata jadian) dari ra\u2019afa-yar\u2019afu- ra\u2019fatan, yang berarti santun, lemah lembut, belas kasihan. Maksud kata ra\u2019fah dalam ayat ini adalah belas kasih. Jangan perasaan belas kasih seseorang terhadap terpidana menghalangi jatuhnya sanksi terhadap orang yang berzina. Dengan demikian, ayat ini tidak melarang belas kasih atau kasih sayang kepada yang dicambuk, selama belas kasih itu tidak mengakibatkan diabaikannya hukuman. ",
        "sabab_nuzul": null,
        "conclusion": "1. \tPerempuan atau laki-laki yang tidak mu\u1e25\u1e63an, yaitu yang sudah dewasa, merdeka dan belum menikah dan berhubungan badan apabila ia berzina, maka hukumannya ialah didera seratus kali. Tetapi bila ia mu\u1e25\u1e63an maka hukumannya adalah rajam sampai mati.\n2. \tHukuman itu baru bisa dijatuhkan bila perbuatan dosa itu benar-benar telah dilakukan, yaitu berdasarkan kesaksian empat saksi, hamil, atau pengakuan yang bersangkutan.\n3. \tPelaksanaan hukuman dera itu hendaklah tanpa belas kasihan dan dilakukan di tempat umum, supaya dapat disaksikan oleh masyarakat ramai.\n4. \tLaki-laki pezina hanya boleh mengawini perempuan pezina pula atau perempuan musyrik. Begitu juga perempuan pezina, hanya boleh dinikahi olah laki-laki pezina atau musyrik karena itulah yang pantas baginya.\n5. \tTidak dibenarkan laki-laki baik-baik mengawini perempuan pezina atau musyrik, begitu pula perempuan yang baik-baik tidak dibenarkan dinikahi oleh laki-laki pezina atau musyrik. Kecuali bila mereka sudah bertobat."
    }
}