{
    "id": 2906,
    "surah_id": 25,
    "ayah": 51,
    "page": 364,
    "quarter_hizb": 37,
    "juz": 19,
    "manzil": 4,
    "arabic": "\u0648\u064e\u0644\u064e\u0648\u0652 \u0634\u0650\u0626\u0652\u0646\u064e\u0627 \u0644\u064e\u0628\u064e\u0639\u064e\u062b\u0652\u0646\u064e\u0627 \u0641\u0650\u064a\u0652 \u0643\u064f\u0644\u0651\u0650 \u0642\u064e\u0631\u0652\u064a\u064e\u0629\u064d \u0646\u0651\u064e\u0630\u0650\u064a\u0652\u0631\u064b\u0627 \u06d6",
    "latin": "Wa lau syi'n\u0101 laba\u2018a\u1e61n\u0101 f\u012b kulli qaryatin na\u017c\u012br\u0101(n).",
    "translation": "Sekiranya berkehendak, niscaya Kami utus seorang pemberi peringatan pada setiap negeri.",
    "no_footnote": null,
    "footnotes": null,
    "surah": {
        "id": 25,
        "arabic": " \u0627\u0644\u0641\u0631\u0642\u0627\u0646",
        "latin": "Al-Furq\u0101n",
        "transliteration": "Al-Furqan",
        "translation": "Pembeda",
        "num_ayah": 77,
        "page": 359,
        "location": "Makkiyah"
    },
    "tafsir": {
        "wajiz": "Ayat-ayat berikut ini menjelaskan anugerah Allah yang besar kepada Nabi Muhammad yang diutus untuk seluruh manusia. Dan sekiranya Kami menghendaki, untuk mengutus banyak utusan, niscaya Kami utus seorang pemberi peringatan pada setiap negeri. Akan tetapi, kebijakan Kami pada akhir zaman, adalah mengutus seorang rasul untuk seluruh negeri, agar beban Nabi Muhammad bertambah, dan dengan begitu akan bertambah derajatnya di sisi Allah.",
        "tahlili": "Ayat ini menjelaskan bahwa seandainya Allah menghendaki, Dia akan mengutus seorang utusan untuk setiap negeri, yang akan memberi peringatan. Akan tetapi, Allah mengirimkan Muhammad sebagai nabi penutup kepada seluruh umat manusia, sebagaimana firman Allah:\n\u0642\u064f\u0644\u0652 \u064a\u0670\u0653\u0627\u064e\u064a\u0651\u064f\u0647\u064e\u0627 \u0627\u0644\u0646\u0651\u064e\u0627\u0633\u064f \u0627\u0650\u0646\u0651\u0650\u064a\u0652 \u0631\u064e\u0633\u064f\u0648\u0652\u0644\u064f \u0627\u0644\u0644\u0651\u0670\u0647\u0650 \u0627\u0650\u0644\u064e\u064a\u0652\u0643\u064f\u0645\u0652 \u062c\u064e\u0645\u0650\u064a\u0652\u0639\u064b\u0627\nKatakanlah (Muhammad), \u201cWahai manusia! Sesungguhnya aku ini utusan Allah bagi kamu semua.\u201d (al-A\u2018r\u0101f/7: 158)\n\u0648\u064e\u0645\u064e\u0627\u0653 \u0627\u064e\u0631\u0652\u0633\u064e\u0644\u0652\u0646\u0670\u0643\u064e \u0627\u0650\u0644\u0651\u064e\u0627 \u0643\u064e\u0627\u06e4\u0641\u0651\u064e\u0629\u064b \u0644\u0650\u0651\u0644\u0646\u0651\u064e\u0627\u0633\u0650 \u0628\u064e\u0634\u0650\u064a\u0652\u0631\u064b\u0627 \u0648\u0651\u064e\u0646\u064e\u0630\u0650\u064a\u0652\u0631\u064b\u0627\nDan Kami tidak mengutus engkau (Muhammad), melainkan kepada semua umat manusia sebagai pembawa berita gembira dan sebagai pemberi peringatan. (Saba\u2019/34: 28)\n\nJika para nabi lain diutus kepada umat-umat tertentu, maka Allah mengutus Nabi Muhammad sebagai rasul kepada seluruh umat manusia sebagai pembawa berita gembira dan memberi peringatan. Oleh karena itu, mukjizat yang diberikan kepada Nabi Muhammad tidak lagi bersifat temporal, yang hanya sesuai untuk suatu kaum dan tempat tertentu. Akan tetapi, ia diberi Al-Qur\u2019an yang bersifat universal, nilai-nilai yang dikandungnya sesuai untuk diterapkan di mana pun dan kapan pun. ",
        "intro_surah": "Surah ini terdiri atas 77 ayat, termasuk golongan Surah-surah Makkiyah. Dinamakan \u201cal-Furq\u0101n\u201d yang artinya \u201cPembeda\u201d diambil dari kata \u201cal Furq\u0101n\u201d yang terdapat pada ayat pertama dalam Surah ini. Yang dimaksud dengan al-Furq\u0101n dalam ayat ini adalah Al-Qur\u2019an. Al-Qur\u2019an dinamai al- Furq\u0101n karena dialah pembeda antara yang hak dan yang batil. Maka pada surah ini pun terdapat ayat-ayat yang membedakan antara kebenaran, Keesaan Allah dengan kebatilan dan syirik.\n\nPOKOK-POKOK ISINYA\n1. Keimanan:\nAllah Mahabesar berkah dan kebaikan-Nya, hanya Allah saja yang menguasai langit dan bumi, Allah tidak mempunyai anak dan sekutu,            Al-Qur\u2019an benar-benar diturunkan dari Allah, ilmu Allah meliputi segala sesuatu. Allah bersemayam di atas arsy, Nabi Muhammad saw adalah hamba Allah, yang diutus ke seluruh alam. Rasul-rasul itu adalah manusia biasa yang mendapat wahyu dari Allah, pada hari Kiamat akan terjadi peristiwa-peristiwa luar biasa seperti belahnya langit, turunnya malaikat ke bumi, orang-orang berdosa dihalau ke neraka dengan berjalan di atas muka mereka.\n2. Hukum-hukum:\nTidak boleh mengabaikan Al-Qur\u2019an, larangan menafkahkan harta secara boros atau kikir, larangan membunuh dan berzina, kewajiban memberantas kekafiran dengan mempergunakan Al-Qur\u2019an, larangan memberikan persaksian palsu.\n3. Kisah-kisah:\nKisah Musa a.s., Nuh a.s., Samud dan kaum Syu\u2018aib. \n4. Dan lain-lain:\nCelaan orang-orang kafir terhadap Al-Qur\u2019an, kejadian-kejadian alam sebagai bukti keesaan dan kekuasaan Allah; hikmah diturunkannya    Al-Qur\u2019an secara berangsur-angsur, sifat-sifat orang musyrik antara lain memperturutkan hawa nafsu, tidak mempergunakan akal, sifat-sifat hamba Allah yang sebenarnya.\n\n",
        "outro_surah": null,
        "munasabah_prev_surah": "1. \tSurah an-N\u016br ditutup oleh Allah dengan keterangan bahwa Dia-lah yang memiliki langit dan bumi beserta segala isinya, dan Dia pulalah yang mengaturnya berdasarkan hikmah dan kemaslahatan yang dikehendaki-Nya. Dia pula yang membuat perhitungan terhadap segala amal perbuatan hamba-Nya pada hari Kiamat. Maka dalam Surah al- Furq\u0101n Allah memulainya dengan ketinggian-Nya baik zat, sifat-sifat dan perbuatan-Nya dan memupuk kecintaan-Nya kepada hamba-Nya dengan menurunkan Al-Qur\u2019an sebagai pedoman hidup bagi manusia.\n2. \tPada akhir ayat ini Allah mewajibkan kepada kaum Muslimin mengikuti Rasul-Nya Muhammad serta mengancam dengan azab bagi mereka yang menentangnya. Maka permulaan Surah al-Furq\u0101n Allah menyebutkan bahwa kepada Nabi Muhammad diberikan Al-Qur\u2019an untuk membimbing umat manusia.\n3. \tPada masing-masing surah itu digambarkan keadaan awan, turunnya hujan dan penghijauan bumi sebagai bukti bagi kekuasaan Allah.\n4. \tDalam kedua surah ini Allah menjelaskan bahwa amal usaha orang-orang kafir pada hari Kiamat tidak diberi pahala barang sedikit pun, dan kedua surah itu menerangkan pula asal mula kejadian manusia.",
        "munasabah_prev_theme": "Pada ayat-ayat yang lalu dijelaskan keingkaran kaum musyrikin terhadap kekuasaan Allah dan kenabian Muhammad saw, karena mereka menuhankan hawa nafsu. Pada ayat-ayat berikut ini dijelaskan tanda-tanda keesaan dan kekuasaan-Nya secara gamblang dan jelas sekali, yang dapat disaksikan oleh mata kepala sendiri, dengan datangnya siang dan malam secara bergantian, tertib, dan teratur, serta berbagai fenomena alam lainnya sebagai peringatan bagi mereka yang ingkar.",
        "theme_group": "TANDA-TANDA KEKUASAAN \nALLAH DI ALAM RAYA",
        "kosakata": "1. \u2018A\u017cb Fur\u0101t \u0639\u064e\u0630\u0652\u0628\u064c \u0641\u064f\u0631\u064e\u0627\u062a   (al-Furq\u0101n/25: 53)\nKata \u2018a\u017cb mengandung dua makna yang bertolak belakang. Bila akar katanya \u2018a\u017caba-ya\u2019\u017cibu-\u2019a\u017cb, makna dasarnya adalah \u201ctak mau makan dan minum karena terlalu lapar dan dahaga.\u201d Dari akar kata ini terambil kata \u2018a\u017c\u0101b \u2018siksa\u2019, yaitu kepedihan yang luar biasa atas jasmani dan rohani yang diderita sebagai balasan atas kesalahan. Kata \u2018a\u017cb dalam al-Furq\u0101n/25: 53 tidak mungkin merupakan ma\u1e63dar akar kata ini, karena bila bentuk kata \u2018a\u017cb itu adalah ma\u1e63dar, tentu ayat itu diartikan: Ini adalah keazaban. Itu tidak tepat. \nAkar kata lain \u2018a\u017cb adalah \u2018a\u017caba-ya\u2019\u017cubu-\u2019u\u017c\u016bbatan, maknanya adalah \u201cbening, bersih sekali, dan enak\u201d. Al-\u2019a\u017cb adalah isim dari akar kata itu, bukan ma\u1e63dar, artinya adalah \u201cair yang begitu bening, bersih, dan enak\u201d. Ayat itu bunyinya, h\u0101\u017c\u0101\u2019azb (ini adalah air bening bersih). Akar kata \u2018a\u017caba-ya\u2019\u017cibu-\u2019a\u017cb yang berarti \u201csiksa\u201d tidak memiliki isim dalam bentuk \u2018a\u017cb, tetapi \u2018a\u017c\u0101b. \nFur\u0101t terambil dari akar kata farata-yafrutu-fartan artinya \u201clemah akal\u201d. Bila dikaitkan dengan air, maka air itu berarti sangat bening dan enak sehingga mempengaruhi sekali perasaan, artinya \u201cmenyegarkan sekali\u201d. M\u0101\u2019 furat berarti air yang begitu bening, bersih, enak, dan menyegarkan sekali ketika diminum. Air yang dimaksud kiranya air tawar yang berasal dari sungai, atau air tanah yang diperoleh manusia dengan menggali sumur di permukaan tanah. \nMakna ayat al-Furq\u0101n/25: 53, h\u0101\u017c\u0101 \u2018a\u017cb fur\u0101t, dengan demikian adalah: Ini adalah air bening bersih enak segar, yaitu air tawar. Air tawar itu terdapat di sungai dan dalam tanah. Air itu tidak akan bercampur dengan air asin dari laut karena sistem yang diciptakan Allah. Kecuali bila manusia merusak sistem itu, di antaranya dengan menyedot air permukaan melebihi daya dukungnya yang akan mengakibatkan air tanah terintrusi air laut.\n2. Mil\u1e25 Uj\u0101j\u0645\u0650\u0644\u0652\u062d\u064c \u0627\u064f\u062c\u064e\u0627\u062c\u064c  (al-Furq\u0101n/25: 53)\nMil\u1e25 terambil dari akar kata mala\u1e25a-yamla\u1e25u/yamli\u1e25u-mal\u1e25, artinya \u201cmembubuhkan garam ke dalam makanan\u201d. Mil\u1e25 adalah \u201cgaram\u201d. M\u0101\u2019 mil\u1e25 adalah air yang sangat asin sehingga pahit dan tidak dapat diminum. M\u0101li\u1e25 adalah makanan/minuman yang terlalu asin. Akan tetapi, rajul mal\u012bh adalah orang yang manis (handsome). Dari kata mil\u1e25 itu terambil kata mil\u0101\u1e25ah, yaitu kelautan. Mall\u0101\u1e25 adalah nelayan atau pelaut, dan juga berarti pembuat atau penjual garam. Dengan demikian, mil\u1e25 dalam al-Furq\u0101n/25: 53 maksud-nya adalah air asin yaitu air laut. \nUj\u0101j terambil dari akar kata ajja-ya\u2019ujju-aj\u016bj artinya menjadi asin pahit. Uj\u0101j adalah air yang amat asin sehingga bila diminum terasa pahit dan panas di kerongkongan. Yang dimaksud mil\u1e25 uj\u0101j adalah air laut. Dalam Surah al-Furq\u0101n/25: 53 itu, Allah membandingkan dua laut: yang satu airnya bening bersih enak segar, sedangkan yang satu lagi asin pahit dan membakar tenggorokan. Laut yang pertama adalah sungai, airnya tawar dan enak diminum. Sungai disebut laut karena sungai itu ada yang besar sehingga juga bisa dilayari seperti laut. Laut yang kedua adalah lautan, airnya asin. Kedua laut itu tidak akan bercampur airnya karena sistem yang dibuat Allah, yang bisa dipelajari dalam ilmu geologi atau ilmu lingkungan. Tetapi bila manusia merusak sistem itu, misalnya menyedot air permukaan secara besar-besaran, maka air laut akan mengintrusi air permukaan, seperti yang dialami sebagian wilayah Ibukota Jakarta dewasa ini. Maka air sumur atau air sungai akan menjadi asin dan tak layak lagi diminum. Mari kita bersyukur kepada Allah atas karunia-Nya, dan mari kita jaga lingkungan supaya tidak rusak oleh tangan-tangan kita sendiri.",
        "sabab_nuzul": null,
        "conclusion": null
    }
}