{
    "id": 2876,
    "surah_id": 25,
    "ayah": 21,
    "page": 362,
    "quarter_hizb": 37,
    "juz": 19,
    "manzil": 4,
    "arabic": "\u06de \u0648\u064e\u0642\u064e\u0627\u0644\u064e \u0627\u0644\u0651\u064e\u0630\u0650\u064a\u0652\u0646\u064e \u0644\u064e\u0627 \u064a\u064e\u0631\u0652\u062c\u064f\u0648\u0652\u0646\u064e \u0644\u0650\u0642\u064e\u0627\u06e4\u0621\u064e\u0646\u064e\u0627 \u0644\u064e\u0648\u0652\u0644\u064e\u0627\u0653 \u0627\u064f\u0646\u0652\u0632\u0650\u0644\u064e \u0639\u064e\u0644\u064e\u064a\u0652\u0646\u064e\u0627 \u0627\u0644\u0652\u0645\u064e\u0644\u0670\u06e4\u0649\u0655\u0650\u0643\u064e\u0629\u064f \u0627\u064e\u0648\u0652 \u0646\u064e\u0631\u0670\u0649 \u0631\u064e\u0628\u0651\u064e\u0646\u064e\u0627 \u06d7 \u0644\u064e\u0642\u064e\u062f\u0650 \u0627\u0633\u0652\u062a\u064e\u0643\u0652\u0628\u064e\u0631\u064f\u0648\u0652\u0627 \u0641\u0650\u064a\u0652\u0653 \u0627\u064e\u0646\u0652\u0641\u064f\u0633\u0650\u0647\u0650\u0645\u0652 \u0648\u064e\u0639\u064e\u062a\u064e\u0648\u0652 \u0639\u064f\u062a\u064f\u0648\u0651\u064b\u0627 \u0643\u064e\u0628\u0650\u064a\u0652\u0631\u064b\u0627",
    "latin": "Wa q\u0101lal-la\u017c\u012bna l\u0101 yarj\u016bna liq\u0101'an\u0101 lau l\u0101 unzila \u2018alainal-mal\u0101'ikata au nar\u0101 rabban\u0101, laqadistakbar\u016b f\u012b anfusihim wa \u2018atau \u2018utuwwan kab\u012br\u0101(n).",
    "translation": "Orang-orang yang tidak mengharapkan pertemuan dengan Kami (di akhirat) berkata, \u201cMengapa tidak diturunkan kepada kita malaikat atau (mengapa) kita (tidak) melihat Tuhan kita?\u201d Sungguh, mereka benar-benar telah menyombongkan diri dan melampaui batas (kezaliman) yang sangat besar.",
    "no_footnote": null,
    "footnotes": null,
    "surah": {
        "id": 25,
        "arabic": " \u0627\u0644\u0641\u0631\u0642\u0627\u0646",
        "latin": "Al-Furq\u0101n",
        "transliteration": "Al-Furqan",
        "translation": "Pembeda",
        "num_ayah": 77,
        "page": 359,
        "location": "Makkiyah"
    },
    "tafsir": {
        "wajiz": "Ayat ini menjelaskan tentang alasan lainnya yang dibuat-buat kaum musyrik Mekah karena keengganan mereka beriman kepada Nabi Muhammad. Dan orang-orang yang tidak mengharapkan pertemuan dengan Kami di akhirat karena keingkaran mereka terhadap adanya hari akhir, atau karena ketidaktakutan mereka terhadapnya, mereka berkata, \u201cMengapa bukan para malaikat yang diturunkan kepada kita dalam wujudnya yang nyata, yang memberitahukan tentang kebenaran Nabi Muhammad, atau mengapa kita tidak melihat Tuhan kita dengan mata kepala kita yang juga memberitahukan tentang kebenaran Nabi Muhammad?.\u201d Permintaan-permintaan tersebut jelas mengada-ada, sama dengan apa yang dilakukan Bani Israil dahulu. Hal itu jelas muncul dari hati mereka yang penuh kedengkian. Sungguh, mereka telah me-nyombongkan diri mereka karena terbujuk oleh hawa nafsu. Mereka menganggap bahwa merekalah yang lebih mulia, baik karena kekayaan atau kedudukan mereka di masyarakat. Dan mereka benar-benar telah melampaui batas dalam melakukan kezaliman. Demikianlah jika hati telah tertutup oleh kekafiran, semua kebenaran yang ada di hadapan, walau sudah terang benderang, tidak diacuhkan sama sekali.",
        "tahlili": "Orang-orang yang tidak percaya hari kebangkitan atau mengingkari hari Kiamat, di mana mereka akan dihadapkan ke hadirat Allah untuk diadili segala perbuatannya di dunia, dengan penuh kesombongan bertanya kenapa tidak diturunkan kepada mereka malaikat yang menjadi saksi atas kebenaran Muhammad sebagai nabi, untuk menghilangkan keraguan mereka tentang kebenaran wahyu yang diturunkan kepadanya. Jika hal itu sulit untuk dilaksanakan, mengapa mereka tidak langsung saja melihat Tuhan yang akan menerangkan kepada mereka bahwa Muhammad itu benar-benar diutus oleh-Nya untuk menyampaikan kabar gembira dan memberi peringatan. Jika yang demikian itu terlaksana, mereka mengatakan akan beriman kepada Muhammad. Ucapan demikian itu tidak lain hanyalah karena kesombongan mereka sendiri, dan karena kezaliman mereka dengan mendustakan seorang utusan Allah. \nMereka sama sekali tidak menghiraukan mukjizat nyata yang telah diperlihatkan oleh Rasulullah kepada mereka. Setiap orang yang berakal sehat pasti akan tercengang mendengar ucapan-ucapan mereka itu dan menganggapnya sebagai ucapan orang yang tidak berakal. Seandainya Allah mengabulkan keinginan itu, mereka tetap tidak akan beriman kepada Allah dan rasul-Nya, sebagaimana tercantum dalam firman Allah:\n \u0648\u064e\u0644\u064e\u0648\u0652 \u0627\u064e\u0646\u0651\u064e\u0646\u064e\u0627 \u0646\u064e\u0632\u0651\u064e\u0644\u0652\u0646\u064e\u0627\u0653 \u0627\u0650\u0644\u064e\u064a\u0652\u0647\u0650\u0645\u064f \u0627\u0644\u0652\u0645\u064e\u0644\u0670\u06e4\u0649\u0655\u0650\u0643\u064e\u0629\u064e \u0648\u064e\u0643\u064e\u0644\u0651\u064e\u0645\u064e\u0647\u064f\u0645\u064f \u0627\u0644\u0652\u0645\u064e\u0648\u0652\u062a\u0670\u0649 \u0648\u064e\u062d\u064e\u0634\u064e\u0631\u0652\u0646\u064e\u0627 \u0639\u064e\u0644\u064e\u064a\u0652\u0647\u0650\u0645\u0652 \u0643\u064f\u0644\u0651\u064e \u0634\u064e\u064a\u0652\u0621\u064d \u0642\u064f\u0628\u064f\u0644\u064b\u0627 \u0645\u0651\u064e\u0627 \u0643\u064e\u0627\u0646\u064f\u0648\u0652\u0627 \u0644\u0650\u064a\u064f\u0624\u0652\u0645\u0650\u0646\u064f\u0648\u0652\u0653\u0627 \u0627\u0650\u0644\u0651\u064e\u0627\u0653 \u0627\u064e\u0646\u0652 \u064a\u0651\u064e\u0634\u064e\u0627\u06e4\u0621\u064e \u0627\u0644\u0644\u0651\u0670\u0647\u064f \u0648\u064e\u0644\u0670\u0643\u0650\u0646\u0651\u064e \u0627\u064e\u0643\u0652\u062b\u064e\u0631\u064e\u0647\u064f\u0645\u0652 \u064a\u064e\u062c\u0652\u0647\u064e\u0644\u064f\u0648\u0652\u0646\u064e \u0661\u0661\u0661\nDan sekalipun Kami benar-benar menurunkan malaikat kepada mereka, dan orang yang telah mati berbicara dengan mereka dan Kami kumpulkan (pula) di hadapan mereka segala sesuatu (yang mereka inginkan), mereka tidak juga akan beriman, kecuali jika Allah menghendaki. Tapi kebanyakan mereka tidak mengetahui (arti kebenaran). (al-An\u2018\u0101m/6: 111)\n",
        "intro_surah": "Surah ini terdiri atas 77 ayat, termasuk golongan Surah-surah Makkiyah. Dinamakan \u201cal-Furq\u0101n\u201d yang artinya \u201cPembeda\u201d diambil dari kata \u201cal Furq\u0101n\u201d yang terdapat pada ayat pertama dalam Surah ini. Yang dimaksud dengan al-Furq\u0101n dalam ayat ini adalah Al-Qur\u2019an. Al-Qur\u2019an dinamai al- Furq\u0101n karena dialah pembeda antara yang hak dan yang batil. Maka pada surah ini pun terdapat ayat-ayat yang membedakan antara kebenaran, Keesaan Allah dengan kebatilan dan syirik.\n\nPOKOK-POKOK ISINYA\n1. Keimanan:\nAllah Mahabesar berkah dan kebaikan-Nya, hanya Allah saja yang menguasai langit dan bumi, Allah tidak mempunyai anak dan sekutu,            Al-Qur\u2019an benar-benar diturunkan dari Allah, ilmu Allah meliputi segala sesuatu. Allah bersemayam di atas arsy, Nabi Muhammad saw adalah hamba Allah, yang diutus ke seluruh alam. Rasul-rasul itu adalah manusia biasa yang mendapat wahyu dari Allah, pada hari Kiamat akan terjadi peristiwa-peristiwa luar biasa seperti belahnya langit, turunnya malaikat ke bumi, orang-orang berdosa dihalau ke neraka dengan berjalan di atas muka mereka.\n2. Hukum-hukum:\nTidak boleh mengabaikan Al-Qur\u2019an, larangan menafkahkan harta secara boros atau kikir, larangan membunuh dan berzina, kewajiban memberantas kekafiran dengan mempergunakan Al-Qur\u2019an, larangan memberikan persaksian palsu.\n3. Kisah-kisah:\nKisah Musa a.s., Nuh a.s., Samud dan kaum Syu\u2018aib. \n4. Dan lain-lain:\nCelaan orang-orang kafir terhadap Al-Qur\u2019an, kejadian-kejadian alam sebagai bukti keesaan dan kekuasaan Allah; hikmah diturunkannya    Al-Qur\u2019an secara berangsur-angsur, sifat-sifat orang musyrik antara lain memperturutkan hawa nafsu, tidak mempergunakan akal, sifat-sifat hamba Allah yang sebenarnya.\n\n",
        "outro_surah": null,
        "munasabah_prev_surah": "1. \tSurah an-N\u016br ditutup oleh Allah dengan keterangan bahwa Dia-lah yang memiliki langit dan bumi beserta segala isinya, dan Dia pulalah yang mengaturnya berdasarkan hikmah dan kemaslahatan yang dikehendaki-Nya. Dia pula yang membuat perhitungan terhadap segala amal perbuatan hamba-Nya pada hari Kiamat. Maka dalam Surah al- Furq\u0101n Allah memulainya dengan ketinggian-Nya baik zat, sifat-sifat dan perbuatan-Nya dan memupuk kecintaan-Nya kepada hamba-Nya dengan menurunkan Al-Qur\u2019an sebagai pedoman hidup bagi manusia.\n2. \tPada akhir ayat ini Allah mewajibkan kepada kaum Muslimin mengikuti Rasul-Nya Muhammad serta mengancam dengan azab bagi mereka yang menentangnya. Maka permulaan Surah al-Furq\u0101n Allah menyebutkan bahwa kepada Nabi Muhammad diberikan Al-Qur\u2019an untuk membimbing umat manusia.\n3. \tPada masing-masing surah itu digambarkan keadaan awan, turunnya hujan dan penghijauan bumi sebagai bukti bagi kekuasaan Allah.\n4. \tDalam kedua surah ini Allah menjelaskan bahwa amal usaha orang-orang kafir pada hari Kiamat tidak diberi pahala barang sedikit pun, dan kedua surah itu menerangkan pula asal mula kejadian manusia.",
        "munasabah_prev_theme": "Pada ayat-ayat yang lalu, Allah menerangkan penolakan kaum musyrikin Mekah terhadap kebenaran kenabian Muhammad saw yang hanya manusia seperti mereka, makan, minum, dan berjalan di pasar. Mereka juga berkata, \u201cMengapa tidak diturunkan kepada Muhammad seorang malaikat yang akan membantunya memberi peringatan.\u201d Pada ayat-ayat berikut ini, Allah kembali menerangkan keingkaran yang sama dari mereka, bahkan dengan nada yang lebih keras lagi. Mereka mempertanyakan bahwa kenapa Allah tidak menurunkan malaikat kepada mereka yang menerangkan tentang kebenaran Muhammad atau mereka melihat sendiri Allah yang menjadi saksi kebenarannya. Lalu Allah menjelaskan bahwa ucapan mereka itu telah menunjukkan kesombongan mereka yang melampaui batas. Pada hari Kiamat, mereka akan melihat malaikat yang akan menyampaikan berbagai berita yang tidak menggembirakan. Dari mulut mereka akan keluar ucapan-ucapan yang penuh penyesalan dan keputusasaan, karena melihat amal-amal kebajikan mereka sia-sia seperti debu ditiup angin, berhamburan di angkasa dan sedikit pun tidak bermanfaat bagi mereka. Keadaan mereka itu berbeda dengan keadaan ahli surga, yang memperoleh tempat tinggal yang paling baik dan indah.\n",
        "theme_group": "NASIB MANUSIA YANG MERAGUKAN\nKENABIAN MUHAMMAD SAW DI AKHIRAT",
        "kosakata": "1. \u2018Utuwwan Kab\u012bran  \u0639\u064f\u062a\u064f\u0648\u0651\u064b\u0627 \u0643\u064e\u0628\u0650\u064a\u0652\u0631\u064b\u0627 (al-Furq\u0101n/25: 21) \n\u2018Utuwwan kab\u012bran adalah maf\u2019\u016bl mu\u1e6dlaq, yaitu maf\u2019\u016bl yang memper-gunakan ma\u1e63dar dari fi\u2019il (kata kerja) yang dipergunakan. Fi\u2019il yang di-pergunakan dalam kalimat ini yaitu \u2018at\u0101-ya\u2019t\u016b-\u2019utuwwan artinya: sombong, bertindak sewenang-wenang, melampaui batas. Maf\u2019\u016bl mu\u1e6dlaq dapat berarti: (1) ta\u2019k\u012bd (memperkuat), (2) keterangan kuantitas (berapa kali dilakukan), (3) keterangan tentang jenis atau bentuk perbuatan, dan (4) keterangan bahwa hal itu betul-betul dilakukan. Kalimat lengkap dalam ayat 21 Surah al-Furq\u0101n ini ialah: \ufedb\ufe92\ufef4\ufeae\ufe8d \ufeed\ufecb\ufe98\ufeee\ufecb\ufe98\ufeee\ufe8d, artinya: dan mereka telah berbuat sombong dengan kesombongan yang besar, yaitu yang telah melampaui batas dalam melakukan kezaliman. Kalimat ini sebagai akhir ayat dan memberikan kesimpulan tentang perilaku orang-orang yang tidak percaya pada hari kebangkitan dan sama sekali tidak mengharapkan bertemu dengan Tuhan, maka mereka bicara yang bukan-bukan seperti nabi haruslah malaikat, atau ingin melihat Tuhan di dunia, dan sebagainya. Mereka sungguh amat sombong dengan kesombongan yang besar.\n2. \u1e24ijran Ma\u1e25j\u016bran  \u062d\u0650\u062c\u0652\u0631\u064b\u0627 \u0645\u064e\u062d\u0652\u062c\u064f\u0648\u0652\u0631\u064b\u0627  (al-Furq\u0101n/25: 22)\n\u1e24ijran ma\u1e25j\u016bran berasal dari fi\u2019il \ufea3\ufea0\ufeae - \ufef3\ufea4\ufea0\ufeae - \ufea3\ufea0\ufeae\ufe8d artinya: mencegah, melarang, atau mengharamkan. \u1e24ijran adalah bentuk ma\u1e63dar dan ma\u1e25j\u016bran bentuk isim maf\u2019\u016bl. Ungkapan yang diucapkan orang-orang yang berdosa dalam ayat 22 Surah al-Furq\u0101n/25 ini yaitu \u1e25ijran ma\u1e25j\u016bran berarti diharamkan bagi mereka, mereka dilarang menerima kabar baik yaitu ampunan dari Allah dan memperoleh tempat bahagia di surga karena ampunan dan pahala surga hanya untuk orang yang beriman dan beramal saleh. Ungkapan ini menunjukkan keputusan buruk bagi mereka, yaitu orang-orang kafir yang tidak percaya pada hari kebangkitan, karena hidupnya di dunia mengingkari kebenaran yang dibawa dan ditunjukkan rasul, maka di akhirat mereka tertutup dari menerima berita gembira tentang kehidupan di surga dan mereka sama sekali tidak memperoleh ampunan dan kasih sayang Allah.\n3. Hab\u0101\u2019an Man\u1e61\u016bran  \u0647\u064e\u0628\u064e\u0627\u0621\u064b \u0645\u064e\u0646\u0652\u062b\u064f\u0648\u0652\u0631\u064b\u0627 (al-Furq\u0101n/25: 23)\nHab\u0101\u2019an man\u1e61\u016bran artinya debu yang beterbangan. Berasal dari fi\u2018il: hab\u0101-yahb\u016b-habwan artinya: naik, beterbangan, berhamburan. Al-Hab\u0101\u2019 artinya debu. Sedangkan man\u1e61\u016br adalah isim maf\u2019\u016bl dari fi\u2019il \ufee7\ufe9c\ufeae\ufef3\ufee8\ufe9c\ufeae\ufee7\ufe9c\ufeae\ufe8d artinya: bertebaran, bertaburan, berhamburan. Jadi man\u1e61\u016br artinya yang ditebarkan, yang ditaburkan, yang dihamburkan. Segala amal perbuatan orang kafir selama di dunia, yang baik-baik sekalipun, tidak akan memperoleh balasan dari Allah, tetapi hanya akan diperlihatkan saja kepada mereka seperti debu yang beterbangan. Orang kafir yang tidak percaya kepada Allah dan tidak mengikuti petunjuk rasul meskipun telah berbuat baik tidak akan memperoleh manfaat apa-apa dari kebaikannya itu di akhirat nanti, karena mereka memang tidak beriman kepada Allah. Mereka hanya dapat melihat dengan penuh penyesalan.",
        "sabab_nuzul": null,
        "conclusion": null
    }
}