{
    "id": 2927,
    "surah_id": 25,
    "ayah": 72,
    "page": 366,
    "quarter_hizb": 37.25,
    "juz": 19,
    "manzil": 4,
    "arabic": "\u0648\u064e\u0627\u0644\u0651\u064e\u0630\u0650\u064a\u0652\u0646\u064e \u0644\u064e\u0627 \u064a\u064e\u0634\u0652\u0647\u064e\u062f\u064f\u0648\u0652\u0646\u064e \u0627\u0644\u0632\u0651\u064f\u0648\u0652\u0631\u064e\u06d9 \u0648\u064e\u0627\u0650\u0630\u064e\u0627 \u0645\u064e\u0631\u0651\u064f\u0648\u0652\u0627 \u0628\u0650\u0627\u0644\u0644\u0651\u064e\u063a\u0652\u0648\u0650 \u0645\u064e\u0631\u0651\u064f\u0648\u0652\u0627 \u0643\u0650\u0631\u064e\u0627\u0645\u064b\u0627 ",
    "latin": "Wal-la\u017c\u012bna yasyhad\u016bnaz-z\u016br(a), wa i\u017c\u0101 marr\u016b bil-lagwi marr\u016b kir\u0101m\u0101(n).",
    "translation": "Dan, orang-orang yang tidak memberikan kesaksian palsu serta apabila mereka berpapasan dengan (orang-orang) yang berbuat sia-sia, mereka berlalu dengan menjaga kehormatannya.",
    "no_footnote": null,
    "footnotes": null,
    "surah": {
        "id": 25,
        "arabic": " \u0627\u0644\u0641\u0631\u0642\u0627\u0646",
        "latin": "Al-Furq\u0101n",
        "transliteration": "Al-Furqan",
        "translation": "Pembeda",
        "num_ayah": 77,
        "page": 359,
        "location": "Makkiyah"
    },
    "tafsir": {
        "wajiz": "Dan sifat-sifat utama lainnya dari \u2018ibadurrahman adalah orang-orang yang tidak memberikan kesaksian palsu, yang sengaja dilakukan padahal dia tahu bahwa hal itu bohong belaka. Dan apabila mereka bertemu dengan orang-orang yang mengerjakan perbuatan-perbuatan yang tidak berfaedah, baik perkataan ataupun perbuatan yang sia-sia, mereka berlalu dengan menjaga kehormatan dirinya. Mereka tidak menghiraukannya dan tidak memedulikannya. Sebagai seorang muslim, setiap langkahnya harus membawa kemanfaatan bagi kehidupannya yang akan dibawa setelah dia meninggal.",
        "tahlili": "Ketujuh: Pada ayat ini, Allah menerangkan bahwa di antara sifat hamba Allah Yang Maha Pengasih adalah tidak mau dan tidak pernah melakukan sumpah palsu. Apabila lewat di hadapan orang-orang yang suka mengucapkan kata-kata yang tidak karuan dan tidak ada faedahnya sama sekali, dia berlalu tanpa ikut bergabung dengan mereka. Dia menyadari bahwa seorang mukmin tidak layak melayani orang-orang yang menyia-nyiakan waktunya yang sangat berharga dengan omong kosong, apalagi bila waktu itu dipergunakan untuk membicarakan hal-hal yang membawa kepada perbuatan dosa seperti mempergunjingkan orang atau menuduh orang-orang yang tidak bersalah dan lain-lain sebagainya. \nBersumpah palsu sangat dilarang dalam agama Islam, karena ketika bersumpah itu, seseorang telah berdusta dan tidak menyatakan yang sebenarnya. Banyak sekali orang yang melakukan sumpah palsu untuk membela orang-orang yang tidak benar agar orang itu dapat merampas atau memiliki hak orang lain dan melakukan kezaliman. Padahal, kalau ia tidak ikut bersumpah, tentulah yang hak itu akan nyata dan jelas, serta tidak akan terjadi kezaliman atau perampasan hak. Sebagai seorang mukmin, dia harus berdiri di pihak yang benar dan harus merasa bertanggung jawab untuk menegakkan keadilan dan memberantas kezaliman. \nUmar bin Kha\u1e6d\u1e6d\u0101b sangat marah kepada orang yang melakukan sumpah palsu dan dia pernah mendera orang yang bersumpah palsu 40 kali dera, mencorengi mukanya dengan warna hitam, mencukur semua rambut kepalanya, dan kemudian mengaraknya di tengah pasar. \nSifat dan sikap hamba-hamba Allah yang terpuji ini digambarkan Allah dalam firman-Nya:\n\u0648\u064e\u0627\u0650\u0630\u064e\u0627 \u0633\u064e\u0645\u0650\u0639\u064f\u0648\u0627 \u0627\u0644\u0644\u0651\u064e\u063a\u0652\u0648\u064e \u0627\u064e\u0639\u0652\u0631\u064e\u0636\u064f\u0648\u0652\u0627 \u0639\u064e\u0646\u0652\u0647\u064f \u0648\u064e\u0642\u064e\u0627\u0644\u064f\u0648\u0652\u0627 \u0644\u064e\u0646\u064e\u0627\u0653 \u0627\u064e\u0639\u0652\u0645\u064e\u0627\u0644\u064f\u0646\u064e\u0627 \u0648\u064e\u0644\u064e\u0643\u064f\u0645\u0652 \u0627\u064e\u0639\u0652\u0645\u064e\u0627\u0644\u064f\u0643\u064f\u0645\u0652 \u06d6\u0633\u064e\u0644\u0670\u0645\u064c \u0639\u064e\u0644\u064e\u064a\u0652\u0643\u064f\u0645\u0652 \u06d6 \u0644\u064e\u0627 \u0646\u064e\u0628\u0652\u062a\u064e\u063a\u0650\u0649 \u0627\u0644\u0652\u062c\u0670\u0647\u0650\u0644\u0650\u064a\u0652\u0646\u064e \u0665\u0665\nDan apabila mereka mendengar perkataan yang buruk, mereka berpaling darinya dan berkata, \u201cBagi kami amal-amal kami dan bagimu amal-amal kamu, semoga selamatlah kamu, kami tidak ingin (bergaul) dengan orang-orang bodoh.\u201d (al-Qa\u1e63a\u1e63/28: 55).",
        "intro_surah": "Surah ini terdiri atas 77 ayat, termasuk golongan Surah-surah Makkiyah. Dinamakan \u201cal-Furq\u0101n\u201d yang artinya \u201cPembeda\u201d diambil dari kata \u201cal Furq\u0101n\u201d yang terdapat pada ayat pertama dalam Surah ini. Yang dimaksud dengan al-Furq\u0101n dalam ayat ini adalah Al-Qur\u2019an. Al-Qur\u2019an dinamai al- Furq\u0101n karena dialah pembeda antara yang hak dan yang batil. Maka pada surah ini pun terdapat ayat-ayat yang membedakan antara kebenaran, Keesaan Allah dengan kebatilan dan syirik.\n\nPOKOK-POKOK ISINYA\n1. Keimanan:\nAllah Mahabesar berkah dan kebaikan-Nya, hanya Allah saja yang menguasai langit dan bumi, Allah tidak mempunyai anak dan sekutu,            Al-Qur\u2019an benar-benar diturunkan dari Allah, ilmu Allah meliputi segala sesuatu. Allah bersemayam di atas arsy, Nabi Muhammad saw adalah hamba Allah, yang diutus ke seluruh alam. Rasul-rasul itu adalah manusia biasa yang mendapat wahyu dari Allah, pada hari Kiamat akan terjadi peristiwa-peristiwa luar biasa seperti belahnya langit, turunnya malaikat ke bumi, orang-orang berdosa dihalau ke neraka dengan berjalan di atas muka mereka.\n2. Hukum-hukum:\nTidak boleh mengabaikan Al-Qur\u2019an, larangan menafkahkan harta secara boros atau kikir, larangan membunuh dan berzina, kewajiban memberantas kekafiran dengan mempergunakan Al-Qur\u2019an, larangan memberikan persaksian palsu.\n3. Kisah-kisah:\nKisah Musa a.s., Nuh a.s., Samud dan kaum Syu\u2018aib. \n4. Dan lain-lain:\nCelaan orang-orang kafir terhadap Al-Qur\u2019an, kejadian-kejadian alam sebagai bukti keesaan dan kekuasaan Allah; hikmah diturunkannya    Al-Qur\u2019an secara berangsur-angsur, sifat-sifat orang musyrik antara lain memperturutkan hawa nafsu, tidak mempergunakan akal, sifat-sifat hamba Allah yang sebenarnya.\n\n",
        "outro_surah": null,
        "munasabah_prev_surah": "1. \tSurah an-N\u016br ditutup oleh Allah dengan keterangan bahwa Dia-lah yang memiliki langit dan bumi beserta segala isinya, dan Dia pulalah yang mengaturnya berdasarkan hikmah dan kemaslahatan yang dikehendaki-Nya. Dia pula yang membuat perhitungan terhadap segala amal perbuatan hamba-Nya pada hari Kiamat. Maka dalam Surah al- Furq\u0101n Allah memulainya dengan ketinggian-Nya baik zat, sifat-sifat dan perbuatan-Nya dan memupuk kecintaan-Nya kepada hamba-Nya dengan menurunkan Al-Qur\u2019an sebagai pedoman hidup bagi manusia.\n2. \tPada akhir ayat ini Allah mewajibkan kepada kaum Muslimin mengikuti Rasul-Nya Muhammad serta mengancam dengan azab bagi mereka yang menentangnya. Maka permulaan Surah al-Furq\u0101n Allah menyebutkan bahwa kepada Nabi Muhammad diberikan Al-Qur\u2019an untuk membimbing umat manusia.\n3. \tPada masing-masing surah itu digambarkan keadaan awan, turunnya hujan dan penghijauan bumi sebagai bukti bagi kekuasaan Allah.\n4. \tDalam kedua surah ini Allah menjelaskan bahwa amal usaha orang-orang kafir pada hari Kiamat tidak diberi pahala barang sedikit pun, dan kedua surah itu menerangkan pula asal mula kejadian manusia.",
        "munasabah_prev_theme": "Pada ayat-ayat yang lalu, Allah menerangkan sifat-sifat orang-orang kafir yang tidak mau patuh dan taat kepada perintah-Nya serta enggan bersujud kepada-Nya. Pada ayat-ayat berikut ini, Allah menerangkan sifat-sifat orang-orang mukmin yang benar-benar beriman dan berhak diberi julukan \u201chamba Allah Yang Maha Pengasih, Penyayang\u201d karena ketaatan dan ketinggian akhlaknya yang patut menjadi contoh teladan bagi manusia sebagai hamba Allah yang akan memperoleh kemuliaan di akhirat. ",
        "theme_group": "SIFAT-SIFAT HAMBA ALLAH\nYANG MENDAPAT KEMULIAAN",
        "kosakata": "1.\tL\u0101 Yasyhad\u016bna az-Z\u016br \u0644\u064e\u0627\u064a\u064e\u0634\u0652\u0647\u064e\u062f\u064f\u0648\u0652\u0646\u064e \u0627\u0644\u0632\u0651\u064f\u0648\u0652\u0631\u064e (al-Furq\u0101n/25: 72)\nYasyhad\u016bn artinya menyaksikan terambil dari kata syahadah dan syuh\u016bd yang bermakna hadir dan menyaksikan, baik dengan mata maupun dengan mata hati. Makna ini kemudian berkembang menjadi makna bersaksi. Az-Z\u016br berarti kebohongan atau kepalsuan karena makna asalnya adalah condong dari arahnya yang lurus. Ayat ini menjelaskan sifat orang-orang yang beriman sebagaimana yang telah disebutkan dalam ayat 63 yang lalu. Sebagai hamba Allah yang taat mereka memiliki sifat yang terpuji yaitu mereka tidak mau memberikan kesaksian palsu. Kata az-z\u016br terulang sebanyak dua kali yaitu dalam surat ini dan surat al-\u1e24ajj/22: 30.\n\n2.\tQurrata A\u2019yun \u0642\u064f\u0631\u0651\u064e\u0629\u064e \u0623\u064e\u0639\u0652\u064a\u064f\u0646\u064d (al-Furq\u0101n/25: 74)\nQurrah pada mulanya berarti dingin, tapi yang dimaksud di sini adalah makna menggembirakan karena sebagian ulama berpendapat bahwa air mata yang mengalir ada yang dingin dan hangat. Air mata yang dingin menunjukkan kegembiraan, sedangkan air mata yang hangat menunjukkan kesedihan. Namun yang dimaksud dalam ayat ini adalah sesuatu yang apabila dilihat akan menyenangkan orang yang melihatnya dan dianggap sebagai buah hati apabila dikatakan kepada seorang anak yang didambakan. Kata qurrah a\u2019yun terulang sebanyak tiga kali dalam surat ini dan dalam Surah al-Qa\u1e63a\u1e63/28: 3 dan as-Sajdah/32: 11.",
        "sabab_nuzul": null,
        "conclusion": null
    }
}