{
    "id": 2856,
    "surah_id": 25,
    "ayah": 1,
    "page": 359,
    "quarter_hizb": 36.75,
    "juz": 18,
    "manzil": 4,
    "arabic": "\u062a\u064e\u0628\u0670\u0631\u064e\u0643\u064e \u0627\u0644\u0651\u064e\u0630\u0650\u064a\u0652 \u0646\u064e\u0632\u0651\u064e\u0644\u064e \u0627\u0644\u0652\u0641\u064f\u0631\u0652\u0642\u064e\u0627\u0646\u064e \u0639\u064e\u0644\u0670\u0649 \u0639\u064e\u0628\u0652\u062f\u0650\u0647\u0656 \u0644\u0650\u064a\u064e\u0643\u064f\u0648\u0652\u0646\u064e \u0644\u0650\u0644\u0652\u0639\u0670\u0644\u064e\u0645\u0650\u064a\u0652\u0646\u064e \u0646\u064e\u0630\u0650\u064a\u0652\u0631\u064b\u0627 \u06d9",
    "latin": "Tab\u0101rakal-la\u017c\u012b nazzalal-furq\u0101na \u2018al\u0101 \u2018abdih\u012b liyak\u016bna lil-\u2018\u0101lam\u012bna na\u017c\u012br\u0101(n).",
    "translation": "Maha berlimpah anugerah (Allah) yang telah menurunkan Furqan (Al-Qur\u2019an) kepada hamba-Nya (Nabi Muhammad) agar dia menjadi pemberi peringatan kepada seluruh alam.",
    "no_footnote": null,
    "footnotes": null,
    "surah": {
        "id": 25,
        "arabic": " \u0627\u0644\u0641\u0631\u0642\u0627\u0646",
        "latin": "Al-Furq\u0101n",
        "transliteration": "Al-Furqan",
        "translation": "Pembeda",
        "num_ayah": 77,
        "page": 359,
        "location": "Makkiyah"
    },
    "tafsir": {
        "wajiz": "Mahasuci Allah yang telah menurunkan Furqan, yaitu Al-Qur\u2019an yang menjelaskan dengan gamblang perbedaan antara hak dan batil. Dia menurunkannya kepada hamba-Nya, Nabi Muhammad, agar dia menjadi pemberi peringatan kepada seluruh alam, baik jin maupun manusia, dan tidak dikhususkan bagi kelompok tertentu.",
        "tahlili": "Pada ayat ini Allah memuji diri-Nya dengan menurunkan Al-Qur\u2019an kepada Nabi Muhammad saw yang disebutnya \u201chamba-Nya\u201d untuk menjadi peringatan bagi alam semesta (manusia dan jin). Dengan pujian terhadap diri-Nya karena Dia menurunkan Al-Qur\u2019an kepada Nabi Muhammad dapatlah dipahami bahwa Al-Qur\u2019an itu adalah suatu kitab yang amat penting dan amat tinggi nilainya di sisi Allah, karena Al-Qur\u2019an itu adalah petunjuk dan pedoman hidup bagi makhluk-Nya yang dimuliakan-Nya yaitu manusia, sedangkan ciptaan-ciptaan lainnya baik di langit maupun di bumi adalah untuk kepentingan manusia itu sendiri. Pada ayat ini Allah tidak menyebut Al-Qur\u2019an tetapi al-Furq\u0101n karena Al-Qur\u2019an itu adalah pembeda yang hak dan yang batil antara petunjuk dan kesesatan. Al-Qur\u2019an diturunkan untuk seluruh umat manusia di masa Nabi Muhammad dan masa sesudahnya sampai hari Kiamat, karena nabi-nabi sebelum Muhammad saw hanya diutus untuk kaumnya sedang Nabi Muhammad diutus untuk manusia di segala masa dan di semua tempat. \nDemikian pula Allah tidak menyebut nama Muhammad atau Rasul-Nya tetapi menyebut \u201chamba-Nya\u201d karena hendak memuliakan-Nya dengan gelar itu. Manusia yang benar-benar memperhambakan dirinya kepada Allah mengaku keesaan dan kekuasaan-Nya, taat dan patuh menjalankan perintah-Nya selalu menjadikan petunjuk-Nya sebagai pedoman hidupnya, mencintai Allah secara hakiki lebih daripada apa pun di dunia ini, itulah hamba Allah yang hakiki, hamba Allah terkandung di dalam Surah al-Furq\u0101n ini. Di dalam ayat-ayat lain Allah menyebut Nabi Muhammad saw dengan predikat \u201chamba-Nya\u201d seperti firman-Nya:\n\u0633\u064f\u0628\u0652\u062d\u0670\u0646\u064e \u0627\u0644\u0651\u064e\u0630\u0650\u064a\u0653\u0652 \u0627\u064e\u0633\u0652\u0631\u0670\u0649 \u0628\u0650\u0639\u064e\u0628\u0652\u062f\u0650\u0647\u0656 \u0644\u064e\u064a\u0652\u0644\u064b\u0627 \u0645\u0651\u0650\u0646\u064e \u0627\u0644\u0652\u0645\u064e\u0633\u0652\u062c\u0650\u062f\u0650 \u0627\u0644\u0652\u062d\u064e\u0631\u064e\u0627\u0645\u0650 \u0627\u0650\u0644\u064e\u0649 \u0627\u0644\u0652\u0645\u064e\u0633\u0652\u062c\u0650\u062f\u0650 \u0627\u0644\u0652\u0627\u064e\u0642\u0652\u0635\u064e\u0627 \u0627\u0644\u0651\u064e\u0630\u0650\u064a\u0652 \u0628\u0670\u0631\u064e\u0643\u0652\u0646\u064e\u0627 \u062d\u064e\u0648\u0652\u0644\u064e\u0647\u0657 \u0644\u0650\u0646\u064f\u0631\u0650\u064a\u064e\u0647\u0657 \u0645\u0650\u0646\u0652 \u0627\u0670\u064a\u0670\u062a\u0650\u0646\u064e\u0627\u06d7 \u0627\u0650\u0646\u0651\u064e\u0647\u0657 \u0647\u064f\u0648\u064e \u0627\u0644\u0633\u0651\u064e\u0645\u0650\u064a\u0652\u0639\u064f \u0627\u0644\u0652\u0628\u064e\u0635\u0650\u064a\u0652\u0631\u064f \u0661\nMahasuci (Allah), yang telah memperjalankan hamba-Nya (Muhammad) pada malam hari dari Masjidilharam ke Masjidil Aqsa yang telah Kami berkahi sekelilingnya. (al-Isr\u0101\u2019/17: 1)\nDan firman-Nya:\n\u0648\u0651\u064e\u0627\u064e\u0646\u0651\u064e\u0647\u0657 \u0644\u064e\u0645\u0651\u064e\u0627 \u0642\u064e\u0627\u0645\u064e \u0639\u064e\u0628\u0652\u062f\u064f \u0627\u0644\u0644\u0651\u0670\u0647\u0650 \u064a\u064e\u062f\u0652\u0639\u064f\u0648\u0652\u0647\u064f \u0643\u064e\u0627\u062f\u064f\u0648\u0652\u0627 \u064a\u064e\u0643\u064f\u0648\u0652\u0646\u064f\u0648\u0652\u0646\u064e \u0639\u064e\u0644\u064e\u064a\u0652\u0647\u0650 \u0644\u0650\u0628\u064e\u062f\u064b\u0627\u06d7 \u08d6 \u0661\u0669\nDan sesungguhnya ketika hamba Allah (Muhammad) berdiri menyembah-Nya (melaksanakan salat), mereka (jin-jin) itu berdesakan mengerumuninya. (al-Jinn/72: 19)\nDan firman-Nya:\n\u0627\u064e\u0644\u0652\u062d\u064e\u0645\u0652\u062f\u064f \u0644\u0650\u0644\u0651\u0670\u0647\u0650 \u0627\u0644\u0651\u064e\u0630\u0650\u064a\u0652\u0653 \u0627\u064e\u0646\u0652\u0632\u064e\u0644\u064e \u0639\u064e\u0644\u0670\u0649 \u0639\u064e\u0628\u0652\u062f\u0650\u0647\u0650 \u0627\u0644\u0652\u0643\u0650\u062a\u0670\u0628\u064e \u0648\u064e\u0644\u064e\u0645\u0652 \u064a\u064e\u062c\u0652\u0639\u064e\u0644\u0652 \u0644\u0651\u064e\u0647\u0657 \u0639\u0650\u0648\u064e\u062c\u064b\u0627 \u06dc \u0661\nSegala puji bagi Allah yang telah menurunkan Kitab (Al-Qur\u2019an) kepada hamba-Nya dan Dia tidak menjadikannya bengkok. (al-Kahf/18: 1)\nSetelah Allah menyebutkan diri-Nya Yang menurunkan al-Furq\u0101n kepada hamba-Nya, barulah Dia mensifati diri-Nya bahwa Dialah pemilik langit dan bumi dan yang berkuasa atas keduanya, mengutus dan mengurusnya menurut hikmah kebijaksanaan-Nya sesuai dengan kepentingan dan kemaslahatan masing-masing ciptaan-Nya itu. Allah menyatakan pula bahwa Dia tidak mempunyai anak sebagaimana dituduhkan oleh kaum Nasrani, orang-orang Yahudi dan kaum musyrikin, sebagaimana tersebut dalam firman-Nya:\n\u0648\u064e\u0642\u064e\u0627\u0644\u064e\u062a\u0650 \u0627\u0644\u0652\u064a\u064e\u0647\u064f\u0648\u0652\u062f\u064f \u0639\u064f\u0632\u064e\u064a\u0652\u0631\u064f \u06e8\u0650\u0627\u0628\u0652\u0646\u064f \u0627\u0644\u0644\u0651\u0670\u0647\u0650 \u0648\u064e\u0642\u064e\u0627\u0644\u064e\u062a\u0650 \u0627\u0644\u0646\u0651\u064e\u0635\u0670\u0631\u064e\u0649 \u0627\u0644\u0652\u0645\u064e\u0633\u0650\u064a\u0652\u062d\u064f \u0627\u0628\u0652\u0646\u064f \u0627\u0644\u0644\u0651\u0670\u0647\u0650 \u06d7\u0630\u0670\u0644\u0650\u0643\u064e \u0642\u064e\u0648\u0652\u0644\u064f\u0647\u064f\u0645\u0652 \u0628\u0650\u0627\u064e\u0641\u0652\u0648\u064e\u0627\u0647\u0650\u0647\u0650\u0645\u0652\u06da \u064a\u064f\u0636\u064e\u0627\u0647\u0650\u0640\u0654\u064f\u0648\u0652\u0646\u064e \u0642\u064e\u0648\u0652\u0644\u064e \u0627\u0644\u0651\u064e\u0630\u0650\u064a\u0652\u0646\u064e \u0643\u064e\u0641\u064e\u0631\u064f\u0648\u0652\u0627 \u0645\u0650\u0646\u0652 \u0642\u064e\u0628\u0652\u0644\u064f \u06d7\u0642\u064e\u0627\u062a\u064e\u0644\u064e\u0647\u064f\u0645\u064f \u0627\u0644\u0644\u0651\u0670\u0647\u064f \u06da \u0627\u064e\u0646\u0651\u0670\u0649 \u064a\u064f\u0624\u0652\u0641\u064e\u0643\u064f\u0648\u0652\u0646\u064e \u0663\u0660\nDan orang-orang Yahudi berkata, \u201cUzair putra Allah,\u201d dan orang-orang Nasrani  berkata, \u201cAl-Masih putra Allah.\u201d Itulah ucapan yang keluar dari mulut mereka. Mereka meniru ucapan orang-orang kafir yang terdahulu. Allah melaknat mereka; bagaimana mereka sampai  berpaling?  (at-Taubah/9: 30)\nDan firman-Nya:\n\u0641\u064e\u0627\u0633\u0652\u062a\u064e\u0641\u0652\u062a\u0650\u0647\u0650\u0645\u0652 \u0627\u064e\u0644\u0650\u0631\u064e\u0628\u0651\u0650\u0643\u064e \u0627\u0644\u0652\u0628\u064e\u0646\u064e\u0627\u062a\u064f \u0648\u064e\u0644\u064e\u0647\u064f\u0645\u064f \u0627\u0644\u0652\u0628\u064e\u0646\u064f\u0648\u0652\u0646\u064e\u06da \u0661\u0664\u0669 \u0627\u064e\u0645\u0652 \u062e\u064e\u0644\u064e\u0642\u0652\u0646\u064e\u0627 \u0627\u0644\u0652\u0645\u064e\u0644\u0670\u06e4\u0649\u0655\u0650\u0643\u064e\u0629\u064e \u0627\u0650\u0646\u064e\u0627\u062b\u064b\u0627 \u0648\u0651\u064e\u0647\u064f\u0645\u0652 \u0634\u0670\u0647\u0650\u062f\u064f\u0648\u0652\u0646\u064e \u0661\u0665\u0660 \u0627\u064e\u0644\u064e\u0627\u0653 \u0627\u0650\u0646\u0651\u064e\u0647\u064f\u0645\u0652 \u0645\u0650\u0651\u0646\u0652 \u0627\u0650\u0641\u0652\u0643\u0650\u0647\u0650\u0645\u0652 \u0644\u064e\u064a\u064e\u0642\u064f\u0648\u0652\u0644\u064f\u0648\u0652\u0646\u064e\u06d9 \u0661\u0665\u0661 \u0648\u064e\u0644\u064e\u062f\u064e \u0627\u0644\u0644\u0651\u0670\u0647\u064f \u06d9\u0648\u064e\u0627\u0650\u0646\u0651\u064e\u0647\u064f\u0645\u0652 \u0644\u064e\u0643\u0670\u0630\u0650\u0628\u064f\u0648\u0652\u0646\u064e\u06d9 \u0661\u0665\u0662 \u0627\u064e\u0635\u0652\u0637\u064e\u0641\u064e\u0649 \u0627\u0644\u0652\u0628\u064e\u0646\u064e\u0627\u062a\u0650 \u0639\u064e\u0644\u064e\u0649 \u0627\u0644\u0652\u0628\u064e\u0646\u0650\u064a\u0652\u0646\u064e\u06d7 \u0661\u0665\u0663\nMaka tanyakanlah (Muhammad) kepada mereka (orang-orang kafir Mekah), \u201cApakah anak-anak perempuan itu untuk Tuhanmu sedangkan untuk mereka anak-anak laki-laki?\u201d atau apakah Kami menciptakan malaikat-malaikat berupa perempuan sedangkan mereka menyaksikan(nya)? Ingatlah, sesungguhnya di antara kebohongannya mereka benar-benar mengatakan,  \u201cAllah mempunyai anak.\u201d Dan sungguh, mereka benar-benar pendusta. Apakah Dia (Allah) memilih anak-anak perempuan daripada anak-anak laki-laki? (a\u1e63-\u1e62\u0101ff\u0101t/37: 149-153)\nSelanjutnya Allah menyatakan lagi bahwa Dia tidak bersekutu dengan lainnya dalam kekuasaan-Nya, hanya Dialah yang patut disembah dan kepada-Nya sajalah manusia harus memohonkan sesuatu, bukan seperti yang dilakukan oleh manusia-manusia yang telah sesat yang menyembah makhluk-Nya seperti menyembah manusia, berhala dan benda-benda lainnya. Kemudian Allah menyatakan pula bahwa Dialah Pencipta segala sesuatu sesuai dengan hikmah kebijaksanaan-Nya dan mengaturnya menurut kehendak dan Ilmu-Nya.\nRingkasnya segala sesuatu dalam alam ini baik di langit maupun di bumi adalah makhluk-Nya. Dialah Penciptanya tidak ada Pencipta selain Dia tidak ada sekutu bagi-Nya yang patut disembah, semua berada di bawah kekuasaan-Nya dan tunduk patuh kepada sunnah dan peraturan yang telah ditetapkan-Nya. Janganlah sekali-kali terbayang atau terlintas dalam pikiran manusia bahwa Dia mempunyai anak atau mempunyai sekutu.",
        "intro_surah": "Surah ini terdiri atas 77 ayat, termasuk golongan Surah-surah Makkiyah. Dinamakan \u201cal-Furq\u0101n\u201d yang artinya \u201cPembeda\u201d diambil dari kata \u201cal Furq\u0101n\u201d yang terdapat pada ayat pertama dalam Surah ini. Yang dimaksud dengan al-Furq\u0101n dalam ayat ini adalah Al-Qur\u2019an. Al-Qur\u2019an dinamai al- Furq\u0101n karena dialah pembeda antara yang hak dan yang batil. Maka pada surah ini pun terdapat ayat-ayat yang membedakan antara kebenaran, Keesaan Allah dengan kebatilan dan syirik.\n\nPOKOK-POKOK ISINYA\n1. Keimanan:\nAllah Mahabesar berkah dan kebaikan-Nya, hanya Allah saja yang menguasai langit dan bumi, Allah tidak mempunyai anak dan sekutu,            Al-Qur\u2019an benar-benar diturunkan dari Allah, ilmu Allah meliputi segala sesuatu. Allah bersemayam di atas arsy, Nabi Muhammad saw adalah hamba Allah, yang diutus ke seluruh alam. Rasul-rasul itu adalah manusia biasa yang mendapat wahyu dari Allah, pada hari Kiamat akan terjadi peristiwa-peristiwa luar biasa seperti belahnya langit, turunnya malaikat ke bumi, orang-orang berdosa dihalau ke neraka dengan berjalan di atas muka mereka.\n2. Hukum-hukum:\nTidak boleh mengabaikan Al-Qur\u2019an, larangan menafkahkan harta secara boros atau kikir, larangan membunuh dan berzina, kewajiban memberantas kekafiran dengan mempergunakan Al-Qur\u2019an, larangan memberikan persaksian palsu.\n3. Kisah-kisah:\nKisah Musa a.s., Nuh a.s., Samud dan kaum Syu\u2018aib. \n4. Dan lain-lain:\nCelaan orang-orang kafir terhadap Al-Qur\u2019an, kejadian-kejadian alam sebagai bukti keesaan dan kekuasaan Allah; hikmah diturunkannya    Al-Qur\u2019an secara berangsur-angsur, sifat-sifat orang musyrik antara lain memperturutkan hawa nafsu, tidak mempergunakan akal, sifat-sifat hamba Allah yang sebenarnya.\n\n",
        "outro_surah": null,
        "munasabah_prev_surah": "1. \tSurah an-N\u016br ditutup oleh Allah dengan keterangan bahwa Dia-lah yang memiliki langit dan bumi beserta segala isinya, dan Dia pulalah yang mengaturnya berdasarkan hikmah dan kemaslahatan yang dikehendaki-Nya. Dia pula yang membuat perhitungan terhadap segala amal perbuatan hamba-Nya pada hari Kiamat. Maka dalam Surah al- Furq\u0101n Allah memulainya dengan ketinggian-Nya baik zat, sifat-sifat dan perbuatan-Nya dan memupuk kecintaan-Nya kepada hamba-Nya dengan menurunkan Al-Qur\u2019an sebagai pedoman hidup bagi manusia.\n2. \tPada akhir ayat ini Allah mewajibkan kepada kaum Muslimin mengikuti Rasul-Nya Muhammad serta mengancam dengan azab bagi mereka yang menentangnya. Maka permulaan Surah al-Furq\u0101n Allah menyebutkan bahwa kepada Nabi Muhammad diberikan Al-Qur\u2019an untuk membimbing umat manusia.\n3. \tPada masing-masing surah itu digambarkan keadaan awan, turunnya hujan dan penghijauan bumi sebagai bukti bagi kekuasaan Allah.\n4. \tDalam kedua surah ini Allah menjelaskan bahwa amal usaha orang-orang kafir pada hari Kiamat tidak diberi pahala barang sedikit pun, dan kedua surah itu menerangkan pula asal mula kejadian manusia.",
        "munasabah_prev_theme": "Sebagaimana diterangkan dalam mukadimah surah ini bahwa di antara pokok-pokok isi Surah al-Furq\u0101n ialah keterangan mengenai kekuasaan Allah. Al-Qur\u2019an benar-benar diturunkan dari sisi Allah dan Nabi Muhammad adalah Rasul yang diutus-Nya untuk menunjukkan manusia ke jalan yang benar, maka pada ayat pertama dan kedua dalam Surah ini dimulai dengan pernyataan mengenai Allah Yang Mahasuci dan Maha Banyak berkah dan kebaikanNya terutama dengan menurunkan Al-Qur\u2019an sebagai peringatan bagi alam semesta. Dia Maha Esa tidak mempunyai anak dan tidak bersekutu dengan lain-Nya dalam menciptakan alam yang telah diatur-Nya dengan sempurna.",
        "theme_group": "KEKUASAAN ALLAH DAN KEHARMONISAN \nCIPTAAN-NYA",
        "kosakata": "Kosakata: Al-Furq\u0101n \u0627\u064e\u0644\u0652\u0641\u064f\u0631\u0652\u0642\u064e\u0627\u0646 (al-Furq\u0101n/25: 1)\nKata al-furq\u0101n mengikuti pola fu\u2018l\u0101n yang terambil dari kata faraqa-yafruqu-farqan yang artinya berkisar pada \u201cmemisahkan, membedakan, dan memilah.\u201d Kata al-furq\u0101n di dalam Al-Qur\u2019an disebut sebanyak tujuh kali dengan indikasi yang berbeda-beda. Makna furq\u0101n adalah setiap sesuatu yang membedakan antara kebenaran dan kebatilan. Kata ini di dalam Al-Qur\u2019an digunakan untuk menyifati Taurat sebagaimana dalam firman Allah, \u201cDan (ingatlah), ketika Kami memberikan kepada Musa Kitab dan Furqan, agar kamu memperoleh petunjuk.\u201d (al-Baqarah/2:53); untuk menyifati Al-Qur\u2019an sebagaimana dalam firman Allah Ta\u2019ala, \u201c(Bulan Ramadan adalah (bulan) yang di dalamnya diturunkan Al-Qur\u2019an, sebagai petunjuk bagi manusia dan penjelasan-penjelasan mengenai petunjuk itu dan pembeda (antara yang benar dan yang batil).\u201d (al-Baqarah/2:185); untuk menyifati Perang Badar sebagaimana dalam firman Allah Ta\u2019ala, \u201c\u2026jika kamu beriman kepada Allah dan kepada  apa yang Kami turunkan kepada hamba Kami (Muhammad) di hari  Furq\u0101n, yaitu pada hari bertemunya dua pasukan.\u201d (al-Anf\u0101l/8: 41) Dan yang dimaksud dengan al-furq\u0101n pada ayat ini adalah Al-Qur\u2019an sebagai pembeda antara kebenaran dan kebatilan.",
        "sabab_nuzul": null,
        "conclusion": null
    }
}