{
    "id": 2945,
    "surah_id": 26,
    "ayah": 13,
    "page": 367,
    "quarter_hizb": 37.5,
    "juz": 19,
    "manzil": 5,
    "arabic": "\u0648\u064e\u064a\u064e\u0636\u0650\u064a\u0652\u0642\u064f \u0635\u064e\u062f\u0652\u0631\u0650\u064a\u0652 \u0648\u064e\u0644\u064e\u0627 \u064a\u064e\u0646\u0652\u0637\u064e\u0644\u0650\u0642\u064f \u0644\u0650\u0633\u064e\u0627\u0646\u0650\u064a\u0652 \u0641\u064e\u0627\u064e\u0631\u0652\u0633\u0650\u0644\u0652 \u0627\u0650\u0644\u0670\u0649 \u0647\u0670\u0631\u064f\u0648\u0652\u0646\u064e ",
    "latin": "Wa ya\u1e0d\u012bqu \u1e63adr\u012b wa l\u0101 yan\u1e6daliqu lis\u0101n\u012b fa arsil il\u0101 h\u0101r\u016bn(a).",
    "translation": "Dadaku terasa sempit dan lidahku kelu. Maka, utuslah Harun (bersamaku).536)",
    "no_footnote": "536",
    "footnotes": "536) Nabi Musa a.s. memohon agar Harun a.s. diangkat menjadi rasul untuk membantunya.",
    "surah": {
        "id": 26,
        "arabic": "\u0627\u0644\u0634\u0651\u0639\u0631\u0627\u06e4\u0621",
        "latin": "Asy-Syu\u2018ar\u0101'",
        "transliteration": "Asy-Syu\u2018ara'",
        "translation": "Para Penyair",
        "num_ayah": 227,
        "page": 367,
        "location": "Makkiyah"
    },
    "tafsir": {
        "wajiz": "Sehingga, karenanya dadaku terasa sempit, sedih, dan kesal karena ulah mereka, dan lidahku tidak lancar, tidak fasih untuk memberikan penjelasan kepada mereka seperti apa yang ada di dalam hatiku. Maka, aku memohon kepada-Mu ya Rabbi, utuslah dan angkatlah Harun sebagai rasul agar dia bisa bersamaku untuk menyampaikan pesan-pesan-Mu kepada mereka.\u201d",
        "tahlili": "Pada ayat ini, Allah menyuruh Nabi Muhammad menceritakan kepada kaumnya yang kafir cerita Nabi Musa a.s. yang berhadapan dengan Fir\u2018aun. Kisah ini dimulai ketika Nabi Musa masih di bukit Sinai, dia menerima perintah supaya pergi ke Mesir menyeru Fir\u2018aun bersama kaumnya yang telah sesat. Mereka adalah kaum yang senantiasa berbuat zalim yang telah lama memperbudak Bani Israil dan berlaku sewenang-wenang terhadap mereka. Nabi Musa diperintahkan menyampaikan risalah kepada Fir\u2018aun dan kaumnya yang demikian congkak dan sombong. Kaum yang menganggap diri mereka keturunan dewa-dewa, sedangkan bangsa lain adalah bangsa yang hina, termasuk bangsa Israil, kaum Musa sendiri.\nFir\u2018aun mempunyai kerajaan yang kuat serta tentara yang berani dan lengkap persenjataannya. Kepada Fir\u2018aun dan kaumnya itu, Musa diperintahkan Allah untuk menyeru mereka agar mengubah kepercayaan yang telah mendarah daging menjadi orang yang beriman dan bertakwa dengan meninggalkan segala perbuatan dan kepercayaan yang tidak benar itu. Tentu saja Musa agak merasa cemas dan khawatir akan nasibnya berhadapan dengan kaum yang kasar dan sombong itu.",
        "intro_surah": "Surah ini terdiri dari 227 ayat, termasuk kelompok surah-surah Makkiyyah. Dinamakan asy-Syu\u2019ar\u0101\u2019 (kata jamak dari asy-sy\u0101\u2019ir yang berarti penyair) diambil dari kata \u201casy-Syu\u2019ar\u0101\u2019\u201d yang terdapat pada ayat 224, yaitu pada bagian terakhir surah ini, ketika Allah swt secara khusus menyebutkan kedudukan penyair-penyair. Para penyair itu mempunyai sifat-sifat yang jauh berbeda dengan rasul-rasul. Mereka diikuti oleh orang-orang yang sesat dan suka memutarbalikkan lidah serta tidak mempunyai pendirian, per-buatannya tidak sesuai dengan apa yang diucapkan. Sifat-sifat yang demikian itu tidaklah sekali-kali dimiliki para rasul. Oleh karena itu, tidak patut bila Nabi Muhammad dituduh sebagai penyair dan Al-Qur\u2019an dianggap sebagai syair. Al-Qur\u2019an adalah wahyu Allah bukan buatan manusia.\n\nPokok-pokok Isinya:\n1. \tKeimanan:\nJaminan Allah akan kemenangan perjuangan dan keselamatan para rasul-Nya. Al-Qur\u2019an benar-benar wahyu Allah yang diturunkan ke dunia melalui Malaikat Jibril a.s. (R\u016b\u1e25ul-Am\u012bn); hanya Allah yang wajib disembah.\n2. \tHukum-hukum:\nKeharusan menyempurnakan takaran dan timbangan, larangan mengubah syair yang berisi caci maki, khurafat, dan kebohongan.\n3. \tKisah-kisah:\nKisah Nabi Musa dengan Fir\u2018aun, Kisah Nabi Ibrahim, Nabi Nuh, Nabi Hud, Nabi Saleh, dan Nabi Lut dengan kaum mereka masing-masing; serta kisah Nabi Syuaib dengan penduduk Aikah.\n4. \tLain-lain:\nKebinasaan suatu bangsa/umat karena meninggalkan petunjuk-petunjuk agama, tumbuh-tumbuhan yang beraneka ragam dan perubahan-perubahan yang terjadi atasnya adalah bukti kekuasaan Tuhan Yang Maha Esa. Petunjuk-petunjuk Allah bagi para pemimpin agar berlaku lemah-lembut terhadap pengikut mereka. Al-Qur\u2019an turun dalam bahasa Arab sebagaimana disebutkan dalam kitab-kitab suci terdahulu.",
        "outro_surah": null,
        "munasabah_prev_surah": "HUBUNGAN SURAH AL-FURQ\u0100N DENGAN\nSURAH ASY-SYU\u2019AR\u0100\u2019\n\n1. \tBeberapa persoalan dalam Surah al-Furq\u0101n diuraikan kembali secara luas dalam Surah asy-Syu\u2019ar\u0101\u2019 antara lain kisah para nabi.\n2. \tMasing-masing dari kedua surah itu dimulai dengan keterangan dari Allah bahwa Al-Qur\u2019an adalah petunjuk bagi manusia dan pembeda antara yang hak dengan yang batil dan ditutup dengan ancaman bagi orang yang mendustakan Allah.\n",
        "munasabah_prev_theme": "Pada ayat-ayat yang lalu, Allah menerangkan keadaan kaum musyrikin yang selalu menentang ayat-ayat Allah dan menghina serta mencemoohkan Nabi Muhammad saw. Hal ini membuat beliau hampir putus asa dan binasa karena sangat sedih memikirkan nasib kaum yang dicintainya. Nabi juga takut kalau mereka ditimpa malapetaka seperti yang menimpa umat-umat terdahulu. \nPada ayat-ayat berikut ini, Allah mengisahkan kepada Nabi Muhammad saw kisah Nabi Musa a.s. sebagai hiburan bagi beliau. Dalam kisah ini terdapat beberapa hal yang patut menjadi pelajaran bagi Nabi Muhammad sendiri dan kaumnya, yaitu bagaimana nasib yang dialami oleh orang-orang yang selalu menentang dan membangkang terhadap risalah yang diberikan Allah dengan perantaraan rasul-Nya.",
        "theme_group": "AJAKAN NABI MUSA KEPADA Fir\u2018aun",
        "kosakata": "1. L\u0101 Yan\u1e6daliqu Lis\u0101n\u012b \u0644\u0627\u064e \u064a\u064e\u0646\u0652\u0637\u064e\u0644\u0650\u0642\u064f \u0644\u0650\u0633\u064e\u0627\u0646\u0650\u064a\u0652  (asy-Syu\u2019ar\u0101\u2019/26: 13)\nL\u0101 yan\u1e6daliqu lis\u0101n\u012b bermakna tidak lancar lidahku berbicara. Dipahami oleh para ulama sebagai gangguan pada lidah Nabi Musa sehingga tidak dapat berbicara dengan fasih. Permohonan beliau agar diperlancar lidahnya dapat dikaitkan dengan kemarahan yang beliau khawatirkan muncul akibat penolakan kaumnya terhadap seruan untuk beriman kepada Allah. Sebagaimana dada beliau dapat merasakan sesak akibat kemarahan, maka lidah pun menjadi tidak lancar mengemukakan aneka penjelasan. Kata yan\u1e6daliqu lis\u0101n\u012b hanya disebutkan dalam ayat ini.\n2. \u2018Abbadta Ban\u012b Isr\u0101\u2019\u012bl \u0639\u064e\u0628\u0651\u064e\u062f\u0652\u062a\u064e \u0628\u064e\u0646\u0650\u064a \u0627\u0633\u0652\u0631\u064e\u0627\u0626\u0650\u064a\u0652\u0644\u064e (asy-Syu\u2019ar\u0101\u2019/26: 22) \nPotongan ayat ini lengkapnya adalah: Wa tilka ni\u2019matun tamunnuh\u0101 \u2018alayya an \u2018abbatta ban\u012b isr\u0101\u2019\u012bl(a) (Dan itulah kebaikan yang telah engkau berikan kepadaku, (sementara) itu engkau telah memperbudak Bani Israil). Dari kata kerja \u2018abada, ya\u2019budu, \u2018\u0101bidun, menyembah, beribadah kepada; \u2018abbada, ista\u2019bada, memperbudak, memperhamba seseorang. Ini adalah kata-kata Nabi Musa yang ditujukan kepada Fir\u2018aun untuk menyatakan bahwa karena Fir\u2018aun merasa telah memberi kenikmatan kepadanya, maka ia mau memperbudak saudara-saudaranya Bani Israil. Semasa kecil, Musa memang pernah dipelihara, dibesarkan, dan diangkat sebagai anak dalam istana Fir\u2018aun (\u1e6c\u0101h\u0101/20: 39-40). Akan tetapi, Musa bukan orang yang dapat disuap dengan kata-kata bujukan semacam itu. Sebagai nabi, ia sadar betul bahwa nikmat sebagai seorang nabi yang dikaruniakan Allah kepadanya jauh lebih besar dan lebih berharga.",
        "sabab_nuzul": null,
        "conclusion": null
    }
}