{
    "id": 2978,
    "surah_id": 26,
    "ayah": 46,
    "page": 369,
    "quarter_hizb": 37.5,
    "juz": 19,
    "manzil": 5,
    "arabic": "\u0641\u064e\u0627\u064f\u0644\u0652\u0642\u0650\u064a\u064e \u0627\u0644\u0633\u0651\u064e\u062d\u064e\u0631\u064e\u0629\u064f \u0633\u0670\u062c\u0650\u062f\u0650\u064a\u0652\u0646\u064e \u06d9 ",
    "latin": "Fa ulqiyas-sa\u1e25aratu s\u0101jid\u012bn(a).",
    "translation": "Maka, tersungkurlah para penyihir itu (dalam keadaan) bersujud.",
    "no_footnote": null,
    "footnotes": null,
    "surah": {
        "id": 26,
        "arabic": "\u0627\u0644\u0634\u0651\u0639\u0631\u0627\u06e4\u0621",
        "latin": "Asy-Syu\u2018ar\u0101'",
        "transliteration": "Asy-Syu\u2018ara'",
        "translation": "Para Penyair",
        "num_ayah": 227,
        "page": 367,
        "location": "Makkiyah"
    },
    "tafsir": {
        "wajiz": "Sehabis menelan \u201cular-ular\u201d para pesihir, Nabi Musa mengambil tongkatnya kembali. Melihat kejadian yang sangat dramatis ini, para pesihir tertegun, terpana, dan merasa terkalahkan. Mereka yakin bahwa Nabi Musa bukanlah penyihir. Lalu serta merta mereka bersujud. Maka, tanpa menunggu lebih lama lagi menyungkurlah para pesihir itu, bersujud di tanah tanpa ragu-ragu karena mereka telah menemukan kebenaran.",
        "tahlili": "Pada ayat-ayat ini, Allah menerangkan bahwa setelah menyaksikan apa yang terjadi, ahli-ahli sihir Fir\u2018aun itu menyerah kalah. Mereka tersungkur dan lalu bersujud kepada Allah Tuhan Yang Mahakuasa dan Mahaperkasa, sambil berikrar, \u201cKami telah beriman kepada Tuhan semesta alam, yaitu Tuhan yang disembah Musa dan Harun.\u201d Mereka berbuat demikian karena sadar bahwa apa yang mereka perlihatkan kepada orang banyak hanyalah khayalan dan tipuan semata. Adapun apa yang diperlihatkan Musa adalah mukjizat, dan betul-betul bukan sihir. Itu adalah suatu kekuasaan yang jauh lebih unggul dari apa yang mereka ketahui, dan datangnya dari langit untuk memperkuat Musa di dalam pengakuannya sebagai seorang rasul Allah.",
        "intro_surah": "Surah ini terdiri dari 227 ayat, termasuk kelompok surah-surah Makkiyyah. Dinamakan asy-Syu\u2019ar\u0101\u2019 (kata jamak dari asy-sy\u0101\u2019ir yang berarti penyair) diambil dari kata \u201casy-Syu\u2019ar\u0101\u2019\u201d yang terdapat pada ayat 224, yaitu pada bagian terakhir surah ini, ketika Allah swt secara khusus menyebutkan kedudukan penyair-penyair. Para penyair itu mempunyai sifat-sifat yang jauh berbeda dengan rasul-rasul. Mereka diikuti oleh orang-orang yang sesat dan suka memutarbalikkan lidah serta tidak mempunyai pendirian, per-buatannya tidak sesuai dengan apa yang diucapkan. Sifat-sifat yang demikian itu tidaklah sekali-kali dimiliki para rasul. Oleh karena itu, tidak patut bila Nabi Muhammad dituduh sebagai penyair dan Al-Qur\u2019an dianggap sebagai syair. Al-Qur\u2019an adalah wahyu Allah bukan buatan manusia.\n\nPokok-pokok Isinya:\n1. \tKeimanan:\nJaminan Allah akan kemenangan perjuangan dan keselamatan para rasul-Nya. Al-Qur\u2019an benar-benar wahyu Allah yang diturunkan ke dunia melalui Malaikat Jibril a.s. (R\u016b\u1e25ul-Am\u012bn); hanya Allah yang wajib disembah.\n2. \tHukum-hukum:\nKeharusan menyempurnakan takaran dan timbangan, larangan mengubah syair yang berisi caci maki, khurafat, dan kebohongan.\n3. \tKisah-kisah:\nKisah Nabi Musa dengan Fir\u2018aun, Kisah Nabi Ibrahim, Nabi Nuh, Nabi Hud, Nabi Saleh, dan Nabi Lut dengan kaum mereka masing-masing; serta kisah Nabi Syuaib dengan penduduk Aikah.\n4. \tLain-lain:\nKebinasaan suatu bangsa/umat karena meninggalkan petunjuk-petunjuk agama, tumbuh-tumbuhan yang beraneka ragam dan perubahan-perubahan yang terjadi atasnya adalah bukti kekuasaan Tuhan Yang Maha Esa. Petunjuk-petunjuk Allah bagi para pemimpin agar berlaku lemah-lembut terhadap pengikut mereka. Al-Qur\u2019an turun dalam bahasa Arab sebagaimana disebutkan dalam kitab-kitab suci terdahulu.",
        "outro_surah": null,
        "munasabah_prev_surah": "HUBUNGAN SURAH AL-FURQ\u0100N DENGAN\nSURAH ASY-SYU\u2019AR\u0100\u2019\n\n1. \tBeberapa persoalan dalam Surah al-Furq\u0101n diuraikan kembali secara luas dalam Surah asy-Syu\u2019ar\u0101\u2019 antara lain kisah para nabi.\n2. \tMasing-masing dari kedua surah itu dimulai dengan keterangan dari Allah bahwa Al-Qur\u2019an adalah petunjuk bagi manusia dan pembeda antara yang hak dengan yang batil dan ditutup dengan ancaman bagi orang yang mendustakan Allah.\n",
        "munasabah_prev_theme": "Pada ayat-ayat yang lalu dijelaskan bahwa Musa memperlihatkan dua macam mukjizat. Fir\u2018aun lalu menuduhnya sebagai ahli sihir yang pandai dan bermaksud akan mengusir dirinya dan kaumnya dari negeri mereka. Kaum  Fir\u2018aun menganjurkan supaya ahli-ahli sihir yang ada di seluruh negeri dikumpulkan dan diadu dengan Musa. Pada ayat-ayat berikut ini, Allah menerangkan jalannya adu kekuatan antara ahli-ahli sihir Fir\u2018aun dengan Musa. Pertandingan ini diakhiri dengan kemenangan berada di pihak Musa. ",
        "theme_group": "MUSA MENGALAHKAN PARA PESIHIR Fir\u2018aun",
        "kosakata": "Kosakata: Talqafu m\u0101 Ya\u2019fik\u016bn \u062a\u064e\u0644\u0652\u0642\u064e\u0641\u064f \u0645\u064e\u0627 \u064a\u064e\u0623\u0652\u0641\u0650\u0643\u064f\u0648\u0652\u0646\u064e  (asy-Syu\u2019ar\u0101\u2019/26: 45)\nTalqafu terambil dari kata al-laqf yang berarti mengambil dengan cepat atau menelan. Adapun al-ifk adalah memalingkan sesuatu yang diyakini benar kepada yang batil, dari omongan yang benar kepada kebohongan, dan dari sesuatu yang baik kepada yang jelek. Ayat ini menjelaskan bagaimana tongkat Nabi Musa yang dengan seizin Allah berubah menjadi ular dan menelan ular-ular para tukang sihir Fir\u2018aun yang mereka sangka ular-ular sungguhan. Padahal, semua itu hanya tali-tali yang berubah dalam pandangan mereka akibat pengaruh sihir sehingga seolah-olah menjadi ular sungguhan. Kata ini disebutkan dua kali pada surah ini dan pada Surah al-A\u2018r\u0101f/7: 117.",
        "sabab_nuzul": null,
        "conclusion": null
    }
}