{
    "id": 2964,
    "surah_id": 26,
    "ayah": 32,
    "page": 368,
    "quarter_hizb": 37.5,
    "juz": 19,
    "manzil": 5,
    "arabic": "\u0641\u064e\u0627\u064e\u0644\u0652\u0642\u0670\u0649 \u0639\u064e\u0635\u064e\u0627\u0647\u064f \u0641\u064e\u0627\u0650\u0630\u064e\u0627 \u0647\u0650\u064a\u064e \u062b\u064f\u0639\u0652\u0628\u064e\u0627\u0646\u064c \u0645\u0651\u064f\u0628\u0650\u064a\u0652\u0646\u064c \u06da ",
    "latin": "Fa alq\u0101 \u2018a\u1e63\u0101hu fa i\u017c\u0101 hiya \u1e61u\u2018b\u0101num mub\u012bn(un).",
    "translation": "Maka, dia (Musa) melemparkan tongkatnya, tiba-tiba ia (tongkat itu) menjadi ular besar yang nyata.",
    "no_footnote": null,
    "footnotes": null,
    "surah": {
        "id": 26,
        "arabic": "\u0627\u0644\u0634\u0651\u0639\u0631\u0627\u06e4\u0621",
        "latin": "Asy-Syu\u2018ar\u0101'",
        "transliteration": "Asy-Syu\u2018ara'",
        "translation": "Para Penyair",
        "num_ayah": 227,
        "page": 367,
        "location": "Makkiyah"
    },
    "tafsir": {
        "wajiz": "Maka Musa melemparkan tongkatnya yang dahulu dia gunakan untuk menggembala kambing di negeri Madyan, tiba-tiba tongkat itu atas izin Allah berubah menjadi ular besar yang sebenarnya. Bukan tipuan sebagaimana yang dilakukan oleh para penyihir. Dengan peristiwa ini, Allah mampu mengubah benda mati menjadi benda yang hidup. Maka kebangkitan manusia di hari Kiamat bukanlah sesuatu yang sulit bagi Allah.",
        "tahlili": "Pada ayat ini, Allah menerangkan bahwa setelah Fir\u2018aun mengemukakan tuntutan supaya Musa mendatangkan bukti yang nyata atas kebenaran dakwahnya, maka Musa segera melemparkan tongkatnya yang dengan tiba-tiba menjelma menjadi ular yang sesungguhnya. Disebutkan dalam Tafs\u012br ar-R\u0101z\u012b bahwa setelah tongkat Musa itu berubah menjadi ular, ular itu melenting ke atas, kemudian turun kembali ke bumi langsung menuju Fir\u2018aun. Fir\u2018aun berkata, \u201cDemi yang mengutusmu Musa, ambillah ular itu, kalau tidak saya sendiri akan mengambilnya.\u201d Musa lalu mengambilnya dan kembalilah ular itu menjadi tongkat lagi seperti biasa.",
        "intro_surah": "Surah ini terdiri dari 227 ayat, termasuk kelompok surah-surah Makkiyyah. Dinamakan asy-Syu\u2019ar\u0101\u2019 (kata jamak dari asy-sy\u0101\u2019ir yang berarti penyair) diambil dari kata \u201casy-Syu\u2019ar\u0101\u2019\u201d yang terdapat pada ayat 224, yaitu pada bagian terakhir surah ini, ketika Allah swt secara khusus menyebutkan kedudukan penyair-penyair. Para penyair itu mempunyai sifat-sifat yang jauh berbeda dengan rasul-rasul. Mereka diikuti oleh orang-orang yang sesat dan suka memutarbalikkan lidah serta tidak mempunyai pendirian, per-buatannya tidak sesuai dengan apa yang diucapkan. Sifat-sifat yang demikian itu tidaklah sekali-kali dimiliki para rasul. Oleh karena itu, tidak patut bila Nabi Muhammad dituduh sebagai penyair dan Al-Qur\u2019an dianggap sebagai syair. Al-Qur\u2019an adalah wahyu Allah bukan buatan manusia.\n\nPokok-pokok Isinya:\n1. \tKeimanan:\nJaminan Allah akan kemenangan perjuangan dan keselamatan para rasul-Nya. Al-Qur\u2019an benar-benar wahyu Allah yang diturunkan ke dunia melalui Malaikat Jibril a.s. (R\u016b\u1e25ul-Am\u012bn); hanya Allah yang wajib disembah.\n2. \tHukum-hukum:\nKeharusan menyempurnakan takaran dan timbangan, larangan mengubah syair yang berisi caci maki, khurafat, dan kebohongan.\n3. \tKisah-kisah:\nKisah Nabi Musa dengan Fir\u2018aun, Kisah Nabi Ibrahim, Nabi Nuh, Nabi Hud, Nabi Saleh, dan Nabi Lut dengan kaum mereka masing-masing; serta kisah Nabi Syuaib dengan penduduk Aikah.\n4. \tLain-lain:\nKebinasaan suatu bangsa/umat karena meninggalkan petunjuk-petunjuk agama, tumbuh-tumbuhan yang beraneka ragam dan perubahan-perubahan yang terjadi atasnya adalah bukti kekuasaan Tuhan Yang Maha Esa. Petunjuk-petunjuk Allah bagi para pemimpin agar berlaku lemah-lembut terhadap pengikut mereka. Al-Qur\u2019an turun dalam bahasa Arab sebagaimana disebutkan dalam kitab-kitab suci terdahulu.",
        "outro_surah": null,
        "munasabah_prev_surah": "HUBUNGAN SURAH AL-FURQ\u0100N DENGAN\nSURAH ASY-SYU\u2019AR\u0100\u2019\n\n1. \tBeberapa persoalan dalam Surah al-Furq\u0101n diuraikan kembali secara luas dalam Surah asy-Syu\u2019ar\u0101\u2019 antara lain kisah para nabi.\n2. \tMasing-masing dari kedua surah itu dimulai dengan keterangan dari Allah bahwa Al-Qur\u2019an adalah petunjuk bagi manusia dan pembeda antara yang hak dengan yang batil dan ditutup dengan ancaman bagi orang yang mendustakan Allah.\n",
        "munasabah_prev_theme": "Pada ayat-ayat yang lalu, Allah menjelaskan dialog antara Musa dan Fir\u2018aun tentang Tuhan seru sekalian alam. Dalam tanya jawab ini terlontar suatu ancaman dari Fir\u2018aun bahwa ia akan menyiksa dan memenjarakan Musa apabila Musa menyembah Tuhan selain dia. Ketika Fir\u2018aun tidak berdaya menghadapi jawaban-jawaban yang dikemukakan oleh Musa, ia lalu meminta bukti-bukti yang nyata atas kebenaran Musa seorang rasul Tuhan seru sekalian alam. Pada ayat-ayat berikut ini, Allah menerangkan bahwa Musa memperlihatkan bukti-bukti yang nyata berupa mukjizat, sesuai dengan permintaan Fir\u2018aun.\n",
        "theme_group": "MUSA MEMPERLIHATKAN MUKJIZATNYA\nDI HADAPAN Fir\u2018aun DAN KAUMNYA",
        "kosakata": "Kosakata: \u1e60u\u2019b\u0101n Mub\u012bn \u062b\u064f\u0639\u0652\u0628\u064e\u0627\u0646\u064c \u0645\u064f\u0628\u0650\u064a\u0652\u0646\u064c  (asy-Syu\u2019ar\u0101\u2019/26: 32)\n\u1e60u\u2019b\u0101n mub\u012bn artinya ular yang nyata. Kata \u1e61u\u2019b\u0101n terambil dari akar kata (\u1e61a\u2019-\u2019ain-ba\u2019)  yang artinya memancar, menyemburat, atau mengalir.  Ular dikatakan \u1e61u\u2019b\u0101n karena bergerak cepat seperti air yang mengalir deras. Bisa juga \u1e61u\u2019b\u0101n diartikan dengan ular besar. Dalam konteks berubahnya tongkat Nabi Musa menjadi ular ada tiga ungkapan yang dipergunakan oleh Al-Qur\u2019an, pertama adalah ungkapan \u1e25ayyah tas\u2019\u0101 (Surah \u1e6c\u0101h\u0101/20: 20). Kata \u1e25ayyah dipergunakan untuk jenis ular baik besar maupun kecil, jantan maupun betina. Kedua: j\u0101nn (an-Naml/27: 10) yang berarti ular kecil yang bergerak secara ringan. Ketiga: \u1e61u\u2019b\u0101n seperti pada ayat ini. Jika ketiga ungkapan ini digabungkan maka ketika tongkat Nabi Musa dilemparkan, mendadak tongkat tersebut berubah menjadi ular (\u1e25ayyah) kecil sebesar tongkat yang bergerak lincah kesana kemari (j\u0101nn). Kemudian ular tersebut terus membesar (\u1e61u\u2019b\u0101n) sehingga menjadi ular yang menakutkan.\n",
        "sabab_nuzul": null,
        "conclusion": null
    }
}