{
    "id": 3025,
    "surah_id": 26,
    "ayah": 93,
    "page": 371,
    "quarter_hizb": 37.75,
    "juz": 19,
    "manzil": 5,
    "arabic": "\u0645\u0650\u0646\u0652 \u062f\u064f\u0648\u0652\u0646\u0650 \u0627\u0644\u0644\u0651\u0670\u0647\u0650 \u06d7\u0647\u064e\u0644\u0652 \u064a\u064e\u0646\u0652\u0635\u064f\u0631\u064f\u0648\u0652\u0646\u064e\u0643\u064f\u0645\u0652 \u0627\u064e\u0648\u0652 \u064a\u064e\u0646\u0652\u062a\u064e\u0635\u0650\u0631\u064f\u0648\u0652\u0646\u064e \u06d7  ",
    "latin": "Min d\u016bnill\u0101h(i), hal  yan\u1e63ur\u016bnakum au yanta\u1e63ir\u016bn(a).",
    "translation": "selain Allah? Dapatkah mereka menolongmu atau menolong dirinya sendiri?\u201d",
    "no_footnote": null,
    "footnotes": null,
    "surah": {
        "id": 26,
        "arabic": "\u0627\u0644\u0634\u0651\u0639\u0631\u0627\u06e4\u0621",
        "latin": "Asy-Syu\u2018ar\u0101'",
        "transliteration": "Asy-Syu\u2018ara'",
        "translation": "Para Penyair",
        "num_ayah": 227,
        "page": 367,
        "location": "Makkiyah"
    },
    "tafsir": {
        "wajiz": "Dapatkah mereka menolong kamu atau menolong diri mereka sendiri?\u201d Mereka sama sekali tidak bisa berbuat apa-apa. Bahkan berhala-berhala itu dan para penyembahnya akan masuk neraka bersama-sama.",
        "tahlili": "Kemudian pada saat menghadapi neraka yang siap menerima orang-orang kafir dan musyrik, dilontarkan pertanyaan untuk mencemoohkan mereka, \u201cDi manakah tuhan-tuhan berhala yang kamu sembah itu kini berada? Sanggupkah mereka menyelamatkan kamu dari siksaan Allah?\u201d Jangankan untuk menyelamatkan orang lain, melepaskan diri mereka saja, tuhan-tuhan berhala itu tidak sanggup.",
        "intro_surah": "Surah ini terdiri dari 227 ayat, termasuk kelompok surah-surah Makkiyyah. Dinamakan asy-Syu\u2019ar\u0101\u2019 (kata jamak dari asy-sy\u0101\u2019ir yang berarti penyair) diambil dari kata \u201casy-Syu\u2019ar\u0101\u2019\u201d yang terdapat pada ayat 224, yaitu pada bagian terakhir surah ini, ketika Allah swt secara khusus menyebutkan kedudukan penyair-penyair. Para penyair itu mempunyai sifat-sifat yang jauh berbeda dengan rasul-rasul. Mereka diikuti oleh orang-orang yang sesat dan suka memutarbalikkan lidah serta tidak mempunyai pendirian, per-buatannya tidak sesuai dengan apa yang diucapkan. Sifat-sifat yang demikian itu tidaklah sekali-kali dimiliki para rasul. Oleh karena itu, tidak patut bila Nabi Muhammad dituduh sebagai penyair dan Al-Qur\u2019an dianggap sebagai syair. Al-Qur\u2019an adalah wahyu Allah bukan buatan manusia.\n\nPokok-pokok Isinya:\n1. \tKeimanan:\nJaminan Allah akan kemenangan perjuangan dan keselamatan para rasul-Nya. Al-Qur\u2019an benar-benar wahyu Allah yang diturunkan ke dunia melalui Malaikat Jibril a.s. (R\u016b\u1e25ul-Am\u012bn); hanya Allah yang wajib disembah.\n2. \tHukum-hukum:\nKeharusan menyempurnakan takaran dan timbangan, larangan mengubah syair yang berisi caci maki, khurafat, dan kebohongan.\n3. \tKisah-kisah:\nKisah Nabi Musa dengan Fir\u2018aun, Kisah Nabi Ibrahim, Nabi Nuh, Nabi Hud, Nabi Saleh, dan Nabi Lut dengan kaum mereka masing-masing; serta kisah Nabi Syuaib dengan penduduk Aikah.\n4. \tLain-lain:\nKebinasaan suatu bangsa/umat karena meninggalkan petunjuk-petunjuk agama, tumbuh-tumbuhan yang beraneka ragam dan perubahan-perubahan yang terjadi atasnya adalah bukti kekuasaan Tuhan Yang Maha Esa. Petunjuk-petunjuk Allah bagi para pemimpin agar berlaku lemah-lembut terhadap pengikut mereka. Al-Qur\u2019an turun dalam bahasa Arab sebagaimana disebutkan dalam kitab-kitab suci terdahulu.",
        "outro_surah": null,
        "munasabah_prev_surah": "HUBUNGAN SURAH AL-FURQ\u0100N DENGAN\nSURAH ASY-SYU\u2019AR\u0100\u2019\n\n1. \tBeberapa persoalan dalam Surah al-Furq\u0101n diuraikan kembali secara luas dalam Surah asy-Syu\u2019ar\u0101\u2019 antara lain kisah para nabi.\n2. \tMasing-masing dari kedua surah itu dimulai dengan keterangan dari Allah bahwa Al-Qur\u2019an adalah petunjuk bagi manusia dan pembeda antara yang hak dengan yang batil dan ditutup dengan ancaman bagi orang yang mendustakan Allah.\n",
        "munasabah_prev_theme": "Pada ayat yang lalu diterangkan bahwa Nabi Ibrahim berdoa kepada Allah agar ia tidak terhina di akhirat seperti akan dialami kaumnya yang ingkar dan juga ayahnya yang tidak mau beriman memenuhi seruannya. Ayat-ayat berikut ini menerangkan bahwa orang-orang baik akan masuk surga, sedangkan orang sesat akan memperoleh neraka beserta penderitaan yang terdapat di dalamnya. Kisah tentang Nabi Ibrahim itu seharusnya menjadi pelajaran bagi kaum Quraisy agar menerima Islam yang dibawa Nabi Muhammad saw.",
        "theme_group": "PENYESALAN PENGHUNI NERAKA",
        "kosakata": "Kosakata: Kubkib\u016b  \u0643\u064f\u0628\u0652\u0643\u0650\u0628\u064f\u0648\u0652\u0627 (asy-Syu\u2019ar\u0101\u2019/26: 94)\nKata ini disebut hanya sekali dalam Al-Qur\u2019an. Asalnya adalah kubkiba. Pada kata ini berkumpul tiga huruf ba\u2019. Ba\u2019 yang di tengah digantikan huruf kaf, menjadi kubkibu, yang artinya \u201cmereka dilemparkan\u201d. Menurut as-Sudd\u012b, dalam hal ini yang dilemparkan ke dalam neraka adalah al-musyrik\u016bn (orang-orang musyrik). Mufassir lain berpendapat bahwa yang dilemparkan adalah benda-benda sembahan orang musyrik waktu mereka menyekutukan Allah di dunia. Mereka itu dilemparkan ke dalam neraka sebagai bahan bakarnya bersama-sama dengan manusia yang menyembahnya.",
        "sabab_nuzul": null,
        "conclusion": null
    }
}