{
    "id": 2960,
    "surah_id": 26,
    "ayah": 28,
    "page": 368,
    "quarter_hizb": 37.5,
    "juz": 19,
    "manzil": 5,
    "arabic": "\u0642\u064e\u0627\u0644\u064e \u0631\u064e\u0628\u0651\u064f \u0627\u0644\u0652\u0645\u064e\u0634\u0652\u0631\u0650\u0642\u0650 \u0648\u064e\u0627\u0644\u0652\u0645\u064e\u063a\u0652\u0631\u0650\u0628\u0650 \u0648\u064e\u0645\u064e\u0627 \u0628\u064e\u064a\u0652\u0646\u064e\u0647\u064f\u0645\u064e\u0627\u06d7 \u0627\u0650\u0646\u0652 \u0643\u064f\u0646\u0652\u062a\u064f\u0645\u0652 \u062a\u064e\u0639\u0652\u0642\u0650\u0644\u064f\u0648\u0652\u0646\u064e  ",
    "latin": "Q\u0101la rabbul-masyriqi wal-magribi wa m\u0101 bainahum\u0101, in kuntum ta\u2018qil\u016bn(a).",
    "translation": "Dia (Musa) berkata, \u201c(Dia) Tuhan (yang menguasai) timur dan barat serta segala yang ada di antaranya jika kamu mengerti.\u201d",
    "no_footnote": null,
    "footnotes": null,
    "surah": {
        "id": 26,
        "arabic": "\u0627\u0644\u0634\u0651\u0639\u0631\u0627\u06e4\u0621",
        "latin": "Asy-Syu\u2018ar\u0101'",
        "transliteration": "Asy-Syu\u2018ara'",
        "translation": "Para Penyair",
        "num_ayah": 227,
        "page": 367,
        "location": "Makkiyah"
    },
    "tafsir": {
        "wajiz": "Jawaban terakhir merupakan jawaban yang telak dan sulit bagi Fir\u2019aun untuk mengelak darinya. Nabi Musa, berkata kepada Fir\u2019aun dengan perkataan yang pernah diucapkan juga oleh Nabi Ibrahim kepada penguasa yang zalim (Lihat: Al-Baqarah/2: 258), \u201cKetiga, Dialah Tuhan yang menguasai ufuk timur tempat terbit matahari dan ufuk barat tempat terbenamnya matahari dan apa yang ada di antara ke-duanya, seperti gunung-gunung, lautan dan lain sebagainya, jika kamu mengerti, dan menggunakan akalmu dengan baik dan benar. Janganlah kau terus menerus dengan kebatilan, padahal kau tahu kebenaran. Apakah kamu mampu melakukan apa yang dilakukan Tuhanku?\u201d",
        "tahlili": "Pada ayat ini, Musa mengemukakan lagi sifat-sifat Tuhan seru sekalian alam yang mengutusnya. Dia adalah Tuhan yang menguasai timur dan barat dan apa yang ada di antara keduanya. Dia adalah Tuhan yang menjadikan timur tempat matahari terbit, dan barat tempat matahari terbenam. Dia juga yang menjadikan perjalanan bintang-bintang itu dalam peredaran yang teratur. Bagi orang yang mau mempergunakan akalnya tentu dapat mengerti bahwa kejadian-kejadian yang demikian itu adalah bukti nyata yang menunjukkan adanya Tuhan yang mengatur segala-galanya dengan rapi dan baik sekali. Musa pada mulanya menghadapi dan menjawab pertanyaan Fir\u2018aun itu dengan nada lembut dan ucapan yang mantap: \u201cjika kamu mempergunakan akal\u201d. Ucapan itulah yang sesuai untuk menolak tuduhan Fir\u2018aun kepadanya bahwa ia orang gila.",
        "intro_surah": "Surah ini terdiri dari 227 ayat, termasuk kelompok surah-surah Makkiyyah. Dinamakan asy-Syu\u2019ar\u0101\u2019 (kata jamak dari asy-sy\u0101\u2019ir yang berarti penyair) diambil dari kata \u201casy-Syu\u2019ar\u0101\u2019\u201d yang terdapat pada ayat 224, yaitu pada bagian terakhir surah ini, ketika Allah swt secara khusus menyebutkan kedudukan penyair-penyair. Para penyair itu mempunyai sifat-sifat yang jauh berbeda dengan rasul-rasul. Mereka diikuti oleh orang-orang yang sesat dan suka memutarbalikkan lidah serta tidak mempunyai pendirian, per-buatannya tidak sesuai dengan apa yang diucapkan. Sifat-sifat yang demikian itu tidaklah sekali-kali dimiliki para rasul. Oleh karena itu, tidak patut bila Nabi Muhammad dituduh sebagai penyair dan Al-Qur\u2019an dianggap sebagai syair. Al-Qur\u2019an adalah wahyu Allah bukan buatan manusia.\n\nPokok-pokok Isinya:\n1. \tKeimanan:\nJaminan Allah akan kemenangan perjuangan dan keselamatan para rasul-Nya. Al-Qur\u2019an benar-benar wahyu Allah yang diturunkan ke dunia melalui Malaikat Jibril a.s. (R\u016b\u1e25ul-Am\u012bn); hanya Allah yang wajib disembah.\n2. \tHukum-hukum:\nKeharusan menyempurnakan takaran dan timbangan, larangan mengubah syair yang berisi caci maki, khurafat, dan kebohongan.\n3. \tKisah-kisah:\nKisah Nabi Musa dengan Fir\u2018aun, Kisah Nabi Ibrahim, Nabi Nuh, Nabi Hud, Nabi Saleh, dan Nabi Lut dengan kaum mereka masing-masing; serta kisah Nabi Syuaib dengan penduduk Aikah.\n4. \tLain-lain:\nKebinasaan suatu bangsa/umat karena meninggalkan petunjuk-petunjuk agama, tumbuh-tumbuhan yang beraneka ragam dan perubahan-perubahan yang terjadi atasnya adalah bukti kekuasaan Tuhan Yang Maha Esa. Petunjuk-petunjuk Allah bagi para pemimpin agar berlaku lemah-lembut terhadap pengikut mereka. Al-Qur\u2019an turun dalam bahasa Arab sebagaimana disebutkan dalam kitab-kitab suci terdahulu.",
        "outro_surah": null,
        "munasabah_prev_surah": "HUBUNGAN SURAH AL-FURQ\u0100N DENGAN\nSURAH ASY-SYU\u2019AR\u0100\u2019\n\n1. \tBeberapa persoalan dalam Surah al-Furq\u0101n diuraikan kembali secara luas dalam Surah asy-Syu\u2019ar\u0101\u2019 antara lain kisah para nabi.\n2. \tMasing-masing dari kedua surah itu dimulai dengan keterangan dari Allah bahwa Al-Qur\u2019an adalah petunjuk bagi manusia dan pembeda antara yang hak dengan yang batil dan ditutup dengan ancaman bagi orang yang mendustakan Allah.\n",
        "munasabah_prev_theme": "Pada ayat-ayat yang lalu, Allah menerangkan bahwa Musa sangat mendesak agar Fir\u2018aun mengizinkan Bani Israil keluar meninggalkan Mesir menuju Palestina sebagai tempat pemukiman mereka yang baru guna menghindari kezaliman Fir\u2018aun. Musa juga meminta agar Fir\u2018aun dan kaumnya menyembah Tuhan yang menciptakan mereka. Pada ayat-ayat berikut ini, Allah menerangkan pembangkangan Fir\u2018aun terhadap ajakan Musa sehingga terjadi dialog antara keduanya seputar Tuhan yang diperkenalkan Musa. ",
        "theme_group": "DIALOG ANTARA MUSA DAN Fir\u2018aun",
        "kosakata": "Kosakata: Al-Masj\u016bn\u012bn \u0627\u0644\u0652\u0645\u064e\u0633\u0652\u062c\u064f\u0648\u0652\u0646\u0650\u064a\u0652\u0646\u064e  (asy-Syu\u2019ar\u0101\u2019/26: 29)\nAl-Masj\u016bn\u012bn berasal dari akar kata sajana (memenjarakan), masj\u016bn (yang dipenjarakan), dan jamaknya masj\u016bn\u012bn yang berarti mereka yang dipenjarakan. Kata-kata ini merupakan ancaman Fir\u2018aun kepada Musa dengan penjara karena ia menyeru semua manusia, termasuk Fir\u2018aun, untuk mengakui bahwa hanya Allah Tuhan yang Mahakuasa atas semesta alam ini. Oleh karenanya, Fir\u2018aun menganggap Musa orang gila dan sebagai pengkhianat. Akan tetapi, Nabi Musa menjawab dengan tenang bahwa dia bukan pengkhianat dan bukan pula orang gila seperti yang dituduhkan Fir\u2018aun kepadanya. Kalau perlu ia akan menunjukkan suatu mukjizat kepada Fir\u2018aun dan para pengikutnya agar ia percaya dan menerima bahwa tiada Tuhan selain Allah.",
        "sabab_nuzul": null,
        "conclusion": null
    }
}