{
    "id": 3017,
    "surah_id": 26,
    "ayah": 85,
    "page": 371,
    "quarter_hizb": 37.75,
    "juz": 19,
    "manzil": 5,
    "arabic": "\u0648\u064e\u0627\u062c\u0652\u0639\u064e\u0644\u0652\u0646\u0650\u064a\u0652 \u0645\u0650\u0646\u0652 \u0648\u0651\u064e\u0631\u064e\u062b\u064e\u0629\u0650 \u062c\u064e\u0646\u0651\u064e\u0629\u0650 \u0627\u0644\u0646\u0651\u064e\u0639\u0650\u064a\u0652\u0645\u0650 \u06d9",
    "latin": "Waj\u2018aln\u012b miw wara\u1e61ati janatin na\u2018\u012bm(i).",
    "translation": "Jadikanlah aku termasuk orang yang mewarisi surga yang penuh kenikmatan.",
    "no_footnote": null,
    "footnotes": null,
    "surah": {
        "id": 26,
        "arabic": "\u0627\u0644\u0634\u0651\u0639\u0631\u0627\u06e4\u0621",
        "latin": "Asy-Syu\u2018ar\u0101'",
        "transliteration": "Asy-Syu\u2018ara'",
        "translation": "Para Penyair",
        "num_ayah": 227,
        "page": 367,
        "location": "Makkiyah"
    },
    "tafsir": {
        "wajiz": "\u201cDan jadikanlah aku termasuk orang yang mewarisi surga yang penuh kenikmatan yang tiada habis-habisnya, sebagai anugerah yang tak terhingga dari-Mu, ya Allah.\u201d lanjut doa Nabi Ibrahim.",
        "tahlili": "Setelah Nabi Ibrahim memohon pahala keduniawian, yakni dengan dijadikan nama baiknya sebagai suri teladan bagi orang-orang sesudahnya, ia pun berdoa pula agar menikmati balasan amalnya di akhirat. Yakni nikmat kesenangan surga beserta orang-orang yang diperkenankan masuk ke dalamnya. Ungkapan ayat ini memakai kata-kata \u201cyang mewarisi surga\u201d, karena diserupakan dengan kesenangan yang diperoleh seorang raja dalam kerajaan yang diwarisi dari bapaknya.",
        "intro_surah": "Surah ini terdiri dari 227 ayat, termasuk kelompok surah-surah Makkiyyah. Dinamakan asy-Syu\u2019ar\u0101\u2019 (kata jamak dari asy-sy\u0101\u2019ir yang berarti penyair) diambil dari kata \u201casy-Syu\u2019ar\u0101\u2019\u201d yang terdapat pada ayat 224, yaitu pada bagian terakhir surah ini, ketika Allah swt secara khusus menyebutkan kedudukan penyair-penyair. Para penyair itu mempunyai sifat-sifat yang jauh berbeda dengan rasul-rasul. Mereka diikuti oleh orang-orang yang sesat dan suka memutarbalikkan lidah serta tidak mempunyai pendirian, per-buatannya tidak sesuai dengan apa yang diucapkan. Sifat-sifat yang demikian itu tidaklah sekali-kali dimiliki para rasul. Oleh karena itu, tidak patut bila Nabi Muhammad dituduh sebagai penyair dan Al-Qur\u2019an dianggap sebagai syair. Al-Qur\u2019an adalah wahyu Allah bukan buatan manusia.\n\nPokok-pokok Isinya:\n1. \tKeimanan:\nJaminan Allah akan kemenangan perjuangan dan keselamatan para rasul-Nya. Al-Qur\u2019an benar-benar wahyu Allah yang diturunkan ke dunia melalui Malaikat Jibril a.s. (R\u016b\u1e25ul-Am\u012bn); hanya Allah yang wajib disembah.\n2. \tHukum-hukum:\nKeharusan menyempurnakan takaran dan timbangan, larangan mengubah syair yang berisi caci maki, khurafat, dan kebohongan.\n3. \tKisah-kisah:\nKisah Nabi Musa dengan Fir\u2018aun, Kisah Nabi Ibrahim, Nabi Nuh, Nabi Hud, Nabi Saleh, dan Nabi Lut dengan kaum mereka masing-masing; serta kisah Nabi Syuaib dengan penduduk Aikah.\n4. \tLain-lain:\nKebinasaan suatu bangsa/umat karena meninggalkan petunjuk-petunjuk agama, tumbuh-tumbuhan yang beraneka ragam dan perubahan-perubahan yang terjadi atasnya adalah bukti kekuasaan Tuhan Yang Maha Esa. Petunjuk-petunjuk Allah bagi para pemimpin agar berlaku lemah-lembut terhadap pengikut mereka. Al-Qur\u2019an turun dalam bahasa Arab sebagaimana disebutkan dalam kitab-kitab suci terdahulu.",
        "outro_surah": null,
        "munasabah_prev_surah": "HUBUNGAN SURAH AL-FURQ\u0100N DENGAN\nSURAH ASY-SYU\u2019AR\u0100\u2019\n\n1. \tBeberapa persoalan dalam Surah al-Furq\u0101n diuraikan kembali secara luas dalam Surah asy-Syu\u2019ar\u0101\u2019 antara lain kisah para nabi.\n2. \tMasing-masing dari kedua surah itu dimulai dengan keterangan dari Allah bahwa Al-Qur\u2019an adalah petunjuk bagi manusia dan pembeda antara yang hak dengan yang batil dan ditutup dengan ancaman bagi orang yang mendustakan Allah.\n",
        "munasabah_prev_theme": "Pada ayat yang lalu, Allah menerangkan bahwa Nabi Ibrahim memuji kebesaran Allah dengan mengemukakan berbagai sifat-Nya, yaitu pemberi hidayah, makan dan minum, yang menyembuhkan penyakit, yang menghidupkan dan mematikan, serta yang memberi ampunan. Ayat-ayat berikut ini menyebutkan pula permohonan (doa) Ibrahim kepada Allah agar ia dimasukkan ke dalam kelompok orang-orang yang saleh yang dapat mewarisi surga. \nHubungan ayat ini dengan ayat sebelumnya ialah sama-sama mengutara-kan pengertian bahwa seseorang yang hendak berdoa dianjurkan terlebih dahulu menyebut nama dan memuji kebesaran Allah, agar dapat menghayati betapa Maha Pengasih dan Penyayangnya Dia. Seolah-olah yang berdoa berbuat sebagaimana yang dikerjakan malaikat sepanjang hari, di mana mereka senantiasa beribadah dan mengagungkan asma Allah. Dengan cara begitu orang yang bersangkutan merasa N\u016br Ilahi menyinari hati nuraninya, sehingga mudah baginya untuk memperoleh jalan untuk mencapai apa yang diinginkannya. \nDemikianlah setelah Ibrahim mengingatkan kesesatan kaumnya dan mengajak mereka kembali kepada jalan yang benar, maka dengan memuji dan mengagungkan asma Allah di hadapan kaumnya, beliau berdoa seperti disebutkan di bawah ini.",
        "theme_group": "DOA NABI IBRAHIM ",
        "kosakata": "1. Lis\u0101na \u1e60idqin \u0644\u0650\u0633\u064e\u0627\u0646\u064e \u0635\u0650\u062f\u0652\u0642\u064d  (asy-Syu\u2019ar\u0101\u2019/26: 84)\nSecara bahasa ungkapan di atas terdiri dari dua kata, yaitu lis\u0101n dan \u1e63idqin. Yang pertama (lis\u0101n) pada mulanya digunakan dalam arti lidah yang fungsinya antara lain untuk berbicara. Sedang yang dimaksud dengan lis\u0101n pada ayat ini adalah hasil dari penggunaannya, yaitu pembicaraan atau perkataan. Sedang kata yang kedua (\u1e63idqin) maknanya benar atau sesuatu yang sesuai dengan kenyataan dan keyakinan. Perangkaian kedua kata tersebut mengisyaratkan bahwa uraian atau pernyataan yang diucapkan dengan lidah mestilah merupakan sesuatu yang benar dan sesuai dengan kenyataan. Selain makna tersebut, ungkapan ini dapat pula dipahami sebagai kenangan yang baik, penerimaan yang memuaskan, atau pujian terhadap perbuatan baik.\n2. Qalb sal\u012bm \u0642\u064e\u0644\u0652\u0628 \u0633\u064e\u0644\u0650\u064a\u0652\u0645  (asy-Syu\u2019ar\u0101\u2019/26: 89)\nTerm qalb sal\u012bm terdiri dari dua kata, yaitu qalb dan sal\u012bm. Yang pertama (qalb) artinya hati yang merupakan organ rohani dan tidak mempunyai wujud, namun mempunyai fungsi yang sangat penting bagi manusia, yaitu sebagai pangkal dari segala niat dan perbuatan. Selain itu, qalb dapat pula diartikan sebagai wadah atau alat untuk meraih pengetahuan. Sedang yang kedua (sal\u012bm) yang menyifati kata qalb, pada awalnya berarti selamat, yakni terhindar dari kekurangan dan bencana, baik yang bersifat lahir maupun batin. Selanjutnya qalb yang bersifat sal\u012bm adalah yang terpelihara kesucian fitrahnya, yakni yang pemiliknya selalu mempertahankan keyakinan tauhid, dan cenderung pada kebenaran dan kebajikan. Qalb yang sal\u012bm adalah yang tidak sakit, sehingga pemiliknya senantiasa merasa tenang, terhindar dari keraguan dan kebimbangan, dan hatinya tidak dipenuhi oleh sifat angkuh, benci, dengki, dendam, dan semua sifat tercela lainnya.   ",
        "sabab_nuzul": null,
        "conclusion": null
    }
}