{
    "id": 3116,
    "surah_id": 26,
    "ayah": 184,
    "page": 375,
    "quarter_hizb": 38.25,
    "juz": 19,
    "manzil": 5,
    "arabic": "\u0648\u064e\u0627\u062a\u0651\u064e\u0642\u064f\u0648\u0627 \u0627\u0644\u0651\u064e\u0630\u0650\u064a\u0652 \u062e\u064e\u0644\u064e\u0642\u064e\u0643\u064f\u0645\u0652 \u0648\u064e\u0627\u0644\u0652\u062c\u0650\u0628\u0650\u0644\u0651\u064e\u0629\u064e \u0627\u0644\u0652\u0627\u064e\u0648\u0651\u064e\u0644\u0650\u064a\u0652\u0646\u064e \u06d7 ",
    "latin": "Wattaqul-la\u017c\u012b khalaqakum wal-jibillatal-awwal\u012bn(a).",
    "translation": "Bertakwalah kepada Allah yang telah menciptakanmu dan umat-umat yang terdahulu.\u201d",
    "no_footnote": null,
    "footnotes": null,
    "surah": {
        "id": 26,
        "arabic": "\u0627\u0644\u0634\u0651\u0639\u0631\u0627\u06e4\u0621",
        "latin": "Asy-Syu\u2018ar\u0101'",
        "transliteration": "Asy-Syu\u2018ara'",
        "translation": "Para Penyair",
        "num_ayah": 227,
        "page": 367,
        "location": "Makkiyah"
    },
    "tafsir": {
        "wajiz": "Nabi Syuaib menutup penjelasannya dengan berkata, \u201cDan bertakwalah kepada Allah yang telah menciptakan kamu dan umat-umat yang dahulu.\u201d Umat terdahulu dari kaum Syuaib seperti kaum \u2018Ad, dan Samud jauh lebih kuat. Mereka dibinasakan oleh Allah karena dosa-dosa mereka. ",
        "tahlili": "Di samping menyekutukan Allah dengan sesuatu yang lain, penduduk Madyan juga berbuat dosa dan melakukan kejahatan lain, di antaranya:\n1. \tMengurangi timbangan dan takaran pada waktu menjual dan minta dilebihkan pada waktu membeli.\n2. \tMenurunkan harga barang-barang agar mereka dapat membeli barang-barang itu dengan harga yang amat rendah.\n3. \tMembuat onar dan kerusakan di bumi.\n\nAyat ini menerangkan bahwa Syuaib menyeru kaumnya untuk menghentikan kejahatan yang biasa mereka lakukan. Mereka diseru untuk menyempurnakan takaran dan timbangan baik di waktu menjual maupun membeli. Mengurangi atau melebihkan takaran dan timbangan adalah perbuatan yang merugikan orang lain. Hal itu berarti membuat kerusakan di bumi. Syuaib mengingatkan kaumnya bahwa harta yang halal lebih baik bagi mereka, karena mereka adalah orang-orang yang berpenghidupan baik. Allah berfirman:\n\u0628\u064e\u0642\u0650\u064a\u0651\u064e\u062a\u064f \u0627\u0644\u0644\u0651\u0670\u0647\u0650 \u062e\u064e\u064a\u0652\u0631\u064c \u0644\u0651\u064e\u0643\u064f\u0645\u0652 \u0627\u0650\u0646\u0652 \u0643\u064f\u0646\u0652\u062a\u064f\u0645\u0652 \u0645\u0651\u064f\u0624\u0652\u0645\u0650\u0646\u0650\u064a\u0652\u0646\u064e \u06d5\u06da \u0648\u064e\u0645\u064e\u0627\u0653 \u0627\u064e\u0646\u064e\u0627\u06e0 \u0639\u064e\u0644\u064e\u064a\u0652\u0643\u064f\u0645\u0652 \u0628\u0650\u062d\u064e\u0641\u0650\u064a\u0652\u0638\u064d \u0668\u0666\nSisa (yang halal) dari Allah adalah lebih baik bagimu jika kamu orang yang beriman. Dan aku bukanlah seorang penjaga atas dirimu.\u201d  (H\u016bd/11: 86).\n\nYang dimaksud dengan sisa keuntungan dari Allah (baqiyyatull\u0101h) ialah keuntungan yang halal dalam perdagangan sesudah menyempurnakan takaran dan timbangan.\nSyuaib mengingatkan bahwa perbuatan jahat yang mereka lakukan itu bertentangan dengan ketentuan yang ditetapkan Allah bagi semua makhluk-Nya. Oleh karena itu, mereka diminta untuk menghentikan perbuatan itu, dan takut kepada azab Allah yang akan ditimpakan kepada orang-orang yang berbuat kejahatan. Dialah yang menciptakan segala yang ada, termasuk mereka. Diciptakan-Nya dari tidak ada kepada ada untuk mengadakan kemaslahatan di bumi. Allah pernah menciptakan orang-orang yang mempunyai kekuatan dan kemampuan yang lebih kuat dan besar dari mereka, serta mempunyai harta dan kekayaan yang lebih banyak, seperti kaum Hud yang pernah mereka katakan sebagai kaum yang lebih kuat dan perkasa dari mereka. Karena kezaliman dan kejahatan umat-umat dahulu itu, Allah mengazab dan menimpakan malapetaka yang besar kepada mereka.",
        "intro_surah": "Surah ini terdiri dari 227 ayat, termasuk kelompok surah-surah Makkiyyah. Dinamakan asy-Syu\u2019ar\u0101\u2019 (kata jamak dari asy-sy\u0101\u2019ir yang berarti penyair) diambil dari kata \u201casy-Syu\u2019ar\u0101\u2019\u201d yang terdapat pada ayat 224, yaitu pada bagian terakhir surah ini, ketika Allah swt secara khusus menyebutkan kedudukan penyair-penyair. Para penyair itu mempunyai sifat-sifat yang jauh berbeda dengan rasul-rasul. Mereka diikuti oleh orang-orang yang sesat dan suka memutarbalikkan lidah serta tidak mempunyai pendirian, per-buatannya tidak sesuai dengan apa yang diucapkan. Sifat-sifat yang demikian itu tidaklah sekali-kali dimiliki para rasul. Oleh karena itu, tidak patut bila Nabi Muhammad dituduh sebagai penyair dan Al-Qur\u2019an dianggap sebagai syair. Al-Qur\u2019an adalah wahyu Allah bukan buatan manusia.\n\nPokok-pokok Isinya:\n1. \tKeimanan:\nJaminan Allah akan kemenangan perjuangan dan keselamatan para rasul-Nya. Al-Qur\u2019an benar-benar wahyu Allah yang diturunkan ke dunia melalui Malaikat Jibril a.s. (R\u016b\u1e25ul-Am\u012bn); hanya Allah yang wajib disembah.\n2. \tHukum-hukum:\nKeharusan menyempurnakan takaran dan timbangan, larangan mengubah syair yang berisi caci maki, khurafat, dan kebohongan.\n3. \tKisah-kisah:\nKisah Nabi Musa dengan Fir\u2018aun, Kisah Nabi Ibrahim, Nabi Nuh, Nabi Hud, Nabi Saleh, dan Nabi Lut dengan kaum mereka masing-masing; serta kisah Nabi Syuaib dengan penduduk Aikah.\n4. \tLain-lain:\nKebinasaan suatu bangsa/umat karena meninggalkan petunjuk-petunjuk agama, tumbuh-tumbuhan yang beraneka ragam dan perubahan-perubahan yang terjadi atasnya adalah bukti kekuasaan Tuhan Yang Maha Esa. Petunjuk-petunjuk Allah bagi para pemimpin agar berlaku lemah-lembut terhadap pengikut mereka. Al-Qur\u2019an turun dalam bahasa Arab sebagaimana disebutkan dalam kitab-kitab suci terdahulu.",
        "outro_surah": null,
        "munasabah_prev_surah": "HUBUNGAN SURAH AL-FURQ\u0100N DENGAN\nSURAH ASY-SYU\u2019AR\u0100\u2019\n\n1. \tBeberapa persoalan dalam Surah al-Furq\u0101n diuraikan kembali secara luas dalam Surah asy-Syu\u2019ar\u0101\u2019 antara lain kisah para nabi.\n2. \tMasing-masing dari kedua surah itu dimulai dengan keterangan dari Allah bahwa Al-Qur\u2019an adalah petunjuk bagi manusia dan pembeda antara yang hak dengan yang batil dan ditutup dengan ancaman bagi orang yang mendustakan Allah.\n",
        "munasabah_prev_theme": "Pada ayat-ayat yang lalu diterangkan tingkah laku jelek penduduk Sodom, kaum Nabi Lut. Mereka suka merampok, menyamun, dan melakukan perbuatan homoseks di bumi. Sekalipun Nabi Lut telah berusaha menyeru mereka ke jalan yang benar dan meninggalkan perbuatan-perbuatan itu, mereka tetap ingkar kepada Nabi Lut. Oleh karena itu, Allah menimpakan kepada mereka malapetaka yang dahsyat berupa hujan batu dan membalikkan negeri mereka. \nPada ayat-ayat berikut ini diterangkan tingkah laku penduduk Madyan, kaum Syuaib. Mereka suka mengurangi timbangan dan takaran dalam berjual beli, menurunkan harga barang agar mereka dapat membeli dengan murah, serta suka berbuat onar dan kerusakan di bumi. Kepada mereka diutus Nabi Syuaib untuk mengembalikan mereka ke jalan yang benar. Akan tetapi, mereka tetap ingkar sehingga Allah membinasakan mereka dengan sambaran petir yang dahsyat.",
        "theme_group": "KISAH NABI SYUAIB DAN KAUMNYA",
        "kosakata": "1. A\u1e63\u1e25\u0101b al-Aikah \u0623\u064e\u0635\u0652\u062d\u064e\u0627\u0628\u064f \u0627\u0652\u0644\u0623\u064e\u064a\u0652\u0643\u064e\u0629\u0650  (asy-Syu\u2019ar\u0101\u2019/26: 176)\nBerbicara tentang \u201cA\u1e63\u1e25\u0101b al-Aikah\u201d tentu tidak bisa lepas dari pembicaraan tentang Syuaib dan Madyan. Kata \u201caikah\u201d umumnya diartikan para mufasir dengan \u201chutan,\u201d ada pula yang mengartikan \u201clembah, wadi.\u201d Al-Mu\u2019jam al-Mufa\u1e25ras li Alf\u0101\u1e93 al-Qur\u2019\u0101n al-Kar\u012bm mengartikan kata aikah sebagai pohon belukar. Tentu letaknya di Madyan, tempat Nabi Syuaib diutus. A\u1e63\u1e25\u0101bul Aikah ialah suatu masyarakat Nabi Syuaib, tempat tinggal mereka di daerah pepohonan yang lebat. Akan tetapi, arti ini tidak begitu penting. Kedua kata ini di dalam al-Qur\u2019an terdapat dalam  al-\u1e24ijr/15: 78,  asy-Syu\u2019ar\u0101\u2019/26: 176, \u1e60\u0101d/38: 13 dan Q\u0101f/50: 14. \nDalam Surah al-\u1e24ijr/15: 78, mereka dilukiskan sebagai orang-orang zalim atau durjana. Ayat yang agak terinci mengenai ini terdapat dalam asy-Syu\u2019ar\u0101\u2019/26: 176-191. Dalam ayat-ayat ini disebutkan bahwa para penghuni hutan itu telah mendustakan nabi-nabi mereka, termasuk Nabi Syuaib, yang memperkenalkan diri kepada mereka tanpa mengharapkan imbalan, mengajak bertakwa kepada Allah dan mau menaatinya. Mereka adalah masyarakat pedagang yang suka menipu. Syuaib mengingatkan mereka agar jangan bertindak merugikan orang lain, mengecoh dalam berdagang, memalsukan dagangan dan mempermainkan timbangan dan sukatan. Akan tetapi, mereka berbalik menuduh Syuaib sudah kena sihir, pendusta, dan dia tidak berbeda dengan mereka, manusia biasa. Dia ditantang agar membuktikan kenabiannya dengan menjatuhkan kepingan-kepingan dari langit, seperti halnya dengan Nabi Muhammad yang menghadapi  tantangan Quraisy (al-Isr\u0101\u2019/17: 92). Para penghuni hutan itu kemudian mengalami bencana yang membinasakan mereka. (Lihat juga Kosakata \u201cSyuaib\u201d dan \u201cMadyan\u201d)\n2. Al-Jibillah al-Awwal\u012bn \u0627\u0644\u0652\u062c\u0650\u0628\u0650\u0644\u0651\u064e\u0629 \u0627\u0644\u0652\u0623\u064e\u0648\u0651\u064e\u0644\u0650\u064a\u0652\u0646  (asy-Syu\u2019ar\u0101\u2019/26: 184)\nAl-Jibillah al-awwal\u012bn artinya umat terdahulu. Akar katanya (jim-ba\u2019-lam) arti dasarnya adalah berkumpulnya sesuatu dan meninggi. Dari sini muncul kata \u201cjabal\u201d artinya gunung. Jika kita mendengar kata gunung maka yang terbenak dalam hati kita ialah sesuatu yang besar, tinggi, kekar. Al-Jabal atau jibill juga diartikan dengan kelompok manusia yang banyak  (Lihat Surah Y\u0101s\u012bn/36: 62). Al-Jabal diartikan juga dengan karakter atau sifat yang ada pada seseorang yang sulit untuk diubah sebagaimana sulitnya mengalihkan gunung. Jika dikatakan: Fulan Jabal artinya si Fulan mempunyai pendirian yang kokoh bagaikan gunung. \nAyat ini menjelaskan tentang perintah Nabi Syuaib kepada kaumnya agar mereka bertakwa kepada Allah yang menciptakan mereka dan Yang menciptakan kaum sebelum mereka. Dengan melihat arti dasar dari kata ini bisa dibayangkan bahwa kaum sebelum mereka terdiri dari umat yang banyak dengan perawakan mereka yang besar dan kekar. Mereka mempunyai watak dan karakter yang sulit untuk diubah.\n3. A\u1e93-\u017bullah  \u0627\u0644\u0638\u0651\u064f\u0644\u064e\u0651\u0629 (asy-Syu\u2019ar\u0101\u2019/26: 189)\nKata a\u1e93-\u1e93ullah jamaknya \u1e93ulal-\u1e93ilal berarti awan, dari fi\u2019il \u1e93alla-ya\u1e93allu-\u1e93al\u0101latan, yang berarti teduh, redup, mendung, berawan. Siksa hari berawan yang disebut dalam ayat 189 Surah asy-Syu\u2019ar\u0101\u2019 di atas adalah siksa yang bersumber dari awan berupa guntur dan kilat yang sahut-menyahut, sehingga memorak-porandakan bangunan dan membinasakan orang-orang kafir.",
        "sabab_nuzul": null,
        "conclusion": null
    }
}