{
    "id": 3043,
    "surah_id": 26,
    "ayah": 111,
    "page": 371,
    "quarter_hizb": 38,
    "juz": 19,
    "manzil": 5,
    "arabic": "\u06de \u0642\u064e\u0627\u0644\u064f\u0648\u0652\u0653\u0627 \u0627\u064e\u0646\u064f\u0624\u0652\u0645\u0650\u0646\u064f \u0644\u064e\u0643\u064e \u0648\u064e\u0627\u062a\u0651\u064e\u0628\u064e\u0639\u064e\u0643\u064e \u0627\u0644\u0652\u0627\u064e\u0631\u0652\u0630\u064e\u0644\u064f\u0648\u0652\u0646\u064e \u06d7 ",
    "latin": "Q\u0101l\u016b anu'minu laka wattaba\u2018akal-ar\u017cal\u016bn(a). ",
    "translation": "Mereka berkata, \u201cApakah kami harus beriman kepadamu, padahal yang mengikutimu adalah orang-orang hina?\u201d",
    "no_footnote": null,
    "footnotes": null,
    "surah": {
        "id": 26,
        "arabic": "\u0627\u0644\u0634\u0651\u0639\u0631\u0627\u06e4\u0621",
        "latin": "Asy-Syu\u2018ar\u0101'",
        "transliteration": "Asy-Syu\u2018ara'",
        "translation": "Para Penyair",
        "num_ayah": 227,
        "page": 367,
        "location": "Makkiyah"
    },
    "tafsir": {
        "wajiz": "Mereka berkata, \u201cApakah kami harus beriman kepadamu, padahal pengikut-pengikutmu orang-orang yang hina?\u201d Pengikut Nabi Nuh banyak dari golongan rakyat jelata, karena merekalah yang banyak terzalimi dari sistem yang ada, bukan dari kalangan bangsawan yang senang dengan kedudukan mereka. Begitulah mereka melihat persoalan bukan dari ajarannya tapi dari orang yang mengikuti ajaran itu.",
        "tahlili": "Ayat ini menjelaskan sikap kaumnya terhadap seruan Nabi Nuh. Mereka mengatakan bahwa tidak ada alasan bagi mereka untuk mengikuti seruan Nuh karena orang-orang yang cerdik pandai dan berakal di antara mereka tidak ada yang tertarik dengan seruan itu apalagi para pemimpin mereka. Hanya orang-orang yang bodoh dan lemah atau orang-orang yang menginginkan sesuatu yang mau menjadi pengikut Nabi Nuh. Allah berfirman:\n\u0641\u064e\u0642\u064e\u0627\u0644\u064e \u0627\u0644\u0652\u0645\u064e\u0644\u064e\u0627\u064f \u0627\u0644\u0651\u064e\u0630\u0650\u064a\u0652\u0646\u064e \u0643\u064e\u0641\u064e\u0631\u064f\u0648\u0652\u0627 \u0645\u0650\u0646\u0652 \u0642\u064e\u0648\u0652\u0645\u0650\u0647\u0656 \u0645\u064e\u0627 \u0646\u064e\u0631\u0670\u0649\u0643\u064e \u0627\u0650\u0644\u0651\u064e\u0627 \u0628\u064e\u0634\u064e\u0631\u064b\u0627 \u0645\u0650\u0651\u062b\u0652\u0644\u064e\u0646\u064e\u0627 \u0648\u064e\u0645\u064e\u0627 \u0646\u064e\u0631\u0670\u0649\u0643\u064e \u0627\u062a\u0651\u064e\u0628\u064e\u0639\u064e\u0643\u064e \u0627\u0650\u0644\u0651\u064e\u0627 \u0627\u0644\u0651\u064e\u0630\u0650\u064a\u0652\u0646\u064e \u0647\u064f\u0645\u0652 \u0627\u064e\u0631\u064e\u0627\u0630\u0650\u0644\u064f\u0646\u064e\u0627 \u0628\u064e\u0627\u062f\u0650\u064a\u064e \u0627\u0644\u0631\u0651\u064e\u0623\u0652\u064a\u0650\u06da \u0648\u064e\u0645\u064e\u0627 \u0646\u064e\u0631\u0670\u0649 \u0644\u064e\u0643\u064f\u0645\u0652 \u0639\u064e\u0644\u064e\u064a\u0652\u0646\u064e\u0627 \u0645\u0650\u0646\u0652 \u0641\u064e\u0636\u0652\u0644\u064d\u06e2 \u0628\u064e\u0644\u0652 \u0646\u064e\u0638\u064f\u0646\u0651\u064f\u0643\u064f\u0645\u0652 \u0643\u0670\u0630\u0650\u0628\u0650\u064a\u0652\u0646\u064e \u0662\u0667\nMaka berkatalah para pemuka yang kafir dari kaumnya, \u201cKami tidak melihat engkau, melainkan hanyalah seorang manusia (biasa) seperti kami, dan kami tidak melihat orang yang mengikuti engkau, melainkan orang yang hina-dina di antara kamu yang lekas percaya. Kami tidak melihat kamu memiliki suatu kelebihan apa pun atas kami, bahkan kami menganggap kamu adalah orang pendusta.\u201d  (H\u016bd/11: 27)",
        "intro_surah": "Surah ini terdiri dari 227 ayat, termasuk kelompok surah-surah Makkiyyah. Dinamakan asy-Syu\u2019ar\u0101\u2019 (kata jamak dari asy-sy\u0101\u2019ir yang berarti penyair) diambil dari kata \u201casy-Syu\u2019ar\u0101\u2019\u201d yang terdapat pada ayat 224, yaitu pada bagian terakhir surah ini, ketika Allah swt secara khusus menyebutkan kedudukan penyair-penyair. Para penyair itu mempunyai sifat-sifat yang jauh berbeda dengan rasul-rasul. Mereka diikuti oleh orang-orang yang sesat dan suka memutarbalikkan lidah serta tidak mempunyai pendirian, per-buatannya tidak sesuai dengan apa yang diucapkan. Sifat-sifat yang demikian itu tidaklah sekali-kali dimiliki para rasul. Oleh karena itu, tidak patut bila Nabi Muhammad dituduh sebagai penyair dan Al-Qur\u2019an dianggap sebagai syair. Al-Qur\u2019an adalah wahyu Allah bukan buatan manusia.\n\nPokok-pokok Isinya:\n1. \tKeimanan:\nJaminan Allah akan kemenangan perjuangan dan keselamatan para rasul-Nya. Al-Qur\u2019an benar-benar wahyu Allah yang diturunkan ke dunia melalui Malaikat Jibril a.s. (R\u016b\u1e25ul-Am\u012bn); hanya Allah yang wajib disembah.\n2. \tHukum-hukum:\nKeharusan menyempurnakan takaran dan timbangan, larangan mengubah syair yang berisi caci maki, khurafat, dan kebohongan.\n3. \tKisah-kisah:\nKisah Nabi Musa dengan Fir\u2018aun, Kisah Nabi Ibrahim, Nabi Nuh, Nabi Hud, Nabi Saleh, dan Nabi Lut dengan kaum mereka masing-masing; serta kisah Nabi Syuaib dengan penduduk Aikah.\n4. \tLain-lain:\nKebinasaan suatu bangsa/umat karena meninggalkan petunjuk-petunjuk agama, tumbuh-tumbuhan yang beraneka ragam dan perubahan-perubahan yang terjadi atasnya adalah bukti kekuasaan Tuhan Yang Maha Esa. Petunjuk-petunjuk Allah bagi para pemimpin agar berlaku lemah-lembut terhadap pengikut mereka. Al-Qur\u2019an turun dalam bahasa Arab sebagaimana disebutkan dalam kitab-kitab suci terdahulu.",
        "outro_surah": null,
        "munasabah_prev_surah": "HUBUNGAN SURAH AL-FURQ\u0100N DENGAN\nSURAH ASY-SYU\u2019AR\u0100\u2019\n\n1. \tBeberapa persoalan dalam Surah al-Furq\u0101n diuraikan kembali secara luas dalam Surah asy-Syu\u2019ar\u0101\u2019 antara lain kisah para nabi.\n2. \tMasing-masing dari kedua surah itu dimulai dengan keterangan dari Allah bahwa Al-Qur\u2019an adalah petunjuk bagi manusia dan pembeda antara yang hak dengan yang batil dan ditutup dengan ancaman bagi orang yang mendustakan Allah.\n",
        "munasabah_prev_theme": "Pada ayat-ayat yang lalu, Allah menerangkan kepada Rasulullah kisah Nabi Ibrahim, nenek moyang bangsa Arab, yang diperintahkan untuk menyeru kaumnya agar beriman. Diterangkan juga penolakan kaumnya untuk beriman kepada Allah dan meninggalkan kesyirikan. Pada ayat-ayat ini, Allah menerangkan kisah Nabi Nuh, nabi yang ketiga di antara nabi-nabi yang diutus Allah setelah Nabi Adam dan Nabi Idris. Apa yang terjadi pada Nabi Ibrahim, juga sudah terjadi sebelumnya pada Nabi Nuh. Ia didustakan oleh kaumnya termasuk anaknya sendiri. Akibat keingkaran itu, Allah menimpakan kepada kaum Nabi Nuh azab berupa angin topan dan banjir yang memusnahkan mereka. Adapun Nuh beserta orang-orang yang mengikuti seruannya diselamatkan Allah.",
        "theme_group": "KISAH NABI NUH DAN KAUMNYA",
        "kosakata": "Kosakata: Ar\u017cal\u016bn \u0627\u064e\u0631\u0652\u0630\u064e\u0644\u064f\u0648\u0652\u0646\u064e  (asy-Syu\u2019ar\u0101\u2019/26: 111)\nAl-Ar\u017cal\u016bn artinya \u201corang-orang yang rendah derajat dan martabatnya, bukan kelompok bermartabat tinggi. Kelompok rendahan ini biasanya merupakan pengikut para nabi yang diutus Allah kepada manusia. Sedang-kan kelompok orang-orang penting, walaupun ada yang beriman dan menjadi pengikut nabi, tetapi jumlah mereka tidak banyak dibanding dengan kelompok rendahan tersebut. Sebutan orang-orang rendahan untuk para pengikut nabi yang disinggung dalam ayat ini, diberikan oleh mereka yang menentang dan mendustakan nabi dengan maksud menghinakan. Dengan beriman kepada Allah dan nabi serta mengikuti seruannya, justru merekalah yang meraih keberuntungan dan derajat tinggi.",
        "sabab_nuzul": null,
        "conclusion": null
    }
}