{
    "id": 3099,
    "surah_id": 26,
    "ayah": 167,
    "page": 374,
    "quarter_hizb": 38,
    "juz": 19,
    "manzil": 5,
    "arabic": "\u0642\u064e\u0627\u0644\u064f\u0648\u0652\u0627 \u0644\u064e\u0649\u0655\u0650\u0646\u0652 \u0644\u0651\u064e\u0645\u0652 \u062a\u064e\u0646\u0652\u062a\u064e\u0647\u0650 \u064a\u0670\u0644\u064f\u0648\u0652\u0637\u064f \u0644\u064e\u062a\u064e\u0643\u064f\u0648\u0652\u0646\u064e\u0646\u0651\u064e \u0645\u0650\u0646\u064e \u0627\u0644\u0652\u0645\u064f\u062e\u0652\u0631\u064e\u062c\u0650\u064a\u0652\u0646\u064e  ",
    "latin": "Q\u0101l\u016b la'illam tantahi y\u0101 l\u016b\u1e6du latak\u016bnanna minal-mukhraj\u012bn(a).",
    "translation": "Mereka menjawab, \u201cWahai Lut, jika tidak berhenti (melarang kami), niscaya engkau benar-benar akan termasuk orang-orang yang diusir.\u201d",
    "no_footnote": null,
    "footnotes": null,
    "surah": {
        "id": 26,
        "arabic": "\u0627\u0644\u0634\u0651\u0639\u0631\u0627\u06e4\u0621",
        "latin": "Asy-Syu\u2018ar\u0101'",
        "transliteration": "Asy-Syu\u2018ara'",
        "translation": "Para Penyair",
        "num_ayah": 227,
        "page": 367,
        "location": "Makkiyah"
    },
    "tafsir": {
        "wajiz": "Namun dengan angkuh mereka menjawab, \u201cWahai Luth, jika engkau tidak berhenti dari apa yang engkau lakukan, engkau termasuk orang-orang yang terusir dari negeri ini, karena kami tidak menghendaki engkau berada bersama kami.\u201d",
        "tahlili": "Penduduk Sodom tidak mengindahkan seruan Nabi Lut, bahkan mereka mengancam akan membunuh dan mengusir Lut dan orang-orang yang beriman dari negeri mereka. Kemaksiatan mereka makin hari makin bertambah dan mereka menantang Nabi Lut agar mendatangkan azab yang diancamkan itu.",
        "intro_surah": "Surah ini terdiri dari 227 ayat, termasuk kelompok surah-surah Makkiyyah. Dinamakan asy-Syu\u2019ar\u0101\u2019 (kata jamak dari asy-sy\u0101\u2019ir yang berarti penyair) diambil dari kata \u201casy-Syu\u2019ar\u0101\u2019\u201d yang terdapat pada ayat 224, yaitu pada bagian terakhir surah ini, ketika Allah swt secara khusus menyebutkan kedudukan penyair-penyair. Para penyair itu mempunyai sifat-sifat yang jauh berbeda dengan rasul-rasul. Mereka diikuti oleh orang-orang yang sesat dan suka memutarbalikkan lidah serta tidak mempunyai pendirian, per-buatannya tidak sesuai dengan apa yang diucapkan. Sifat-sifat yang demikian itu tidaklah sekali-kali dimiliki para rasul. Oleh karena itu, tidak patut bila Nabi Muhammad dituduh sebagai penyair dan Al-Qur\u2019an dianggap sebagai syair. Al-Qur\u2019an adalah wahyu Allah bukan buatan manusia.\n\nPokok-pokok Isinya:\n1. \tKeimanan:\nJaminan Allah akan kemenangan perjuangan dan keselamatan para rasul-Nya. Al-Qur\u2019an benar-benar wahyu Allah yang diturunkan ke dunia melalui Malaikat Jibril a.s. (R\u016b\u1e25ul-Am\u012bn); hanya Allah yang wajib disembah.\n2. \tHukum-hukum:\nKeharusan menyempurnakan takaran dan timbangan, larangan mengubah syair yang berisi caci maki, khurafat, dan kebohongan.\n3. \tKisah-kisah:\nKisah Nabi Musa dengan Fir\u2018aun, Kisah Nabi Ibrahim, Nabi Nuh, Nabi Hud, Nabi Saleh, dan Nabi Lut dengan kaum mereka masing-masing; serta kisah Nabi Syuaib dengan penduduk Aikah.\n4. \tLain-lain:\nKebinasaan suatu bangsa/umat karena meninggalkan petunjuk-petunjuk agama, tumbuh-tumbuhan yang beraneka ragam dan perubahan-perubahan yang terjadi atasnya adalah bukti kekuasaan Tuhan Yang Maha Esa. Petunjuk-petunjuk Allah bagi para pemimpin agar berlaku lemah-lembut terhadap pengikut mereka. Al-Qur\u2019an turun dalam bahasa Arab sebagaimana disebutkan dalam kitab-kitab suci terdahulu.",
        "outro_surah": null,
        "munasabah_prev_surah": "HUBUNGAN SURAH AL-FURQ\u0100N DENGAN\nSURAH ASY-SYU\u2019AR\u0100\u2019\n\n1. \tBeberapa persoalan dalam Surah al-Furq\u0101n diuraikan kembali secara luas dalam Surah asy-Syu\u2019ar\u0101\u2019 antara lain kisah para nabi.\n2. \tMasing-masing dari kedua surah itu dimulai dengan keterangan dari Allah bahwa Al-Qur\u2019an adalah petunjuk bagi manusia dan pembeda antara yang hak dengan yang batil dan ditutup dengan ancaman bagi orang yang mendustakan Allah.\n",
        "munasabah_prev_theme": "Pada ayat-ayat yang lalu diterangkan kisah Nabi Saleh dan kaumnya, Samud. Nabi Saleh telah menyeru mereka agar hanya menyembah Allah dengan meninggalkan agama dan kepercayaan nenek moyang mereka. Akan tetapi, seruan Nabi Saleh ini tidak mereka indahkan, bahkan mereka mem-bunuh unta yang dilarang Nabi Saleh untuk diganggu. Oleh karena itu, Allah menimpakan malapetaka yang dahsyat berupa petir yang menghancurkan mereka semua, kecuali orang-orang yang beriman. Pada ayat-ayat berikut ini diterangkan kisah Nabi Lut dan kaumnya pula. Sebagaimana halnya dengan kaum Samud, kaum Nabi Lut pun telah mendustakan rasul yang diutus kepada mereka. Maka Allah telah menimpakan kepada mereka bencana yang dahsyat pula dan memusnahkan mereka semua, kecuali orang-orang yang beriman.",
        "theme_group": "KISAH NABI LUT DAN KAUMNYA",
        "kosakata": "1. Al-Q\u0101l\u012bn \u0627\u0644\u0642\u064e\u0627\u0644\u0650\u064a\u0652\u0646\u064e (asy-Syu\u2019ar\u0101\u2019/26: 168)\nKata al-q\u0101l\u012bn adalah bentuk jamak dari al-q\u0101l\u012b yakni orang yang sangat membenci dengan kebencian yang luar biasa, dari fi\u2019il qal\u0101-yaql\u016b-qalan, qala\u2019an yang berarti sangat benci. Ulama berpendapat bahwa kata tersebut diambil dari kata al-qalwu, yakni pelemparan. Seseorang atau sesuatu yang menjadi objek penderita dari kata tersebut, seakan-akan dilempar terhadap yang bersangkutan. Dari sini kata tersebut diartikan sebagai kebencian yang telah mencapai puncaknya. Ada juga yang menyatakan bahwa kata itu berasal dari kata al-qalyu yang berarti menggoreng, seakan-akan perbuatan itu membakar dan menggoreng hati. Pada dasarnya, kata ini menggambarkan kebencian yang amat besar.\n2. \u2018Aj\u016bzan fi al-G\u0101bir\u012bn \u0639\u064e\u062c\u064f\u0648\u0652\u0632\u064b\u0627 \u0641\u0650\u0649 \u0627\u0644\u063a\u064e\u0627\u0628\u0650\u0631\u0650\u064a\u0652\u0646\u064e  (asy-Syu\u2019ar\u0101\u2019/26: 171)\nKata \u2018aj\u016bz berarti perempuan tua, dari fi\u2019il \u2018ajaza-\u2019ajuza-ya\u2019juzu-\u2019uj\u016bzan, yang berarti jadi tua perempuan itu. Penyifatan aj\u016bz kepada istri Nabi Lut yang durhaka merupakan penghinaan terhadapnya karena sebagian perempuan walaupun telah mencapai usia lanjut, tetap enggan dinamai perempuan tua. Sedangkan kata al-g\u0101bir\u012bn terambil dari kata gabara-yagburu-guburan, yang berarti masa yang lalu, diam, tinggal, sesuatu yang telah berlalu, atau diam bertempat tinggal setelah ditinggalkan oleh teman atau kendaraan. Kedua makna ini dapat menjadi makna untuk kata yang digunakan ayat ini, yakni istri Nabi Lut a.s, termasuk orang yang diam di tempat tinggalnya, tidak keluar berhijrah atau bahwa ia termasuk salah seorang yang sudah berlalu bersama dengan mereka yang berlalu dan mati terkena siksa.",
        "sabab_nuzul": null,
        "conclusion": null
    }
}