{
    "id": 3089,
    "surah_id": 26,
    "ayah": 157,
    "page": 373,
    "quarter_hizb": 38,
    "juz": 19,
    "manzil": 5,
    "arabic": "\u0641\u064e\u0639\u064e\u0642\u064e\u0631\u064f\u0648\u0652\u0647\u064e\u0627 \u0641\u064e\u0627\u064e\u0635\u0652\u0628\u064e\u062d\u064f\u0648\u0652\u0627 \u0646\u0670\u062f\u0650\u0645\u0650\u064a\u0652\u0646\u064e \u06d9 ",
    "latin": "Fa \u2018aqar\u016bh\u0101 fa a\u1e63ba\u1e25\u016b n\u0101dim\u012bn(a).",
    "translation": "Mereka membunuhnya, lalu mereka menjadi orang-orang yang menyesal.",
    "no_footnote": null,
    "footnotes": null,
    "surah": {
        "id": 26,
        "arabic": "\u0627\u0644\u0634\u0651\u0639\u0631\u0627\u06e4\u0621",
        "latin": "Asy-Syu\u2018ar\u0101'",
        "transliteration": "Asy-Syu\u2018ara'",
        "translation": "Para Penyair",
        "num_ayah": 227,
        "page": 367,
        "location": "Makkiyah"
    },
    "tafsir": {
        "wajiz": "Ternyata mereka melanggar ketentuan ini. Kemudian salah seorang di antara mereka membunuhnya, sementara yang lain mendiamkannya saja, sebagai tanda persetujuan. Dengan persetujuan ini semuanya dianggap ikut terlibat dalam pembunuhan itu. Lalu mereka merasa menyesal atas apa yang telah mereka lakukan, karena mereka tahu akan akibat dari perbuatan mereka yaitu datangnya siksaan Allah. Tapi tak berguna lagi penyesalan itu. Mereka diberi tenggat waktu sampai tiga hari, (Lihat: Surah Hud/11: 65) lalu datanglah azab yang mereka takutkan.",
        "tahlili": "Ayat ini menerangkan bahwa kaum Samud ingin membuktikan kebenaran ucapan Nabi Saleh, lalu mereka membunuh unta tersebut. Akan tetapi, setelah mereka menyembelih unta itu, terutama setelah melihat tanda-tanda azab Allah akan tiba, mereka menyesal. Terlebih ketika bumi mereka diguncang gempa serta dibarengi sambaran petir dan halilintar yang mengakibatkan rumah-rumah mereka rata dengan tanah. \nDi dalam Al-Qur\u2019an terdapat ayat-ayat yang menerangkan berbagai azab yang membinasakan mereka. Ada ayat-ayat yang menerangkan bahwa mereka dibinasakan dengan \u1e63\u0101\u2019iqah (petir) (Fu\u1e63\u1e63ilat/41: 17 dan a\u017c-\u017b\u0101riy\u0101t/51: 44). Sementara ayat lain menyebutkan dengan rajfah (guncangan bumi yang amat keras) (al-A\u2018r\u0101f/7: 78). Pada ayat yang lain disebut dengan \u1e60ai\u1e25ah (suara yang amat keras dari langit) (H\u016bd/11: 67; al-\u1e24ijr/15: 83; dan al-Qamar/54: 31). Ada pula yang menyebutkan bahwa mereka dihancurkan dengan \u1e6d\u0101giyah (kejadian yang luar biasa) (al-\u1e24\u0101qqah/69: 5).\nAyat-ayat ini tidaklah bertentangan karena mereka dibinasakan dengan petir (\u1e63\u0101\u2019iqah). Adapun guncangan bumi yang amat keras (rajfah), suara keras dari langit (\u1e63ai\u1e25ah), dan kejadian yang luar biasa (\u1e6d\u0101giyah) adalah gejala dan sifat dari petir. Demikian hebatnya petir itu sampai mengguncang bumi dan menimbulkan suara yang amat keras. Kesemuanya itu membinasakan mereka dan ini adalah suatu kejadian yang luar biasa. Dalam sekejap mata, mereka telah menjadi tubuh-tubuh yang tiada bergerak, mati dan tersungkur di dalam rumah mereka. Kemudian mereka lenyap dari permukaan bumi, tidak ada yang kelihatan lagi selain tempat tinggal mereka, seakan-akan mereka tidak pernah hidup dan berada di tempat itu. Karena mereka telah dimusnahkan Allah, maka dalam sejarah mereka termasuk salah satu dari bangsa Arab yang telah musnah (al-\u2019Arab al-B\u0101\u2019idah).\nNabi Saleh dan orang-orang yang beriman diselamatkan Allah dari azab itu. Mereka mengungsi ke Ramallah, salah satu kota di Palestina. Di kota ini terdapat kuburan Nabi Saleh yang masih dikenal sampai sekarang. Akan tetapi, ada pula yang mengatakan bahwa kuburan Nabi Saleh berada di Yaman, dan ada pula yang berpendapat di Yordan. Menurut Ibnu Khald\u016bn, Nabi Saleh menyeru kaumnya kepada agama Allah selama dua puluh tahun dan ia meninggal pada umur lima puluh delapan tahun.\nNegeri-negeri kaum Samud dan bangunan-bangunan yang mereka dirikan sampai sekarang masih ada bekasnya. Sarjana-sarjana barat telah banyak berkunjung ke tempat ini. Mereka telah menulis bekas-bekas peninggalan kaum Samud dan rumah-rumah kediaman yang mereka pahat dari gunung-gunung batu itu. Di antaranya adalah C.M. Daughty yang menulis buku dengan judul Arabia Desserta.\nKetika Rasulullah melewati kampung-kampung kaum Samud dalam perjalanan ekspedisi, yaitu Tabuk, beliau bersabda kepada para sahabat:\n\u0644\u0627\u064e \u062a\u064e\u062f\u0652\u062e\u064f\u0644\u064f\u0648\u0652\u0627 \u0639\u064e\u0644\u064e\u0649 \u0647\u064e\u0624\u064f\u0644\u0627\u064e\u0621\u0650 \u0627\u0644\u0652\u0642\u064e\u0648\u0652\u0645\u0650 \u0627\u0644\u0652\u0645\u064f\u0639\u064e\u0630\u0651\u064e\u0628\u0650\u064a\u0652\u0646\u064e \u0627\u0650\u0644\u0627\u0651\u064e \u0623\u064e\u0646\u0652 \u062a\u064e\u0643\u064f\u0648\u0652\u0646\u064f\u0648\u0652\u0627 \u0628\u064e\u0627\u0643\u0650\u064a\u0652\u0646\u064e \u0641\u064e\u0625\u0650\u0646\u0652 \u0644\u064e\u0645\u0652  \u062a\u064e\u0643\u064f\u0648\u0652\u0646\u064f\u0648\u0652\u0627 \u0628\u064e\u0627\u0643\u0650\u064a\u0652\u0646\u064e \u0641\u064e\u0644\u0627\u064e \u062a\u064e\u062f\u0652\u062e\u064f\u0644\u064f\u0648\u0652\u0627 \u0639\u064e\u0644\u064e\u064a\u0652\u0647\u0650\u0645\u0652 \u0644\u0650\u0626\u064e\u0644\u0627\u0651\u064e \u064a\u064f\u0635\u0650\u064a\u0652\u0628\u064e\u0643\u064f\u0645\u0652 \u0645\u0650\u062b\u0652\u0644\u064f \u0645\u064e\u0627 \u0623\u064e\u0635\u064e\u0627\u0628\u064e\u0647\u064f\u0645\u0652. (\u0631\u0648\u0627\u0647 \u0627\u0644\u0634\u064a\u062e\u0627\u0646 \u0639\u0646 \u0627\u0628\u0646 \u0639\u0645\u0631)\nKamu jangan masuk kampung orang-orang yang telah diazab itu, melainkan dengan menangis, jika tidak dengan menangis, maka janganlah kamu masuk kampung mereka, agar kamu tidak ditimpa azab sebagaimana yang telah menimpa mereka. (Riwayat asy-Syaikh\u0101n dari Ibnu \u2018Umar).\n\nPeninggalan dan bekas-bekas mereka itu diabadikan di dalam Al-Qur\u2019an untuk menjadi pelajaran. Banyak ayat-ayat Al-Qur\u2019an yang menyuruh orang agar mengadakan perjalanan di bumi, untuk memperhatikan peninggalan-peninggalan dan bekas-bekas kaum yang telah dibinasakan oleh Allah, karena pembangkangan mereka terhadap perintah-Nya, seperti kaum Samud tersebut. Sesungguhnya Allah berbuat kebaikan kepada semua manusia, amat keras azab-Nya dan amat besar rahmat-Nya.",
        "intro_surah": "Surah ini terdiri dari 227 ayat, termasuk kelompok surah-surah Makkiyyah. Dinamakan asy-Syu\u2019ar\u0101\u2019 (kata jamak dari asy-sy\u0101\u2019ir yang berarti penyair) diambil dari kata \u201casy-Syu\u2019ar\u0101\u2019\u201d yang terdapat pada ayat 224, yaitu pada bagian terakhir surah ini, ketika Allah swt secara khusus menyebutkan kedudukan penyair-penyair. Para penyair itu mempunyai sifat-sifat yang jauh berbeda dengan rasul-rasul. Mereka diikuti oleh orang-orang yang sesat dan suka memutarbalikkan lidah serta tidak mempunyai pendirian, per-buatannya tidak sesuai dengan apa yang diucapkan. Sifat-sifat yang demikian itu tidaklah sekali-kali dimiliki para rasul. Oleh karena itu, tidak patut bila Nabi Muhammad dituduh sebagai penyair dan Al-Qur\u2019an dianggap sebagai syair. Al-Qur\u2019an adalah wahyu Allah bukan buatan manusia.\n\nPokok-pokok Isinya:\n1. \tKeimanan:\nJaminan Allah akan kemenangan perjuangan dan keselamatan para rasul-Nya. Al-Qur\u2019an benar-benar wahyu Allah yang diturunkan ke dunia melalui Malaikat Jibril a.s. (R\u016b\u1e25ul-Am\u012bn); hanya Allah yang wajib disembah.\n2. \tHukum-hukum:\nKeharusan menyempurnakan takaran dan timbangan, larangan mengubah syair yang berisi caci maki, khurafat, dan kebohongan.\n3. \tKisah-kisah:\nKisah Nabi Musa dengan Fir\u2018aun, Kisah Nabi Ibrahim, Nabi Nuh, Nabi Hud, Nabi Saleh, dan Nabi Lut dengan kaum mereka masing-masing; serta kisah Nabi Syuaib dengan penduduk Aikah.\n4. \tLain-lain:\nKebinasaan suatu bangsa/umat karena meninggalkan petunjuk-petunjuk agama, tumbuh-tumbuhan yang beraneka ragam dan perubahan-perubahan yang terjadi atasnya adalah bukti kekuasaan Tuhan Yang Maha Esa. Petunjuk-petunjuk Allah bagi para pemimpin agar berlaku lemah-lembut terhadap pengikut mereka. Al-Qur\u2019an turun dalam bahasa Arab sebagaimana disebutkan dalam kitab-kitab suci terdahulu.",
        "outro_surah": null,
        "munasabah_prev_surah": "HUBUNGAN SURAH AL-FURQ\u0100N DENGAN\nSURAH ASY-SYU\u2019AR\u0100\u2019\n\n1. \tBeberapa persoalan dalam Surah al-Furq\u0101n diuraikan kembali secara luas dalam Surah asy-Syu\u2019ar\u0101\u2019 antara lain kisah para nabi.\n2. \tMasing-masing dari kedua surah itu dimulai dengan keterangan dari Allah bahwa Al-Qur\u2019an adalah petunjuk bagi manusia dan pembeda antara yang hak dengan yang batil dan ditutup dengan ancaman bagi orang yang mendustakan Allah.\n",
        "munasabah_prev_theme": "Pada ayat-ayat yang lalu, Allah mengisahkan Nabi Hud dengan kaum \u2018Ad. Mereka mendustakan dan mengingkari seruan Nabi Hud. Oleh karena itu, mereka ditimpa malapetaka yang dahsyat, sehingga mereka hancur-lebur semuanya, kecuali orang-orang yang beriman. Pada ayat-ayat ini dikisahkan pula Nabi Saleh dan kaum Samud. Sebagaimana kaum \u2018\u0100d mendustakan Nabi Hud, kaum Samud juga mendustakan Nabi Saleh. Akhirnya mereka ditimpa malapetaka yang dahsyat dan mereka hancur-lebur.\n",
        "theme_group": "KISAH NABI SALEH DAN KAUMNYA",
        "kosakata": "1. Ha\u1e0d\u012bm \u0647\u064e\u0636\u0650\u064a\u0652\u0645  (asy-Syu\u2019ar\u0101\u2019/26: 148)\nKata dengan huruf dasar ha\u2019, \u1e0dad, dan mim disebutkan dua kali dalam Al-Qur\u2019an. Pertama di Surah \u1e6c\u0101h\u0101/20: 112, dan kedua dalam ayat ini. Ha\u1e0d\u012bm merupakan kata sifat bagi a\u1e6d-\u1e6dal\u2019u sebelumnya. Kata terakhir ini berarti buah (al-\u1e61amar) atau mayang pohon kurma. Mayang atau buah kurma inilah yang disifati ha\u1e0d\u012bm untuk menggambarkan bahwa mayang atau buah pohon kurma yang mereka miliki terlihat lembut dan tersusun rapi. Kata ha\u1e0d\u012bm dengan arti lembut, sesuai dengan pendapat Imam Qat\u0101dah yang memaknainya dengan al-layyin (lembut).\n2. Tan\u1e25it\u016bn \u062a\u064e\u0646\u0652\u062d\u0650\u062a\u064f\u0648\u0652\u0646\u064e  (asy-Syu\u2019ar\u0101\u2019/26: 148)\nTan\u1e25it\u016bn merupakan fi\u2019il mu\u1e0d\u0101ri\u2019 dari na\u1e25ata-yan\u1e25itu-na\u1e25t(an) yang berarti mengukir atau memahat. Memahat merupakan keterampilan atau keahlian kaum Samud pada zamannya. Penggunaan fi\u2019il mu\u1e0d\u0101ri\u2019 dalam konteks menggambarkan keterampilan kaum Samud dalam hal memahat, untuk memperlihatkan bahwa mereka telah memiliki budaya memahat, terutama gunung-gunung batu untuk dijadikan sebagai rumah atau tempat tinggal. Mereka telah menguasai teknologi tepat guna dalam membangun rumah-rumah tempat tinggal dengan jalan memahat gunung-gunung batu, sesuai dengan perkembangan budaya mereka waktu itu.",
        "sabab_nuzul": null,
        "conclusion": null
    }
}