{
    "id": 3153,
    "surah_id": 26,
    "ayah": 221,
    "page": 376,
    "quarter_hizb": 38.25,
    "juz": 19,
    "manzil": 5,
    "arabic": "\u0647\u064e\u0644\u0652 \u0627\u064f\u0646\u064e\u0628\u0651\u0650\u0626\u064f\u0643\u064f\u0645\u0652 \u0639\u064e\u0644\u0670\u0649 \u0645\u064e\u0646\u0652 \u062a\u064e\u0646\u064e\u0632\u0651\u064e\u0644\u064f \u0627\u0644\u0634\u0651\u064e\u064a\u0670\u0637\u0650\u064a\u0652\u0646\u064f \u06d7  ",
    "latin": "Hal unabbi'ukum \u2018al\u0101 man tanazzalusy-syay\u0101\u1e6d\u012bn(u).",
    "translation": "Maukah Aku beritakan kepadamu, kepada siapa setan-setan itu turun?",
    "no_footnote": null,
    "footnotes": null,
    "surah": {
        "id": 26,
        "arabic": "\u0627\u0644\u0634\u0651\u0639\u0631\u0627\u06e4\u0621",
        "latin": "Asy-Syu\u2018ar\u0101'",
        "transliteration": "Asy-Syu\u2018ara'",
        "translation": "Para Penyair",
        "num_ayah": 227,
        "page": 367,
        "location": "Makkiyah"
    },
    "tafsir": {
        "wajiz": "Ayat-ayat berikut menjelaskan tentang orang-orang yang mendapat bisikan dari setan dan bekerja sama dengannya untuk menyesatkan manusia. Maukah Aku beritakan kepadamu, wahai orang kafir Mekah, kepada siapa setan-setan itu turun untuk membisikkan kabar bohongnya?",
        "tahlili": "Allah menerangkan kebiasaan dan kepercayaan bangsa Arab Jahiliah dengan bentuk pertanyaan kepada manusia sehingga mereka dapat menilai dengan membedakan antara kebenaran wahyu dan kedustaan tukang-tukang ramal. Pertanyaan itu ialah: Wahai manusia, apakah akan Aku nyatakan kepada kamu sekalian suatu berita yang bila kamu ketahui akan bermanfaat bagimu dan memurnikan ketaatan dan ketundukanmu kepada Allah, dalam menyelesaikan masalah-masalah dunia, dalam membedakan dan menilai kebenaran wali-wali Allah dan kawan-kawan setan dan kepada siapa setan itu pulang balik berusaha mencari-cari dan mendengarkan seruan suatu berita.\nKemudian Allah sendiri menjawab pertanyaan itu dengan menyatakan bagaimana setan-setan menyampaikan bisikan-bisikan kepada tukang ramal dan bagaimana tukang ramal menyampaikan bisikan itu kepada manusia yang datang kepadanya, yaitu:\n1. \tSetan-setan itu datang berulang-ulang kepada orang-orang yang suka berdusta, berbohong, banyak melakukan perbuatan dosa, dan mengaku sebagai tukang ramal. Kepada mereka, setan membisikkan pikiran-pikiran yang tidak ada artinya dan khayalan-khayalan yang pada umumnya tidak sesuai dengan kenyataan.\n2. \tSetan juga membisikkan kepada para peramal itu informasi yang dicarinya, kemudian mereka menyampaikan kepada orang-orang yang datang kepada mereka sebagai hasil ramalannya. Hasil ramalan itu diyakini sebagai suatu kebenaran oleh orang-orang yang percaya kepadanya.\n\nAyat-ayat ini seakan-akan menyuruh manusia membandingkan sendiri proses penyampaian wahyu kepada Nabi Muhammad dan isinya dengan proses penyampaian bisikan setan kepada tukang ramal, yang kemudian mereka sampaikan pula kepada orang-orang yang percaya kepada ramalan itu. Dengan membandingkan antara wahyu dan ramalan, mereka akan melihat dengan jelas perbedaannya.\nWahyu bukan sekadar bisikan-bisikan yang tidak ada maknanya, tetapi merupakan petunjuk bagi manusia yang ingin hidup bahagia di dunia dan akhirat. Wahyu dapat dibuktikan kebenarannya, baik dari sisi logika, budi pekerti yang mulia, maupun dari sisi adat kebiasaan, sedangkan ramalan tidak demikian. Ramalan tidak sama dengan akal pikiran yang benar, apalagi bila ditinjau dari sisi budi pekerti yang mulia dan adat kebiasaan yang baik. Yang menyampaikan wahyu Allah adalah Malaikat Jibril, dan penerimanya ialah Nabi Muhammad, orang yang dapat dipercaya dan dikenal berbudi pekerti yang baik. Adapun tukang-tukang ramal kebanyakan pendusta dan pembohong, tidak bermoral baik, dan tidak disukai masyarakat, mengaku dirinya sebagai tukang ramal setelah mendapatkan bisikan-bisikan setan.\nAyat ini menolak dakwaan orang-orang musyrik Mekah yang menuduh bahwa Al-Qur\u2019an yang diturunkan kepada Nabi Muhammad bukanlah sesuatu yang benar, tetapi berasal dari bisikan-bisikan setan. Allah membersihkan nama baik Rasul-Nya dari berbagai tuduhan yang mereka ada-adakan itu, dengan menyatakan bahwa Al-Qur\u2019an yang diturunkan kepada Muhammad adalah wahyu Allah yang disampaikan kepadanya dengan perantaraan malaikat Jibril, bukan dari setan.\nMendatangi para peramal termasuk adat kebiasaan dan kepercayaan orang-orang Arab Jahiliah. Biasanya mereka mendatangi para peramal untuk menanyakan sesuatu yang belum mereka ketahui, seperti tentang nasib di masa depan, jodoh putri mereka, perkiraan hasil usaha yang akan mereka usahakan, dan sebagainya. Di samping itu, para peramal kadang-kadang berfungsi sebagai seorang tabib yang mengobati segala macam penyakit. Apa yang diramalkan para peramal itu biasanya tidak benar. Apabila yang diramalkan itu benar-benar terjadi, itu hanyalah suatu kebetulan saja. Rasulullah telah mengingatkan bahwa mendatangi peramal merupakan perbuatan dosa, sebagaimana diungkapkan dalam sebuah hadis:\n\u0645\u064e\u0646\u0652 \u0627\u064e\u062a\u064e\u0649 \u0639\u064e\u0631\u0651\u064e\u0627\u0641\u064b\u0627 \u0641\u064e\u0633\u064e\u0623\u064e\u0644\u064e\u0647\u064f \u0639\u064e\u0646\u0652 \u0634\u064e\u064a\u0652\u0621\u064d \u0644\u064e\u0645\u0652 \u062a\u064f\u0642\u0652\u0628\u064e\u0644\u0652 \u0644\u064e\u0647\u064f \u0635\u064e\u0644\u0627\u064e\u0629 \u0623\u064e\u0631\u0652\u0628\u064e\u0639\u0650\u064a\u0652\u0646\u064e \u0644\u064e\u064a\u0652\u0644\u064e\u0629\u064b.(\u0631\u0648\u0627\u0647 \u0623\u062d\u0645\u062f \u0648 \u0645\u0633\u0644\u0645 \u0639\u0646 \u0635\u0641\u064a\u0651\u0629)\nBarang siapa mendatangi peramal dan menanyakan sesuatu, maka salatnya empat puluh malam tidak akan diterima (Riwayat A\u1e25mad dan Muslim dari \u1e60afiyyah).\n\nRiwayat lain menyebutkan:\n\u0645\u064e\u0646\u0652 \u0627\u064e\u062a\u064e\u0649 \u0639\u064e\u0631\u0651\u064e\u0627\u0641\u064b\u0627 \u0623\u064e\u0648\u0652 \u0643\u064e\u0627\u0647\u0650\u0646\u064b\u0627 \u0641\u064e\u0635\u064e\u062f\u0651\u064e\u0642\u064e\u0647\u064f \u0628\u0650\u0645\u064e\u0627 \u064a\u064e\u0642\u064f\u0648\u0652\u0644\u064f \u0641\u064e\u0642\u064e\u062f\u0652 \u0643\u064e\u0641\u064e\u0631\u064e \u0628\u0650\u0645\u064e\u0627\u064a\u064e\u0642\u064f\u0648\u0652\u0644\u064f \u0641\u064e\u0642\u064e\u062f\u0652 \u0643\u064e\u0641\u064e\u0631\u064e \u0628\u0650\u0645\u064e\u0627 \u0623\u064f\u0646\u0652\u0632\u0650\u0644\u064e \u0639\u064e\u0644\u064e\u0649 \u0645\u064f\u062d\u064e\u0645\u0651\u064e\u062f\u064d (\u0631\u0648\u0627\u0647 \u0623\u062d\u0645\u062f \u0648 \u0627\u0644\u062d\u0627\u0643\u0645 \u0639\u0646 \u0623\u0628\u0649 \u0647\u0631\u064a\u0631\u0629)\nBarang siapa mendatangi peramal atau dukun, dan dia mempercayai terhadap apa yang dikatakan, maka ia telah kafir terhadap apa yang diturunkan kepada Nabi Muhammad. (Riwayat A\u1e25mad dan al-\u1e24\u0101kim dari Ab\u016b Hurairah)\n",
        "intro_surah": "Surah ini terdiri dari 227 ayat, termasuk kelompok surah-surah Makkiyyah. Dinamakan asy-Syu\u2019ar\u0101\u2019 (kata jamak dari asy-sy\u0101\u2019ir yang berarti penyair) diambil dari kata \u201casy-Syu\u2019ar\u0101\u2019\u201d yang terdapat pada ayat 224, yaitu pada bagian terakhir surah ini, ketika Allah swt secara khusus menyebutkan kedudukan penyair-penyair. Para penyair itu mempunyai sifat-sifat yang jauh berbeda dengan rasul-rasul. Mereka diikuti oleh orang-orang yang sesat dan suka memutarbalikkan lidah serta tidak mempunyai pendirian, per-buatannya tidak sesuai dengan apa yang diucapkan. Sifat-sifat yang demikian itu tidaklah sekali-kali dimiliki para rasul. Oleh karena itu, tidak patut bila Nabi Muhammad dituduh sebagai penyair dan Al-Qur\u2019an dianggap sebagai syair. Al-Qur\u2019an adalah wahyu Allah bukan buatan manusia.\n\nPokok-pokok Isinya:\n1. \tKeimanan:\nJaminan Allah akan kemenangan perjuangan dan keselamatan para rasul-Nya. Al-Qur\u2019an benar-benar wahyu Allah yang diturunkan ke dunia melalui Malaikat Jibril a.s. (R\u016b\u1e25ul-Am\u012bn); hanya Allah yang wajib disembah.\n2. \tHukum-hukum:\nKeharusan menyempurnakan takaran dan timbangan, larangan mengubah syair yang berisi caci maki, khurafat, dan kebohongan.\n3. \tKisah-kisah:\nKisah Nabi Musa dengan Fir\u2018aun, Kisah Nabi Ibrahim, Nabi Nuh, Nabi Hud, Nabi Saleh, dan Nabi Lut dengan kaum mereka masing-masing; serta kisah Nabi Syuaib dengan penduduk Aikah.\n4. \tLain-lain:\nKebinasaan suatu bangsa/umat karena meninggalkan petunjuk-petunjuk agama, tumbuh-tumbuhan yang beraneka ragam dan perubahan-perubahan yang terjadi atasnya adalah bukti kekuasaan Tuhan Yang Maha Esa. Petunjuk-petunjuk Allah bagi para pemimpin agar berlaku lemah-lembut terhadap pengikut mereka. Al-Qur\u2019an turun dalam bahasa Arab sebagaimana disebutkan dalam kitab-kitab suci terdahulu.",
        "outro_surah": null,
        "munasabah_prev_surah": "HUBUNGAN SURAH AL-FURQ\u0100N DENGAN\nSURAH ASY-SYU\u2019AR\u0100\u2019\n\n1. \tBeberapa persoalan dalam Surah al-Furq\u0101n diuraikan kembali secara luas dalam Surah asy-Syu\u2019ar\u0101\u2019 antara lain kisah para nabi.\n2. \tMasing-masing dari kedua surah itu dimulai dengan keterangan dari Allah bahwa Al-Qur\u2019an adalah petunjuk bagi manusia dan pembeda antara yang hak dengan yang batil dan ditutup dengan ancaman bagi orang yang mendustakan Allah.\n",
        "munasabah_prev_theme": "Pada ayat-ayat yang lalu diterangkan bahwa Allah memerintahkan Rasulullah untuk tidak menyekutukan-Nya, menyeru kerabatnya, dan tetap tawakal jika mereka ingkar. Pada ayat-ayat berikut ini ditegaskan bahwa setan-setan turun kepada setiap pendusta, dan Al-Qur\u2019an tidak diturunkan kepada mereka, tetapi kepada Muhammad, Rasulullah.",
        "theme_group": "PERINGATAN KEPADA PARA PENYAIR",
        "kosakata": "1.\tAsy-Syu\u2019ar\u0101\u2019  \u0627\u064e\u0644\u0634\u0651\u064f\u0639\u064e\u0631\u064e\u0627\u0621\u064f (asy-Syu\u2019ar\u0101\u2019/26: 224)\nKata asy-syu\u2019ar\u0101\u2019 adalah jamak dari kata sy\u0101\u2019ir yang berarti penyair. Kata ini terambil dari kata sya\u2019ura-yasy\u2019uru-syu\u2019\u016br yang berarti mengetahui secara cermat. Ia bisa juga terambil dari kata sya\u2019run yang berarti rambut. Kata syi\u2019r (syair) secara harfiah berarti pengetahuan yang cermat atau detail. Secara terminologis berarti ucapan yang bersajak dan mengikuti pola tertentu. Seseorang disebut sy\u0101\u2019ir (penyair) karena ia mengetahui hal-hal yang detail secara cermat, lalu ia mengungkapkannya kepada orang lain. Kata sya\u2019\u0101ir berarti tempat ibadah atau tanda dalam haji dan hewan kurban yang dibawa ke Baitul Haram. Hewan ini disebut demikian karena dihilangkan sebagian rambutnya pada tempat penyembelihannya. Adapun maksud kata syu\u2019ar\u0101\u2019 di dalam ayat ini adalah para penyair yang kebanyakan di antara mereka mengumbar kata-kata bohong, dan biasanya perkataan mereka itu diikuti oleh orang-orang yang sesat.\n2.\tYah\u012bm\u016bn \u064a\u064e\u0647\u0650\u064a\u0652\u0645\u064f\u0648\u0652\u0646\u064e (asy-Syu\u2019ar\u0101\u2019/26: 225)\n Kata yah\u012bm\u016bn terbentuk dari kata h\u0101ma-yah\u012bmu-haimanah. Ia terambil dari kata al-huyam yang berarti gila. Kata hayyim dan mahyum berarti unta yang terkena penyakit di kepalanya. Kata al-h\u0101\u2019im berarti orang yang linglung. Jadi, kata h\u0101ma ar-rajul berarti orang itu pergi tanpa tujuan seperti orang yang linglung. Dalam ayat ini, kata ini dijadikan Allah sebagai perumpamaan tentang kepandaian mereka untuk memuji suatu kaum dengan ucapan yang tidak benar, dan mengecam kaum lain dengan ucapan bohong dan palsu. Ibnu \u2018Abb\u0101s berkata, \u201cMaksudnya, mereka tenggelam dalam setiap perkara lagwu (sia-sia).\u201d ",
        "sabab_nuzul": null,
        "conclusion": null
    }
}