{
    "id": 3143,
    "surah_id": 26,
    "ayah": 211,
    "page": 376,
    "quarter_hizb": 38.25,
    "juz": 19,
    "manzil": 5,
    "arabic": "\u0648\u064e\u0645\u064e\u0627 \u064a\u064e\u0646\u0652\u06e2\u0628\u064e\u063a\u0650\u064a\u0652 \u0644\u064e\u0647\u064f\u0645\u0652 \u0648\u064e\u0645\u064e\u0627 \u064a\u064e\u0633\u0652\u062a\u064e\u0637\u0650\u064a\u0652\u0639\u064f\u0648\u0652\u0646\u064e \u06d7  ",
    "latin": "Wa m\u0101 yambag\u012b lahum wa m\u0101 yasta\u1e6d\u012b\u2018\u016bn(a).",
    "translation": "Tidaklah pantas bagi mereka (membawa turun Al-Qur\u2019an itu) dan mereka pun tidak akan sanggup.",
    "no_footnote": null,
    "footnotes": null,
    "surah": {
        "id": 26,
        "arabic": "\u0627\u0644\u0634\u0651\u0639\u0631\u0627\u06e4\u0621",
        "latin": "Asy-Syu\u2018ar\u0101'",
        "transliteration": "Asy-Syu\u2018ara'",
        "translation": "Para Penyair",
        "num_ayah": 227,
        "page": 367,
        "location": "Makkiyah"
    },
    "tafsir": {
        "wajiz": "Dan tidaklah pantas bagi mereka Al-Qur\u2019an itu karena hal-hal yang disebutkan di atas dan mereka pun tidak akan sanggup melakukan hal itu, karena Al-Qur\u2019an mempunyai banyak keistimewaan, baik dari segi redaksi maupun isinya, yang tidak akan bisa tertandingi oleh siapa pun (Lihat: Surah al-Isra/17: 88).",
        "tahlili": "Ayat ini membantah tuduhan-tuduhan orang-orang musyrik Mekah yang mengatakan bahwa Nabi Muhammad adalah seorang tukang sihir dan tukang ramal. Allah mengatakan bahwa Al-Qur\u2019an bukanlah ramalan atau sihir yang berasal dari setan yang menerima dan mendengar ucapan malaikat ketika sedang menyampaikan wahyu Allah kepada Rasulullah.\nAda tiga hal yang menunjukkan bahwa Al-Qur\u2019an bukan berasal dari setan, yaitu:\n1. \tIsi Al-Qur\u2019an bertentangan dengan kehendak setan. Kalau setan berusaha agar manusia mengerjakan perbuatan-perbuatan yang akan menjauhkan mereka dari petunjuk Allah, adapun Al-Qur\u2019an memerintahkan manusia mengerjakan perbuatan yang makruf dan mencegah yang mungkar.\n2. \tSetan sendiri tidak mau menerima Al-Qur\u2019an, apalagi menyampaikannya kepada orang lain.\n3. \tSetan dijauhkan dari  mendengar Al-Qur\u2019an yang disampaikan Malaikat Jibril kepada Muhammad, atau mendengarkan Al-Qur\u2019an yang sedang dibaca hamba Allah karena Al-Qur\u2019an dijaga Allah dari setan.\n",
        "intro_surah": "Surah ini terdiri dari 227 ayat, termasuk kelompok surah-surah Makkiyyah. Dinamakan asy-Syu\u2019ar\u0101\u2019 (kata jamak dari asy-sy\u0101\u2019ir yang berarti penyair) diambil dari kata \u201casy-Syu\u2019ar\u0101\u2019\u201d yang terdapat pada ayat 224, yaitu pada bagian terakhir surah ini, ketika Allah swt secara khusus menyebutkan kedudukan penyair-penyair. Para penyair itu mempunyai sifat-sifat yang jauh berbeda dengan rasul-rasul. Mereka diikuti oleh orang-orang yang sesat dan suka memutarbalikkan lidah serta tidak mempunyai pendirian, per-buatannya tidak sesuai dengan apa yang diucapkan. Sifat-sifat yang demikian itu tidaklah sekali-kali dimiliki para rasul. Oleh karena itu, tidak patut bila Nabi Muhammad dituduh sebagai penyair dan Al-Qur\u2019an dianggap sebagai syair. Al-Qur\u2019an adalah wahyu Allah bukan buatan manusia.\n\nPokok-pokok Isinya:\n1. \tKeimanan:\nJaminan Allah akan kemenangan perjuangan dan keselamatan para rasul-Nya. Al-Qur\u2019an benar-benar wahyu Allah yang diturunkan ke dunia melalui Malaikat Jibril a.s. (R\u016b\u1e25ul-Am\u012bn); hanya Allah yang wajib disembah.\n2. \tHukum-hukum:\nKeharusan menyempurnakan takaran dan timbangan, larangan mengubah syair yang berisi caci maki, khurafat, dan kebohongan.\n3. \tKisah-kisah:\nKisah Nabi Musa dengan Fir\u2018aun, Kisah Nabi Ibrahim, Nabi Nuh, Nabi Hud, Nabi Saleh, dan Nabi Lut dengan kaum mereka masing-masing; serta kisah Nabi Syuaib dengan penduduk Aikah.\n4. \tLain-lain:\nKebinasaan suatu bangsa/umat karena meninggalkan petunjuk-petunjuk agama, tumbuh-tumbuhan yang beraneka ragam dan perubahan-perubahan yang terjadi atasnya adalah bukti kekuasaan Tuhan Yang Maha Esa. Petunjuk-petunjuk Allah bagi para pemimpin agar berlaku lemah-lembut terhadap pengikut mereka. Al-Qur\u2019an turun dalam bahasa Arab sebagaimana disebutkan dalam kitab-kitab suci terdahulu.",
        "outro_surah": null,
        "munasabah_prev_surah": "HUBUNGAN SURAH AL-FURQ\u0100N DENGAN\nSURAH ASY-SYU\u2019AR\u0100\u2019\n\n1. \tBeberapa persoalan dalam Surah al-Furq\u0101n diuraikan kembali secara luas dalam Surah asy-Syu\u2019ar\u0101\u2019 antara lain kisah para nabi.\n2. \tMasing-masing dari kedua surah itu dimulai dengan keterangan dari Allah bahwa Al-Qur\u2019an adalah petunjuk bagi manusia dan pembeda antara yang hak dengan yang batil dan ditutup dengan ancaman bagi orang yang mendustakan Allah.\n",
        "munasabah_prev_theme": "Pada ayat yang lalu ditegaskan bahwa Al-Qur\u2019an adalah benar-benar bersumber dari Allah, dan orang-orang yang tidak meyakininya akan diazab. Pada ayat-ayat berikut ini dijelaskan bahwa orang-orang yang tidak mem-perhatikan peringatan Allah niscaya akan menerima azab meskipun kedatangannya ditangguhkan. Allah menegaskan bahwa tidak ada satu umat pun yang dibinasakan kecuali telah datang kepada mereka orang-orang yang membawa peringatan dan mereka menolaknya.",
        "theme_group": "AZAB BAGI ORANG YANG MENGINGKARI\nPERINGATAN ALLAH",
        "kosakata": "Kosakata: Lama\u2019z\u016bl\u016bn \u0644\u064e\u0645\u064e\u0639\u0652\u0632\u064f\u0648\u0652\u0644\u064f\u0648\u0652\u0646\u064e (asy-Syu\u2019ar\u0101\u2019/26: 212)\nKata ma\u2019z\u016bl\u016bn adalah isim maf\u2019\u016bl yang berarti dijauhkan, diambil dari fi\u2019il \u2018azala-ya\u2019zilu-\u2019azlan yang berarti memisahkan. Lam adalah \u1e25arf tauk\u012bd, sehingga makna lama\u2019z\u016bl\u016bn adalah benar-benar dijauhkan atau dipisahkan. Maksud kata lama\u2019z\u016bl\u016bn dalam Surah asy-Syu\u2019ar\u0101\u2019/26: 212 di atas adalah bahwa setan berbentuk manusia atau jin dijauhkan dari ikut campur tangan terhadap Al-Qur\u2019an karena adanya pemeliharaan dari Allah. Dengan demikian, Al-Qur\u2019an tidak tersentuh oleh kesesatan dan kesalahan, atau campur tangan setan dan manusia.",
        "sabab_nuzul": null,
        "conclusion": null
    }
}