{
    "id": 3172,
    "surah_id": 27,
    "ayah": 13,
    "page": 377,
    "quarter_hizb": 38.5,
    "juz": 19,
    "manzil": 5,
    "arabic": "\u0641\u064e\u0644\u064e\u0645\u0651\u064e\u0627 \u062c\u064e\u0627\u06e4\u0621\u064e\u062a\u0652\u0647\u064f\u0645\u0652 \u0627\u0670\u064a\u0670\u062a\u064f\u0646\u064e\u0627 \u0645\u064f\u0628\u0652\u0635\u0650\u0631\u064e\u0629\u064b \u0642\u064e\u0627\u0644\u064f\u0648\u0652\u0627 \u0647\u0670\u0630\u064e\u0627 \u0633\u0650\u062d\u0652\u0631\u064c \u0645\u0651\u064f\u0628\u0650\u064a\u0652\u0646\u064c \u06da  ",
    "latin": "Falamm\u0101 j\u0101'athum \u0101y\u0101tun\u0101 mub\u1e63iratan q\u0101l\u016b h\u0101\u017c\u0101 si\u1e25rum mub\u012bn(un).",
    "translation": "Ketika mukjizat-mukjizat Kami yang terang itu sampai kepada mereka, mereka berkata, \u201cIni sihir yang nyata.\u201d",
    "no_footnote": null,
    "footnotes": null,
    "surah": {
        "id": 27,
        "arabic": "\u0627\u0644\u0646\u0651\u0645\u0644",
        "latin": "An-Naml",
        "transliteration": "An-Naml",
        "translation": "Semut",
        "num_ayah": 93,
        "page": 377,
        "location": "Makkiyah"
    },
    "tafsir": {
        "wajiz": "Banyaknya kemukjizatan Nabi Musa tidak menyebabkan mereka sadar akan kekeliruan mereka, malah mereka bertambah angkuh dan sombong. Maka ketika mukjizat-mukjizat Kami yang terang benderang dan tidak terbantahkan itu sampai kepada mereka, Fir\u2019aun dan pengikutnya berkata dengan nada sinis dan mengejek, \u201cIni sihir yang nyata.\u201d Mereka berkata demikian karena perilaku sihir sudah menjadi bagian dari kehidupan mereka saat itu.",
        "tahlili": "Ketika Musa berhadapan dengannya, Fir\u2018aun mengaku bahwa dirinya adalah tuhan. Fir\u2018aun minta bukti kepada Musa bahwa ia benar-benar utusan Allah. Musa sebagai utusan Allah memberi bukti dengan melempar-kan tongkatnya yang kemudian menjadi ular yang bergerak dengan gesit, kemudian memasukkan tangannya ke ketiaknya melalui belahan leher bajunya, lalu dikeluarkan maka tangannya menjadi putih bersinar cemerlang bagi orang-orang yang melihatnya. Ayat ini menjelaskan bahwa kedua bukti di atas sangat jelas menjadi saksi nyata bahwa Musa benar-benar utusan Allah. Akan tetapi, mereka mengingkari bukti-bukti tersebut dan berkata bahwa hal itu adalah sihir semata.",
        "intro_surah": "Surah an-Naml terdiri dari 93 ayat, termasuk kelompok surah Makkiyyah dan diturunkan sesudah surah asy-Syu\u2019ar\u0101\u2019. Dinamai dengan an-Naml karena pada ayat 18 dan 19 terdapat perkataan an-naml (semut), di mana raja semut mengatakan kepada anak buahnya, agar masuk ke sarangnya masing-masing supaya jangan terinjak oleh Nabi Sulaiman dan tentaranya yang akan melalui tempat itu. Mendengar perintah raja semut kepada anak buahnya, Nabi Sulaiman tersenyum dan takjub atas keteraturan, keharmonisan, dan kedisiplinan kerajaan semut itu. Beliau mengucapkan syukur kepada Allah Yang Mahakuasa yang telah melimpahkan rahmat dan nikmat-Nya kepadanya berupa kerajaan, kekayaan, memahami ucapan-ucapan binatang, mempunyai tentara yang terdiri atas jin, manusia, dan burung, serta berbagai karunia lainnya. Nabi Sulaiman yang telah diberi Allah hikmah yang besar itu tidak merasa takabur dan sombong, sebagai seorang hamba Allah, mohon agar Allah memasukkannya ke dalam kelompok orang-orang yang saleh.\nAllah menceritakan tentang semut dalam surah ini, agar manusia mengambil pelajaran dari kehidupannya. Semut adalah binatang yang hidup berkelompok di dalam tanah, membuat liang dan ruang yang bertingkat-tingkat sebagai rumah dan gudang tempat menyimpan makanan sebagai persiapan menghadapi musim dingin. Rakyat semut mempunyai organisasi dan kerja sama yang baik. Kerapian dan kedisiplinan yang terdapat dalam kerajaan semut ini, dinyatakan Allah dalam ayat ini dengan menerangkan bagaimana rakyat semut mencari perlindungan dengan segera agar jangan terinjak oleh Nabi Sulaiman dan tentaranya, setelah menerima peringatan dari rajanya.\nSecara tidak langsung, Allah mengingatkan manusia agar berusaha untuk mencukupi kebutuhan sehari-hari, kemaslahatan bersama, dan sebagainya. Dengan mengisahkan Nabi Sulaiman dalam surah ini, Allah mengisyaratkan hari depan dan kebesaran Nabi Muhammad. Sebagaimana Nabi Sulaiman sebagai seorang nabi, rasul, dan raja yang dianugerahi kerajaan yang besar, begitu pula Nabi Muhammad sebagai seorang nabi, rasul, dan kepala negara yang ummi dan miskin akan berhasil membawa dan memimpin umatnya ke jalan Allah.\n\nPokok-pokok Isinya\n1.\tKeimanan:\nAl-Qur\u2019an adalah petunjuk dan rahmat bagi orang-orang yang mukmin. Keesaan dan kekuasaan Allah yang tidak memerlukan sekutu-sekutu dalam mengatur alam ini; hanya Allah-lah yang tahu tentang hal-hal yang gaib, adanya hari kebangkitan bukanlah suatu dongengan.\n2. \tKisah-kisah:\n\tKisah Nabi Musa, kisah Nabi Sulaiman dengan semut, burung hud-hud, dan Ratu Saba\u2019; kisah Nabi Saleh dengan kaumnya; kisah Nabi Lut dengan kaumnya.\n3. \tLain-lain:\nCiri-ciri orang-orang mukmin; Al-Qur\u2019an menjelaskan apa yang diperselisihkan Bani Israil; hanya orang-orang mukmin yang dapat menerima petunjuk dari kejadian-kejadian sebelum datangnya hari Kiamat dan keadaan orang-orang yang beriman waktu itu; Allah menyuruh Nabi Muhammad dan umatnya memuji dan menyembah Allah saja dan membaca Al-Qur\u2019an, Allah akan memperlihatkan kepada kaum musyrikin akan kebenaran ayat-ayat-Nya.\nSurah an-Naml terdiri dari 93 ayat, termasuk kelompok surah Makkiyyah dan diturunkan sesudah surah asy-Syu\u2019ar\u0101\u2019. Dinamai dengan an-Naml karena pada ayat 18 dan 19 terdapat perkataan an-naml (semut), di mana raja semut mengatakan kepada anak buahnya, agar masuk ke sarangnya masing-masing supaya jangan terinjak oleh Nabi Sulaiman dan tentaranya yang akan melalui tempat itu. Mendengar perintah raja semut kepada anak buahnya, Nabi Sulaiman tersenyum dan takjub atas keteraturan, keharmonisan, dan kedisiplinan kerajaan semut itu. Beliau mengucapkan syukur kepada Allah Yang Mahakuasa yang telah melimpahkan rahmat dan nikmat-Nya kepadanya berupa kerajaan, kekayaan, memahami ucapan-ucapan binatang, mempunyai tentara yang terdiri atas jin, manusia, dan burung, serta berbagai karunia lainnya. Nabi Sulaiman yang telah diberi Allah hikmah yang besar itu tidak merasa takabur dan sombong, sebagai seorang hamba Allah, mohon agar Allah memasukkannya ke dalam kelompok orang-orang yang saleh.\nAllah menceritakan tentang semut dalam surah ini, agar manusia mengambil pelajaran dari kehidupannya. Semut adalah binatang yang hidup berkelompok di dalam tanah, membuat liang dan ruang yang bertingkat-tingkat sebagai rumah dan gudang tempat menyimpan makanan sebagai persiapan menghadapi musim dingin. Rakyat semut mempunyai organisasi dan kerja sama yang baik. Kerapian dan kedisiplinan yang terdapat dalam kerajaan semut ini, dinyatakan Allah dalam ayat ini dengan menerangkan bagaimana rakyat semut mencari perlindungan dengan segera agar jangan terinjak oleh Nabi Sulaiman dan tentaranya, setelah menerima peringatan dari rajanya.\nSecara tidak langsung, Allah mengingatkan manusia agar berusaha untuk mencukupi kebutuhan sehari-hari, kemaslahatan bersama, dan sebagainya. Dengan mengisahkan Nabi Sulaiman dalam surah ini, Allah mengisyaratkan hari depan dan kebesaran Nabi Muhammad. Sebagaimana Nabi Sulaiman sebagai seorang nabi, rasul, dan raja yang dianugerahi kerajaan yang besar, begitu pula Nabi Muhammad sebagai seorang nabi, rasul, dan kepala negara yang ummi dan miskin akan berhasil membawa dan memimpin umatnya ke jalan Allah.\n\nPokok-pokok Isinya\n1.\tKeimanan:\nAl-Qur\u2019an adalah petunjuk dan rahmat bagi orang-orang yang mukmin. Keesaan dan kekuasaan Allah yang tidak memerlukan sekutu-sekutu dalam mengatur alam ini; hanya Allah-lah yang tahu tentang hal-hal yang gaib, adanya hari kebangkitan bukanlah suatu dongengan.\n2. \tKisah-kisah:\n\tKisah Nabi Musa, kisah Nabi Sulaiman dengan semut, burung hud-hud, dan Ratu Saba\u2019; kisah Nabi Saleh dengan kaumnya; kisah Nabi Lut dengan kaumnya.\n3. \tLain-lain:\nCiri-ciri orang-orang mukmin; Al-Qur\u2019an menjelaskan apa yang diperselisihkan Bani Israil; hanya orang-orang mukmin yang dapat menerima petunjuk dari kejadian-kejadian sebelum datangnya hari Kiamat dan keadaan orang-orang yang beriman waktu itu; Allah menyuruh Nabi Muhammad dan umatnya memuji dan menyembah Allah saja dan membaca Al-Qur\u2019an, Allah akan memperlihatkan kepada kaum musyrikin akan kebenaran ayat-ayat-Nya.\n",
        "outro_surah": null,
        "munasabah_prev_surah": "HUBUNGAN SURAH ASY-SYU\u2019AR\u0100\u2019\nDENGAN SURAH AN-NAML\n\n1. \tSurah an-Naml melengkapi Surah asy-Syu\u2019ar\u0101\u2019 dengan menambahkan ke dalamnya kisah nabi-nabi yang tidak terdapat dalam Surah asy-Syu\u2019ar\u0101\u2019 yaitu kisah Nabi Daud dan Nabi Sulaiman.\n2. \tPada Surah an-Naml terdapat tambahan-tambahan uraian mengenai kisah Nabi Lut dan Nabi Musa yang sudah dikisahkan dalam Surah Asy Syu\u2019ar\u0101\u2019.\n3. \tMasing-masing dari kedua surah ini memuat sifat-sifat Al-Qur\u2019an dan menerangkan bahwa Al-Qur\u2019an benar-benar diturunkan dari sisi Allah.\n4. \tKedua surah ini sama-sama menghibur hati Nabi Muhammad saw yang mengalami bermacam-macam penderitaan dan permusuhan dari kaumnya.",
        "munasabah_prev_theme": "Pada ayat yang lalu, Allah menerangkan bahwa Musa telah diberi dua dari sembilan mukjizat yang akan diberikan-Nya. Dengan dua mukjizat itu, Musa diperintahkan menghadapi Fir\u2018aun dan kaumnya. Pada ayat-ayat berikut ini, Allah menerangkan sikap dan tingkah laku Fir\u2018aun beserta kaumnya, sewaktu Musa datang untuk mengajak mereka beriman kepada Allah. Musa datang dengan membawa bukti-bukti berupa mukjizat yang membenarkan kerasulannya.",
        "theme_group": "KESOMBONGAN Fir\u2018aun",
        "kosakata": "Kosakata: Istaiqanath\u0101  \u0625\u0650\u0633\u0652\u062a\u064e\u064a\u0652\u0642\u064e\u0646\u064e\u062a\u0652\u0647\u064e\u0627 (an-Naml/27: 14) \nKata istaiqana terambil dari kata aiqana yang kata dasarnya adalah yaqana berarti mengetahui sesuatu dengan pasti dan nyata. Kata yaq\u012bn merupakan tingkatan tertinggi dari sifat mengetahui selain kata ma\u2019rifah. Kata yaq\u012bn menunjukkan kepada pengetahuan yang mendalam dan kepastian yang jelas serta mantap. Ayat ini menjelaskan tentang sikap dan keyakinan Fir\u2018aun bersama kaumnya ketika menyaksikan apa yang diperlihatkan Musa dengan mukjizatnya. Dalam hati kecil mereka sebetulnya terdapat \u201ckeyakinan yang kuat\u201d bahwa apa yang dibawa oleh Musa adalah suatu kebenaran dari Allah, tetapi kesombongan dan keangkuhan sifat mereka menutupi keyakinan itu. Mereka enggan untuk mengakui kebenaran risalah Musa. ",
        "sabab_nuzul": null,
        "conclusion": null
    }
}