{
    "id": 3165,
    "surah_id": 27,
    "ayah": 6,
    "page": 377,
    "quarter_hizb": 38.5,
    "juz": 19,
    "manzil": 5,
    "arabic": "\u0648\u064e\u0627\u0650\u0646\u0651\u064e\u0643\u064e \u0644\u064e\u062a\u064f\u0644\u064e\u0642\u0651\u064e\u0649 \u0627\u0644\u0652\u0642\u064f\u0631\u0652\u0627\u0670\u0646\u064e \u0645\u0650\u0646\u0652 \u0644\u0651\u064e\u062f\u064f\u0646\u0652 \u062d\u064e\u0643\u0650\u064a\u0652\u0645\u064d \u0639\u064e\u0644\u0650\u064a\u0652\u0645\u064d ",
    "latin": "Wa innaka latulaqqal-qur'\u0101na mil ladun \u1e25ak\u012bmin \u2018al\u012bm(in).",
    "translation": "Sesungguhnya engkau (Nabi Muhammad) benar-benar telah diberi Al-Qur\u2019an dari sisi (Allah) Yang Maha Bijaksana lagi Maha Mengetahui.",
    "no_footnote": null,
    "footnotes": null,
    "surah": {
        "id": 27,
        "arabic": "\u0627\u0644\u0646\u0651\u0645\u0644",
        "latin": "An-Naml",
        "transliteration": "An-Naml",
        "translation": "Semut",
        "num_ayah": 93,
        "page": 377,
        "location": "Makkiyah"
    },
    "tafsir": {
        "wajiz": "Setelah menjelaskan kedudukan dan fungsi Al-Qur\u2019an, ayat ini menjelaskan tentang pembawa Al-Qur\u2019an yaitu Nabi Muhammad. Dan sesungguhnya engkau wahai Rasul benar-benar telah diberi Al-Qur\u2019an dari sisi Allah Yang Mahabijaksana, Maha Mengetahui atas segala sesuatu.",
        "tahlili": "Dalam ayat ini, Allah berfirman kepada Nabi Muhammad untuk memberitahukan bahwa Al-Qur\u2019an diturunkan kepada beliau dengan perantaraan Malaikat Jibril untuk dipahami, dihafal, dan diajarkan kepada umatnya serta dilaksanakan ajaran-ajaran yang ada di dalamnya. Al-Qur\u2019an bukanlah ciptaan Nabi ditegaskan dalam firman-Nya:\n\u0648\u064e\u0627\u0644\u0646\u0651\u064e\u062c\u0652\u0645\u0650 \u0627\u0650\u0630\u064e\u0627 \u0647\u064e\u0648\u0670\u0649\u06d9 \u0661 \u0645\u064e\u0627 \u0636\u064e\u0644\u0651\u064e \u0635\u064e\u0627\u062d\u0650\u0628\u064f\u0643\u064f\u0645\u0652 \u0648\u064e\u0645\u064e\u0627 \u063a\u064e\u0648\u0670\u0649\u06da \u0662 \u0648\u064e\u0645\u064e\u0627 \u064a\u064e\u0646\u0652\u0637\u0650\u0642\u064f \u0639\u064e\u0646\u0650 \u0627\u0644\u0652\u0647\u064e\u0648\u0670\u0649 \u0663 \u0627\u0650\u0646\u0652 \u0647\u064f\u0648\u064e \u0627\u0650\u0644\u0651\u064e\u0627 \u0648\u064e\u062d\u0652\u064a\u064c \u064a\u0651\u064f\u0648\u0652\u062d\u0670\u0649\u06d9 \u0664 \u0639\u064e\u0644\u0651\u064e\u0645\u064e\u0647\u0657 \u0634\u064e\u062f\u0650\u064a\u0652\u062f\u064f \u0627\u0644\u0652\u0642\u064f\u0648\u0670\u0649\u06d9 \u0665\nDemi bintang ketika terbenam, kawanmu (Muhammad) tidak sesat dan tidak (pula) keliru, dan tidaklah yang diucapkannya itu (Al-Qur\u2019an) menurut keinginannya. Tidak lain (Al-Qur\u2019an itu) adalah wahyu yang diwahyukan (kepadanya), yang diajarkan kepadanya oleh (Jibril) yang sangat kuat. (an-Najm/53: 1-5).\n\nJelaslah bahwa Al-Qur\u2019an dari Allah Yang Mahabijaksana dalam segala tindakan terhadap makhluk-Nya, Maha Mengetahui keadaan mereka dan apa-apa yang baik bagi mereka. Beritanya adalah benar dan hukum-Nya adalah adil, sebagaimana Allah telah berfirman:\n\u0648\u064e\u062a\u064e\u0645\u0651\u064e\u062a\u0652 \u0643\u064e\u0644\u0650\u0645\u064e\u062a\u064f \u0631\u064e\u0628\u0651\u0650\u0643\u064e \u0635\u0650\u062f\u0652\u0642\u064b\u0627 \u0648\u0651\u064e\u0639\u064e\u062f\u0652\u0644\u064b\u0627\nDan telah sempurna firman Tuhanmu (Al-Qur\u2019an) dengan benar dan adil. (al-An\u2018\u0101m/6: 115).",
        "intro_surah": "Surah an-Naml terdiri dari 93 ayat, termasuk kelompok surah Makkiyyah dan diturunkan sesudah surah asy-Syu\u2019ar\u0101\u2019. Dinamai dengan an-Naml karena pada ayat 18 dan 19 terdapat perkataan an-naml (semut), di mana raja semut mengatakan kepada anak buahnya, agar masuk ke sarangnya masing-masing supaya jangan terinjak oleh Nabi Sulaiman dan tentaranya yang akan melalui tempat itu. Mendengar perintah raja semut kepada anak buahnya, Nabi Sulaiman tersenyum dan takjub atas keteraturan, keharmonisan, dan kedisiplinan kerajaan semut itu. Beliau mengucapkan syukur kepada Allah Yang Mahakuasa yang telah melimpahkan rahmat dan nikmat-Nya kepadanya berupa kerajaan, kekayaan, memahami ucapan-ucapan binatang, mempunyai tentara yang terdiri atas jin, manusia, dan burung, serta berbagai karunia lainnya. Nabi Sulaiman yang telah diberi Allah hikmah yang besar itu tidak merasa takabur dan sombong, sebagai seorang hamba Allah, mohon agar Allah memasukkannya ke dalam kelompok orang-orang yang saleh.\nAllah menceritakan tentang semut dalam surah ini, agar manusia mengambil pelajaran dari kehidupannya. Semut adalah binatang yang hidup berkelompok di dalam tanah, membuat liang dan ruang yang bertingkat-tingkat sebagai rumah dan gudang tempat menyimpan makanan sebagai persiapan menghadapi musim dingin. Rakyat semut mempunyai organisasi dan kerja sama yang baik. Kerapian dan kedisiplinan yang terdapat dalam kerajaan semut ini, dinyatakan Allah dalam ayat ini dengan menerangkan bagaimana rakyat semut mencari perlindungan dengan segera agar jangan terinjak oleh Nabi Sulaiman dan tentaranya, setelah menerima peringatan dari rajanya.\nSecara tidak langsung, Allah mengingatkan manusia agar berusaha untuk mencukupi kebutuhan sehari-hari, kemaslahatan bersama, dan sebagainya. Dengan mengisahkan Nabi Sulaiman dalam surah ini, Allah mengisyaratkan hari depan dan kebesaran Nabi Muhammad. Sebagaimana Nabi Sulaiman sebagai seorang nabi, rasul, dan raja yang dianugerahi kerajaan yang besar, begitu pula Nabi Muhammad sebagai seorang nabi, rasul, dan kepala negara yang ummi dan miskin akan berhasil membawa dan memimpin umatnya ke jalan Allah.\n\nPokok-pokok Isinya\n1.\tKeimanan:\nAl-Qur\u2019an adalah petunjuk dan rahmat bagi orang-orang yang mukmin. Keesaan dan kekuasaan Allah yang tidak memerlukan sekutu-sekutu dalam mengatur alam ini; hanya Allah-lah yang tahu tentang hal-hal yang gaib, adanya hari kebangkitan bukanlah suatu dongengan.\n2. \tKisah-kisah:\n\tKisah Nabi Musa, kisah Nabi Sulaiman dengan semut, burung hud-hud, dan Ratu Saba\u2019; kisah Nabi Saleh dengan kaumnya; kisah Nabi Lut dengan kaumnya.\n3. \tLain-lain:\nCiri-ciri orang-orang mukmin; Al-Qur\u2019an menjelaskan apa yang diperselisihkan Bani Israil; hanya orang-orang mukmin yang dapat menerima petunjuk dari kejadian-kejadian sebelum datangnya hari Kiamat dan keadaan orang-orang yang beriman waktu itu; Allah menyuruh Nabi Muhammad dan umatnya memuji dan menyembah Allah saja dan membaca Al-Qur\u2019an, Allah akan memperlihatkan kepada kaum musyrikin akan kebenaran ayat-ayat-Nya.\nSurah an-Naml terdiri dari 93 ayat, termasuk kelompok surah Makkiyyah dan diturunkan sesudah surah asy-Syu\u2019ar\u0101\u2019. Dinamai dengan an-Naml karena pada ayat 18 dan 19 terdapat perkataan an-naml (semut), di mana raja semut mengatakan kepada anak buahnya, agar masuk ke sarangnya masing-masing supaya jangan terinjak oleh Nabi Sulaiman dan tentaranya yang akan melalui tempat itu. Mendengar perintah raja semut kepada anak buahnya, Nabi Sulaiman tersenyum dan takjub atas keteraturan, keharmonisan, dan kedisiplinan kerajaan semut itu. Beliau mengucapkan syukur kepada Allah Yang Mahakuasa yang telah melimpahkan rahmat dan nikmat-Nya kepadanya berupa kerajaan, kekayaan, memahami ucapan-ucapan binatang, mempunyai tentara yang terdiri atas jin, manusia, dan burung, serta berbagai karunia lainnya. Nabi Sulaiman yang telah diberi Allah hikmah yang besar itu tidak merasa takabur dan sombong, sebagai seorang hamba Allah, mohon agar Allah memasukkannya ke dalam kelompok orang-orang yang saleh.\nAllah menceritakan tentang semut dalam surah ini, agar manusia mengambil pelajaran dari kehidupannya. Semut adalah binatang yang hidup berkelompok di dalam tanah, membuat liang dan ruang yang bertingkat-tingkat sebagai rumah dan gudang tempat menyimpan makanan sebagai persiapan menghadapi musim dingin. Rakyat semut mempunyai organisasi dan kerja sama yang baik. Kerapian dan kedisiplinan yang terdapat dalam kerajaan semut ini, dinyatakan Allah dalam ayat ini dengan menerangkan bagaimana rakyat semut mencari perlindungan dengan segera agar jangan terinjak oleh Nabi Sulaiman dan tentaranya, setelah menerima peringatan dari rajanya.\nSecara tidak langsung, Allah mengingatkan manusia agar berusaha untuk mencukupi kebutuhan sehari-hari, kemaslahatan bersama, dan sebagainya. Dengan mengisahkan Nabi Sulaiman dalam surah ini, Allah mengisyaratkan hari depan dan kebesaran Nabi Muhammad. Sebagaimana Nabi Sulaiman sebagai seorang nabi, rasul, dan raja yang dianugerahi kerajaan yang besar, begitu pula Nabi Muhammad sebagai seorang nabi, rasul, dan kepala negara yang ummi dan miskin akan berhasil membawa dan memimpin umatnya ke jalan Allah.\n\nPokok-pokok Isinya\n1.\tKeimanan:\nAl-Qur\u2019an adalah petunjuk dan rahmat bagi orang-orang yang mukmin. Keesaan dan kekuasaan Allah yang tidak memerlukan sekutu-sekutu dalam mengatur alam ini; hanya Allah-lah yang tahu tentang hal-hal yang gaib, adanya hari kebangkitan bukanlah suatu dongengan.\n2. \tKisah-kisah:\n\tKisah Nabi Musa, kisah Nabi Sulaiman dengan semut, burung hud-hud, dan Ratu Saba\u2019; kisah Nabi Saleh dengan kaumnya; kisah Nabi Lut dengan kaumnya.\n3. \tLain-lain:\nCiri-ciri orang-orang mukmin; Al-Qur\u2019an menjelaskan apa yang diperselisihkan Bani Israil; hanya orang-orang mukmin yang dapat menerima petunjuk dari kejadian-kejadian sebelum datangnya hari Kiamat dan keadaan orang-orang yang beriman waktu itu; Allah menyuruh Nabi Muhammad dan umatnya memuji dan menyembah Allah saja dan membaca Al-Qur\u2019an, Allah akan memperlihatkan kepada kaum musyrikin akan kebenaran ayat-ayat-Nya.\n",
        "outro_surah": null,
        "munasabah_prev_surah": "HUBUNGAN SURAH ASY-SYU\u2019AR\u0100\u2019\nDENGAN SURAH AN-NAML\n\n1. \tSurah an-Naml melengkapi Surah asy-Syu\u2019ar\u0101\u2019 dengan menambahkan ke dalamnya kisah nabi-nabi yang tidak terdapat dalam Surah asy-Syu\u2019ar\u0101\u2019 yaitu kisah Nabi Daud dan Nabi Sulaiman.\n2. \tPada Surah an-Naml terdapat tambahan-tambahan uraian mengenai kisah Nabi Lut dan Nabi Musa yang sudah dikisahkan dalam Surah Asy Syu\u2019ar\u0101\u2019.\n3. \tMasing-masing dari kedua surah ini memuat sifat-sifat Al-Qur\u2019an dan menerangkan bahwa Al-Qur\u2019an benar-benar diturunkan dari sisi Allah.\n4. \tKedua surah ini sama-sama menghibur hati Nabi Muhammad saw yang mengalami bermacam-macam penderitaan dan permusuhan dari kaumnya.",
        "munasabah_prev_theme": "Pada ayat-ayat akhir surah yang lalu ditegaskan tentang peringatan Allah kepada para penyair agar mereka berhati-hati dalam mengubah karya, dan jangan hanya mengikuti khayalan tanpa berisi makna yang menggugah orang untuk berbuat kebajikan. Pada ayat-ayat berikut ini dinyatakan bahwa Al-Qur\u2019an merupakan wahyu Allah yang jelas. Kandungan isinya dapat dijadikan sebagai pedoman hidup dan merupakan kabar gembira bagi orang mukmin.",
        "theme_group": "AL-QUR\u2019AN SEBAGAI PEDOMAN HIDUP",
        "kosakata": "1. Kit\u0101b Mub\u012bn \u0643\u0650\u062a\u064e\u0627\u0628\u064d \u0645\u064f\u0628\u0650\u064a\u0652\u0646\u064d (an-Naml/27: 1)\nKata kit\u0101b terbentuk dari kata kataba-yaktubu-kit\u0101ban yang berarti menulis. Jadi, kata kit\u0101b berarti tulisan atau kitab. Kata al-Kit\u0101b merupakan salah satu nama populer Al-Qur\u2019an, di samping nama Al-Qur\u2019an itu sendiri. Kita tahu bahwa Allah memelihara Al-Qur\u2019an melalui tulisan yang tercermin dalam nama Al-Kitab (Tulisan), dan melalui bacaan yang tercermin dalam nama Al-Qur\u2019an (Bacaan). Kata al-mub\u012bn adalah kata sifat dari kata abana-yubinu-ib\u0101natan yang berarti menjelaskan. Ia terambil dari kata bana-yabinu-bainan yang berarti jelas dan berbeda dari yang lain. Maksud dari Kitab yang Menjelaskan di sini adalah Al-Qur\u2019an yang menjelaskan perintah dan larangan Allah, dan lain-lain. \n2. Busyr\u0101 \u0628\u064f\u0634\u0652\u0631\u064e\u0649 (an-Naml/27: 2)\n Kata busyr\u0101 memiliki akar kata basyar yang berarti kulit. Manusia disebut dengan kata basyar karena yang tampak dari manusia adalah kulitnya. Kalimat b\u0101syara ar-rajulu imra\u2019atahu berarti laki-laki itu mencari kesenangan dari kulit istrinya (menggaulinya). Kata busyr\u0101 atau bisy\u0101rah berarti setiap berita yang benar dan mengakibatkan kulit di wajah menjadi berubah. Kabar gembira disebut dengan kata busyr\u0101 karena bila jiwa gembira maka darah mengalir lancar hingga ke kulit seperti air yang mengalir di dalam pohon. Kata ini lebih banyak digunakan untuk berita yang baik, namun terkadang digunakan pula untuk berita yang buruk, sebagaimana firman Allah, \u201cSampaikanlah kepada mereka kabar gembira yaitu azab yang pedih.\u201d (\u0100li \u2018Imr\u0101n/3: 21). Adapun maksud kata busyr\u0101 di sini adalah kabar gembira.",
        "sabab_nuzul": null,
        "conclusion": "1. \tAl-Qur\u2019an adalah wahyu Allah yang disampaikan kepada Nabi Muhammad dengan perantaraan Malaikat Jibril untuk menjadi petunjuk dan pedoman hidup bagi manusia. Namun demikian, hanya orang mukmin saja yang mau memanfaatkannya untuk mencapai kebahagiaan di dunia dan akhirat.\n2. \tSifat-sifat orang mukmin antara lain melaksanakan salat, mengeluarkan zakat, dan percaya adanya hari akhirat.\n3. \tOrang-orang yang tidak beriman kepada kehidupan akhirat menganggap perbuatan-perbuatan buruk yang mereka kerjakan itu baik. Akibatnya, mereka selalu berada dalam kesesatan di dunia ini.\n4. \tMereka akan merugi di akhirat karena dimasukkan ke dalam neraka yang sangat pedih siksaannya. "
    }
}