{
    "id": 3201,
    "surah_id": 27,
    "ayah": 42,
    "page": 380,
    "quarter_hizb": 38.75,
    "juz": 19,
    "manzil": 5,
    "arabic": "\u0641\u064e\u0644\u064e\u0645\u0651\u064e\u0627 \u062c\u064e\u0627\u06e4\u0621\u064e\u062a\u0652 \u0642\u0650\u064a\u0652\u0644\u064e \u0627\u064e\u0647\u0670\u0643\u064e\u0630\u064e\u0627 \u0639\u064e\u0631\u0652\u0634\u064f\u0643\u0650\u06d7 \u0642\u064e\u0627\u0644\u064e\u062a\u0652 \u0643\u064e\u0627\u064e\u0646\u0651\u064e\u0647\u0657 \u0647\u064f\u0648\u064e\u06da \u0648\u064e\u0627\u064f\u0648\u0652\u062a\u0650\u064a\u0652\u0646\u064e\u0627 \u0627\u0644\u0652\u0639\u0650\u0644\u0652\u0645\u064e \u0645\u0650\u0646\u0652 \u0642\u064e\u0628\u0652\u0644\u0650\u0647\u064e\u0627 \u0648\u064e\u0643\u064f\u0646\u0651\u064e\u0627 \u0645\u064f\u0633\u0652\u0644\u0650\u0645\u0650\u064a\u0652\u0646\u064e  ",
    "latin": "Falamm\u0101 j\u0101'at q\u012bla ahaka\u017c\u0101 \u2018arsyuk(i), q\u0101lat ka'annah\u016b huw(a), wa \u016bt\u012bnal-\u2018ilma min qablih\u0101 wa kunn\u0101 muslim\u012bn(a).",
    "translation": "Ketika dia (Balqis) datang, ditanyakanlah (kepadanya), \u201cSerupa inikah singgasanamu?\u201d Dia (Balqis) menjawab, \u201cSepertinya ya. Kami telah diberi pengetahuan sebelumnya551) dan kami adalah orang-orang yang berserah diri (kepada Allah).\u201d",
    "no_footnote": "551",
    "footnotes": "551) Balqis telah mengetahui kenabian Sulaiman a.s. sebelum singgasananya dipindahkan dari negeri Saba\u2019 ke Palestina dalam sekejap mata.",
    "surah": {
        "id": 27,
        "arabic": "\u0627\u0644\u0646\u0651\u0645\u0644",
        "latin": "An-Naml",
        "transliteration": "An-Naml",
        "translation": "Semut",
        "num_ayah": 93,
        "page": 377,
        "location": "Makkiyah"
    },
    "tafsir": {
        "wajiz": "Singgasana Ratu Balqis akhirnya diubah, berbeda dari aslinya. Kemudian singgasana itu diletakkan di tempat yang akan dilewati oleh Ratu Balqis. Maka, ketika Ratu Balqis datang dan melewati tempat yang ada singgasananya, ditanyakanlah kepadanya, \u201cSerupa inikah singgasanamu?\u201d Ratu Balqis, menjawab dengan sedikit ragu, \u201cSeakan-akan itulah dia singgasanaku.\u201d Selanjutnya Ratu Balqis berkata, \u201cKami telah diberi pengetahuan akan kenabian Nabi Sulaiman, cerita tentang burung Hudhud, dan cerita tentang utusan kami yang membawa hadiah untuk Nabi Sulaiman, sebelumnya, yaitu sebelum kejadian yang mencengangkan ini dan kami adalah orang-orang yang berserah diri kepada Allah. Karena kejadian demi kejadian yang kami lihat dan kami amati, membuktikan bahwa kami berada dalam kesesatan dan ajakan Nabi Sulaiman adalah ajakan yang benar.\u201d",
        "tahlili": "Setelah Ratu Balqis datang, Sulaiman bertanya kepadanya, \u201cApakah seperti ini singgasanamu?\u201d Balqis menjawab, \u201cBenar, singgasana ini mirip sekali dengan singgasanaku.\u201d Menurut Muj\u0101hid, Ratu Balqis mengetahui bahwa singgasana itu adalah singgasananya, karena ada tanda-tanda yang menunjukkan bahwa singgasana itu kepunyaannya. Akan tetapi, dia merasa heran mengapa singgasana itu berada di istana Sulaiman.\nMelihat kenyataan itu dan dihubungkan dengan pengetahuannya tentang burung hud-hud, maka Balqis berkata, \u201cSebenarnya telah diberikan kepada kami, sebelum terjadinya mukjizat ini, pengetahuan bahwa Tuhan yang berhak disembah itu adalah Tuhan Yang Maha Esa. Dia Mahakuasa, demikian pula tentang burung hud-hud, sebagai burung yang luar biasa yang dengan kekuasaan Tuhan telah dapat menghubungkan negeri kami dengan negerimu dan juga dengan memperhatikan berita-berita yang kami terima dari para utusan kami. Semua itu menunjukkan bahwa engkau, wahai Sulaiman, benar-benar seorang rasul Allah yang diutus kepada kami untuk menyampaikan agama-Nya.\u201d\nSelanjutnya Balqis berkata, \u201cKami bersama-sama dengan kaum kami menyatakan beriman kepada engkau. Kami akan meninggalkan agama kami yang selama ini kami anut. Engkau tidak perlu lagi mengemukakan kepada kami mukjizat yang lain, karena kami telah beriman.\u201d",
        "intro_surah": "Surah an-Naml terdiri dari 93 ayat, termasuk kelompok surah Makkiyyah dan diturunkan sesudah surah asy-Syu\u2019ar\u0101\u2019. Dinamai dengan an-Naml karena pada ayat 18 dan 19 terdapat perkataan an-naml (semut), di mana raja semut mengatakan kepada anak buahnya, agar masuk ke sarangnya masing-masing supaya jangan terinjak oleh Nabi Sulaiman dan tentaranya yang akan melalui tempat itu. Mendengar perintah raja semut kepada anak buahnya, Nabi Sulaiman tersenyum dan takjub atas keteraturan, keharmonisan, dan kedisiplinan kerajaan semut itu. Beliau mengucapkan syukur kepada Allah Yang Mahakuasa yang telah melimpahkan rahmat dan nikmat-Nya kepadanya berupa kerajaan, kekayaan, memahami ucapan-ucapan binatang, mempunyai tentara yang terdiri atas jin, manusia, dan burung, serta berbagai karunia lainnya. Nabi Sulaiman yang telah diberi Allah hikmah yang besar itu tidak merasa takabur dan sombong, sebagai seorang hamba Allah, mohon agar Allah memasukkannya ke dalam kelompok orang-orang yang saleh.\nAllah menceritakan tentang semut dalam surah ini, agar manusia mengambil pelajaran dari kehidupannya. Semut adalah binatang yang hidup berkelompok di dalam tanah, membuat liang dan ruang yang bertingkat-tingkat sebagai rumah dan gudang tempat menyimpan makanan sebagai persiapan menghadapi musim dingin. Rakyat semut mempunyai organisasi dan kerja sama yang baik. Kerapian dan kedisiplinan yang terdapat dalam kerajaan semut ini, dinyatakan Allah dalam ayat ini dengan menerangkan bagaimana rakyat semut mencari perlindungan dengan segera agar jangan terinjak oleh Nabi Sulaiman dan tentaranya, setelah menerima peringatan dari rajanya.\nSecara tidak langsung, Allah mengingatkan manusia agar berusaha untuk mencukupi kebutuhan sehari-hari, kemaslahatan bersama, dan sebagainya. Dengan mengisahkan Nabi Sulaiman dalam surah ini, Allah mengisyaratkan hari depan dan kebesaran Nabi Muhammad. Sebagaimana Nabi Sulaiman sebagai seorang nabi, rasul, dan raja yang dianugerahi kerajaan yang besar, begitu pula Nabi Muhammad sebagai seorang nabi, rasul, dan kepala negara yang ummi dan miskin akan berhasil membawa dan memimpin umatnya ke jalan Allah.\n\nPokok-pokok Isinya\n1.\tKeimanan:\nAl-Qur\u2019an adalah petunjuk dan rahmat bagi orang-orang yang mukmin. Keesaan dan kekuasaan Allah yang tidak memerlukan sekutu-sekutu dalam mengatur alam ini; hanya Allah-lah yang tahu tentang hal-hal yang gaib, adanya hari kebangkitan bukanlah suatu dongengan.\n2. \tKisah-kisah:\n\tKisah Nabi Musa, kisah Nabi Sulaiman dengan semut, burung hud-hud, dan Ratu Saba\u2019; kisah Nabi Saleh dengan kaumnya; kisah Nabi Lut dengan kaumnya.\n3. \tLain-lain:\nCiri-ciri orang-orang mukmin; Al-Qur\u2019an menjelaskan apa yang diperselisihkan Bani Israil; hanya orang-orang mukmin yang dapat menerima petunjuk dari kejadian-kejadian sebelum datangnya hari Kiamat dan keadaan orang-orang yang beriman waktu itu; Allah menyuruh Nabi Muhammad dan umatnya memuji dan menyembah Allah saja dan membaca Al-Qur\u2019an, Allah akan memperlihatkan kepada kaum musyrikin akan kebenaran ayat-ayat-Nya.\nSurah an-Naml terdiri dari 93 ayat, termasuk kelompok surah Makkiyyah dan diturunkan sesudah surah asy-Syu\u2019ar\u0101\u2019. Dinamai dengan an-Naml karena pada ayat 18 dan 19 terdapat perkataan an-naml (semut), di mana raja semut mengatakan kepada anak buahnya, agar masuk ke sarangnya masing-masing supaya jangan terinjak oleh Nabi Sulaiman dan tentaranya yang akan melalui tempat itu. Mendengar perintah raja semut kepada anak buahnya, Nabi Sulaiman tersenyum dan takjub atas keteraturan, keharmonisan, dan kedisiplinan kerajaan semut itu. Beliau mengucapkan syukur kepada Allah Yang Mahakuasa yang telah melimpahkan rahmat dan nikmat-Nya kepadanya berupa kerajaan, kekayaan, memahami ucapan-ucapan binatang, mempunyai tentara yang terdiri atas jin, manusia, dan burung, serta berbagai karunia lainnya. Nabi Sulaiman yang telah diberi Allah hikmah yang besar itu tidak merasa takabur dan sombong, sebagai seorang hamba Allah, mohon agar Allah memasukkannya ke dalam kelompok orang-orang yang saleh.\nAllah menceritakan tentang semut dalam surah ini, agar manusia mengambil pelajaran dari kehidupannya. Semut adalah binatang yang hidup berkelompok di dalam tanah, membuat liang dan ruang yang bertingkat-tingkat sebagai rumah dan gudang tempat menyimpan makanan sebagai persiapan menghadapi musim dingin. Rakyat semut mempunyai organisasi dan kerja sama yang baik. Kerapian dan kedisiplinan yang terdapat dalam kerajaan semut ini, dinyatakan Allah dalam ayat ini dengan menerangkan bagaimana rakyat semut mencari perlindungan dengan segera agar jangan terinjak oleh Nabi Sulaiman dan tentaranya, setelah menerima peringatan dari rajanya.\nSecara tidak langsung, Allah mengingatkan manusia agar berusaha untuk mencukupi kebutuhan sehari-hari, kemaslahatan bersama, dan sebagainya. Dengan mengisahkan Nabi Sulaiman dalam surah ini, Allah mengisyaratkan hari depan dan kebesaran Nabi Muhammad. Sebagaimana Nabi Sulaiman sebagai seorang nabi, rasul, dan raja yang dianugerahi kerajaan yang besar, begitu pula Nabi Muhammad sebagai seorang nabi, rasul, dan kepala negara yang ummi dan miskin akan berhasil membawa dan memimpin umatnya ke jalan Allah.\n\nPokok-pokok Isinya\n1.\tKeimanan:\nAl-Qur\u2019an adalah petunjuk dan rahmat bagi orang-orang yang mukmin. Keesaan dan kekuasaan Allah yang tidak memerlukan sekutu-sekutu dalam mengatur alam ini; hanya Allah-lah yang tahu tentang hal-hal yang gaib, adanya hari kebangkitan bukanlah suatu dongengan.\n2. \tKisah-kisah:\n\tKisah Nabi Musa, kisah Nabi Sulaiman dengan semut, burung hud-hud, dan Ratu Saba\u2019; kisah Nabi Saleh dengan kaumnya; kisah Nabi Lut dengan kaumnya.\n3. \tLain-lain:\nCiri-ciri orang-orang mukmin; Al-Qur\u2019an menjelaskan apa yang diperselisihkan Bani Israil; hanya orang-orang mukmin yang dapat menerima petunjuk dari kejadian-kejadian sebelum datangnya hari Kiamat dan keadaan orang-orang yang beriman waktu itu; Allah menyuruh Nabi Muhammad dan umatnya memuji dan menyembah Allah saja dan membaca Al-Qur\u2019an, Allah akan memperlihatkan kepada kaum musyrikin akan kebenaran ayat-ayat-Nya.\n",
        "outro_surah": null,
        "munasabah_prev_surah": "HUBUNGAN SURAH ASY-SYU\u2019AR\u0100\u2019\nDENGAN SURAH AN-NAML\n\n1. \tSurah an-Naml melengkapi Surah asy-Syu\u2019ar\u0101\u2019 dengan menambahkan ke dalamnya kisah nabi-nabi yang tidak terdapat dalam Surah asy-Syu\u2019ar\u0101\u2019 yaitu kisah Nabi Daud dan Nabi Sulaiman.\n2. \tPada Surah an-Naml terdapat tambahan-tambahan uraian mengenai kisah Nabi Lut dan Nabi Musa yang sudah dikisahkan dalam Surah Asy Syu\u2019ar\u0101\u2019.\n3. \tMasing-masing dari kedua surah ini memuat sifat-sifat Al-Qur\u2019an dan menerangkan bahwa Al-Qur\u2019an benar-benar diturunkan dari sisi Allah.\n4. \tKedua surah ini sama-sama menghibur hati Nabi Muhammad saw yang mengalami bermacam-macam penderitaan dan permusuhan dari kaumnya.",
        "munasabah_prev_theme": "Pada ayat-ayat yang lalu diterangkan peristiwa Nabi Sulaiman dengan burung hud-hud yang pergi ke negeri Saba\u2019 tanpa meminta izin lebih dahulu. Karena burung hud-hud dapat membuktikan kepada Nabi Sulaiman bahwa kepergiannya itu adalah untuk urusan yang penting dan bermanfaat bagi Sulaiman sendiri, baik sebagai seorang raja maupun sebagai seorang rasul Allah, maka Sulaiman tidak menghukumnya. \nPada ayat-ayat berikut ini diterangkan pula karunia lain yang telah dilimpahkan Allah kepada Nabi Sulaiman, yang merupakan keistimewaan Nabi Sulaiman. Keistimewaan itu ialah bahwa ia dapat memindahkan singgasana Ratu Saba\u2019 dengan perantaraan seorang yang berilmu dalam waktu sekejap mata saja, dan mempunyai istana yang terbuat dari kaca. Kedua karunia itu dapat menundukkan Ratu Saba\u2019 dan pembesar-pembesarnya, sehingga mereka mau mengindahkan seruan Sulaiman agar meninggalkan agama nenek moyang mereka dan mengikuti agama Allah.",
        "theme_group": "NABI SULAIMAN DAN RATU SABA\u2019",
        "kosakata": "1. Sulaim\u0101n \u0633\u064f\u0644\u064e\u064a\u0652\u0645\u064e\u0627\u0646  (an-Naml/27: 36)\nSulaiman telah dikaruniai berbagai macam keajaiban oleh Allah\u2014ilmu gaib, pasukan yang terdiri dari manusia, jin, dan burung (an-Naml/27: 17), dan dapat mengerti bahasa hewan (an-Naml/27: 16, 19), dapat mencairkan tembaga  (Saba\u2019/34: 12), mengendalikan angin (al-Anbiy\u0101\u2019/21: 81, \u1e62\u0101d/38: 36), dan setan-setan para penyelam, mungkin untuk membawakan mutiara dari dasar laut serta pekerja bangunan (al-Anbiy\u0101\u2019/21: 82, \u1e62\u0101d/38: 37), dan bakat seninya yang tinggi mempekerjakan jin membuat gedung-gedung sesuai dengan kehendaknya, patung-patung dan bokor besar, kolam dan periuk untuk memasak (Saba\u2019/34: 13).\nKebanyakan kisah Nabi Sulaiman dalam Al-Qur\u2019an terdapat dalam Surah an-Naml/27, di samping beberapa surah lagi (al-Baqarah/2: 102; al-An\u2018\u0101m/6: 84; al-Anbiy\u0101\u2019/21: 78, 79, 81; an-Naml/27: 15, 16, 17, 30, 36, 44, 78, 79, 81; Saba\u2019/34: 12; \u1e62\u0101d/38: 30, 34).\nSeperti halnya dengan Daud, Sulaiman mempunyai kecerdasan dan kedudukan yang sama dengan bapaknya atau hampir sama, sebagai seorang nabi dan raja. Ia telah dikaruniai Allah kearifan dan ilmu (al-Anbiy\u0101\u2019/21: 79), sebagai hamba yang baik, taat, dan selalu bertobat kepada-Nya (\u1e62\u0101d/38: 30). Dialah yang mendapat ilmu, kenabian, dan mewarisi kerajaan dari Daud, bapaknya, di luar anak-anaknya yang lain (an-Naml/27:16). Sungguhpun begitu, di samping memohonkan ampun untuk dirinya, Sulaiman juga  memohon kepada Allah agar dianugerahi kerajaan yang tak seorang pun dapat menguasai seperti itu sesudahnya (\u1e62\u0101d/38: 34). Betapa tidak, Allah sudah memberikan beberapa kelebihan kepadanya dan kepada bapaknya, dan mereka pun mengakui bahwa Allah mengutamakan mereka di atas kebanyakan hamba-Nya (an-Naml/27: 15-16). Begitu banyak nikmat Allah yang telah diberikan kepada Nabi Sulaiman, termasuk kemampuannya menguasai bahasa hewan yang tidak diberikan kepada yang lain. \nSulaiman di dalam Alkitab dikenal dengan Raja Salomo (Solomon). Peranannya sebagai nabi dan raja serta kearifan dan kecerdasannya sudah terlihat dan terbukti semasa ia masih dalam usia anak kecil, seperti ketika Daud dan Sulaiman menjatuhkan putusan hukum dalam peristiwa sengketa pemilik kebun dengan penggembala kambing (al-Anbiy\u0101\u2019/21: 78). \nMalam itu ada sekelompok kambing yang mungkin lepas dari pengawas-an gembalanya, memasuki ladang orang. Kebun itu berupa tanaman anggur yang sedang berbuah. Malam itu segerombolan kambing tiba-tiba datang dan memakan habis buah anggur dan merusak kebun itu. Pemilik tanaman datang mengadu kepada Daud sang raja. Dalam keputusannya, Daud memberikan kambing-kambing itu kepada pemilik kebun, sebagai ganti rugi atas kerusakan tanaman itu. \nDalam ayat berikutnya, \u201cKami memberi pengertian kepada Sulaiman,\u201d menurut Ibnu \u2018Abb\u0101s, bahwa Sulaiman menawarkan keputusan yang menurut pendapatnya lebih baik dan lebih adil buat pelanggaran semacam itu. Pemilik kebun cukup menahan kambing-kambing itu selama waktu tertentu untuk dimanfaatkan\u2014mengambil hasil susu, bulu, dan anak-anak domba kalau ada\u2014kemudian mengembalikan ternak itu kepada pemiliknya, sementara sang gembala memanfaatkan hasil tanamannya. Cara ini dipandang lebih tepat dan adil. Dalam hal ini, Sulaiman dapat membedakan antara modal pokok dengan penghasilan.  Daud pun setuju dengan keputusan anaknya kendati ia hanya anak kecil, yang tanpa segan-segan  menyampaikan pendapatnya itu.  Betapapun juga, Sulaiman adalah calon nabi ketika itu, yang tentu sudah mendapat bimbingan Tuhan, seperti halnya dengan Yusuf anak Yakub dulu ketika menafsirkan mimpi raja di Mesir. \nSulaiman adalah anak Daud dari ibu Batsyeba seperti disebutkan dalam Perjanjian Lama (II Samuel 12: 24). Dalam literatur gereja, Sulaiman disebutkan lahir tahun Ussher 1033 Pra Masehi. Dari anak-anak Daud yang lebih tua, hanya Sulaiman dengan segala bawaan, watak, penampilan, dan sifat-sifat pribadinya yang patut menjadi penggantinya (I Raja-raja 1). Tetapi sebelum itu, sesudah Daud berusia lanjut dan lemah, Adonia (Adonijah), anaknya yang lebih tua, mengumumkan diri sebagai raja, tetapi Daud meminta Sulaiman yang harus menggantikannya. Dalam pertarungan dua bersaudara lain ibu itu, dengan bantuan Nabi Natan, Imam Zadok dan Batsyeba ibunya, Adonia dapat dikalahkan, dan Sulaiman disuruh oleh Daud pergi ke Gihon untuk diurapi dan diumumkan sebagai raja (I Raja-raja 1: .28-53). Maka ia menggantikan ayahnya sebagai raja dalam usia muda sekali, dan berkuasa di Kanaan selama empat puluh tahun. Selama pemerintahannya itu, keadaan negeri aman dan damai\u2014sesuai dengan namanya, yang berarti \u201caman\u201d dan \u201cdamai.\u201d Oleh karenanya, perdagangan di dalam dan hubungan dengan luar negeri pun mencapai kemajuan yang luar biasa.  \nDalam sejarah Bani Israil, kerajaan Sulaiman inilah yang memberi kekayaan terbesar dan kerajaannya pun menjadi yang terkaya. Raja Sulaiman juga adalah seorang arsitek  bangunan yang besar, dan  karena itu pula, dalam program pembangunannya yang luas dan telah mencapai puncaknya, ia membangun kuil yang pertama di Yerusalem, yang juga dikenal dengan nama Kuil Sulaiman, atau Haikal Sulaiman. \nSulaiman berkuasa dari Sungai Furat (Efrat) sampai Palestina dan perbatasan Mesir, dan ia dipandang sebagai raja Israel terbesar yang pernah ada (I Raja-Raja 4: 21-34), kendati ada juga yang menyebutkan, bahwa kerajaan Daud dan Sulaiman tidak lebih dari Teluk Ailah (Elat), Palestina, Yordania, Suria dan Libanon sampai di Furat saja. Bahkan Ratu Saba\u2019 (Bibel, Syeba, Sheba) di Yaman, mengakui kekuasaannya, yang di dalam al-Qur\u2019an dilukiskan begitu indah dan penuh tamsil (an-Naml/27: 22-44; \u1e62\u0101d/38: 15-21). \nKisahnya berawal dari ketika suatu hari Sulaiman memeriksa burung-burung, tetapi ia tidak melihat burung hud-hud.  Kalau dia menghilang tanpa alasan yang jelas, Sulaiman mengancam burung itu akan dijatuhi hukuman berat atau akan dibunuh. Tetapi tak lama kemudian ia datang dan melaporkan bahwa dia baru kembali dari kota Saba\u2019 di Yaman, sebuah kerajaan besar yang diperintah oleh seorang ratu, dengan singgasana yang sangat megah. Dia dan rakyatnya menyembah matahari. \nSulaiman ingin menguji, laporannya itu benar atau bohong.  Ia menulis surat kepada ratu itu dan dibawa oleh hud-hud, supaya dilayangkan kepada sang ratu, dan tinggalkan. Surat itu berisi: \u201cDari Sulaiman, Bismill\u0101hir-Ra\u1e25m\u0101nir-Ra\u1e25\u012bm.\u201d Sulaiman meminta agar Ratu Saba\u2019 jangan menyom-bongkan diri dan datang menyerahkan diri kepadanya. Ratu lalu berunding dengan stafnya yang sebagian mau bertahan, karena merasa kerajaannya lebih kuat dan beranggapan bahwa kekuatan itu sanggup menghadapi siapa saja. Akan tetapi, Ratu yang arif melihat lebih baik ia dan staf kerajaannya datang sendiri menghadap Sulaiman. Sebelumnya, ia mengirim berbagai hadiah, tetapi Sulaiman menolaknya dan mengancam akan mendatangi kerajaan itu dengan kekuatan pasukan yang besar. \nSebelum kedatangan Ratu Saba\u2019, Sulaiman meminta kepada yang hadir, siapakah di antara mereka yang sanggup membawakan singgasana ratu itu kepadanya. Ifrit menjawab bahwa ia sanggup membawanya sebelum Sulaiman berdiri dari kursinya, dan yang seorang lagi yang sudah mengerti tentang Kitab (Taurat dan Zabur) mengatakan bahwa dia akan membawa singgasana itu sebelum Sulaiman mengedipkan mata. Kemudian Ratu Saba\u2019 dan rombongannya berangkat dengan membawa sendiri aneka macam hadiah. \nIstana Sulaiman yang sudah dipersiapkan untuk menyambutnya, memang terlihat dalam lukisan lembut yang sangat indah dan megah.  Ratu Saba\u2019 penyembah matahari itu\u2014yang dalam tradisi Arab biasa disebut bernama Balqis\u2014ketika dipersilakan memasuki istana, ia berjalan sambil menarik gaunnya yang panjang sedikit ke atas, sehingga kedua betisnya terlihat. Ia berbuat begitu, karena dikira lantai istana yang berkilauan itu digenangi air. Melihat yang demikian Sulaiman berkata, mungkin sambil tersenyum mengejek, \u201cTidak apa-apa, biasa. Lantai ini berlapis kaca.\u201d Alangkah malunya Sang Ratu! Selama ini ia membanggakan istananya yang dikiranya sudah tak ada lagi istana di dunia yang dapat menandinginya. Suatu sindiran halus untuk menundukkan kesombongan Sang Ratu karena kekayaannya selama ini, dan sekaligus menjadi pelajaran baginya bahwa di atas segala kekuasaan di dunia, masih ada kekuasaan Tertinggi, masih ada Tuhan yang Mahakuasa. Saat itu ia berkata, \u201cO Tuhan! Sekarang aku berserah diri bersama Sulaiman dan tunduk kepada Tuhan semesta alam.\u201d (an-Naml/27: 20-44).   \nDalam Alkitab, setelah Ratu Syeba (Saba\u2019) mendengar tentang Salomo (Sulaiman), berhubung dengan nama Tuhan, Ratu hendak mengujinya dengan teka-teki, dan datang dengan pasukan pengiring yang sangat besar, membawa hadiah yang banyak sekali berupa emas, batu permata yang mahal-mahal, rempah-rempah, dan sebagainya. Setelah sampai, Ratu mengatakan segala yang ada dalam hatinya kepada Salomo. Salomo menjawab segala pertanyaan Ratu itu. Baginya tak ada yang tersembunyi (I Raja-raja 10, dan  II Tawarikh 9). \n\tDalam Surah \u1e62\u0101d/38: 34-35, Tuhan hendak menguji Sulaiman dengan meletakkan sesosok tubuh tanpa nyawa di atas singgasananya, yang ditafsirkan bahwa betapa pun besar kekuasaan manusia di dunia, hanyalah seperti tubuh tanpa nyawa, kecuali bila ia dihayati oleh roh Tuhan. Kendati kekuasaan Sulaiman sudah begitu besar hampir atas segalanya, ia meminta kerajaan yang tak seorang pun dapat menguasai sesudahnya. Akan tetapi, kemudian ia bertobat dan memohon ampun. \nJika Sulaiman dituduh terlibat dalam praktek sihir, tentu ini tuduhan yang mengada-ada dari pihak musuhnya, termasuk setan-setan yang selalu menggodanya agar ia menjadi kafir, menjadi pesihir, dan menyembah berhala. Akan tetapi, Sulaiman tak sampai terjerumus ke dalam perangkap setan dan teman-temannya yang tertarik pada ilmu-ilmu klenik, sihir, jimat, dan semacamnya. Yang demikian ini lalu dihubung-hubungkan kepada Raja Sulaiman dan kekuasaannya dalam berbagai ilmu yang dianggap ajaib itu. Mereka lalu mengira Sulaiman juga menguasai ilmu sihir dan melakukan praktek sihir. \u201cMereka mengikuti apa yang dibacakan setan-setan pada masa kerajaan Sulaiman. Sulaiman tidak kafir, tetapi setan-setan itulah yang kafir, mereka mengajarkan sihir kepada manusia \u2026\u201d  (al-Baqarah/2: 102). Lihat juga  kosakata \u201cHarut\u201d dan \u201cMarut\u201d..\nHal ini sepintas lalu seolah hampir sama dengan yang terdapat dalam Perjanjian Lama, tetapi sebenarnya terdapat perbedaan filosofis yang sangat mendasar. Di dalam Perjanjian Lama disebutkan bahwa Salomo telah jatuh ke dalam penyembahan berhala. Ia mencintai perempuan-perempuan asing, padahal Tuhan telah melarang orang Israel bergaul dengan mereka dan \u201cmereka pun janganlah bergaul dengan kamu,\u201d sebab mereka akan membuat hati orang Israel condong kepada tuhan-tuhan mereka, dan hati Salomo sudah \u201cterpaut kepada mereka dengan cinta. Ia mempunyai 700 istri dari kaum bangsawan dan 300 gundik. \u201cPada waktu Salomo sudah tua, istri-istrinya mencondongkan hatinya kepada tuhan-tuhan lain, sehingga dia tidak sepenuh hati terpaut kepada Tuhan, Allahnya, seperti Daud, ayahnya.\u201d Salomo melakukan apa yang jahat di mata Tuhan dan mendirikan bukit-bukit untuk dewa-dewa sembahan\u2026 Tuhan berfirman kepada Salomo, \u201cOleh karena begitu kelakuanmu, yakni engkau tidak berpegang pada perjanjian dan segala ketetapan-Ku yang telah Kuperintahkan kepadamu, maka sesungguhnya Aku akan mengoyakkan kerajaan itu dari padamu, dan akan memberikannya kepada hambamu.\u201d (I Raja-Raja, 11: 1-13).\nDalam cerita lain, konon Nabi Sulaiman belajar ilmu sihirnya dari Mambres, pesihir Mesir terkenal, dan Pythagoras mendapatkan ilmu batinnya dari Nabi Sulaiman. Dongeng-dongeng yang bukan-bukan tentang Nabi Sulaiman dalam kepustakaan berbahasa Arab dan Persia setelah itu banyak sekali, bahkan dalam sebagian tafsir al-Qur\u2019an pun. Mungkin secara tidak sadar terimbas oleh pengaruh Talmud\u2014cerita-cerita tradisi Yahudi, dan Midrash\u2014kitab penjelasan tentang Perjanjian Lama menurut penafsiran Yahudi. Sumber-sumber yang berasal dari tradisi semacam itu biasa disebut Israiliyat (Judaica). Kitab-kitab tafsir al-Qur\u2019an yang mengandung pikiran-pikiran semacam ini, jika tidak menyebut sumbernya, dapat dikatakan telah kemasukan unsur-unsur  Israliyat. Masih banyak legenda dan cerita fantastik lainnya yang masuk ke dalam kategori ini. \nDalam buku-buku referensi disebutkan bahwa Sulaiman, Salomo, atau Solomon, hidup sekitar tahun 1033-931 Sebelum Masehi. Ia mewarisi bapaknya, Daud, yang juga disebut raja. Secara tradisi, yang sudah tentu termasuk juga Perjanjian Lama, ia dipandang sebagai Raja Israil terbesar dan sebagai tokoh yang luar biasa. Dia mempertahankan negeri-negeri yang dikuasainya dengan kekuatan militer dan membentuk koloni-koloni Israel di luar perbatasan kerajaannya. Dia memperkuat kerajaannya, dan memperluas pengaruhnya dengan sejumlah negeri lain. Kebijakan dan kecerdasannya, kemampuannya meramal masa depan, dan menghadapi berbagai macam sihir, sering melampaui kemampuan imajinasi biasa. Pada hari tuanya ia mendapat reputasi oleh kearifannya yang khas karena dipercaya telah menulis kitab-kitab Amsal, Pengkhotbah dan Kidung Agung dalam Perjanjian Lama dan \u2018Hikmat Salomo\u2019 atau \u2018Wisdom of Solomon\u2019 (I Raja-raja 4: 29-34). Ada beberapa di antaranya yang dianggap Apocrypha.*\nDi kalangan sufi ia sering ditampilkan dalam cerita-cerita dalam bentuk metafora, untuk mengungkapkan perumpamaan, terutama karena kemam-puannya mengendalikan angin dan jin. Begitu juga dalam buku  Seribu Satu Malam jin banyak berperan, yang erat hubungannya dengan cincin Nabi Sulaiman dan cerita-cerita jimat, terutama karena ia dapat memerintah jin dan berhadapan dengan para pesihir. Nama dan ketokohannya telah menjadi lambang segala macam cerita ajaib, dibawa oleh tukang-tukang cerita yang imajinatif. \n\nKematian Nabi Sulaiman \n\t\tMengenai kematian Salomo, Perjanjian Lama menuturkan bahwa sesudah dia memerintah di Yerusalem atas seluruh Israel selama empat puluh tahun, ia \u201cmendapat perhentian bersama-sama dengan nenek moyangnya, dan ia dikuburkan di kota Daud, ayahnya. Maka Rehabeam, anaknya, menjadi raja menggantikan dia.\u201d  (I Raja-Raja 11: 42-43).\n\t\tDi dalam Al-Qur\u2019an, kematian Nabi Sulaiman disebutkan sepintas dalam sebuah ayat pendek, \u201cMaka, tatkala Kami sudah menentukan kematian baginya, tak ada yang menunjukkan kematiannya kepada mereka kecuali rayap yang menggerogoti tongkatnya. Sesudah itu ia tersungkur.\u2026 (Saba\u2019/34: 14).\nKeterangan dalam Al-Qur\u2019an hanya menyebutkan sekali dalam satu ayat pendek mengenai kematian Sulaiman, yang baru diketahui setelah sekumpulan rayap menggerogoti tongkatnya dan ia tersungkur jatuh. Ketika itulah sekelompok jin yang bekerja untuk Sulaiman merasa lepas dari siksaan bekerja di bawah pengawasannya, karena jin-jin itu menganggap pekerjaan itu sebagai hukuman bagi mereka (Saba\u2019/34: 14).\nAyat pendek itu oleh beberapa mufasir telah direntang panjang lebar dengan mengutip hadis-hadis yang oleh kalangan ulama dinilai lemah dan dari sumber yang tidak jelas. Salah satunya, misalnya, dikatakan bahwa Nabi Sulaiman meninggal di tongkatnya itu baru diketahui sesudah satu tahun kemudian. Ibnu Kasir pun mengkritik pernyataan serupa itu dan dinilainya aneh sekali. Ibnu Kasir mengemukakan beberapa dalil, antara lain, bahwa tak mungkin istri-istrinya selama itu tidak tahu, padahal ada beberapa hari raya suci yang menurut syariat Musa harus dipatuhi, dan yang seharusnya dihadiri oleh Nabi Sulaiman. \n\n2. \u2018Ifr\u012bt \u0639\u0650\u0641\u0652\u0631\u0650\u064a\u0652\u062a (an-Naml/27: 39)\nKata yang terambil dari (\u2018ain-fa\u2019-ra\u2019) mempunyai banyak arti antara lain: warna, tumbuhan, kuat/keras, zaman, dan sesuatu bentuk pada hewan. Arti yang tepat untuk kata \u2018ifr\u012bt pada ayat ini adalah yang ketiga. Para ahli tafsir mengembalikan arti \u2018ifr\u012bt kepada beberapa arti yaitu: yang kuat, keras, jahat, melampaui batas, atau cerdik. Dari arti yang disebutkan tadi maka \u2018Ifr\u012bt adalah makhluk jin yang mempunyai sifat kokoh, kuat, keras, dan cerdik yang mampu melakukan upaya yang menakjubkan karena kekuatannya yang tidak mungkin dilakukan oleh manusia.\n",
        "sabab_nuzul": null,
        "conclusion": null
    }
}