{
    "id": 3213,
    "surah_id": 27,
    "ayah": 54,
    "page": 381,
    "quarter_hizb": 38.75,
    "juz": 19,
    "manzil": 5,
    "arabic": "\u0648\u064e\u0644\u064f\u0648\u0652\u0637\u064b\u0627 \u0627\u0650\u0630\u0652 \u0642\u064e\u0627\u0644\u064e \u0644\u0650\u0642\u064e\u0648\u0652\u0645\u0650\u0647\u0656\u0653 \u0627\u064e\u062a\u064e\u0623\u0652\u062a\u064f\u0648\u0652\u0646\u064e \u0627\u0644\u0652\u0641\u064e\u0627\u062d\u0650\u0634\u064e\u0629\u064e \u0648\u064e\u0627\u064e\u0646\u0652\u062a\u064f\u0645\u0652 \u062a\u064f\u0628\u0652\u0635\u0650\u0631\u064f\u0648\u0652\u0646\u064e  ",
    "latin": "Wa l\u016b\u1e6dan i\u017c q\u0101la liqaumih\u012b ata't\u016bnal-f\u0101\u1e25isyata wa antum tub\u1e63ir\u016bn(a).",
    "translation": "(Ingatlah kisah) Lut ketika dia berkata kepada kaumnya, \u201cMengapa kamu mengerjakan perbuatan keji,554) padahal kamu mengetahui (kekejiannya)?",
    "no_footnote": "554",
    "footnotes": "554) Yang dimaksud dengan perbuatan keji pada ayat ini adalah penyimpangan seksual, termasuk hubungan sejenis.",
    "surah": {
        "id": 27,
        "arabic": "\u0627\u0644\u0646\u0651\u0645\u0644",
        "latin": "An-Naml",
        "transliteration": "An-Naml",
        "translation": "Semut",
        "num_ayah": 93,
        "page": 377,
        "location": "Makkiyah"
    },
    "tafsir": {
        "wajiz": "Dan ingatlah, wahai Rasul, dan ceritakan kepada kaummu kisah Nabi Lut, ketika dia berkata kepada kaumnya, \u201cMengapa kamu mengerjakan perbuatan fahisyah, perilaku keji, yaitu melakukan hubungan seksual antara lelaki dengan sesama jenis padahal kamu melihatnya yaitu kekejian perbuatan maksiat itu? Mengapa kamu membiarkan hal itu terus terjadi dan kamu melakukannya?",
        "tahlili": "Ayat ini menerangkan kebejatan moral kaum Lut. Oleh karena itu, Lut memperingatkan mereka dengan keras, agar mereka menghentikan perbuatannya. Perbuatan kaum Lut itu ialah:\n1. \tMereka melakukan perbuatan homoseksual, padahal mereka mengetahui bahwa perbuatan itu terlarang.\n2. \tPerbuatan homoseksual itu mereka lakukan di muka umum, pada berbagai pertemuan, seakan-akan mereka menganjurkan agar orang lain melakukannya pula.\n3. \tBila mereka tidak dapat melakukan perbuatan itu pada seseorang dengan sukarela, mereka memaksanya. Oleh karena itu, kalau ada tamu-tamu yang singgah di negeri mereka, maka mereka berusaha agar tamu-tamu itu mau mengikuti kehendak mereka. Jika tamu-tamu itu enggan melakukannya, maka mereka akan memaksanya.",
        "intro_surah": "Surah an-Naml terdiri dari 93 ayat, termasuk kelompok surah Makkiyyah dan diturunkan sesudah surah asy-Syu\u2019ar\u0101\u2019. Dinamai dengan an-Naml karena pada ayat 18 dan 19 terdapat perkataan an-naml (semut), di mana raja semut mengatakan kepada anak buahnya, agar masuk ke sarangnya masing-masing supaya jangan terinjak oleh Nabi Sulaiman dan tentaranya yang akan melalui tempat itu. Mendengar perintah raja semut kepada anak buahnya, Nabi Sulaiman tersenyum dan takjub atas keteraturan, keharmonisan, dan kedisiplinan kerajaan semut itu. Beliau mengucapkan syukur kepada Allah Yang Mahakuasa yang telah melimpahkan rahmat dan nikmat-Nya kepadanya berupa kerajaan, kekayaan, memahami ucapan-ucapan binatang, mempunyai tentara yang terdiri atas jin, manusia, dan burung, serta berbagai karunia lainnya. Nabi Sulaiman yang telah diberi Allah hikmah yang besar itu tidak merasa takabur dan sombong, sebagai seorang hamba Allah, mohon agar Allah memasukkannya ke dalam kelompok orang-orang yang saleh.\nAllah menceritakan tentang semut dalam surah ini, agar manusia mengambil pelajaran dari kehidupannya. Semut adalah binatang yang hidup berkelompok di dalam tanah, membuat liang dan ruang yang bertingkat-tingkat sebagai rumah dan gudang tempat menyimpan makanan sebagai persiapan menghadapi musim dingin. Rakyat semut mempunyai organisasi dan kerja sama yang baik. Kerapian dan kedisiplinan yang terdapat dalam kerajaan semut ini, dinyatakan Allah dalam ayat ini dengan menerangkan bagaimana rakyat semut mencari perlindungan dengan segera agar jangan terinjak oleh Nabi Sulaiman dan tentaranya, setelah menerima peringatan dari rajanya.\nSecara tidak langsung, Allah mengingatkan manusia agar berusaha untuk mencukupi kebutuhan sehari-hari, kemaslahatan bersama, dan sebagainya. Dengan mengisahkan Nabi Sulaiman dalam surah ini, Allah mengisyaratkan hari depan dan kebesaran Nabi Muhammad. Sebagaimana Nabi Sulaiman sebagai seorang nabi, rasul, dan raja yang dianugerahi kerajaan yang besar, begitu pula Nabi Muhammad sebagai seorang nabi, rasul, dan kepala negara yang ummi dan miskin akan berhasil membawa dan memimpin umatnya ke jalan Allah.\n\nPokok-pokok Isinya\n1.\tKeimanan:\nAl-Qur\u2019an adalah petunjuk dan rahmat bagi orang-orang yang mukmin. Keesaan dan kekuasaan Allah yang tidak memerlukan sekutu-sekutu dalam mengatur alam ini; hanya Allah-lah yang tahu tentang hal-hal yang gaib, adanya hari kebangkitan bukanlah suatu dongengan.\n2. \tKisah-kisah:\n\tKisah Nabi Musa, kisah Nabi Sulaiman dengan semut, burung hud-hud, dan Ratu Saba\u2019; kisah Nabi Saleh dengan kaumnya; kisah Nabi Lut dengan kaumnya.\n3. \tLain-lain:\nCiri-ciri orang-orang mukmin; Al-Qur\u2019an menjelaskan apa yang diperselisihkan Bani Israil; hanya orang-orang mukmin yang dapat menerima petunjuk dari kejadian-kejadian sebelum datangnya hari Kiamat dan keadaan orang-orang yang beriman waktu itu; Allah menyuruh Nabi Muhammad dan umatnya memuji dan menyembah Allah saja dan membaca Al-Qur\u2019an, Allah akan memperlihatkan kepada kaum musyrikin akan kebenaran ayat-ayat-Nya.\nSurah an-Naml terdiri dari 93 ayat, termasuk kelompok surah Makkiyyah dan diturunkan sesudah surah asy-Syu\u2019ar\u0101\u2019. Dinamai dengan an-Naml karena pada ayat 18 dan 19 terdapat perkataan an-naml (semut), di mana raja semut mengatakan kepada anak buahnya, agar masuk ke sarangnya masing-masing supaya jangan terinjak oleh Nabi Sulaiman dan tentaranya yang akan melalui tempat itu. Mendengar perintah raja semut kepada anak buahnya, Nabi Sulaiman tersenyum dan takjub atas keteraturan, keharmonisan, dan kedisiplinan kerajaan semut itu. Beliau mengucapkan syukur kepada Allah Yang Mahakuasa yang telah melimpahkan rahmat dan nikmat-Nya kepadanya berupa kerajaan, kekayaan, memahami ucapan-ucapan binatang, mempunyai tentara yang terdiri atas jin, manusia, dan burung, serta berbagai karunia lainnya. Nabi Sulaiman yang telah diberi Allah hikmah yang besar itu tidak merasa takabur dan sombong, sebagai seorang hamba Allah, mohon agar Allah memasukkannya ke dalam kelompok orang-orang yang saleh.\nAllah menceritakan tentang semut dalam surah ini, agar manusia mengambil pelajaran dari kehidupannya. Semut adalah binatang yang hidup berkelompok di dalam tanah, membuat liang dan ruang yang bertingkat-tingkat sebagai rumah dan gudang tempat menyimpan makanan sebagai persiapan menghadapi musim dingin. Rakyat semut mempunyai organisasi dan kerja sama yang baik. Kerapian dan kedisiplinan yang terdapat dalam kerajaan semut ini, dinyatakan Allah dalam ayat ini dengan menerangkan bagaimana rakyat semut mencari perlindungan dengan segera agar jangan terinjak oleh Nabi Sulaiman dan tentaranya, setelah menerima peringatan dari rajanya.\nSecara tidak langsung, Allah mengingatkan manusia agar berusaha untuk mencukupi kebutuhan sehari-hari, kemaslahatan bersama, dan sebagainya. Dengan mengisahkan Nabi Sulaiman dalam surah ini, Allah mengisyaratkan hari depan dan kebesaran Nabi Muhammad. Sebagaimana Nabi Sulaiman sebagai seorang nabi, rasul, dan raja yang dianugerahi kerajaan yang besar, begitu pula Nabi Muhammad sebagai seorang nabi, rasul, dan kepala negara yang ummi dan miskin akan berhasil membawa dan memimpin umatnya ke jalan Allah.\n\nPokok-pokok Isinya\n1.\tKeimanan:\nAl-Qur\u2019an adalah petunjuk dan rahmat bagi orang-orang yang mukmin. Keesaan dan kekuasaan Allah yang tidak memerlukan sekutu-sekutu dalam mengatur alam ini; hanya Allah-lah yang tahu tentang hal-hal yang gaib, adanya hari kebangkitan bukanlah suatu dongengan.\n2. \tKisah-kisah:\n\tKisah Nabi Musa, kisah Nabi Sulaiman dengan semut, burung hud-hud, dan Ratu Saba\u2019; kisah Nabi Saleh dengan kaumnya; kisah Nabi Lut dengan kaumnya.\n3. \tLain-lain:\nCiri-ciri orang-orang mukmin; Al-Qur\u2019an menjelaskan apa yang diperselisihkan Bani Israil; hanya orang-orang mukmin yang dapat menerima petunjuk dari kejadian-kejadian sebelum datangnya hari Kiamat dan keadaan orang-orang yang beriman waktu itu; Allah menyuruh Nabi Muhammad dan umatnya memuji dan menyembah Allah saja dan membaca Al-Qur\u2019an, Allah akan memperlihatkan kepada kaum musyrikin akan kebenaran ayat-ayat-Nya.\n",
        "outro_surah": null,
        "munasabah_prev_surah": "HUBUNGAN SURAH ASY-SYU\u2019AR\u0100\u2019\nDENGAN SURAH AN-NAML\n\n1. \tSurah an-Naml melengkapi Surah asy-Syu\u2019ar\u0101\u2019 dengan menambahkan ke dalamnya kisah nabi-nabi yang tidak terdapat dalam Surah asy-Syu\u2019ar\u0101\u2019 yaitu kisah Nabi Daud dan Nabi Sulaiman.\n2. \tPada Surah an-Naml terdapat tambahan-tambahan uraian mengenai kisah Nabi Lut dan Nabi Musa yang sudah dikisahkan dalam Surah Asy Syu\u2019ar\u0101\u2019.\n3. \tMasing-masing dari kedua surah ini memuat sifat-sifat Al-Qur\u2019an dan menerangkan bahwa Al-Qur\u2019an benar-benar diturunkan dari sisi Allah.\n4. \tKedua surah ini sama-sama menghibur hati Nabi Muhammad saw yang mengalami bermacam-macam penderitaan dan permusuhan dari kaumnya.",
        "munasabah_prev_theme": "Pada ayat-ayat yang lalu, Allah menerangkan keingkaran dan perbuatan dosa yang dilakukan oleh kaum Samud. Mereka menentang Nabi Saleh yang telah diutus Allah kepada mereka, dengan meminta agar disegerakan datangnya azab yang diancamkan kepada mereka. Bahkan mereka telah merencanakan suatu makar untuk membunuh Nabi Saleh. Akan tetapi, usaha mereka itu tidak berhasil karena azab Allah telah lebih dahulu menimpa mereka. Pada ayat-ayat ini diterangkan perbuatan keji yang biasa dikerjakan oleh kaum Lut yaitu mengerjakan perbuatan homoseksual, dan melakukannya di depan umum. Kaum Samud dan kaum Lut dihancurkan karena kedurhakaan mereka.\n",
        "theme_group": "PERBUATAN CABUL KAUM LUT",
        "kosakata": "1. Syahwah min D\u016bni an-Nis\u0101\u2019 \u0634\u064e\u0647\u0652\u0648\u064e\u0629\u064b \u0645\u0650\u0646\u0652 \u062f\u064f\u0648\u0652\u0646\u0650 \u0627\u0644\u0646\u0651\u0650\u0633\u064e\u0627\u0621\u0650  (an-Naml/27: 55). \nSyahwah min d\u016bni an-nis\u0101\u2019 berarti: nafsu birahi kepada selain perempuan. Dalam konteks ayat di atas, ungkapan ini ditujukan kepada kaum Nabi Lut, yaitu penduduk negeri Sodom, yang lebih memilih sesama jenis daripada lain jenis untuk melakukan hubungan seks. Perilaku seperti ini disebut homoseksual atau berhubungan intim sesama jenis; laki-laki dengan laki-laki atau perempuan dengan perempuan. Nabi Lut dan pengikutnya yang tidak mau melakukan perbuatan itu diejek dengan sebutan un\u0101sun yata\u1e6dahhar\u016bn (manusia yang mengaku dirinya suci). Perilaku menyimpang ini pulalah yang menyebabkan Allah menurunkan azab.\n2. Al-G\u0101bir\u012bn \u0627\u064e\u0644\u0652\u063a\u064e\u0627\u0628\u0650\u0631\u0650\u064a\u0652\u0646\u064e  (an-Naml/27: 57). \nMin al-g\u0101bir\u012bn berarti: termasuk di antara orang yang tertinggal atau dibinasakan. Dalam konteks ayat di atas, ungkapan ini ditujukan kepada istri Nabi Lut yang tidak mau mengikuti seruannya. Ketika Allah menurunkan azab yang menyebabkan kebinasaan kepada kelompok homoseksual, maka Allah menyelamatkan para pengikut setia Nabi Lut. Istri Nabi Lut termasuk yang ditakdirkan oleh Allah menerima kebinasaan, karena tidak mau mengikuti ajakan suaminya. ",
        "sabab_nuzul": null,
        "conclusion": null
    }
}