{
    "id": 3207,
    "surah_id": 27,
    "ayah": 48,
    "page": 381,
    "quarter_hizb": 38.75,
    "juz": 19,
    "manzil": 5,
    "arabic": "\u0648\u064e\u0643\u064e\u0627\u0646\u064e \u0641\u0650\u0649 \u0627\u0644\u0652\u0645\u064e\u062f\u0650\u064a\u0652\u0646\u064e\u0629\u0650 \u062a\u0650\u0633\u0652\u0639\u064e\u0629\u064f \u0631\u064e\u0647\u0652\u0637\u064d \u064a\u0651\u064f\u0641\u0652\u0633\u0650\u062f\u064f\u0648\u0652\u0646\u064e \u0641\u0650\u0649 \u0627\u0644\u0652\u0627\u064e\u0631\u0652\u0636\u0650 \u0648\u064e\u0644\u064e\u0627 \u064a\u064f\u0635\u0652\u0644\u0650\u062d\u064f\u0648\u0652\u0646\u064e  ",
    "latin": "Wa k\u0101na fil-mad\u012bnati tis\u2018atu rah\u1e6diy yufsid\u016bna fil-ar\u1e0di wa l\u0101 yu\u1e63li\u1e25\u016bn(a).",
    "translation": "Di kota itu552) ada sembilan orang laki-laki yang berbuat kerusakan di bumi. Mereka tidak melakukan perbaikan.",
    "no_footnote": "552",
    "footnotes": "552) Yang dimaksud dengan kota dalam ayat ini ialah kota kaum Samud, yaitu kota Hijr.",
    "surah": {
        "id": 27,
        "arabic": "\u0627\u0644\u0646\u0651\u0645\u0644",
        "latin": "An-Naml",
        "transliteration": "An-Naml",
        "translation": "Semut",
        "num_ayah": 93,
        "page": 377,
        "location": "Makkiyah"
    },
    "tafsir": {
        "wajiz": "Kaum Samud yang senantiasa bermaksiat itu tinggal di sebuah yang bernama al-Hijr, yang terletak di selatan Madinah. Dan di kota itu ada sembilan orang laki-laki yang dari waktu ke waktu selalu berbuat kerusakan di bumi, yaitu segala macam kemaksiatan. Mereka tidak melakukan perbaikan terhadap diri mereka sendiri dengan beriman dan bertakwa",
        "tahlili": "Ayat ini menerangkan sebab-sebab banyak timbul kebinasaan di dalam negeri mereka karena di dalam kota Hijr itu terdapat sembilan orang yang suka berbuat kekacauan dalam masyarakat. Mereka yang sembilan orang itu adalah anak dari para bangsawan yang berkuasa di negeri itu. Segala perbuatan baik atau buruk dapat mereka lakukan dengan leluasa dan tidak seorang pun dapat menghalanginya. Perbuatan-perbuatan jahat yang mereka lakukan itu selalu dilindungi dan dibela oleh orang tua mereka yang berkuasa di negeri itu. Dengan demikian, orang yang sembilan itu menjadi sumber perbuatan buruk dan angkara murka.\nAda beberapa riwayat yang menerangkan nama-nama dari orang yang sembilan itu, seperti yang diterangkan oleh al-Gaznawi, Ibnu Is\u1e25\u0101q, Zamakhsyari, al-Mawardi, dan sebagainya. Masing-masing mereka menge-mukakan nama-nama yang berbeda. Akan tetapi, yang penting dari semuanya itu ialah bahwa kerusakan dan perbuatan dosa yang dilakukan oleh sembilan penjahat itu diketahui dan direstui oleh pembesar-pembesar negeri Samud. Karena berasal dari kaum bangsawan yang berkuasa di negeri itu, mereka mempunyai pengaruh yang amat besar kepada kaum Samud.",
        "intro_surah": "Surah an-Naml terdiri dari 93 ayat, termasuk kelompok surah Makkiyyah dan diturunkan sesudah surah asy-Syu\u2019ar\u0101\u2019. Dinamai dengan an-Naml karena pada ayat 18 dan 19 terdapat perkataan an-naml (semut), di mana raja semut mengatakan kepada anak buahnya, agar masuk ke sarangnya masing-masing supaya jangan terinjak oleh Nabi Sulaiman dan tentaranya yang akan melalui tempat itu. Mendengar perintah raja semut kepada anak buahnya, Nabi Sulaiman tersenyum dan takjub atas keteraturan, keharmonisan, dan kedisiplinan kerajaan semut itu. Beliau mengucapkan syukur kepada Allah Yang Mahakuasa yang telah melimpahkan rahmat dan nikmat-Nya kepadanya berupa kerajaan, kekayaan, memahami ucapan-ucapan binatang, mempunyai tentara yang terdiri atas jin, manusia, dan burung, serta berbagai karunia lainnya. Nabi Sulaiman yang telah diberi Allah hikmah yang besar itu tidak merasa takabur dan sombong, sebagai seorang hamba Allah, mohon agar Allah memasukkannya ke dalam kelompok orang-orang yang saleh.\nAllah menceritakan tentang semut dalam surah ini, agar manusia mengambil pelajaran dari kehidupannya. Semut adalah binatang yang hidup berkelompok di dalam tanah, membuat liang dan ruang yang bertingkat-tingkat sebagai rumah dan gudang tempat menyimpan makanan sebagai persiapan menghadapi musim dingin. Rakyat semut mempunyai organisasi dan kerja sama yang baik. Kerapian dan kedisiplinan yang terdapat dalam kerajaan semut ini, dinyatakan Allah dalam ayat ini dengan menerangkan bagaimana rakyat semut mencari perlindungan dengan segera agar jangan terinjak oleh Nabi Sulaiman dan tentaranya, setelah menerima peringatan dari rajanya.\nSecara tidak langsung, Allah mengingatkan manusia agar berusaha untuk mencukupi kebutuhan sehari-hari, kemaslahatan bersama, dan sebagainya. Dengan mengisahkan Nabi Sulaiman dalam surah ini, Allah mengisyaratkan hari depan dan kebesaran Nabi Muhammad. Sebagaimana Nabi Sulaiman sebagai seorang nabi, rasul, dan raja yang dianugerahi kerajaan yang besar, begitu pula Nabi Muhammad sebagai seorang nabi, rasul, dan kepala negara yang ummi dan miskin akan berhasil membawa dan memimpin umatnya ke jalan Allah.\n\nPokok-pokok Isinya\n1.\tKeimanan:\nAl-Qur\u2019an adalah petunjuk dan rahmat bagi orang-orang yang mukmin. Keesaan dan kekuasaan Allah yang tidak memerlukan sekutu-sekutu dalam mengatur alam ini; hanya Allah-lah yang tahu tentang hal-hal yang gaib, adanya hari kebangkitan bukanlah suatu dongengan.\n2. \tKisah-kisah:\n\tKisah Nabi Musa, kisah Nabi Sulaiman dengan semut, burung hud-hud, dan Ratu Saba\u2019; kisah Nabi Saleh dengan kaumnya; kisah Nabi Lut dengan kaumnya.\n3. \tLain-lain:\nCiri-ciri orang-orang mukmin; Al-Qur\u2019an menjelaskan apa yang diperselisihkan Bani Israil; hanya orang-orang mukmin yang dapat menerima petunjuk dari kejadian-kejadian sebelum datangnya hari Kiamat dan keadaan orang-orang yang beriman waktu itu; Allah menyuruh Nabi Muhammad dan umatnya memuji dan menyembah Allah saja dan membaca Al-Qur\u2019an, Allah akan memperlihatkan kepada kaum musyrikin akan kebenaran ayat-ayat-Nya.\nSurah an-Naml terdiri dari 93 ayat, termasuk kelompok surah Makkiyyah dan diturunkan sesudah surah asy-Syu\u2019ar\u0101\u2019. Dinamai dengan an-Naml karena pada ayat 18 dan 19 terdapat perkataan an-naml (semut), di mana raja semut mengatakan kepada anak buahnya, agar masuk ke sarangnya masing-masing supaya jangan terinjak oleh Nabi Sulaiman dan tentaranya yang akan melalui tempat itu. Mendengar perintah raja semut kepada anak buahnya, Nabi Sulaiman tersenyum dan takjub atas keteraturan, keharmonisan, dan kedisiplinan kerajaan semut itu. Beliau mengucapkan syukur kepada Allah Yang Mahakuasa yang telah melimpahkan rahmat dan nikmat-Nya kepadanya berupa kerajaan, kekayaan, memahami ucapan-ucapan binatang, mempunyai tentara yang terdiri atas jin, manusia, dan burung, serta berbagai karunia lainnya. Nabi Sulaiman yang telah diberi Allah hikmah yang besar itu tidak merasa takabur dan sombong, sebagai seorang hamba Allah, mohon agar Allah memasukkannya ke dalam kelompok orang-orang yang saleh.\nAllah menceritakan tentang semut dalam surah ini, agar manusia mengambil pelajaran dari kehidupannya. Semut adalah binatang yang hidup berkelompok di dalam tanah, membuat liang dan ruang yang bertingkat-tingkat sebagai rumah dan gudang tempat menyimpan makanan sebagai persiapan menghadapi musim dingin. Rakyat semut mempunyai organisasi dan kerja sama yang baik. Kerapian dan kedisiplinan yang terdapat dalam kerajaan semut ini, dinyatakan Allah dalam ayat ini dengan menerangkan bagaimana rakyat semut mencari perlindungan dengan segera agar jangan terinjak oleh Nabi Sulaiman dan tentaranya, setelah menerima peringatan dari rajanya.\nSecara tidak langsung, Allah mengingatkan manusia agar berusaha untuk mencukupi kebutuhan sehari-hari, kemaslahatan bersama, dan sebagainya. Dengan mengisahkan Nabi Sulaiman dalam surah ini, Allah mengisyaratkan hari depan dan kebesaran Nabi Muhammad. Sebagaimana Nabi Sulaiman sebagai seorang nabi, rasul, dan raja yang dianugerahi kerajaan yang besar, begitu pula Nabi Muhammad sebagai seorang nabi, rasul, dan kepala negara yang ummi dan miskin akan berhasil membawa dan memimpin umatnya ke jalan Allah.\n\nPokok-pokok Isinya\n1.\tKeimanan:\nAl-Qur\u2019an adalah petunjuk dan rahmat bagi orang-orang yang mukmin. Keesaan dan kekuasaan Allah yang tidak memerlukan sekutu-sekutu dalam mengatur alam ini; hanya Allah-lah yang tahu tentang hal-hal yang gaib, adanya hari kebangkitan bukanlah suatu dongengan.\n2. \tKisah-kisah:\n\tKisah Nabi Musa, kisah Nabi Sulaiman dengan semut, burung hud-hud, dan Ratu Saba\u2019; kisah Nabi Saleh dengan kaumnya; kisah Nabi Lut dengan kaumnya.\n3. \tLain-lain:\nCiri-ciri orang-orang mukmin; Al-Qur\u2019an menjelaskan apa yang diperselisihkan Bani Israil; hanya orang-orang mukmin yang dapat menerima petunjuk dari kejadian-kejadian sebelum datangnya hari Kiamat dan keadaan orang-orang yang beriman waktu itu; Allah menyuruh Nabi Muhammad dan umatnya memuji dan menyembah Allah saja dan membaca Al-Qur\u2019an, Allah akan memperlihatkan kepada kaum musyrikin akan kebenaran ayat-ayat-Nya.\n",
        "outro_surah": null,
        "munasabah_prev_surah": "HUBUNGAN SURAH ASY-SYU\u2019AR\u0100\u2019\nDENGAN SURAH AN-NAML\n\n1. \tSurah an-Naml melengkapi Surah asy-Syu\u2019ar\u0101\u2019 dengan menambahkan ke dalamnya kisah nabi-nabi yang tidak terdapat dalam Surah asy-Syu\u2019ar\u0101\u2019 yaitu kisah Nabi Daud dan Nabi Sulaiman.\n2. \tPada Surah an-Naml terdapat tambahan-tambahan uraian mengenai kisah Nabi Lut dan Nabi Musa yang sudah dikisahkan dalam Surah Asy Syu\u2019ar\u0101\u2019.\n3. \tMasing-masing dari kedua surah ini memuat sifat-sifat Al-Qur\u2019an dan menerangkan bahwa Al-Qur\u2019an benar-benar diturunkan dari sisi Allah.\n4. \tKedua surah ini sama-sama menghibur hati Nabi Muhammad saw yang mengalami bermacam-macam penderitaan dan permusuhan dari kaumnya.",
        "munasabah_prev_theme": "Pada ayat-ayat yang lalu, Allah menerangkan kisah Nabi Sulaiman dengan Ratu Balqis. Sulaiman sebagai seorang rasul Allah dan kepala negara yang dapat memakmurkan rakyatnya, menyeru Ratu Balqis, seorang ratu yang menyembah matahari. Ratu Balqis dan rakyatnya menerima seruan Sulaiman setelah melihat kepemimpinan dan bukti-bukti kerasulannya. \nPada ayat-ayat ini diterangkan pula kisah Nabi Saleh yang diutus Allah kepada kaum Samud. Sekalipun Nabi Saleh bukan seorang raja seperti Nabi Sulaiman, tetapi ia adalah seorang nabi yang berani mengemukakan kebenaran kepada kaumnya, walaupun kaum Samud telah berhasil memak-murkan negerinya, mempunyai bentuk tubuh yang perkasa, dan mempunyai sifat yang bengis dan kejam. Akan tetapi, hanya sebagian kecil dari kaum Samud yang mematuhi seruan Nabi Saleh. Sebagian besar dari mereka mengingkarinya. Oleh karena itu, Allah menimpakan malapetaka yang dahsyat kepada mereka akibat keingkaran itu.\n",
        "theme_group": "PELAJARAN DARI KEINGKARAN\nKAUM NABI SALEH",
        "kosakata": "1. I\u1e6d\u1e6dayyarn\u0101 Bika \u0627\u0637\u0651\u064e\u064a\u0651\u064e\u0631\u0652\u0646\u064e\u0627 \u0628\u0650\u0643\u064e (an-Naml/27: 47). \nKata i\u1e6d\u1e6dayyarn\u0101 berasal dari ta\u1e6dayyarn\u0101. Huruf ta\u2019 (\u062a) dalam proses ilal diganti dengan \u1e6da\u2019 (\u0637), lalu \u1e6da\u2019 yang pertama di-idgam-kan ke \u1e6da\u2019 yang kedua. Untuk menghidupkan kalimat yang ada, ditambahkan hamzah wa\u1e63al sehingga menjadi i\u1e6d\u1e6dayyarn\u0101. I\u1e6d\u1e6dayyarn\u0101 bika berarti: kami mendapat nasib yang malang disebabkan kamu. Kata i\u1e6d\u1e6dayyarn\u0101 diambil dari kata \u1e6dair yang artinya burung. Orang Arab Jahiliah selalu mengaitkan nasib mereka dengan burung. Jika ada burung yang terbang ke kanan, maka nasibnya akan baik, dan jika ke kiri akan buruk. Sikap seperti ini dinamakan ta\u1e6dayyur atau \u1e6diyarah. Lalu kata ini diucapkan untuk mengungkapkan nasib buruk.\nDalam konteks ayat di atas, ucapan ini diungkapkan oleh sekelompok orang yang masih ragu mengikuti dakwah Nabi Saleh. Mereka beranggapan bahwa nasib buruk yang mereka alami karena faktor Nabi Saleh dan para pengikutnya. Itu adalah tuduhan tak berdasar dari sekelompok orang yang hendak mencari kambing hitam atas nasib buruk yang dialaminya. Oleh karenanya, Nabi Saleh lalu membantah tuduhan itu dengan mengatakan, \u201cNasibmu ada di sisi Allah, (bukan kami yang menjadi sebab), tetapi kamu kaum yang diuji.\u201d Ujian itu, menurut Qat\u0101dah, berupa ketaatan dan kemaksiatan.\n2. Tis\u2019ah Rah\u1e6d \u062a\u0650\u0633\u0652\u0639\u064e\u0629\u064f \u0631\u064e\u0647\u0652\u0637\u064d (an-Naml/27: 48). \nTis\u2019ah rah\u1e6d berarti sembilan orang. Bisa juga diartikan tis\u2019ah nafar yaitu sembilan kelompok, sebagaimana dikatakan Ibnu Kasir. Kata rah\u1e6d digunakan untuk kelompok orang yang jumlahnya kurang dari sepuluh. Akan tetapi, ada juga yang mengatakan sampai 40 orang.\nDalam konteks ayat di atas, sembilan orang itu adalah para pembesar dan pemimpin kaum Samud yang melakukan kerusakan di bumi. Menurut as-Suddi, seperti diriwayatkannya dari Ibnu Malik dari Ibnu \u2018Abb\u0101s, kesembilan pembesar Samud itu adalah Da\u2019ma, Du\u2019aim, Harma, Huraim, Dab, \u1e62awab, Rayyab, Mus\u1e6di\u2019, dan Qidar bin Salif. Mereka selalu berbuat kerusakan tanpa pernah berbuat kebaikan. Orang-orang inilah yang berusaha melakukan makar untuk membunuh Nabi Saleh. Hanya saja sebelum rencana mereka kesampaian, Allah terlebih dahulu membinasakan mereka beserta kaumnya. ",
        "sabab_nuzul": null,
        "conclusion": null
    }
}