{
    "id": 3245,
    "surah_id": 27,
    "ayah": 86,
    "page": 384,
    "quarter_hizb": 39.25,
    "juz": 20,
    "manzil": 5,
    "arabic": "\u0627\u064e\u0644\u064e\u0645\u0652 \u064a\u064e\u0631\u064e\u0648\u0652\u0627 \u0627\u064e\u0646\u0651\u064e\u0627 \u062c\u064e\u0639\u064e\u0644\u0652\u0646\u064e\u0627 \u0627\u0644\u0651\u064e\u064a\u0652\u0644\u064e \u0644\u0650\u064a\u064e\u0633\u0652\u0643\u064f\u0646\u064f\u0648\u0652\u0627 \u0641\u0650\u064a\u0652\u0647\u0650 \u0648\u064e\u0627\u0644\u0646\u0651\u064e\u0647\u064e\u0627\u0631\u064e \u0645\u064f\u0628\u0652\u0635\u0650\u0631\u064b\u0627\u06d7 \u0627\u0650\u0646\u0651\u064e \u0641\u0650\u064a\u0652 \u0630\u0670\u0644\u0650\u0643\u064e \u0644\u064e\u0627\u0670\u064a\u0670\u062a\u064d \u0644\u0651\u0650\u0642\u064e\u0648\u0652\u0645\u064d \u064a\u0651\u064f\u0624\u0652\u0645\u0650\u0646\u064f\u0648\u0652\u0646\u064e ",
    "latin": "Alam yarau ann\u0101 ja\u2018alnal-laila liyaskun\u016b f\u012bhi wan-nah\u0101ra mub\u1e63ir\u0101(n), inna f\u012b \u017c\u0101lika la'\u0101y\u0101til liqaumiy yu'min\u016bn(a).",
    "translation": "Apakah mereka tidak memperhatikan bahwa Kami telah menciptakan malam agar mereka beristirahat padanya dan (menciptakan) siang yang terang-benderang? Sesungguhnya pada yang demikian itu terdapat tanda-tanda (kebesaran Allah) bagi kaum beriman.",
    "no_footnote": null,
    "footnotes": null,
    "surah": {
        "id": 27,
        "arabic": "\u0627\u0644\u0646\u0651\u0645\u0644",
        "latin": "An-Naml",
        "transliteration": "An-Naml",
        "translation": "Semut",
        "num_ayah": 93,
        "page": 377,
        "location": "Makkiyah"
    },
    "tafsir": {
        "wajiz": "Perhatikanlah apa yang dialami manusia setiap hari untuk mendekatkan pemahaman tentang hari kebangkitan. Apakah mereka tidak memperhatikan bahwa Kami telah menjadikan malam agar mereka beristirahat padanya dengan tidur dan menjadikan siang yang menerangi agar mereka dapat bekerja dan mencari nafkah? Sungguh, pada yang demikian itu benar-benar terdapat tanda-tanda kebesaran dan kekuasaan Allah yang bermanfaat bagi orang-orang yang beriman, antara lain menjadi bukti kuasa-Nya menghidupkan manusia setelah kematiannya.",
        "tahlili": "Setelah menyampaikan berita yang sangat menakutkan tentang kedahsyatan hari Kiamat, maka Allah pada ayat ini mengemukakan dalil-dalil keesaan-Nya, tentang kepastian akan datangnya hari kebangkitan, dan dalil-dalil yang membenarkan Muhammad saw sebagai utusan Allah. Di antara tanda-tanda kekuasaan Allah adalah adanya malam dan siang yang datang silih berganti. Apakah orang-orang yang mengingkari hari Kiamat itu tidak memperhatikan bahwa sesungguhnya Allah telah menjadikan malam untuk beristirahat dari kesibukan dan kelelahan bekerja pada siang hari, waktu untuk berkumpul dan santai dengan keluarga di rumah masing-masing, dan untuk memulihkan kembali seluruh tenaga dan kekuatan guna melanjutkan tugas pada keesokan harinya. Hari yang terang benderang telah menunggu mereka untuk melanjutkan usaha mencari nafkah bagi diri dan keluarganya. \nTidakkah mereka memikirkan bahwa kesemuanya diatur dan dikemudi-kan oleh Allah Yang Mahakuasa, yang dapat menghidupkan, mematikan, dan membangkitkan mereka setelah mati? Sebagaimana siang dan malam banyak mengandung manfaat dan faedah bagi kehidupan manusia, maka demikian pula diutusnya para rasul itu membawa manfaat yang besar sekali bagi kebahagiaan hidup manusia di dunia dan akhirat. Sesungguhnya pada kejadian-kejadian itu terdapat tanda-tanda kekuasaan Allah bagi orang-orang yang beriman.",
        "intro_surah": "Surah an-Naml terdiri dari 93 ayat, termasuk kelompok surah Makkiyyah dan diturunkan sesudah surah asy-Syu\u2019ar\u0101\u2019. Dinamai dengan an-Naml karena pada ayat 18 dan 19 terdapat perkataan an-naml (semut), di mana raja semut mengatakan kepada anak buahnya, agar masuk ke sarangnya masing-masing supaya jangan terinjak oleh Nabi Sulaiman dan tentaranya yang akan melalui tempat itu. Mendengar perintah raja semut kepada anak buahnya, Nabi Sulaiman tersenyum dan takjub atas keteraturan, keharmonisan, dan kedisiplinan kerajaan semut itu. Beliau mengucapkan syukur kepada Allah Yang Mahakuasa yang telah melimpahkan rahmat dan nikmat-Nya kepadanya berupa kerajaan, kekayaan, memahami ucapan-ucapan binatang, mempunyai tentara yang terdiri atas jin, manusia, dan burung, serta berbagai karunia lainnya. Nabi Sulaiman yang telah diberi Allah hikmah yang besar itu tidak merasa takabur dan sombong, sebagai seorang hamba Allah, mohon agar Allah memasukkannya ke dalam kelompok orang-orang yang saleh.\nAllah menceritakan tentang semut dalam surah ini, agar manusia mengambil pelajaran dari kehidupannya. Semut adalah binatang yang hidup berkelompok di dalam tanah, membuat liang dan ruang yang bertingkat-tingkat sebagai rumah dan gudang tempat menyimpan makanan sebagai persiapan menghadapi musim dingin. Rakyat semut mempunyai organisasi dan kerja sama yang baik. Kerapian dan kedisiplinan yang terdapat dalam kerajaan semut ini, dinyatakan Allah dalam ayat ini dengan menerangkan bagaimana rakyat semut mencari perlindungan dengan segera agar jangan terinjak oleh Nabi Sulaiman dan tentaranya, setelah menerima peringatan dari rajanya.\nSecara tidak langsung, Allah mengingatkan manusia agar berusaha untuk mencukupi kebutuhan sehari-hari, kemaslahatan bersama, dan sebagainya. Dengan mengisahkan Nabi Sulaiman dalam surah ini, Allah mengisyaratkan hari depan dan kebesaran Nabi Muhammad. Sebagaimana Nabi Sulaiman sebagai seorang nabi, rasul, dan raja yang dianugerahi kerajaan yang besar, begitu pula Nabi Muhammad sebagai seorang nabi, rasul, dan kepala negara yang ummi dan miskin akan berhasil membawa dan memimpin umatnya ke jalan Allah.\n\nPokok-pokok Isinya\n1.\tKeimanan:\nAl-Qur\u2019an adalah petunjuk dan rahmat bagi orang-orang yang mukmin. Keesaan dan kekuasaan Allah yang tidak memerlukan sekutu-sekutu dalam mengatur alam ini; hanya Allah-lah yang tahu tentang hal-hal yang gaib, adanya hari kebangkitan bukanlah suatu dongengan.\n2. \tKisah-kisah:\n\tKisah Nabi Musa, kisah Nabi Sulaiman dengan semut, burung hud-hud, dan Ratu Saba\u2019; kisah Nabi Saleh dengan kaumnya; kisah Nabi Lut dengan kaumnya.\n3. \tLain-lain:\nCiri-ciri orang-orang mukmin; Al-Qur\u2019an menjelaskan apa yang diperselisihkan Bani Israil; hanya orang-orang mukmin yang dapat menerima petunjuk dari kejadian-kejadian sebelum datangnya hari Kiamat dan keadaan orang-orang yang beriman waktu itu; Allah menyuruh Nabi Muhammad dan umatnya memuji dan menyembah Allah saja dan membaca Al-Qur\u2019an, Allah akan memperlihatkan kepada kaum musyrikin akan kebenaran ayat-ayat-Nya.\nSurah an-Naml terdiri dari 93 ayat, termasuk kelompok surah Makkiyyah dan diturunkan sesudah surah asy-Syu\u2019ar\u0101\u2019. Dinamai dengan an-Naml karena pada ayat 18 dan 19 terdapat perkataan an-naml (semut), di mana raja semut mengatakan kepada anak buahnya, agar masuk ke sarangnya masing-masing supaya jangan terinjak oleh Nabi Sulaiman dan tentaranya yang akan melalui tempat itu. Mendengar perintah raja semut kepada anak buahnya, Nabi Sulaiman tersenyum dan takjub atas keteraturan, keharmonisan, dan kedisiplinan kerajaan semut itu. Beliau mengucapkan syukur kepada Allah Yang Mahakuasa yang telah melimpahkan rahmat dan nikmat-Nya kepadanya berupa kerajaan, kekayaan, memahami ucapan-ucapan binatang, mempunyai tentara yang terdiri atas jin, manusia, dan burung, serta berbagai karunia lainnya. Nabi Sulaiman yang telah diberi Allah hikmah yang besar itu tidak merasa takabur dan sombong, sebagai seorang hamba Allah, mohon agar Allah memasukkannya ke dalam kelompok orang-orang yang saleh.\nAllah menceritakan tentang semut dalam surah ini, agar manusia mengambil pelajaran dari kehidupannya. Semut adalah binatang yang hidup berkelompok di dalam tanah, membuat liang dan ruang yang bertingkat-tingkat sebagai rumah dan gudang tempat menyimpan makanan sebagai persiapan menghadapi musim dingin. Rakyat semut mempunyai organisasi dan kerja sama yang baik. Kerapian dan kedisiplinan yang terdapat dalam kerajaan semut ini, dinyatakan Allah dalam ayat ini dengan menerangkan bagaimana rakyat semut mencari perlindungan dengan segera agar jangan terinjak oleh Nabi Sulaiman dan tentaranya, setelah menerima peringatan dari rajanya.\nSecara tidak langsung, Allah mengingatkan manusia agar berusaha untuk mencukupi kebutuhan sehari-hari, kemaslahatan bersama, dan sebagainya. Dengan mengisahkan Nabi Sulaiman dalam surah ini, Allah mengisyaratkan hari depan dan kebesaran Nabi Muhammad. Sebagaimana Nabi Sulaiman sebagai seorang nabi, rasul, dan raja yang dianugerahi kerajaan yang besar, begitu pula Nabi Muhammad sebagai seorang nabi, rasul, dan kepala negara yang ummi dan miskin akan berhasil membawa dan memimpin umatnya ke jalan Allah.\n\nPokok-pokok Isinya\n1.\tKeimanan:\nAl-Qur\u2019an adalah petunjuk dan rahmat bagi orang-orang yang mukmin. Keesaan dan kekuasaan Allah yang tidak memerlukan sekutu-sekutu dalam mengatur alam ini; hanya Allah-lah yang tahu tentang hal-hal yang gaib, adanya hari kebangkitan bukanlah suatu dongengan.\n2. \tKisah-kisah:\n\tKisah Nabi Musa, kisah Nabi Sulaiman dengan semut, burung hud-hud, dan Ratu Saba\u2019; kisah Nabi Saleh dengan kaumnya; kisah Nabi Lut dengan kaumnya.\n3. \tLain-lain:\nCiri-ciri orang-orang mukmin; Al-Qur\u2019an menjelaskan apa yang diperselisihkan Bani Israil; hanya orang-orang mukmin yang dapat menerima petunjuk dari kejadian-kejadian sebelum datangnya hari Kiamat dan keadaan orang-orang yang beriman waktu itu; Allah menyuruh Nabi Muhammad dan umatnya memuji dan menyembah Allah saja dan membaca Al-Qur\u2019an, Allah akan memperlihatkan kepada kaum musyrikin akan kebenaran ayat-ayat-Nya.\n",
        "outro_surah": null,
        "munasabah_prev_surah": "HUBUNGAN SURAH ASY-SYU\u2019AR\u0100\u2019\nDENGAN SURAH AN-NAML\n\n1. \tSurah an-Naml melengkapi Surah asy-Syu\u2019ar\u0101\u2019 dengan menambahkan ke dalamnya kisah nabi-nabi yang tidak terdapat dalam Surah asy-Syu\u2019ar\u0101\u2019 yaitu kisah Nabi Daud dan Nabi Sulaiman.\n2. \tPada Surah an-Naml terdapat tambahan-tambahan uraian mengenai kisah Nabi Lut dan Nabi Musa yang sudah dikisahkan dalam Surah Asy Syu\u2019ar\u0101\u2019.\n3. \tMasing-masing dari kedua surah ini memuat sifat-sifat Al-Qur\u2019an dan menerangkan bahwa Al-Qur\u2019an benar-benar diturunkan dari sisi Allah.\n4. \tKedua surah ini sama-sama menghibur hati Nabi Muhammad saw yang mengalami bermacam-macam penderitaan dan permusuhan dari kaumnya.",
        "munasabah_prev_theme": "Pada ayat-ayat yang lalu, Allah menerangkan bukti kebenaran risalah Nabi Muhammad dengan keistimewaan Al-Qur\u2019an dan beliau diperintahkan supaya melaksanakan tugas dengan baik dan bertawakal kepada-Nya. Pada ayat-ayat berikut ini, Allah menggambarkan keadaan hari Kiamat dan hari kebangkitan yaitu saat sangkakala ditiup. Pada saat itu, segala yang ada di langit dan di bumi terkejut, kecuali yang dikehendaki Allah karena mereka telah memiliki bekal yang cukup untuk kehidupan di akhirat.\n",
        "theme_group": "KEADAAN HARI KIAMAT",
        "kosakata": "1.\tA\u1e63-\u1e62\u016br   \u0627\u064e\u0644\u0635\u0651\u064f\u0648\u0652\u0631 (an-Naml/27: 87)\nKata a\u1e63-\u1e63\u016br berarti trompet, berasal dari fi\u2018il \u1e63\u0101ra-ya\u1e63\u016bru-\u1e63auran yang berarti berbunyi atau bersuara. Trompet yang dimaksud dalam ayat 87 Surah an-Naml adalah sangkakala yang ditiup ketika menjelang hari Kiamat. Pada peniupan pertama, semua yang hidup akan mati, kecuali siapa yang dikehendaki Allah. Sedangkan pada peniupan kedua, semua manusia akan bangkit dari kubur.\n2. D\u0101khir\u012bn \u062f\u064e\u0627\u062e\u0650\u0631\u0650\u064a\u0652\u0646\u064e   (an-Naml/27: 87)\nKata d\u0101khirin adalah isim f\u0101\u2019il dalam bentuk jama\u2019 yang berarti orang-orang yang merendahkan diri, diambil dari fi\u2019il (kata kerja) dakhira-yadkharu-dakhran, yang berarti kecil, rendah, hina. Makna d\u0101khir\u012bn dalam ayat 87 Surah an-Naml adalah orang-orang yang merendahkan diri datang kepada Allah setelah dibangkitkan/dihidupkan kembali di akhirat.",
        "sabab_nuzul": null,
        "conclusion": null
    }
}