{
    "id": 3301,
    "surah_id": 28,
    "ayah": 49,
    "page": 391,
    "quarter_hizb": 39.75,
    "juz": 20,
    "manzil": 5,
    "arabic": "\u0642\u064f\u0644\u0652 \u0641\u064e\u0623\u0652\u062a\u064f\u0648\u0652\u0627 \u0628\u0650\u0643\u0650\u062a\u0670\u0628\u064d \u0645\u0651\u0650\u0646\u0652 \u0639\u0650\u0646\u0652\u062f\u0650 \u0627\u0644\u0644\u0651\u0670\u0647\u0650 \u0647\u064f\u0648\u064e \u0627\u064e\u0647\u0652\u062f\u0670\u0649 \u0645\u0650\u0646\u0652\u0647\u064f\u0645\u064e\u0627\u0653 \u0627\u064e\u062a\u0651\u064e\u0628\u0650\u0639\u0652\u0647\u064f \u0627\u0650\u0646\u0652 \u0643\u064f\u0646\u0652\u062a\u064f\u0645\u0652 \u0635\u0670\u062f\u0650\u0642\u0650\u064a\u0652\u0646\u064e ",
    "latin": "Qul fa't\u016b bikit\u0101bim min \u2018indill\u0101hi huwa ahd\u0101 minhum\u0101 attabi\u2018hu in kuntum \u1e63\u0101diq\u012bn(a).",
    "translation": "Katakanlah (Nabi Muhammad), \u201cDatangkanlah sebuah kitab dari sisi Allah yang lebih banyak memberi petunjuk daripada keduanya (Taurat dan Al-Qur\u2019an), niscaya aku mengikutinya, jika kamu orang-orang benar.\u201d",
    "no_footnote": null,
    "footnotes": null,
    "surah": {
        "id": 28,
        "arabic": " \u0627\u0644\u0642\u0635\u0635",
        "latin": "Al-Qa\u1e63a\u1e63",
        "transliteration": "Al-Qasas",
        "translation": "Kisah-Kisah",
        "num_ayah": 88,
        "page": 385,
        "location": "Makkiyah"
    },
    "tafsir": {
        "wajiz": "Untuk menyanggah argumentasi mereka, Allah perintahkan kepada Rasul-Nya, katakanlah kepada mereka wahai Nabi Muhammad, \u201cApabila kamu tidak beriman kepada Taurat dan Al-Qur\u2019an, datangkanlah olehmu, secara sendiri-sendiri atau bersama-sama, sebuah kitab dari sisi Allah yang kitab itu lebih memberi petunjuk daripada keduanya, yakni Taurat dan Al-Qur'an, atau yang semisal dengannya, niscaya aku akan mengikutinya. Lakukanlah jika kamu memang orang yang benar dalam prasangka kamu bahwa apa yang kami datangkan itu adalah sihir.\u201d",
        "tahlili": "Allah menyuruh Muhammad menantang orang-orang kafir Mekah yang mengatakan bahwa Musa dan Muhammad adalah ahli sihir, dan Taurat dan Al-Qur\u2019an adalah sihir belaka, untuk mendatangkan sebuah kitab dari sisi Allah yang lebih memberi petunjuk dan lebih mendatangkan kemaslahatan daripada kedua kitab itu. Nabi menegaskan kepada mereka bahwa dia bersedia meninggalkan Al-Qur\u2019an apabila mereka itu benar dalam pengakuan mereka, dan benar-benar dapat mendatangkan kitab yang dimaksud.",
        "intro_surah": "Surah al-Qa\u1e63a\u1e63 terdiri dari 88 ayat dan termasuk surah-surah Makkiyyah. Dinamai dengan \u201cal-Qa\u1e63a\u1e63\u201d karena pada ayat 25 surah ini terdapat kata \u201cal-qa\u1e63a\u1e63\u201d yang berarti kisah-kisah. Ayat ini menerangkan bahwa setelah Nabi Musa bertemu dengan seorang tokoh Madyan, ia menceritakan pengalaman-nya dengan Fir\u2018aun, dan ketika dikejar dan diburu oleh kaum Fir\u2018aun karena membunuh salah seorang dari bangsa Qib\u1e6di tanpa sengaja. Tokoh tersebut mengatakan bahwa Musa telah selamat dari pengejaran orang-orang zalim itu.\n Turunnya ayat 25 pada surah ini amat besar artinya bagi Nabi Muhammad dan para sahabatnya untuk melakukan hijrah ke Madinah dan menambah keyakinan mereka bahwa akhirnya orang-orang Islamlah yang akan menang. Ayat ini menunjukkan barang siapa yang berhijrah dari tempat musuh untuk mempertahankan keimanan, pastilah akan berhasil dalam perjuangannya menghadapi musuh-musuh agama. Kepastian kemenangan bagi kaum Muslimin itu ditegaskan pada bagian akhir surah ini yang menerangkan bahwa setelah hijrah ke Madinah, kaum Muslimin akan kembali ke Mekah sebagai pemenang dalam menegakkan agama Allah. Surah al-Qa\u1e63a\u1e63 ini adalah surah yang paling lengkap memuat cerita Nabi Musa sehingga menurut suatu riwayat, surah ini dinamai pula dengan Surah Musa.\n\nPokok-pokok Isinya\n1. \tKeimanan:\nAllah menentukan segala sesuatu dan manusia harus rela menerima ketentuan itu. Alam adalah fana, hanya Allah saja yang kekal dan semuanya akan kembali kepada-Nya. Allah mengetahui isi hati manusia baik yang dinyatakan maupun yang disembunyikannya.\n2. \tKisah Fir\u2018aun dan Nabi Musa:\n\tKekejaman Fir\u2018aun dan pertolongan serta karunia Allah kepada Bani Israil. Musa ketika baru lahir dilemparkan ke sungai Nil. Seorang Qib\u1e6di mati dibunuh oleh Musa tanpa sengaja. Musa di Madyan. Musa menerima perintah Allah untuk menyeru Fir\u2018aun di Gunung Tur, serta kisah Karun.\n3. \tLain-lain:\nAl-Qur\u2019an  menerangkan kisah dari umat-umat terdahulu sebagai bukti kerasulan Muhammad saw. Ahli Kitab yang beriman kepada Nabi Muhammad saw diberi pahala dua kali lipat. Hikmah diturunkannya Al-Qur\u2019an secara berangsur-angsur. Hanya Allah yang memberi taufik kepada hamba-hamba-Nya untuk beriman. Allah menghancurkan penduduk suatu negeri adalah karena kezaliman mereka. Allah tidak akan mengazab umatnya sebelum diutus seorang rasul kepada umat itu. Keadaan orang-orang kafir dan sekutu-sekutu mereka di hari Kiamat. Pergantian siang dan malam adalah rahmat bagi manusia. Allah membalas kebaikan dengan berlipat ganda, sedang kejahatan dibalas seimbang dengan perbuatan yang dilakukan. Janji Allah akan memenangkan Nabi Muhammad.",
        "outro_surah": null,
        "munasabah_prev_surah": "MUNASABAH SURAH AN-NAML\nDENGAN SURAH AL-QA\u1e62A\u1e62\n\n1. \tKedua surah ini sama-sama dimulai dengan huruf hijaiyah, menerangkan sifat-sifat Al-Qur\u2019an, kisah Musa dalam Surah al-Qa\u1e63a\u1e63 diterangkan lebih lengkap dibandingkan dengan yang terdapat dalam Surah an-Naml.\n2. \tSurah an-Naml menerangkan secara global bahwa keingkaran orang-orang kafir terhadap hari kebangkitan itu tidak beralasan, kemudian dikemukakan kepada mereka persoalan-persoalan yang ada hubungan-nya dengan hari kebangkitan. Hal ini diterangkan lebih jelas dalam Surah al-Qa\u1e63a\u1e63.\n3. \tSurah an-Naml dan Surah al-Qa\u1e63a\u1e63 masing-masing menerangkan ke-hancuran kaum Nabi Saleh dan kaum Nabi Lut akibat durhaka kepada Allah dan nabi-Nya.\n4. \tSurah an-Naml dan Surah al-Qa\u1e63a\u1e63 masing-masing menyebutkan balas-an pada hari Kiamat terhadap orang-orang yang membuat keburukan di dunia.\n5. \tBagian akhir kedua surah ini masing-masing menyebutkan perintah menyembah Allah dan membaca ayat-ayat Al-Qur\u2019an.\n",
        "munasabah_prev_theme": "Pada ayat-ayat yang lalu diterangkan bahwa tujuan Allah mengutus Muhammad ialah untuk menolak alasan-alasan orang-orang Quraisy ketika mereka ditimpa kemurkaan dan azab Allah, mengapa Allah tidak mengutus kepada mereka seorang rasul yang akan mereka taati? Pada ayat-ayat berikut ini diterangkan bahwa setelah Rasulullah diutus dan Al-Qur\u2019an diturunkan, mereka menentang kedatangan Rasulullah dan mendustakan Al-Qur\u2019an. Mereka meminta agar Rasulullah mendatangkan mukjizat seperti mukjizat-mukjizat yang telah diberikan kepada Nabi Musa seperti penurunan kitab Taurat, tongkat yang berubah menjadi ular, tangan Musa yang bersinar putih bersih jika dikeluarkan dari leher baju, dan lain-lain. Allah menyuruh Rasul-Nya menantang mereka supaya membuat satu kitab yang lebih baik dari Taurat dan Al-Qur\u2019an. Kalau mereka tidak mampu, itu berarti bahwa perbuatan mereka hanya didorong oleh hawa nafsu yang menyesatkan. Allah juga menerangkan bahwa tiadalah Dia menurunkan Al-Qur\u2019an itu berangsur-angsur kecuali supaya menjadi iktibar dan peringatan kepada mereka.",
        "theme_group": "KAFIR MEKAH JUGA MENGINGKARI AL-QUR\u2019AN",
        "kosakata": "1. Haw\u0101hu  \u0647\u064e\u0648\u064e\u0627\u0647\u064f  (al-Qa\u1e63a\u1e63/28: 50)\t \nKata haw\u0101hu merupakan gabungan dua kata yaitu haw\u0101 dan \u1e0dam\u012br mutta\u1e63il dari huwa. Lafal haw\u0101 sendiri terbentuk dari kata haw\u0101-yahwi yang berarti jatuh dari atas ke bawah. Al-Haw\u0101 berarti ruang yang berada antara langit dan bumi atau setiap sesuatu yang kosong dan hampa. Bentuk jamaknya adalah ahwiyah. Al-Haw\u0101 juga diartikan dengan orang yang penakut, karena penakut hatinya seakan-akan kosong. Allah berfirman \u201cWa af\u2019idatuhum haw\u0101\u201d (Ibr\u0101h\u012bm/14: 43) diartikan dengan akal dan hati yang kosong. Al-Haw\u0101 berarti juga setiap batas antara dua ruang/tempat seperti antara bawah sumur dengan atas sumur, antara lain rumah dengan atapnya. Al-Mahw\u0101 diartikan dengan ruang kosong antara dua gunung. Kata haw\u0101 dengan berbagai bentuk derivasinya terulang dalam Al-Qur\u2019an sebanyak 38 kali.\nAl-Haw\u0101 berarti juga kecintaan dan keinginan seorang manusia terhadap sesuatu. Allah berfirman dalam Surah an-N\u0101zi\u2019\u0101t/79: 40, \u201cwa nah\u0101 an-nafs \u2018an al-haw\u0101\u201d (dan menahan diri dari (keinginan) hawa nafsunya). Kata haw\u0101 lebih banyak digunakan untuk arti kecenderungan hati atau jiwa terhadap syahwat. Dinamakan seperti ini karena pemilik hati lebih cenderung kepada dunia atau lebih dikenal dengan istilah hawa nafsu yang lebih bernuansa negatif. Oleh karena itu, Allah menamai salah satu neraka dengan al-H\u0101wiyah (al-Q\u0101ri\u2019ah/101: 9).\nPada ayat ini, Allah menjelaskan sikap orang-orang kafir terhadap kerasulan Muhammad saw. Mereka memintanya untuk mendatangkan seperti apa yang Allah berikan kepada Musa dahulu. Akan tetapi, ketika mereka ditantang untuk mendatangkan kitab suci selain Al-Qur\u2019an dan Taurat yang lebih bisa menjamin kebahagiaan mereka, ternyata mereka tidak bisa mendatangkannya. Ini sebagai bukti bahwa pembangkangan yang mereka lakukan bukanlah keluar atas nama hati nurani, melainkan hanyalah karena terdorong hawa nafsu (al-haw\u0101) belaka.\n2. Wa\u1e63\u1e63aln\u0101  \u0648\u064e\u0635\u0651\u064e\u0644\u0652\u0646\u0627\u064e  (al-Qa\u1e63a\u1e63/28: 51) \nKata wa\u1e63\u1e63aln\u0101 merupakan kata yang terbentuk dari kata wa\u1e63\u1e63ala yang berarti sampai ke tujuan. Wa\u1e63al juga berarti bersambung yang merupakan antonim dari lafal al-fa\u1e63l. Wa\u1e63\u1e63ala juga berarti bersambungnya sesuatu dengan cara teratur dan tidak terputus. Dalam hadisnya, Rasulullah melarang umatnya untuk melakukan wi\u1e63al yaitu puasa yang terus menerus. Kata ini bisa digunakan dalam fiksi dan non fiksi. Dalam fiksi, misalnya wa\u1e63altu ful\u0101n (aku telah mendatangi si fulan). Al-Wa\u1e63\u012blah berarti juga tanah yang luas.\nPada ayat ini dijelaskan bahwa Allah telah menurunkan Al-Qur\u2019an secara bertahap dalam waktu yang berbeda dan masa yang cukup lama. Namun demikian, Al-Qur\u2019an tetap tersusun dengan rapi dan serasi.",
        "sabab_nuzul": null,
        "conclusion": null
    }
}