{
    "id": 3282,
    "surah_id": 28,
    "ayah": 30,
    "page": 389,
    "quarter_hizb": 39.75,
    "juz": 20,
    "manzil": 5,
    "arabic": "\u0641\u064e\u0644\u064e\u0645\u0651\u064e\u0627\u0653 \u0627\u064e\u062a\u0670\u0649\u0647\u064e\u0627 \u0646\u064f\u0648\u0652\u062f\u0650\u064a\u064e \u0645\u0650\u0646\u0652 \u0634\u064e\u0627\u0637\u0650\u0626\u0650 \u0627\u0644\u0652\u0648\u064e\u0627\u062f\u0650 \u0627\u0644\u0652\u0627\u064e\u064a\u0652\u0645\u064e\u0646\u0650 \u0641\u0650\u0649 \u0627\u0644\u0652\u0628\u064f\u0642\u0652\u0639\u064e\u0629\u0650 \u0627\u0644\u0652\u0645\u064f\u0628\u0670\u0631\u064e\u0643\u064e\u0629\u0650 \u0645\u0650\u0646\u064e \u0627\u0644\u0634\u0651\u064e\u062c\u064e\u0631\u064e\u0629\u0650 \u0627\u064e\u0646\u0652 \u064a\u0651\u0670\u0645\u064f\u0648\u0652\u0633\u0670\u0649\u0653 \u0627\u0650\u0646\u0651\u0650\u064a\u0652\u0653 \u0627\u064e\u0646\u064e\u0627 \u0627\u0644\u0644\u0651\u0670\u0647\u064f \u0631\u064e\u0628\u0651\u064f \u0627\u0644\u0652\u0639\u0670\u0644\u064e\u0645\u0650\u064a\u0652\u0646\u064e \u06d9",
    "latin": "Falamm\u0101 at\u0101h\u0101 n\u016bdiya min sy\u0101\u1e6di'il w\u0101dil aimani fil buq\u2018atil mub\u0101rakati minasy syajarati ay y\u0101 m\u016bs\u0101 inn\u012b anall\u0101hu rabbul-\u2018\u0101lam\u012bn(a).",
    "translation": "Maka, ketika dia (Musa) mendatangi (api) itu, dia dipanggil dari pinggir lembah di sebelah kanan (Musa) dari (arah) pohon di sebidang tanah yang diberkahi. \u201cWahai Musa, sesungguhnya Aku adalah Allah, Tuhan semesta alam.562)",
    "no_footnote": "562",
    "footnotes": "562) Di tempat dan saat itulah Nabi Musa a.s. diangkat sebagai rasul.",
    "surah": {
        "id": 28,
        "arabic": " \u0627\u0644\u0642\u0635\u0635",
        "latin": "Al-Qa\u1e63a\u1e63",
        "transliteration": "Al-Qasas",
        "translation": "Kisah-Kisah",
        "num_ayah": 88,
        "page": 385,
        "location": "Makkiyah"
    },
    "tafsir": {
        "wajiz": "Setelah berpesan kepada keluarganya, berangkatlah Nabi Musa. Maka ketika dia sampai ke tempat yang dilihatnya sebagai sumber api itu, dia diseru dari arah pinggir sebelah kanan lembah, dari sebatang pohon yang tumbuh di sebidang tanah yang diberkahi. Panggilan itu adalah, \u201cWahai Musa! Sungguh, Aku yang engkau dengar memanggilmu ini adalah Allah, tidak ada yang patut disembah selain Aku, Tuhan Pencipta, Pemelihara dan Pengawas seluruh alam!",
        "tahlili": "Musa berjalan ke arah api yang dilihatnya itu. Tatkala dia sudah berada di dekat api itu, ia diseru oleh suatu suara di lembah sebelah kanannya. Ia mendengar seruan yang menyatakan kepadanya bahwasanya itu adalah seruan Allah, Tuhan sekalian alam. Musa mendengar seruan Tuhannya di malam yang sunyi senyap, di lembah dalam keadaan sendiri, dan tak seorang pun yang menemaninya. Bagaimana Musa dapat mendengar Kalam Ilahi langsung dari Tuhannya? Karena hal itu adalah suatu hal yang gaib, tidak ada yang mengetahuinya kecuali Allah. Dia telah mengilhamkan kepada Musa keyakinan bahwa yang berbicara dengannya adalah Tuhan sekalian alam. Lembah di mana Musa berdiri dijadikan tempat yang penuh berkah karena di sanalah Musa mendengar firman Tuhannya dan diangkat menjadi rasul.",
        "intro_surah": "Surah al-Qa\u1e63a\u1e63 terdiri dari 88 ayat dan termasuk surah-surah Makkiyyah. Dinamai dengan \u201cal-Qa\u1e63a\u1e63\u201d karena pada ayat 25 surah ini terdapat kata \u201cal-qa\u1e63a\u1e63\u201d yang berarti kisah-kisah. Ayat ini menerangkan bahwa setelah Nabi Musa bertemu dengan seorang tokoh Madyan, ia menceritakan pengalaman-nya dengan Fir\u2018aun, dan ketika dikejar dan diburu oleh kaum Fir\u2018aun karena membunuh salah seorang dari bangsa Qib\u1e6di tanpa sengaja. Tokoh tersebut mengatakan bahwa Musa telah selamat dari pengejaran orang-orang zalim itu.\n Turunnya ayat 25 pada surah ini amat besar artinya bagi Nabi Muhammad dan para sahabatnya untuk melakukan hijrah ke Madinah dan menambah keyakinan mereka bahwa akhirnya orang-orang Islamlah yang akan menang. Ayat ini menunjukkan barang siapa yang berhijrah dari tempat musuh untuk mempertahankan keimanan, pastilah akan berhasil dalam perjuangannya menghadapi musuh-musuh agama. Kepastian kemenangan bagi kaum Muslimin itu ditegaskan pada bagian akhir surah ini yang menerangkan bahwa setelah hijrah ke Madinah, kaum Muslimin akan kembali ke Mekah sebagai pemenang dalam menegakkan agama Allah. Surah al-Qa\u1e63a\u1e63 ini adalah surah yang paling lengkap memuat cerita Nabi Musa sehingga menurut suatu riwayat, surah ini dinamai pula dengan Surah Musa.\n\nPokok-pokok Isinya\n1. \tKeimanan:\nAllah menentukan segala sesuatu dan manusia harus rela menerima ketentuan itu. Alam adalah fana, hanya Allah saja yang kekal dan semuanya akan kembali kepada-Nya. Allah mengetahui isi hati manusia baik yang dinyatakan maupun yang disembunyikannya.\n2. \tKisah Fir\u2018aun dan Nabi Musa:\n\tKekejaman Fir\u2018aun dan pertolongan serta karunia Allah kepada Bani Israil. Musa ketika baru lahir dilemparkan ke sungai Nil. Seorang Qib\u1e6di mati dibunuh oleh Musa tanpa sengaja. Musa di Madyan. Musa menerima perintah Allah untuk menyeru Fir\u2018aun di Gunung Tur, serta kisah Karun.\n3. \tLain-lain:\nAl-Qur\u2019an  menerangkan kisah dari umat-umat terdahulu sebagai bukti kerasulan Muhammad saw. Ahli Kitab yang beriman kepada Nabi Muhammad saw diberi pahala dua kali lipat. Hikmah diturunkannya Al-Qur\u2019an secara berangsur-angsur. Hanya Allah yang memberi taufik kepada hamba-hamba-Nya untuk beriman. Allah menghancurkan penduduk suatu negeri adalah karena kezaliman mereka. Allah tidak akan mengazab umatnya sebelum diutus seorang rasul kepada umat itu. Keadaan orang-orang kafir dan sekutu-sekutu mereka di hari Kiamat. Pergantian siang dan malam adalah rahmat bagi manusia. Allah membalas kebaikan dengan berlipat ganda, sedang kejahatan dibalas seimbang dengan perbuatan yang dilakukan. Janji Allah akan memenangkan Nabi Muhammad.",
        "outro_surah": null,
        "munasabah_prev_surah": "MUNASABAH SURAH AN-NAML\nDENGAN SURAH AL-QA\u1e62A\u1e62\n\n1. \tKedua surah ini sama-sama dimulai dengan huruf hijaiyah, menerangkan sifat-sifat Al-Qur\u2019an, kisah Musa dalam Surah al-Qa\u1e63a\u1e63 diterangkan lebih lengkap dibandingkan dengan yang terdapat dalam Surah an-Naml.\n2. \tSurah an-Naml menerangkan secara global bahwa keingkaran orang-orang kafir terhadap hari kebangkitan itu tidak beralasan, kemudian dikemukakan kepada mereka persoalan-persoalan yang ada hubungan-nya dengan hari kebangkitan. Hal ini diterangkan lebih jelas dalam Surah al-Qa\u1e63a\u1e63.\n3. \tSurah an-Naml dan Surah al-Qa\u1e63a\u1e63 masing-masing menerangkan ke-hancuran kaum Nabi Saleh dan kaum Nabi Lut akibat durhaka kepada Allah dan nabi-Nya.\n4. \tSurah an-Naml dan Surah al-Qa\u1e63a\u1e63 masing-masing menyebutkan balas-an pada hari Kiamat terhadap orang-orang yang membuat keburukan di dunia.\n5. \tBagian akhir kedua surah ini masing-masing menyebutkan perintah menyembah Allah dan membaca ayat-ayat Al-Qur\u2019an.\n",
        "munasabah_prev_theme": "Ayat-ayat yang lalu menerangkan bahwa Musa telah menikah dengan salah seorang putri pemuka agama di Madyan dengan ketentuan bahwa dia harus bekerja untuknya dan keluarganya selama delapan tahun dan atau sepuluh tahun jika Musa tidak keberatan dan ingin berbuat baik. Ayat-ayat berikut ini menerangkan bahwa setelah Musa bekerja di sana selama sepuluh tahun, timbullah keinginannya untuk kembali ke kampung halamannya, menemui kaum kerabatnya yang sudah lama ditinggalkannya. Dia memberanikan diri kembali ke Mesir meskipun nasib yang akan diterimanya belum jelas sama sekali. Di tengah perjalanan, Musa menerima wahyu dari Allah dengan isyarat nyala api di Gunung Tur.",
        "theme_group": "MUSA KEMBALI KE MESIR DAN MENERIMA WAHYU\nUNTUK MENYERU Fir\u2018aun",
        "kosakata": "1. \u0100nasa   \u0622\u0646\u064e\u0633\u064e  (al-Qa\u1e63a\u1e63/28: 29)\nKata itu terambil dari kata dasar anisa-ya\u2019nasu/ya\u2019nusu-anas, atau anasa-ya\u2019nisu-ans, yang mengandung makna \u201clawan liar\u201d berarti \u201cjinak\u201d. \u0100nasa berarti terjadi antara dua pihak, jinak-menjinakkan, dekat-mendekati, yang diterjemahkan menjadi \u201cmelihat\u201d karena sasaran sudah jinak dan dekat dari pemantau. Dalam Al-Qur\u2019an terdapat fa\u2019in \u0101nastum minhum rusydan fadfa\u2019\u016b ilaihim amw\u0101lahum (an-Nis\u0101\u2019/4: 6), artinya \u201cjika kalian melihat kedewasaan pada mereka, maka serahkanlah harta mereka\u201d, yaitu harta anak yatim yang diasuh. Dalam al-Qa\u1e63a\u1e63/28: 29 disebutkan \u0101nasa min j\u0101nib al-\u1e6d\u016br n\u0101ran (ia melihat api di lereng Gunung Tur). Maksudnya adalah Musa ketika menempuh perjalanan dengan istrinya dari Madyan menuju Mesir dalam malam yang gelap gulita, tiba-tiba ia melihat ada api di lereng Gunung Tur.\nDari akar kata di atas terbentuk kata ista\u2019nasa artinya \u201cmembuat hilang rasa keasingan seseorang sehingga orang itu mendengar dan menoleh\u201d. Dalam Al-Qur\u2019an terdapat ayat, \u1e25att\u0101 tasta\u2019nis\u016b wa tusallim\u016b il\u0101 ahlih\u0101 (an-N\u016br/24: 27). Maksudnya: tamu tidak boleh langsung masuk ke dalam rumah seseorang sebelum ia memberi isyarat dengan ketukan pintu atau lainnya, sehingga tuan rumah \u201chilang keasingannya, mendengar, dan menoleh kepadanya.\u201d\nTerdapat akar kata lain dari \u0101nasa di atas, yaitu anisa-ya\u2019nasu-ans artinya \u201cakrab dan lekat di hati\u201d. Dari kata itu terbentuk kata ins (manusia) sebagai lawan kata \u201cjin\u201d. Al-Ins\u0101n adalah \u201cmanusia\u201d, dinamakan demikian karena seorang kepada orang lain lekat di hati masing-masing, sehingga ia tidak akan bisa hidup sendirian tanpa ketergantungan kepada orang lain.\n2.\tAl-Buq\u2019ah al-Mub\u0101rakah    \u0627\u064e\u0644\u0652\u0628\u064f\u0642\u0652\u0639\u064e\u0629\u064f \u0627\u064e\u0644\u0652\u0645\u064f\u0628\u064e\u0627\u0631\u064e\u0643\u064e\u0629\u064f   (al-Qa\u1e63a\u1e63/28: 30)\nBuq\u2019ah adalah tanah datar yang terbentuk di dalam lembah yang terdapat di antara dua gunung menjadi tempat air mengalir di waktu hujan. Berasal dari kata dasar baqa\u2019a-yabqa\u2019u baq\u2019an artinya \u201cpergi ke lembah\u201d. Buq\u2019ah Mub\u0101rakah, sebagaimana dinyatakan dalam al-Qa\u1e63a\u1e63/28: 30, adalah sebuah tanah datar di sebelah kanan lembah tempat Musa dipanggil oleh Allah dalam perjalanannya dari Madyan menuju Mesir. Tanah datar lembah itu \u201cdiberkahi\u201d, karena tempat itu memperoleh kemuliaan sebagai tempat dipanggilnya Musa untuk menghadap Allah. Tempat itu juga dianggap \u201csuci\u201d, karena Musa diminta untuk menanggalkan sandalnya ketika menghadap Allah di sana (\u1e6c\u0101h\u0101/20: 12). Tempat persisnya lembah itu sekarang tidak diketahui karena rute perjalanan Musa juga tidak diketahui secara pasti. Menurut a\u1e6d-\u1e6caba\u1e6daba\u2019\u012b, pemanggilan Musa oleh Allah itu tidak mungkin dipahami seperti manusia memanggil sesamanya. Pemanggilan itu mestilah dari balik hijab sesuai penegasan Allah dalam asy-Sy\u016br\u0101/42: 51, yaitu manusia tidak dapat melihat dan mendengar Allah seperti manusia melihat dan mendengar manusia lain.",
        "sabab_nuzul": null,
        "conclusion": null
    }
}