{
    "id": 3255,
    "surah_id": 28,
    "ayah": 3,
    "page": 385,
    "quarter_hizb": 39.25,
    "juz": 20,
    "manzil": 5,
    "arabic": "\u0646\u064e\u062a\u0652\u0644\u064f\u0648\u0652\u0627 \u0639\u064e\u0644\u064e\u064a\u0652\u0643\u064e \u0645\u0650\u0646\u0652 \u0646\u0651\u064e\u0628\u064e\u0627\u0650 \u0645\u064f\u0648\u0652\u0633\u0670\u0649 \u0648\u064e\u0641\u0650\u0631\u0652\u0639\u064e\u0648\u0652\u0646\u064e \u0628\u0650\u0627\u0644\u0652\u062d\u064e\u0642\u0651\u0650 \u0644\u0650\u0642\u064e\u0648\u0652\u0645\u064d \u064a\u0651\u064f\u0624\u0652\u0645\u0650\u0646\u064f\u0648\u0652\u0646\u064e ",
    "latin": "Natl\u016b \u2018alaika min naba'i m\u016bs\u0101 wa fir\u2018auna bil-\u1e25aqqi liqaumiy yu'min\u016bn(a).",
    "translation": "Kami membacakan kepadamu sebagian dari kisah Musa dan Fir\u02bbaun dengan sebenarnya untuk kaum beriman.",
    "no_footnote": null,
    "footnotes": null,
    "surah": {
        "id": 28,
        "arabic": " \u0627\u0644\u0642\u0635\u0635",
        "latin": "Al-Qa\u1e63a\u1e63",
        "transliteration": "Al-Qasas",
        "translation": "Kisah-Kisah",
        "num_ayah": 88,
        "page": 385,
        "location": "Makkiyah"
    },
    "tafsir": {
        "wajiz": "Salah satu aspek penjelasannya adalah Kami melalui Malaikat Jibril membacakan yakni menyampaikan kepadamu sebagian episode dari kisah penting Nabi Musa dan Firaun, penguasa Mesir pada masanya. Pembacaan dan penyampaian itu dilakukan dengan sebenar-nya dan sesuai dengan kenyataan untuk dimanfaatkan oleh orang-orang yang beriman dengan cara menarik pelajaran dari kisah tersebut.",
        "tahlili": "Pada ayat ini dijelaskan bahwa Allah membacakan kepada Nabi Muhammad dengan perantaraan Jibril ayat-ayat yang berhubungan dengan kisah Nabi Musa dan Fir\u2018aun untuk menjadi pelajaran bagi orang-orang yang beriman. Dengan memperhatikan kisah itu, di mana mereka mengetahui bahwa nasib orang-orang yang durhaka mendapat azab dan orang-orang mukmin terbebas dari penindasan orang-orang zalim, mereka bertambah yakin bahwa Al-Qur\u2019an memang wahyu yang diturunkan Allah kepada Muhammad saw.\nDalam ayat ini disebutkan bahwa kisah Nabi Musa diceritakan khusus bagi kaum mukminin saja, padahal Al-Qur\u2019an diturunkan untuk semua umat manusia baik yang beriman maupun yang kafir. Tujuannya adalah untuk menjelaskan bahwa hanya orang-orang beriman yang dapat mengambil manfaat dari pemaparan kisah-kisah umat terdahulu karena mereka mempunyai pikiran yang jernih dan hati yang suci, serta tidak dipengaruhi oleh hal-hal yang mengotori jiwa dan akal. \nAdapun orang-orang kafir dan tetap dalam kekafiran tidak akan mungkin mendapat manfaat daripadanya, karena mereka telah jauh terperosok ke dalam kemusyrikan. Hati mereka telah dikuasai oleh perasaan dengki, sombong, dan takabur, serta suka memperturutkan hawa nafsu, sehingga sulit bagi mereka menerima kebenaran yang bertentangan dengan keinginan dan kemauan mereka. Bagaimana pun jelasnya ayat-ayat dan bukti-bukti yang dikemukakan, mereka akan tetap mengingkari dan menolaknya dengan berbagai alasan yang dicari-cari seperti mengatakan bahwa Muhammad saw sudah gila atau mukjizat yang diturunkan kepadanya hanya sihir belaka.",
        "intro_surah": "Surah al-Qa\u1e63a\u1e63 terdiri dari 88 ayat dan termasuk surah-surah Makkiyyah. Dinamai dengan \u201cal-Qa\u1e63a\u1e63\u201d karena pada ayat 25 surah ini terdapat kata \u201cal-qa\u1e63a\u1e63\u201d yang berarti kisah-kisah. Ayat ini menerangkan bahwa setelah Nabi Musa bertemu dengan seorang tokoh Madyan, ia menceritakan pengalaman-nya dengan Fir\u2018aun, dan ketika dikejar dan diburu oleh kaum Fir\u2018aun karena membunuh salah seorang dari bangsa Qib\u1e6di tanpa sengaja. Tokoh tersebut mengatakan bahwa Musa telah selamat dari pengejaran orang-orang zalim itu.\n Turunnya ayat 25 pada surah ini amat besar artinya bagi Nabi Muhammad dan para sahabatnya untuk melakukan hijrah ke Madinah dan menambah keyakinan mereka bahwa akhirnya orang-orang Islamlah yang akan menang. Ayat ini menunjukkan barang siapa yang berhijrah dari tempat musuh untuk mempertahankan keimanan, pastilah akan berhasil dalam perjuangannya menghadapi musuh-musuh agama. Kepastian kemenangan bagi kaum Muslimin itu ditegaskan pada bagian akhir surah ini yang menerangkan bahwa setelah hijrah ke Madinah, kaum Muslimin akan kembali ke Mekah sebagai pemenang dalam menegakkan agama Allah. Surah al-Qa\u1e63a\u1e63 ini adalah surah yang paling lengkap memuat cerita Nabi Musa sehingga menurut suatu riwayat, surah ini dinamai pula dengan Surah Musa.\n\nPokok-pokok Isinya\n1. \tKeimanan:\nAllah menentukan segala sesuatu dan manusia harus rela menerima ketentuan itu. Alam adalah fana, hanya Allah saja yang kekal dan semuanya akan kembali kepada-Nya. Allah mengetahui isi hati manusia baik yang dinyatakan maupun yang disembunyikannya.\n2. \tKisah Fir\u2018aun dan Nabi Musa:\n\tKekejaman Fir\u2018aun dan pertolongan serta karunia Allah kepada Bani Israil. Musa ketika baru lahir dilemparkan ke sungai Nil. Seorang Qib\u1e6di mati dibunuh oleh Musa tanpa sengaja. Musa di Madyan. Musa menerima perintah Allah untuk menyeru Fir\u2018aun di Gunung Tur, serta kisah Karun.\n3. \tLain-lain:\nAl-Qur\u2019an  menerangkan kisah dari umat-umat terdahulu sebagai bukti kerasulan Muhammad saw. Ahli Kitab yang beriman kepada Nabi Muhammad saw diberi pahala dua kali lipat. Hikmah diturunkannya Al-Qur\u2019an secara berangsur-angsur. Hanya Allah yang memberi taufik kepada hamba-hamba-Nya untuk beriman. Allah menghancurkan penduduk suatu negeri adalah karena kezaliman mereka. Allah tidak akan mengazab umatnya sebelum diutus seorang rasul kepada umat itu. Keadaan orang-orang kafir dan sekutu-sekutu mereka di hari Kiamat. Pergantian siang dan malam adalah rahmat bagi manusia. Allah membalas kebaikan dengan berlipat ganda, sedang kejahatan dibalas seimbang dengan perbuatan yang dilakukan. Janji Allah akan memenangkan Nabi Muhammad.",
        "outro_surah": null,
        "munasabah_prev_surah": "MUNASABAH SURAH AN-NAML\nDENGAN SURAH AL-QA\u1e62A\u1e62\n\n1. \tKedua surah ini sama-sama dimulai dengan huruf hijaiyah, menerangkan sifat-sifat Al-Qur\u2019an, kisah Musa dalam Surah al-Qa\u1e63a\u1e63 diterangkan lebih lengkap dibandingkan dengan yang terdapat dalam Surah an-Naml.\n2. \tSurah an-Naml menerangkan secara global bahwa keingkaran orang-orang kafir terhadap hari kebangkitan itu tidak beralasan, kemudian dikemukakan kepada mereka persoalan-persoalan yang ada hubungan-nya dengan hari kebangkitan. Hal ini diterangkan lebih jelas dalam Surah al-Qa\u1e63a\u1e63.\n3. \tSurah an-Naml dan Surah al-Qa\u1e63a\u1e63 masing-masing menerangkan ke-hancuran kaum Nabi Saleh dan kaum Nabi Lut akibat durhaka kepada Allah dan nabi-Nya.\n4. \tSurah an-Naml dan Surah al-Qa\u1e63a\u1e63 masing-masing menyebutkan balas-an pada hari Kiamat terhadap orang-orang yang membuat keburukan di dunia.\n5. \tBagian akhir kedua surah ini masing-masing menyebutkan perintah menyembah Allah dan membaca ayat-ayat Al-Qur\u2019an.\n",
        "munasabah_prev_theme": "Pada akhir Surah an-Naml, Allah memerintahkan kepada Nabi Muhammad membacakan Al-Qur\u2019an kepada manusia supaya mereka memperoleh hidayah dan terhindar dari kesesatan. Allah juga menyuruh Nabi supaya memuji Tuhan yang akan menunjukkan tanda-tanda kebesaran-Nya. Pada permulaan Surah al-Qa\u1e63a\u1e63 Allah menegaskan bahwa ayat-ayat Al-Qur\u2019an ini menjelaskan banyak hal, termasuk kisah Nabi Musa dan hubungannya dengan Fir\u2018aun.",
        "theme_group": "KISAH MUSA DAN Fir\u2018aun",
        "kosakata": "1. \u2018Al\u0101   \u0639\u064e\u0644\u064e\u0627  (al-Qa\u1e63a\u1e63/28: 4)\nKata \u2018al\u0101 adalah fi\u2019il m\u0101\u1e0d\u012b (kata kerja yang menunjukkan waktu yang lampau), yaitu \u2018al\u0101\t-ya\u2019l\u016b-\u2019uluwwan, yang berarti meninggi. Yang dimaksud disini adalah merasa diri lebih tinggi daripada yang lain. Akan tetapi, perasaan itu bukan pada tempatnya karena ia tidak memiliki dasar bahkan bertentangan dengan tolok ukur yang benar, misalnya tolok ukur pertim-bangan akal atau agama. Seorang yang berpengaruh dalam ukuran agama dan akal lebih tinggi daripada orang yang bodoh.\nDalam ayat 4 Surah al-Qa\u1e63a\u1e63 disebutkan bahwa Fir\u2018aun berbuat sewenang-wenang di bumi karena merasa dirinya lebih tinggi daripada yang lain.\n2.\tYasta\u1e25y\u012b  \u064a\u064e\u0633\u0652\u062a\u064e\u062d\u0652\u064a\u0650  \t(al-Qa\u1e63a\u1e63/28: 84)\nSecara bahasa yasta\u1e25y\u012b berasal dari kata al-\u1e25ayah yang artinya hidup. Kemudian, kata kerjanya mendapat imbuhan alif, sin, dan ta\u2019, maka artinya menjadi membiarkan hidup. Penyebutan kata ini dengan makna khusus pada ayat ini dimaksudkan untuk memberikan isyarat bahwa kebijakan membiarkan hidup bagi para wanita Yahudi yang dilakukan oleh Fir\u2018aun dan pasukannya bukan karena kasih sayang mereka. Sikap mereka itu ditujukan untuk penyiksaan terhadap para wanita itu dengan menjadikannya sebagai budak dan sarana pemuas seksual.  \nSelain makna di atas, ada pula sebagian ulama yang memahami yasta\u1e25y\u012b merupakan kata yang berasal dari al-\u1e25ay\u0101\u2019 yang artinya malu. Dengan arti ini, mereka ingin menunjukkan bahwa Fir\u2018aun dan tentaranya ingin mempermalukan para wanita Yahudi itu dengan cara pelecehan seksual, atau dengan memeriksa kemaluannya untuk diketahui apakah mereka hamil atau tidak. Namun pendapat ini sangat lemah dan dinilai tidak populer.\n",
        "sabab_nuzul": null,
        "conclusion": null
    }
}