{
    "id": 3294,
    "surah_id": 28,
    "ayah": 42,
    "page": 390,
    "quarter_hizb": 39.75,
    "juz": 20,
    "manzil": 5,
    "arabic": "\u0648\u064e\u0627\u064e\u062a\u0652\u0628\u064e\u0639\u0652\u0646\u0670\u0647\u064f\u0645\u0652 \u0641\u0650\u064a\u0652 \u0647\u0670\u0630\u0650\u0647\u0650 \u0627\u0644\u062f\u0651\u064f\u0646\u0652\u064a\u064e\u0627 \u0644\u064e\u0639\u0652\u0646\u064e\u0629\u064b \u06da\u0648\u064e\u064a\u064e\u0648\u0652\u0645\u064e \u0627\u0644\u0652\u0642\u0650\u064a\u0670\u0645\u064e\u0629\u0650 \u0647\u064f\u0645\u0652 \u0645\u0651\u0650\u0646\u064e \u0627\u0644\u0652\u0645\u064e\u0642\u0652\u0628\u064f\u0648\u0652\u062d\u0650\u064a\u0652\u0646\u064e \u08d6",
    "latin": "Wa atba\u2018n\u0101hum f\u012b h\u0101\u017cihid-dun-y\u0101 la\u2018nah(tan), wa yaumal-qiy\u0101mati hum minal-maqb\u016b\u1e25\u012bn(a).",
    "translation": "Kami memperikutkan laknat kepada mereka di dunia ini dan pada hari Kiamat mereka termasuk orang-orang yang dijauhkan (dari rahmat Allah).",
    "no_footnote": null,
    "footnotes": null,
    "surah": {
        "id": 28,
        "arabic": " \u0627\u0644\u0642\u0635\u0635",
        "latin": "Al-Qa\u1e63a\u1e63",
        "transliteration": "Al-Qasas",
        "translation": "Kisah-Kisah",
        "num_ayah": 88,
        "page": 385,
        "location": "Makkiyah"
    },
    "tafsir": {
        "wajiz": "Dan Kami susulkan laknat kepada mereka di dunia ini berupa kehinaan dan kemurkaan dari Kami; sedangkan pada hari Kiamat mereka termasuk orang-orang yang dijauhkan dari kebaikan, rahmat dan karunia Allah. Adakah siksa yang lebih pedih dari itu semua? Untuk menghindari azab tersebut, Allah memberi jalan keselamatan kepada manusia di zaman Nabi Musa, yaitu dengan berpegang teguh kepada kita suci Taurat seperti dijelaskan pada ayat berikut.",
        "tahlili": "Ayat ini memberi julukan kepada Fir\u2018aun dan kaumnya yang durhaka bahwa mereka adalah pemimpin-pemimpin yang membawa manusia ke neraka karena mereka telah menyesatkan manusia dan memaksa setiap orang untuk kafir terhadap Tuhannya. Mereka merasa bebas melakukan kezaliman sekehendak hatinya, tanpa ada rasa keadilan dan rasa kasih sayang.\nSebenarnya mereka ini telah melakukan dua kesalahan, kesalahan bagi diri mereka sendiri dan kesalahan menyesatkan orang lain. Maka pantaslah bila mereka menerima siksaan yang berlipat ganda, siksaan terhadap kesesatan sendiri dan siksaan karena menyesatkan orang lain. Oleh karena itu, tidak akan ada penolong bagi mereka di akhirat nanti dan tidak ada yang akan membebaskan dari siksa Allah.",
        "intro_surah": "Surah al-Qa\u1e63a\u1e63 terdiri dari 88 ayat dan termasuk surah-surah Makkiyyah. Dinamai dengan \u201cal-Qa\u1e63a\u1e63\u201d karena pada ayat 25 surah ini terdapat kata \u201cal-qa\u1e63a\u1e63\u201d yang berarti kisah-kisah. Ayat ini menerangkan bahwa setelah Nabi Musa bertemu dengan seorang tokoh Madyan, ia menceritakan pengalaman-nya dengan Fir\u2018aun, dan ketika dikejar dan diburu oleh kaum Fir\u2018aun karena membunuh salah seorang dari bangsa Qib\u1e6di tanpa sengaja. Tokoh tersebut mengatakan bahwa Musa telah selamat dari pengejaran orang-orang zalim itu.\n Turunnya ayat 25 pada surah ini amat besar artinya bagi Nabi Muhammad dan para sahabatnya untuk melakukan hijrah ke Madinah dan menambah keyakinan mereka bahwa akhirnya orang-orang Islamlah yang akan menang. Ayat ini menunjukkan barang siapa yang berhijrah dari tempat musuh untuk mempertahankan keimanan, pastilah akan berhasil dalam perjuangannya menghadapi musuh-musuh agama. Kepastian kemenangan bagi kaum Muslimin itu ditegaskan pada bagian akhir surah ini yang menerangkan bahwa setelah hijrah ke Madinah, kaum Muslimin akan kembali ke Mekah sebagai pemenang dalam menegakkan agama Allah. Surah al-Qa\u1e63a\u1e63 ini adalah surah yang paling lengkap memuat cerita Nabi Musa sehingga menurut suatu riwayat, surah ini dinamai pula dengan Surah Musa.\n\nPokok-pokok Isinya\n1. \tKeimanan:\nAllah menentukan segala sesuatu dan manusia harus rela menerima ketentuan itu. Alam adalah fana, hanya Allah saja yang kekal dan semuanya akan kembali kepada-Nya. Allah mengetahui isi hati manusia baik yang dinyatakan maupun yang disembunyikannya.\n2. \tKisah Fir\u2018aun dan Nabi Musa:\n\tKekejaman Fir\u2018aun dan pertolongan serta karunia Allah kepada Bani Israil. Musa ketika baru lahir dilemparkan ke sungai Nil. Seorang Qib\u1e6di mati dibunuh oleh Musa tanpa sengaja. Musa di Madyan. Musa menerima perintah Allah untuk menyeru Fir\u2018aun di Gunung Tur, serta kisah Karun.\n3. \tLain-lain:\nAl-Qur\u2019an  menerangkan kisah dari umat-umat terdahulu sebagai bukti kerasulan Muhammad saw. Ahli Kitab yang beriman kepada Nabi Muhammad saw diberi pahala dua kali lipat. Hikmah diturunkannya Al-Qur\u2019an secara berangsur-angsur. Hanya Allah yang memberi taufik kepada hamba-hamba-Nya untuk beriman. Allah menghancurkan penduduk suatu negeri adalah karena kezaliman mereka. Allah tidak akan mengazab umatnya sebelum diutus seorang rasul kepada umat itu. Keadaan orang-orang kafir dan sekutu-sekutu mereka di hari Kiamat. Pergantian siang dan malam adalah rahmat bagi manusia. Allah membalas kebaikan dengan berlipat ganda, sedang kejahatan dibalas seimbang dengan perbuatan yang dilakukan. Janji Allah akan memenangkan Nabi Muhammad.",
        "outro_surah": null,
        "munasabah_prev_surah": "MUNASABAH SURAH AN-NAML\nDENGAN SURAH AL-QA\u1e62A\u1e62\n\n1. \tKedua surah ini sama-sama dimulai dengan huruf hijaiyah, menerangkan sifat-sifat Al-Qur\u2019an, kisah Musa dalam Surah al-Qa\u1e63a\u1e63 diterangkan lebih lengkap dibandingkan dengan yang terdapat dalam Surah an-Naml.\n2. \tSurah an-Naml menerangkan secara global bahwa keingkaran orang-orang kafir terhadap hari kebangkitan itu tidak beralasan, kemudian dikemukakan kepada mereka persoalan-persoalan yang ada hubungan-nya dengan hari kebangkitan. Hal ini diterangkan lebih jelas dalam Surah al-Qa\u1e63a\u1e63.\n3. \tSurah an-Naml dan Surah al-Qa\u1e63a\u1e63 masing-masing menerangkan ke-hancuran kaum Nabi Saleh dan kaum Nabi Lut akibat durhaka kepada Allah dan nabi-Nya.\n4. \tSurah an-Naml dan Surah al-Qa\u1e63a\u1e63 masing-masing menyebutkan balas-an pada hari Kiamat terhadap orang-orang yang membuat keburukan di dunia.\n5. \tBagian akhir kedua surah ini masing-masing menyebutkan perintah menyembah Allah dan membaca ayat-ayat Al-Qur\u2019an.\n",
        "munasabah_prev_theme": "Ayat-ayat yang lalu menerangkan bahwa Musa telah menyeru Fir\u2018aun kepada agama tauhid, tetapi Fir\u2018aun dan kaumnya menolak seruan itu, walaupun Musa telah mengemukakan bukti-bukti dan dalil-dalil yang kuat dan jelas. Bahkan mereka menuduh Musa sebagai tukang sihir dan semua bukti dan dalil yang dikemukakannya adalah sihir belaka. \nAyat-ayat berikut ini menjelaskan penegasan Fir\u2018aun kepada kaumnya bahwa dia belum pernah menginformasikan kepada mereka ada tuhan selain dia, karena hanya dialah tuhan tertinggi. Kemudian dia memerintahkan kepada wazirnya H\u0101m\u0101n supaya membangun sebuah menara yang tinggi agar ia dapat melihat Tuhan Musa. Karena kesombongan dan ketakaburannya, Allah menenggelamkan Fir\u2018aun ke dalam laut bersama tentaranya, dan melaknatinya.",
        "theme_group": "\nKESOMBONGAN Fir\u2018aun DAN PENGIKUTNYA",
        "kosakata": "1.\t \u1e62ar\u1e25   \u0635\u064e\u0631\u0652\u062d\u064c (al-Qa\u1e63a\u1e63/28: 38)\nAkar katanya adalah \u1e63ara\u1e25a-ya\u1e63ru\u1e25u-\u1e63ar\u0101\u1e25ah, artinya \u201csuci, bersih, jelas\u201d. \u1e62arra\u1e25a adalah menyatakan pendapat dengan gamblang. \u1e62ar\u1e25 juga bermakna gedung yang tinggi dan bersih, atau istana. Dalam Al-Qur\u2019an terdapat ayat, q\u012bla lahadkhuli\u1e63-\u1e63ar\u1e25(a), falamm\u0101 ra\u2019athu \u1e25asibathu lujjah (dikatakan kepadanya (Balqis), \u201cMasuklah ke dalam istana. Maka ketika dia (Balqis) melihat (lantai istana) itu, dikiranya kolam air yang besar) (an-Naml/27: 44). Ia adalah Ratu Balqis yang mengunjungi Nabi Sulaiman di istananya. Ratu itu takjub sekali dan kemudian menyatakan keislamannya. Juga terdapat ayat, fa\u2019auqid l\u012b y\u0101 h\u0101m\u0101nu \u2018ala\u1e6d-\u1e6d\u012bni faj\u2019al l\u012b \u1e63ar\u1e25al la\u2019all\u012b a\u1e6d\u1e6dali\u2019u il\u0101 il\u0101hi m\u016bs\u0101, (Maka bakarlah tanah liat untukku wahai Haman (untuk membuat batu bata), kemudian buatkanlah bangunan yang tinggi untukku agar aku dapat naik melihat Tuhannya Musa) (al-Qa\u1e63a\u1e63/28: 38). \n2. Al-Maqb\u016b\u1e25in \u0627\u064e\u0644\u0652\u0645\u064e\u0642\u0652\u0628\u064f\u0648\u0652\u062d\u0650\u064a\u0652\u0646\u064f   (al-Qa\u1e63a\u1e63/28: 42)\nAl-Maqb\u016b\u1e25\u012bn merupakan bentuk jamak dari isim maf\u2019\u016bl al-maqbu\u1e25 yang berasal dari kata qabu\u1e25a-yaqbu\u1e25u yang secara bahasa berarti buruk, sebagai antonim dari bagus. Biasanya lafal ini diungkapkan untuk menyifati sebuah bentuk keburukan atau kejelekan. Dalam sebuah hadis, Rasulullah bersabda, \u201cl\u0101 tuqabbi\u1e25u al-wajh\u201d, artinya: janganlah kalian berkata kepada seseorang bahwa dia berwajah jelek. Qabba\u1e25a All\u0101h artinya Allah menjadikan jelek. Al-Maqb\u016b\u1e25 berarti orang yang ditolak, dijauhkan atau dianggap jelek, Al-Qab\u012b\u1e25 berarti suatu pekerjaan atau keadaan yang membuat penglihatan mata dan hati tidak merasa nyaman. Al-Qab\u012b\u1e25 berarti juga ujung tulang siku. Dalam Al-Qur\u2019an kalimat qabu\u1e25a ini hanya terulang sekali yaitu bentuk al-maqb\u016b\u1e25\u012bn.\nDalam ayat ini, al-maqb\u016b\u1e25\u012bn berarti mereka akan dijauhkan dari kebaikan, karunia, dan rahmat Allah. Diceritakan sebelumnya bahwa Fir\u2018aun dan kaumnya senantiasa menyombongkan diri dan berusaha untuk menyesatkan dan membuat kafir orang lain sehingga mereka dijuluki a\u2019immah (pemimpin-pemimpin) dalam kesesatan. Oleh karena itu, pada hari Kiamat nanti mereka tidak akan mendapatkan pertolongan Allah dan termasuk orang-orang yang mendapatkan laknat-Nya. Karena sikapnya, mereka pun termasuk kelompok maqb\u016b\u1e25\u012bn (dijauhkan) dari rahmat Allah dan akan mendapatkan siksaan yang sangat pedih. Balasan ini merupakan hal yang wajar dan pantas jika melihat dua kesalahan yang mereka lakukan yaitu kesalahan menyesatkan diri mereka dan kesalahan menyesatkan orang lain. Al-Maqb\u016b\u1e25\u012bn juga mengandung sebuah keadaan yang membuat orang merasa ingin menghindar dan menjauh.",
        "sabab_nuzul": null,
        "conclusion": null
    }
}