{
    "id": 3277,
    "surah_id": 28,
    "ayah": 25,
    "page": 388,
    "quarter_hizb": 39.5,
    "juz": 20,
    "manzil": 5,
    "arabic": "\u0641\u064e\u062c\u064e\u0627\u06e4\u0621\u064e\u062a\u0652\u0647\u064f \u0627\u0650\u062d\u0652\u062f\u0670\u0649\u0647\u064f\u0645\u064e\u0627 \u062a\u064e\u0645\u0652\u0634\u0650\u064a\u0652 \u0639\u064e\u0644\u064e\u0649 \u0627\u0633\u0652\u062a\u0650\u062d\u0652\u064a\u064e\u0627\u06e4\u0621\u064d  \u06d6\u0642\u064e\u0627\u0644\u064e\u062a\u0652 \u0627\u0650\u0646\u0651\u064e \u0627\u064e\u0628\u0650\u064a\u0652 \u064a\u064e\u062f\u0652\u0639\u064f\u0648\u0652\u0643\u064e \u0644\u0650\u064a\u064e\u062c\u0652\u0632\u0650\u064a\u064e\u0643\u064e \u0627\u064e\u062c\u0652\u0631\u064e \u0645\u064e\u0627 \u0633\u064e\u0642\u064e\u064a\u0652\u062a\u064e \u0644\u064e\u0646\u064e\u0627\u06d7 \u0641\u064e\u0644\u064e\u0645\u0651\u064e\u0627 \u062c\u064e\u0627\u06e4\u0621\u064e\u0647\u0657 \u0648\u064e\u0642\u064e\u0635\u0651\u064e \u0639\u064e\u0644\u064e\u064a\u0652\u0647\u0650 \u0627\u0644\u0652\u0642\u064e\u0635\u064e\u0635\u064e\u06d9  \u0642\u064e\u0627\u0644\u064e \u0644\u064e\u0627 \u062a\u064e\u062e\u064e\u0641\u0652\u06d7 \u0646\u064e\u062c\u064e\u0648\u0652\u062a\u064e \u0645\u0650\u0646\u064e \u0627\u0644\u0652\u0642\u064e\u0648\u0652\u0645\u0650 \u0627\u0644\u0638\u0651\u0670\u0644\u0650\u0645\u0650\u064a\u0652\u0646\u064e ",
    "latin": "Faj\u0101'athu i\u1e25d\u0101hum\u0101 tamsy\u012b \u2018alasti\u1e25y\u0101'(in), q\u0101lat inna ab\u012b yad\u2018\u016bka liyajziyaka ajra m\u0101 saqaita lan\u0101, falamm\u0101 j\u0101'ah\u016b wa qa\u1e63\u1e63a \u2018alaihil-qa\u1e63a\u1e63(a), q\u0101la l\u0101 takhaf, najauta minal-qaumi\u1e93-\u1e93\u0101lim\u012bn(a).",
    "translation": "Lalu, datanglah kepada Musa salah seorang dari keduanya itu sambil berjalan dengan malu-malu. Dia berkata, \u201cSesungguhnya ayahku mengundangmu untuk memberi balasan sebagai imbalan atas (kebaikan)-mu memberi minum (ternak) kami.\u201d Ketika (Musa) mendatanginya dan menceritakan kepadanya kisah (dirinya), dia berkata, \u201cJanganlah engkau takut! Engkau telah selamat dari orang-orang yang zalim itu.\u201d",
    "no_footnote": null,
    "footnotes": null,
    "surah": {
        "id": 28,
        "arabic": " \u0627\u0644\u0642\u0635\u0635",
        "latin": "Al-Qa\u1e63a\u1e63",
        "transliteration": "Al-Qasas",
        "translation": "Kisah-Kisah",
        "num_ayah": 88,
        "page": 385,
        "location": "Makkiyah"
    },
    "tafsir": {
        "wajiz": "Kedua perempuan yang dibantu oleh Musa menceritakan kebaikan Musa kepada ayah mereka. Sang Ayah memerintahkan salah seorang dari putrinya untuk mengundang Musa ke rumah. Kemudian datanglah kepada Musa salah seorang dari kedua perempuan yang baru saja ia bantu itu. Ia datang dalam keadan berjalan dengan malu-malu karena ditugaskan bertemu muka seorang diri dengan pemuda tampan dan berwibawa yang telah membantunya untuk mengundangnya ke rumah. Menyampaikan pesan sang ayah, dia berkata, \u201cSesungguhnya ayahku mengundangmu untuk memberi balasan sebagai imbalan atas kebaikan-mu memberi minum ternak kami. Ketika Musa mendatangi dan menemui ayah perempuan itu dirumahnya, dengan segera Musa yang sedang memerlukan bantuan menceritakan kepadanya kisah dirinya, Fir'aun dan masyarakat Mesir. Ayah perempuan itu berkata, \u201cJanganlah engkau takut. Kekuasaan Fir'aun tidak sampai ke wilayah ini, dan Tuhan tidak akan mencelakakan orang-orang yang selalu berbuat baik dan dekat dengan-Nya. Tenanglah, engkau telah selamat dari orang-orang yang zalim itu.\u201d",
        "tahlili": "Pada ayat ini dijelaskan bagaimana akhir penderitaan yang dialami Musa dengan dikabulkan doanya oleh Allah. Tak disangka-sangka, datanglah salah seorang dari kedua gadis itu dengan agak malu-malu dan berkata kepada Musa bahwa ayahnya mengundang Musa datang ke rumahnya untuk sekadar membalas budi baik Musa yang telah menolong mereka mengambil air minum dan memberi minum binatang ternak mereka. Musa dapat memahami bahwa kedua gadis itu berasal dari keluarga orang baik-baik, karena melihat sikapnya yang sopan dan di waktu datang kepadanya dan mendengar bahwa yang mengundang datang ke rumahnya itu bukan dia sendiri melainkan ayahnya. Kalau gadis itu sendiri yang mengundang, mungkin timbul kesan yang tidak baik terhadapnya.\nPara mufasir berbeda pendapat tentang ayah gadis itu apakah dia Nabi Syuaib atau bukan. Sebagian ulama berpendapat bahwa ayah kedua gadis itu adalah seorang pemuka agama yang saleh dan telah berusia lanjut. Adapun pendapat yang mengatakan bahwa ayah wanita itu adalah Nabi Syuaib tidak bisa diterima karena Nabi Syuaib hidup jauh sebelum Nabi Musa. \nAkhirnya berangkatlah Musa bersama gadis itu ke rumah orang tua mereka. Setelah sampai, Musa menceritakan kepada orang tua gadis itu riwayat hidupnya bersama Fir\u2018aun, bagaimana kesombongan dan peng-hinaannya terhadap Bani Israil, sampai kepada keputusan dan perintah untuk membunuhnya, sehingga ia lari dari Mesir karena takut dibunuh. Orang tua itu mendengarkan cerita Musa dengan penuh perhatian. Setelah Musa selesai bercerita, orang tua itu berkata kepadanya, \u201cEngkau tidak perlu merasa takut dan khawatir karena engkau telah lepas dari kekuasaan orang-orang zalim itu. Mereka tidak akan dapat menangkapmu, karena engkau telah berada di luar batas kerajaan mereka.\u201d Dengan demikian, hati Musa merasa tenteram karena ia sudah mendapat perlindungan di rumah seorang pemuka agama yang besar pengaruhnya di kawasan tersebut.",
        "intro_surah": "Surah al-Qa\u1e63a\u1e63 terdiri dari 88 ayat dan termasuk surah-surah Makkiyyah. Dinamai dengan \u201cal-Qa\u1e63a\u1e63\u201d karena pada ayat 25 surah ini terdapat kata \u201cal-qa\u1e63a\u1e63\u201d yang berarti kisah-kisah. Ayat ini menerangkan bahwa setelah Nabi Musa bertemu dengan seorang tokoh Madyan, ia menceritakan pengalaman-nya dengan Fir\u2018aun, dan ketika dikejar dan diburu oleh kaum Fir\u2018aun karena membunuh salah seorang dari bangsa Qib\u1e6di tanpa sengaja. Tokoh tersebut mengatakan bahwa Musa telah selamat dari pengejaran orang-orang zalim itu.\n Turunnya ayat 25 pada surah ini amat besar artinya bagi Nabi Muhammad dan para sahabatnya untuk melakukan hijrah ke Madinah dan menambah keyakinan mereka bahwa akhirnya orang-orang Islamlah yang akan menang. Ayat ini menunjukkan barang siapa yang berhijrah dari tempat musuh untuk mempertahankan keimanan, pastilah akan berhasil dalam perjuangannya menghadapi musuh-musuh agama. Kepastian kemenangan bagi kaum Muslimin itu ditegaskan pada bagian akhir surah ini yang menerangkan bahwa setelah hijrah ke Madinah, kaum Muslimin akan kembali ke Mekah sebagai pemenang dalam menegakkan agama Allah. Surah al-Qa\u1e63a\u1e63 ini adalah surah yang paling lengkap memuat cerita Nabi Musa sehingga menurut suatu riwayat, surah ini dinamai pula dengan Surah Musa.\n\nPokok-pokok Isinya\n1. \tKeimanan:\nAllah menentukan segala sesuatu dan manusia harus rela menerima ketentuan itu. Alam adalah fana, hanya Allah saja yang kekal dan semuanya akan kembali kepada-Nya. Allah mengetahui isi hati manusia baik yang dinyatakan maupun yang disembunyikannya.\n2. \tKisah Fir\u2018aun dan Nabi Musa:\n\tKekejaman Fir\u2018aun dan pertolongan serta karunia Allah kepada Bani Israil. Musa ketika baru lahir dilemparkan ke sungai Nil. Seorang Qib\u1e6di mati dibunuh oleh Musa tanpa sengaja. Musa di Madyan. Musa menerima perintah Allah untuk menyeru Fir\u2018aun di Gunung Tur, serta kisah Karun.\n3. \tLain-lain:\nAl-Qur\u2019an  menerangkan kisah dari umat-umat terdahulu sebagai bukti kerasulan Muhammad saw. Ahli Kitab yang beriman kepada Nabi Muhammad saw diberi pahala dua kali lipat. Hikmah diturunkannya Al-Qur\u2019an secara berangsur-angsur. Hanya Allah yang memberi taufik kepada hamba-hamba-Nya untuk beriman. Allah menghancurkan penduduk suatu negeri adalah karena kezaliman mereka. Allah tidak akan mengazab umatnya sebelum diutus seorang rasul kepada umat itu. Keadaan orang-orang kafir dan sekutu-sekutu mereka di hari Kiamat. Pergantian siang dan malam adalah rahmat bagi manusia. Allah membalas kebaikan dengan berlipat ganda, sedang kejahatan dibalas seimbang dengan perbuatan yang dilakukan. Janji Allah akan memenangkan Nabi Muhammad.",
        "outro_surah": null,
        "munasabah_prev_surah": "MUNASABAH SURAH AN-NAML\nDENGAN SURAH AL-QA\u1e62A\u1e62\n\n1. \tKedua surah ini sama-sama dimulai dengan huruf hijaiyah, menerangkan sifat-sifat Al-Qur\u2019an, kisah Musa dalam Surah al-Qa\u1e63a\u1e63 diterangkan lebih lengkap dibandingkan dengan yang terdapat dalam Surah an-Naml.\n2. \tSurah an-Naml menerangkan secara global bahwa keingkaran orang-orang kafir terhadap hari kebangkitan itu tidak beralasan, kemudian dikemukakan kepada mereka persoalan-persoalan yang ada hubungan-nya dengan hari kebangkitan. Hal ini diterangkan lebih jelas dalam Surah al-Qa\u1e63a\u1e63.\n3. \tSurah an-Naml dan Surah al-Qa\u1e63a\u1e63 masing-masing menerangkan ke-hancuran kaum Nabi Saleh dan kaum Nabi Lut akibat durhaka kepada Allah dan nabi-Nya.\n4. \tSurah an-Naml dan Surah al-Qa\u1e63a\u1e63 masing-masing menyebutkan balas-an pada hari Kiamat terhadap orang-orang yang membuat keburukan di dunia.\n5. \tBagian akhir kedua surah ini masing-masing menyebutkan perintah menyembah Allah dan membaca ayat-ayat Al-Qur\u2019an.\n",
        "munasabah_prev_theme": "Pada ayat-ayat yang lalu, Allah menerangkan bahwa Musa telah membu-nuh seorang penduduk asli Mesir, kaum Fir\u2018aun, karena ingin menolong seorang Bani Israil. Berita mengenai pembunuhan yang pernah dilakukannya itu tersiar luas ke semua pelosok negeri Mesir dan akhirnya sampai ke telinga Fir\u2018aun. Oleh karena itu, Fir\u2018aun bermusyawarah dengan para pembesarnya, apakah tindakan yang akan diambil terhadap Musa karena perbuatannya itu. Semua yang hadir mengusulkan supaya Musa dibunuh saja dan usul itu diterima oleh Fir\u2018aun dan akan dilaksanakan secepat mungkin. Kebetulan di antara yang hadir dalam pertemuan itu ada seorang yang beriman dan bersimpati kepada Musa. Pada ayat-ayat berikut ini, Allah menerangkan bahwa orang yang mengetahui rencana pembunuhan Musa itu menyampaikan kesepakatan itu kepada Musa dan menasihatinya agar segera meninggalkan Mesir. Oleh sebab itu, berangkatlah Musa meninggalkan Mesir menuju ke negeri Madyan yang terletak di sebelah Timur Mesir.",
        "theme_group": "MUSA MENINGGALKAN MESIR\n",
        "kosakata": "1. Ya\u2019tamir\u016bn  \u064a\u064e\u0623\u0652 \u062a\u064e\u0645\u0650\u0631\u064f\u0648\u0652\u0646\u064e   (al-Qa\u1e63a\u1e63/28: 20)\nKata dasar kata ini adalah amara-ya\u2019muru-amr artinya \u201cmemerintahkan\u201d. Di dalam Al-Qur\u2019an terdapat ayat, qul amara rabb\u012b bil-qis\u1e6d (katakanlah, \u201cTuhanku memerintahkan keadilan.\u201d) (al-A\u2018r\u0101f/7: 29). Dalam bentuk masdar misalnya at\u0101 amru Allah (telah datang perintah Allah) (an-Na\u1e25l/16: 1), yaitu kiamat. Dari kata dasar itu terbentuk kata i\u2019tamara \u2018saling memerintahkan\u2019 atau \u2018saling menaati\u2019, artinya \u201cbermusyawarah\u201d. Bentuk mu\u1e0d\u0101ri\u2019-nya adalah ya\u2019tamiru. Ya\u2019tamir\u016bn adalah jamaknya, artinya \u201cmereka sedang bermusyawarah\u201d. Yang dimaksud dalam ayat ini (al-Qa\u1e63a\u1e63/28: 20) adalah bahwa para pembesar Mesir sedang berembuk untuk merencanakan pembunuhan atas diri Musa karena ia sudah membunuh seorang penduduk Mesir. Dari kata itu terbentuk kata mu\u2019tamar, yaitu muktamar, kongres, atau sidang untuk membahas persoalan tertentu.\n2. Madyan atau Midian   \u0645\u064e\u062f\u0652\u064a\u064e\u0646\u064e   (al-Qa\u1e63a\u1e63/28: 23)\nMadyan adalah negeri atau kawasan tempat Nabi Syuaib diutus Allah untuk mengingatkan masyarakatnya (akhahum) (al-A\u2018r\u0101f/7: 85) menghindari penyembahan berhala dan menjauhi kezaliman. Di dalam Al-Qur\u2019an kata Madyan sepuluh kali disebutkan dalam tujuh surah. Madyan ini yang menjadi tempat persinggahan Nabi Musa ketika ia lari dari Mesir karena diancam akan dibunuh oleh Fir\u2018aun setelah ia membunuh orang Mesir. Di Madyan ini pula ia menikah dengan putri seorang pemuka setempat (al-Qa\u1e63a\u1e63/28: 22-28). Madyan boleh jadi sama dengan Midian dalam Perjanjian Lama. Letak kawasan ini mungkin di Kanaan, sebelah barat Yordania dan Laut Mati, berbatasan dengan Semenanjung Sinai. Daerah-daerah Madyan ini berada di suatu jalan raya perdagangan Asia, di antara dua bangsa yang kaya dan sudah teratur baik atau berbudaya, seperti Mesir dan Mesopotamia. Nama tempat ini diambil dari nama anak Ibrahim, Midian (Madyan). Midian adalah anak Ibrahim dari istrinya yang bernama Ketura (Bibel, Keturah), yang dinikahi Ibrahim setelah Sara (Bibel, Sarah) meninggal. Anak Abraham dari perempuan ini enam orang, anak keempat bernama Midian (Kej.  25: 2 Tawarikh I, 1: 32). Midian (Madyan) merupakan leluhur orang Arab yang tinggal di Sahara utara dari semenanjung Arab. Mereka memang berdarah Arab, dan sebagai tetangga orang-orang Kanaan, mereka sudah bercampur-baur ke selatan sampai ke timur pantai Teluk Ailah dan ke utara sampai ke perbatasan dengan Palestina. Jadi kawasan Madyan adalah sebuah eponim dari nama anak Abraham itu.\nWatak penduduknya berbeda-beda, ada yang keras dan banyak melakukan pelanggaran serta umumnya mereka adalah penyembah berhala, meskipun banyak juga yang ramah. Mereka adalah suku pengembara dan pedagang. Yitro, seorang imam di tempat itu dan mertua Musa, dan Hobab anaknya, bersahabat baik dengan orang-orang Israel (Bilangan 10: 29; Hakim-Hakim 1: 16). Hubungan kekeluargaan Musa dengan orang-orang Midian (Kel. 2: 15 ff.) sangat baik karena perkawinannya dengan putri Yitro, Zipporah (Kel. 2:  18). Tetapi sejarah Madyan kemudian tidak jelas setelah terjadi perang pembasmian oleh orang-orang Israel di masa Musa terhadap orang Madyan, dan mereka menjadi musuh orang Israel (Hakim-Hakim 4-8) dan Madyan kemudian menjadi hancur.\nMenurut Perjanjian Lama, Tuhan berfirman kepada Musa agar orang Israel melakukan pembalasan kepada orang Midian. Kemudian Musa mengerahkan tiap suku kaum Israel bersenjata melakukan perang pembalasan Tuhan kepada orang Midian, lalu mereka berperang melawan Midian, seperti yang diperintahkan Tuhan kepada Musa. Mereka membunuh semua laki-laki Midian, dan mereka juga membunuh raja-raja Midian Kemudian Israel menawan perempuan-perempuan Midian dan anak-anak mereka; juga segala hewan, ternak, dan segenap kekayaan mereka dijarah. Segala kota kediaman serta tempat perkemahan mereka dibakar. Seluruh jarahan dan rampasan berupa manusia dan hewan diambil, lalu dibawa kepada Musa dan Imam Eleazar dan kepada umat Israel di tempat perkemahan mereka di dataran Moab. (Bilangan 31: 1-12).",
        "sabab_nuzul": null,
        "conclusion": null
    }
}