{
    "id": 3338,
    "surah_id": 28,
    "ayah": 86,
    "page": 396,
    "quarter_hizb": 40.25,
    "juz": 20,
    "manzil": 5,
    "arabic": "\u0648\u064e\u0645\u064e\u0627 \u0643\u064f\u0646\u0652\u062a\u064e \u062a\u064e\u0631\u0652\u062c\u064f\u0648\u0652\u0653\u0627 \u0627\u064e\u0646\u0652 \u064a\u0651\u064f\u0644\u0652\u0642\u0670\u0653\u0649 \u0627\u0650\u0644\u064e\u064a\u0652\u0643\u064e \u0627\u0644\u0652\u0643\u0650\u062a\u0670\u0628\u064f \u0627\u0650\u0644\u0651\u064e\u0627 \u0631\u064e\u062d\u0652\u0645\u064e\u0629\u064b \u0645\u0651\u0650\u0646\u0652 \u0631\u0651\u064e\u0628\u0651\u0650\u0643\u064e  \u0641\u064e\u0644\u064e\u0627 \u062a\u064e\u0643\u064f\u0648\u0652\u0646\u064e\u0646\u0651\u064e \u0638\u064e\u0647\u0650\u064a\u0652\u0631\u064b\u0627 \u0644\u0651\u0650\u0644\u0652\u0643\u0670\u0641\u0650\u0631\u0650\u064a\u0652\u0646\u064e \u06d6 ",
    "latin": "Wa m\u0101 kunta tarj\u016b ay yulq\u0101 ilaikal-kit\u0101bu ill\u0101 ra\u1e25matam mir rabbika fal\u0101 tak\u016bnanna \u1e93ah\u012bral lil-k\u0101fir\u012bn(a).",
    "translation": "Engkau tidak pernah mengharap agar Kitab (Al-Qur\u2019an) itu diturunkan kepadamu, tetapi ia (diturunkan) sebagai rahmat dari Tuhanmu. Oleh sebab itu, janganlah engkau sekali-kali menjadi penolong bagi orang-orang kafir.",
    "no_footnote": null,
    "footnotes": null,
    "surah": {
        "id": 28,
        "arabic": " \u0627\u0644\u0642\u0635\u0635",
        "latin": "Al-Qa\u1e63a\u1e63",
        "transliteration": "Al-Qasas",
        "translation": "Kisah-Kisah",
        "num_ayah": 88,
        "page": 385,
        "location": "Makkiyah"
    },
    "tafsir": {
        "wajiz": "Pada masa sebelum turunnya wahyu pertama, engkau wahai Nabi Muhammad tidak pernah menduga dan mengharap agar Kitab Al-Qur'an itu diturunkan kepadamu, tetapi ternyata ia diturunkan oleh Allah kepadamu. Hal ini adalah sebagai rahmat yang sangat besar dari Tuhanmu, bagi dirimu dan seluruh makhluk di alam raya ini. Oleh sebab itu, ingatlah nikmat tersebut, dan tetaplah menyampaikannya. Janganlah sekali-kali engkau menjadi penolong bagi orang-orang kafir,",
        "tahlili": "Ayat ini menerangkan bahwa Muhammad tidak pernah mengharapkan diturunkannya Al-Qur\u2019an kepadanya untuk mengetahui berita-berita orang-orang sebelumnya, dan hal-hal yang terjadi sesudahnya, antara lain seperti agama yang mengandung kebahagiaan bagi manusia di dunia dan akhirat, dan juga adab-adab yang meninggikan derajat mereka dan mencerdaskan akal pikiran mereka. Sekalipun demikian, Allah menurunkan semuanya itu kepada Muhammad sebagai rahmat dari-Nya.\nPada ayat ini, Allah melarang Nabi Muhammad dan umatnya untuk membantu perjuangan orang-orang kafir dalam bentuk apa pun. Umat Muhammad justru dituntut untuk membantu memperkuat perjuangan umat Islam. Oleh karena itu, hendaklah ia memuji Tuhannya atas nikmat yang dikaruniakan kepadanya dengan penurunan kitab suci Al-Qur\u2019an. Nabi saw tidak perlu menolong dan membantu orang-orang musyrik yang mengingkari Kitab suci Al-Qur\u2019an itu, tetapi hendaklah ia memisahkan diri dan berpaling dari mereka sesuai dengan firman Allah:\n\u0641\u064e\u0627\u0635\u0652\u062f\u064e\u0639\u0652 \u0628\u0650\u0645\u064e\u0627 \u062a\u064f\u0624\u0652\u0645\u064e\u0631\u064f \u0648\u064e\u0627\u064e\u0639\u0652\u0631\u0650\u0636\u0652 \u0639\u064e\u0646\u0650 \u0627\u0644\u0652\u0645\u064f\u0634\u0652\u0631\u0650\u0643\u0650\u064a\u0652\u0646\u064e \u0669\u0664 (\u0627\u0644\u062d\u062c\u0631)\nMaka sampaikanlah (Muhammad) secara terang-terangan segala apa yang diperintahkan (kepadamu) dan berpalinglah dari orang yang musyrik. (al-\u1e24ijr/15: 94)",
        "intro_surah": "Surah al-Qa\u1e63a\u1e63 terdiri dari 88 ayat dan termasuk surah-surah Makkiyyah. Dinamai dengan \u201cal-Qa\u1e63a\u1e63\u201d karena pada ayat 25 surah ini terdapat kata \u201cal-qa\u1e63a\u1e63\u201d yang berarti kisah-kisah. Ayat ini menerangkan bahwa setelah Nabi Musa bertemu dengan seorang tokoh Madyan, ia menceritakan pengalaman-nya dengan Fir\u2018aun, dan ketika dikejar dan diburu oleh kaum Fir\u2018aun karena membunuh salah seorang dari bangsa Qib\u1e6di tanpa sengaja. Tokoh tersebut mengatakan bahwa Musa telah selamat dari pengejaran orang-orang zalim itu.\n Turunnya ayat 25 pada surah ini amat besar artinya bagi Nabi Muhammad dan para sahabatnya untuk melakukan hijrah ke Madinah dan menambah keyakinan mereka bahwa akhirnya orang-orang Islamlah yang akan menang. Ayat ini menunjukkan barang siapa yang berhijrah dari tempat musuh untuk mempertahankan keimanan, pastilah akan berhasil dalam perjuangannya menghadapi musuh-musuh agama. Kepastian kemenangan bagi kaum Muslimin itu ditegaskan pada bagian akhir surah ini yang menerangkan bahwa setelah hijrah ke Madinah, kaum Muslimin akan kembali ke Mekah sebagai pemenang dalam menegakkan agama Allah. Surah al-Qa\u1e63a\u1e63 ini adalah surah yang paling lengkap memuat cerita Nabi Musa sehingga menurut suatu riwayat, surah ini dinamai pula dengan Surah Musa.\n\nPokok-pokok Isinya\n1. \tKeimanan:\nAllah menentukan segala sesuatu dan manusia harus rela menerima ketentuan itu. Alam adalah fana, hanya Allah saja yang kekal dan semuanya akan kembali kepada-Nya. Allah mengetahui isi hati manusia baik yang dinyatakan maupun yang disembunyikannya.\n2. \tKisah Fir\u2018aun dan Nabi Musa:\n\tKekejaman Fir\u2018aun dan pertolongan serta karunia Allah kepada Bani Israil. Musa ketika baru lahir dilemparkan ke sungai Nil. Seorang Qib\u1e6di mati dibunuh oleh Musa tanpa sengaja. Musa di Madyan. Musa menerima perintah Allah untuk menyeru Fir\u2018aun di Gunung Tur, serta kisah Karun.\n3. \tLain-lain:\nAl-Qur\u2019an  menerangkan kisah dari umat-umat terdahulu sebagai bukti kerasulan Muhammad saw. Ahli Kitab yang beriman kepada Nabi Muhammad saw diberi pahala dua kali lipat. Hikmah diturunkannya Al-Qur\u2019an secara berangsur-angsur. Hanya Allah yang memberi taufik kepada hamba-hamba-Nya untuk beriman. Allah menghancurkan penduduk suatu negeri adalah karena kezaliman mereka. Allah tidak akan mengazab umatnya sebelum diutus seorang rasul kepada umat itu. Keadaan orang-orang kafir dan sekutu-sekutu mereka di hari Kiamat. Pergantian siang dan malam adalah rahmat bagi manusia. Allah membalas kebaikan dengan berlipat ganda, sedang kejahatan dibalas seimbang dengan perbuatan yang dilakukan. Janji Allah akan memenangkan Nabi Muhammad.",
        "outro_surah": null,
        "munasabah_prev_surah": "MUNASABAH SURAH AN-NAML\nDENGAN SURAH AL-QA\u1e62A\u1e62\n\n1. \tKedua surah ini sama-sama dimulai dengan huruf hijaiyah, menerangkan sifat-sifat Al-Qur\u2019an, kisah Musa dalam Surah al-Qa\u1e63a\u1e63 diterangkan lebih lengkap dibandingkan dengan yang terdapat dalam Surah an-Naml.\n2. \tSurah an-Naml menerangkan secara global bahwa keingkaran orang-orang kafir terhadap hari kebangkitan itu tidak beralasan, kemudian dikemukakan kepada mereka persoalan-persoalan yang ada hubungan-nya dengan hari kebangkitan. Hal ini diterangkan lebih jelas dalam Surah al-Qa\u1e63a\u1e63.\n3. \tSurah an-Naml dan Surah al-Qa\u1e63a\u1e63 masing-masing menerangkan ke-hancuran kaum Nabi Saleh dan kaum Nabi Lut akibat durhaka kepada Allah dan nabi-Nya.\n4. \tSurah an-Naml dan Surah al-Qa\u1e63a\u1e63 masing-masing menyebutkan balas-an pada hari Kiamat terhadap orang-orang yang membuat keburukan di dunia.\n5. \tBagian akhir kedua surah ini masing-masing menyebutkan perintah menyembah Allah dan membaca ayat-ayat Al-Qur\u2019an.\n",
        "munasabah_prev_theme": "Ayat-ayat yang lalu menjelaskan kisah Musa dan kaumnya, menerangkan sifat aniaya Karun, kesombongan terhadap kaumnya dan kebinasaan yang menimpanya, serta kemenangan diperoleh orang mukmin. Ayat-ayat berikut ini menerangkan bahwa Allah yang menurunkan Al-Qur\u2019an kepada Nabi akan mengembalikannya ke tanah kelahirannya Mekah dan perintah untuk tidak menolong orang-orang kafir.\n",
        "theme_group": "LARANGAN MEMPERKUAT BARISAN ORANG KAFIR",
        "kosakata": "1. Fara\u1e0da    \u0641\u064e\u0631\u064e\u0636\u064e  (al-Qa\u1e63a\u1e63/28: 85) \nKata fara\u1e0da dalam Al-Qur\u2019an disebut tidak kurang dari 4 kali, yaitu dalam Surah al-Baqarah/2: 197, Surah al-A\u1e25z\u0101b/33: 38, Surah at-Ta\u1e25r\u012bm/66: 2, dan dalam Surah al-Qa\u1e63a\u1e63/28: 81 ini. Kalau subjek (f\u0101\u2019il)nya manusia, maka artinya \u201cmengerjakan sesuatu sebagai kewajiban,\u201d seperti terdapat dalam Surah al-Baqarah/2: 197. Akan tetapi, kalau subjek (f\u0101\u2019il)nya Allah, maka fara\u1e0da berarti mewajibkan. Kata fara\u1e0da \u2018alaika dalam ayat ini mengandung tiga macam arti. Menurut \u2018A\u1e6d\u0101\u2019 bin Abi Rabah dan Ibnu Qutaibah, kata itu berarti Allah mewajibkan kepada Muhammad untuk mengamalkan hukum-hukum Al-Qur\u2019an. Menurut Muj\u0101hid, artinya Allah memberikan kepada Nabi Muhammad Al-Qur\u2019an. Menurut Muq\u0101til, al-Farra\u2019 dan Ab\u016b Ubaidah, maksudnya adalah Allah menurunkan kepada Muhammad Al-Qur\u2019an.\n2. Lar\u0101dduka    \u0644\u064e\u0631\u064e\u0627\u062f\u0651\u064f\u0643\u064e (al-Qa\u1e63a\u1e63/28: 85) \nKata lar\u0101dduka dalam rangkaian ayat ini merupakan predikat/khabar inna, yang artinya \u201cpasti akan mengembalikanmu (Muhammad).\u201d Menurut sebagian mufasir, ayat ini diturunkan pada waktu Nabi Muhammad berangkat dari Mekah, yakni dalam perjalanan hijrah menuju Medinah. Nabi Muhammad sesampai di Juhfah, menolehkan mukanya ke arah Mekah karena ingin kembali ke sana. Allah menegaskan janji-Nya bahwa Dia yang telah mewajibkan kepada Nabi Muhammad untuk mengamalkan hukum-hukum Al-Qur\u2019an, pasti akan mengembalikan beliau ke Mekah melalui futu\u1e25 Mekah pada waktu yang tepat. Jadi, penaklukan kota Mekah benar-benar dijanjikan Allah kepada Nabi Muhammad, sehingga kota itulah tempat beliau kembali (ma\u2019ad), yang dari situ beliau diusir.",
        "sabab_nuzul": null,
        "conclusion": null
    }
}