{
    "id": 3358,
    "surah_id": 29,
    "ayah": 18,
    "page": 398,
    "quarter_hizb": 40.5,
    "juz": 20,
    "manzil": 5,
    "arabic": "\u0648\u064e\u0627\u0650\u0646\u0652 \u062a\u064f\u0643\u064e\u0630\u0651\u0650\u0628\u064f\u0648\u0652\u0627 \u0641\u064e\u0642\u064e\u062f\u0652 \u0643\u064e\u0630\u0651\u064e\u0628\u064e \u0627\u064f\u0645\u064e\u0645\u064c \u0645\u0651\u0650\u0646\u0652 \u0642\u064e\u0628\u0652\u0644\u0650\u0643\u064f\u0645\u0652 \u06d7\u0648\u064e\u0645\u064e\u0627 \u0639\u064e\u0644\u064e\u0649 \u0627\u0644\u0631\u0651\u064e\u0633\u064f\u0648\u0652\u0644\u0650 \u0627\u0650\u0644\u0651\u064e\u0627 \u0627\u0644\u0652\u0628\u064e\u0644\u0670\u063a\u064f \u0627\u0644\u0652\u0645\u064f\u0628\u0650\u064a\u0652\u0646\u064f ",
    "latin": "Wa in tuka\u017c\u017cib\u016b faqad ka\u017c\u017caba umamum min qablikum, wa m\u0101 \u2018alar-ras\u016bli illal-bal\u0101gul-mub\u012bn(u).",
    "translation": "Jika kamu mendustakan (ajaran Allah), sungguh umat-umat sebelum kamu juga telah mendustakan (para rasul). Kewajiban rasul itu hanyalah menyampaikan (agama Allah) dengan jelas.\u201d",
    "no_footnote": null,
    "footnotes": null,
    "surah": {
        "id": 29,
        "arabic": " \u0627\u0644\u0639\u0646\u0643\u0628\u0648\u062a",
        "latin": "Al-\u2018Ankab\u016bt",
        "transliteration": "Al-\u2018Ankabut",
        "translation": "Laba-Laba",
        "num_ayah": 69,
        "page": 396,
        "location": "Makkiyah"
    },
    "tafsir": {
        "wajiz": "Dan jika kamu orang-orang kafir terus-menerus mendustakan ajaran Allah yang disampaikan oleh Rasul Muhammad, maka ketahuilah, sungguh, umat sebelum kamu juga telah mendustakan para rasul. Akan tetapi, mereka tidak dapat memberi mudarat kepada rasul-rasul itu, bahkan sebenarnya mereka membuat kemudaratan kepada diri mereka sendiri, yaitu ketika mereka dihancurkan oleh Allah karena pendustaan mereka itu. Dan kewajiban Rasul itu hanyalah menyampaikan agama Allah kepada kaumnya dengan uraian serta praktek dan contoh pengamalan tuntunan Allah yang jelas dan dengan cara seterang-terangnya.",
        "tahlili": "Ibrahim kembali memperingatkan kaumnya bahwa jika mereka membenarkan apa yang telah disampaikan kepada mereka, pasti mereka akan bahagia. Sebaliknya, mereka akan mendapat mudarat dan kesengsaraan jika tetap mendustakan seruan nabi seperti yang dialami orang-orang sebelum mereka yang mendustakan para utusan Tuhan. Di antaranya seperti yang telah dialami umat Nabi Nuh, Nabi Hud, dan Nabi Saleh. Mereka semua telah disiksa Allah akibat kedurhakaan mereka. Di sisi lain, Allah telah menyelamatkan orang-orang yang beriman beserta para rasul-Nya. \nAyat ini diakhiri dengan penegasan bahwa tugas dan misi rasul adalah menyampaikan kebenaran yang nyata kepada umat manusia. Andaikata mereka itu mau membenarkan atau menolaknya, maka itu tidak membawa akibat apa-apa terhadap diri rasul. Tidak ada wewenang yang diberikan Allah kepada setiap rasul untuk memaksa manusia mempercayai seruan dakwahnya. Apakah mereka mau membenarkannya atau tetap mendustakannya adalah di luar tanggung jawabnya.",
        "intro_surah": "Surah al-\u2019Ankab\u016bt terdiri dari 69 ayat, termasuk kelompok surah-surah Makkiyyah. Dinamai \u201cal-\u2019Ankab\u016bt\u201d karena terdapat kata al-\u2019Ankab\u016bt yang berarti \u201claba-laba\u201d pada ayat 41 surah ini.\nAllah mengumpamakan penyembah-penyembah berhala dengan laba-laba yang percaya kepada kekuatan rumahnya sebagai tempat berlindung dan menjerat mangsanya, padahal kalau diembus angin atau ditimpa oleh sesuatu barang yang kecil saja, rumah itu akan hancur. Begitu pula halnya dengan kaum musyrikin yang percaya kepada kekuatan sembahan-sembahan mereka sebagai tempat berlindung dan tempat meminta sesuatu yang mereka inginkan. Sembahan-sembahan itu tidak mampu sedikit juga menolong mereka dari azab Allah di dunia, seperti yang terjadi pada kaum Nuh, kaum Ibrahim, kaum Lut, kaum Syuaib, kaum Saleh, dan lain-lain. Apalagi menghadapi azab Allah di akhirat nanti, sembahan-sembahan itu lebih tidak mampu menghindarkan dan melindungi mereka.\n\nPOKOK-POKOK ISINYA\n1. \tKeimanan:\nBukti-bukti tentang adanya hari kebangkitan dan ancaman terhadap orang-orang yang mengingkarinya; tiap-tiap diri akan merasakan mati dan hanya kepada Allah mereka akan kembali; Allah akan menjamin rezeki tiap-tiap makhluk-Nya.\n2. \tHukum-hukum:\nKewajiban berbuat baik kepada kedua orang ibu bapak; kewajiban mengerjakan salat karena dapat mencegah perbuatan keji dan mungkar; dan kewajiban menentang ajakan mempersekutukan Allah sekalipun datangnya dari ibu bapak.\n3. \tKisah-kisah:\nKisah-kisah cobaan yang dialami oleh Nabi Nuh, Nabi Ibrahim, Nabi Lut, Nabi Syuaib, Nabi Daud, Nabi Saleh, dan Nabi Musa.\n4. \tLain-lain:\nCobaan itu perlu untuk menguji keimanan seseorang; manfaat usaha manusia itu untuk dirinya sendiri bukan untuk Allah. Perlawanan terhadap kebenaran pasti hancur.",
        "outro_surah": null,
        "munasabah_prev_surah": "MUNASABAH SURAH AL-QA\u1e62A\u1e62 DENGAN\nSURAH AL-\u2018ANKAB\u016aT\n\n1. \tSurah al-\u2018Ankab\u016bt dibuka dengan hiburan dari Allah kepada Nabi Muhammad dan para sahabatnya yang selalu disakiti, diejek, dan diusir oleh orang-orang musyrik Mekah dengan menerangkan bahwa orang-orang yang beriman itu akan menerima cobaan atas keimanan mereka kepada nabi mereka. Sedangkan Surah al-Qa\u1e63a\u1e63 menerangkan aneka rupa cobaan yang diawali oleh Nabi Musa dan Bani Israil dalam menghadapi kekejaman Fir\u2018aun. Oleh sebab itu, Allah menyuruh agar Nabi Muhammad dan para sahabatnya selalu sabar dalam menghadapi cobaan-cobaan itu.\n2. \tSurah al-Qa\u1e63a\u1e63 mengisahkan selamatnya Nabi Musa dari pengejaran Fir\u2018aun setelah dengan tidak sengaja membunuh orang Qibti, kemudian mengisahkan selamatnya Musa dan pengikutnya dari pengejaran Fir\u2018aun dan tentaranya, serta tenggelamnya Fir\u2018aun dan tentaranya di laut Merah, sedangkan Surah al-\u2019Ankab\u016bt, mengisahkan selamatnya Nabi Nuh dan pengikutnya di atas bahtera serta tenggelamnya orang-orang yang mengingkari seruannya. Semua ini menunjukkan pertolongan Allah kepada hamba-hamba-Nya yang beriman.\n3. \tSurah al-Qa\u1e63a\u1e63 mengemukakan kelemahan kepercayaan orang-orang yang menyembah berhala dengan menerangkan keadaan penyembah-penyembah berhala dan berhala itu sendiri di hari Kiamat, sedang Surah al-\u2019Ankab\u016bt menyatakan kesesatan kepercayaan mereka dengan membandingkannya dengan laba-laba yang mempercayakan kekuatan sarangnya yang sangat lemah.\n4. \tKedua surah ini sama-sama menerangkan kisah Fir\u2018aun dan Karun, serta akibat perbuatan keduanya. Kedua surah ini sama-sama menyinggung soal hijrah Nabi Muhammad.",
        "munasabah_prev_theme": "Pada ayat-ayat yang lalu, Allah menerangkan tentang keingkaran umat Nabi Nuh sehingga mereka ditenggelamkan oleh banjir. Pada ayat-ayat berikut ini, Allah menerangkan pula kisah umat Nabi Ibrahim yang tidak pula kurang keingkarannya dari umat Nabi Nuh. Mereka bahkan berupaya membunuh Nabi Ibrahim, namun Allah menyelamatkannya.",
        "theme_group": "KISAH NABI IBRAHIM ",
        "kosakata": "Kosakata: Au\u1e61\u0101nan  \u0627\u064e\u0648\u0652\u062b\u064e\u0627\u064e\u0646\u064b\u0627  (al-\u2019Ankab\u016bt/29: 17)\nAu\u1e61\u0101nan bentuk jamak dari kata wa\u1e61an yang berarti benda berbentuk manusia atau hewan yang terbuat dari batu atau kayu untuk dijadikan sesembahan, biasa dikenal dengan nama berhala. Kata au\u1e61\u0101n dalam ayat ini berbentuk nakirah sehingga mengisyaratkan bahwa kepercayaan tentang ketuhanan berhala-berhala itu adalah kepercayaan sesat yang tidak berdasar serta berupa kebohongan dan pemutarbalikan fakta karena berhala-berhala itu tidak mampu memberikan manfaat kepada pemuja atau penyembahnya. ",
        "sabab_nuzul": null,
        "conclusion": "1. \tSesembahan selain Allah hanyalah hasil rekaan manusia belaka, tidak mungkin mendatangkan keuntungan ataupun kerugian di dunia maupun di akhirat.\n2. \tTugas rasul hanya menyampaikan dakwah mengesakan Allah. Bila seseorang tidak mau beriman dan tetap mendurhakai rasul, tidak akan mendatangkan kerugian kepada rasul itu, tetapi justru menimbulkan kecelakaan bagi orang itu sendiri."
    }
}