{
    "id": 3354,
    "surah_id": 29,
    "ayah": 14,
    "page": 397,
    "quarter_hizb": 40.5,
    "juz": 20,
    "manzil": 5,
    "arabic": "\u0648\u064e\u0644\u064e\u0642\u064e\u062f\u0652 \u0627\u064e\u0631\u0652\u0633\u064e\u0644\u0652\u0646\u064e\u0627 \u0646\u064f\u0648\u0652\u062d\u064b\u0627 \u0627\u0650\u0644\u0670\u0649 \u0642\u064e\u0648\u0652\u0645\u0650\u0647\u0656 \u0641\u064e\u0644\u064e\u0628\u0650\u062b\u064e \u0641\u0650\u064a\u0652\u0647\u0650\u0645\u0652 \u0627\u064e\u0644\u0652\u0641\u064e \u0633\u064e\u0646\u064e\u0629\u064d \u0627\u0650\u0644\u0651\u064e\u0627 \u062e\u064e\u0645\u0652\u0633\u0650\u064a\u0652\u0646\u064e \u0639\u064e\u0627\u0645\u064b\u0627 \u06d7\u0641\u064e\u0627\u064e\u062e\u064e\u0630\u064e\u0647\u064f\u0645\u064f \u0627\u0644\u0637\u0651\u064f\u0648\u0652\u0641\u064e\u0627\u0646\u064f \u0648\u064e\u0647\u064f\u0645\u0652 \u0638\u0670\u0644\u0650\u0645\u064f\u0648\u0652\u0646\u064e ",
    "latin": "Wa laqad arsaln\u0101 n\u016b\u1e25an il\u0101 qaumih\u012b falabi\u1e61a f\u012bhim alfa sanatin ill\u0101 khams\u012bna \u2018\u0101m\u0101(n), fa'akha\u017cahumu\u1e6d-\u1e6d\u016bf\u0101nu wa hum \u1e93\u0101lim\u016bn(a).",
    "translation": "Sungguh, Kami benar-benar telah mengutus Nuh kepada kaumnya, lalu dia tinggal bersama mereka selama seribu tahun kurang lima puluh tahun. Kemudian, mereka dilanda banjir besar dalam keadaan sebagai orang-orang zalim.",
    "no_footnote": null,
    "footnotes": null,
    "surah": {
        "id": 29,
        "arabic": " \u0627\u0644\u0639\u0646\u0643\u0628\u0648\u062a",
        "latin": "Al-\u2018Ankab\u016bt",
        "transliteration": "Al-\u2018Ankabut",
        "translation": "Laba-Laba",
        "num_ayah": 69,
        "page": 396,
        "location": "Makkiyah"
    },
    "tafsir": {
        "wajiz": "Cobaan, ujian dan siksaan dalam keimanan juga dialami oleh para nabi dan umatnya, di antaranya Nabi Nuh yang sangat lama sekali menghadapi gangguan dari kaumnya. Dan sungguh, Kami telah mengutus Nabi Nuh kepada kaumnya untuk menyeru mereka kepada ajaran tauhid. Maka dia tinggal bersama mereka untuk menyampaikan risalah ketuhanan, terhitung sejak Kami mengutusnya menjadi Nabi selama seribu tahun kurang lima puluh tahun, yaitu sembilan ratus lima puluh tahun. Selama itu, Nabi Nuh berdakwah dengan berbagai cara, dan selama itu pula mereka durhaka dan tidak memenuhi seruannya. Kemudian mereka yang durhaka itu dilanda banjir besar sebagai bentuk azab untuk mereka, sedangkan mereka adalah orang-orang yang zalim dengan kekufuran mereka.",
        "tahlili": "Kisah para nabi itu dimulai dengan menceritakan riwayat perjuangan Nabi Nuh. Beliau adalah bapak para nabi. Ia berdakwah menyeru kaumnya supaya beriman kepada Allah Yang Maha Esa dan mempercayai kerasulan-nya selama sembilan ratus lima puluh tahun. Namun demikian, ia tidak pernah merasa bosan mengajak mereka, baik siang maupun malam. Kadang-kadang dengan suara yang lemah lembut, tetapi sering juga dengan suara keras menyampaikan ancaman Allah terhadap kekafiran mereka. Akan tetapi usaha beliau tidak kunjung berhasil. Hanya segelintir saja di antara mereka yang mau beriman. Selebihnya menolak dan mendustakan beliau. Oleh karena itu, Allah menyiksa mereka. Dikirimlah siksaan yang disebut \u201cTopan Nabi Nuh\u201d, yakni berupa banjir yang menenggelamkan mereka semua. Tidak seorang pun yang selamat dari siksaan Allah itu kecuali orang yang beriman yang ikut dalam bahtera Nuh.\nAl-\u1e24\u0101kim meriwayatkan:\n\u0639\u064e\u0646\u0650 \u0627\u0628\u0652\u0646\u0650 \u0639\u064e\u0628\u0651\u064e\u0627\u0633\u064d \u0642\u064e\u0627\u0644\u064e: \u0628\u064e\u0639\u064e\u062b\u064e \u0627\u0644\u0644\u0651\u0670\u0647\u064f \u0646\u064f\u0648\u0652\u062d\u064b\u0627 \u0648\u064e\u0647\u064f\u0648\u064e \u0627\u0628\u0652\u0646\u064f \u0623\u064e\u0631\u0652\u0628\u064e\u0639\u0650\u064a\u0652\u0646\u064e \u0633\u064e\u0646\u064e\u0629\u064b \u0648\u064e\u0644\u064e\u0628\u0650\u062b\u064e  \u0641\u0650\u0649 \u0642\u064e\u0648\u0652\u0645\u0650\u0647\u0650 \u0627\u064e\u0644\u0652\u0641\u064e \u0633\u064e\u0646\u064e\u0629\u064d \u0625\u0650\u0644\u0627\u0651\u064e \u062e\u064e\u0645\u0652\u0633\u0650\u064a\u0652\u0646\u064e \u0639\u064e\u0627\u0645\u064b\u0627 \u064a\u064e\u062f\u0652\u0639\u064f\u0648\u0647\u064f\u0645\u0652 \u0627\u0650\u0644\u064e\u0649 \u0627\u0644\u0644\u0651\u0670\u0647\u0650 \u0648\u064e\u0639\u064e\u0627\u0634\u064e \u0628\u064e\u0639\u0652\u062f\u064e \u0627\u0644\u0637\u0651\u064e\u0648\u0652\u0641\u064e\u0627\u0646\u0650 \u0633\u0650\u062a\u0651\u0650\u064a\u0652\u0646\u064e \u0633\u064e\u0646\u064e\u0629\u064b \u062d\u064e\u062a\u0651\u064e\u0649 \u0643\u064e\u062b\u064f\u0631\u064e \u0627\u0644\u0646\u0651\u064e\u0627\u0633\u064f \u0648\u064e\u0641\u064e\u0634\u064e\u0648\u0652\u0627 (\u0631\u0648\u0627\u0647 \u0627\u0644\u062d\u0627\u0643\u0645)\nDiriwayatkan dari Ibnu \u2018Abb\u0101s bahwa ia berkata, \u201cAllah mengutus Nabi Nuh ketika usia 40 tahun dan berdakwah pada kaumnya selama 950 tahun menyeru mereka untuk mengikuti agama Allah dan Nabi Nuh hidup setelah banjir (topan) selama 60 tahun, sehingga jumlah manusia menjadi banyak dan tersebar. (Riwayat al-\u1e24\u0101kim)\n",
        "intro_surah": "Surah al-\u2019Ankab\u016bt terdiri dari 69 ayat, termasuk kelompok surah-surah Makkiyyah. Dinamai \u201cal-\u2019Ankab\u016bt\u201d karena terdapat kata al-\u2019Ankab\u016bt yang berarti \u201claba-laba\u201d pada ayat 41 surah ini.\nAllah mengumpamakan penyembah-penyembah berhala dengan laba-laba yang percaya kepada kekuatan rumahnya sebagai tempat berlindung dan menjerat mangsanya, padahal kalau diembus angin atau ditimpa oleh sesuatu barang yang kecil saja, rumah itu akan hancur. Begitu pula halnya dengan kaum musyrikin yang percaya kepada kekuatan sembahan-sembahan mereka sebagai tempat berlindung dan tempat meminta sesuatu yang mereka inginkan. Sembahan-sembahan itu tidak mampu sedikit juga menolong mereka dari azab Allah di dunia, seperti yang terjadi pada kaum Nuh, kaum Ibrahim, kaum Lut, kaum Syuaib, kaum Saleh, dan lain-lain. Apalagi menghadapi azab Allah di akhirat nanti, sembahan-sembahan itu lebih tidak mampu menghindarkan dan melindungi mereka.\n\nPOKOK-POKOK ISINYA\n1. \tKeimanan:\nBukti-bukti tentang adanya hari kebangkitan dan ancaman terhadap orang-orang yang mengingkarinya; tiap-tiap diri akan merasakan mati dan hanya kepada Allah mereka akan kembali; Allah akan menjamin rezeki tiap-tiap makhluk-Nya.\n2. \tHukum-hukum:\nKewajiban berbuat baik kepada kedua orang ibu bapak; kewajiban mengerjakan salat karena dapat mencegah perbuatan keji dan mungkar; dan kewajiban menentang ajakan mempersekutukan Allah sekalipun datangnya dari ibu bapak.\n3. \tKisah-kisah:\nKisah-kisah cobaan yang dialami oleh Nabi Nuh, Nabi Ibrahim, Nabi Lut, Nabi Syuaib, Nabi Daud, Nabi Saleh, dan Nabi Musa.\n4. \tLain-lain:\nCobaan itu perlu untuk menguji keimanan seseorang; manfaat usaha manusia itu untuk dirinya sendiri bukan untuk Allah. Perlawanan terhadap kebenaran pasti hancur.",
        "outro_surah": null,
        "munasabah_prev_surah": "MUNASABAH SURAH AL-QA\u1e62A\u1e62 DENGAN\nSURAH AL-\u2018ANKAB\u016aT\n\n1. \tSurah al-\u2018Ankab\u016bt dibuka dengan hiburan dari Allah kepada Nabi Muhammad dan para sahabatnya yang selalu disakiti, diejek, dan diusir oleh orang-orang musyrik Mekah dengan menerangkan bahwa orang-orang yang beriman itu akan menerima cobaan atas keimanan mereka kepada nabi mereka. Sedangkan Surah al-Qa\u1e63a\u1e63 menerangkan aneka rupa cobaan yang diawali oleh Nabi Musa dan Bani Israil dalam menghadapi kekejaman Fir\u2018aun. Oleh sebab itu, Allah menyuruh agar Nabi Muhammad dan para sahabatnya selalu sabar dalam menghadapi cobaan-cobaan itu.\n2. \tSurah al-Qa\u1e63a\u1e63 mengisahkan selamatnya Nabi Musa dari pengejaran Fir\u2018aun setelah dengan tidak sengaja membunuh orang Qibti, kemudian mengisahkan selamatnya Musa dan pengikutnya dari pengejaran Fir\u2018aun dan tentaranya, serta tenggelamnya Fir\u2018aun dan tentaranya di laut Merah, sedangkan Surah al-\u2019Ankab\u016bt, mengisahkan selamatnya Nabi Nuh dan pengikutnya di atas bahtera serta tenggelamnya orang-orang yang mengingkari seruannya. Semua ini menunjukkan pertolongan Allah kepada hamba-hamba-Nya yang beriman.\n3. \tSurah al-Qa\u1e63a\u1e63 mengemukakan kelemahan kepercayaan orang-orang yang menyembah berhala dengan menerangkan keadaan penyembah-penyembah berhala dan berhala itu sendiri di hari Kiamat, sedang Surah al-\u2019Ankab\u016bt menyatakan kesesatan kepercayaan mereka dengan membandingkannya dengan laba-laba yang mempercayakan kekuatan sarangnya yang sangat lemah.\n4. \tKedua surah ini sama-sama menerangkan kisah Fir\u2018aun dan Karun, serta akibat perbuatan keduanya. Kedua surah ini sama-sama menyinggung soal hijrah Nabi Muhammad.",
        "munasabah_prev_theme": "Pada ayat-ayat yang lalu, Allah menyebutkan cobaan-cobaan yang dialami orang beriman dalam mempertahankan keyakinan mereka, dari kejahatan dan siksaan orang kafir. Allah juga menjelaskan bahwa umat-umat sebelumnya juga mengalami hal yang sama bahkan lebih hebat lagi. Pada ayat-ayat berikut ini, untuk menghibur hati Nabi Muhammad, Allah menye-butkan kisah para nabi yang menghadapi berbagai macam penderitaan ketika mereka menjalankan misi kerasulan. Di antaranya adalah kisah Nuh, Ibrahim, Hud, Lut, dan Syuaib. Mereka ditimpa bermacam-macam cobaan, tetapi mereka sabar menerimanya. Hal itu hendaklah menjadi contoh pelajaran bagi orang-orang yang beriman.",
        "theme_group": "KISAH NABI NUH ",
        "kosakata": "Kosakata: A\u1e63\u1e25\u0101bul Saf\u012bnah  \u0627\u064e\u0635\u0652\u062d\u064e\u0627\u0628\u064f \u0627\u0644\u0633\u0651\u064e\u0641\u0650\u064a\u0652\u0646\u064e\u0629  (al-\u2019Ankab\u016bt/29: 12)\nMaksud a\u1e63\u1e25\u0101bul saf\u012bnah dalam ayat ini adalah seisi kapal Nabi Nuh yang terdiri dari Nabi Nuh, keluarganya yang beriman, kaumnya yang beriman, dan berbagai jenis binatang yang dibutuhkan masing-masing sepasang, yaitu jantan dan betina (lihat  Surah H\u016bd/11: 40). Mereka itulah yang telah terpilih menjadi penumpang perahu Nabi Nuh yang selamat dari banjir besar yang membinasakan kaum Nuh yang menolak ajaran tauhidnya. ",
        "sabab_nuzul": null,
        "conclusion": null
    }
}