{
    "id": 3389,
    "surah_id": 29,
    "ayah": 49,
    "page": 402,
    "quarter_hizb": 41,
    "juz": 21,
    "manzil": 5,
    "arabic": "\u0628\u064e\u0644\u0652 \u0647\u064f\u0648\u064e \u0627\u0670\u064a\u0670\u062a\u064c\u06e2 \u0628\u064e\u064a\u0651\u0650\u0646\u0670\u062a\u064c \u0641\u0650\u064a\u0652 \u0635\u064f\u062f\u064f\u0648\u0652\u0631\u0650 \u0627\u0644\u0651\u064e\u0630\u0650\u064a\u0652\u0646\u064e \u0627\u064f\u0648\u0652\u062a\u064f\u0648\u0627 \u0627\u0644\u0652\u0639\u0650\u0644\u0652\u0645\u064e\u06d7 \u0648\u064e\u0645\u064e\u0627 \u064a\u064e\u062c\u0652\u062d\u064e\u062f\u064f \u0628\u0650\u0627\u0670\u064a\u0670\u062a\u0650\u0646\u064e\u0627\u0653 \u0627\u0650\u0644\u0651\u064e\u0627 \u0627\u0644\u0638\u0651\u0670\u0644\u0650\u0645\u064f\u0648\u0652\u0646\u064e",
    "latin": "Bal huwa \u0101y\u0101tum bayyin\u0101tun f\u012b \u1e63ud\u016bril-la\u017c\u012bna \u016btul-\u2018ilm(a), wa m\u0101 yaj\u1e25adu bi'\u0101y\u0101tin\u0101 illa\u1e93-\u1e93\u0101lim\u016bn(a).",
    "translation": "Sebenarnya, ia (Al-Qur\u2019an) adalah ayat-ayat yang jelas di dalam dada orang-orang yang berilmu. Tidaklah mengingkari ayat-ayat Kami, kecuali orang-orang zalim.",
    "no_footnote": null,
    "footnotes": null,
    "surah": {
        "id": 29,
        "arabic": " \u0627\u0644\u0639\u0646\u0643\u0628\u0648\u062a",
        "latin": "Al-\u2018Ankab\u016bt",
        "transliteration": "Al-\u2018Ankabut",
        "translation": "Laba-Laba",
        "num_ayah": 69,
        "page": 396,
        "location": "Makkiyah"
    },
    "tafsir": {
        "wajiz": "Sebenarnya Al-Qur\u2019an itu adalah ayat-ayat yang jelas, tidak ada sedikit pun keraguan padanya, yang terpelihara di dalam dada orang-orang yang berilmu, baik melalui tradisi hafalan turun-temurun sehingga tidak seorang pun dapat mengubahnya maupun dari segi pemahaman dan pengamalannya. Hanya orang-orang yang zalim yang mengingkari ayat-ayat Kami dengan menutup diri dari kebenaran Al-Qur\u2019an.",
        "tahlili": "Ayat ini menegaskan bahwa ayat-ayat Al-Qur\u2019an merupakan petunjuk Allah, tidak ada kesamaran sedikit pun tentang pengertiannya. Allah memudahkan penafsirannya bagi orang-orang yang ingin mencari kebenaran yang hakiki. Dalam ayat yang lain, Allah berfirman:\n\u0648\u064e\u0644\u064e\u0642\u064e\u062f\u0652 \u064a\u064e\u0633\u0651\u064e\u0631\u0652\u0646\u064e\u0627 \u0627\u0644\u0652\u0642\u064f\u0631\u0652\u0627\u0670\u0646\u064e \u0644\u0650\u0644\u0630\u0651\u0650\u0643\u0652\u0631\u0650 \u0641\u064e\u0647\u064e\u0644\u0652 \u0645\u0650\u0646\u0652 \u0645\u0651\u064f\u062f\u0651\u064e\u0643\u0650\u0631\u064d \u0661\u0667 (\u0627\u0644\u0642\u0645\u0631)\nDan sungguh, telah Kami mudahkan Al-Qur\u2019an untuk peringatan, maka adakah orang yang mau mengambil pelajaran? (al-Qamar/54: 17)\n\nPara Ahli Kitab yang ingin mencari kebenaran, dengan mudah dapat memahami Al-Qur\u2019an. Dengan demikian, mereka mau beriman kepadanya dan meyakini bahwa Muhammad adalah benar-benar seorang rasul. Allah berfirman kepada Nabi Muhammad agar mengatakan kepada orang-orang kafir yang tidak percaya kepada kerasulan beliau:\n\u0648\u064e\u064a\u064e\u0642\u064f\u0648\u0652\u0644\u064f \u0627\u0644\u0651\u064e\u0630\u0650\u064a\u0652\u0646\u064e \u0643\u064e\u0641\u064e\u0631\u064f\u0648\u0652\u0627 \u0644\u064e\u0633\u0652\u062a\u064e \u0645\u064f\u0631\u0652\u0633\u064e\u0644\u064b\u0627 \u06d7 \u0642\u064f\u0644\u0652 \u0643\u064e\u0641\u0670\u0649 \u0628\u0650\u0627\u0644\u0644\u0651\u0670\u0647\u0650 \u0634\u064e\u0647\u0650\u064a\u0652\u062f\u064b\u0627\u06e2 \u0628\u064e\u064a\u0652\u0646\u0650\u064a\u0652 \u0648\u064e\u0628\u064e\u064a\u0652\u0646\u064e\u0643\u064f\u0645\u0652\u06d9 \u0648\u064e\u0645\u064e\u0646\u0652 \u0639\u0650\u0646\u0652\u062f\u064e\u0647\u0657 \u0639\u0650\u0644\u0652\u0645\u064f \u0627\u0644\u0652\u0643\u0650\u062a\u0670\u0628\u0650 \u08d6 \u0664\u0663 (\u0627\u0644\u0631\u0651\u0639\u062f)\nDan orang-orang kafir berkata, \u201cEngkau (Muhammad) bukanlah seorang Rasul.\u201d Katakanlah, \u201cCukuplah Allah dan orang yang menguasai ilmu Al-Kitab menjadi saksi antara aku, dan kamu. (ar-Ra\u2019d/13: 43) \n\nMaksud ayat di atas adalah ulama-ulama Ahli Kitab menjadi saksi atas kerasulan Muhammad, karena telah membaca dalam kitab-kitab mereka akan kedatangannya. Dengan demikian, ada di antara Ahli Kitab yang beriman kepada Nabi Muhammad, di antaranya orang-orang yang telah disebutkan di atas.\nAllah menegaskan lagi bahwa Al-Qur\u2019an itu terpelihara dalam dada kaum Muslimin. Mereka menghafalnya secara turun temurun sehingga tidak seorangpun dapat mengubahnya.\nSelanjutnya ayat ini menerangkan bahwa tidak ada seorang pun yang mengingkari ayat-ayat Allah, kecuali orang-orang yang zalim. Ayat ini merupakan isyarat bagi Ahli Kitab bahwa mereka telah mengetahui dari kitab suci mereka tentang kenabian Muhammad dan penurunan Al-Qur\u2019an kepadanya. Namun demikian, banyak di antara mereka yang mengingkari kebenaran itu setelah mengetahuinya. Allah berfirman:\n\u0641\u064e\u0644\u064e\u0645\u0651\u064e\u0627 \u062c\u064e\u0627\u06e4\u0621\u064e\u0647\u064f\u0645\u0652 \u0645\u0651\u064e\u0627 \u0639\u064e\u0631\u064e\u0641\u064f\u0648\u0652\u0627 \u0643\u064e\u0641\u064e\u0631\u064f\u0648\u0652\u0627 \u0628\u0650\u0647\u0656 \u06d6 \u0641\u064e\u0644\u064e\u0639\u0652\u0646\u064e\u0629\u064f \u0627\u0644\u0644\u0651\u0670\u0647\u0650 \u0639\u064e\u0644\u064e\u0649 \u0627\u0644\u0652\u0643\u0670\u0641\u0650\u0631\u0650\u064a\u0652\u0646\u064e\nTernyata setelah sampai kepada mereka apa yang telah mereka ketahui itu, mereka mengingkarinya. Maka laknat Allah bagi orang-orang yang ingkar. (al-Baqarah/2: 89) \n\nSelain bermakna isyarat bagi Ahli Kitab, ayat ini juga merupakan cercaan Allah yang ditujukan kepada orang-orang musyrik Mekah yang mengingkari ayat-ayat-Nya. Mereka tidak percaya kepada Al-Qur\u2019an dan kerasulan Muhammad saw yang sudah menjadi kebenaran yang nyata. Mereka ini disebut oleh Allah sebagai orang yang zalim. Sifat zalim ini adalah sifat yang paling tepat bagi mereka karena menyembunyikan kebenaran yang sebetulnya telah mereka ketahui. Allah berfirman:\n\u0648\u064e\u0645\u064e\u0646\u0652 \u0627\u064e\u0638\u0652\u0644\u064e\u0645\u064f \u0645\u0650\u0645\u0651\u064e\u0646\u0652 \u0643\u064e\u062a\u064e\u0645\u064e \u0634\u064e\u0647\u064e\u0627\u062f\u064e\u0629\u064b \u0639\u0650\u0646\u0652\u062f\u064e\u0647\u0657 \u0645\u0650\u0646\u064e \u0627\u0644\u0644\u0651\u0670\u0647\u0650 \u06d7 \nDan siapakah yang lebih zalim daripada orang yang menyembunyikan kesaksian dari Allah yang ada padanya? (al-Baqarah/2: 140) ",
        "intro_surah": "Surah al-\u2019Ankab\u016bt terdiri dari 69 ayat, termasuk kelompok surah-surah Makkiyyah. Dinamai \u201cal-\u2019Ankab\u016bt\u201d karena terdapat kata al-\u2019Ankab\u016bt yang berarti \u201claba-laba\u201d pada ayat 41 surah ini.\nAllah mengumpamakan penyembah-penyembah berhala dengan laba-laba yang percaya kepada kekuatan rumahnya sebagai tempat berlindung dan menjerat mangsanya, padahal kalau diembus angin atau ditimpa oleh sesuatu barang yang kecil saja, rumah itu akan hancur. Begitu pula halnya dengan kaum musyrikin yang percaya kepada kekuatan sembahan-sembahan mereka sebagai tempat berlindung dan tempat meminta sesuatu yang mereka inginkan. Sembahan-sembahan itu tidak mampu sedikit juga menolong mereka dari azab Allah di dunia, seperti yang terjadi pada kaum Nuh, kaum Ibrahim, kaum Lut, kaum Syuaib, kaum Saleh, dan lain-lain. Apalagi menghadapi azab Allah di akhirat nanti, sembahan-sembahan itu lebih tidak mampu menghindarkan dan melindungi mereka.\n\nPOKOK-POKOK ISINYA\n1. \tKeimanan:\nBukti-bukti tentang adanya hari kebangkitan dan ancaman terhadap orang-orang yang mengingkarinya; tiap-tiap diri akan merasakan mati dan hanya kepada Allah mereka akan kembali; Allah akan menjamin rezeki tiap-tiap makhluk-Nya.\n2. \tHukum-hukum:\nKewajiban berbuat baik kepada kedua orang ibu bapak; kewajiban mengerjakan salat karena dapat mencegah perbuatan keji dan mungkar; dan kewajiban menentang ajakan mempersekutukan Allah sekalipun datangnya dari ibu bapak.\n3. \tKisah-kisah:\nKisah-kisah cobaan yang dialami oleh Nabi Nuh, Nabi Ibrahim, Nabi Lut, Nabi Syuaib, Nabi Daud, Nabi Saleh, dan Nabi Musa.\n4. \tLain-lain:\nCobaan itu perlu untuk menguji keimanan seseorang; manfaat usaha manusia itu untuk dirinya sendiri bukan untuk Allah. Perlawanan terhadap kebenaran pasti hancur.",
        "outro_surah": null,
        "munasabah_prev_surah": "MUNASABAH SURAH AL-QA\u1e62A\u1e62 DENGAN\nSURAH AL-\u2018ANKAB\u016aT\n\n1. \tSurah al-\u2018Ankab\u016bt dibuka dengan hiburan dari Allah kepada Nabi Muhammad dan para sahabatnya yang selalu disakiti, diejek, dan diusir oleh orang-orang musyrik Mekah dengan menerangkan bahwa orang-orang yang beriman itu akan menerima cobaan atas keimanan mereka kepada nabi mereka. Sedangkan Surah al-Qa\u1e63a\u1e63 menerangkan aneka rupa cobaan yang diawali oleh Nabi Musa dan Bani Israil dalam menghadapi kekejaman Fir\u2018aun. Oleh sebab itu, Allah menyuruh agar Nabi Muhammad dan para sahabatnya selalu sabar dalam menghadapi cobaan-cobaan itu.\n2. \tSurah al-Qa\u1e63a\u1e63 mengisahkan selamatnya Nabi Musa dari pengejaran Fir\u2018aun setelah dengan tidak sengaja membunuh orang Qibti, kemudian mengisahkan selamatnya Musa dan pengikutnya dari pengejaran Fir\u2018aun dan tentaranya, serta tenggelamnya Fir\u2018aun dan tentaranya di laut Merah, sedangkan Surah al-\u2019Ankab\u016bt, mengisahkan selamatnya Nabi Nuh dan pengikutnya di atas bahtera serta tenggelamnya orang-orang yang mengingkari seruannya. Semua ini menunjukkan pertolongan Allah kepada hamba-hamba-Nya yang beriman.\n3. \tSurah al-Qa\u1e63a\u1e63 mengemukakan kelemahan kepercayaan orang-orang yang menyembah berhala dengan menerangkan keadaan penyembah-penyembah berhala dan berhala itu sendiri di hari Kiamat, sedang Surah al-\u2019Ankab\u016bt menyatakan kesesatan kepercayaan mereka dengan membandingkannya dengan laba-laba yang mempercayakan kekuatan sarangnya yang sangat lemah.\n4. \tKedua surah ini sama-sama menerangkan kisah Fir\u2018aun dan Karun, serta akibat perbuatan keduanya. Kedua surah ini sama-sama menyinggung soal hijrah Nabi Muhammad.",
        "munasabah_prev_theme": "Pada ayat yang lalu, Allah memerintahkan kepada Rasulullah dan umat-nya untuk membaca Al-Qur\u2019an dan mendirikan salat dengan sepenuh hati. Orang yang selalu mengerjakan kedua perintah itu akan selalu ingat kepada Allah, dan tercegah dari perbuatan keji dan mungkar. Pada ayat-ayat berikut ini diterangkan cara berdebat dan menghadapi Ahli Kitab. Diterang-kan juga sikap orang-orang musyrik Mekah terhadap dakwah Rasulullah dan Al-Qur\u2019an yang diturunkan kepadanya.",
        "theme_group": "CARA BERDEBAT DENGAN AHLI KITAB DAN\nSIKAP MEREKA TERHADAP AL-QUR\u2019AN",
        "kosakata": "Kosakata: Wal\u0101 Takhu\u1e6d\u1e6duhu \u0648\u064e\u0644\u0627\u064e \u062a\u064e\u062e\u064f\u0637\u0651\u064f\u0647\u064f  (al-\u2019Ankab\u016bt/29: 48)\nKata wal\u0101 takhu\u1e6d\u1e6duhu yang bersambung dengan kata biyam\u012bnik, dalam Al-Qur\u2019an, hanya disebut dalam ayat ini. Perkataan ini berarti \u201cdan engkau tidak (pernah) menulis suatu kitab dengan tangan kananmu\u201d. Penegasan ini dikemukakan Allah untuk menunjukkan bahwa Nabi Muhammad sebelum Al-Qur\u2019an diturunkan kepadanya belum pernah membaca sebuah kitab pun dan juga tidak pernah menulisnya. Ia seorang nabi yang umm\u012b, tidak pandai baca tulis. Menurut pendapat Ibnu \u2018Abb\u0101s,  a\u1e0d-\u1e0cahhak, dan Ibnu Juraij, Nabi Muhammad benar-benar seorang nabi yang tidak bisa menulis dan membaca. Seandainya Nabi Muhammad pernah tekun membaca kitab sekaligus menulisnya dengan tangan kanannya, niscaya Al-Qur\u2019an yang disampaikan kepada manusia akan diragukan, terutama oleh kalangan kaum Yahudi. Mereka  berdalih bahwa Al-Qur\u2019an itu pasti karya dan tulisan Muhammad. Kata wal\u0101 takhu\u1e6d\u1e6duhu biyam\u012bnik dan juga ungkapan l\u0101tatlu min kit\u0101b sebelumnya di awal ayat, difirmankan Allah untuk membantah hal tersebut.",
        "sabab_nuzul": null,
        "conclusion": "1. \tBerdakwah dan berdebat dengan Ahli Kitab hendaklah dengan cara yang baik. \n2. \tPara Ahli Kitab sebenarnya telah mengetahui bahwa Muhammad adalah utusan Allah, dan Al-Qur\u2019an adalah kitab suci yang diturunkan Allah kepadanya. Oleh karena itu, ada di antara mereka yang beriman kepadanya. \n3. \tKebanyakan Ahli Kitab mengingkari dan menyembunyikan apa yang disebutkan dalam kitab-kitab mereka, sebagaimana kaum musyrik Mekah mengingkari Al-Qur\u2019an yang telah jelas kebenarannya.\n4. \tKarena Ahli Kitab itu menyembunyikan kebenaran dan kaum musyrik Mekah mengingkari Al-Qur\u2019an, maka mereka disebut orang-orang zalim.\n5. \tHanya orang-orang zalim yang mengingkari ayat-ayat Allah.\n"
    }
}