{
    "id": 3380,
    "surah_id": 29,
    "ayah": 40,
    "page": 401,
    "quarter_hizb": 40.75,
    "juz": 20,
    "manzil": 5,
    "arabic": "\u0641\u064e\u0643\u064f\u0644\u0651\u064b\u0627 \u0627\u064e\u062e\u064e\u0630\u0652\u0646\u064e\u0627 \u0628\u0650\u0630\u064e\u0646\u0652\u06e2\u0628\u0650\u0647\u0656\u06d9 \u0641\u064e\u0645\u0650\u0646\u0652\u0647\u064f\u0645\u0652 \u0645\u0651\u064e\u0646\u0652 \u0627\u064e\u0631\u0652\u0633\u064e\u0644\u0652\u0646\u064e\u0627 \u0639\u064e\u0644\u064e\u064a\u0652\u0647\u0650 \u062d\u064e\u0627\u0635\u0650\u0628\u064b\u0627 \u06da\u0648\u064e\u0645\u0650\u0646\u0652\u0647\u064f\u0645\u0652 \u0645\u0651\u064e\u0646\u0652 \u0627\u064e\u062e\u064e\u0630\u064e\u062a\u0652\u0647\u064f \u0627\u0644\u0635\u0651\u064e\u064a\u0652\u062d\u064e\u0629\u064f \u06da\u0648\u064e\u0645\u0650\u0646\u0652\u0647\u064f\u0645\u0652 \u0645\u0651\u064e\u0646\u0652 \u062e\u064e\u0633\u064e\u0641\u0652\u0646\u064e\u0627 \u0628\u0650\u0647\u0650 \u0627\u0644\u0652\u0627\u064e\u0631\u0652\u0636\u064e\u06da \u0648\u064e\u0645\u0650\u0646\u0652\u0647\u064f\u0645\u0652 \u0645\u0651\u064e\u0646\u0652 \u0627\u064e\u063a\u0652\u0631\u064e\u0642\u0652\u0646\u064e\u0627\u06da \u0648\u064e\u0645\u064e\u0627 \u0643\u064e\u0627\u0646\u064e \u0627\u0644\u0644\u0651\u0670\u0647\u064f \u0644\u0650\u064a\u064e\u0638\u0652\u0644\u0650\u0645\u064e\u0647\u064f\u0645\u0652 \u0648\u064e\u0644\u0670\u0643\u0650\u0646\u0652 \u0643\u064e\u0627\u0646\u064f\u0648\u0652\u0653\u0627 \u0627\u064e\u0646\u0652\u0641\u064f\u0633\u064e\u0647\u064f\u0645\u0652 \u064a\u064e\u0638\u0652\u0644\u0650\u0645\u064f\u0648\u0652\u0646\u064e",
    "latin": "Fakullan akha\u017cn\u0101 bi\u017cambih(\u012b), faminhum man arsaln\u0101 \u2018alaihi \u1e25\u0101\u1e63ib\u0101(n), wa minhum man akha\u017cathu\u1e63-\u1e63ai\u1e25ah(tu), wa minhum man khasafn\u0101 bihil-ar\u1e0d(a), wa minhum man agraqn\u0101, wa m\u0101 k\u0101nall\u0101hu liya\u1e93limahum wa l\u0101kin k\u0101n\u016b anfusahum ya\u1e93lim\u016bn(a).",
    "translation": "Masing-masing (dari mereka) Kami azab karena dosanya. Di antara mereka ada yang Kami timpakan angin kencang (yang mengandung) batu kerikil, ada yang ditimpa suara keras yang mengguntur, ada yang Kami benamkan ke dalam bumi, dan ada pula yang Kami tenggelamkan. Tidaklah Allah menzalimi mereka, tetapi merekalah yang menzalimi dirinya sendiri. ",
    "no_footnote": null,
    "footnotes": null,
    "surah": {
        "id": 29,
        "arabic": " \u0627\u0644\u0639\u0646\u0643\u0628\u0648\u062a",
        "latin": "Al-\u2018Ankab\u016bt",
        "transliteration": "Al-\u2018Ankabut",
        "translation": "Laba-Laba",
        "num_ayah": 69,
        "page": 396,
        "location": "Makkiyah"
    },
    "tafsir": {
        "wajiz": "Maka, akibat keangkuhan kedurhakaan masing-masing dari mereka bertiga itu dan para pendurhaka selain mereka Kami turunkan azab karena dosanya masing-masing; di antara mereka ada yang Kami timpakan kepadanya hujan batu kerikil, seperti yang dialami kaum 'Ad dan kaum Nabi Lut; ada yang ditimpa suara keras yang mengguntur, seperti kaum Madyan dan Samud; ada yang kami benamkan ke dalam bumi, seperti Karun beserta harta kakayaannya dan beserta pengikutnya; dan ada pula yang Kami tenggelamkan seperti kaum Nabi Nuh dan Fir'aun beserta para tentaranya. Siksa dan bencana itu dijatuhkan bukan karena kesewenang-wenangan, tetapi itu adalah buah kedurhakaan. Allah sama sekali tidak hendak menzalimi mereka, dengan menjatukan siksa dan bencana itu, akan tetapi merekalah yang menzalimi diri mereka sendiri dengan keangkuhan dan kedurhakaan.",
        "tahlili": "Allah membinasakan umat-umat terdahulu yang mendustakan para rasul dengan menurunkan bermacam-macam azab, di antaranya:\na. \tAngin yang sangat kencang dan membawa batu, yang didatangkan kepada kaum \u2018Ad. Mereka menantang Nabi Hud, \u201cSiapakah gerangan yang lebih kuat dan berkuasa lagi dari kami?\u201d Kesombongan mereka dibalas Tuhan dengan mendatangkan angin, sehingga mereka mati bergelimpangan. Allah berfirman dalam ayat lain yang menjelaskan tentang siksaan itu, yakni:\n\u0648\u064e\u0627\u064e\u0645\u0651\u064e\u0627 \u0639\u064e\u0627\u062f\u064c \u0641\u064e\u0627\u064f\u0647\u0652\u0644\u0650\u0643\u064f\u0648\u0652\u0627 \u0628\u0650\u0631\u0650\u064a\u0652\u062d\u064d \u0635\u064e\u0631\u0652\u0635\u064e\u0631\u064d \u0639\u064e\u0627\u062a\u0650\u064a\u064e\u0629\u064d\u06d9 \u0666 \u0633\u064e\u062e\u0651\u064e\u0631\u064e\u0647\u064e\u0627 \u0639\u064e\u0644\u064e\u064a\u0652\u0647\u0650\u0645\u0652 \u0633\u064e\u0628\u0652\u0639\u064e \u0644\u064e\u064a\u064e\u0627\u0644\u064d \u0648\u0651\u064e\u062b\u064e\u0645\u0670\u0646\u0650\u064a\u064e\u0629\u064e \u0627\u064e\u064a\u0651\u064e\u0627\u0645\u064d\u06d9 \u062d\u064f\u0633\u064f\u0648\u0652\u0645\u064b\u0627 \u0641\u064e\u062a\u064e\u0631\u064e\u0649 \u0627\u0644\u0652\u0642\u064e\u0648\u0652\u0645\u064e \u0641\u0650\u064a\u0652\u0647\u064e\u0627 \u0635\u064e\u0631\u0652\u0639\u0670\u0649\u06d9 \u0643\u064e\u0627\u064e\u0646\u0651\u064e\u0647\u064f\u0645\u0652 \u0627\u064e\u0639\u0652\u062c\u064e\u0627\u0632\u064f \u0646\u064e\u062e\u0652\u0644\u064d \u062e\u064e\u0627\u0648\u0650\u064a\u064e\u0629\u064d\u06da \u0667 \u0641\u064e\u0647\u064e\u0644\u0652 \u062a\u064e\u0631\u0670\u0649 \u0644\u064e\u0647\u064f\u0645\u0652 \u0645\u0650\u0651\u0646\u0652\u06e2 \u0628\u064e\u0627\u0642\u0650\u064a\u064e\u0629\u064d \u0668 ( \u0627\u0644\u062d\u0627\u06e4\u0642\u0651\u0629)\n\tSedangkan kaum \u2018Ad, mereka telah dibinasakan dengan angin topan yang sangat dingin, Allah menimpakan angin itu kepada mereka selama tujuh malam delapan hari terus-menerus; maka kamu melihat kaum \u2018Ad pada waktu itu mati bergelimpangan seperti batang-batang pohon kurma yang telah kosong (lapuk).Maka adakah kamu melihat seorang pun yang masih tersisa di antara mereka? (al-\u1e24\u0101qqah/69: 6-8) \n\nb. \tSuara mengguntur yang memecahkan anak telinga. Siksaan ini diturunkan kepada kaum Samud. Mereka masih membangkang, tidak mau beriman kepada Nabi Saleh. Tiba-tiba mereka dipingsankan lalu mati oleh kejutan suara yang mengguntur yang dahsyat sekali. Allah menjelaskan lagi:\n\u0641\u064e\u0627\u064e\u0645\u0651\u064e\u0627 \u062b\u064e\u0645\u064f\u0648\u0652\u062f\u064f \u0641\u064e\u0627\u064f\u0647\u0652\u0644\u0650\u0643\u064f\u0648\u0652\u0627 \u0628\u0650\u0627\u0644\u0637\u0651\u064e\u0627\u063a\u0650\u064a\u064e\u0629\u0650 \u0665 (\u0627\u0644\u062d\u0627\u06e4\u0642\u0651\u0629)\nMaka adapun kaum Samud, mereka telah dibinasakan dengan suara yang sangat keras. (al-\u1e24\u0101qqah/69: 5)\n\nc. \tDitelan bumi, inilah kisah buat Karun, seorang hartawan. Pada mulanya, ia adalah seorang yang beriman dan patuh kepada Musa. Kemudian setelah kaya, ia menjadi sombong dan durhaka. Ia berbuat kemungkaran melampaui batas. Lebih dari itu, ia tidak mau menyerahkan zakat sebagai kewajiban harta kekayaan bagi orang kaya. Karena kecongkakan ini, Allah menyiksanya. Tanah sekitar Karun berpijak berguncang, runtuh, dan secara berangsur menelan tubuh Karun sampai lenyap sama sekali dari permukaan bumi.\nFirman Allah : \n\u0641\u064e\u062e\u064e\u0633\u064e\u0641\u0652\u0646\u064e\u0627 \u0628\u0650\u0647\u0656 \u0648\u064e\u0628\u0650\u062f\u064e\u0627\u0631\u0650\u0647\u0650 \u0627\u0644\u0652\u0627\u064e\u0631\u0652\u0636\u064e \u06d7\u0641\u064e\u0645\u064e\u0627 \u0643\u064e\u0627\u0646\u064e \u0644\u064e\u0647\u0657 \u0645\u0650\u0646\u0652 \u0641\u0650\u0626\u064e\u0629\u064d \u064a\u0651\u064e\u0646\u0652\u0635\u064f\u0631\u064f\u0648\u0652\u0646\u064e\u0647\u0657 \u0645\u0650\u0646\u0652 \u062f\u064f\u0648\u0652\u0646\u0650 \u0627\u0644\u0644\u0651\u0670\u0647\u0650 \u06d6\u0648\u064e\u0645\u064e\u0627 \u0643\u064e\u0627\u0646\u064e \u0645\u0650\u0646\u064e \u0627\u0644\u0652\u0645\u064f\u0646\u0652\u062a\u064e\u0635\u0650\u0631\u0650\u064a\u0652\u0646\u064e \u0668\u0661 (\u0627\u0644\u0642\u0635\u0635)\nMaka Kami benamkan dia (Karun) bersama rumahnya ke dalam bumi. Maka tidak ada baginya satu golongan pun yang akan menolongnya selain Allah, dan dia tidak termasuk orang-orang yang dapat membela diri. (al-Qa\u1e63a\u1e63/28: 81)\n\nd. \tDitenggelamkan ke dalam air. Inilah siksaan buat umat Nabi Nuh bersama seluruh hartanya. Selain umat Nabi Nuh, Fir\u2018aun, Ham\u0101n beserta bala tentaranya juga tenggelam dalam Laut Merah sebagai balasan atas kesombongan dan siksaan yang mereka lakukan terhadap Musa dan pengikutnya. Firman Allah tentang Nuh dalam Surah al-Anbiy\u0101\u2019/21: 76-77:\n\u0648\u064e\u0646\u064f\u0648\u0652\u062d\u064b\u0627 \u0627\u0650\u0630\u0652 \u0646\u064e\u0627\u062f\u0670\u0649 \u0645\u0650\u0646\u0652 \u0642\u064e\u0628\u0652\u0644\u064f \u0641\u064e\u0627\u0633\u0652\u062a\u064e\u062c\u064e\u0628\u0652\u0646\u064e\u0627 \u0644\u064e\u0647\u0657 \u0641\u064e\u0646\u064e\u062c\u0651\u064e\u064a\u0652\u0646\u0670\u0647\u064f \u0648\u064e\u0627\u064e\u0647\u0652\u0644\u064e\u0647\u0657 \u0645\u0650\u0646\u064e \u0627\u0644\u0652\u0643\u064e\u0631\u0652\u0628\u0650 \u0627\u0644\u0652\u0639\u064e\u0638\u0650\u064a\u0652\u0645\u0650 \u06da \u0667\u0666 \u0648\u064e\u0646\u064e\u0635\u064e\u0631\u0652\u0646\u0670\u0647\u064f \u0645\u0650\u0646\u064e \u0627\u0644\u0652\u0642\u064e\u0648\u0652\u0645\u0650 \u0627\u0644\u0651\u064e\u0630\u0650\u064a\u0652\u0646\u064e \u0643\u064e\u0630\u0651\u064e\u0628\u064f\u0648\u0652\u0627 \u0628\u0650\u0627\u0670\u064a\u0670\u062a\u0650\u0646\u064e\u0627\u06d7 \u0627\u0650\u0646\u0651\u064e\u0647\u064f\u0645\u0652 \u0643\u064e\u0627\u0646\u064f\u0648\u0652\u0627 \u0642\u064e\u0648\u0652\u0645\u064e \u0633\u064e\u0648\u0652\u0621\u064d \u0641\u064e\u0627\u064e\u063a\u0652\u0631\u064e\u0642\u0652\u0646\u0670\u0647\u064f\u0645\u0652 \u0627\u064e\u062c\u0652\u0645\u064e\u0639\u0650\u064a\u0652\u0646\u064e \u0667\u0667 (\u0627\u0644\u0627\u0646\u0628\u064a\u0627\u06e4\u0621)\nDan (ingatlah kisah) Nuh, sebelum itu, ketika dia berdoa. Kami perkenankan (doa)nya, lalu Kami selamatkan dia bersama pengikutnya dari bencana yang besar. Dan Kami menolongnya dari orang-orang yang telah mendustakan ayat-ayat Kami. Sesungguhnya mereka adalah orang-orang yang jahat, maka Kami tenggelamkan mereka semuanya. (al-Anbiy\u0101\u2019/21: 76-77)\n\t\nFirman Allah tentang Fir\u2018aun dalam Surah al-Qa\u1e63a\u1e63/28: 39-40:\n  \u0648\u064e\u0627\u0633\u0652\u062a\u064e\u0643\u0652\u0628\u064e\u0631\u064e \u0647\u064f\u0648\u064e \u0648\u064e\u062c\u064f\u0646\u064f\u0648\u0652\u062f\u064f\u0647\u0657 \u0641\u0650\u0649 \u0627\u0644\u0652\u0627\u064e\u0631\u0652\u0636\u0650 \u0628\u0650\u063a\u064e\u064a\u0652\u0631\u0650 \u0627\u0644\u0652\u062d\u064e\u0642\u0651\u0650 \u0648\u064e\u0638\u064e\u0646\u0651\u064f\u0648\u0652\u0653\u0627 \u0627\u064e\u0646\u0651\u064e\u0647\u064f\u0645\u0652 \u0627\u0650\u0644\u064e\u064a\u0652\u0646\u064e\u0627 \u0644\u064e\u0627 \u064a\u064f\u0631\u0652\u062c\u064e\u0639\u064f\u0648\u0652\u0646\u064e \u0663\u0669 \u0641\u064e\u0627\u064e\u062e\u064e\u0630\u0652\u0646\u0670\u0647\u064f \u0648\u064e\u062c\u064f\u0646\u064f\u0648\u0652\u062f\u064e\u0647\u0657 \u0641\u064e\u0646\u064e\u0628\u064e\u0630\u0652\u0646\u0670\u0647\u064f\u0645\u0652 \u0641\u0650\u0649 \u0627\u0644\u0652\u064a\u064e\u0645\u0651\u0650 \u06da\u0641\u064e\u0627\u0646\u0652\u0638\u064f\u0631\u0652 \u0643\u064e\u064a\u0652\u0641\u064e \u0643\u064e\u0627\u0646\u064e \u0639\u064e\u0627\u0642\u0650\u0628\u064e\u0629\u064f \u0627\u0644\u0638\u0651\u0670\u0644\u0650\u0645\u0650\u064a\u0652\u0646\u064e \u0664\u0660 (\u0627\u0644\u0642\u0635\u0635)\n\t\tDan dia (Fir\u2018aun) dan bala tentaranya berlaku sombong, di bumi tanpa alasan yang benar, dan mereka mengira bahwa mereka tidak akan dikembalikan kepada Kami. Maka Kami siksa dia (Fir\u2018aun) dan bala tentaranya, lalu Kami lemparkan mereka ke dalam laut. Maka perhatikanlah bagaimana kesudahan orang yang zalim.\n\nSemua itu adalah balasan yang setimpal atas kesalahan yang mereka lakukan, bukan kezaliman dari Allah. Dia tidak akan menyiksa seseorang kecuali yang mengerjakan perbuatan tercela. Mengazab seseorang tanpa ada kesalahan tidak sesuai dengan sunah Allah yang berlaku. Mereka yang tersebut dalam ayat-ayat yang lalu disiksa karena dosa dan kekafiran mereka terhadap Allah. Di samping itu, juga karena mereka menyembah berhala dan mengingkari nikmat yang diberikan kepadanya.",
        "intro_surah": "Surah al-\u2019Ankab\u016bt terdiri dari 69 ayat, termasuk kelompok surah-surah Makkiyyah. Dinamai \u201cal-\u2019Ankab\u016bt\u201d karena terdapat kata al-\u2019Ankab\u016bt yang berarti \u201claba-laba\u201d pada ayat 41 surah ini.\nAllah mengumpamakan penyembah-penyembah berhala dengan laba-laba yang percaya kepada kekuatan rumahnya sebagai tempat berlindung dan menjerat mangsanya, padahal kalau diembus angin atau ditimpa oleh sesuatu barang yang kecil saja, rumah itu akan hancur. Begitu pula halnya dengan kaum musyrikin yang percaya kepada kekuatan sembahan-sembahan mereka sebagai tempat berlindung dan tempat meminta sesuatu yang mereka inginkan. Sembahan-sembahan itu tidak mampu sedikit juga menolong mereka dari azab Allah di dunia, seperti yang terjadi pada kaum Nuh, kaum Ibrahim, kaum Lut, kaum Syuaib, kaum Saleh, dan lain-lain. Apalagi menghadapi azab Allah di akhirat nanti, sembahan-sembahan itu lebih tidak mampu menghindarkan dan melindungi mereka.\n\nPOKOK-POKOK ISINYA\n1. \tKeimanan:\nBukti-bukti tentang adanya hari kebangkitan dan ancaman terhadap orang-orang yang mengingkarinya; tiap-tiap diri akan merasakan mati dan hanya kepada Allah mereka akan kembali; Allah akan menjamin rezeki tiap-tiap makhluk-Nya.\n2. \tHukum-hukum:\nKewajiban berbuat baik kepada kedua orang ibu bapak; kewajiban mengerjakan salat karena dapat mencegah perbuatan keji dan mungkar; dan kewajiban menentang ajakan mempersekutukan Allah sekalipun datangnya dari ibu bapak.\n3. \tKisah-kisah:\nKisah-kisah cobaan yang dialami oleh Nabi Nuh, Nabi Ibrahim, Nabi Lut, Nabi Syuaib, Nabi Daud, Nabi Saleh, dan Nabi Musa.\n4. \tLain-lain:\nCobaan itu perlu untuk menguji keimanan seseorang; manfaat usaha manusia itu untuk dirinya sendiri bukan untuk Allah. Perlawanan terhadap kebenaran pasti hancur.",
        "outro_surah": null,
        "munasabah_prev_surah": "MUNASABAH SURAH AL-QA\u1e62A\u1e62 DENGAN\nSURAH AL-\u2018ANKAB\u016aT\n\n1. \tSurah al-\u2018Ankab\u016bt dibuka dengan hiburan dari Allah kepada Nabi Muhammad dan para sahabatnya yang selalu disakiti, diejek, dan diusir oleh orang-orang musyrik Mekah dengan menerangkan bahwa orang-orang yang beriman itu akan menerima cobaan atas keimanan mereka kepada nabi mereka. Sedangkan Surah al-Qa\u1e63a\u1e63 menerangkan aneka rupa cobaan yang diawali oleh Nabi Musa dan Bani Israil dalam menghadapi kekejaman Fir\u2018aun. Oleh sebab itu, Allah menyuruh agar Nabi Muhammad dan para sahabatnya selalu sabar dalam menghadapi cobaan-cobaan itu.\n2. \tSurah al-Qa\u1e63a\u1e63 mengisahkan selamatnya Nabi Musa dari pengejaran Fir\u2018aun setelah dengan tidak sengaja membunuh orang Qibti, kemudian mengisahkan selamatnya Musa dan pengikutnya dari pengejaran Fir\u2018aun dan tentaranya, serta tenggelamnya Fir\u2018aun dan tentaranya di laut Merah, sedangkan Surah al-\u2019Ankab\u016bt, mengisahkan selamatnya Nabi Nuh dan pengikutnya di atas bahtera serta tenggelamnya orang-orang yang mengingkari seruannya. Semua ini menunjukkan pertolongan Allah kepada hamba-hamba-Nya yang beriman.\n3. \tSurah al-Qa\u1e63a\u1e63 mengemukakan kelemahan kepercayaan orang-orang yang menyembah berhala dengan menerangkan keadaan penyembah-penyembah berhala dan berhala itu sendiri di hari Kiamat, sedang Surah al-\u2019Ankab\u016bt menyatakan kesesatan kepercayaan mereka dengan membandingkannya dengan laba-laba yang mempercayakan kekuatan sarangnya yang sangat lemah.\n4. \tKedua surah ini sama-sama menerangkan kisah Fir\u2018aun dan Karun, serta akibat perbuatan keduanya. Kedua surah ini sama-sama menyinggung soal hijrah Nabi Muhammad.",
        "munasabah_prev_theme": "Pada ayat yang lalu, Allah menyebutkan kisah Nabi Musa yang berhadapan dengan Fir\u2018aun, Karun, dan H\u0101m\u0101n. Karena sikap mereka yang sombong Fir\u2018aun, Karun, H\u0101m\u0101n, dan para pengikutnya dihancurkan oleh Allah. Pada ayat ini, Allah menyebutkan beberapa siksaan yang  didatangkan Allah kepada umat dahulu yang mendustakan para rasul.",
        "theme_group": "MACAM-MACAM HUKUMAN BAGI UMAT\nYANG MENDUSTAKAN RASUL\n",
        "kosakata": "Kosakata: \u1e24\u0101\u1e63iban \u062d\u064e\u0627\u0635\u0650\u0628\u064b\u0627 (al-\u2019Ankab\u016bt/29: 40)\n\u1e24\u0101\u1e63iban berarti batu kerikil. Ayat ini menjelaskan berbagai sarana yang digunakan oleh Allah untuk membinasakan orang-orang yang berlaku sombong di permukaan bumi, serta angkuh dan durhaka kepada para nabi. Di antara sarana yang digunakan untuk membinasakan mereka adalah hujan batu kerikil seperti yang dialami kaum \u2018Ad dan Lut. Kata \u1e25\u0101\u1e63iban terulang sebanyak empat kali dalam Al-Qur\u2019an di antaranya Surah al-Isr\u0101\u2019/17: 68, al-Qamar/54: 34, dan al-Mulk/67: 17. \n",
        "sabab_nuzul": null,
        "conclusion": "Di antara berbagai siksaan Tuhan yang pernah diturunkannya kepada manusia ialah: angin bercampur batu, suara petir, ditenggelamkan ke dalam air, dan ditelan bumi. Sekali-kali Allah tidak menyiksa seseorang secara zalim.\n"
    }
}