{
    "id": 3362,
    "surah_id": 29,
    "ayah": 22,
    "page": 398,
    "quarter_hizb": 40.5,
    "juz": 20,
    "manzil": 5,
    "arabic": "\u0648\u064e\u0645\u064e\u0627\u0653 \u0627\u064e\u0646\u0652\u062a\u064f\u0645\u0652 \u0628\u0650\u0645\u064f\u0639\u0652\u062c\u0650\u0632\u0650\u064a\u0652\u0646\u064e \u0641\u0650\u0649 \u0627\u0644\u0652\u0627\u064e\u0631\u0652\u0636\u0650 \u0648\u064e\u0644\u064e\u0627 \u0641\u0650\u0649 \u0627\u0644\u0633\u0651\u064e\u0645\u064e\u0627\u06e4\u0621\u0650 \u06d6\u0648\u064e\u0645\u064e\u0627 \u0644\u064e\u0643\u064f\u0645\u0652 \u0645\u0651\u0650\u0646\u0652 \u062f\u064f\u0648\u0652\u0646\u0650 \u0627\u0644\u0644\u0651\u0670\u0647\u0650 \u0645\u0650\u0646\u0652 \u0648\u0651\u064e\u0644\u0650\u064a\u0651\u064d \u0648\u0651\u064e\u0644\u064e\u0627 \u0646\u064e\u0635\u0650\u064a\u0652\u0631\u064d \u08d6",
    "latin": "Wa m\u0101 antum bimu\u2018jiz\u012bna fil-ar\u1e0di wa l\u0101 fis-sam\u0101'(i), wa m\u0101 lakum min d\u016bnill\u0101hi miw waliyyiw wa l\u0101 na\u1e63\u012br(in). ",
    "translation": "Kamu sama sekali tidak dapat melepaskan diri (dari azab Allah) di bumi dan di langit. Tidak ada pula pelindung dan penolong bagimu selain Allah.\u201d",
    "no_footnote": null,
    "footnotes": null,
    "surah": {
        "id": 29,
        "arabic": " \u0627\u0644\u0639\u0646\u0643\u0628\u0648\u062a",
        "latin": "Al-\u2018Ankab\u016bt",
        "transliteration": "Al-\u2018Ankabut",
        "translation": "Laba-Laba",
        "num_ayah": 69,
        "page": 396,
        "location": "Makkiyah"
    },
    "tafsir": {
        "wajiz": "Jangan duga akan dapat menghindar dari siksa-Nya. Ketika itu, tidak ada kekuasaan selain kuasa-Nya dan kamu wahai para pendurhaka sama sekali tidak dapat melepaskan diri dari siksa yang ditetapkan Allah, baik kamu berada di bumi maupun berada di langit, dan tidak ada pelindung yang dapat menghalangi siksa Allah dan penolong bagimu yang dapat meringankan siksa yang ditetapkan itu selain Allah.\u2019\u201d",
        "tahlili": "Tidak ada yang mengalahkan dan menandingi kekuasaan Allah. Allah berkuasa atas sekalian hamba-Nya. Semua makhluk membutuhkan-Nya. Andaikata seseorang pergi mencari tempat pelarian ke langit yang tinggi, atau bersembunyi dalam perut ikan di laut, ia takkan dapat melepaskan diri dari genggaman kekuasaan Allah. Oleh karena itu, tidak seorang pun di antara manusia yang dapat mencari seorang penolong yang akan melepaskannya dari azab dan siksaan Allah, baik di langit maupun di bumi.",
        "intro_surah": "Surah al-\u2019Ankab\u016bt terdiri dari 69 ayat, termasuk kelompok surah-surah Makkiyyah. Dinamai \u201cal-\u2019Ankab\u016bt\u201d karena terdapat kata al-\u2019Ankab\u016bt yang berarti \u201claba-laba\u201d pada ayat 41 surah ini.\nAllah mengumpamakan penyembah-penyembah berhala dengan laba-laba yang percaya kepada kekuatan rumahnya sebagai tempat berlindung dan menjerat mangsanya, padahal kalau diembus angin atau ditimpa oleh sesuatu barang yang kecil saja, rumah itu akan hancur. Begitu pula halnya dengan kaum musyrikin yang percaya kepada kekuatan sembahan-sembahan mereka sebagai tempat berlindung dan tempat meminta sesuatu yang mereka inginkan. Sembahan-sembahan itu tidak mampu sedikit juga menolong mereka dari azab Allah di dunia, seperti yang terjadi pada kaum Nuh, kaum Ibrahim, kaum Lut, kaum Syuaib, kaum Saleh, dan lain-lain. Apalagi menghadapi azab Allah di akhirat nanti, sembahan-sembahan itu lebih tidak mampu menghindarkan dan melindungi mereka.\n\nPOKOK-POKOK ISINYA\n1. \tKeimanan:\nBukti-bukti tentang adanya hari kebangkitan dan ancaman terhadap orang-orang yang mengingkarinya; tiap-tiap diri akan merasakan mati dan hanya kepada Allah mereka akan kembali; Allah akan menjamin rezeki tiap-tiap makhluk-Nya.\n2. \tHukum-hukum:\nKewajiban berbuat baik kepada kedua orang ibu bapak; kewajiban mengerjakan salat karena dapat mencegah perbuatan keji dan mungkar; dan kewajiban menentang ajakan mempersekutukan Allah sekalipun datangnya dari ibu bapak.\n3. \tKisah-kisah:\nKisah-kisah cobaan yang dialami oleh Nabi Nuh, Nabi Ibrahim, Nabi Lut, Nabi Syuaib, Nabi Daud, Nabi Saleh, dan Nabi Musa.\n4. \tLain-lain:\nCobaan itu perlu untuk menguji keimanan seseorang; manfaat usaha manusia itu untuk dirinya sendiri bukan untuk Allah. Perlawanan terhadap kebenaran pasti hancur.",
        "outro_surah": null,
        "munasabah_prev_surah": "MUNASABAH SURAH AL-QA\u1e62A\u1e62 DENGAN\nSURAH AL-\u2018ANKAB\u016aT\n\n1. \tSurah al-\u2018Ankab\u016bt dibuka dengan hiburan dari Allah kepada Nabi Muhammad dan para sahabatnya yang selalu disakiti, diejek, dan diusir oleh orang-orang musyrik Mekah dengan menerangkan bahwa orang-orang yang beriman itu akan menerima cobaan atas keimanan mereka kepada nabi mereka. Sedangkan Surah al-Qa\u1e63a\u1e63 menerangkan aneka rupa cobaan yang diawali oleh Nabi Musa dan Bani Israil dalam menghadapi kekejaman Fir\u2018aun. Oleh sebab itu, Allah menyuruh agar Nabi Muhammad dan para sahabatnya selalu sabar dalam menghadapi cobaan-cobaan itu.\n2. \tSurah al-Qa\u1e63a\u1e63 mengisahkan selamatnya Nabi Musa dari pengejaran Fir\u2018aun setelah dengan tidak sengaja membunuh orang Qibti, kemudian mengisahkan selamatnya Musa dan pengikutnya dari pengejaran Fir\u2018aun dan tentaranya, serta tenggelamnya Fir\u2018aun dan tentaranya di laut Merah, sedangkan Surah al-\u2019Ankab\u016bt, mengisahkan selamatnya Nabi Nuh dan pengikutnya di atas bahtera serta tenggelamnya orang-orang yang mengingkari seruannya. Semua ini menunjukkan pertolongan Allah kepada hamba-hamba-Nya yang beriman.\n3. \tSurah al-Qa\u1e63a\u1e63 mengemukakan kelemahan kepercayaan orang-orang yang menyembah berhala dengan menerangkan keadaan penyembah-penyembah berhala dan berhala itu sendiri di hari Kiamat, sedang Surah al-\u2019Ankab\u016bt menyatakan kesesatan kepercayaan mereka dengan membandingkannya dengan laba-laba yang mempercayakan kekuatan sarangnya yang sangat lemah.\n4. \tKedua surah ini sama-sama menerangkan kisah Fir\u2018aun dan Karun, serta akibat perbuatan keduanya. Kedua surah ini sama-sama menyinggung soal hijrah Nabi Muhammad.",
        "munasabah_prev_theme": "Pada ayat-ayat yang lalu, Allah menerangkan tugas Nabi Ibrahim mengajak kaumnya untuk beribadah dan bertakwa, yang dalam penyampaian dakwahnya tidak ada paksaan. Pada ayat-ayat berikut ini, Allah melanjutkan penjelasan-Nya tentang iman, yaitu mengenai hari Kebangkitan.",
        "theme_group": "DALIL TENTANG ADANYA HARI KEBANGKITAN",
        "kosakata": "Kosakata: Ya\u2019is\u016b min Ra\u1e25mat\u012b   \u0645\u0650\u0646\u0652 \u0631\u0651\u064e\u062d\u0652\u0645\u064e\u062a\u0650\u064a\u0652 \u064a\u064e\u0626\u0650\u0633\u064f\u0648\u0652\u0627  (al-\u2019Ankab\u016bt/29: 23)\nYa\u2019is\u016b min ra\u1e25mat\u012b artinya mereka putus asa dari rahmat-Ku (Allah). Terambil dari kata al-ya\u2019su yang bermakna ketiadaan ambisi atau putus asa. Orang-orang kafir dan musyrik putus asa untuk mendapatkan rahmat Allah kelak di akhirat. Ra\u1e25mah bermakna kelembutan yang mengharuskan seseorang berbuat baik kepada yang dirahmati. Jika rahmat itu datang dari sisi Allah, maka dimaknai dengan ihsan. Oleh sebab itu, rahmat dari sisi Allah berarti kenikmatan dan keutamaan. Namun rahmat yang dimaksud ayat ini adalah surga, seperti disebutkan dalam Surah al-J\u0101\u1e61iah/45: 30 dan al-Ins\u0101n/76: 31, karena surga adalah tempat memperoleh ganjaran Ilahi sekaligus rahmat-Nya. Ayat ini merupakan ketetapan bagi orang-orang kafir dan musyrik bahwa mereka tidak akan masuk ke surga sehingga mereka menjadi putus asa.",
        "sabab_nuzul": null,
        "conclusion": null
    }
}