{
    "id": 3357,
    "surah_id": 29,
    "ayah": 17,
    "page": 398,
    "quarter_hizb": 40.5,
    "juz": 20,
    "manzil": 5,
    "arabic": "\u0627\u0650\u0646\u0651\u064e\u0645\u064e\u0627 \u062a\u064e\u0639\u0652\u0628\u064f\u062f\u064f\u0648\u0652\u0646\u064e \u0645\u0650\u0646\u0652 \u062f\u064f\u0648\u0652\u0646\u0650 \u0627\u0644\u0644\u0651\u0670\u0647\u0650 \u0627\u064e\u0648\u0652\u062b\u064e\u0627\u0646\u064b\u0627 \u0648\u0651\u064e\u062a\u064e\u062e\u0652\u0644\u064f\u0642\u064f\u0648\u0652\u0646\u064e \u0627\u0650\u0641\u0652\u0643\u064b\u0627 \u06d7\u0627\u0650\u0646\u0651\u064e \u0627\u0644\u0651\u064e\u0630\u0650\u064a\u0652\u0646\u064e \u062a\u064e\u0639\u0652\u0628\u064f\u062f\u064f\u0648\u0652\u0646\u064e \u0645\u0650\u0646\u0652 \u062f\u064f\u0648\u0652\u0646\u0650 \u0627\u0644\u0644\u0651\u0670\u0647\u0650 \u0644\u064e\u0627 \u064a\u064e\u0645\u0652\u0644\u0650\u0643\u064f\u0648\u0652\u0646\u064e \u0644\u064e\u0643\u064f\u0645\u0652 \u0631\u0650\u0632\u0652\u0642\u064b\u0627 \u0641\u064e\u0627\u0628\u0652\u062a\u064e\u063a\u064f\u0648\u0652\u0627 \u0639\u0650\u0646\u0652\u062f\u064e \u0627\u0644\u0644\u0651\u0670\u0647\u0650 \u0627\u0644\u0631\u0651\u0650\u0632\u0652\u0642\u064e \u0648\u064e\u0627\u0639\u0652\u0628\u064f\u062f\u064f\u0648\u0652\u0647\u064f \u0648\u064e\u0627\u0634\u0652\u0643\u064f\u0631\u064f\u0648\u0652\u0627 \u0644\u064e\u0647\u0657 \u06d7\u0627\u0650\u0644\u064e\u064a\u0652\u0647\u0650 \u062a\u064f\u0631\u0652\u062c\u064e\u0639\u064f\u0648\u0652\u0646\u064e ",
    "latin": "Innam\u0101 ta\u2018bud\u016bna min d\u016bnill\u0101hi au\u1e61\u0101naw wa takhluq\u016bna ifk\u0101(n), innal-la\u017c\u012bna ta\u2018bud\u016bna min d\u016bnill\u0101hi l\u0101 yamlik\u016bna lakum rizqan fabtag\u016b \u2018indall\u0101hir-rizqa wa\u2018bud\u016bhu wasykur\u016b lah(\u016b), ilaihi turja\u2018\u016bn(a).",
    "translation": "Sesungguhnya apa yang kamu sembah selain Allah hanyalah berhala-berhala dan kamu membuat kebohongan. Sesungguhnya apa yang kamu sembah selain Allah tidak mampu memberikan rezeki kepadamu. Maka, mintalah rezeki dari sisi Allah, sembahlah Dia, dan bersyukurlah kepada-Nya. Hanya kepada-Nya kamu akan dikembalikan.",
    "no_footnote": null,
    "footnotes": null,
    "surah": {
        "id": 29,
        "arabic": " \u0627\u0644\u0639\u0646\u0643\u0628\u0648\u062a",
        "latin": "Al-\u2018Ankab\u016bt",
        "transliteration": "Al-\u2018Ankabut",
        "translation": "Laba-Laba",
        "num_ayah": 69,
        "page": 396,
        "location": "Makkiyah"
    },
    "tafsir": {
        "wajiz": "Selanjutnya Nabi Ibrahim mengecam kaumnya dengan menyatakan, \u201cSesungguhnya yang kamu sembah selain Allah hanyalah berhala-berhala dan patung-patung yang kalian buat dengan tangan kalian sendiri, dan kemudian kamu membuat-buat kebohongan dengan menyebutnya sebagai tuhan. Kamu menyembah berhala-berhala itu dengan harapan dapat memberi manfaat dan perlindungan serta menganugerahkan rezeki kepadamu. Padahal, sesungguhnya apa dan siapa pun yang kamu sembah selain Allah itu tidak mampu memberikan perlindungan dan rezeki kepadamu walau sedikit. Karena itu, maka minta dan berusaha-lah dengan sungguh-sungguh guna memperoleh rezeki dari Allah, dan di samping itu sembahlah Dia dengan penuh ketulusan dan bersyukurlah kepada-Nya atas rezeki yang telah dianugerahkan-Nya kepadamu. Hanya kepada-Nya semata kamu akan dikembalikan setelah kematian untuk dimintakan pertanggungjawaban.\u201d",
        "tahlili": "Pada ayat ini, Allah menegaskan bahwa sesembahan selain Dia sudah jelas merupakan hasil ciptaan tangan manusia sendiri, tetapi mereka berdusta dengan menganggapnya tuhan yang sebenarnya. Mereka menganggap hasil ciptaan mereka yang berbentuk patung dan berhala itu sanggup memberi manfaat atau keuntungan kepada mereka. Ibrahim mencela dan mengecam anggapan mereka karena patung-patung itu sedikit pun tidak sanggup memberi rezeki kepada mereka. Rezeki itu adalah wewenang mutlak yang hanya dimiliki oleh Allah. Oleh karena itu, dianjurkan kepada mereka supaya memohon rezeki dan penghasilan hanya kepada Allah, kemudian mensyukuri jika yang diminta itu telah dikabulkan-Nya. Hanya Allah yang mendatangkan rezeki bagi manusia serta semua kenikmatan hamba-Nya. Manusia dianjurkan untuk mencari keridaan-Nya dengan jalan mendekatkan diri kepada-Nya. \nAyat ini ditutup dengan lafal \u201ckepada-Nyalah kamu dikembalikan\u201d artinya manusia harus bersiap-siap menemui Allah dengan beribadah dan bersyukur. Setiap manusia akan dimintai pertanggungjawaban atas segala amal perbuatannya dan semua kenikmatan yang mereka terima.",
        "intro_surah": "Surah al-\u2019Ankab\u016bt terdiri dari 69 ayat, termasuk kelompok surah-surah Makkiyyah. Dinamai \u201cal-\u2019Ankab\u016bt\u201d karena terdapat kata al-\u2019Ankab\u016bt yang berarti \u201claba-laba\u201d pada ayat 41 surah ini.\nAllah mengumpamakan penyembah-penyembah berhala dengan laba-laba yang percaya kepada kekuatan rumahnya sebagai tempat berlindung dan menjerat mangsanya, padahal kalau diembus angin atau ditimpa oleh sesuatu barang yang kecil saja, rumah itu akan hancur. Begitu pula halnya dengan kaum musyrikin yang percaya kepada kekuatan sembahan-sembahan mereka sebagai tempat berlindung dan tempat meminta sesuatu yang mereka inginkan. Sembahan-sembahan itu tidak mampu sedikit juga menolong mereka dari azab Allah di dunia, seperti yang terjadi pada kaum Nuh, kaum Ibrahim, kaum Lut, kaum Syuaib, kaum Saleh, dan lain-lain. Apalagi menghadapi azab Allah di akhirat nanti, sembahan-sembahan itu lebih tidak mampu menghindarkan dan melindungi mereka.\n\nPOKOK-POKOK ISINYA\n1. \tKeimanan:\nBukti-bukti tentang adanya hari kebangkitan dan ancaman terhadap orang-orang yang mengingkarinya; tiap-tiap diri akan merasakan mati dan hanya kepada Allah mereka akan kembali; Allah akan menjamin rezeki tiap-tiap makhluk-Nya.\n2. \tHukum-hukum:\nKewajiban berbuat baik kepada kedua orang ibu bapak; kewajiban mengerjakan salat karena dapat mencegah perbuatan keji dan mungkar; dan kewajiban menentang ajakan mempersekutukan Allah sekalipun datangnya dari ibu bapak.\n3. \tKisah-kisah:\nKisah-kisah cobaan yang dialami oleh Nabi Nuh, Nabi Ibrahim, Nabi Lut, Nabi Syuaib, Nabi Daud, Nabi Saleh, dan Nabi Musa.\n4. \tLain-lain:\nCobaan itu perlu untuk menguji keimanan seseorang; manfaat usaha manusia itu untuk dirinya sendiri bukan untuk Allah. Perlawanan terhadap kebenaran pasti hancur.",
        "outro_surah": null,
        "munasabah_prev_surah": "MUNASABAH SURAH AL-QA\u1e62A\u1e62 DENGAN\nSURAH AL-\u2018ANKAB\u016aT\n\n1. \tSurah al-\u2018Ankab\u016bt dibuka dengan hiburan dari Allah kepada Nabi Muhammad dan para sahabatnya yang selalu disakiti, diejek, dan diusir oleh orang-orang musyrik Mekah dengan menerangkan bahwa orang-orang yang beriman itu akan menerima cobaan atas keimanan mereka kepada nabi mereka. Sedangkan Surah al-Qa\u1e63a\u1e63 menerangkan aneka rupa cobaan yang diawali oleh Nabi Musa dan Bani Israil dalam menghadapi kekejaman Fir\u2018aun. Oleh sebab itu, Allah menyuruh agar Nabi Muhammad dan para sahabatnya selalu sabar dalam menghadapi cobaan-cobaan itu.\n2. \tSurah al-Qa\u1e63a\u1e63 mengisahkan selamatnya Nabi Musa dari pengejaran Fir\u2018aun setelah dengan tidak sengaja membunuh orang Qibti, kemudian mengisahkan selamatnya Musa dan pengikutnya dari pengejaran Fir\u2018aun dan tentaranya, serta tenggelamnya Fir\u2018aun dan tentaranya di laut Merah, sedangkan Surah al-\u2019Ankab\u016bt, mengisahkan selamatnya Nabi Nuh dan pengikutnya di atas bahtera serta tenggelamnya orang-orang yang mengingkari seruannya. Semua ini menunjukkan pertolongan Allah kepada hamba-hamba-Nya yang beriman.\n3. \tSurah al-Qa\u1e63a\u1e63 mengemukakan kelemahan kepercayaan orang-orang yang menyembah berhala dengan menerangkan keadaan penyembah-penyembah berhala dan berhala itu sendiri di hari Kiamat, sedang Surah al-\u2019Ankab\u016bt menyatakan kesesatan kepercayaan mereka dengan membandingkannya dengan laba-laba yang mempercayakan kekuatan sarangnya yang sangat lemah.\n4. \tKedua surah ini sama-sama menerangkan kisah Fir\u2018aun dan Karun, serta akibat perbuatan keduanya. Kedua surah ini sama-sama menyinggung soal hijrah Nabi Muhammad.",
        "munasabah_prev_theme": "Pada ayat-ayat yang lalu, Allah menerangkan tentang keingkaran umat Nabi Nuh sehingga mereka ditenggelamkan oleh banjir. Pada ayat-ayat berikut ini, Allah menerangkan pula kisah umat Nabi Ibrahim yang tidak pula kurang keingkarannya dari umat Nabi Nuh. Mereka bahkan berupaya membunuh Nabi Ibrahim, namun Allah menyelamatkannya.",
        "theme_group": "KISAH NABI IBRAHIM ",
        "kosakata": "Kosakata: Au\u1e61\u0101nan  \u0627\u064e\u0648\u0652\u062b\u064e\u0627\u064e\u0646\u064b\u0627  (al-\u2019Ankab\u016bt/29: 17)\nAu\u1e61\u0101nan bentuk jamak dari kata wa\u1e61an yang berarti benda berbentuk manusia atau hewan yang terbuat dari batu atau kayu untuk dijadikan sesembahan, biasa dikenal dengan nama berhala. Kata au\u1e61\u0101n dalam ayat ini berbentuk nakirah sehingga mengisyaratkan bahwa kepercayaan tentang ketuhanan berhala-berhala itu adalah kepercayaan sesat yang tidak berdasar serta berupa kebohongan dan pemutarbalikan fakta karena berhala-berhala itu tidak mampu memberikan manfaat kepada pemuja atau penyembahnya. ",
        "sabab_nuzul": null,
        "conclusion": null
    }
}