{
    "id": 3383,
    "surah_id": 29,
    "ayah": 43,
    "page": 401,
    "quarter_hizb": 40.75,
    "juz": 20,
    "manzil": 5,
    "arabic": "\u0648\u064e\u062a\u0650\u0644\u0652\u0643\u064e \u0627\u0644\u0652\u0627\u064e\u0645\u0652\u062b\u064e\u0627\u0644\u064f \u0646\u064e\u0636\u0652\u0631\u0650\u0628\u064f\u0647\u064e\u0627 \u0644\u0650\u0644\u0646\u0651\u064e\u0627\u0633\u0650\u06da \u0648\u064e\u0645\u064e\u0627 \u064a\u064e\u0639\u0652\u0642\u0650\u0644\u064f\u0647\u064e\u0627\u0653 \u0627\u0650\u0644\u0651\u064e\u0627 \u0627\u0644\u0652\u0639\u0670\u0644\u0650\u0645\u064f\u0648\u0652\u0646\u064e ",
    "latin": "Wa tilkal-am\u1e61\u0101lu na\u1e0dribuh\u0101 lin-n\u0101s(i), wa m\u0101 ya\u2018qiluh\u0101 illal-\u2018\u0101lim\u016bn(a).",
    "translation": "Perumpamaan-perumpamaan itu Kami buat untuk manusia. Namun, tidak ada yang memahaminya, kecuali orang-orang yang berilmu. ",
    "no_footnote": null,
    "footnotes": null,
    "surah": {
        "id": 29,
        "arabic": " \u0627\u0644\u0639\u0646\u0643\u0628\u0648\u062a",
        "latin": "Al-\u2018Ankab\u016bt",
        "transliteration": "Al-\u2018Ankabut",
        "translation": "Laba-Laba",
        "num_ayah": 69,
        "page": 396,
        "location": "Makkiyah"
    },
    "tafsir": {
        "wajiz": "Dan perumpamaan-perumpamaan ini Kami buat dan paparkan untuk manusia agar diambil manfaatnya dan dijadikan pelajaran; dan tidak ada yang akan memahaminya dengan baik dan sempurna kecuali mereka yang berilmu dan mendalam ilmu pengetahuannya tentang Allah, tanda-tanda kekuasaan-Nya dan segala ketetapan-Nya.",
        "tahlili": "Demikianlah Allah mengumpamakan sesuatu perumpamaan bagi manusia. Hanya orang berakal yang dapat memikirkan perumpamaan tersebut. Allah sengaja mengambil laba-laba sebagai perumpamaan, karena itu barangkali yang mudah mereka pahami. Selain dari itu, juga dimaksudkan untuk menerangkan segala keraguan mereka selama ini. Orang yang selalu menggunakan hati dan pikirannya dan ahli-ahli ilmu pengetahuan pasti dapat memahami perumpamaan tersebut dan akan semakin banyak mengetahui rahasia-rahasia Allah yang terkandung dalam ayat-ayat-Nya. Diriwayatkan dari J\u0101bir bahwa Rasulullah pernah berkata:\n\u0627\u0644\u0639\u064e\u0627\u0644\u0650\u0645\u064f \u0645\u064e\u0646\u0652 \u0639\u064e\u0642\u064e\u0644\u064e \u0639\u064e\u0646\u0650 \u0627\u0644\u0644\u0651\u0670\u0647\u0650 \u062a\u064e\u0639\u064e\u0627\u0644\u064e\u0649 \u0648\u064e\u0639\u064e\u0645\u0650\u0644\u064e \u0628\u0650\u0637\u064e\u0627\u0639\u064e\u062a\u0650\u0647\u0650 \u0648\u064e\u0627\u062c\u0652\u062a\u064e\u0646\u064e\u0628\u064e \u0633\u064f\u062e\u0652\u0637\u064e\u0647 (\u0631\u0648\u0627\u0647 \u0627\u0644\u0647\u064a\u062b\u0645\u0649)\n\u201cOrang yang berilmu itu ialah orang yang menjaga hal-hal yang dari Allah, dan beramal dalam rangka taat kepada-Nya serta menjauhi segala kemarahan-Nya.\u201d (Riwayat al-Hai\u1e61ami)",
        "intro_surah": "Surah al-\u2019Ankab\u016bt terdiri dari 69 ayat, termasuk kelompok surah-surah Makkiyyah. Dinamai \u201cal-\u2019Ankab\u016bt\u201d karena terdapat kata al-\u2019Ankab\u016bt yang berarti \u201claba-laba\u201d pada ayat 41 surah ini.\nAllah mengumpamakan penyembah-penyembah berhala dengan laba-laba yang percaya kepada kekuatan rumahnya sebagai tempat berlindung dan menjerat mangsanya, padahal kalau diembus angin atau ditimpa oleh sesuatu barang yang kecil saja, rumah itu akan hancur. Begitu pula halnya dengan kaum musyrikin yang percaya kepada kekuatan sembahan-sembahan mereka sebagai tempat berlindung dan tempat meminta sesuatu yang mereka inginkan. Sembahan-sembahan itu tidak mampu sedikit juga menolong mereka dari azab Allah di dunia, seperti yang terjadi pada kaum Nuh, kaum Ibrahim, kaum Lut, kaum Syuaib, kaum Saleh, dan lain-lain. Apalagi menghadapi azab Allah di akhirat nanti, sembahan-sembahan itu lebih tidak mampu menghindarkan dan melindungi mereka.\n\nPOKOK-POKOK ISINYA\n1. \tKeimanan:\nBukti-bukti tentang adanya hari kebangkitan dan ancaman terhadap orang-orang yang mengingkarinya; tiap-tiap diri akan merasakan mati dan hanya kepada Allah mereka akan kembali; Allah akan menjamin rezeki tiap-tiap makhluk-Nya.\n2. \tHukum-hukum:\nKewajiban berbuat baik kepada kedua orang ibu bapak; kewajiban mengerjakan salat karena dapat mencegah perbuatan keji dan mungkar; dan kewajiban menentang ajakan mempersekutukan Allah sekalipun datangnya dari ibu bapak.\n3. \tKisah-kisah:\nKisah-kisah cobaan yang dialami oleh Nabi Nuh, Nabi Ibrahim, Nabi Lut, Nabi Syuaib, Nabi Daud, Nabi Saleh, dan Nabi Musa.\n4. \tLain-lain:\nCobaan itu perlu untuk menguji keimanan seseorang; manfaat usaha manusia itu untuk dirinya sendiri bukan untuk Allah. Perlawanan terhadap kebenaran pasti hancur.",
        "outro_surah": null,
        "munasabah_prev_surah": "MUNASABAH SURAH AL-QA\u1e62A\u1e62 DENGAN\nSURAH AL-\u2018ANKAB\u016aT\n\n1. \tSurah al-\u2018Ankab\u016bt dibuka dengan hiburan dari Allah kepada Nabi Muhammad dan para sahabatnya yang selalu disakiti, diejek, dan diusir oleh orang-orang musyrik Mekah dengan menerangkan bahwa orang-orang yang beriman itu akan menerima cobaan atas keimanan mereka kepada nabi mereka. Sedangkan Surah al-Qa\u1e63a\u1e63 menerangkan aneka rupa cobaan yang diawali oleh Nabi Musa dan Bani Israil dalam menghadapi kekejaman Fir\u2018aun. Oleh sebab itu, Allah menyuruh agar Nabi Muhammad dan para sahabatnya selalu sabar dalam menghadapi cobaan-cobaan itu.\n2. \tSurah al-Qa\u1e63a\u1e63 mengisahkan selamatnya Nabi Musa dari pengejaran Fir\u2018aun setelah dengan tidak sengaja membunuh orang Qibti, kemudian mengisahkan selamatnya Musa dan pengikutnya dari pengejaran Fir\u2018aun dan tentaranya, serta tenggelamnya Fir\u2018aun dan tentaranya di laut Merah, sedangkan Surah al-\u2019Ankab\u016bt, mengisahkan selamatnya Nabi Nuh dan pengikutnya di atas bahtera serta tenggelamnya orang-orang yang mengingkari seruannya. Semua ini menunjukkan pertolongan Allah kepada hamba-hamba-Nya yang beriman.\n3. \tSurah al-Qa\u1e63a\u1e63 mengemukakan kelemahan kepercayaan orang-orang yang menyembah berhala dengan menerangkan keadaan penyembah-penyembah berhala dan berhala itu sendiri di hari Kiamat, sedang Surah al-\u2019Ankab\u016bt menyatakan kesesatan kepercayaan mereka dengan membandingkannya dengan laba-laba yang mempercayakan kekuatan sarangnya yang sangat lemah.\n4. \tKedua surah ini sama-sama menerangkan kisah Fir\u2018aun dan Karun, serta akibat perbuatan keduanya. Kedua surah ini sama-sama menyinggung soal hijrah Nabi Muhammad.",
        "munasabah_prev_theme": "Pada ayat yang lalu, Allah menceritakan orang-orang yang mendustakan rasul telah dihancurkan dengan berbagai macam azab. Perbuatan itu tidak mendatangkan manfaat sedikit pun bagi kehidupan duniawi dan ukhrawi. Pada ayat-ayat berikut ini, Allah mengumpamakan kaum penyembah berhala adalah bagaikan laba-laba membuat sarang yang sangat rapuh. ",
        "theme_group": "PELINDUNG SELAIN ALLAH LEMAH\nSEPERTI SARANG LABA-LABA",
        "kosakata": "Kosakata: Al-\u2019Ankab\u016bt \u0627\u0644\u0652\u0639\u064e\u0646\u0652\u0643\u064e\u0628\u064f\u0648\u0652\u062a (al-\u2019Ankab\u016bt/29: 41)\nAl-\u2019Ankab\u016bt adalah sejenis serangga berkaki delapan, berwarna abu-abu kehitam-hitaman atau coklat, dan biasa membuat sarang yang berbentuk jaring dari benang-benang halus yang keluar dari perutnya. Kata al-\u2019ankab\u016bt menunjuk pada serangga betina maupun jantan. Sarang yang dibuat bukan hanya dipakai sebagai tempat tinggal, tetapi juga sebagai tempat menangkap mangsanya. Ayat ini menyerupakan kaum musyrikin yang menjadikan berhala-berhala sebagai pelindung dengan laba-laba yang menjadikan sarangnya yang begitu lemah sebagai pelindung. Rumah laba-laba dianggap sebagai rumah yang paling lemah sehingga tidak dapat melindunginya meskipun hanya dari sengatan matahari dan terpaan angin. Kata al-\u2019ankab\u016bt disebutkan hanya dua kali dalam Al-Qur\u2019an, yaitu pada ayat ini.",
        "sabab_nuzul": null,
        "conclusion": null
    }
}