{
    "id": 3397,
    "surah_id": 29,
    "ayah": 57,
    "page": 403,
    "quarter_hizb": 41,
    "juz": 21,
    "manzil": 5,
    "arabic": "\u0643\u064f\u0644\u0651\u064f \u0646\u064e\u0641\u0652\u0633\u064d \u0630\u064e\u0627\u06e4\u0649\u0655\u0650\u0642\u064e\u0629\u064f \u0627\u0644\u0652\u0645\u064e\u0648\u0652\u062a\u0650\u06d7 \u062b\u064f\u0645\u0651\u064e \u0627\u0650\u0644\u064e\u064a\u0652\u0646\u064e\u0627 \u062a\u064f\u0631\u0652\u062c\u064e\u0639\u064f\u0648\u0652\u0646\u064e",
    "latin": "Kullu nafsin \u017c\u0101'iqatul-maut(i), \u1e61umma ilain\u0101 turja\u2018\u016bn(a).",
    "translation": "Setiap yang bernyawa pasti akan merasakan kematian. Kemudian, hanya kepada Kami kamu dikembalikan. ",
    "no_footnote": null,
    "footnotes": null,
    "surah": {
        "id": 29,
        "arabic": " \u0627\u0644\u0639\u0646\u0643\u0628\u0648\u062a",
        "latin": "Al-\u2018Ankab\u016bt",
        "transliteration": "Al-\u2018Ankabut",
        "translation": "Laba-Laba",
        "num_ayah": 69,
        "page": 396,
        "location": "Makkiyah"
    },
    "tafsir": {
        "wajiz": "Jika kamu khawatir mati kelaparan akibat hijrah ke tempat lain, ketahuilah bahwa kamu pasti akan mati dengan cara lain. Sebab setiap makhluk yang bernyawa tanpa terkecuali akan merasakan mati, dengan atau tanpa sebab. Kemudian, setelah itu hanya kepada Kami kamu dikembalikan untuk mendapat balasan yang setimpal atas amal perbuatanmu, baik maupun buruk. Ayat ini mengandung ancaman bagi orang-orang kafir. ",
        "tahlili": "Ayat ini menguatkan ayat sebelumnya dengan menerangkan hakikat kehidupan manusia itu sendiri. Diterangkan bahwa tiap-tiap manusia pasti akan mati dan setelah mati, ia akan kembali kepada pemiliknya, yaitu Tuhan semesta alam. Sejak manusia dibangkitkan kembali di akhirat, sejak itu ia akan mengalami kehidupan yang sebenarnya dan selamanya. Bentuk kehidupan yang sebenarnya itu ditentukan oleh sikap dan tindak-tanduk seseorang selama hidup di dunia. Jika ia seorang mukmin, maka akan memperoleh kebahagiaan yang abadi, sedangkan jika ia kafir, akan mengalami azab yang pedih di neraka.\nAyat ini senada dengan ayat 185 surah \u0100li \u2018Imr\u0101n dan telah dijelaskan di sana, tetapi diulangi kembali sebagai peringatan bagi kaum Muslimin agar jangan terlalu terpikat dan terpesona oleh kehidupan dunia yang fana ini, karena semuanya itu merupakan kesenangan sementara dan akan berakhir. Hubungan manusia dengan semua yang dimilikinya itu lambat laun akan berakhir. Janganlah sampai kecintaan seseorang kepada sesuatu menghalanginya untuk taat kepada Allah dan Rasul-Nya, karena sesuatu itu bersifat sementara. Sedangkan yang kekal hanya hasil ibadah dan amal saleh seseorang. Dengan semua itu, ia memperoleh rida Allah dan surga yang dijanjikan-Nya.",
        "intro_surah": "Surah al-\u2019Ankab\u016bt terdiri dari 69 ayat, termasuk kelompok surah-surah Makkiyyah. Dinamai \u201cal-\u2019Ankab\u016bt\u201d karena terdapat kata al-\u2019Ankab\u016bt yang berarti \u201claba-laba\u201d pada ayat 41 surah ini.\nAllah mengumpamakan penyembah-penyembah berhala dengan laba-laba yang percaya kepada kekuatan rumahnya sebagai tempat berlindung dan menjerat mangsanya, padahal kalau diembus angin atau ditimpa oleh sesuatu barang yang kecil saja, rumah itu akan hancur. Begitu pula halnya dengan kaum musyrikin yang percaya kepada kekuatan sembahan-sembahan mereka sebagai tempat berlindung dan tempat meminta sesuatu yang mereka inginkan. Sembahan-sembahan itu tidak mampu sedikit juga menolong mereka dari azab Allah di dunia, seperti yang terjadi pada kaum Nuh, kaum Ibrahim, kaum Lut, kaum Syuaib, kaum Saleh, dan lain-lain. Apalagi menghadapi azab Allah di akhirat nanti, sembahan-sembahan itu lebih tidak mampu menghindarkan dan melindungi mereka.\n\nPOKOK-POKOK ISINYA\n1. \tKeimanan:\nBukti-bukti tentang adanya hari kebangkitan dan ancaman terhadap orang-orang yang mengingkarinya; tiap-tiap diri akan merasakan mati dan hanya kepada Allah mereka akan kembali; Allah akan menjamin rezeki tiap-tiap makhluk-Nya.\n2. \tHukum-hukum:\nKewajiban berbuat baik kepada kedua orang ibu bapak; kewajiban mengerjakan salat karena dapat mencegah perbuatan keji dan mungkar; dan kewajiban menentang ajakan mempersekutukan Allah sekalipun datangnya dari ibu bapak.\n3. \tKisah-kisah:\nKisah-kisah cobaan yang dialami oleh Nabi Nuh, Nabi Ibrahim, Nabi Lut, Nabi Syuaib, Nabi Daud, Nabi Saleh, dan Nabi Musa.\n4. \tLain-lain:\nCobaan itu perlu untuk menguji keimanan seseorang; manfaat usaha manusia itu untuk dirinya sendiri bukan untuk Allah. Perlawanan terhadap kebenaran pasti hancur.",
        "outro_surah": null,
        "munasabah_prev_surah": "MUNASABAH SURAH AL-QA\u1e62A\u1e62 DENGAN\nSURAH AL-\u2018ANKAB\u016aT\n\n1. \tSurah al-\u2018Ankab\u016bt dibuka dengan hiburan dari Allah kepada Nabi Muhammad dan para sahabatnya yang selalu disakiti, diejek, dan diusir oleh orang-orang musyrik Mekah dengan menerangkan bahwa orang-orang yang beriman itu akan menerima cobaan atas keimanan mereka kepada nabi mereka. Sedangkan Surah al-Qa\u1e63a\u1e63 menerangkan aneka rupa cobaan yang diawali oleh Nabi Musa dan Bani Israil dalam menghadapi kekejaman Fir\u2018aun. Oleh sebab itu, Allah menyuruh agar Nabi Muhammad dan para sahabatnya selalu sabar dalam menghadapi cobaan-cobaan itu.\n2. \tSurah al-Qa\u1e63a\u1e63 mengisahkan selamatnya Nabi Musa dari pengejaran Fir\u2018aun setelah dengan tidak sengaja membunuh orang Qibti, kemudian mengisahkan selamatnya Musa dan pengikutnya dari pengejaran Fir\u2018aun dan tentaranya, serta tenggelamnya Fir\u2018aun dan tentaranya di laut Merah, sedangkan Surah al-\u2019Ankab\u016bt, mengisahkan selamatnya Nabi Nuh dan pengikutnya di atas bahtera serta tenggelamnya orang-orang yang mengingkari seruannya. Semua ini menunjukkan pertolongan Allah kepada hamba-hamba-Nya yang beriman.\n3. \tSurah al-Qa\u1e63a\u1e63 mengemukakan kelemahan kepercayaan orang-orang yang menyembah berhala dengan menerangkan keadaan penyembah-penyembah berhala dan berhala itu sendiri di hari Kiamat, sedang Surah al-\u2019Ankab\u016bt menyatakan kesesatan kepercayaan mereka dengan membandingkannya dengan laba-laba yang mempercayakan kekuatan sarangnya yang sangat lemah.\n4. \tKedua surah ini sama-sama menerangkan kisah Fir\u2018aun dan Karun, serta akibat perbuatan keduanya. Kedua surah ini sama-sama menyinggung soal hijrah Nabi Muhammad.",
        "munasabah_prev_theme": "Pada ayat-ayat yang lalu, Allah menerangkan keadaan Nabi Muhammad dan kaum Muslimin ketika melaksanakan dakwah di tengah-tengah kaum musyrik Mekah yang menolak kerasulan dan mukjizatnya, yaitu Al-Qur\u2019an. Bahkan orang musyrik itu menantang Nabi untuk mendatangkan azab yang diancamkan kepada mereka dengan segera. Akan tetapi, Nabi tidak memiliki kewenangan untuk mendatangkan azab karena hal itu merupakan hak Allah. \nPada ayat-ayat berikut ini, Allah memerintahkan Nabi Muhammad dan Kaum Muslimin untuk hijrah ke negeri lain yang lebih aman. Mereka diminta untuk tidak merasa takut untuk hijrah, meninggalkan kampung halaman, kaum kerabat, dan harta kekayaan. Dengan hijrah, mereka akan dapat beribadah dengan tenang tanpa gangguan. \n",
        "theme_group": "KABAR GEMBIRA BAGI ORANG\nYANG BERIMAN",
        "kosakata": "Kosakata: \u017c\u0101\u2019iqah al-Maut \u0630\u064e\u0627\u0626\u0650\u0642\u064e\u0629\u064f \u0627\u0644\u0652\u0645\u064e\u0648\u0652\u062a (Al-\u2019Ankab\u016bt/29: 57)\nKata \u017c\u0101\u2019iqah al-maut yang artinya \u201cmerasakan mati,\u201d dalam Al-Qur\u2019an diulang tidak kurang dari tiga kali, yaitu dalam surah \u0100li \u2018Imr\u0101n/3: 185; surah al-Anbiy\u0101\u2019/21: 35, dan dalam ayat ini. Pengulangan kata tersebut sampai tiga kali dalam Al-Qur\u2019an dimaksudkan untuk menunjukkan penjelasan penting bahwa setiap makhluk yang berjiwa pastilah merasakan mati. Hal ini berarti bahwa tidak ada satu makhluk yang bernyawa pun yang terlepas dari merasakan mati. Kematian yang dialami setiap yang bernyawa, menurut informasi hadis Nabi Muhammad, menimbulkan rasa sakit. Tingkat kesakitan yang timbul sangat tergantung pada tingkat kesalehan masing-masing manusia. Ada yang proses kematiannya mudah walaupun tetap sakit, sehingga Nabi Muhammad pun merasakan sakitnya mati. Ada pula yang proses kematiannya sulit dan sakit, terkait dengan akhlaknya yang buruk sewaktu menjalani hidup di dunia.",
        "sabab_nuzul": null,
        "conclusion": null
    }
}