{
    "id": 3347,
    "surah_id": 29,
    "ayah": 7,
    "page": 397,
    "quarter_hizb": 40.5,
    "juz": 20,
    "manzil": 5,
    "arabic": "\u0648\u064e\u0627\u0644\u0651\u064e\u0630\u0650\u064a\u0652\u0646\u064e \u0627\u0670\u0645\u064e\u0646\u064f\u0648\u0652\u0627 \u0648\u064e\u0639\u064e\u0645\u0650\u0644\u064f\u0648\u0627 \u0627\u0644\u0635\u0651\u0670\u0644\u0650\u062d\u0670\u062a\u0650 \u0644\u064e\u0646\u064f\u0643\u064e\u0641\u0651\u0650\u0631\u064e\u0646\u0651\u064e \u0639\u064e\u0646\u0652\u0647\u064f\u0645\u0652 \u0633\u064e\u064a\u0651\u0650\u0627\u0670\u062a\u0650\u0647\u0650\u0645\u0652 \u0648\u064e\u0644\u064e\u0646\u064e\u062c\u0652\u0632\u0650\u064a\u064e\u0646\u0651\u064e\u0647\u064f\u0645\u0652 \u0627\u064e\u062d\u0652\u0633\u064e\u0646\u064e \u0627\u0644\u0651\u064e\u0630\u0650\u064a\u0652 \u0643\u064e\u0627\u0646\u064f\u0648\u0652\u0627 \u064a\u064e\u0639\u0652\u0645\u064e\u0644\u064f\u0648\u0652\u0646\u064e ",
    "latin": "Wal-la\u017c\u012bna \u0101man\u016b wa \u2018amilu\u1e63-\u1e63\u0101li\u1e25\u0101ti lanukaffiranna \u2018anhum sayyi'\u0101tihim wa lanajziyannahum a\u1e25sanal-la\u017c\u012b k\u0101n\u016b ya\u2018mal\u016bn(a).",
    "translation": "Orang-orang yang beriman dan beramal saleh pasti akan Kami hapus dosa-dosanya, dan mereka pasti akan Kami beri balasan yang terbaik dari apa yang selama ini mereka kerjakan.",
    "no_footnote": null,
    "footnotes": null,
    "surah": {
        "id": 29,
        "arabic": " \u0627\u0644\u0639\u0646\u0643\u0628\u0648\u062a",
        "latin": "Al-\u2018Ankab\u016bt",
        "transliteration": "Al-\u2018Ankabut",
        "translation": "Laba-Laba",
        "num_ayah": 69,
        "page": 396,
        "location": "Makkiyah"
    },
    "tafsir": {
        "wajiz": "Dan orang-orang yang beriman kepada Allah dan Rasul-Nya dengan keimanan yang benar dan tidak menjadi kafir atau murtad walaupun diuji dengan berbagai cobaan, serta membuktikan keimanannya dengan mengerjakan kebajikan, menolong orang yang kesusahan, membela yang teraniaya, bekerja mencari nafkah, mempertahankan negara dari serangan musuh, dan berbagai kebaikan lainnya, pasti akan kami ampuni dosa-dosanya dan hapus kesalahan-kesalahannya yang telah lalu. Dan mereka pasti akan Kami beri pahala berlipat ganda, mulai dari sepuluh hingga tujuh ratus kali, bahkan tidak terbatas, dan balasan yang lebih baik dari apa yang mereka kerjakan. (Lihat Surah al-An'am/6:160).",
        "tahlili": "Kemudian Allah menjelaskan bahwa orang yang beriman kepada Allah dan rasul-Nya dengan keimanan yang benar walaupun diuji dengan berbagai cobaan, ia tidak berbalik kepada kekafiran (murtad). Begitu juga ketika mengalami penderitaan dalam berhadapan dengan orang-orang musyrik, dia tetap mengerjakan segala kewajibannya, menjauhi segala larangan, mempertinggi ketakwaan, menolong orang yang sedang kesusahan, membela orang teraniaya, mempertahankan dan membela negara dari serangan musuh, dan bekerja sama satu sama lain. Mereka itu mendapat ganjaran dari Allah berupa ampunan dari semua dosa dan kesalahan mereka yang telah lalu. Semua itu merupakan sebab pelipatgandaan pahala yang diberikan Allah menjadi sepuluh kali lipat.\nAllah berfirman:\n\u0645\u064e\u0646\u0652 \u062c\u064e\u0627\u06e4\u0621\u064e \u0628\u0650\u0627\u0644\u0652\u062d\u064e\u0633\u064e\u0646\u064e\u0629\u0650 \u0641\u064e\u0644\u064e\u0647\u0657 \u0639\u064e\u0634\u0652\u0631\u064f \u0627\u064e\u0645\u0652\u062b\u064e\u0627\u0644\u0650\u0647\u064e\u0627 \u06da\u0648\u064e\u0645\u064e\u0646\u0652 \u062c\u064e\u0627\u06e4\u0621\u064e \u0628\u0650\u0627\u0644\u0633\u0651\u064e\u064a\u0651\u0650\u0626\u064e\u0629\u0650 \u0641\u064e\u0644\u064e\u0627 \u064a\u064f\u062c\u0652\u0632\u0670\u0653\u0649 \u0627\u0650\u0644\u0651\u064e\u0627 \u0645\u0650\u062b\u0652\u0644\u064e\u0647\u064e\u0627 \u0648\u064e\u0647\u064f\u0645\u0652 \u0644\u064e\u0627 \u064a\u064f\u0638\u0652\u0644\u064e\u0645\u064f\u0648\u0652\u0646\u064e \u0661\u0666\u0660 (\u0627\u0644\u0627\u0646\u0639\u0627\u0645)\nBarang siapa berbuat kebaikan mendapat balasan sepuluh kali lipat amalnya. Dan barang siapa berbuat kejahatan dibalas seimbang dengan kejahatannya. Mereka sedikit pun tidak dirugikan (dizalimi). (al-An\u2018\u0101m/6: 160) ",
        "intro_surah": "Surah al-\u2019Ankab\u016bt terdiri dari 69 ayat, termasuk kelompok surah-surah Makkiyyah. Dinamai \u201cal-\u2019Ankab\u016bt\u201d karena terdapat kata al-\u2019Ankab\u016bt yang berarti \u201claba-laba\u201d pada ayat 41 surah ini.\nAllah mengumpamakan penyembah-penyembah berhala dengan laba-laba yang percaya kepada kekuatan rumahnya sebagai tempat berlindung dan menjerat mangsanya, padahal kalau diembus angin atau ditimpa oleh sesuatu barang yang kecil saja, rumah itu akan hancur. Begitu pula halnya dengan kaum musyrikin yang percaya kepada kekuatan sembahan-sembahan mereka sebagai tempat berlindung dan tempat meminta sesuatu yang mereka inginkan. Sembahan-sembahan itu tidak mampu sedikit juga menolong mereka dari azab Allah di dunia, seperti yang terjadi pada kaum Nuh, kaum Ibrahim, kaum Lut, kaum Syuaib, kaum Saleh, dan lain-lain. Apalagi menghadapi azab Allah di akhirat nanti, sembahan-sembahan itu lebih tidak mampu menghindarkan dan melindungi mereka.\n\nPOKOK-POKOK ISINYA\n1. \tKeimanan:\nBukti-bukti tentang adanya hari kebangkitan dan ancaman terhadap orang-orang yang mengingkarinya; tiap-tiap diri akan merasakan mati dan hanya kepada Allah mereka akan kembali; Allah akan menjamin rezeki tiap-tiap makhluk-Nya.\n2. \tHukum-hukum:\nKewajiban berbuat baik kepada kedua orang ibu bapak; kewajiban mengerjakan salat karena dapat mencegah perbuatan keji dan mungkar; dan kewajiban menentang ajakan mempersekutukan Allah sekalipun datangnya dari ibu bapak.\n3. \tKisah-kisah:\nKisah-kisah cobaan yang dialami oleh Nabi Nuh, Nabi Ibrahim, Nabi Lut, Nabi Syuaib, Nabi Daud, Nabi Saleh, dan Nabi Musa.\n4. \tLain-lain:\nCobaan itu perlu untuk menguji keimanan seseorang; manfaat usaha manusia itu untuk dirinya sendiri bukan untuk Allah. Perlawanan terhadap kebenaran pasti hancur.",
        "outro_surah": null,
        "munasabah_prev_surah": "MUNASABAH SURAH AL-QA\u1e62A\u1e62 DENGAN\nSURAH AL-\u2018ANKAB\u016aT\n\n1. \tSurah al-\u2018Ankab\u016bt dibuka dengan hiburan dari Allah kepada Nabi Muhammad dan para sahabatnya yang selalu disakiti, diejek, dan diusir oleh orang-orang musyrik Mekah dengan menerangkan bahwa orang-orang yang beriman itu akan menerima cobaan atas keimanan mereka kepada nabi mereka. Sedangkan Surah al-Qa\u1e63a\u1e63 menerangkan aneka rupa cobaan yang diawali oleh Nabi Musa dan Bani Israil dalam menghadapi kekejaman Fir\u2018aun. Oleh sebab itu, Allah menyuruh agar Nabi Muhammad dan para sahabatnya selalu sabar dalam menghadapi cobaan-cobaan itu.\n2. \tSurah al-Qa\u1e63a\u1e63 mengisahkan selamatnya Nabi Musa dari pengejaran Fir\u2018aun setelah dengan tidak sengaja membunuh orang Qibti, kemudian mengisahkan selamatnya Musa dan pengikutnya dari pengejaran Fir\u2018aun dan tentaranya, serta tenggelamnya Fir\u2018aun dan tentaranya di laut Merah, sedangkan Surah al-\u2019Ankab\u016bt, mengisahkan selamatnya Nabi Nuh dan pengikutnya di atas bahtera serta tenggelamnya orang-orang yang mengingkari seruannya. Semua ini menunjukkan pertolongan Allah kepada hamba-hamba-Nya yang beriman.\n3. \tSurah al-Qa\u1e63a\u1e63 mengemukakan kelemahan kepercayaan orang-orang yang menyembah berhala dengan menerangkan keadaan penyembah-penyembah berhala dan berhala itu sendiri di hari Kiamat, sedang Surah al-\u2019Ankab\u016bt menyatakan kesesatan kepercayaan mereka dengan membandingkannya dengan laba-laba yang mempercayakan kekuatan sarangnya yang sangat lemah.\n4. \tKedua surah ini sama-sama menerangkan kisah Fir\u2018aun dan Karun, serta akibat perbuatan keduanya. Kedua surah ini sama-sama menyinggung soal hijrah Nabi Muhammad.",
        "munasabah_prev_theme": "Ayat-ayat yang lalu menjelaskan bahwa manusia yang beriman tidak dibiarkan percuma begitu saja di atas dunia ini tanpa mengalami ujian. Barang siapa yang tidak lulus dalam ujian dan tidak mengerjakan kewajibannya akan disiksa. Ayat-ayat berikut ini menerangkan bahwa siapa yang beramal saleh demi kepentingan hidupnya di akhirat, tidak akan disia-siakan. Semua kewajiban yang dikerjakan itu bukanlah untuk Allah, sebab Ia Maha Kaya. Kemudian dijelaskan bahwa balasan dari amal perbuatan baik adalah menghapuskan dosa dari perbuatan jahat, dan akan dibalas dengan balasan yang  lebih baik daripada yang mereka kerjakan.",
        "theme_group": "PERBUATAN BAIK TIDAK AKAN SIA-SIA",
        "kosakata": "Kosakata: Ajalall\u0101h \u0623\u064e\u062c\u064e\u0644\u064e \u0627\u0644\u0644\u0651\u0670\u0647\u0650 (al-\u2019Ankab\u016bt/29: 5)\n\tKata ajal berarti batas akhir dari sesuatu. Kata ajal  bisa diartikan dengan rentang waktu dari umur seseorang atau  bagian terakhir dari umur. Menurut Quraish Shihab, ada dua macam pendapat ulama tentang arti kata ajal dalam ayat ini. Sebagian ulama memahaminya dengan hari Kiamat, sedangkan sebagian yang lain memahaminya dalam arti masa berakhirnya siksaan kaum musyrikin terhadap kaum mukminin dengan datangnya kemenangan Islam. Dalam ayat ini, kata ajal dikaitkan dengan Allah maksudnya ialah untuk menegaskan bahwa waktu itu pasti datang, karena yang menjanjikan serta yang memiliki dan berwenang atasnya adalah Allah.",
        "sabab_nuzul": null,
        "conclusion": "1. \tAmal kebaikan yang dikerjakan dengan ikhlas pasti akan dibalas lebih baik dan berlipat ganda.\n2. \tJihad adalah usaha sungguh-sungguh dalam menegakkan kalimat Allah dalam semua aspek kehidupan, bukan hanya bermakna perang saja. "
    }
}