{
    "id": 3348,
    "surah_id": 29,
    "ayah": 8,
    "page": 397,
    "quarter_hizb": 40.5,
    "juz": 20,
    "manzil": 5,
    "arabic": "\u0648\u064e\u0648\u064e\u0635\u0651\u064e\u064a\u0652\u0646\u064e\u0627 \u0627\u0644\u0652\u0627\u0650\u0646\u0652\u0633\u064e\u0627\u0646\u064e \u0628\u0650\u0648\u064e\u0627\u0644\u0650\u062f\u064e\u064a\u0652\u0647\u0650 \u062d\u064f\u0633\u0652\u0646\u064b\u0627 \u06d7\u0648\u064e\u0627\u0650\u0646\u0652 \u062c\u064e\u0627\u0647\u064e\u062f\u0670\u0643\u064e \u0644\u0650\u062a\u064f\u0634\u0652\u0631\u0650\u0643\u064e \u0628\u0650\u064a\u0652 \u0645\u064e\u0627 \u0644\u064e\u064a\u0652\u0633\u064e \u0644\u064e\u0643\u064e \u0628\u0650\u0647\u0656 \u0639\u0650\u0644\u0652\u0645\u064c \u0641\u064e\u0644\u064e\u0627 \u062a\u064f\u0637\u0650\u0639\u0652\u0647\u064f\u0645\u064e\u0627 \u06d7\u0627\u0650\u0644\u064e\u064a\u0651\u064e \u0645\u064e\u0631\u0652\u062c\u0650\u0639\u064f\u0643\u064f\u0645\u0652 \u0641\u064e\u0627\u064f\u0646\u064e\u0628\u0651\u0650\u0626\u064f\u0643\u064f\u0645\u0652 \u0628\u0650\u0645\u064e\u0627 \u0643\u064f\u0646\u0652\u062a\u064f\u0645\u0652 \u062a\u064e\u0639\u0652\u0645\u064e\u0644\u064f\u0648\u0652\u0646\u064e ",
    "latin": "Wa wa\u1e63\u1e63ainal-ins\u0101na biw\u0101lidaihi \u1e25usn\u0101(n), wa in j\u0101had\u0101ka litusyrika b\u012b m\u0101 laisa laka bih\u012b \u2018ilmun fal\u0101 tu\u1e6di\u2018hum\u0101, ilayya marji\u2018ukum fa'unabbi'ukum bim\u0101 kuntum ta\u2018mal\u016bn(a).",
    "translation": "Kami telah mewasiatkan (kepada) manusia agar (berbuat) kebaikan kepada kedua orang tuanya. Jika keduanya memaksamu untuk mempersekutukan-Ku dengan sesuatu yang engkau tidak mempunyai ilmu tentang itu, janganlah engkau patuhi keduanya. Hanya kepada-Ku kamu kembali, lalu Aku beri tahukan kepadamu apa yang selama ini kamu kerjakan.",
    "no_footnote": null,
    "footnotes": null,
    "surah": {
        "id": 29,
        "arabic": " \u0627\u0644\u0639\u0646\u0643\u0628\u0648\u062a",
        "latin": "Al-\u2018Ankab\u016bt",
        "transliteration": "Al-\u2018Ankabut",
        "translation": "Laba-Laba",
        "num_ayah": 69,
        "page": 396,
        "location": "Makkiyah"
    },
    "tafsir": {
        "wajiz": "Setelah ayat-ayat yang lalu menguraikan keniscayaan ujian dan cobaan bagi orang-orang yang beriman, berikut ini disebutkan salah satu contoh tersebut, yaitu di saat kedua orang tua yang dicintai memaksa untuk berbuat syirik dan maksiat lainnya. Berbakti kepada orang tua adalah sebuah kewajiban, tetapi ada batas yang tidak boleh dilanggar. Dan Kami wajibkan kepada manusia agar berbakti dengan berbuat kebaikan sebanyak-banyaknya kepada kedua orang tuanya dan menaati keduanya. Dan jika keduanya bersungguh-sungguh memaksamu untuk mempersekutukan Aku dan atau melakukan kemaksiatan dalam bentuk apa pun, dengan sesuatu yang engkau tidak mempunyai ilmu tentang itu, atau tidak dapat diterima oleh akal sehat, maka janganlah engkau patuhi keduanya. Ketaatan kepada manusia tidak boleh dalam bentuk maksiat atau durhaka kepada Tuhan. Hanya kepada-Ku tempat kembalimu pada hari Kiamat, dan akan Aku beritakan secara rinci kepadamu apa yang telah kamu kerjakan selama di dunia untuk mendapatkan balasan.",
        "tahlili": "Allah memerintahkan manusia berbuat baik kepada orang tua (ibu bapak). Jalan berbuat baik itu ialah dengan memberi nafkah (belanja), memelihara, dan menghormati keduanya dengan penuh kasih sayang, kecuali apabila keduanya mengajak kepada perbuatan syirik. Jadi, batas berbuat baik itu ialah sepanjang hal-hal yang diperintahkan tidak menyangkut kepada perbuatan yang mengandung unsur syirik. Dalam ayat lain disebutkan pula:\n\u06de \u0648\u064e\u0642\u064e\u0636\u0670\u0649 \u0631\u064e\u0628\u0651\u064f\u0643\u064e \u0627\u064e\u0644\u0651\u064e\u0627 \u062a\u064e\u0639\u0652\u0628\u064f\u062f\u064f\u0648\u0652\u0653\u0627 \u0627\u0650\u0644\u0651\u064e\u0627\u0653 \u0627\u0650\u064a\u0651\u064e\u0627\u0647\u064f \u0648\u064e\u0628\u0650\u0627\u0644\u0652\u0648\u064e\u0627\u0644\u0650\u062f\u064e\u064a\u0652\u0646\u0650 \u0627\u0650\u062d\u0652\u0633\u0670\u0646\u064b\u0627\u06d7 \u0627\u0650\u0645\u0651\u064e\u0627 \u064a\u064e\u0628\u0652\u0644\u064f\u063a\u064e\u0646\u0651\u064e \u0639\u0650\u0646\u0652\u062f\u064e\u0643\u064e \u0627\u0644\u0652\u0643\u0650\u0628\u064e\u0631\u064e \u0627\u064e\u062d\u064e\u062f\u064f\u0647\u064f\u0645\u064e\u0627\u0653 \u0627\u064e\u0648\u0652 \u0643\u0650\u0644\u0670\u0647\u064f\u0645\u064e\u0627 \u0641\u064e\u0644\u064e\u0627 \u062a\u064e\u0642\u064f\u0644\u0652 \u0644\u0651\u064e\u0647\u064f\u0645\u064e\u0627\u0653 \u0627\u064f\u0641\u0651\u064d \u0648\u0651\u064e\u0644\u064e\u0627 \u062a\u064e\u0646\u0652\u0647\u064e\u0631\u0652\u0647\u064f\u0645\u064e\u0627 \u0648\u064e\u0642\u064f\u0644\u0652 \u0644\u0651\u064e\u0647\u064f\u0645\u064e\u0627 \u0642\u064e\u0648\u0652\u0644\u064b\u0627 \u0643\u064e\u0631\u0650\u064a\u0652\u0645\u064b\u0627 \u0662\u0663 (\u0627\u0644\u0627\u0633\u0631\u0627\u06e4\u0621)\nDan Tuhanmu telah memerintahkan agar kamu jangan menyembah selain Dia dan hendaklah berbuat baik kepada ibu bapak. Jika salah seorang di antara keduanya atau kedua-duanya sampai berusia lanjut dalam pemeliharaanmu, maka sekali-kali janganlah engkau mengatakan kepada keduanya perkataan \u201cah\u201d dan janganlah engkau membentak keduanya, dan ucapkanlah kepada keduanya perkataan yang baik. (al-Isr\u0101\u2019/17: 23) \nKeterangan yang hampir sama maksudnya diperoleh pula dalam ayat:\n\u0648\u064e\u0648\u064e\u0635\u0651\u064e\u064a\u0652\u0646\u064e\u0627 \u0627\u0644\u0652\u0627\u0650\u0646\u0652\u0633\u064e\u0627\u0646\u064e \u0628\u0650\u0648\u064e\u0627\u0644\u0650\u062f\u064e\u064a\u0652\u0647\u0650 \u0627\u0650\u062d\u0652\u0633\u064e\u0627\u0646\u064b\u0627 \u06d7\u062d\u064e\u0645\u064e\u0644\u064e\u062a\u0652\u0647\u064f \u0627\u064f\u0645\u0651\u064f\u0647\u0657 \u0643\u064f\u0631\u0652\u0647\u064b\u0627 \u0648\u0651\u064e\u0648\u064e\u0636\u064e\u0639\u064e\u062a\u0652\u0647\u064f \u0643\u064f\u0631\u0652\u0647\u064b\u0627 \u06d7\u0648\u064e\u062d\u064e\u0645\u0652\u0644\u064f\u0647\u0657 \u0648\u064e\u0641\u0650\u0635\u0670\u0644\u064f\u0647\u0657 \u062b\u064e\u0644\u0670\u062b\u064f\u0648\u0652\u0646\u064e \u0634\u064e\u0647\u0652\u0631\u064b\u0627 \u06d7\u062d\u064e\u062a\u0651\u0670\u0649\u0653 \u0627\u0650\u0630\u064e\u0627 \u0628\u064e\u0644\u064e\u063a\u064e \u0627\u064e\u0634\u064f\u062f\u0651\u064e\u0647\u0657 \u0648\u064e\u0628\u064e\u0644\u064e\u063a\u064e \u0627\u064e\u0631\u0652\u0628\u064e\u0639\u0650\u064a\u0652\u0646\u064e \u0633\u064e\u0646\u064e\u0629\u064b\u06d9 \u0642\u064e\u0627\u0644\u064e \u0631\u064e\u0628\u0651\u0650 \u0627\u064e\u0648\u0652\u0632\u0650\u0639\u0652\u0646\u0650\u064a\u0652\u0653 \u0627\u064e\u0646\u0652 \u0627\u064e\u0634\u0652\u0643\u064f\u0631\u064e \u0646\u0650\u0639\u0652\u0645\u064e\u062a\u064e\u0643\u064e \u0627\u0644\u0651\u064e\u062a\u0650\u064a\u0652\u0653 \u0627\u064e\u0646\u0652\u0639\u064e\u0645\u0652\u062a\u064e \u0639\u064e\u0644\u064e\u064a\u0651\u064e \u0648\u064e\u0639\u064e\u0644\u0670\u0649 \u0648\u064e\u0627\u0644\u0650\u062f\u064e\u064a\u0651\u064e \u0648\u064e\u0627\u064e\u0646\u0652 \u0627\u064e\u0639\u0652\u0645\u064e\u0644\u064e \u0635\u064e\u0627\u0644\u0650\u062d\u064b\u0627 \u062a\u064e\u0631\u0652\u0636\u0670\u0649\u0647\u064f \u0648\u064e\u0627\u064e\u0635\u0652\u0644\u0650\u062d\u0652 \u0644\u0650\u064a\u0652 \u0641\u0650\u064a\u0652 \u0630\u064f\u0631\u0651\u0650\u064a\u0651\u064e\u062a\u0650\u064a\u0652\u06d7 \u0627\u0650\u0646\u0651\u0650\u064a\u0652 \u062a\u064f\u0628\u0652\u062a\u064f \u0627\u0650\u0644\u064e\u064a\u0652\u0643\u064e \u0648\u064e\u0627\u0650\u0646\u0651\u0650\u064a\u0652 \u0645\u0650\u0646\u064e \u0627\u0644\u0652\u0645\u064f\u0633\u0652\u0644\u0650\u0645\u0650\u064a\u0652\u0646\u064e \u0661\u0665 (\u0627\u0644\u0627\u062d\u0642\u0627\u0641)\nDan Kami perintahkan kepada manusia agar berbuat baik kepada kedua orang tuanya. Ibunya telah mengandungnya dengan susah payah, dan melahirkannya dengan susah payah (pula). Masa mengandung sampai menyapihnya selama tiga puluh bulan, sehingga apabila dia (anak itu) telah dewasa dan umurnya mencapai empat puluh tahun dia berdoa, \u201cYa Tuhanku, berilah aku petunjuk agar aku dapat mensyukuri nikmat-Mu yang telah Engkau limpahkan kepadaku dan kepada kedua orang tuaku dan agar aku dapat berbuat kebajikan yang Engkau ri\u1e0dai; dan berilah aku kebaikan yang akan mengalir sampai kepada anak cucuku. Sesungguhnya aku bertobat kepada Engkau dan sungguh, aku termasuk orang muslim.\u201d (al-A\u1e25q\u0101f/46: 15) \n\nUntuk memperoleh pengertian yang menyeluruh dari arti yang didapat pada ayat di atas, bisa diperhatikan keterangan Allah dalam ayat di bawah ini:\n\u0648\u064e\u0648\u064e\u0635\u0651\u064e\u064a\u0652\u0646\u064e\u0627 \u0627\u0644\u0652\u0627\u0650\u0646\u0652\u0633\u064e\u0627\u0646\u064e \u0628\u0650\u0648\u064e\u0627\u0644\u0650\u062f\u064e\u064a\u0652\u0647\u0650\u06da \u062d\u064e\u0645\u064e\u0644\u064e\u062a\u0652\u0647\u064f \u0627\u064f\u0645\u0651\u064f\u0647\u0657 \u0648\u064e\u0647\u0652\u0646\u064b\u0627 \u0639\u064e\u0644\u0670\u0649 \u0648\u064e\u0647\u0652\u0646\u064d \u0648\u0651\u064e\u0641\u0650\u0635\u064e\u0627\u0644\u064f\u0647\u0657 \u0641\u0650\u064a\u0652 \u0639\u064e\u0627\u0645\u064e\u064a\u0652\u0646\u0650 \u0627\u064e\u0646\u0650 \u0627\u0634\u0652\u0643\u064f\u0631\u0652 \u0644\u0650\u064a\u0652 \u0648\u064e\u0644\u0650\u0648\u064e\u0627\u0644\u0650\u062f\u064e\u064a\u0652\u0643\u064e\u06d7 \u0627\u0650\u0644\u064e\u064a\u0651\u064e \u0627\u0644\u0652\u0645\u064e\u0635\u0650\u064a\u0652\u0631\u064f \u0661\u0664 \u0648\u064e\u0627\u0650\u0646\u0652 \u062c\u064e\u0627\u0647\u064e\u062f\u0670\u0643\u064e \u0639\u064e\u0644\u0670\u0653\u0649 \u0627\u064e\u0646\u0652 \u062a\u064f\u0634\u0652\u0631\u0650\u0643\u064e \u0628\u0650\u064a\u0652 \u0645\u064e\u0627 \u0644\u064e\u064a\u0652\u0633\u064e \u0644\u064e\u0643\u064e \u0628\u0650\u0647\u0656 \u0639\u0650\u0644\u0652\u0645\u064c \u0641\u064e\u0644\u064e\u0627 \u062a\u064f\u0637\u0650\u0639\u0652\u0647\u064f\u0645\u064e\u0627 \u0648\u064e\u0635\u064e\u0627\u062d\u0650\u0628\u0652\u0647\u064f\u0645\u064e\u0627 \u0641\u0650\u0649 \u0627\u0644\u062f\u0651\u064f\u0646\u0652\u064a\u064e\u0627 \u0645\u064e\u0639\u0652\u0631\u064f\u0648\u0652\u0641\u064b\u0627 \u06d6\u0648\u0651\u064e\u0627\u062a\u0651\u064e\u0628\u0650\u0639\u0652 \u0633\u064e\u0628\u0650\u064a\u0652\u0644\u064e \u0645\u064e\u0646\u0652 \u0627\u064e\u0646\u064e\u0627\u0628\u064e \u0627\u0650\u0644\u064e\u064a\u0651\u064e\u06da \u062b\u064f\u0645\u0651\u064e \u0627\u0650\u0644\u064e\u064a\u0651\u064e \u0645\u064e\u0631\u0652\u062c\u0650\u0639\u064f\u0643\u064f\u0645\u0652 \u0641\u064e\u0627\u064f\u0646\u064e\u0628\u0651\u0650\u0626\u064f\u0643\u064f\u0645\u0652 \u0628\u0650\u0645\u064e\u0627 \u0643\u064f\u0646\u0652\u062a\u064f\u0645\u0652 \u062a\u064e\u0639\u0652\u0645\u064e\u0644\u064f\u0648\u0652\u0646\u064e \u0661\u0665 (\u0644\u0642\u0645\u0670\u0646)\nDan Kami perintahkan kepada manusia (agar berbuat baik) kepada kedua orang tuanya. Ibunya telah mengandungnya dalam keadaan lemah yang bertambah-tambah, dan menyapihnya dalam usia dua tahun. Bersyukurlah kepada-Ku dan kepada kedua orang tuamu. Hanya kepada Aku kembalimu. Dan jika keduanya memaksamu untuk mempersekutukan Aku dengan sesuatu yang engkau tidak mempunyai ilmu tentang itu, maka janganlah engkau menaati keduanya, dan pergaulilah keduanya di dunia dengan baik, dan ikutilah jalan orang yang kembali kepada-Ku. Kemudian hanya kepada-Ku tempat kembalimu, maka akan Aku beritahukan kepadamu apa yang telah kamu kerjakan. (Luqm\u0101n/31: 14-15) \nMengenai larangan taat kepada makhluk dalam berbuat maksiat disebutkan dalam hadis sahih, yakni:\n\u0644\u064e\u0627\u0637\u064e\u0627\u0639\u064e\u0629\u064e \u0644\u0650\u0645\u064e\u062e\u0652\u0644\u064f\u0648\u0652\u0642\u064d \u0641\u0650\u0649 \u0645\u064e\u0639\u0652\u0635\u0650\u064a\u064e\u0629\u0650 \u0627\u0644\u062e\u064e\u0627\u0644\u0650\u0642\u0650 (\u0631\u0648\u0627\u0647 \u0623\u062d\u0645\u062f \u0639\u0646 \u0639\u0644\u064a\u0651 \u0628\u0646 \u0623\u0628\u064a \u0637\u0627\u0644\u0628)\nTidak boleh taat kepada makhluk (manusia) dalam mendurhakai Tuhan (Kh\u0101liq). (Riwayat A\u1e25mad dari Ali bin Ab\u012b \u1e6c\u0101lib) \n\nMaksud perkataan \u201csesuatu yang tidak engkau ketahui\u201d dalam ayat tersebut ialah tidak adanya pengetahuan tentang soal-soal ketuhanan atau ilahiyah. Dengan kata lain tidak dibenarkan taat mengikuti seseorang, sepanjang tidak diketahui tentang soal yang diikuti itu. Oleh sebab itu, tidak boleh mencontoh sesuatu yang sudah jelas kekeliruannya. Selanjutnya dikatakan semua manusia akan kembali kepada Allah pada hari Kiamat, baik yang kafir maupun yang mukmin, baik yang berbuat baik kepada orang tuanya maupun yang durhaka. Semua amal yang dikerjakan di dunia, akan dibalas oleh Allah, yang berbuat baik dibalas dengan kebaikan, dan yang berbuat jahat dibalas dengan kejahatan pula.",
        "intro_surah": "Surah al-\u2019Ankab\u016bt terdiri dari 69 ayat, termasuk kelompok surah-surah Makkiyyah. Dinamai \u201cal-\u2019Ankab\u016bt\u201d karena terdapat kata al-\u2019Ankab\u016bt yang berarti \u201claba-laba\u201d pada ayat 41 surah ini.\nAllah mengumpamakan penyembah-penyembah berhala dengan laba-laba yang percaya kepada kekuatan rumahnya sebagai tempat berlindung dan menjerat mangsanya, padahal kalau diembus angin atau ditimpa oleh sesuatu barang yang kecil saja, rumah itu akan hancur. Begitu pula halnya dengan kaum musyrikin yang percaya kepada kekuatan sembahan-sembahan mereka sebagai tempat berlindung dan tempat meminta sesuatu yang mereka inginkan. Sembahan-sembahan itu tidak mampu sedikit juga menolong mereka dari azab Allah di dunia, seperti yang terjadi pada kaum Nuh, kaum Ibrahim, kaum Lut, kaum Syuaib, kaum Saleh, dan lain-lain. Apalagi menghadapi azab Allah di akhirat nanti, sembahan-sembahan itu lebih tidak mampu menghindarkan dan melindungi mereka.\n\nPOKOK-POKOK ISINYA\n1. \tKeimanan:\nBukti-bukti tentang adanya hari kebangkitan dan ancaman terhadap orang-orang yang mengingkarinya; tiap-tiap diri akan merasakan mati dan hanya kepada Allah mereka akan kembali; Allah akan menjamin rezeki tiap-tiap makhluk-Nya.\n2. \tHukum-hukum:\nKewajiban berbuat baik kepada kedua orang ibu bapak; kewajiban mengerjakan salat karena dapat mencegah perbuatan keji dan mungkar; dan kewajiban menentang ajakan mempersekutukan Allah sekalipun datangnya dari ibu bapak.\n3. \tKisah-kisah:\nKisah-kisah cobaan yang dialami oleh Nabi Nuh, Nabi Ibrahim, Nabi Lut, Nabi Syuaib, Nabi Daud, Nabi Saleh, dan Nabi Musa.\n4. \tLain-lain:\nCobaan itu perlu untuk menguji keimanan seseorang; manfaat usaha manusia itu untuk dirinya sendiri bukan untuk Allah. Perlawanan terhadap kebenaran pasti hancur.",
        "outro_surah": null,
        "munasabah_prev_surah": "MUNASABAH SURAH AL-QA\u1e62A\u1e62 DENGAN\nSURAH AL-\u2018ANKAB\u016aT\n\n1. \tSurah al-\u2018Ankab\u016bt dibuka dengan hiburan dari Allah kepada Nabi Muhammad dan para sahabatnya yang selalu disakiti, diejek, dan diusir oleh orang-orang musyrik Mekah dengan menerangkan bahwa orang-orang yang beriman itu akan menerima cobaan atas keimanan mereka kepada nabi mereka. Sedangkan Surah al-Qa\u1e63a\u1e63 menerangkan aneka rupa cobaan yang diawali oleh Nabi Musa dan Bani Israil dalam menghadapi kekejaman Fir\u2018aun. Oleh sebab itu, Allah menyuruh agar Nabi Muhammad dan para sahabatnya selalu sabar dalam menghadapi cobaan-cobaan itu.\n2. \tSurah al-Qa\u1e63a\u1e63 mengisahkan selamatnya Nabi Musa dari pengejaran Fir\u2018aun setelah dengan tidak sengaja membunuh orang Qibti, kemudian mengisahkan selamatnya Musa dan pengikutnya dari pengejaran Fir\u2018aun dan tentaranya, serta tenggelamnya Fir\u2018aun dan tentaranya di laut Merah, sedangkan Surah al-\u2019Ankab\u016bt, mengisahkan selamatnya Nabi Nuh dan pengikutnya di atas bahtera serta tenggelamnya orang-orang yang mengingkari seruannya. Semua ini menunjukkan pertolongan Allah kepada hamba-hamba-Nya yang beriman.\n3. \tSurah al-Qa\u1e63a\u1e63 mengemukakan kelemahan kepercayaan orang-orang yang menyembah berhala dengan menerangkan keadaan penyembah-penyembah berhala dan berhala itu sendiri di hari Kiamat, sedang Surah al-\u2019Ankab\u016bt menyatakan kesesatan kepercayaan mereka dengan membandingkannya dengan laba-laba yang mempercayakan kekuatan sarangnya yang sangat lemah.\n4. \tKedua surah ini sama-sama menerangkan kisah Fir\u2018aun dan Karun, serta akibat perbuatan keduanya. Kedua surah ini sama-sama menyinggung soal hijrah Nabi Muhammad.",
        "munasabah_prev_theme": "Setelah menyebutkan bahwa amal saleh menghapuskan dosa kesalahan, dan mendapat balasan yang berlipat ganda, maka Allah mengiringi pula firman-Nya dengan perintah berbuat baik kepada ibu bapak (orang tua). Keduanya adalah yang menjadi sebab kelahiran manusia ke atas bumi. Untuk menghargai jasa serta pengorbanannya, sudah sewajarnya si anak taat, patuh, dan berbuat baik kepada keduanya. Orang yang berbuat baik akan termasuk dalam barisan para nabi dan wali Allah dengan segala kemuliaannya.",
        "theme_group": "PERINTAH BERBUAT BAIK KEPADA IBU BAPAK",
        "kosakata": "Kosakata: J\u0101had\u0101ka   \u062c\u064e\u0627\u0647\u064e\u062f\u064e\u0627\u0643\u064e  (al-\u2019Ankab\u016bt/29 : 8)\nJ\u0101had\u0101ka berasal dari kata al-juhdu yang bermakna kemampuan. Sedangkan jihad berarti mencurahkan usaha secara sungguh-sungguh untuk menanggulangi berbagai kesulitan atau untuk memerangi musuh. Menurut al-Asfahan\u012b, jihad ada tiga macam: 1. angkat senjata memerangi musuh, 2. memerangi setan, 3. memerangi hawa nafsu. Jihad yang dimaksud dalam ayat ini bukan untuk mengangkat senjata karena berperang mengangkat senjata baru diizinkan setelah Nabi saw hijrah ke Medinah. Sedangkan Surah al-\u2019Ankab\u016bt turun di Mekah. Para ulama memaknai kata jihad dalam ayat ini sebagai usaha sungguh-sungguh melawan dorongan hawa nafsu apa saja karena objek yang harus dilawan tidak disebutkan dalam ayat ini.",
        "sabab_nuzul": "Adapun sebab turunnya ayat ini berhubungan dengan peristiwa Sa\u2019ad bin Ab\u012b Waqq\u0101\u1e63 dan ibunya ketika masuk Islam. Beliau adalah salah seorang sahabat Nabi yang paling awal masuk Islam (as-s\u0101biq\u016bnal awwal\u016bn). Ibunya bernama \u1e24amnah binti Ab\u012b Sufy\u0101n. Sebagai seorang anak, Sa\u2019ad telah berbakti kepada ibunya sesuai dengan kemampuannya. Setelah \u1e24amnah mengetahui bahwa Sa\u2019ad secara sembunyi-sembunyi masuk Islam, maka sang ibu sama sekali tidak rela anaknya meninggalkan agama berhala. Ia memprotes tindakan Sa\u2019ad dan bersumpah, \u201cHai Sa\u2019ad, agama apa pula yang baru engkau ikuti itu? Demi Allah aku tak akan makan dan minum sampai engkau kembali kepada agama leluhurmu. Atau relakah aku mati sedang engkau menanggung malu sepanjang zaman gara-gara engkau meninggalkan agama kita? Engkau pasti dicap orang kelak sebagai pembunuh ibu kandungmu sendiri.\u201d\n\u1e24amnah mencoba untuk tidak makan dan minum selama sehari semalam dengan harapan anaknya keluar dari Islam. Sa\u2019ad tampaknya tidak menghiraukan protes ibunya itu. Di hari yang lain, kembali \u1e24amnah meninggalkan makan dan minum. Waktu itu Sa\u2019ad datang menengok ibunya dan berkata, \u201cIbuku, andaikata engkau punya seratus nyawa, dan nyawa itu keluar dari tubuhmu satu persatu, namun aku tetap tidak akan meninggalkan keyakinanku.\u201d Lalu Sa\u2019ad berkata dengan tegas, \u201cTerserah pada ibu, apa ibu mau makan atau tidak.\u201d\nAkhirnya \u1e24amnah putus asa, tidak ada harapan lagi anaknya akan berbalik kepada agama berhala. Karena tak tahan, ia kembali makan dan minum seperti biasa. Peristiwa tersebut diabadikan dengan menurunkan ayat ini. Allah membenarkan tindakan Sa\u2019ad, yakni tetap berbuat baik kepada orang tua, tetapi tidak boleh mengikuti kemauannya andaikata itu perintah untuk syirik.",
        "conclusion": null
    }
}