{
    "id": 3460,
    "surah_id": 30,
    "ayah": 51,
    "page": 410,
    "quarter_hizb": 41.5,
    "juz": 21,
    "manzil": 5,
    "arabic": "\u0648\u064e\u0644\u064e\u0649\u0655\u0650\u0646\u0652 \u0627\u064e\u0631\u0652\u0633\u064e\u0644\u0652\u0646\u064e\u0627 \u0631\u0650\u064a\u0652\u062d\u064b\u0627 \u0641\u064e\u0631\u064e\u0627\u064e\u0648\u0652\u0647\u064f \u0645\u064f\u0635\u0652\u0641\u064e\u0631\u0651\u064b\u0627 \u0644\u0651\u064e\u0638\u064e\u0644\u0651\u064f\u0648\u0652\u0627 \u0645\u0650\u0646\u0652\u06e2 \u0628\u064e\u0639\u0652\u062f\u0650\u0647\u0656 \u064a\u064e\u0643\u0652\u0641\u064f\u0631\u064f\u0648\u0652\u0646\u064e",
    "latin": "Wa la'in arsaln\u0101 r\u012b\u1e25an fara'auhu mu\u1e63farral la\u1e93all\u016b mim ba\u2018dih\u012b yakfur\u016bn(a).",
    "translation": "Sungguh, jika Kami mengirimkan angin, lalu mereka melihat (tumbuh-tumbuhan) itu menguning (kering dan rusak), niscaya setelah itu mereka tetap berbuat ingkar. ",
    "no_footnote": null,
    "footnotes": null,
    "surah": {
        "id": 30,
        "arabic": " \u0627\u0644\u0631\u0651\u0648\u0645",
        "latin": "Ar-R\u016bm",
        "transliteration": "Ar-Rum",
        "translation": "Romawi",
        "num_ayah": 60,
        "page": 404,
        "location": "Makkiyah"
    },
    "tafsir": {
        "wajiz": "Usai menjelaskan rahmat-Nya yang berupa hujan Allah bersumpah, \u201cSungguh jika Kami mengirimkan angin panas yang memicu bencana lalu sawah ladang mereka terbakar karenanya sehingga mereka melihat tumbuh-tumbuhan dan buah-buahan di kebun itu yang semula segar berubah menjadi kuning, kering, dan layu, pasti setelah itu mereka tetap dan terus ingkar kepada Allah. Inilah gambaran orang yang meletakkan ukuran kebahagiaannya pada hal-hal yang bersifat materi sehingga jiwanya terombang-ambing oleh keadaan yang menimpanya.",
        "tahlili": "Dalam ayat ini disampaikan pengandaian, yaitu bagaimana jika yang dikirim Allah itu angin yang kering dan panas serta membuat tanaman mereka yang tadinya subur menjadi kuning dan kering. Mereka pasti bertambah ingkar kepada Allah. Pada waktu Allah mengirimkan angin yang membawa hujan saja, yang membuat tanaman mereka subur, mereka hanya bergembira dan tidak bersyukur kepada-Nya. Apalagi bila yang dikirim adalah angin kering itu. Kematian tanaman mereka yang tadinya subur itu akan membuat mereka menggerutu dan bertambah ingkar kepada Allah.",
        "intro_surah": "Surah ar-R\u016bm yang terdiri dari 60 ayat, termasuk golongan surah-surah Makkiyyah dan diturunkan sesudah Surah al-Insyiq\u0101q.\nSurah ini dinamakan ar-R\u016bm karena pada permulaan surah ini, yaitu ayat 2, 3, dan 4 terdapat berita tentang bangsa Romawi yang pada mulanya dikalahkan oleh bangsa Persia, tetapi beberapa tahun kemudian mereka dapat menuntut balas dan mengalahkan kerajaan Persia kembali.\nIni adalah salah satu dari mukjizat Al-Qur\u2019an, yaitu memberitakan hal-hal yang akan terjadi di masa yang akan datang. Ia juga mengisyaratkan bahwa kaum Muslimin yang demikian lemah pada waktu itu akan menang dan menghancurkan kaum musyrik. Isyarat ini terbukti pada perang Badar.\n\nPokok-pokok Isinya:\n1. \tKeimanan:\nBukti-bukti atas kerasulan Nabi Muhammad dengan memberitahukan kepadanya hal yang gaib, seperti kemenangan bangsa Romawi atas kerajaan Persia; bukti-bukti keesaan Allah yang terdapat di alam semesta sebagai makhluk-Nya, dan kejadian-kejadian pada alam itu sendiri; bukti-bukti atas kebenaran adanya hari kebangkitan; contoh dan perumpamaan yang menjelaskan bahwa berhala-berhala dan sembahan-sembahan itu tidak dapat menolong dan memberi manfaat kepada penyembah-penyembahnya sedikit pun.\n2. \tHukum:\nKewajiban menyembah Allah dan mengakui keesaan-Nya sesuai dengan fitrah manusia; kewajiban berdakwah; kewajiban memberikan nafkah (sedekah) kepada kaum kerabat, fakir miskin, musafir, dan sebagainya; larangan mengikuti orang-orang musyrik; hukum riba.\n3. \tKisah:\nPemberitaan tentang bangsa Romawi sebagai umat yang beragama walaupun dikalahkan pada mulanya oleh kerajaan Persia yang menyembah api akhirnya dapat menang kembali.\n4. \tLain-lain:\nManusia umumnya bersifat penuh harapan dan berputus asa apabila ditimpa musibah kecuali orang-orang yang beriman; kewajiban rasul hanya menyampaikan dakwah; kejadian-kejadian yang dialami oleh umat-umat yang terdahulu patut menjadi iktibar dan pelajaran bagi umat yang datang kemudian.\n\n",
        "outro_surah": null,
        "munasabah_prev_surah": "HUBUNGAN SURAH AL-\u2019Ankab\u016bt DENGAN\nSURAH AR-R\u016aM\n\n1. \tBagian permulaan Surah al-\u2018Ankab\u016bt menerangkan tentang jihad sebagai ujian bagi orang-orang mukmin, dan manusia itu dijadikan Allah bukan untuk bersenang-senang, tetapi untuk berusaha dan berjihad di jalan Allah sampai akhir hayatnya. Dalam berusaha dan berjihad di jalan Allah, manusia biasa mendapat halangan dan rintangan. Hanya orang-orang mukmin yang sanggup mengatasi halangan dan rintangan itu, sehingga mereka mendapat kesenangan dan kebahagiaan. Pada akhir Surah al-\u2018Ankab\u016bt ini diulangi lagi pembicaraan tentang jihad. Permulaan Surah ar-R\u016bm mengandung arti bahwa orang mukmin akan mengalahkan orang-orang musyrik dalam waktu dekat. Maka ditinjau dari segi berjihad dan berusaha, Surah ar-R\u016bm adalah sebagai penyempurna dari apa yang dikemukakan dalam Surah al-\u2018Ankab\u016bt.\n2. \tSurah al-\u2018Ankab\u016bt mengemukakan tentang keesaan Allah dan adanya hari kebangkitan secara garis besarnya, sedang Surah ar-R\u016bm menge-mukakan bukti-buktinya secara terperinci\n3. \tSurah al-\u2018Ankab\u016bt menyebutkan bahwa kewajiban rasul-rasul adalah menyampaikan agama Allah, sedang Surah ar-R\u016bm menyebutkan bahwa rasul-rasul-Nya tidak dapat memberi taufik dan hidayah untuk menjadikan seseorang menerima apa yang disampaikannya, hanya Allah-lah yang dapat berbuat demikian.",
        "munasabah_prev_theme": "Dalam ayat-ayat yang lalu diterangkan tanda kekuasaan Allah antara lain berupa penurunan hujan yang menghidupkan kembali tanah yang mati menjadi hidup dan subur. Allah juga telah menurunkan rasul-rasul untuk menghidupkan hati-hati yang mati. Peristiwa itu menjadi petunjuk bahwa Allah mampu menghidupkan kembali manusia dari kematiannya dan mampu membalas amal mereka nanti di akhirat. Oleh karena itu, manusia seharusnya beriman kepada Allah dan berbuat baik. Dalam ayat-ayat berikut, Allah menyampaikan masih adanya manusia yang kafir sekalipun Ia telah menyampaikan tanda-tanda kekuasaan-Nya yang besar itu.",
        "theme_group": "KEINGKARAN SEBAGIAN MANUSIA\nTERHADAP KEMAHAKUASAAN ALLAH",
        "kosakata": "Kosakata: Mudbir\u012bn \u0645\u064f\u062f\u0652\u0628\u0650\u0631\u0650\u064a\u0652\u0646\u064e  (ar-R\u016bm/30: 53)\nKata mudbir\u012bn terambil dari fi\u2019il m\u0101\u1e0d\u012b (kata kerja masa lampau) adbara yang secara kebahasaan bermakna mundur, ke belakang atau berpaling. Dalam konteks ayat di atas, mudbir\u012bn dimaksudkan untuk menjelaskan posisi orang yang tuli. Jika ia dalam posisi mudbir\u012bn (membelakangi kita), maka seruan apa pun yang kita sampaikan padanya tidak akan terdengar. Ungkapan ini sesungguhnya kiasan atau sindiran Allah kepada orang-orang kafir. Mereka laksana orang mati atau orang tuli yang membelakangi kita, sehingga tidak akan bisa mendengar seruan kebenaran yang kita sampaikan. ",
        "sabab_nuzul": null,
        "conclusion": null
    }
}