{
    "id": 3436,
    "surah_id": 30,
    "ayah": 27,
    "page": 407,
    "quarter_hizb": 41.25,
    "juz": 21,
    "manzil": 5,
    "arabic": "\u0648\u064e\u0647\u064f\u0648\u064e \u0627\u0644\u0651\u064e\u0630\u0650\u064a\u0652 \u064a\u064e\u0628\u0652\u062f\u064e\u0624\u064f\u0627 \u0627\u0644\u0652\u062e\u064e\u0644\u0652\u0642\u064e \u062b\u064f\u0645\u0651\u064e \u064a\u064f\u0639\u0650\u064a\u0652\u062f\u064f\u0647\u0657 \u0648\u064e\u0647\u064f\u0648\u064e \u0627\u064e\u0647\u0652\u0648\u064e\u0646\u064f \u0639\u064e\u0644\u064e\u064a\u0652\u0647\u0650\u06d7 \u0648\u064e\u0644\u064e\u0647\u064f \u0627\u0644\u0652\u0645\u064e\u062b\u064e\u0644\u064f \u0627\u0644\u0652\u0627\u064e\u0639\u0652\u0644\u0670\u0649 \u0641\u0650\u0649 \u0627\u0644\u0633\u0651\u064e\u0645\u0670\u0648\u0670\u062a\u0650 \u0648\u064e\u0627\u0644\u0652\u0627\u064e\u0631\u0652\u0636\u0650\u06da \u0648\u064e\u0647\u064f\u0648\u064e \u0627\u0644\u0652\u0639\u064e\u0632\u0650\u064a\u0652\u0632\u064f \u0627\u0644\u0652\u062d\u064e\u0643\u0650\u064a\u0652\u0645\u064f \u08d6 ",
    "latin": "Wa huwal-la\u017c\u012b yabda'ul-khalqa \u1e61umma yu\u2018\u012bduh\u016b wa huwa ahwanu \u2018alaih(i), wa lahul-ma\u1e61alul-a\u2018l\u0101 fis-sam\u0101w\u0101ti wal-ar\u1e0d(i), wa huwal-\u2018az\u012bzul-\u1e25ak\u012bm(u).",
    "translation": "Dialah yang memulai penciptaan, kemudian mengembalikannya (menghidupkannya) lagi (setelah kehancurannya). (Hal) Itu lebih mudah bagi-Nya. Milik-Nyalah sifat yang tertinggi di langit dan di bumi. Dialah Yang Maha Perkasa lagi Maha Bijaksana.",
    "no_footnote": null,
    "footnotes": null,
    "surah": {
        "id": 30,
        "arabic": " \u0627\u0644\u0631\u0651\u0648\u0645",
        "latin": "Ar-R\u016bm",
        "transliteration": "Ar-Rum",
        "translation": "Romawi",
        "num_ayah": 60,
        "page": 404,
        "location": "Makkiyah"
    },
    "tafsir": {
        "wajiz": "Hari kebangkitan bukanlah sesuatu yang mustahil bagi Allah, sebab Dialah yang memulai penciptaan manusia dari tidak ada kemudian mengulanginya dengan membangkitkan kembali menjadi makhluk yang baru, dan yang demikian itu menurut akalmu, wahai orang-orang kafir, mestinya lebih mudah bagi-Nya. Hanya bagi-Nya sifat yang Mahatinggi di langit dan di bumi sebagai Tuhan Yang Maha Esa, tidak ada yang serupa dengan-Nya, dan penyandang segala kesempurnaan. Dan Dia Yang Mahaperkasa tanpa tandingan, Mahabijaksana dalam penciptaan dan pengurusan-Nya.",
        "tahlili": "Ayat ini juga merupakan kesimpulan dari ayat terdahulu. Ayat ini menetapkan bahwa siapa yang memiliki semua langit dan bumi, Dialah yang memulai kejadiannya, dan Dia pula yang akan mengembalikannya sesudah mati seperti semula.\nPada ayat 11 di atas telah disebutkan mengenai permulaan kejadian manusia dan pengembaliannya pada kehidupan setelah mati. Hal itu diulang lagi di sini untuk menguatkan pernyataan itu setelah diterangkan bukti kebesaran Allah tersebut di atas. Di sini ditambahkan dengan pernyataan bahwa menghidupkan kembali itu adalah lebih mudah bagi-Nya. Dalam ayat ini ada kata-kata \u201clebih mudah\u201d yakni menghidupkan adalah lebih mudah bagi Allah daripada penciptaannya semula. Akan tetapi, lebih mudahnya menghidupkan kembali daripada menciptakan semua itu adalah dengan membandingkannya kepada kebiasaan yang berlaku pada manusia, bukan dihubungkan kepada Allah, sebab bagi Allah semuanya adalah mudah. Allah tidak akan merasa berat mengadakan sesuatu apa pun. Allah berfirman:\n\u0627\u0650\u0646\u0651\u064e\u0645\u064e\u0627\u0653 \u0627\u064e\u0645\u0652\u0631\u064f\u0647\u0657\u0653 \u0627\u0650\u0630\u064e\u0627\u0653 \u0627\u064e\u0631\u064e\u0627\u062f\u064e \u0634\u064e\u064a\u0652\u0640\u0654\u064b\u0627\u06d6 \u0627\u064e\u0646\u0652 \u064a\u0651\u064e\u0642\u064f\u0648\u0652\u0644\u064e \u0644\u064e\u0647\u0657 \u0643\u064f\u0646\u0652 \u0641\u064e\u064a\u064e\u0643\u064f\u0648\u0652\u0646\u064f \u0668\u0662 (\u064a\u0670\u0633\u06e4)\nSesungguhnya urusan-Nya apabila Dia menghendaki sesuatu Dia hanya berkata kepadanya, \u201cJadilah!\u201d Maka jadilah sesuatu itu. (Y\u0101s\u012bn/36: 82)\n\nBagi manusia, menciptakan sesuatu lebih sukar daripada mengulangi segala daya upaya, kesungguhan, dan lain sebagainya. Dalam usahanya itu, mereka melakukan kesalahan berulang kali, baru sampai kepada yang dimaksud. Setelah sampai kepada yang dicita-citakan, tentu mengulang membuatnya kembali lebih mudah baginya, tidak membutuhkan tenaga seperti saat memulainya, sebab segala sesuatu telah terbayang dalam benaknya bagaimana cara membuatnya. Adapun bagi Allah tidak ada yang lebih mudah atau lebih sukar. Semuanya mudah bagi-Nya.\n\u0642\u064e\u0627\u0644\u064e \u0627\u0644\u0644\u0651\u0670\u0647\u064f \u062a\u064e\u0639\u064e\u0627\u0644\u064e\u0649 \u0643\u064e\u0630\u0651\u064e\u0628\u064e\u0646\u0650\u064a \u0627\u0650\u0628\u0652\u0646\u064f \u0622\u062f\u064e\u0645\u064e \u0648\u064e\u0644\u0645\u064e \u0652\u064a\u064e\u0643\u064f\u0646\u0652 \u0644\u064e\u0647\u064f \u0630\u064e\u0644\u0650\u0643\u064e \u0648\u064e\u0634\u064e\u062a\u064e\u0645\u064e\u0646\u0650\u064a \u0648\u064e\u0644\u0645\u064e \u0652\u064a\u064e\u0643\u064f\u0646\u0652 \u0644\u064e\u0647\u064f \u0630\u064e\u0644\u0650\u0643\u064e \u0641\u064e\u0623\u064e\u0645\u0651\u064e\u0627 \u062a\u064e\u0643\u0652\u0630\u0650\u064a\u0652\u0628\u064f\u0647\u064f \u0627\u0650\u064a\u0651\u064e\u0627\u064a\u064e \u0641\u064e\u0642\u064e\u0648\u0652\u0644\u064f\u0647\u064f \u0644\u064e\u0646\u0652 \u064a\u064f\u0639\u0650\u064a\u0652\u062f\u064e\u0646\u0650\u0649 \u0643\u064e\u0645\u064e\u0627 \u0628\u064e\u062f\u064e\u0623\u064e\u0646\u0650\u0649. \u0648\u064e\u0644\u064e\u064a\u0652\u0633\u064e \u0627\u064e\u0648\u0651\u064e\u0644\u064f \u0627\u0644\u0652\u062e\u064e\u0644\u0652\u0642\u0650 \u0628\u0650\u0623\u064e\u0647\u0652\u0648\u064e\u0646\u064e \u0639\u064e\u0644\u064e\u064a\u0651\u064e \u0645\u0650\u0646\u0652 \u0627\u0650\u0639\u064e\u0627\u062f\u064e\u062a\u0650\u0647\u0650 \u0648\u064e\u0627\u064e\u0645\u0651\u064e\u0627 \u0634\u064e\u062a\u0652\u0645\u064f\u0647\u064f \u0627\u0650\u064a\u0651\u064e\u0627\u064a\u064e \u0641\u064e\u0642\u064e\u0648\u0652\u0644\u064f\u0647\u064f: \u0627\u0650\u062a\u0651\u064e\u062e\u064e\u0630\u064e \u0627\u0644\u0644\u0647 \u064f\u0648\u064e\u0644\u064e\u062f\u064b\u0627 \u0648\u064e\u0627\u064e\u0646\u064e\u0627 \u0627\u0652\u0644\u0627\u064e\u062d\u064e\u062f\u064f \u0627\u0644\u0635\u0651\u064e\u0645\u064e\u062f\u064f \u0627\u0644\u0651\u064e\u0630\u0650\u064a\u0652 \u0644\u064e\u0645\u0652 \u0627\u064e\u0644\u0650\u062f\u0652 \u0648\u064e\u0644\u064e\u0645\u0652 \u0627\u064f\u0648\u0652\u0644\u064e\u062f\u0652 \u0648\u064e\u0644\u064e\u0645\u0652 \u064a\u064e\u0643\u064f\u0646\u0652 \u0644\u0650\u064a\u0652 \u0643\u064f\u0641\u064f\u0648\u064b\u0627 \u0627\u064e\u062d\u064e\u062f\u064c. (\u0631\u0648\u0627\u0647 \u0627\u0644\u0628\u062e\u0627\u0631\u064a \u0639\u0646 \u0623\u0628\u064a \u0647\u0631\u064a\u0631\u0629)\nAllah swt berfirman, \u201cAnak Adam telah berbohong kepadaku dan mencelaku, padahal kebohongan dan celaan itu tidak pernah ada. Adapun kebohongan mereka terhadapku adalah perkataan mereka, \u2018Allah tidak bisa mengembali-kanku sebagaimana Dia menciptakanku\u2019. Dan tidak ada permulaan ciptaan itu lebih mudah bagiku daripada mengembalikannya. Adapun celaan mereka terhadapku adalah ucapan mereka, \u2018Allah mengambil (mempunyai) anak\u2019. Dan Aku adalah satu, tempat bergantung segala sesuatu, Aku tidak melahirkan dan Aku tidak dilahirkan, dan juga tidak ada satu pun yang setara dengan-Ku.\u201d (Riwayat al-Bukh\u0101r\u012b dari Ab\u016b Hurairah)\n\nKata-kata \u201clebih mudah\u201d ini diberi komentar pula dengan kalimat \u201cDia memiliki sifat yang Mahatinggi di langit dan di bumi.\u201d Allah itu tunggal di segala langit dan bumi dengan segala sifat-sifat-Nya, tidak ada suatu apa pun yang berserikat dengan-Nya. Tidak ada sesuatu yang serupa dengan-Nya. Dialah Yang Maha Perkasa lagi Maha Bijaksana. Kata-kata \u201cperkasa\u201d di sini berarti \u201cyang menang, atau yang dapat membuat apa yang dikehendaki.\u201d \u201cBijaksana\u201d berarti mengendalikan segala makhluk dengan teliti dan dengan batas-batasnya.\n",
        "intro_surah": "Surah ar-R\u016bm yang terdiri dari 60 ayat, termasuk golongan surah-surah Makkiyyah dan diturunkan sesudah Surah al-Insyiq\u0101q.\nSurah ini dinamakan ar-R\u016bm karena pada permulaan surah ini, yaitu ayat 2, 3, dan 4 terdapat berita tentang bangsa Romawi yang pada mulanya dikalahkan oleh bangsa Persia, tetapi beberapa tahun kemudian mereka dapat menuntut balas dan mengalahkan kerajaan Persia kembali.\nIni adalah salah satu dari mukjizat Al-Qur\u2019an, yaitu memberitakan hal-hal yang akan terjadi di masa yang akan datang. Ia juga mengisyaratkan bahwa kaum Muslimin yang demikian lemah pada waktu itu akan menang dan menghancurkan kaum musyrik. Isyarat ini terbukti pada perang Badar.\n\nPokok-pokok Isinya:\n1. \tKeimanan:\nBukti-bukti atas kerasulan Nabi Muhammad dengan memberitahukan kepadanya hal yang gaib, seperti kemenangan bangsa Romawi atas kerajaan Persia; bukti-bukti keesaan Allah yang terdapat di alam semesta sebagai makhluk-Nya, dan kejadian-kejadian pada alam itu sendiri; bukti-bukti atas kebenaran adanya hari kebangkitan; contoh dan perumpamaan yang menjelaskan bahwa berhala-berhala dan sembahan-sembahan itu tidak dapat menolong dan memberi manfaat kepada penyembah-penyembahnya sedikit pun.\n2. \tHukum:\nKewajiban menyembah Allah dan mengakui keesaan-Nya sesuai dengan fitrah manusia; kewajiban berdakwah; kewajiban memberikan nafkah (sedekah) kepada kaum kerabat, fakir miskin, musafir, dan sebagainya; larangan mengikuti orang-orang musyrik; hukum riba.\n3. \tKisah:\nPemberitaan tentang bangsa Romawi sebagai umat yang beragama walaupun dikalahkan pada mulanya oleh kerajaan Persia yang menyembah api akhirnya dapat menang kembali.\n4. \tLain-lain:\nManusia umumnya bersifat penuh harapan dan berputus asa apabila ditimpa musibah kecuali orang-orang yang beriman; kewajiban rasul hanya menyampaikan dakwah; kejadian-kejadian yang dialami oleh umat-umat yang terdahulu patut menjadi iktibar dan pelajaran bagi umat yang datang kemudian.\n\n",
        "outro_surah": null,
        "munasabah_prev_surah": "HUBUNGAN SURAH AL-\u2019Ankab\u016bt DENGAN\nSURAH AR-R\u016aM\n\n1. \tBagian permulaan Surah al-\u2018Ankab\u016bt menerangkan tentang jihad sebagai ujian bagi orang-orang mukmin, dan manusia itu dijadikan Allah bukan untuk bersenang-senang, tetapi untuk berusaha dan berjihad di jalan Allah sampai akhir hayatnya. Dalam berusaha dan berjihad di jalan Allah, manusia biasa mendapat halangan dan rintangan. Hanya orang-orang mukmin yang sanggup mengatasi halangan dan rintangan itu, sehingga mereka mendapat kesenangan dan kebahagiaan. Pada akhir Surah al-\u2018Ankab\u016bt ini diulangi lagi pembicaraan tentang jihad. Permulaan Surah ar-R\u016bm mengandung arti bahwa orang mukmin akan mengalahkan orang-orang musyrik dalam waktu dekat. Maka ditinjau dari segi berjihad dan berusaha, Surah ar-R\u016bm adalah sebagai penyempurna dari apa yang dikemukakan dalam Surah al-\u2018Ankab\u016bt.\n2. \tSurah al-\u2018Ankab\u016bt mengemukakan tentang keesaan Allah dan adanya hari kebangkitan secara garis besarnya, sedang Surah ar-R\u016bm menge-mukakan bukti-buktinya secara terperinci\n3. \tSurah al-\u2018Ankab\u016bt menyebutkan bahwa kewajiban rasul-rasul adalah menyampaikan agama Allah, sedang Surah ar-R\u016bm menyebutkan bahwa rasul-rasul-Nya tidak dapat memberi taufik dan hidayah untuk menjadikan seseorang menerima apa yang disampaikannya, hanya Allah-lah yang dapat berbuat demikian.",
        "munasabah_prev_theme": "Pada ayat-ayat yang lalu, Allah memerintahkan kaum Muslimin me-nyucikan-Nya dari segala kejelekan dan kekurangan yang tidak pantas bagi keagungan dan kesempurnaan-Nya. Allah juga menyebutkan bahwa segala makhluk, baik yang di langit maupun yang di bumi, semuanya memuji-Nya, dan menerangkan kesanggupan-Nya menghidupkan yang mati. Pada ayat-ayat berikut ini diterangkan bukti-bukti kekuasaan dan kebesaran Allah, di antaranya penciptaan manusia dari tanah kemudian berkembang biak, penciptaan langit dan bumi, perbedaan warna kulit dan bahasa manusia, kebutuhan untuk tidur pada malam hari dan berusaha pada siang hari. Semua tanda kekuasaan Allah ini mengantar kita untuk meyakini bahwa Allah mampu membangkitkan manusia yang sudah mati.",
        "theme_group": "TANDA-TANDA KEBESARAN ALLAH",
        "kosakata": "Kosakata: Mawaddah Wa Ra\u1e25mah \u0645\u064e\u0648\u064e\u062f\u0651\u064e\u0629\u064b \u0648\u064e\u0631\u064e\u062d\u0652\u0645\u064e\u0629\u064b (ar-R\u016bm/30: 21)\nMawaddah wa ra\u1e25mah artinya cinta dan kasih sayang. Mawaddah berasal dari fi\u2019il wadda-yawaddu, waddan wa mawaddatan artinya cinta, kasih, dan suka. Sedangkan ra\u1e25mah dari fi\u2019il ra\u1e25ima-yar\u1e25amu-ra\u1e25matan wa mar\u1e25amatan artinya sayang, menaruh kasihan. Memang kedua kata ini mengandung kemiripan arti atau hampir sama maknanya. Pada ayat 21 Surah ar-R\u016bm ini dijelaskan bahwa Allah telah menetapkan jodoh dan pasangan tiap-tiap manusia dari jenis yang sama yaitu manusia juga, laki-laki dan perempuan. Allah selalu menciptakan rasa kasih dan rasa sayang antara keduanya, sehingga mereka dapat hidup tenteram dan saling mencintai dalam rumah tangga yang tenang dan damai. Pada waktu mudanya mereka senantiasa diliputi rasa cinta dan senang antara keduanya, dan ketika sudah tua nanti mereka diliputi rasa sayang dan senantiasa menaruh rasa kasihan. Demikian hubungan suami istri dalam rumah tangga yang sakinah atau tenteram dan damai, selalu diliputi kebahagiaan dan kesejahteraan sepanjang hidup mereka.",
        "sabab_nuzul": null,
        "conclusion": "1. \tBukti-bukti kekuasaan Allah itu dapat dilihat pada kejadian manusia yang berasal dari tanah, adanya kasih sayang antara suami dan istri, kejadian langit dan bumi, perbedaan bahasa dan warna kulit manusia, tidurnya manusia di malam hari, adanya kilat di langit dan turunnya hujan, berdirinya langit dan bumi tanpa penyangga, dan sebagainya.\n2. \tSemua yang ada di langit dan di bumi tunduk pada aturan Allah, baik dalam keadaan suka ataupun tidak.\n3. \tAllah itu tunggal dalam segala sifat-Nya, Dia tidak bersekutu dengan sesuatu, dan tidak ada sesuatu yang menyerupai-Nya."
    }
}