{
    "id": 3418,
    "surah_id": 30,
    "ayah": 9,
    "page": 405,
    "quarter_hizb": 41.25,
    "juz": 21,
    "manzil": 5,
    "arabic": "\u0627\u064e\u0648\u064e\u0644\u064e\u0645\u0652 \u064a\u064e\u0633\u0650\u064a\u0652\u0631\u064f\u0648\u0652\u0627 \u0641\u0650\u0649 \u0627\u0644\u0652\u0627\u064e\u0631\u0652\u0636\u0650 \u0641\u064e\u064a\u064e\u0646\u0652\u0638\u064f\u0631\u064f\u0648\u0652\u0627 \u0643\u064e\u064a\u0652\u0641\u064e \u0643\u064e\u0627\u0646\u064e \u0639\u064e\u0627\u0642\u0650\u0628\u064e\u0629\u064f \u0627\u0644\u0651\u064e\u0630\u0650\u064a\u0652\u0646\u064e \u0645\u0650\u0646\u0652 \u0642\u064e\u0628\u0652\u0644\u0650\u0647\u0650\u0645\u0652\u06d7 \u0643\u064e\u0627\u0646\u064f\u0648\u0652\u0653\u0627 \u0627\u064e\u0634\u064e\u062f\u0651\u064e \u0645\u0650\u0646\u0652\u0647\u064f\u0645\u0652 \u0642\u064f\u0648\u0651\u064e\u0629\u064b \u0648\u0651\u064e\u0627\u064e\u062b\u064e\u0627\u0631\u064f\u0648\u0627 \u0627\u0644\u0652\u0627\u064e\u0631\u0652\u0636\u064e \u0648\u064e\u0639\u064e\u0645\u064e\u0631\u064f\u0648\u0652\u0647\u064e\u0627\u0653 \u0627\u064e\u0643\u0652\u062b\u064e\u0631\u064e \u0645\u0650\u0645\u0651\u064e\u0627 \u0639\u064e\u0645\u064e\u0631\u064f\u0648\u0652\u0647\u064e\u0627 \u0648\u064e\u062c\u064e\u0627\u06e4\u0621\u064e\u062a\u0652\u0647\u064f\u0645\u0652 \u0631\u064f\u0633\u064f\u0644\u064f\u0647\u064f\u0645\u0652 \u0628\u0650\u0627\u0644\u0652\u0628\u064e\u064a\u0651\u0650\u0646\u0670\u062a\u0650\u06d7 \u0641\u064e\u0645\u064e\u0627 \u0643\u064e\u0627\u0646\u064e \u0627\u0644\u0644\u0651\u0670\u0647\u064f \u0644\u0650\u064a\u064e\u0638\u0652\u0644\u0650\u0645\u064e\u0647\u064f\u0645\u0652 \u0648\u064e\u0644\u0670\u0643\u0650\u0646\u0652 \u0643\u064e\u0627\u0646\u064f\u0648\u0652\u0653\u0627 \u0627\u064e\u0646\u0652\u0641\u064f\u0633\u064e\u0647\u064f\u0645\u0652 \u064a\u064e\u0638\u0652\u0644\u0650\u0645\u064f\u0648\u0652\u0646\u064e\u06d7",
    "latin": "Awalam yas\u012br\u016b fil-ar\u1e0di fayan\u1e93ur\u016b kaifa k\u0101na \u2018\u0101qibatul-la\u017c\u012bna min qablihim, k\u0101n\u016b asyadda minhum quwwataw wa a\u1e61\u0101rul-ar\u1e0da wa \u2018amar\u016bh\u0101 ak\u1e61ara mimm\u0101 \u2018amar\u016bh\u0101 wa j\u0101'athum rusuluhum bil-bayyin\u0101t(i), fam\u0101 k\u0101nall\u0101hu liya\u1e93limahum wa l\u0101kin k\u0101n\u016b anfusahum ya\u1e93lim\u016bn(a).",
    "translation": "Tidakkah mereka bepergian di bumi lalu melihat bagaimana kesudahan orang-orang sebelum mereka (yang mendustakan rasul)? Orang-orang itu lebih kuat dari mereka (sendiri) dan mereka telah mengolah bumi (tanah) serta memakmurkannya melebihi apa yang telah mereka makmurkan. Para rasul telah datang kepada mereka dengan membawa bukti-bukti yang jelas. Allah sama sekali tidak menzalimi mereka, tetapi merekalah yang menzalimi dirinya sendiri. ",
    "no_footnote": null,
    "footnotes": null,
    "surah": {
        "id": 30,
        "arabic": " \u0627\u0644\u0631\u0651\u0648\u0645",
        "latin": "Ar-R\u016bm",
        "transliteration": "Ar-Rum",
        "translation": "Romawi",
        "num_ayah": 60,
        "page": 404,
        "location": "Makkiyah"
    },
    "tafsir": {
        "wajiz": "Allah pun mengecam orang musyrik yang enggan mengambil pelajaran dari umat-umat terdahulu yang menentang para rasul. Dan tidakkah mereka sempat bepergian di beberapa tempat di bumi ini lalu melihat dan memperhatikan bagaimana kesudahan orang-orang sebelum mereka yang mendustakan para rasul? Mereka dibinasakan dengan cara mengenaskan dan mengerikan, padahal orang-orang itu lebih kuat secara fisik, jumlah, maupun kekayaan dari mereka sendiri dan mereka juga telah mengolah bumi serta memakmurkannya dengan bercocok tanam, menambang, dan sebagainya melebihi apa yang telah mereka, yakni kaum musyrik Mekah, makmurkan. Dan telah datang kepada mereka rasul-rasul mereka dengan membawa bukti-bukti yang jelas atas eksistensi dan keesaan Allah, namun mereka mendustakan dan mengingkarinya, maka Allah menurunkan azab akibat dosa-dosa mereka sendiri. Allah sama sekali tidak berlaku zalim kepada mereka dengan menurunkan azab tanpa sebab dan peringatan terlebih dahulu, tetapi merekalah yang berlaku zalim kepada diri mereka sendiri dengan mengingkari peringatan Allah, bahkan mereka menentang dan menyakiti para rasul.",
        "tahlili": "Pada ayat ini, Allah memberi peringatan kepada orang-orang musyrik dan orang-orang yang mendustakan ayat-ayat Allah. Mereka sebenarnya selalu bepergian melakukan perdagangan dari Mekah ke Syiria dan Arab selatan dari negeri-negeri yang lain yang berada di sekitar Jazirah Arab. Dalam perjalanan tersebut, mereka melalui negeri-negeri yang dihancurkan oleh Allah, karena penduduknya mendustakan rasul-rasul yang telah diutus kepada mereka, seperti negeri kaum \u2018Ad, Samud, Madyan, dan sebagainya. \nUmat-umat dahulu kala itu telah tinggi tingkat peradabannya, lebih perkasa dan kuat dari kaum musyrik Quraisy. Umat-umat dahulu itu telah sanggup mengolah dan memakmurkan bumi, lebih baik dari yang mereka lakukan. Akan tetapi, umat-umat itu mengingkari dan mendustakan para rasul yang diutus Allah kepada mereka, sehingga mereka dihancurkan Allah dengan bermacam-macam malapetaka seperti sambaran petir, gempa yang dahsyat, angin kencang, dan sebagainya. Demikianlah sunah Allah yang berlaku bagi orang-orang yang mengingkari agama-Nya dan sunah itu akan berlaku pula bagi setiap orang yang mendustakan para rasul, termasuk orang-orang Quraisy sendiri yang mengingkari kerasulan Muhammad saw. Sekalipun Allah telah menetapkan yang demikian, namun orang-orang musyrik tidak mengindahkan dan memikirkannya.\nAyat ini merupakan peringatan kepada seluruh manusia di mana pun dan kapan pun mereka berada, agar mereka mengetahui dan menghayati hakikat hidup dan kehidupan, dan mengetahui tujuan Allah menciptakan manusia. Manusia diciptakan Allah dengan tujuan yang sama, sejak dahulu kala, saat ini, dan juga pada masa yang akan datang, yaitu sebagai khalifah Allah di bumi dan beribadah kepada-Nya. Barang siapa yang tujuan hidupnya tidak sesuai dengan yang digariskan Allah, berarti mereka telah menyimpang dari tujuan itu dan hidupnya tidak akan diridai Allah. Oleh karena itu, bagi mereka berlaku pula sunah Allah di atas.\nAkhir ayat ini menerangkan bahwa Allah sekali-kali tidak bermaksud menganiaya orang-orang kafir dengan menimpakan azab kepada mereka. Akan tetapi, mereka sendirilah yang menganiaya diri mereka sendiri, dengan mendustakan rasul dan mendurhakai Allah.",
        "intro_surah": "Surah ar-R\u016bm yang terdiri dari 60 ayat, termasuk golongan surah-surah Makkiyyah dan diturunkan sesudah Surah al-Insyiq\u0101q.\nSurah ini dinamakan ar-R\u016bm karena pada permulaan surah ini, yaitu ayat 2, 3, dan 4 terdapat berita tentang bangsa Romawi yang pada mulanya dikalahkan oleh bangsa Persia, tetapi beberapa tahun kemudian mereka dapat menuntut balas dan mengalahkan kerajaan Persia kembali.\nIni adalah salah satu dari mukjizat Al-Qur\u2019an, yaitu memberitakan hal-hal yang akan terjadi di masa yang akan datang. Ia juga mengisyaratkan bahwa kaum Muslimin yang demikian lemah pada waktu itu akan menang dan menghancurkan kaum musyrik. Isyarat ini terbukti pada perang Badar.\n\nPokok-pokok Isinya:\n1. \tKeimanan:\nBukti-bukti atas kerasulan Nabi Muhammad dengan memberitahukan kepadanya hal yang gaib, seperti kemenangan bangsa Romawi atas kerajaan Persia; bukti-bukti keesaan Allah yang terdapat di alam semesta sebagai makhluk-Nya, dan kejadian-kejadian pada alam itu sendiri; bukti-bukti atas kebenaran adanya hari kebangkitan; contoh dan perumpamaan yang menjelaskan bahwa berhala-berhala dan sembahan-sembahan itu tidak dapat menolong dan memberi manfaat kepada penyembah-penyembahnya sedikit pun.\n2. \tHukum:\nKewajiban menyembah Allah dan mengakui keesaan-Nya sesuai dengan fitrah manusia; kewajiban berdakwah; kewajiban memberikan nafkah (sedekah) kepada kaum kerabat, fakir miskin, musafir, dan sebagainya; larangan mengikuti orang-orang musyrik; hukum riba.\n3. \tKisah:\nPemberitaan tentang bangsa Romawi sebagai umat yang beragama walaupun dikalahkan pada mulanya oleh kerajaan Persia yang menyembah api akhirnya dapat menang kembali.\n4. \tLain-lain:\nManusia umumnya bersifat penuh harapan dan berputus asa apabila ditimpa musibah kecuali orang-orang yang beriman; kewajiban rasul hanya menyampaikan dakwah; kejadian-kejadian yang dialami oleh umat-umat yang terdahulu patut menjadi iktibar dan pelajaran bagi umat yang datang kemudian.\n\n",
        "outro_surah": null,
        "munasabah_prev_surah": "HUBUNGAN SURAH AL-\u2019Ankab\u016bt DENGAN\nSURAH AR-R\u016aM\n\n1. \tBagian permulaan Surah al-\u2018Ankab\u016bt menerangkan tentang jihad sebagai ujian bagi orang-orang mukmin, dan manusia itu dijadikan Allah bukan untuk bersenang-senang, tetapi untuk berusaha dan berjihad di jalan Allah sampai akhir hayatnya. Dalam berusaha dan berjihad di jalan Allah, manusia biasa mendapat halangan dan rintangan. Hanya orang-orang mukmin yang sanggup mengatasi halangan dan rintangan itu, sehingga mereka mendapat kesenangan dan kebahagiaan. Pada akhir Surah al-\u2018Ankab\u016bt ini diulangi lagi pembicaraan tentang jihad. Permulaan Surah ar-R\u016bm mengandung arti bahwa orang mukmin akan mengalahkan orang-orang musyrik dalam waktu dekat. Maka ditinjau dari segi berjihad dan berusaha, Surah ar-R\u016bm adalah sebagai penyempurna dari apa yang dikemukakan dalam Surah al-\u2018Ankab\u016bt.\n2. \tSurah al-\u2018Ankab\u016bt mengemukakan tentang keesaan Allah dan adanya hari kebangkitan secara garis besarnya, sedang Surah ar-R\u016bm menge-mukakan bukti-buktinya secara terperinci\n3. \tSurah al-\u2018Ankab\u016bt menyebutkan bahwa kewajiban rasul-rasul adalah menyampaikan agama Allah, sedang Surah ar-R\u016bm menyebutkan bahwa rasul-rasul-Nya tidak dapat memberi taufik dan hidayah untuk menjadikan seseorang menerima apa yang disampaikannya, hanya Allah-lah yang dapat berbuat demikian.",
        "munasabah_prev_theme": "Pada ayat-ayat yang lalu diterangkan bahwa janji Allah pasti terlaksana. Hal ini dibuktikan dengan kemenangan bangsa Romawi atas bangsa Persia yang dijanjikan Allah, setelah sebelumnya mereka dikalahkan oleh seterunya itu. Diterangkan pula keingkaran orang-orang musyrik Mekah terhadap adanya hari akhirat. Pada ayat-ayat berikut ini, Allah memerintah-kan agar manusia memperhatikan tanda-tanda kekuasaan dan kebesaran-Nya, sebagai bukti adanya Allah dan hari kebangkitan serta kebenaran Nabi Muhammad sebagai rasul yang diutus-Nya. Tanda-tanda itu dapat dilihat pada kejadian langit dan bumi, kejadian diri sendiri, dan sebagainya. Kemudian mereka diperintahkan pula memperhatikan peninggalan umat dahulu yang lebih kuat dan lebih perkasa dari mereka serta telah memakmurkan dan mengolah tanah lebih banyak dari yang mereka kerjakan. Akan tetapi, semuanya hancur dan tidak ada satu pun di antara mereka yang sanggup mengelakkan diri dari malapetaka yang ditimpakan kepada mereka. ",
        "theme_group": "\nPENENTANG NABI MUHAMMAD SAW\nAKAN HANCUR SEPERTI KAUM YANG MENENTANG\nRASUL-RASUL DAHULU",
        "kosakata": "Kosakata: A\u1e61\u0101rul-ar\u1e0d \u0627\u064e\u062b\u064e\u0627\u0631\u064f\u0648\u0627 \u0627\u0652\u0644\u0627\u064e\u0631\u0652\u0636\u0650 (ar-R\u016bm/30: 9) \nA\u1e61\u0101rul-ar\u1e0d artinya mereka telah mengolah bumi. Akar katanya menurut ar-Ragib adalah (\u1e61a\u2019-waw-ra\u2019) artinya tersebarnya sesuatu. Menurut al-Fairuz Ab\u0101di, kata ini bisa juga diartikan melompat. Jika dikatakan \u1e61\u0101ra as-sah\u0101b, ya\u1e61\u016bru, \u1e61auran, \u1e61aur\u0101nan artinya mega itu tersebar. Dalam ayat \u201ctu\u1e61\u012brul ar\u1e0d\u201d (al-Baqarah/2: 71), artinya mengolah bumi atau  membajak tanah.   Dengan demikian maka a\u1e61\u0101ru al-ar\u1e0d berarti mereka telah menyebar ke penjuru bumi  untuk mengolah, membajak, dan menanaminya dengan tanam tanaman.",
        "sabab_nuzul": null,
        "conclusion": null
    }
}