{
    "id": 3459,
    "surah_id": 30,
    "ayah": 50,
    "page": 409,
    "quarter_hizb": 41.5,
    "juz": 21,
    "manzil": 5,
    "arabic": "\u0641\u064e\u0627\u0646\u0652\u0638\u064f\u0631\u0652 \u0627\u0650\u0644\u0670\u0653\u0649 \u0627\u0670\u062b\u0670\u0631\u0650 \u0631\u064e\u062d\u0652\u0645\u064e\u062a\u0650 \u0627\u0644\u0644\u0651\u0670\u0647\u0650 \u0643\u064e\u064a\u0652\u0641\u064e \u064a\u064f\u062d\u0652\u064a\u0650 \u0627\u0644\u0652\u0627\u064e\u0631\u0652\u0636\u064e \u0628\u064e\u0639\u0652\u062f\u064e \u0645\u064e\u0648\u0652\u062a\u0650\u0647\u064e\u0627\u06d7 \u0627\u0650\u0646\u0651\u064e \u0630\u0670\u0644\u0650\u0643\u064e \u0644\u064e\u0645\u064f\u062d\u0652\u064a\u0650 \u0627\u0644\u0652\u0645\u064e\u0648\u0652\u062a\u0670\u0649\u06da \u0648\u064e\u0647\u064f\u0648\u064e \u0639\u064e\u0644\u0670\u0649 \u0643\u064f\u0644\u0651\u0650 \u0634\u064e\u064a\u0652\u0621\u064d \u0642\u064e\u062f\u0650\u064a\u0652\u0631\u064c",
    "latin": "Fan\u1e93ur il\u0101 \u0101\u1e61\u0101ri ra\u1e25matill\u0101hi kaifa yu\u1e25yil-ar\u1e0da ba\u2018da mautih\u0101, inna \u017c\u0101lika lamu\u1e25yil-maut\u0101, wa huwa \u2018al\u0101 kulli syai'in qad\u012br(un).",
    "translation": "Perhatikanlah jejak-jejak rahmat Allah, bagaimana Dia menghidupkan bumi setelah mati (kering). Sesungguhnya (Zat yang melakukan) itu pasti berkuasa menghidupkan orang yang telah mati. Dia Maha Kuasa atas segala sesuatu.",
    "no_footnote": null,
    "footnotes": null,
    "surah": {
        "id": 30,
        "arabic": " \u0627\u0644\u0631\u0651\u0648\u0645",
        "latin": "Ar-R\u016bm",
        "transliteration": "Ar-Rum",
        "translation": "Romawi",
        "num_ayah": 60,
        "page": 404,
        "location": "Makkiyah"
    },
    "tafsir": {
        "wajiz": "Demikianlah cara Allah menurunkan hujan. Maka, perhatikanlah bekas-bekas rahmat Allah, berupa hujan, bagaimana Allah melalui air hujan itu menghidupkan bumi setelah mati atau kering. Sungguh, jika Allah mampu menghidupkan bumi yang sudah kering dengan air hujan, itu berarti Dia pasti berkuasa juga untuk menghidupkan manusia yang telah mati. Dan Dia Mahakuasa atas segala sesuatu.",
        "tahlili": "Demikianlah rahmat Allah kepada manusia. Allah meminta Nabi Muhammad dan seluruh umatnya untuk melihat bagaimana pengaruh rahmat Allah berupa hujan itu bagi bumi. Tanah yang tadinya mati, kering, dan tandus menjadi hidup, gembur, dan subur, sehingga menumbuhkan segala macam tanaman. Allah menegaskan bahwa peristiwa itu merupakan petunjuk bahwa Allah mampu menghidupkan kembali manusia di akhirat setelah mati. Dalam Al-Qur\u2019an diterangkan bahwa dengan satu tiupan sangkakala saja, semua makhluk hidup akan mati pada hari Kiamat. Kemudian dengan satu tiupan lagi, semuanya akan hidup kembali, baik yang mati sebelum hari Kiamat maupun yang mati pada hari Kiamat itu. Allah berfirman:\n\u0648\u064e\u0646\u064f\u0641\u0650\u062e\u064e \u0641\u0650\u0649 \u0627\u0644\u0635\u0651\u064f\u0648\u0652\u0631\u0650 \u0641\u064e\u0635\u064e\u0639\u0650\u0642\u064e \u0645\u064e\u0646\u0652 \u0641\u0650\u0649 \u0627\u0644\u0633\u0651\u064e\u0645\u0670\u0648\u0670\u062a\u0650 \u0648\u064e\u0645\u064e\u0646\u0652 \u0641\u0650\u0649 \u0627\u0644\u0652\u0627\u064e\u0631\u0652\u0636\u0650 \u0627\u0650\u0644\u0651\u064e\u0627 \u0645\u064e\u0646\u0652 \u0634\u064e\u0627\u06e4\u0621\u064e \u0627\u0644\u0644\u0651\u0670\u0647\u064f \u06d7 \u062b\u064f\u0645\u0651\u064e \u0646\u064f\u0641\u0650\u062e\u064e \u0641\u0650\u064a\u0652\u0647\u0650 \u0627\u064f\u062e\u0652\u0631\u0670\u0649 \u0641\u064e\u0627\u0650\u0630\u064e\u0627 \u0647\u064f\u0645\u0652 \u0642\u0650\u064a\u064e\u0627\u0645\u064c \u064a\u0651\u064e\u0646\u0652\u0638\u064f\u0631\u064f\u0648\u0652\u0646\u064e \u0666\u0668 (\u0627\u0644\u0632\u0645\u0631)\nDan sangkakala pun ditiup, maka matilah semua (makhluk) yang di langit dan di bumi kecuali mereka yang dikehendaki Allah. Kemudian ditiup sekali lagi (sangkakala itu) maka seketika itu mereka bangun (dari kubur-nya) menunggu (keputusan Allah). (az-Zumar/39: 68)\n\nBagaimana hakikat kiamat dan kehidupan kembali itu tidak dapat diketahui dengan pasti, karena termasuk peristiwa gaib yang tidak bisa diketahui secara konkrit sekarang. Manusia hanya perlu mengimaninya bahwa Allah mampu mewujudkan semua itu karena Ia Mahakuasa.",
        "intro_surah": "Surah ar-R\u016bm yang terdiri dari 60 ayat, termasuk golongan surah-surah Makkiyyah dan diturunkan sesudah Surah al-Insyiq\u0101q.\nSurah ini dinamakan ar-R\u016bm karena pada permulaan surah ini, yaitu ayat 2, 3, dan 4 terdapat berita tentang bangsa Romawi yang pada mulanya dikalahkan oleh bangsa Persia, tetapi beberapa tahun kemudian mereka dapat menuntut balas dan mengalahkan kerajaan Persia kembali.\nIni adalah salah satu dari mukjizat Al-Qur\u2019an, yaitu memberitakan hal-hal yang akan terjadi di masa yang akan datang. Ia juga mengisyaratkan bahwa kaum Muslimin yang demikian lemah pada waktu itu akan menang dan menghancurkan kaum musyrik. Isyarat ini terbukti pada perang Badar.\n\nPokok-pokok Isinya:\n1. \tKeimanan:\nBukti-bukti atas kerasulan Nabi Muhammad dengan memberitahukan kepadanya hal yang gaib, seperti kemenangan bangsa Romawi atas kerajaan Persia; bukti-bukti keesaan Allah yang terdapat di alam semesta sebagai makhluk-Nya, dan kejadian-kejadian pada alam itu sendiri; bukti-bukti atas kebenaran adanya hari kebangkitan; contoh dan perumpamaan yang menjelaskan bahwa berhala-berhala dan sembahan-sembahan itu tidak dapat menolong dan memberi manfaat kepada penyembah-penyembahnya sedikit pun.\n2. \tHukum:\nKewajiban menyembah Allah dan mengakui keesaan-Nya sesuai dengan fitrah manusia; kewajiban berdakwah; kewajiban memberikan nafkah (sedekah) kepada kaum kerabat, fakir miskin, musafir, dan sebagainya; larangan mengikuti orang-orang musyrik; hukum riba.\n3. \tKisah:\nPemberitaan tentang bangsa Romawi sebagai umat yang beragama walaupun dikalahkan pada mulanya oleh kerajaan Persia yang menyembah api akhirnya dapat menang kembali.\n4. \tLain-lain:\nManusia umumnya bersifat penuh harapan dan berputus asa apabila ditimpa musibah kecuali orang-orang yang beriman; kewajiban rasul hanya menyampaikan dakwah; kejadian-kejadian yang dialami oleh umat-umat yang terdahulu patut menjadi iktibar dan pelajaran bagi umat yang datang kemudian.\n\n",
        "outro_surah": null,
        "munasabah_prev_surah": "HUBUNGAN SURAH AL-\u2019Ankab\u016bt DENGAN\nSURAH AR-R\u016aM\n\n1. \tBagian permulaan Surah al-\u2018Ankab\u016bt menerangkan tentang jihad sebagai ujian bagi orang-orang mukmin, dan manusia itu dijadikan Allah bukan untuk bersenang-senang, tetapi untuk berusaha dan berjihad di jalan Allah sampai akhir hayatnya. Dalam berusaha dan berjihad di jalan Allah, manusia biasa mendapat halangan dan rintangan. Hanya orang-orang mukmin yang sanggup mengatasi halangan dan rintangan itu, sehingga mereka mendapat kesenangan dan kebahagiaan. Pada akhir Surah al-\u2018Ankab\u016bt ini diulangi lagi pembicaraan tentang jihad. Permulaan Surah ar-R\u016bm mengandung arti bahwa orang mukmin akan mengalahkan orang-orang musyrik dalam waktu dekat. Maka ditinjau dari segi berjihad dan berusaha, Surah ar-R\u016bm adalah sebagai penyempurna dari apa yang dikemukakan dalam Surah al-\u2018Ankab\u016bt.\n2. \tSurah al-\u2018Ankab\u016bt mengemukakan tentang keesaan Allah dan adanya hari kebangkitan secara garis besarnya, sedang Surah ar-R\u016bm menge-mukakan bukti-buktinya secara terperinci\n3. \tSurah al-\u2018Ankab\u016bt menyebutkan bahwa kewajiban rasul-rasul adalah menyampaikan agama Allah, sedang Surah ar-R\u016bm menyebutkan bahwa rasul-rasul-Nya tidak dapat memberi taufik dan hidayah untuk menjadikan seseorang menerima apa yang disampaikannya, hanya Allah-lah yang dapat berbuat demikian.",
        "munasabah_prev_theme": "Dalam ayat-ayat yang lalu dijelaskan bahwa kekafiran terhadap Allah mengakibatkan kesengsaraan bagi manusia baik di dunia maupun di akhirat. Dalam ayat-ayat berikut ini dijelaskan beberapa fenomena alam yang mem-berikan manfaat yang besar bagi manusia. Hal itu hendaknya dijadikan pelajaran oleh manusia untuk iman kepada Allah.",
        "theme_group": "\nANGIN SEBAGAI TANDA KEKUASAAN ALLAH",
        "kosakata": "1. Al-Wadqa \u0627\u064e\u0644\u0652\u0648\u064e\u062f\u0652\u0642\u064e  (ar-R\u016bm/30: 48) \nAl-Wadqa  berasal dari akar kata wadaqa yang artinya menetes. Imam Ibnu Asyur menafsirkan kata al-wadq sebagai kilat karena menurutnya awan yang berlapis-lapis akan mengalirkan listrik yang berakumulasi menjadi kilat. Sedangkan mayoritas ulama memahaminya sebagai air yang menetes dari langit yang biasa disebut hujan. Kata al-wadq disebut dua kali dalam Al-Qur\u2019an, yaitu dalam Surah an-N\u016br/24:43 dan pada Surah ar-R\u016bm/30: 48. \n2. Khil\u0101lih  \u062e\u0650\u0644\u064e\u0627\u064e\u0644\u0650\u0647\u0650 (ar-R\u016bm/30: 48) \nKata khil\u0101lih adalah kata benda, selamanya dalam bentuk jamak tidak ada kata tunggalnya. Artinya posisi sesuatu di tengah-tengah di antara dua hal yang mengapitnya. Kata ini juga bisa ditemui pada Surah al-Isr\u0101\u2019/17: 5.",
        "sabab_nuzul": null,
        "conclusion": "1.\tAngin yang memberikan manfaat yang besar bagi kehidupan manusia menunjukkan adanya Maha Pencipta. Manusia harus mengimani-Nya dan bersyukur kepada-Nya.\n2.\tRasul-rasul diutus Allah untuk membahagiakan manusia. Mereka yang membangkang akan merasakan akibat kejahatan mereka di dunia dan di akhirat masuk neraka. Sedangkan mereka yang iman akan selamat di dunia dan beruntung di akhirat dengan masuk surga.\n3.\tAngin berperan dalam proses terjadinya hujan. Hujan itu turun di tempat yang dikehendaki Allah yaitu tempat yang dilanda kekeringan. Penduduknya yang tadinya sudah putus asa akan bergembira. Oleh karena itu, seharusnya mereka beriman dan bersyukur.\n4.\tHujan menghidupkan kembali tanah yang kering dan tandus. Peristiwa itu menjadi petunjuk bahwa Allah mampu menghidupkan kembali manusia dari kematian hanya dengan tiupan sangkakala. "
    }
}