{
    "id": 3448,
    "surah_id": 30,
    "ayah": 39,
    "page": 408,
    "quarter_hizb": 41.5,
    "juz": 21,
    "manzil": 5,
    "arabic": "\u0648\u064e\u0645\u064e\u0627\u0653 \u0627\u0670\u062a\u064e\u064a\u0652\u062a\u064f\u0645\u0652 \u0645\u0651\u0650\u0646\u0652 \u0631\u0651\u0650\u0628\u064b\u0627 \u0644\u0651\u0650\u064a\u064e\u0631\u0652\u0628\u064f\u0648\u064e\u0627\u06df \u0641\u0650\u064a\u0652\u0653 \u0627\u064e\u0645\u0652\u0648\u064e\u0627\u0644\u0650 \u0627\u0644\u0646\u0651\u064e\u0627\u0633\u0650 \u0641\u064e\u0644\u064e\u0627 \u064a\u064e\u0631\u0652\u0628\u064f\u0648\u0652\u0627 \u0639\u0650\u0646\u0652\u062f\u064e \u0627\u0644\u0644\u0651\u0670\u0647\u0650 \u06da\u0648\u064e\u0645\u064e\u0627\u0653 \u0627\u0670\u062a\u064e\u064a\u0652\u062a\u064f\u0645\u0652 \u0645\u0651\u0650\u0646\u0652 \u0632\u064e\u0643\u0670\u0648\u0629\u064d \u062a\u064f\u0631\u0650\u064a\u0652\u062f\u064f\u0648\u0652\u0646\u064e \u0648\u064e\u062c\u0652\u0647\u064e \u0627\u0644\u0644\u0651\u0670\u0647\u0650 \u0641\u064e\u0627\u064f\u0648\u0644\u0670\u06e4\u0649\u0655\u0650\u0643\u064e \u0647\u064f\u0645\u064f \u0627\u0644\u0652\u0645\u064f\u0636\u0652\u0639\u0650\u0641\u064f\u0648\u0652\u0646\u064e",
    "latin": "Wa m\u0101 \u0101taitum mir ribal liyarbuwa f\u012b amw\u0101lin-n\u0101si fal\u0101 yarb\u016b \u2018indall\u0101h(i), wa m\u0101 \u0101taitum min zak\u0101tin tur\u012bd\u016bna wajhall\u0101hi fa'ul\u0101'ika humul-mu\u1e0d\u2018if\u016bn(a).",
    "translation": "Riba yang kamu berikan agar berkembang pada harta orang lain, tidaklah berkembang dalam pandangan Allah. Adapun zakat yang kamu berikan dengan maksud memperoleh keridaan Allah, (berarti) merekalah orang-orang yang melipatgandakan (pahalanya).",
    "no_footnote": null,
    "footnotes": null,
    "surah": {
        "id": 30,
        "arabic": " \u0627\u0644\u0631\u0651\u0648\u0645",
        "latin": "Ar-R\u016bm",
        "transliteration": "Ar-Rum",
        "translation": "Romawi",
        "num_ayah": 60,
        "page": 404,
        "location": "Makkiyah"
    },
    "tafsir": {
        "wajiz": "Setelah menginformasikan cara membantu orang lain dengan benar melalui zakat, infak, dan sedekah yang dilandasi keikhlasan, melalui ayat ini Allah memperingatkan para pemakan riba dan orang yang menyembunyikan tujuan buruk di balik bantuannya. Dan sesuatu riba yang kamu berikan kepada orang yang terbiasa memakan riba agar harta manusia yang diberi itu semakin bertambah, maka sesungguhnya harta tersebut tidak bertambah dalam pandangan Allah dan tidak pula diberkahi. Dan apa yang kamu berikan kepada orang lain berupa zakat, infak, dan sedekah yang kamu maksudkan untuk memperoleh keridaan Allah, maka itulah orang-orang yang melipatgandakan pahalanya dengan cara yang benar dan bermartabat.",
        "tahlili": "Ayat ini menerangkan riba yang dimaksudkan sebagai hadiah atau memberi untuk memperoleh lebih. Riba adalah pengembalian lebih dari utang. Kelebihan itu adakalanya dimaksudkan sebagai hadiah, dengan harapan bahwa hadiah itu akan berkembang di tangan orang yang menghutangi, lalu orang itu akan balik memberi orang yang membayar utangnya itu dengan lebih banyak daripada yang dihadiahkan kepadanya. Riba seperti itu sering dipraktekkan pada zaman jahiliah. Dalam ayat ini ditegaskan bahwa perilaku bisnis seperti itu tidak memperoleh berkah dari Allah. Ia tidak memperoleh pahala dari-Nya karena pemberian itu tidak ikhlas. Oleh karena itu, para ulama memandang ayat ini sebagai ayat pertama dalam tahap pengharaman riba sampai pengharamannya secara tegas. (Tahap keduanya adalah pada Surah an-Nis\u0101\u2019/4: 161, yang berisi isyarat tentang keharaman riba; tahap ketiga adalah \u0100li \u2018Imr\u0101n/3: 130, bahwa yang diharamkan itu hanyalah riba yang berlipat ganda; tahap keempat adalah al-Baqarah/2: 278, yang mengharamkan riba sama sekali dalam bentuk apa pun). \nAda pula yang memahami ayat ini berkenaan dengan pemberian kepada seseorang untuk maksud memperoleh balasan lebih. Balasan lebih itu di antaranya terhadap pengembalian utang. Itulah yang disebut riba dalam ayat di atas, dan banyak ulama membolehkannya berdasarkan hadis:\n\u0643\u064e\u0627\u0646\u064e \u0631\u064e\u0633\u064f\u0648\u0652\u0644\u064f \u0627\u0644\u0644\u0647\u0650 \u0635\u064e\u0644\u0651\u064e\u0649 \u0627\u0644\u0644\u0651\u0670\u0647\u064f \u0639\u064e\u0644\u064e\u064a\u0652\u0647\u0650 \u0648\u064e\u0633\u064e\u0644\u0651\u064e\u0645\u064e \u064a\u064e\u0642\u0652\u0628\u064e\u0644\u064f \u0627\u0644\u0652\u0647\u064e\u062f\u0650\u064a\u0651\u064e\u0629\u064e \u0648\u064e\u064a\u064f\u062b\u0650\u064a\u0652\u0628\u064f \u0639\u064e\u0644\u064e\u064a\u0652\u0647\u064e\u0627 \u0648\u064e\u0627\u064e\u062b\u064e\u0627\u0628\u064e \u0639\u064e\u0644\u064e\u0649 \u0644\u0650\u0642\u0652\u062d\u064e\u0629\u064d \u0648\u064e\u0644\u064e\u0645\u0652 \u064a\u064f\u0646\u0652\u0643\u0650\u0631\u0652 \u0639\u064e\u0644\u064e\u0649 \u0635\u064e\u0627\u062d\u0650\u0628\u0650\u0647\u064e\u0627 \u062d\u0650\u064a\u0652\u0646\u064e \u0637\u064e\u0644\u064e\u0628\u064e \u0627\u0644\u062b\u0651\u064e\u0648\u064e\u0627\u0628\u064e \u0648\u064e\u0627\u0650\u0646\u0651\u064e\u0645\u064e\u0627 \u0627\u064e\u0646\u0652\u0643\u064e\u0631\u064e \u0633\u064f\u062e\u0652\u0637\u064e\u0647\u064f \u0644\u0650\u0644\u062b\u0651\u064e\u0648\u064e\u0627\u0628\u0650 \u0648\u064e\u0643\u064e\u0627\u0646\u064e \u0632\u064e\u0627\u0626\u0650\u062f\u064b\u0627 \u0639\u064e\u0644\u064e\u0649 \u0627\u0644\u0652\u0642\u064a\u0652\u0645\u064e\u0629\u0650. (\u0631\u0648\u0627\u0647 \u0627\u0644\u0628\u062e\u0627\u0631\u064a \u0639\u0646 \u0639\u0627\u0626\u0634\u0629)\nRasulullah menerima hadiah dan memberi balasan atas hadiah itu. Beliau memberikan balasan atas hadiah seekor unta perahan yang diberikan kepadanya, dan beliau tidak menyangkal pemiliknya ketika dia meminta balasan. Beliau hanya mengingkari kemarahan pemberian hadiah itu karena pembalasan itu nilainya lebih dari nilai hadiah. (Riwayat al-Bukh\u0101r\u012b dari \u2018Aisyah)\n\nAkan tetapi, berdasarkan hadis itu, yang dibenarkan sesungguhnya adalah membalas dengan lebih suatu pemberian, bukan membayar utang lebih dari seharusnya. \nMemberi dengan maksud memperoleh balasan lebih dari yang diberikan menunjukkan ketidakikhlasan yang memberi. Hal ini juga tidak dibenarkan. Firman Allah:  \n\u0648\u064e\u0644\u064e\u0627 \u062a\u064e\u0645\u0652\u0646\u064f\u0646\u0652 \u062a\u064e\u0633\u0652\u062a\u064e\u0643\u0652\u062b\u0650\u0631\u064f\u06d6 \u0666 (\u0627\u0644\u0645\u062f\u0651\u062b\u0651\u0631)\nDan janganlah engkau (Muhammad) memberi (dengan maksud) memperoleh (balasan) yang lebih banyak. (al-Mudda\u1e61\u1e61ir/74: 6)\n\nSalah satu bentuk pemberian yang dimaksudkan untuk memperoleh balasan lebih adalah memberi dengan maksud agar orang itu patuh pada yang memberi, mau membantunya, dan sebagainya. Itu juga tidak dibenarkan, karena tidak ikhlas.\nSecara lahiriah, larangan dalam ayat itu ditujukan kepada Nabi saw. Akan tetapi, juga dimaksudkan untuk seluruh umatnya.\nAdapun yang akan dilipatgandakan oleh Allah baik pahalanya maupun harta itu sendiri adalah pemberian secara tulus, yang dalam ayat ini diungkapkan dengan istilah zakat (secara harfiah berarti suci). Zakat di sini maksudnya sedekah yang hukumnya sunah, bukan zakat yang hukumnya wajib. Orang yang bersedekah karena mengharapkan pahala dari Allah, pasti akan dilipatgandakan pahala atau balasannya oleh Allah minimal tujuh ratus kali lipat, sebagaimana difirmankan-Nya dalam al-Baqarah/2: 261:\n\u0645\u064e\u062b\u064e\u0644\u064f \u0627\u0644\u0651\u064e\u0630\u0650\u064a\u0652\u0646\u064e \u064a\u064f\u0646\u0652\u0641\u0650\u0642\u064f\u0648\u0652\u0646\u064e \u0627\u064e\u0645\u0652\u0648\u064e\u0627\u0644\u064e\u0647\u064f\u0645\u0652 \u0641\u0650\u064a\u0652 \u0633\u064e\u0628\u0650\u064a\u0652\u0644\u0650 \u0627\u0644\u0644\u0651\u0670\u0647\u0650 \u0643\u064e\u0645\u064e\u062b\u064e\u0644\u0650 \u062d\u064e\u0628\u0651\u064e\u0629\u064d \u0627\u064e\u0646\u0652\u06e2\u0628\u064e\u062a\u064e\u062a\u0652 \u0633\u064e\u0628\u0652\u0639\u064e \u0633\u064e\u0646\u064e\u0627\u0628\u0650\u0644\u064e \u0641\u0650\u064a\u0652 \u0643\u064f\u0644\u0651\u0650 \u0633\u064f\u0646\u0652\u06e2\u0628\u064f\u0644\u064e\u0629\u064d \u0645\u0651\u0650\u0627\u0626\u064e\u0629\u064f \u062d\u064e\u0628\u0651\u064e\u0629\u064d \u06d7 \u0648\u064e\u0627\u0644\u0644\u0651\u0670\u0647\u064f \u064a\u064f\u0636\u0670\u0639\u0650\u0641\u064f \u0644\u0650\u0645\u064e\u0646\u0652 \u064a\u0651\u064e\u0634\u064e\u0627\u06e4\u0621\u064f \u06d7\u0648\u064e\u0627\u0644\u0644\u0651\u0670\u0647\u064f \u0648\u064e\u0627\u0633\u0650\u0639\u064c \u0639\u064e\u0644\u0650\u064a\u0652\u0645\u064c \u0662\u0666\u0661 (\u0627\u0644\u0628\u0642\u0631\u0629)\nPerumpamaan orang yang menginfakkan hartanya di jalan Allah seperti sebutir biji yang menumbuhkan tujuh tangkai, pada setiap tangkai ada seratus biji. Allah melipatgandakan bagi siapa yang Dia kehendaki, dan Allah Mahaluas, Maha Mengetahui. (al-Baqarah/2: 261)\n\nDi samping itu, sedekah juga akan melipatgandakan kekayaan pemilik modal, karena memperkuat daya beli masyarakat secara luas. Kuatnya daya beli masyarakat akan meminta pertambahan produksi. Pertambahan produksi akan meminta pertambahan lembaga-lembaga produksi (pabrik, perusahaan, dan sebagainya). Pertambahan lembaga-lembaga produksi akan membuka lapangan kerja sehingga dengan sendirinya akan meminta pertambahan tenaga kerja. Pertambahan tenaga kerja akan meningkatkan pendapatan masyarakat sehingga meningkatkan daya beli mereka, dan seterusnya. Demikianlah terjadi siklus peningkatan daya beli, produksi, tenaga kerja, dan sebagainya, sehingga ekonomi yang didasarkan atas pemberdayaan masyarakat luas itu akan selalu meningkatkan kemajuan perekonomian. Sedangkan perekonomian yang didasarkan atas riba, yaitu pengembalian lebih dari utang, selalu mengandung eksploitasi, yang lambat laun akan memundurkan perekonomian. ",
        "intro_surah": "Surah ar-R\u016bm yang terdiri dari 60 ayat, termasuk golongan surah-surah Makkiyyah dan diturunkan sesudah Surah al-Insyiq\u0101q.\nSurah ini dinamakan ar-R\u016bm karena pada permulaan surah ini, yaitu ayat 2, 3, dan 4 terdapat berita tentang bangsa Romawi yang pada mulanya dikalahkan oleh bangsa Persia, tetapi beberapa tahun kemudian mereka dapat menuntut balas dan mengalahkan kerajaan Persia kembali.\nIni adalah salah satu dari mukjizat Al-Qur\u2019an, yaitu memberitakan hal-hal yang akan terjadi di masa yang akan datang. Ia juga mengisyaratkan bahwa kaum Muslimin yang demikian lemah pada waktu itu akan menang dan menghancurkan kaum musyrik. Isyarat ini terbukti pada perang Badar.\n\nPokok-pokok Isinya:\n1. \tKeimanan:\nBukti-bukti atas kerasulan Nabi Muhammad dengan memberitahukan kepadanya hal yang gaib, seperti kemenangan bangsa Romawi atas kerajaan Persia; bukti-bukti keesaan Allah yang terdapat di alam semesta sebagai makhluk-Nya, dan kejadian-kejadian pada alam itu sendiri; bukti-bukti atas kebenaran adanya hari kebangkitan; contoh dan perumpamaan yang menjelaskan bahwa berhala-berhala dan sembahan-sembahan itu tidak dapat menolong dan memberi manfaat kepada penyembah-penyembahnya sedikit pun.\n2. \tHukum:\nKewajiban menyembah Allah dan mengakui keesaan-Nya sesuai dengan fitrah manusia; kewajiban berdakwah; kewajiban memberikan nafkah (sedekah) kepada kaum kerabat, fakir miskin, musafir, dan sebagainya; larangan mengikuti orang-orang musyrik; hukum riba.\n3. \tKisah:\nPemberitaan tentang bangsa Romawi sebagai umat yang beragama walaupun dikalahkan pada mulanya oleh kerajaan Persia yang menyembah api akhirnya dapat menang kembali.\n4. \tLain-lain:\nManusia umumnya bersifat penuh harapan dan berputus asa apabila ditimpa musibah kecuali orang-orang yang beriman; kewajiban rasul hanya menyampaikan dakwah; kejadian-kejadian yang dialami oleh umat-umat yang terdahulu patut menjadi iktibar dan pelajaran bagi umat yang datang kemudian.\n\n",
        "outro_surah": null,
        "munasabah_prev_surah": "HUBUNGAN SURAH AL-\u2019Ankab\u016bt DENGAN\nSURAH AR-R\u016aM\n\n1. \tBagian permulaan Surah al-\u2018Ankab\u016bt menerangkan tentang jihad sebagai ujian bagi orang-orang mukmin, dan manusia itu dijadikan Allah bukan untuk bersenang-senang, tetapi untuk berusaha dan berjihad di jalan Allah sampai akhir hayatnya. Dalam berusaha dan berjihad di jalan Allah, manusia biasa mendapat halangan dan rintangan. Hanya orang-orang mukmin yang sanggup mengatasi halangan dan rintangan itu, sehingga mereka mendapat kesenangan dan kebahagiaan. Pada akhir Surah al-\u2018Ankab\u016bt ini diulangi lagi pembicaraan tentang jihad. Permulaan Surah ar-R\u016bm mengandung arti bahwa orang mukmin akan mengalahkan orang-orang musyrik dalam waktu dekat. Maka ditinjau dari segi berjihad dan berusaha, Surah ar-R\u016bm adalah sebagai penyempurna dari apa yang dikemukakan dalam Surah al-\u2018Ankab\u016bt.\n2. \tSurah al-\u2018Ankab\u016bt mengemukakan tentang keesaan Allah dan adanya hari kebangkitan secara garis besarnya, sedang Surah ar-R\u016bm menge-mukakan bukti-buktinya secara terperinci\n3. \tSurah al-\u2018Ankab\u016bt menyebutkan bahwa kewajiban rasul-rasul adalah menyampaikan agama Allah, sedang Surah ar-R\u016bm menyebutkan bahwa rasul-rasul-Nya tidak dapat memberi taufik dan hidayah untuk menjadikan seseorang menerima apa yang disampaikannya, hanya Allah-lah yang dapat berbuat demikian.",
        "munasabah_prev_theme": "Pada ayat-ayat yang lalu dijelaskan dua perilaku orang kafir berkenaan dengan nikmat dari Allah, yaitu bila memperoleh keberuntungan lupa daratan, dan bila ditimpa kesusahan cepat putus asa. Sifat-sifat itu dapat mengantarkan manusia kepada kekafiran. Pada ayat-ayat berikut ini dijelaskan bagaimana nikmat berupa rezeki digunakan untuk menolong sesama manusia. Oleh sebab itu, riba dilarang karena merugikan, sedangkan zakat dianjurkan karena memberi manfaat.\n",
        "theme_group": "PENGGUNAAN REZEKI",
        "kosakata": "Kosakata: al-Mu\u1e0d\u2019if\u016bn \u0627\u064e\u0644\u0652\u0645\u064f\u0636\u0652\u0639\u0650\u0641\u064f\u0648\u0652\u0646\u064e  (ar-R\u016bm/30: 39) \nAl-Mu\u1e0d\u2019if\u016bn berasal dari kata \u1e0da\u2019afa. Al-Mu\u1e0d\u2019if\u016bn adalah isim f\u0101\u2019il yang berarti melipatgandakan (pahalanya) dengan membayar zakat. Harta yang dizakati kelihatan berkurang, tetapi akan membawa berkah bagi yang melakukannya. Zakat juga bisa meningkatkan daya beli para fakir miskin yang menerimanya. Sedangkan orang yang mengeluarkannya akan dicintai oleh mereka. Dengan zakat, harta akan berputar terus, tidak berhenti pada orang kaya saja. Dengan demikian, zakat akan ikut serta dalam menciptakan iklim ekonomi yang baik. \nAyat ini mengisyaratkan perlunya kebersihan dan kesucian jiwa ketika bersedekah agar harta tersebut dapat berkembang atau berlipat ganda. Ayat ini juga menunjukkan bahwa ketika berzakat diperlukan ketulusan si pemberi zakat agar zakatnya diterima Allah dan pahalanya dilipatgandakan.",
        "sabab_nuzul": null,
        "conclusion": null
    }
}