{
    "id": 3467,
    "surah_id": 30,
    "ayah": 58,
    "page": 410,
    "quarter_hizb": 41.75,
    "juz": 21,
    "manzil": 5,
    "arabic": "\u0648\u064e\u0644\u064e\u0642\u064e\u062f\u0652 \u0636\u064e\u0631\u064e\u0628\u0652\u0646\u064e\u0627 \u0644\u0650\u0644\u0646\u0651\u064e\u0627\u0633\u0650 \u0641\u0650\u064a\u0652 \u0647\u0670\u0630\u064e\u0627 \u0627\u0644\u0652\u0642\u064f\u0631\u0652\u0627\u0670\u0646\u0650 \u0645\u0650\u0646\u0652 \u0643\u064f\u0644\u0651\u0650 \u0645\u064e\u062b\u064e\u0644\u064d\u06d7 \u0648\u064e\u0644\u064e\u0649\u0655\u0650\u0646\u0652 \u062c\u0650\u0626\u0652\u062a\u064e\u0647\u064f\u0645\u0652 \u0628\u0650\u0627\u0670\u064a\u064e\u0629\u064d \u0644\u0651\u064e\u064a\u064e\u0642\u064f\u0648\u0652\u0644\u064e\u0646\u0651\u064e \u0627\u0644\u0651\u064e\u0630\u0650\u064a\u0652\u0646\u064e \u0643\u064e\u0641\u064e\u0631\u064f\u0648\u0652\u0653\u0627 \u0627\u0650\u0646\u0652 \u0627\u064e\u0646\u0652\u062a\u064f\u0645\u0652 \u0627\u0650\u0644\u0651\u064e\u0627 \u0645\u064f\u0628\u0652\u0637\u0650\u0644\u064f\u0648\u0652\u0646\u064e",
    "latin": "Wa laqad \u1e0darabn\u0101 lin-n\u0101si f\u012b h\u0101\u017cal-qur'\u0101ni min kulli ma\u1e61al(in), wa la'in ji'tahum bi'\u0101yatil layaq\u016blannal-la\u017c\u012bna kafar\u016b in antum ill\u0101 mub\u1e6dil\u016bn(a).",
    "translation": "Sungguh, Kami benar-benar telah menjelaskan dalam Al-Qur\u2019an ini segala macam perumpamaan kepada manusia. Sungguh, jika engkau membawa suatu ayat kepada mereka, pastilah orang-orang kafir itu akan berkata, \u201cKamu hanyalah pembuat kepalsuan belaka.\u201d ",
    "no_footnote": null,
    "footnotes": null,
    "surah": {
        "id": 30,
        "arabic": " \u0627\u0644\u0631\u0651\u0648\u0645",
        "latin": "Ar-R\u016bm",
        "transliteration": "Ar-Rum",
        "translation": "Romawi",
        "num_ayah": 60,
        "page": 404,
        "location": "Makkiyah"
    },
    "tafsir": {
        "wajiz": "Beralih dari pemaparan mengenai bukti keesaan-Nya dan kebenaran risalah Nabi Muhammad, pada ayat ini Allah menjelaskan sikap orang kafir. Dan sesungguhnya telah Kami jelaskan kepada manusia segala macam perumpamaan dalam Al-Qur\u2019an ini perihal bukti keesaan-Ku, keniscayaan hari kebangkitan, dan kebenaran risalah Nabi Muhammad. Meski begitu, jika engkau membawa suatu ayat yang lain kepada mereka, pastilah orang-orang kafir itu akan tetap berkata, \u201cKamu hanyalah orang-orang yang membuat kepalsuan belaka. Apa yang engkau bawa adalah sihir semata.\u201d ",
        "tahlili": "Dalam ayat ini dinyatakan bahwa Allah telah menyampaikan berbagai penjelasan tentang bukti bahwa Ia ada dan Mahakuasa. Di antaranya adalah bagaimana umat-umat terdahulu beserta peradabannya hancur karena melanggar ketentuan-ketentuan Allah, bagaimana Dia menurunkan hujan yang amat besar pengaruhnya bagi kesuburan dan kemakmuran, dan bagaimana Dia menentukan perjalanan hidup manusia sampai mati dan dibangkitkan kembali di akhirat. Semuanya itu menunjukkan Allah Mahakuasa, dan sekaligus menunjukkan bahwa kehidupan kembali di akhirat itu ada. Akan tetapi, mereka yang tidak mau beriman mengingkari semua itu sebagai tanda adanya Allah dan kemahakuasaan-Nya. Bahkan mereka menuduh orang yang beriman telah menyampaikan ketidakbenaran dan melakukan kebohongan.",
        "intro_surah": "Surah ar-R\u016bm yang terdiri dari 60 ayat, termasuk golongan surah-surah Makkiyyah dan diturunkan sesudah Surah al-Insyiq\u0101q.\nSurah ini dinamakan ar-R\u016bm karena pada permulaan surah ini, yaitu ayat 2, 3, dan 4 terdapat berita tentang bangsa Romawi yang pada mulanya dikalahkan oleh bangsa Persia, tetapi beberapa tahun kemudian mereka dapat menuntut balas dan mengalahkan kerajaan Persia kembali.\nIni adalah salah satu dari mukjizat Al-Qur\u2019an, yaitu memberitakan hal-hal yang akan terjadi di masa yang akan datang. Ia juga mengisyaratkan bahwa kaum Muslimin yang demikian lemah pada waktu itu akan menang dan menghancurkan kaum musyrik. Isyarat ini terbukti pada perang Badar.\n\nPokok-pokok Isinya:\n1. \tKeimanan:\nBukti-bukti atas kerasulan Nabi Muhammad dengan memberitahukan kepadanya hal yang gaib, seperti kemenangan bangsa Romawi atas kerajaan Persia; bukti-bukti keesaan Allah yang terdapat di alam semesta sebagai makhluk-Nya, dan kejadian-kejadian pada alam itu sendiri; bukti-bukti atas kebenaran adanya hari kebangkitan; contoh dan perumpamaan yang menjelaskan bahwa berhala-berhala dan sembahan-sembahan itu tidak dapat menolong dan memberi manfaat kepada penyembah-penyembahnya sedikit pun.\n2. \tHukum:\nKewajiban menyembah Allah dan mengakui keesaan-Nya sesuai dengan fitrah manusia; kewajiban berdakwah; kewajiban memberikan nafkah (sedekah) kepada kaum kerabat, fakir miskin, musafir, dan sebagainya; larangan mengikuti orang-orang musyrik; hukum riba.\n3. \tKisah:\nPemberitaan tentang bangsa Romawi sebagai umat yang beragama walaupun dikalahkan pada mulanya oleh kerajaan Persia yang menyembah api akhirnya dapat menang kembali.\n4. \tLain-lain:\nManusia umumnya bersifat penuh harapan dan berputus asa apabila ditimpa musibah kecuali orang-orang yang beriman; kewajiban rasul hanya menyampaikan dakwah; kejadian-kejadian yang dialami oleh umat-umat yang terdahulu patut menjadi iktibar dan pelajaran bagi umat yang datang kemudian.\n\n",
        "outro_surah": null,
        "munasabah_prev_surah": "HUBUNGAN SURAH AL-\u2019Ankab\u016bt DENGAN\nSURAH AR-R\u016aM\n\n1. \tBagian permulaan Surah al-\u2018Ankab\u016bt menerangkan tentang jihad sebagai ujian bagi orang-orang mukmin, dan manusia itu dijadikan Allah bukan untuk bersenang-senang, tetapi untuk berusaha dan berjihad di jalan Allah sampai akhir hayatnya. Dalam berusaha dan berjihad di jalan Allah, manusia biasa mendapat halangan dan rintangan. Hanya orang-orang mukmin yang sanggup mengatasi halangan dan rintangan itu, sehingga mereka mendapat kesenangan dan kebahagiaan. Pada akhir Surah al-\u2018Ankab\u016bt ini diulangi lagi pembicaraan tentang jihad. Permulaan Surah ar-R\u016bm mengandung arti bahwa orang mukmin akan mengalahkan orang-orang musyrik dalam waktu dekat. Maka ditinjau dari segi berjihad dan berusaha, Surah ar-R\u016bm adalah sebagai penyempurna dari apa yang dikemukakan dalam Surah al-\u2018Ankab\u016bt.\n2. \tSurah al-\u2018Ankab\u016bt mengemukakan tentang keesaan Allah dan adanya hari kebangkitan secara garis besarnya, sedang Surah ar-R\u016bm menge-mukakan bukti-buktinya secara terperinci\n3. \tSurah al-\u2018Ankab\u016bt menyebutkan bahwa kewajiban rasul-rasul adalah menyampaikan agama Allah, sedang Surah ar-R\u016bm menyebutkan bahwa rasul-rasul-Nya tidak dapat memberi taufik dan hidayah untuk menjadikan seseorang menerima apa yang disampaikannya, hanya Allah-lah yang dapat berbuat demikian.",
        "munasabah_prev_theme": "Dalam ayat-ayat yang lalu telah dikemukakan berbagai bukti kemahakuasaan Allah, dari alam empiris, alam manusia, sampai alam akhirat. Hal ini bertujuan untuk memberi bukti keberadaan Allah dan kekuasaan-Nya. Dalam ayat-ayat berikut ini disampaikan bahwa berbagai perumpamaan seputar iman dan kafir, fungsi keberadaan Allah dan berhala-berhala yang mereka pertahankan telah dipaparkan Allah dalam Al-Qur\u2019an, namun orang kafir tetap tidak mempercayainya. \n",
        "theme_group": "SEMUA AYAT DIINGKARI ORANG KAFIR",
        "kosakata": "Kosakata: Ya\u1e6dba\u2018u  \u064a\u064e\u0637\u0652\u0628\u064e\u0639\u064f (ar-R\u016bm/30: 59)\nKata ya\u1e6dba\u2018u terambil dari fi\u2018il ma\u1e0di \u1e6daba\u2018a yang secara kebahasaan berarti mengunci mati, mencetak, mencap, menutup, dan sejenisnya. Dalam konteks ayat di atas, kata ya\u1e6dba\u2018u dimaksudkan sebagai penjelas bahwa Allah telah mengunci mati pintu hati orang-orang kafir dari menerima kebenaran. Oleh karena itu, kendati berbagai bukti kebenaran telah dibeberkan secara panjang lebar kepada mereka di dalam Al-Qur\u2019an, tetap saja mereka tidak akan mengimaninya. Bahkan pada ayat sebelumnya dijelaskan, ketika bukti-bukti kebenaran itu ditunjukkan, mereka selalu berkomentar sinis, \u201cKamu tidak lain hanyalah orang-orang yang membuat kepalsuan belaka.\u201d (ar-R\u016bm/30: 58). ",
        "sabab_nuzul": null,
        "conclusion": null
    }
}