{
    "id": 3472,
    "surah_id": 31,
    "ayah": 3,
    "page": 411,
    "quarter_hizb": 41.75,
    "juz": 21,
    "manzil": 5,
    "arabic": "\u0647\u064f\u062f\u064b\u0649 \u0648\u0651\u064e\u0631\u064e\u062d\u0652\u0645\u064e\u0629\u064b \u0644\u0651\u0650\u0644\u0652\u0645\u064f\u062d\u0652\u0633\u0650\u0646\u0650\u064a\u0652\u0646\u064e\u06d9 ",
    "latin": "Hudaw wa ra\u1e25matal lil-mu\u1e25sin\u012bn(a).",
    "translation": "sebagai petunjuk dan rahmat bagi orang-orang yang berbuat kebaikan,",
    "no_footnote": null,
    "footnotes": null,
    "surah": {
        "id": 31,
        "arabic": " \u0644\u0642\u0645\u0670\u0646",
        "latin": "Luqm\u0101n ",
        "transliteration": "Luqman",
        "translation": "Luqman",
        "num_ayah": 34,
        "page": 411,
        "location": "Makkiyah"
    },
    "tafsir": {
        "wajiz": "Kami turunkan Al-Qur\u2019an ini sebagai petunjuk dan rahmat bagi orang-orang yang berbuat kebaikan, yaitu mereka yang senantiasa beramal saleh dengan ikhlas.",
        "tahlili": "Ayat-ayat ini menegaskan bahwa ayat-ayat Al-Qur\u2019an berisi petunjuk-petunjuk bagi manusia dalam mengarungi semua sisi kehidupan di dunia yang mengantar dan memimpinnya mencapai kebahagiaan hidup di akhirat kelak.\nJika manusia membuka lembaran-lembaran sejarah dari zaman dahulu sampai sekarang, ia akan berkesimpulan bahwa dengan diutusnya Nabi Muhammad oleh Allah dengan membawa Al-Qur\u2019an yang berisi pokok-pokok risalah yang dibawanya, maka terbukalah pintu-pintu kebajikan bagi semesta alam. Dengan hal itu, bertambah pulalah perkembangan ilmu pengetahuan dengan segala macam cabangnya.\nSekalipun telah ada kebudayaan yang tinggi sebagai hasil pemikiran manusia pada periode sebelum ini, seperti kebudayaan Mesir kuno, Babilonia, Yunani, dan sebagainya, namun semua itu belum mempunyai dasar-dasar yang kuat dan kukuh untuk mencapai perkembangan manusia lebih lanjut dan sempurna di kemudian hari.\nDalam bidang hidup dan kehidupan manusia, Al-Qur\u2019an memberi petunjuk agar manusia menjaga keseimbangan antara kehidupan jasmani dan rohani, serta keseimbangan dalam mencapai kehidupan duniawi dan ukhrawi. Demikian pula dalam hidup bermasyarakat dan bernegara, apa yang halal dan baik untuk dimakan boleh dimakan dan apa yang tidak baik jangan dimakan. Juga terdapat tuntunan cara berbicara dan bergaul yang baik dan sebagainya. Al-Qur\u2019an memberi petunjuk dan aturannya, kemudian manusia mengolah dan menyesuaikan dirinya dengan alam sekelilingnya berdasarkan petunjuk dan aturan itu, mana yang paling baik dan tepat untuk dilaksanakan, dan mana yang harus dijauhi dan ditinggalkan. Orang-orang yang memikirkan, merenungkan, mengolah, dan mengamalkan petunjuk-petunjuk Al-Qur\u2019an dengan sebaik-baiknya adalah \u201corang-orang yang muhsin\u201d.",
        "intro_surah": "Surah Luqm\u0101n terdiri dari 34 ayat, turun di Mekah setelah Surah a\u1e63-\u1e62\u0101ff\u0101t. Surah ini dinamai Surah Luqm\u0101n karena di dalamnya terdapat kisah Luqm\u0101n menasihati anaknya. Di dalam kisah itu terkandung pelajaran, yaitu agar setiap orang tua mendidik anak-anaknya agama dan akhlak yang baik.\n\nPokok-pokok Isinya:\n1. \tKeimanan:\nAl-Qur\u2019an merupakan petunjuk dan rahmat dirasakan benar-benar manfaatnya oleh orang mukmin; keadaan di langit dan di bumi serta keajaiban yang terdapat pada keduanya adalah bukti-bukti atas keesaan dan kekuasaan Allah; manusia tidak akan selamat kecuali dengan taat kepada perintah-perintah Tuhan dan berbuat amal-amal yang saleh, lima hal gaib yang hanya diketahui oleh Allah sendiri; ilmu Allah meliputi segala-galanya baik yang lahir maupun yang batin.\n2. \tHukum:\nKewajiban patuh dan berbakti kepada ibu bapak selama tidak berten-tangan dengan ketentuan-ketentuan Allah, perintah supaya memperhatikan alam dan kewajiban untuk memperkuat keimanan dan kepercayaan akan keesaan Tuhan; perintah supaya selalu bertakwa dan takut akan pembalasan Tuhan pada hari Kiamat di waktu seseorang tidak dapat ditolong baik oleh anak atau bapaknya.\n3. \tKisah:\nKisah Lukman, ilmu, dan hikmah yang didapatnya.\n4. \tLain-lain:\nOrang-orang yang sesat dari jalan Allah dan selalu memperolok-olokkan ayat-ayat-Nya; celaan terhadap orang-orang musyrik karena tidak meng-hiraukan seruan untuk memperhatikan alam dan tidak menyembah Penciptanya; menghibur hati Rasulullah saw terhadap keingkaran orang-orang musyrik, karena hal ini bukanlah karena kelalaiannya, nikmat dan karunia Allah tidak dapat dihitung.\n",
        "outro_surah": null,
        "munasabah_prev_surah": "HUBUNGAN SURAH AR-R\u016aM\nDENGAN SURAH LUQM\u0100N\n\n1.\tKedua surah sama-sama diawali dengan adanya manusia yang iman dan manusia yang kafir. Bedanya adalah bahwa dalam Surah ar-R\u016bm yang ditekankan adalah kehancuran orang-orang yang kafir seperti umat-umat terdahulu dan di akhirat masuk neraka, sedangkan orang-orang yang berwiman dijanjikan kemenangan di dunia dan di akhirat mereka akan masuk surga. Dalam Surah Luqm\u0101n yang ditekankan adalah keberuntungan yang akan diperoleh orang-orang yang beriman dan berbuat baik, serta kerugian orang-orang yang kafir di akhirat.\n2.\tKedua surah juga mengemukakan alam sebagai tanda keberadaan Allah dan kemahakuasaan-Nya. Dalam Surah ar-R\u016bm yang ditonjolkan adalah kehebatan alam itu sebagai tanda kekuasaan-Nya, sedangkan dalam Surah Luqm\u0101n yang ditonjolkan adalah kemanfaatan alam tersebut. Keduanya bisa mengantarkan dan mendorong manusia untuk beriman.\n3.\tKedua surah juga mengetengahkan kesamaan sikap kaum kafir terhadap Al-Qur\u2019an yaitu mereka tidak mempercayainya. Dalam Surah ar-R\u016bm, mereka mengatakan bahwa Al-Qur\u2019an adalah sesuatu yang batil atau menyesatkan (mub\u1e6dil) sehingga mereka menolaknya. Sedangkan dalam Surah Luqm\u0101n, mereka bersikap membelakangi Al-Qur\u2019an dan tidak mau mendengarkannya.\n4.\tKedua surah juga menyatakan bahwa Kiamat pasti, dan janji Allah, baik bagi mereka yang beriman maupun bagi mereka yang kafir, juga pasti. Di akhir Surah ar-R\u016bm, Nabi saw diminta tabah menghadapi mereka yang tidak percaya, dan di akhir Surah Luqm\u0101n, manusia dihimbau agar mempersiapkan diri menghadapi Kiamat itu. ",
        "munasabah_prev_theme": "Pada akhir Surah ar-R\u016bm, Allah memerintahkan Nabi Muhammad dan kaum Muslimin untuk tetap sabar dan tabah dalam menghadapi segala macam tindakan dan perlakuan orang-orang kafir, karena Allah berjanji akan menolong mereka. Pada ayat-ayat berikut ini dijelaskan bahwa Allah menurunkan Al-Qur\u2019an yang penuh dengan petunjuk dan rahmat bagi orang-orang yang berbuat kebaikan, karena mereka adalah orang-orang yang akan berbahagia dan beruntung. ",
        "theme_group": "AL-QUR\u2019AN PETUNJUK DAN RAHMAT\nBAGI MANUSIA\n",
        "kosakata": "Kosakata: Al-\u0100khirah \u0627\u064e\u0644\u0622\u062e\u0650\u0631\u064e\u0629\u0650 (Luqm\u0101n/31: 4)\nKata al-\u0101khirah secara kebahasaan berarti hari akhir, hari penghabisan, atau kehidupan lanjutan (yang kekal) setelah kehidupan di dunia (yang fana) ini berakhir. Kata al-\u0101khirah dalam konteks ayat di atas tidak bisa dilepaskan dari ayat sebelumnya, karena Allah sesungguhnya sedang menjelaskan predikat al-mu\u1e25sin\u012bn yang terdapat pada ayat sebelumnya. Dijelaskan-Nya, al-mu\u1e25sin\u012bn adalah orang-orang yang mendirikan salat, membayar zakat, dan yakin pada al-\u0101khirah, yaitu kehidupan lain setelah kehidupan di dunia ini. Al-\u0100khirah itulah tempat pembalasan bagi manusia atas segala perbuatan yang dilakukannya selama hidup di dunia.",
        "sabab_nuzul": null,
        "conclusion": null
    }
}