{
    "id": 3511,
    "surah_id": 32,
    "ayah": 8,
    "page": 415,
    "quarter_hizb": 42,
    "juz": 21,
    "manzil": 5,
    "arabic": "\u062b\u064f\u0645\u0651\u064e \u062c\u064e\u0639\u064e\u0644\u064e \u0646\u064e\u0633\u0652\u0644\u064e\u0647\u0657 \u0645\u0650\u0646\u0652 \u0633\u064f\u0644\u0670\u0644\u064e\u0629\u064d \u0645\u0651\u0650\u0646\u0652 \u0645\u0651\u064e\u0627\u06e4\u0621\u064d \u0645\u0651\u064e\u0647\u0650\u064a\u0652\u0646\u064d \u06da ",
    "latin": "\u1e60umma ja\u2018ala naslah\u016b min sul\u0101latim mim m\u0101'im mah\u012bn(in).",
    "translation": "Kemudian, Dia menjadikan keturunannya dari sari pati air yang hina (air mani).",
    "no_footnote": null,
    "footnotes": null,
    "surah": {
        "id": 32,
        "arabic": " \u0627\u0644\u0633\u0651\u062c\u062f\u0629",
        "latin": "As-Sajdah",
        "transliteration": "As-Sajdah",
        "translation": "Sajdah",
        "num_ayah": 30,
        "page": 415,
        "location": "Makkiyah"
    },
    "tafsir": {
        "wajiz": "Allah menciptakan Adam dari tanah, kemudian Dia menjadikan keturunannya dari sari pati air yang hina, yakni air mani.",
        "tahlili": "Ayat ini menerangkan bahwa Allah menciptakan keturunan manusia dari sperma, yaitu air yang sedikit dan memancar, yang bertemu dengan sel telur. Hasil pertemuan ini disebut dengan nu\u1e6dfah. ",
        "intro_surah": "Surah as-Sajdah terdiri dari 30 ayat, termasuk kelompok surah-surah Makkiyah, diturunkan sesudah surah Al-Mu\u2019min\u016bn.\nDinamakan \u201cAs-Sajdah\u201d berhubung pada surah ini terdapat ayat sajdah, yaitu pada ayat yang kelima belas.\n\nPokok-pokok Isinya:\n1. \tKeimanan:\nMenyatakan bahwa Nabi Muhammad itu benar-benar seorang rasul, dan menjelaskan bahwa belum pernah diutus seorang rasul pun kepada kaum musyrik Mekah sebelumnya; menegaskan bahwa Allah Maha Esa, bahwa Dia-lah yang menguasai alam semesta dan Dia-lah yang meng-aturnya dengan aturan yang paling sempurna; menyatakan bahwa hari kebangkitan benar-benar akan terjadi.\n2. \tHukum-hukum:\nAnjuran melakukan salat malam (salat Tahajud dan salat Witir).\n3. \tDan lain-lain:\nKeterangan mengenai kejadian manusia di dalam rahim dan fase-fase yang dilaluinya sampai menjadi manusia; penjelasan bagaimana keadaan orang-orang mukmin di dunia dan nikmat serta pahala yang disediakan Allah bagi mereka di akhirat; kehinaan yang menimpa orang-orang kafir di akhirat, dan mereka pada waktu itu meminta supaya dikembalikan saja ke dunia untuk bertobat dan berbuat kebaikan, tetapi keinginan mereka ditolak; keingkaran kaum musyrik terhadap hari kebangkitan dan mereka menganggap bahwa hal itu adalah mustahil.",
        "outro_surah": null,
        "munasabah_prev_surah": "HUBUNGAN SURAH LUQM\u0100N\nDENGAN SURAH AS-SAJDAH\n\n1. \tKedua surah ini sama-sama menerangkan dalil-dalil dan bukti-bukti tentang keesaan Allah.\n2. \tDalam Surah Luqm\u0101n disebutkan keingkaran kaum musyrik terhadap Al-Qur\u2019an, sedang Surah as-Sajdah menegaskan bahwa Al-Qur\u2019an itu sungguh-sungguh diturunkan dari Allah.\n3. \tDalam Surah Luqm\u0101n ayat 34 disebutkan bahwa ada lima hal yang gaib yang hanya diketahui Allah, sedang dalam Surah as-Sajdah, Allah menerangkan dengan rinci hal-hal yang berhubungan dengan yang gaib itu (lihat ayat 5 sampai dengan 11 dan 27 Surah as-Sajdah).",
        "munasabah_prev_theme": "Pada ayat-ayat yang lalu diterangkan kebenaran Al-Qur\u2019an sebagai Kalamullah dan kebenaran risalah Muhammad saw sebagai pemberi kabar gembira dan peringatan kepada orang-orang musyrik. Pada ayat-ayat ini diterangkan bukti-bukti kekuasaan dan keesaan Allah yang terdapat pada penciptaan langit dan bumi pada permulaannya, kemudian penciptaan manusia dari tanah, dan keturunannya dari sari pati air yang hina. Kemudian Allah menyempurnakannya sebagai manusia.",
        "theme_group": "MASA PENCIPTAAN ALAM SEMESTA\nDAN KEJADIAN MANUSIA\n",
        "kosakata": "Kosakata: Sul\u0101lah min M\u0101\u2019 Mah\u012bn \u0633\u064f\u0644\u064e\u0627\u0644\u064e\u0629\u064d \u0645\u0650\u0646\u0652 \u0645\u064e\u0627\u0621\u064d \u0645\u064e\u0647\u0650\u064a\u0652\u0646\u064d (as-Sajdah/32: 8)\nKalimat ini terdiri dari 4 (empat) kata, yaitu sul\u0101lah, min, m\u0101\u2019, dan mah\u012bn. Yang pertama (sul\u0101lah) terambil dari kata salla yang antara lain berarti mengambil atau mencabut. Bentuk kata sul\u0101lah ini mengandung makna keturunan atau sesuatu yang sedikit, sehingga kata ini dapat diartikan sebagai mengambil sedikit. Yang kedua (min) artinya dari, untuk mengung-kapkan asal sesuatu. Yang ketiga (m\u0101\u2019) artinya air, yaitu benda cair yang merupakan salah satu sarana kehidupan. Yang keempat (mah\u012bn) dapat diartikan sebagai lemah. Kata ini juga dapat berarti sedikit. Dengan demikian min m\u0101\u2019 mah\u012bn artinya adalah dari air yang sedikit dan lemah. \nMah\u012bn dapat pula berasal dari kata kerja mahana, yang artinya memerah susu, dan susu yang diperah biasanya memancar dan sedikit. Dari sini dapat dipahami pendapat ulama yang mengatakan bahwa makna m\u0101\u2019 mah\u012bn itu adalah air yang memancar. Selanjutnya dari uraian tersebut dapat disimpul-kan bahwa makna sul\u0101lah min m\u0101\u2019 mah\u012bn adalah bahwa asal manusia itu dari air sedikit yang memancar dan lemah.\n",
        "sabab_nuzul": null,
        "conclusion": null
    }
}