{
    "id": 3538,
    "surah_id": 33,
    "ayah": 5,
    "page": 418,
    "quarter_hizb": 42.5,
    "juz": 21,
    "manzil": 5,
    "arabic": "\u0627\u064f\u062f\u0652\u0639\u064f\u0648\u0652\u0647\u064f\u0645\u0652 \u0644\u0650\u0627\u0670\u0628\u064e\u0627\u06e4\u0649\u0655\u0650\u0647\u0650\u0645\u0652 \u0647\u064f\u0648\u064e \u0627\u064e\u0642\u0652\u0633\u064e\u0637\u064f \u0639\u0650\u0646\u0652\u062f\u064e \u0627\u0644\u0644\u0651\u0670\u0647\u0650 \u06da \u0641\u064e\u0627\u0650\u0646\u0652 \u0644\u0651\u064e\u0645\u0652 \u062a\u064e\u0639\u0652\u0644\u064e\u0645\u064f\u0648\u0652\u0653\u0627 \u0627\u0670\u0628\u064e\u0627\u06e4\u0621\u064e\u0647\u064f\u0645\u0652 \u0641\u064e\u0627\u0650\u062e\u0652\u0648\u064e\u0627\u0646\u064f\u0643\u064f\u0645\u0652 \u0641\u0650\u0649 \u0627\u0644\u062f\u0651\u0650\u064a\u0652\u0646\u0650 \u0648\u064e\u0645\u064e\u0648\u064e\u0627\u0644\u0650\u064a\u0652\u0643\u064f\u0645\u0652 \u06d7\u0648\u064e\u0644\u064e\u064a\u0652\u0633\u064e \u0639\u064e\u0644\u064e\u064a\u0652\u0643\u064f\u0645\u0652 \u062c\u064f\u0646\u064e\u0627\u062d\u064c \u0641\u0650\u064a\u0652\u0645\u064e\u0627\u0653 \u0627\u064e\u062e\u0652\u0637\u064e\u0623\u0652\u062a\u064f\u0645\u0652 \u0628\u0650\u0647\u0656 \u0648\u064e\u0644\u0670\u0643\u0650\u0646\u0652 \u0645\u0651\u064e\u0627 \u062a\u064e\u0639\u064e\u0645\u0651\u064e\u062f\u064e\u062a\u0652 \u0642\u064f\u0644\u064f\u0648\u0652\u0628\u064f\u0643\u064f\u0645\u0652 \u06d7\u0648\u064e\u0643\u064e\u0627\u0646\u064e \u0627\u0644\u0644\u0651\u0670\u0647\u064f \u063a\u064e\u0641\u064f\u0648\u0652\u0631\u064b\u0627 \u0631\u0651\u064e\u062d\u0650\u064a\u0652\u0645\u064b\u0627",
    "latin": "Ud\u2018\u016bhum li'\u0101b\u0101'ihim huwa aqsa\u1e6du \u2018indall\u0101h(i), fa illam ta\u2018lam\u016b \u0101b\u0101'ahum fa ikhw\u0101nukum fid-d\u012bni wa maw\u0101l\u012bkum, wa laisa \u2018alaikum jun\u0101\u1e25un f\u012bm\u0101 akh\u1e6da'tum bih\u012b wa l\u0101kim m\u0101 ta\u2018ammadat qul\u016bbukum, wa k\u0101nall\u0101hu gaf\u016brar ra\u1e25\u012bm\u0101(n).",
    "translation": "Panggillah mereka (anak angkat itu) dengan (memakai) nama bapak mereka. Itulah yang adil di sisi Allah. Jika kamu tidak mengetahui bapak mereka, (panggillah mereka sebagai) saudara-saudaramu seagama dan maula-maulamu.607) Tidak ada dosa atasmu jika kamu khilaf tentang itu, tetapi (yang ada dosanya) apa yang disengaja oleh hatimu. Allah Maha Pengampun lagi Maha Penyayang.",
    "no_footnote": "607",
    "footnotes": "607) Yang dimaksud dengan maula dalam ayat ini adalah teman dekat.",
    "surah": {
        "id": 33,
        "arabic": " \u0627\u0644\u0627\u062d\u0632\u0627\u0628",
        "latin": "Al-A\u1e25z\u0101b",
        "transliteration": "Al-Ahzab",
        "translation": "Golongan Yang Bersekutu",
        "num_ayah": 73,
        "page": 418,
        "location": "Madaniyah"
    },
    "tafsir": {
        "wajiz": "Allah tidak menjadikan anak angkatmu sebagai anak kandung. Karena itu, panggillah mereka dengan dinisbatkan kepada nama bapak kandung mereka sendiri, bukan bapak angkatnya. Panggilan demikian itulah yang secara syariat dinilai adil di sisi Allah, dan jika kamu tidak mengetahui nama bapak kandung mereka, maka panggillah mereka sebagai saudara-saudaramu seagama dan maula-maulamu. Dan tidak ada dosa atasmu menisbatkan seorang anak kepada selain bapaknya jika kamu khilaf atau belum tahu hukum tentang hal itu, tetapi yang menimbulkan dosa adalah apa yang disengaja oleh hatimu dengan menetapkan sesuatu yang batil. Allah Maha Pengampun kepada siapa saja yang memohon ampunan-Nya, Maha Penyayang sehingga tidak serta-merta mengazab hamba-Nya yang bersalah.",
        "tahlili": "Ayat ini menerangkan bahwa Allah memerintahkan agar kaum Muslimin menasabkan seorang anak hanya kepada bapak dan ibunya, karena anak itu berasal dari tulang sulbi bapaknya, kemudian dikandung dan dilahirkan oleh ibunya. Menasabkan anak kepada orang tuanya adalah hukum Allah yang wajib ditaati oleh seluruh kaum Muslimin. Sebaliknya menasabkan anak kepada orang lain yang bukan orang tuanya bukanlah hukum Allah, tetapi adalah hukum yang dibuat-buat oleh manusia sendiri, sehingga hukumnya haram.\nPendapat ini disepakati oleh kebanyakan ulama yang mengatakan, \u201cMengangkat anak sehingga kedudukan anak angkat itu sama hukumnya dengan kedudukan anak kandung, seperti berhak mewarisi, menjadikan hubungan mahram, dan sebagainya termasuk dosa besar berdasarkan hadis:\n\u0639\u064e\u0646\u0652 \u0633\u064e\u0639\u0652\u062f\u0650 \u0628\u0652\u0646\u0650 \u0627\u064e\u0628\u0650\u064a\u0652 \u0648\u064e\u0642\u0651\u064e\u0627\u0635\u064d \u0631\u064e\u0636\u0650\u064a\u064e \u0627\u0644\u0644\u0651\u0670\u0647\u064f \u0639\u064e\u0646\u0652\u0647\u064f \u0627\u064e\u0646\u0651\u064e \u0631\u064e\u0633\u064f\u0648\u0652\u0644\u064e \u0627\u0644\u0644\u0651\u0670\u0647\u0650 \u0635\u064e\u0644\u0651\u064e\u0649 \u0627\u0644\u0644\u0651\u0670\u0647\u064f \u0639\u064e\u0644\u064e\u064a\u0652\u0647\u0650 \u0648\u064e\u0633\u064e\u0644\u0651\u064e\u0645\u064e \u0642\u064e\u0627\u0644\u064e \u0645\u064e\u0646\u0650 \u0627\u062f\u0651\u064e\u0639\u064e\u0649 \u0627\u0650\u0644\u064e\u0649 \u063a\u064e\u064a\u0652\u0631\u0650 \u0627\u064e\u0628\u0650\u064a\u0652\u0647\u0650 \u0627\u064e\u0648\u0650\u0627\u0646\u0652\u062a\u064e\u0645\u064e\u0649 \u0625\u0650\u0644\u064e\u0649 \u063a\u064e\u064a\u0652\u0631\u0650 \u0645\u064e\u0648\u064e\u0627\u0644\u0650\u064a\u0652\u0647\u0650 \u0641\u064e\u0639\u064e\u0644\u064e\u064a\u0652\u0647\u0650 \u0644\u064e\u0639\u0652\u0646\u064e\u0629\u064f \u0627\u0644\u0644\u0651\u0670\u0647\u0650 \u0648\u064e\u0627\u0644\u0652\u0645\u064e\u0644\u064e\u0627\u0626\u0650\u0643\u064e\u0629\u0650 \u0648\u064e\u0627\u0644\u0646\u0651\u064e\u0627\u0633\u0650 \u0627\u064e\u062c\u0652\u0645\u064e\u0639\u0650\u064a\u0652\u0646\u064e \u0644\u064e\u0627\u064a\u064e\u0642\u0652\u0628\u064e\u0644\u064f \u0627\u0644\u0644\u0651\u0670\u0647\u064f \u0645\u0650\u0646\u0652\u0647\u064f \u0635\u064e\u0631\u0652\u0641\u064b\u0627 \u0648\u064e\u0644\u064e\u0627\u0639\u064e\u062f\u0652\u0644\u064b\u0627. (\u0631\u0648\u0627\u0647 \u0627\u0644\u0634\u064a\u062e\u0627\u0646)\nDiriwayatkan dari Sa\u2019ad bin Ab\u012b Waqq\u0101\u1e63 r.a. bahwa Rasulullah saw bersabda, \u201cBarang siapa yang menasabkan dirinya kepada selain bapaknya atau menasabkan budak kepada selain tuannya, maka ia berhak mendapatkan laknat Allah, para malaikat, dan manusia seluruhnya, Allah Ta\u2019\u0101la tidak menerima pemalingan dosa tebusan padanya. (Riwayat al-Bukh\u0101r\u012b dan Muslim)\n\nHadis Nabi saw, beliau bersabda:\n\u0644\u064e\u064a\u0652\u0633\u064e \u0645\u0650\u0646\u0652 \u0631\u064e\u062c\u064f\u0644\u064d \u0627\u0650\u062f\u0651\u064e\u0639\u064e\u0649 \u0644\u0650\u063a\u064e\u064a\u0652\u0631\u0650 \u0627\u064e\u0628\u0650\u064a\u0652\u0647\u0650 \u0648\u064e\u0647\u064f\u0648\u064e \u064a\u064e\u0639\u0652\u0644\u064e\u0645\u064f \u0627\u0650\u0644\u0627\u0651\u064e \u0643\u064e\u0641\u064e\u0631\u064e (\u0631\u0648\u0627\u0647 \u0627\u0644\u0628\u062e\u0627\u0631\u0649 \u0648\u0645\u0633\u0644\u0645 \u0639\u0646 \u0627\u0628\u0649 \u0630\u0631)\nTidak ada seorang pun yang menasabkan kepada selain bapaknya, sedang ia mengetahui, melainkan dia telah kafir. (Riwayat al-Bukh\u0101r\u012b dan Muslim dari Ab\u016b \u017barr) \n\nPada lafal yang lain, juga diriwayatkan al-Bukh\u0101r\u012b dan Muslim, Rasulullah saw bersabda:\n\u0645\u064e\u0646\u0650 \u0627\u062f\u0651\u064e\u0639\u064e\u0649 \u0625\u0650\u0644\u0649\u064e \u063a\u064e\u064a\u0652\u0631\u0650 \u0627\u064e\u0628\u0650\u064a\u0652\u0647\u0650 \u0648\u064e\u0647\u064f\u0648\u064e \u064a\u064e\u0639\u0652\u0644\u064e\u0645\u064f \u0627\u064e\u0646\u0651\u064e\u0647\u064f \u063a\u064e\u064a\u0652\u0631\u064f \u0627\u064e\u0628\u0650\u064a\u0652\u0647\u0650 \u0641\u064e\u0627\u0644\u0652\u062c\u064e\u0646\u0651\u064e\u0629\u064f \u0639\u064e\u0644\u064e\u064a\u0652\u0647\u0650 \u062d\u064e\u0631\u064e\u0627\u0645\u064c. (\u0631\u0648\u0627\u0647 \u0627\u0644\u0628\u062e\u0627\u0631\u064a \u0648\u0645\u0633\u0644\u0645 \u0639\u0646 \u0633\u0639\u062f \u0628\u0646 \u0623\u0628\u064a \u0648\u0642\u0627\u0635 \u0648\u0623\u0628\u0649 \u0628\u0643\u0631\u0629)\nBarang siapa yang menasabkan dirinya kepada selain bapaknya, sedang ia mengetahui bahwa laki-laki itu bukan bapaknya, maka haram atasnya surga. (Riwayat al-Bukh\u0101r\u012b dan Muslim dari Sa\u2019ad bin Abu Waqq\u0101\u1e63 dan Ab\u016b Bakrah)\n\nAl-Al\u016bsi dalam Tafsir R\u016b\u1e25 al-Ma\u2019\u0101ni membedakan antara pengakuan dan pengasuhan anak. Pengangkatan anak yang dilakukan oleh seseorang terhadap seorang anak dan menasabkan anak itu kepadanya sehingga sama hukumnya dengan anak sendiri (kandung), mempunyai hak waris, menjadi mahram dan kerabat, hukumnya adalah haram. Adapun jika seseorang mengambil anak dan memperlakukannya seperti anak sendiri, tetapi tidak menasabkan anak itu kepadanya dan tidak menyatakan sama kedudukannya dalam hukum dengan anak sendiri, maka Allah tidak mengharamkannya.\nAyat ini menerangkan bahwa jika seorang anak tidak diketahui ayahnya, dan ia dipelihara oleh seorang muslim yang lain, maka hubungan pemeliharaan dengan anak itu adalah hubungan saudara seagama atau hubungan tuan dengan maulanya (hamba yang telah dimerdekakan). Oleh karena itu, dia harus memanggil anak itu dengan sebutan \u201csaudara\u201d atau \u201cmaula\u201d. Orang lain pun diharapkan untuk menyebutnya demikian, umpamanya \u201cSalim maula Huzaifah\u201d, karena Salim ini sebelum datangnya agama Islam adalah budak Huzaifah yang tidak dikenal bapaknya.\nAllah lalu menutup ayat ini dengan menyatakan bahwa semua perbuatan dosa seperti menasabkan seorang anak kepada yang bukan ayahnya yang dilakukan sebelum ayat ini turun, asalkan dihentikan setelah turunnya, akan diampuni Allah. Allah Maha Pengampun lagi Maha Penyayang kepada hamba-hamba-Nya.",
        "intro_surah": "Surah al-A\u1e25z\u0101b terdiri dari 73 ayat, termasuk golongan surah-surah Madaniyah, diturunkan sesudah surah \u0100li \u2018Imr\u0101n.\nDinamai \u201cAl-A\u1e25z\u0101b\u201d yang berarti \u201cgolongan-golongan yang bersekutu\u201d, karena dalam surah ini terdapat beberapa ayat, yaitu ayat 9 sampai dengan 27 yang berhubungan dengan Perang Ahzab, yaitu peperangan yang dilancarkan oleh orang-orang Yahudi, kaum munafik, dan orang-orang musyrik Mekah terhadap orang-orang mukmin di Medinah. Mereka telah mengepung rapat orang mukmin, sehingga sebagian dari mereka telah berputus asa dan menyangka bahwa mereka akan dihancurkan oleh musuh-musuh mereka.\nPeperangan ini merupakan ujian berat dari Allah terhadap orang-orang mukmin untuk menguji keteguhan iman mereka. Akhirnya Allah memberi-kan bala bantuan berupa tentara yang tidak kelihatan dan angin topan, sehingga musuh-musuh yang telah mengepung rapat itu menjadi kacau balau dan melarikan diri.\n\nPokok-pokok Isinya:\n1. \tKeimanan:\n\tCukuplah Allah sebagai pelindung; takdir Allah tidak dapat ditolak; Nabi Muhammad adalah contoh dan teladan yang paling baik; Nabi Muhammad adalah nabi dan rasul yang terakhir; hanya Allah sajalah yang mengetahui kapan terjadi hari Kiamat.\n2. \tHukum:\nHukum \u017bihar; kedudukan anak angkat; dasar hukum waris dalam Islam ialah hubungan nasab (pertalian darah); tidak ada masa idah bagi perempuan yang ditalak sebelum dicampuri; hukum-hukum khusus mengenai perkawinan Nabi Muhammad dan kewajiban-kewajiban istri-istrinya; larangan menyakiti hati Nabi saw.\n3. \tKisah:\nPerang Ahzab (Khandaq); kisah Zainab binti Jahsy dengan Zaid bin \u1e24\u0101ri\u1e61ah; memerangi Bani Qurai\u1e93ah.\n4. \tLain-lain:\nPenyelesaian pertentangan antara orang mukmin dengan orang kafir di akhirat karena mengingkari Allah dan rasul-Nya; sifat orang-orang munafik.",
        "outro_surah": null,
        "munasabah_prev_surah": "HUBUNGAN SURAH AS-SAJDAH\nDENGAN SURAH AL-A\u1e24Z\u0100B\n\nDalam Surah as-Sajdah diterangkan beberapa hal, yaitu Nabi Muhammad adalah benar-benar seorang rasul, anjuran salat malam, dan Allah adalah Penguasa alam semesta. Adapun Surah al-A\u1e25z\u0101b dimulai dengan perintah Nabi Muhammad supaya orang-orang mukmin tetap bertakwa, mengikuti Al-Qur\u2019an, dan hanya Allah-lah yang menolong mereka.\n",
        "munasabah_prev_theme": "Pada ayat-ayat yang lalu, Allah memerintahkan kepada Nabi Muhammad dan kaum Muslimin agar bertakwa dan bertawakal kepada-Nya, serta mengikuti Al-Qur\u2019an yang telah diturunkan pada Nabi-Nya. Mereka dilarang mengikuti keinginan orang-orang kafir dan munafik. Pada ayat-ayat berikut ini, Allah menerangkan bahwa mustahil seseorang mempunyai dua hati. Allah menolak anggapan orang-orang yang mengakui dan mengadakan sesuatu yang tidak ada landasan agamanya dan tidak berdasarkan akal pikiran yang benar, seperti seorang suami mengatakan kepada istrinya engkau haram bagiku sebagaimana ibuku, dan mengangkat orang lain sebagai anaknya. Padahal hukum Allah telah menetapkan ketentuan-ketentuan siapa yang dikatakan bapak, ibu, anak, kerabat, dan sebagainya.",
        "theme_group": "HUKUM ZIHAR DAN MENGANGKAT ANAK",
        "kosakata": "Kosakata: Ad\u2019iy\u0101akum  \u0623\u064e\u062f\u0652\u0639\u0650\u064a\u064e\u0627\u0621\u064e\u0643\u064f\u0645\u0652 (al-A\u1e25z\u0101b/33: 4)\nAd\u2019iy\u0101akum artinya anak angkat dalam bentuk jamak dari kata da\u2019iyy yang terambil dari kata ad\u2019\u0101 atau idda\u2019\u0101 yakni  mengaku keturunan. Maksud kata ad\u2019iy\u0101\u2019 dalam ayat ini adalah  anak-anak yang diakui sebagai anak sendiri yang disebut dengan anak angkat. Biasanya kata ini menunjuk pengakuan tersebut disertai dengan kesadaran dan pengakuan yang mengakuinya bahwa sang anak sebenarnya bukan anaknya, hanya dia yang mengangkatnya sebagai anak dan memberinya hak-hak sebagaimana lazimnya seorang anak kandung. Masyarakat Jahiliah mengenal luas anak angkat (adopsi) dan anak yang diadopsi itu diperlakukan sama persis dengan anak kandung.",
        "sabab_nuzul": null,
        "conclusion": "1. \tAllah menjadikan pada diri seorang manusia hanya satu hati.\n2. \tAllah mengharamkan \u1e93ih\u0101r yang berlaku di kalangan orang Arab di masa Jahiliah, dimana mereka mengharamkan menyetubuhi istri sebagaimana keharaman menyetubuhi ibu.\n3. \tAllah melarang kaum Muslimin menasabkan (mengambil garis keturunan) anak angkat kepada dirinya dan menjadikannya mempunyai hukum yang sama dengan anak kandung, karena perbuatan itu berlawanan dengan hukum Allah dan menghilangkan nasab.\n4. \tJika seseorang ingin menolong, melindungi, atau berhubungan erat sebagai saudara dengan orang lain, maka hal itu dibolehkan oleh agama, asal hubungan tersebut tidak mengakibatkan hubungan nasab.\n5. \tAllah memerintahkan agar kaum Muslimin menasabkan seorang anak kepada ayah kandungnya.\n6. \tAllah memerintahkan agar manusia mengikuti firman-Nya dan menem-puh jalan lurus yang telah dibentangkan-Nya.\n"
    }
}