{
    "id": 3559,
    "surah_id": 33,
    "ayah": 26,
    "page": 421,
    "quarter_hizb": 42.75,
    "juz": 21,
    "manzil": 5,
    "arabic": "\u0648\u064e\u0627\u064e\u0646\u0652\u0632\u064e\u0644\u064e \u0627\u0644\u0651\u064e\u0630\u0650\u064a\u0652\u0646\u064e \u0638\u064e\u0627\u0647\u064e\u0631\u064f\u0648\u0652\u0647\u064f\u0645\u0652 \u0645\u0651\u0650\u0646\u0652 \u0627\u064e\u0647\u0652\u0644\u0650 \u0627\u0644\u0652\u0643\u0650\u062a\u0670\u0628\u0650 \u0645\u0650\u0646\u0652 \u0635\u064e\u064a\u064e\u0627\u0635\u0650\u064a\u0652\u0647\u0650\u0645\u0652 \u0648\u064e\u0642\u064e\u0630\u064e\u0641\u064e \u0641\u0650\u064a\u0652 \u0642\u064f\u0644\u064f\u0648\u0652\u0628\u0650\u0647\u0650\u0645\u064f \u0627\u0644\u0631\u0651\u064f\u0639\u0652\u0628\u064e \u0641\u064e\u0631\u0650\u064a\u0652\u0642\u064b\u0627 \u062a\u064e\u0642\u0652\u062a\u064f\u0644\u064f\u0648\u0652\u0646\u064e \u0648\u064e\u062a\u064e\u0623\u0652\u0633\u0650\u0631\u064f\u0648\u0652\u0646\u064e \u0641\u064e\u0631\u0650\u064a\u0652\u0642\u064b\u0627\u06da ",
    "latin": "Wa anzalal-la\u017c\u012bna \u1e93\u0101har\u016bhum min ahlil-kit\u0101bi min \u1e63ay\u0101\u1e63\u012bhim wa qa\u017cafa f\u012b qul\u016bbihimur-ru\u2018ba far\u012bqan taqtul\u016bna wa ta'sir\u016bna far\u012bq\u0101(n).",
    "translation": "Dia menurunkan orang-orang Ahlulkitab (Bani Quraizah) yang membantu mereka (golongan-golongan yang bersekutu) dari benteng-benteng mereka. Dia memasukkan rasa takut ke dalam hati mereka. Sebagian mereka kamu bunuh dan sebagian yang lain kamu tawan.616)",
    "no_footnote": "616",
    "footnotes": "616) Setelah golongan-golongan yang bersekutu itu kocar-kacir, Allah Swt. memerintahkan Nabi Muhammad saw. untuk menghukum Yahudi Bani Quraizah dan mengusir mereka dari benteng-benteng mereka. Seluruh laki-laki dewasa yang ikut berperang kemudian dibunuh, sedangkan perempuan dan anak-anak ditawan.",
    "surah": {
        "id": 33,
        "arabic": " \u0627\u0644\u0627\u062d\u0632\u0627\u0628",
        "latin": "Al-A\u1e25z\u0101b",
        "transliteration": "Al-Ahzab",
        "translation": "Golongan Yang Bersekutu",
        "num_ayah": 73,
        "page": 418,
        "location": "Madaniyah"
    },
    "tafsir": {
        "wajiz": "Setelah kelompok yang bersekutu itu kocar-kacir, Allah memerin-tahkan Rasulullah menghalau Bani Quraizah dari benteng mereka. Dan Dia menurunkan orang-orang Ahli Kitab, yakni Bani Quraizah, yang membantu mereka, yaitu golongan yang bersekutu, dari benteng-benteng mereka, dan Dia memasukkan rasa takut ke dalam hati mereka. Sebagian mereka, yaitu kaum laki-laki yang ikut berperang, kamu bunuh dan sebagian yang lain, yaitu perempuan dan anak-anak, kamu tawan.",
        "tahlili": "Ayat ini menerangkan perang menghadapi Bani Qurai\u1e93ah, salah satu dari suku-suku Yahudi Medinah yang telah membuat perjanjian damai dengan Nabi. Sebagaimana telah diterangkan terdahulu bahwa ketika kaum Muslimin dalam keadaan kritis menghadapi tentara yang bersekutu di Perang Ahzab, orang-orang Yahudi Bani Qurai\u1e93ah yang menjadi warga kota Medinah mengkhianati kaum Muslimin dari dalam. Pemimpin mereka, Ka\u2019ab bin Asad, dihasut oleh pemimpin Bani an-Na\u1e0d\u012br, \u1e24uyai bin Akh\u1e6dab, agar membatalkan perjanjian damai yang telah mereka buat dengan Nabi, serta menggabungkan diri dengan tentara sekutu yang mengepung kota Medinah. Ajakan itu mula-mula ditolak oleh Ka\u2019ab bin Asad, tetapi akhirnya ia menerima. Maka mereka mengkhianati Nabi dan bergabung dengan kelompok Ahzab.\nBerita pengkhianatan Bani Qurai\u1e93ah itu menggemparkan kaum Muslimin, karena terjadi dalam kota Medinah. Oleh karena itu, Rasulullah saw segera mengutus dua orang sahabatnya, yaitu Sa\u2019ad bin Mu\u2019\u0101\u017c, kepala suku Aus, dan Sa\u2019ad bin Ubadah, kepala suku Khazraj, kepada Bani Qurai\u1e93ah untuk menasihati mereka agar jangan meneruskan pengkhianatan itu. Setibanya kedua utusan itu di tempat Bani Qurai\u1e93ah, keduanya segera menyampaikan pesan-pesan Nabi saw. Akan tetapi, permintaan Nabi itu mereka tolak dengan sikap yang kasar serta penuh keangkuhan dan kesombongan, dan mereka tetap melanjutkan pengkhianatan tersebut.\nSetelah Allah menghalau pasukan sekutu, maka Dia mewahyukan kepada Nabi Muhammad, agar kaum Muslimin segera menumpas Bani Qurai\u1e93ah yang telah berkhianat. Oleh karena itu, Nabi dan kaum Muslimin segera membuat perhitungan dengan para pengkhianat itu. Nabi dan kaum Muslimin segera mendatangi kampung mereka untuk mengepungnya. Setelah mendengar kedatangan Nabi dan Kaum Muslimin, mereka segera memasuki benteng-benteng untuk mempertahankan diri. Tentara kaum Muslimin waktu itu dipimpin oleh Ali bin Abi \u1e6calib. Setelah dua puluh lima hari lamanya mereka dikepung dalam benteng-benteng itu dengan penuh ketakutan, maka mereka mau menyerah kepada Nabi dengan syarat bahwa yang akan menjadi hakim atas perbuatan mereka ialah Sa\u2019ad bin Mu\u2019\u0101\u017c, kepala suku Aus. Penyerahan dan syarat itu diterima Nabi, maka mereka turun dari benteng-benteng itu dan menyerah kepadanya. Setelah mem-pertimbangkan dengan matang, maka Sa\u2019ad menjatuhkan hukuman mati, laki-laki mereka dibunuh, sedang perempuan-perempuan dan anak-anak ditawan.\nHukuman yang demikian itu adalah wajar bagi pengkhianat-pengkhianat negara yang sedang dalam keadaan berperang, lebih-lebih pengkhianatan itu dilakukan ketika musuh sedang melancarkan serangan. Masyarakat Islam di Medinah waktu itu ialah masyarakat yang baru tumbuh, masyarakat yang baru mulai melaksanakan hukum-hukum berdasarkan ketetapan Islam yang berbeda dengan hukum-hukum yang lama. Oleh karena itu, wajar kiranya hukuman yang telah diberikan kepada Bani Qurai\u1e93ah yang berkhianat di masa perang, sehingga yang berlaku adalah hukum perang. Dengan hukuman itu, maka kota Medinah tetap kuat dan Nabi tetap berwibawa dan penduduk Medinah yang lain mengetahui dan menyadari bahwa setiap pengkhianatan akan dikenakan hukuman yang setimpal.",
        "intro_surah": "Surah al-A\u1e25z\u0101b terdiri dari 73 ayat, termasuk golongan surah-surah Madaniyah, diturunkan sesudah surah \u0100li \u2018Imr\u0101n.\nDinamai \u201cAl-A\u1e25z\u0101b\u201d yang berarti \u201cgolongan-golongan yang bersekutu\u201d, karena dalam surah ini terdapat beberapa ayat, yaitu ayat 9 sampai dengan 27 yang berhubungan dengan Perang Ahzab, yaitu peperangan yang dilancarkan oleh orang-orang Yahudi, kaum munafik, dan orang-orang musyrik Mekah terhadap orang-orang mukmin di Medinah. Mereka telah mengepung rapat orang mukmin, sehingga sebagian dari mereka telah berputus asa dan menyangka bahwa mereka akan dihancurkan oleh musuh-musuh mereka.\nPeperangan ini merupakan ujian berat dari Allah terhadap orang-orang mukmin untuk menguji keteguhan iman mereka. Akhirnya Allah memberi-kan bala bantuan berupa tentara yang tidak kelihatan dan angin topan, sehingga musuh-musuh yang telah mengepung rapat itu menjadi kacau balau dan melarikan diri.\n\nPokok-pokok Isinya:\n1. \tKeimanan:\n\tCukuplah Allah sebagai pelindung; takdir Allah tidak dapat ditolak; Nabi Muhammad adalah contoh dan teladan yang paling baik; Nabi Muhammad adalah nabi dan rasul yang terakhir; hanya Allah sajalah yang mengetahui kapan terjadi hari Kiamat.\n2. \tHukum:\nHukum \u017bihar; kedudukan anak angkat; dasar hukum waris dalam Islam ialah hubungan nasab (pertalian darah); tidak ada masa idah bagi perempuan yang ditalak sebelum dicampuri; hukum-hukum khusus mengenai perkawinan Nabi Muhammad dan kewajiban-kewajiban istri-istrinya; larangan menyakiti hati Nabi saw.\n3. \tKisah:\nPerang Ahzab (Khandaq); kisah Zainab binti Jahsy dengan Zaid bin \u1e24\u0101ri\u1e61ah; memerangi Bani Qurai\u1e93ah.\n4. \tLain-lain:\nPenyelesaian pertentangan antara orang mukmin dengan orang kafir di akhirat karena mengingkari Allah dan rasul-Nya; sifat orang-orang munafik.",
        "outro_surah": null,
        "munasabah_prev_surah": "HUBUNGAN SURAH AS-SAJDAH\nDENGAN SURAH AL-A\u1e24Z\u0100B\n\nDalam Surah as-Sajdah diterangkan beberapa hal, yaitu Nabi Muhammad adalah benar-benar seorang rasul, anjuran salat malam, dan Allah adalah Penguasa alam semesta. Adapun Surah al-A\u1e25z\u0101b dimulai dengan perintah Nabi Muhammad supaya orang-orang mukmin tetap bertakwa, mengikuti Al-Qur\u2019an, dan hanya Allah-lah yang menolong mereka.\n",
        "munasabah_prev_theme": "Pada ayat-ayat yang lalu dijelaskan bagaimana Rasulullah sebagai suri teladan dan kelompok Muslimin yang benar-benar beriman dan mengharapkan kematian dalam keadaan syahid. Dijelaskan juga bahwa Allah akan membalas kesungguhan mereka dan menghukum orang-orang munafik. Pada ayat-ayat ini dijelaskan bahwa balasan terhadap orang-orang Yahudi Bani Qurai\u1e93ah yang telah berkhianat kepada Rasulullah ketika menghadapi tentara Ahzab ialah Allah mewariskan tanah dan harta kekayaan mereka kepada kaum Muslimin.",
        "theme_group": "PERANG DENGAN BANI QURAI\u017bAH",
        "kosakata": "Kosakata: \u1e62ay\u0101\u1e63\u012bhim \u0635\u064e\u064a\u064e\u0627\u0635\u0650\u064a\u0652\u0647\u0650\u0645\u0652 (al-Ahzab/33: 26) \nKata ini bentuk plural dari \u1e63\u012b\u1e63ah atau \u1e63\u012b\u1e63iyyah. A\u1e63-\u1e62\u012b\u1e63ah artinya pasak untuk memisahkan buah kurma dari tangkainya, atau senar untuk memintal. Kalimat ini juga artinya duri, taji ayam jantan yaitu tulang runcing yang ada di kaki ayam jantan untuk melawan musuhnya.  Dari dua pengertian ini semua yang dijadikan untuk bertahan atau berperang dari dalamnya seperti benteng dikatakan \u1e63\u012b\u1e63ah.",
        "sabab_nuzul": null,
        "conclusion": null
    }
}