{
    "id": 3542,
    "surah_id": 33,
    "ayah": 9,
    "page": 419,
    "quarter_hizb": 42.5,
    "juz": 21,
    "manzil": 5,
    "arabic": "\u064a\u0670\u0653\u0627\u064e\u064a\u0651\u064f\u0647\u064e\u0627 \u0627\u0644\u0651\u064e\u0630\u0650\u064a\u0652\u0646\u064e \u0627\u0670\u0645\u064e\u0646\u064f\u0648\u0627 \u0627\u0630\u0652\u0643\u064f\u0631\u064f\u0648\u0652\u0627 \u0646\u0650\u0639\u0652\u0645\u064e\u0629\u064e \u0627\u0644\u0644\u0651\u0670\u0647\u0650 \u0639\u064e\u0644\u064e\u064a\u0652\u0643\u064f\u0645\u0652 \u0627\u0650\u0630\u0652 \u062c\u064e\u0627\u06e4\u0621\u064e\u062a\u0652\u0643\u064f\u0645\u0652 \u062c\u064f\u0646\u064f\u0648\u0652\u062f\u064c \u0641\u064e\u0627\u064e\u0631\u0652\u0633\u064e\u0644\u0652\u0646\u064e\u0627 \u0639\u064e\u0644\u064e\u064a\u0652\u0647\u0650\u0645\u0652 \u0631\u0650\u064a\u0652\u062d\u064b\u0627 \u0648\u0651\u064e\u062c\u064f\u0646\u064f\u0648\u0652\u062f\u064b\u0627 \u0644\u0651\u064e\u0645\u0652 \u062a\u064e\u0631\u064e\u0648\u0652\u0647\u064e\u0627 \u06d7\u0648\u064e\u0643\u064e\u0627\u0646\u064e \u0627\u0644\u0644\u0651\u0670\u0647\u064f \u0628\u0650\u0645\u064e\u0627 \u062a\u064e\u0639\u0652\u0645\u064e\u0644\u064f\u0648\u0652\u0646\u064e \u0628\u064e\u0635\u0650\u064a\u0652\u0631\u064b\u0627\u06da ",
    "latin": "Y\u0101 ayyuhal-la\u017c\u012bna \u0101manu\u017ckur\u016b ni\u2018matall\u0101hi \u2018alaikum i\u017c j\u0101'atkum jun\u016bdun fa'arsaln\u0101 \u2018alaihim r\u012b\u1e25aw wa jun\u016bdal lam tarauh\u0101, wa k\u0101nall\u0101hu bim\u0101 ta\u2018mal\u016bna ba\u1e63\u012br\u0101(n).",
    "translation": "Wahai orang-orang yang beriman, ingatlah nikmat Allah (yang telah dikaruniakan) kepadamu ketika bala tentara datang kepadamu, lalu Kami kirimkan kepada mereka angin topan dan bala tentara (malaikat) yang tidak dapat terlihat olehmu.610) Allah Maha Melihat apa yang kamu kerjakan.",
    "no_footnote": "610",
    "footnotes": "610) Ayat ini menerangkan kisah bala tentara kafir yang dikalahkan dalam Perang Khandaq (Ahzab).",
    "surah": {
        "id": 33,
        "arabic": " \u0627\u0644\u0627\u062d\u0632\u0627\u0628",
        "latin": "Al-A\u1e25z\u0101b",
        "transliteration": "Al-Ahzab",
        "translation": "Golongan Yang Bersekutu",
        "num_ayah": 73,
        "page": 418,
        "location": "Madaniyah"
    },
    "tafsir": {
        "wajiz": "Ayat ini menginformasikan pertolongan Allah kepada kaum mukmin pada Perang Khandak. Wahai orang-orang yang beriman! Ingatlah akan nikmat Allah yang telah Dia karuniakan kepadamu ketika bala tentara dari kaum musyrik dan Yahudi Bani Quraizah datang kepadamu, lalu Kami kirimkan kepada mereka angin topan dan bala tentara yang tidak dapat terlihat olehmu, yaitu para malaikat yang memorak-porandakan barisan mereka. Allah Maha Melihat apa yang kamu kerjakan dan akan memberi balasan yang setimpal atasnya.",
        "tahlili": "Pada ayat ini, Allah mengingatkan kepada kaum Muslimin akan nikmat besar yang telah dilimpahkan-Nya kepada mereka pada Perang Ahzab ketika mereka dikepung rapat oleh tentara yang bersekutu yang terdiri dari tentara kaum Quraisy, Bani Ga\u1e6daf\u0101n, Bani an-Na\u1e0d\u012br yang telah dibuang Rasulullah ke Khaibar dan tentara-tentara yang lain yang datang menyerang mereka ke Medinah. Setelah sebulan terkepung, maka Allah menghalau musuh-musuh mereka itu dengan tentara malaikat dan topan yang amat dingin dan kencang di malam yang sangat dingin pula, sehingga menerbangkan kemah-kemah tentara itu. Pada waktu itu, timbullah kegentaran dan ketakutan dalam hati musuh-musuh itu, sehingga salah seorang pemimpin mereka yang bernama \u1e6culai\u1e25ah bin Khawailid al-Asad\u012b berkata, \u201cMuhammad telah menyihir kamu, maka selamatkan dirimu, selamatkan dirimu!\u201d Dengan demikian, Perang Ahzab ini dimenangkan oleh kaum Muslimin tanpa terjadi pertempuran, karena musuh telah dihalau oleh tentara malaikat dan topan angin dingin yang amat kencang itu.\nPada akhir ayat ini, Allah menerangkan bahwa Dia melihat dan menge-tahui segala yang dikerjakan kaum Muslimin dalam Perang Ahzab itu, seperti menggali parit, menyusun taktik, dan strategi peperangan untuk menegakkan agama-Nya. Allah juga mengetahui segala penderitaan yang mereka alami selama dikepung musuh, tetapi semua penderitaan itu mereka hadapi dengan tabah dan sabar. Semua yang dialami kaum Muslimin itu akan mendapat balasan yang berlipat ganda dari Allah.",
        "intro_surah": "Surah al-A\u1e25z\u0101b terdiri dari 73 ayat, termasuk golongan surah-surah Madaniyah, diturunkan sesudah surah \u0100li \u2018Imr\u0101n.\nDinamai \u201cAl-A\u1e25z\u0101b\u201d yang berarti \u201cgolongan-golongan yang bersekutu\u201d, karena dalam surah ini terdapat beberapa ayat, yaitu ayat 9 sampai dengan 27 yang berhubungan dengan Perang Ahzab, yaitu peperangan yang dilancarkan oleh orang-orang Yahudi, kaum munafik, dan orang-orang musyrik Mekah terhadap orang-orang mukmin di Medinah. Mereka telah mengepung rapat orang mukmin, sehingga sebagian dari mereka telah berputus asa dan menyangka bahwa mereka akan dihancurkan oleh musuh-musuh mereka.\nPeperangan ini merupakan ujian berat dari Allah terhadap orang-orang mukmin untuk menguji keteguhan iman mereka. Akhirnya Allah memberi-kan bala bantuan berupa tentara yang tidak kelihatan dan angin topan, sehingga musuh-musuh yang telah mengepung rapat itu menjadi kacau balau dan melarikan diri.\n\nPokok-pokok Isinya:\n1. \tKeimanan:\n\tCukuplah Allah sebagai pelindung; takdir Allah tidak dapat ditolak; Nabi Muhammad adalah contoh dan teladan yang paling baik; Nabi Muhammad adalah nabi dan rasul yang terakhir; hanya Allah sajalah yang mengetahui kapan terjadi hari Kiamat.\n2. \tHukum:\nHukum \u017bihar; kedudukan anak angkat; dasar hukum waris dalam Islam ialah hubungan nasab (pertalian darah); tidak ada masa idah bagi perempuan yang ditalak sebelum dicampuri; hukum-hukum khusus mengenai perkawinan Nabi Muhammad dan kewajiban-kewajiban istri-istrinya; larangan menyakiti hati Nabi saw.\n3. \tKisah:\nPerang Ahzab (Khandaq); kisah Zainab binti Jahsy dengan Zaid bin \u1e24\u0101ri\u1e61ah; memerangi Bani Qurai\u1e93ah.\n4. \tLain-lain:\nPenyelesaian pertentangan antara orang mukmin dengan orang kafir di akhirat karena mengingkari Allah dan rasul-Nya; sifat orang-orang munafik.",
        "outro_surah": null,
        "munasabah_prev_surah": "HUBUNGAN SURAH AS-SAJDAH\nDENGAN SURAH AL-A\u1e24Z\u0100B\n\nDalam Surah as-Sajdah diterangkan beberapa hal, yaitu Nabi Muhammad adalah benar-benar seorang rasul, anjuran salat malam, dan Allah adalah Penguasa alam semesta. Adapun Surah al-A\u1e25z\u0101b dimulai dengan perintah Nabi Muhammad supaya orang-orang mukmin tetap bertakwa, mengikuti Al-Qur\u2019an, dan hanya Allah-lah yang menolong mereka.\n",
        "munasabah_prev_theme": "Pada ayat-ayat yang lalu, Allah menerangkan hukum-hukum-Nya yang harus diikuti oleh manusia, memerintahkan agar orang-orang yang beriman menyampaikan agama Allah dan menerangkan tentang janji yang telah diambilnya dari nabi-nabi yang termasuk ulul azmi. Pada ayat-ayat ini, Allah menerangkan nikmat besar yang telah dilimpahkan-Nya kepada kaum Muslimin dalam Perang Ahzab berupa angin yang sangat kencang dan tentara yang tidak kelihatan. Dengan adanya nikmat yang besar itu, musuh-musuh mereka menjadi tercerai-berai dan lari meninggalkan medan peperangan. Dengan demikian, rasa kekhawatiran dan ketakutan kaum Muslimin menjadi hilang.",
        "theme_group": "BANTUAN ALLAH KEPADA KAUM MUSLIMIN\nDALAM PERANG AHZ\u0100B",
        "kosakata": "1. Ahla Ya\u1e61rib \u0627\u064e\u0647\u0652\u0644\u064e \u064a\u064e\u062b\u0652\u0631\u0650\u0628\u064e (al-A\u1e25z\u0101b/33: 13)\nAyat ini dan yang lengkapnya dari ayat 9-27 Surah al-A\u1e25z\u0101b/33, berhubungan dengan peristiwa Perang Parit (Khandaq) yang terjadi di Yasrib (Medinah), dan seruan dalam ayat itu ditujukan kepada penduduk kota itu. Pada umumnya, kota ini dihuni oleh tiga kelompok besar\u2014Yahudi, Aus, dan Khazraj. Mereka merupakan pendatang dari luar Yasrib;  kelompok Yahudi diduga dari Palestina, Khazraj  dan Aus dari kota Saba\u2019 di Yaman. Di Saba\u2019 ini ada sebuah bendungan raksasa yang dikenal sebagai Bendungan Ma\u2019rib yang dapat mengairi daerah ini dan membuat Saba\u2019 subur dan makmur, seperti dilukiskan dalam Al-Qur\u2019an. Akan tetapi, mereka kemudian meninggalkannya setelah bendungan itu pecah dan kota itu terbenam air, dan kawasan itu berubah sama sekali sehingga tidak dihuni. Sebagian penduduknya, yaitu Aus dan Khazraj, bermigrasi ke Yasrib. (Lebih jauh lihat kosakata \u201cSaba\u2019\u2019\u201d pada Surah Saba\u2019/34: 15 dalam tafsir ini jilid VIII).  \nKetika mereka sampai di Yasrib, di sana sudah ada masyarakat Yahudi, di samping masyarakat Arab penduduk asli yang tersebar di sana sini sampai ke luar kota. Akan tetapi, hampir dalam segala hal posisi mereka tampaknya berada di bawah orang-orang Yahudi. Secara singkat dapat disebutkan bahwa di Yasrib ketika itu ada tiga kabilah Yahudi yang cukup menonjol, yakni Qurai\u1e93ah di Fadak, an-Na\u1e0d\u012br tidak jauh dari sana, dan Qainuqa\u2019 di bagian dalam. Di bagian utara ada Yahudi Khaibar. Qurai\u1e93ah dan an-Na\u1e0d\u012br memiliki tanah pertanian dan perkebunan yang luas dan subur, terletak  di ketinggian oasis di selatan yang banyak ditanami pohon kurma. Sebaliknya Qainuqa\u2019 tidak memiliki tanah pertanian. Kebanyakan mereka perajin dan pedagang emas dan mereka ini yang menguasai pasar. Yahudi Khaibar juga memiliki tanah pertanian yang luas dan subur. \nRasulullah, sesampainya di Medinah setelah hijrah dari Mekah, pertama-pertama membuat sebuah piagam yang sangat cemerlang berupa perjanjian tertulis dengan penduduk Yasrib dan suku-suku Yahudi. Perjanjian itu dalam garis besarnya berisi pengakuan atas agama orang Yahudi serta adat istiadat dan harta benda mereka dengan syarat-syarat timbal balik. Harus sama-sama saling membantu, menghormati, dan berbuat kebaikan, serta menjauhi segala perbuatan dosa. Mereka satu umat dengan orang beriman, sehingga hendaklah mereka tolong-menolong. \nAkan tetapi, pakta perjanjian itu dilanggar oleh Yahudi ketika musyrik Quraisy dari Mekah datang menyerang Nabi dan kaum Muslimin di Medinah hingga terjadi Perang Badar. Pihak Yahudi ternyata lebih bersimpati kepada kaum musyrik. Lebih-lebih dalam Perang Parit (Khandaq) suku Yahudi menjadi musuh dalam selimut sebagai mata-mata kaum musyrik Quraisy Mekah. Setelah pihak musuh mengalami kekalahan, banyak Yahudi yang terpaksa diusir. Selain itu ada beberapa peristiwa pribadi seperti pelecehan oleh orang-orang Yahudi terhadap perempuan Muslimah, sehingga perempuan itu berteriak meminta tolong. Maka timbullah keonaran sampai terjadi pembunuhan. Akibat semua itu, persahabatan telah berubah menjadi permusuhan terbuka. Peringatan Allah dalam Al-Qur\u2019an kepada kaum Muslimin memang tepat sekali:\n\u064a\u0670\u0653\u0627\u064e\u064a\u0651\u064f\u0647\u064e\u0627 \u0627\u0644\u0651\u064e\u0630\u0650\u064a\u0652\u0646\u064e \u0627\u0670\u0645\u064e\u0646\u064f\u0648\u0652\u0627 \u0644\u064e\u0627 \u062a\u064e\u062a\u0651\u064e\u062e\u0650\u0630\u064f\u0648\u0652\u0627 \u0628\u0650\u0637\u064e\u0627\u0646\u064e\u0629\u064b \u0645\u0651\u0650\u0646\u0652 \u062f\u064f\u0648\u0652\u0646\u0650\u0643\u064f\u0645\u0652 \u0644\u064e\u0627 \u064a\u064e\u0623\u0652\u0644\u064f\u0648\u0652\u0646\u064e\u0643\u064f\u0645\u0652 \u062e\u064e\u0628\u064e\u0627\u0644\u064b\u0627\u06d7 \u0648\u064e\u062f\u0651\u064f\u0648\u0652\u0627 \u0645\u064e\u0627 \u0639\u064e\u0646\u0650\u062a\u0651\u064f\u0645\u0652\u06da \u0642\u064e\u062f\u0652 \u0628\u064e\u062f\u064e\u062a\u0650 \u0627\u0644\u0652\u0628\u064e\u063a\u0652\u0636\u064e\u0627\u06e4\u0621\u064f \u0645\u0650\u0646\u0652 \u0627\u064e\u0641\u0652\u0648\u064e\u0627\u0647\u0650\u0647\u0650\u0645\u0652\u06d6 \u0648\u064e\u0645\u064e\u0627 \u062a\u064f\u062e\u0652\u0641\u0650\u064a\u0652 \u0635\u064f\u062f\u064f\u0648\u0652\u0631\u064f\u0647\u064f\u0645\u0652 \u0627\u064e\u0643\u0652\u0628\u064e\u0631\u064f \u06d7 \u0642\u064e\u062f\u0652 \u0628\u064e\u064a\u0651\u064e\u0646\u0651\u064e\u0627 \u0644\u064e\u0643\u064f\u0645\u064f \u0627\u0644\u0652\u0627\u0670\u064a\u0670\u062a\u0650 \u0627\u0650\u0646\u0652 \u0643\u064f\u0646\u0652\u062a\u064f\u0645\u0652 \u062a\u064e\u0639\u0652\u0642\u0650\u0644\u064f\u0648\u0652\u0646\u064e \u0661\u0661\u0668 (\u0627\u0670\u0644 \u0639\u0645\u0631\u0627\u0646)\nWahai orang-orang yang beriman! Janganlah kamu menjadikan teman orang-orang yang di luar kalanganmu (seagama) sebagai teman kepercayaanmu, (karena) mereka tidak henti-hentinya menyusahkan kamu. Mereka mengharapkan kehancuranmu. Sungguh, telah nyata kebencian dari mulut mereka, dan apa yang tersembunyi di hati mereka lebih jahat. Sungguh, telah Kami terangkan kepadamu ayat-ayat (Kami), jika kamu mengerti. (\u0100li \u2018Imr\u0101n/3: 118)\n\nAyat ini ditujukan kepada Nabi dan kaum Muslimin agar jangan mengambil orang di luar lingkunganmu menjadi teman kepercayaanmu. Jangan mencurahkan isi hati dan pikiranmu yang bersifat rahasia kepada mereka, terutama hal-hal yang seharusnya dirahasiakan, karena mereka memang tak dapat dipercaya. Yang dimaksud bi\u1e6d\u0101nah (teman kepercayaan)  dalam ayat ini ialah orang-orang Yahudi, yang sering mengkhianati perjanjian dengan Nabi. Karena bawaan akhlaknya, Nabi, begitu juga para sahabat, sangat baik hati dan tanpa curiga kepada mereka, apalagi sudah ada perjanjian persahabatan dengan mereka. Sampai pada waktu sesudah Perang Uhud dan Medinah dikosongkan dari Bani an-Na\u1e0d\u012br, yang menjadi sekretaris Nabi orang Yahudi. Nabi ingin memudahkan pengiriman surat-surat dalam bahasa orang Yahudi dan Suryani (Aram), sebelum kemudian digantikan oleh Zaid bin \u1e60abit.\nDari mana orang-orang Yahudi itu datang, adakah mereka memang dari keturunan Ibrani? Sejak kapan pula mereka berada di Yasrib? Ataukah mereka keturunan orang-orang pelarian dari Palestina? Bagaimana pula jalinan hubungan mereka dengan penduduk Arab di sana? Catatan sejarah masih sering berbeda-beda. Memang  tidak mudah dilacak, dan kadang membingungkan. Hal ini juga diakui oleh penulis-penulis Arab sendiri dan oleh kalangan Orientalis. \nBuku yang dapat dikatakan lebih otentik berbicara tentang sejarah Medinah ialah yang ditulis oleh Nuruddin as-Samhudi (abad ke-9 H./15 M.), Al-Waf\u0101\u2019 bi Akhb\u0101r D\u0101r al-Mus\u1e6daf\u0101, yang juga banyak disinggung oleh Montgomery Watt dan kalangan Orientalis lain.  Sungguhpun begitu, belum ada kesamaan pendapat di antara mereka. Secara acak dapat disebutkan, bahwa di antara suku-suku Yahudi itu, dalam adat istiadat banyak kesamaannya dengan adat tetangga-tetangga mereka orang Arab pagan, sampai pun kepada nama dan kabilah atau suku-suku mereka. Pengaruh ini timbul mungkin juga karena pergaulan dan melalui hubungan perkawinan antara mereka. Mungkin juga sebagian penduduk asli setempat itu sudah menganut agama Yahudi. \nMigrasi Yahudi dari Yerusalem ke Hijaz\nPada tahun 70 Pra Masehi, Titus Flavius Vespasianus menyerang dan menduduki Yerusalem. Kota itu diporak-porandakan. Orang Israil (Yahudi) banyak yang dianiaya dan disiksa, Kanisah Yerusalem, rumah ibadah yang besar dan megah, dengan segala isinya yang terbuat dari emas dan perak, warisan dari nenek moyang mereka, Raja Sulaiman bin Daud, yang tiada tara, yang telah menjadi kebanggaan selama itu dan dikagumi bangsa-bangsa\u2014oleh pasukan Roma dihancurkan begitu saja.\nDari beberapa sumber dapat dilihat bahwa orang-orang Israil itu sudah tidak tahan untuk tetap tinggal di Palestina. Jika ingin selamat, mereka harus menyingkir dari negeri itu. Akan tetapi, mereka akan pergi ke mana? Ke Mesir yang berbatasan dengan asal tempat tinggal mereka, atau ke Suria dan Irak tempat mereka pertama dulu pindah? Atau ke tempat lain yang membentang begitu luas. Masih banyak pilihan. Tetapi mereka justru menuju ke arah Hijaz yang lebih jauh dan tandus. Mereka membaca dalam kitab-kitab suci mereka, dalam kitab-kitab para nabi, terutama Yesaya 42 yang mengisyaratkan bahwa akan muncul seorang nabi dari saudara-saudara mereka sendiri, dari keturunan Ismail anak Ibrahim, dengan beberapa isyarat dan tanda-tanda yang jelas. Nabi itu akan muncul di kota Yasrib di bilangan Hijaz itu, dan dari kota itu akan berkembang. Setelah apa yang mereka alami dari pihak Roma itu, kini mereka sungguh-sungguh berharap kiranya akan datang pertolongan dari Tuhan. Inilah yang akan mengembalikan kejayaan mereka masa lalu. Maka berdatanganlah mereka ke tempat itu sambil menunggu kedatangan seorang nabi. \nSebelum itu, sejak akhir abad ke-6 Pra Masehi di masa Nebukadnezar, orang-orang Israil diusir dari negeri yang mereka tempati, dibuang ke Babil, sebagian mereka dijadikan budak belian, dan yang lain berpindah-pindah kian ke mari, yang dikenal dengan zaman diaspora. Dua abad kemudian, atas perintah raja Ahasyweros hampir saja mereka habis dibantai\u2014tua, muda, laki-laki, perempuan dan anak-anak, seperti yang diceritakan dalam Perjanjian Lama. \nSudah disebutkan di atas bahwa setelah Titus memorak-porandakan Yerusalem, orang Israil banyak yang bermigrasi ke Hijaz. Mereka menempati daerah-daerah tertentu, yang menurut perkiraan mereka sangat menjanjikan, seperti Taima\u2019, Wadi al-Qura, Fadak, Khaibar, dan Yasrib. Mereka dikenal sebagai suku-suku Bani Qainuqa\u2019, Bani an-Na\u1e0d\u012br, dan Bani Qurai\u1e93ah, dan mereka menetap di sana, yang mereka rasakan lambat laun seperti negeri mereka sendiri. Mereka membentuk perkampungan-perkampungan dan mendirikan bangunan-bangunan dan benteng-benteng pertahanan yang kuat, membuka usaha dagang, dan mengolah tanah untuk pertanian dan perkebunan, sehingga daerah-daerah itu tampak lebih ramai. \nTetapi apa yang terjadi sekitar enam abad kemudian setelah nabi yang ditunggu-tunggu itu datang? Justru tantangan datang dari orang-orang Yahudi, bahkan mereka bersekutu dengan musyrik Mekah untuk meng-hancurkan Nabi dan umatnya. Demikianlah sejarah umat Yahudi di Yasrib (Medinah).\nDalam perkembangan selanjutnya, yang tampak menonjol di Yasrib ialah tiga kelompok besar: Yahudi dengan berbagai macam kabilahnya, Qailah, yakni dua kabilah Arab, Khazraj, dan Aus, yang kemudian berkembang dan bercabang-cabang menjadi beberapa \u201canak kabilah\u201d yang menonjol. Di tempat yang baru ini, masyarakat Yahudi yang hidup berkebun atau bertani, dan berdagang, hidup senang karena tanah Yasrib memang subur. Di samping mereka itu masih banyak kabilah lain besar dan kecil, ada yang berdiri sendiri atau dalam lingkungan kabilah yang lebih besar, seperti Bani an-Najjar dalam Khazraj. Seperti disimpulkan oleh Haekal bahwa Yasrib punya arti penting bagi Nabi Muhammad yang bukan hubungan dagang, melainkan suatu hubungan batin yang dekat sekali. Tak jauh dari tempat itu ada sebuah kuburan, yakni kuburan Abdullah bin Abdul Mutollib, suami Aminah dan ayahanda Muhammad. Sekali setahun Aminah berziarah ke tempat itu. Selain dengan Aminah, Bani Najjar juga masih keluarga Abdul Mutallib dari pihak ibu. Aminah sebagai istri yang setia berziarah ke makam ini. Ketika berusia enam tahun, Muhammad juga pernah ke Yasrib bersama ibunya. Dalam perjalanan pulang ke Mekah, ketika sampai di pertengahan jalan, yaitu  di Abwa\u2019\u2014sekitar 37 km dari Yasrib\u2014Aminah jatuh sakit sampai akhirnya meninggal dan dikuburkan di tempat itu juga.\nKe kota Yasrib inilah Rasulullah dan sahabat-sahabatnya kemudian hijrah. Sejak itu nama Yasrib menjadi Medinah ar-Rasul, atau al-Madinah al-Munawwarah, dan dari kota ini pula Islam bersinar ke seluruh dunia.\n\n2. \u2018Aurah  \u0639\u064e\u0648\u0652\u0631\u064e\u0629 (al-A\u1e25z\u0101b/33:13)\n\u2018Aurah berarti malu, aib, dan buruk. Kata \u2018aurah ada yang mengatakan berasal dari kata \u2018awira artinya hilang perasaan, kalau dipakai untuk mata, maka mata itu hilang cahayanya dan lenyap pandangannya. Pada umumnya kata ini memberi arti yang tidak baik dipandang, memalukan dan menge-cewakan. Ada juga yang mengatakan bahwa kata \u2018aurah berasal dari kata \u2018\u0101ra artinya menutup dan menimbun seperti menutup mata air dan menimbunnya. Ini berarti pula bahwa  aurat itu adalah sesuatu yang ditutup sehingga tidak dapat dilihat dan dipandang. Ada juga yang berpendapat bahwa kata \u2018aurah berasal dari kata a\u2019wara yakni sesuatu yang jika dilihat akan mencemarkan  atau menimbulkan aib/malu. Dengan demikian, makna \u2018aurah adalah suatu anggota yang harus ditutup dan dijaga hingga tidak menimbulkan kekecewaan dan malu.",
        "sabab_nuzul": "Menurut suatu riwayat, ketika kaum Muslimin menggali parit, diketemukan sebuah batu putih yang besar lagi keras, sukar dipecahkan, sehingga menghalangi penggalian. Setelah Rasulullah saw mengetahuinya, beliau pun mengambil beliung dari S\u0101lman dan memecah batu itu. Maka pecahlah batu itu dengan memancarkan sinar yang menerangi seluruh kota Medinah, seakan-akan lampu di tengah-tengah rumah yang gelap. Melihat sinar itu, Rasulullah saw mengucapkan takbir kemenangan, kemudian diikuti oleh kaum Muslimin yang hadir. Hal itu dilakukan Rasulullah sampai tiga kali, dan setiap beliau memecah batu itu, memancar sinar yang terang, maka beliau bertakbir dan diikuti oleh kaum Muslimin. Setelah itu, Rasulullah saw bersabda, \u201cWaktu aku memecahkan batu itu kali yang pertama memancarlah sinar yang terang seperti yang kelihatan oleh kamu sekalian, maka aku melihat dalam cahaya itu istana-istana kota \u1e24\u012brah\uf02a) dan Mad\u0101\u2019in Kisra*) yang gemerlap laksana taring-taring anjing. Ketika itu Jibril mengatakan kepadaku bahwa kota-kota itu akan takluk ke bawah kekuasaan kaum Muslimin. Waktu aku memecahkan kali yang kedua memancar pulalah cahaya yang kamu lihat itu, maka aku melihat dalam cahaya itu istana-istana Kaisar di negeri Romawi\uf02a) yang gemerlapan laksana taring-taring anjing. Ketika itu Jibril menyampaikan kepadaku bahwa negeri Romawi akan takluk ke bawah kekuasaan kaum Muslimin. \nKemudian aku memecahkan batu yang ketiga kalinya, lalu memancar pula sinar yang terang dan aku melihat dalam sinar itu istana-istana di kota \u1e62an\u2019\u0101\u2019*) yang gemerlapan laksana taring-taring anjing dan Jibril menyampaikan kepadaku bahwa negeri \u1e62an\u2019\u0101\u2019 akan takluk ke bawah kekuasaan kaum Muslimin. Maka bergembiralah wahai kaum muslimin.\u201d \nMendengar berita itu kaum Muslimin bergembira dan mereka pun mengucapkan takbir dan tahmid sebagai tanda bersyukur kepada Tuhan Yang Maha Kuasa. Tatkala orang-orang munafik mendengar berita itu berkata dengan nada mencemooh, \u201cApakah kamu sekalian tidak memandang aneh berita yang seperti itu? Dia Muhammad memberikan angan-angan kosong dan menjanjikan janji-janji yang tidak benar kepada kamu sekalian. Dikatakannya kepadamu bahwa dia melihat dari kota Yasrib ini istana-istana di kota \u1e24\u012brah dan Mad\u0101\u2019in Kisra dan bahwa kota-kota itu akan kamu taklukkan, padahal kamu menggali parit itu tidak lain hanyalah karena gentar dan ketakutan, kamu tidak berani memperlihatkan dirimu kepada musuh.\u201d Maka turunlah ayat 9-25. \n",
        "conclusion": null
    }
}