{
    "id": 3573,
    "surah_id": 33,
    "ayah": 40,
    "page": 423,
    "quarter_hizb": 43,
    "juz": 22,
    "manzil": 5,
    "arabic": "\u0645\u064e\u0627 \u0643\u064e\u0627\u0646\u064e \u0645\u064f\u062d\u064e\u0645\u0651\u064e\u062f\u064c \u0627\u064e\u0628\u064e\u0627\u0653 \u0627\u064e\u062d\u064e\u062f\u064d \u0645\u0651\u0650\u0646\u0652 \u0631\u0651\u0650\u062c\u064e\u0627\u0644\u0650\u0643\u064f\u0645\u0652 \u0648\u064e\u0644\u0670\u0643\u0650\u0646\u0652 \u0631\u0651\u064e\u0633\u064f\u0648\u0652\u0644\u064e \u0627\u0644\u0644\u0651\u0670\u0647\u0650 \u0648\u064e\u062e\u064e\u0627\u062a\u064e\u0645\u064e \u0627\u0644\u0646\u0651\u064e\u0628\u0650\u064a\u0651\u0656\u0646\u064e\u06d7 \u0648\u064e\u0643\u064e\u0627\u0646\u064e \u0627\u0644\u0644\u0651\u0670\u0647\u064f \u0628\u0650\u0643\u064f\u0644\u0651\u0650 \u0634\u064e\u064a\u0652\u0621\u064d \u0639\u064e\u0644\u0650\u064a\u0652\u0645\u064b\u0627 \u08d6",
    "latin": "M\u0101 k\u0101na mu\u1e25ammadun ab\u0101 a\u1e25adim mir rij\u0101likum wa l\u0101kir ras\u016blall\u0101hi wa kh\u0101taman-nabiyy\u012bn(a), wa k\u0101nall\u0101hu bikulli syai'in \u2018al\u012bm\u0101(n).",
    "translation": "Muhammad itu bukanlah bapak dari seseorang di antara kamu, melainkan dia adalah utusan Allah dan penutup para nabi. Allah Maha Mengetahui segala sesuatu.",
    "no_footnote": null,
    "footnotes": null,
    "surah": {
        "id": 33,
        "arabic": " \u0627\u0644\u0627\u062d\u0632\u0627\u0628",
        "latin": "Al-A\u1e25z\u0101b",
        "transliteration": "Al-Ahzab",
        "translation": "Golongan Yang Bersekutu",
        "num_ayah": 73,
        "page": 418,
        "location": "Madaniyah"
    },
    "tafsir": {
        "wajiz": "Orang-orang musyrik, Yahudi, dan munafik tidak henti-hentinya mempersoalkan pernikahan Rasulullah dengan Zainab. Mereka mengejek Nabi karena menikahi mantan istri anaknya; mereka menganggap status anak angkat sama dengan anak kandung. Allah lalu menegaskan, \u201cMuhammad itu bukanlah bapak kandung dari seseorang laki-laki dewasa di antara kamu, tetapi dia adalah utusan Allah dan penutup para nabi. Dia adalah nabi terakhir yang menjadi bapak rohaniah bagi seluruh umat. Karena itu, janda Zaid bin Harisah dapat dinikahi oleh Rasulullah. Dan Allah Maha Mengetahui segala sesuatu yang kalian lakukan.\u201d Ayat ini merupakan dalil bahwa Nabi Muhammad adalah nabi terakhir dan tidak akan ada lagi nabi sesudahnya, Siapapun yang mengakui adanya nabi sesudah Nabi Muahammad, maka dia bukanlah bagian dari umat Islam.",
        "tahlili": "Tatkala Rasulullah menikahi Zainab, banyak orang munafik yang mencela pernikahan itu karena dipandang sebagai menikahi bekas istri anak sendiri. Maka Allah menurunkan ayat ini yang menyatakan bahwa Nabi Muhammad saw tidak usah khawatir tentang cemoohan orang-orang yang mengatakan bahwa beliau menikahi bekas istri anaknya, karena Zaid itu bukan anak kandung beliau, tetapi hanya anak angkat. Muhammad saw sekali-kali bukan bapak dari seorang laki-laki di antara umatnya, tetapi ia adalah utusan Allah dan nabi-Nya yang terakhir. Tidak ada nabi lagi setelah beliau. \nNabi Muhammad saw itu adalah bapak dari kaum Muslimin dalam segi kehormatan dan kasih sayang sebagaimana setiap rasul pun adalah bapak dari seluruh umatnya. Muhammad itu bukan bapak dari seorang laki-laki dari umatnya dengan pengertian \u201cbapak\u201d dalam segi keturunan yang menyebabkan haramnya mu\u1e63\u0101harah (perbesanan), tetapi beliau adalah bapak dari segenap kaum mukminin dalam segi agama. Beliau mempunyai rasa kasih sayang kepada seluruh umatnya untuk memperoleh kebahagiaan hidup di dunia dan akhirat, seperti kasih sayang seorang ayah terhadap anak-anaknya. \nAnak laki-laki Nabi saw dari Khadijah ada tiga orang, yaitu Q\u0101sim, \u1e6cayyib, dan \u1e6c\u0101hir, semuanya meninggal dunia sebelum balig. Dari M\u0101riyah al-Qib\u1e6diyah, Nabi memperoleh seorang anak laki-laki bernama Ibrahim yang juga meninggal ketika masih kecil. Di samping tiga anak laki-laki, Nabi saw juga mempunyai empat anak perempuan dari Khadijah, yaitu Zainab, Ruqayyah, Ummu Kal\u1e61\u016bm, dan F\u0101\u1e6dimah. Tiga yang pertama meninggal sebelum Nabi wafat. \nAllah Maha Mengetahui segala sesuatu tentang siapa yang diangkat sebagai nabi-nabi yang terdahulu dan siapa yang diangkat sebagai nabi penutup. Berikut hadis-hadis yang menerangkan tentang kedudukan Nabi Muhammad sebagai nabi penutup atau terakhir, di antaranya:\n\u0639\u064e\u0646\u0652 \u062c\u064e\u0627\u0628\u0650\u0631\u0650 \u0628\u0652\u0646\u0650 \u0645\u064f\u0637\u0652\u0639\u0650\u0645\u064d \u0642\u064e\u0627\u0644\u064e \u0633\u064e\u0645\u0650\u0639\u0652\u062a\u064f \u0631\u064e\u0633\u064f\u0648\u0652\u0644\u064e \u0627\u0644\u0644\u0651\u0670\u0647\u0650 \u064a\u064e\u0642\u064f\u0648\u0652\u0644\u064f: \u0627\u0650\u0646\u0651\u064e \u0644\u0650\u0649 \u0627\u064e\u0633\u0652\u0645\u064e\u0627\u0621\u064b \u0627\u064e\u0646\u064e\u0627 \u0645\u064f\u062d\u064e\u0645\u0651\u064e\u062f\u064c \u0627\u064e\u0646\u064e\u0627 \u0627\u064e\u062d\u0652\u0645\u064e\u062f\u064f \u0627\u064e\u0646\u064e\u0627 \u0627\u064e\u0644\u0652\u0645\u064e\u0627\u062d\u0650\u0649 \u0627\u0644\u0651\u064e\u0630\u0650\u064a\u0652 \u064a\u064e\u0645\u0652\u062d\u064f\u0648 \u0627\u0644\u0644\u0651\u0670\u0647\u064f \u0628\u0650\u0649 \u0627\u0644\u0652\u0643\u064f\u0641\u0652\u0631\u064e \u0648\u064e\u0627\u064e\u0646\u064e\u0627 \u0627\u064e\u0644\u0652\u062d\u064e\u0627\u0634\u0650\u0631\u064f \u0627\u064e\u0644\u0651\u064e\u0630\u0650\u064a\u0652 \u064a\u064f\u062d\u0652\u0634\u064e\u0631\u064f \u0627\u0644\u0646\u0651\u064e\u0627\u0633\u064f \u0639\u064e\u0644\u064e\u0649 \u0642\u064e\u062f\u064e\u0645\u0650\u0649 \u0648\u064e\u0627\u064e\u0646\u064e\u0627 \u0627\u0644\u0652\u0639\u064e\u0627\u0642\u0650\u0628\u064f \u0627\u0644\u0651\u064e\u0630\u0650\u064a\u0652 \u0644\u064e\u064a\u0652\u0633\u064e \u0628\u064e\u0639\u0652\u062f\u0650\u064a\u0652 \u0646\u064e\u0628\u0650\u064a\u0651\u064c . (\u0631\u0648\u0627\u0647 \u0627\u0644\u0628\u062e\u0627\u0631\u064a \u0648\u0645\u0633\u0644\u0645)\nDari J\u0101bir bin Mu\u1e6d\u2019im bahwa ia berkata, \u201cAku mendengar Rasulullah bersabda, \u2018Aku punya beberapa nama: aku Muhammad, aku Ahmad, aku al-M\u0101\u1e25\u012b yang mana Allah menghapus kekufuran denganku dan aku al-\u1e24\u0101syir di mana manusia dikumpulkan di bawah kakiku dan aku juga al-\u2019\u0100qib yang mana tidak ada lagi nabi sesudahku\u2019.\u201d (Riwayat al-Bukh\u0101r\u012b dan Muslim)\n\u0639\u064e\u0646\u0652 \u062c\u064e\u0627\u0628\u0650\u0631\u0650 \u0628\u0652\u0646\u0650 \u0639\u064e\u0628\u0652\u062f\u0650 \u0627\u0644\u0644\u0651\u0670\u0647\u0650 \u0642\u064e\u0627\u0644\u064e: \u0642\u064e\u0627\u0644\u064e \u0631\u064e\u0633\u064f\u0648\u0652\u0644\u064f \u0627\u0644\u0644\u0651\u0670\u0647\u0650 \u0645\u064e\u062b\u064e\u0644\u0650\u0649 \u0648\u064e\u0645\u064e\u062b\u064e\u0644\u064f \u0627\u0644\u0646\u0651\u064e\u0628\u0650\u064a\u0651\u0650\u064a\u0652\u0646\u064e \u0643\u064e\u0645\u064e\u062b\u064e\u0644\u0650 \u0631\u064e\u062c\u064f\u0644\u064d \u0628\u064e\u0646\u0649\u064e \u062f\u064e\u0627\u0631\u064b\u0627 \u0641\u064e\u0623\u064e\u0643\u0652\u0645\u064e\u0644\u064e\u0647\u064e\u0627 \u0648\u064e\u0627\u064e\u062d\u0652\u0633\u064e\u0646\u064e\u0647\u064e\u0627 \u0627\u0650\u0644\u0627\u0651\u064e \u0645\u064e\u0648\u0652\u0636\u0650\u0639\u064e \u0644\u064f\u0628\u0652\u0646\u064e\u0629\u064d \u0641\u064e\u0643\u064e\u0627\u0646\u064e \u0645\u064e\u0646\u0652 \u062f\u064e\u062e\u064e\u0644\u064e\u0647\u064e\u0627 \u0641\u064e\u0646\u064e\u0638\u064e\u0631\u064e \u0627\u0650\u0644\u064e\u064a\u0652\u0647\u064e\u0627 \u0642\u064e\u0627\u0644\u064e \u0645\u0627\u064e \u0627\u064e\u062d\u0652\u0633\u064e\u0646\u064e\u0647\u064e\u0627 \u0627\u0650\u0644\u0627\u0651\u064e \u0645\u064e\u0648\u0652\u0636\u0650\u0639\u064e \u0647\u064e\u0630\u0650\u0647\u0650 \u0627\u0644\u0644\u0651\u064f\u0628\u0652\u0646\u064e\u0629\u0650 \u0641\u064e\u0627\u064e\u0646\u064e\u0627 \u0645\u064e\u0648\u0652\u0636\u0650\u0639\u064f \u0627\u0644\u0644\u0651\u064f\u0628\u0652\u0646\u064e\u0629\u0650 \u062e\u064f\u062a\u0650\u0645\u064e \u0628\u0650\u0649 \u0627\u0652\u0644\u0627\u064e\u0646\u0652\u0628\u0650\u064a\u064e\u0627\u0621\u064f \u0639\u064e\u0644\u064e\u064a\u0652\u0647\u0650\u0645\u064f \u0627\u0644\u0633\u0651\u064e\u0644\u064e\u0627\u0645. (\u0631\u0648\u0627\u0647 \u0645\u0633\u0644\u0645)\nDari J\u0101bir bin \u2018Abdull\u0101h bahwa ia berkata, \u201cRasulullah bersabda, \u2018Posisiku di antara para nabi adalah seperti seorang laki-laki yang membangun rumah, dia menyempurnakan dan menghiasinya kecuali satu tempat batu (bata yang belum dipasang). Orang yang memasuki rumah itu dan melihatnya berkata, \u2018Alangkah bagusnya rumah ini, kecuali satu tempat batu (bata yang belum dipasang),\u2019 maka akulah batu (bata yang belum dipasang) itu, di mana  aku menjadi penutup kenabian\u2019.\u201d (Riwayat Muslim)\n\u0639\u064e\u0646\u0652 \u0627\u064e\u0628\u0650\u0649 \u0647\u064f\u0631\u064e\u064a\u0652\u0631\u064e\u0629\u064e \u0642\u064e\u0627\u0644\u064e \u0642\u064e\u0627\u0644\u064e \u0631\u064e\u0633\u064f\u0648\u0652\u0644\u064f \u0627\u0644\u0644\u0651\u0670\u0647\u0650  \u0641\u064f\u0636\u0651\u0650\u0644\u0652\u062a\u064f \u0639\u064e\u0644\u064e\u0649 \u0627\u0652\u0644\u0627\u064e\u0646\u0652\u0628\u0650\u064a\u064e\u0627\u0621\u0650 \u0628\u0650\u0633\u0650\u062a\u0651\u064d \u0627\u064f\u0639\u0652\u0637\u0650\u064a\u0652\u062a\u064f \u062c\u064e\u0648\u064e\u0627\u0645\u0650\u0639\u064e \u0627\u0644\u0652\u0643\u064e\u0644\u0650\u0645\u064e \u0648\u064e\u0646\u064f\u0635\u0650\u0631\u0652\u062a\u064f \u0628\u0650\u0627\u0644\u0631\u0651\u064f\u0639\u0652\u0628\u0650 \u0648\u064e\u0627\u064f\u062d\u0650\u0644\u0651\u064e\u062a\u0652 \u0644\u0650\u064a\u064e \u0627\u0644\u0652\u063a\u064e\u0646\u064e\u0627\u0626\u0650\u0645\u064f \u0648\u064e\u062c\u064f\u0639\u0650\u0644\u064e\u062a\u0652 \u0644\u0650\u064a\u064e \u0627\u0652\u0644\u0627\u064e\u0631\u0652\u0636\u064f \u0637\u064e\u0647\u064f\u0648\u0652\u0631\u064b\u0627 \u0648\u064e\u0645\u064e\u0633\u0652\u062c\u0650\u062f\u064b\u0627 \u0648\u064e\u0627\u064f\u0631\u0652\u0633\u0650\u0644\u0652\u062a\u064f \u0627\u0650\u0644\u064e\u0649 \u0627\u0644\u0652\u062e\u064e\u0644\u0652\u0642\u0650 \u0643\u064e\u0627\u0641\u0651\u064e\u0629\u064b \u0648\u064e\u062e\u064f\u062a\u0650\u0645\u064e \u0628\u0650\u064a\u064e \u0627\u0644\u0646\u0651\u064e\u0628\u0650\u064a\u0651\u064f\u0648\u0652\u0646\u064e. (\u0631\u0648\u0627\u0647 \u0645\u0633\u0644\u0645 \u0648 \u0627\u0644\u062a\u0631\u0645\u0630\u0649)\nDari Abu Hurairah bahwa ia berkata, \u201cRasulullah bersabda, \u2018Aku dilebihkan dari para nabi dengan enam hal: 1) Aku diberi kalimat yang singkat tapi padat (luas maknanya). 2) Aku ditolong dengan (diberi rasa) ketakutan (bagi musuh). 3) Dihalalkan bagiku rampasan perang. 4) Allah menjadikan bagiku bumi itu suci (untuk tayamum) dan menjadi masjid. 5) Aku diutus kepada seluruh makhluk, dan 6) Aku dijadikan sebagai penutup para nabi.\u201d (Riwayat Muslim dan at-Tirmi\u017c\u012b)\n\u0639\u064e\u0646\u0652 \u0627\u064e\u0646\u064e\u0633\u0650 \u0628\u0652\u0646\u0650 \u0645\u0627\u064e\u0644\u0650\u0643\u064d \u0642\u064e\u0627\u0644\u064e: \u0642\u064e\u0627\u0644\u064e \u0631\u064e\u0633\u064f\u0648\u0652\u0644\u064f \u0627\u0644\u0644\u0651\u0670\u0647\u0650 \u0627\u0650\u0646\u0651\u064e \u0627\u0644\u0631\u0651\u0650\u0633\u064e\u0627\u0644\u064e\u0629\u064e \u0648\u064e\u0627\u0644\u0646\u0651\u064f\u0628\u064f\u0648\u0651\u064e\u0629\u064e \u0642\u064e\u062f\u0652 \u0627\u0650\u0646\u0652\u0642\u064e\u0637\u064e\u0639\u064e\u062a\u0652 \u0641\u064e\u0644\u064e\u0627 \u0631\u064e\u0633\u064f\u0648\u0652\u0644\u064e \u0628\u064e\u0639\u0652\u062f\u0650\u0649 \u0648\u064e\u0644\u064e\u0627 \u0646\u064e\u0628\u0650\u064a\u0651\u064e. (\u0631\u0648\u0627\u0647 \u0627\u062d\u0645\u062f) \nDari Anas bin M\u0101lik bahwa ia berkata, \u201cRasulullah bersabda, \u2018Kerasulan dan kenabian telah terputus, tidak ada lagi rasul dan nabi sesudahku\u2019.\u201d (Riwayat A\u1e25mad)\n",
        "intro_surah": "Surah al-A\u1e25z\u0101b terdiri dari 73 ayat, termasuk golongan surah-surah Madaniyah, diturunkan sesudah surah \u0100li \u2018Imr\u0101n.\nDinamai \u201cAl-A\u1e25z\u0101b\u201d yang berarti \u201cgolongan-golongan yang bersekutu\u201d, karena dalam surah ini terdapat beberapa ayat, yaitu ayat 9 sampai dengan 27 yang berhubungan dengan Perang Ahzab, yaitu peperangan yang dilancarkan oleh orang-orang Yahudi, kaum munafik, dan orang-orang musyrik Mekah terhadap orang-orang mukmin di Medinah. Mereka telah mengepung rapat orang mukmin, sehingga sebagian dari mereka telah berputus asa dan menyangka bahwa mereka akan dihancurkan oleh musuh-musuh mereka.\nPeperangan ini merupakan ujian berat dari Allah terhadap orang-orang mukmin untuk menguji keteguhan iman mereka. Akhirnya Allah memberi-kan bala bantuan berupa tentara yang tidak kelihatan dan angin topan, sehingga musuh-musuh yang telah mengepung rapat itu menjadi kacau balau dan melarikan diri.\n\nPokok-pokok Isinya:\n1. \tKeimanan:\n\tCukuplah Allah sebagai pelindung; takdir Allah tidak dapat ditolak; Nabi Muhammad adalah contoh dan teladan yang paling baik; Nabi Muhammad adalah nabi dan rasul yang terakhir; hanya Allah sajalah yang mengetahui kapan terjadi hari Kiamat.\n2. \tHukum:\nHukum \u017bihar; kedudukan anak angkat; dasar hukum waris dalam Islam ialah hubungan nasab (pertalian darah); tidak ada masa idah bagi perempuan yang ditalak sebelum dicampuri; hukum-hukum khusus mengenai perkawinan Nabi Muhammad dan kewajiban-kewajiban istri-istrinya; larangan menyakiti hati Nabi saw.\n3. \tKisah:\nPerang Ahzab (Khandaq); kisah Zainab binti Jahsy dengan Zaid bin \u1e24\u0101ri\u1e61ah; memerangi Bani Qurai\u1e93ah.\n4. \tLain-lain:\nPenyelesaian pertentangan antara orang mukmin dengan orang kafir di akhirat karena mengingkari Allah dan rasul-Nya; sifat orang-orang munafik.",
        "outro_surah": null,
        "munasabah_prev_surah": "HUBUNGAN SURAH AS-SAJDAH\nDENGAN SURAH AL-A\u1e24Z\u0100B\n\nDalam Surah as-Sajdah diterangkan beberapa hal, yaitu Nabi Muhammad adalah benar-benar seorang rasul, anjuran salat malam, dan Allah adalah Penguasa alam semesta. Adapun Surah al-A\u1e25z\u0101b dimulai dengan perintah Nabi Muhammad supaya orang-orang mukmin tetap bertakwa, mengikuti Al-Qur\u2019an, dan hanya Allah-lah yang menolong mereka.\n",
        "munasabah_prev_theme": "Pada ayat-ayat yang lalu, Allah menggariskan ketentuan-Nya bahwa tidak ada pilihan lain bagi kaum  mukminin dan mukminat selain wajib mengikuti apa yang telah ditetapkan Allah dan rasul-Nya. Mereka dipandang sesat apabila menentang ketetapan itu. Pada ayat-ayat berikut ini, Allah memerintahkan kepada Nabi agar tidak takut kepada manusia karena hanya Allah yang lebih berhak ditakuti. Perintah itu berhubungan dengan kehendak hati beliau untuk menyatakan keinginan yang sebenarnya. Beliau menyembunyikan suatu perasaan tidak enak dan takut diketahui oleh manusia.\n",
        "theme_group": "\nSTATUS ANAK ANGKAT ",
        "kosakata": "1.\tAl-Khiyarah \u0627\u064e\u0644\u0652\u062e\u0650\u064a\u064e\u0631\u064e\u0629 (al-A\u1e25z\u0101b/33: 36)\nKata al-khiyarah disebut dua kali dalam Al-Qur\u2019an, dalam Surah al-Qa\u1e63a\u1e63/28: 68, dan dalam ayat ini. Dalam Surah al-Qa\u1e63a\u1e63/28: 68 terkandung penjelasan bahwa Allah yang menciptakan segala sesuatu sesuai kehendak-Nya dan Dia yang menentukan pilihan. Tidak ada bagi manusia pilihan jika Tuhan telah menetapkan pilihan-Nya. Demikian pula dalam ayat ini, kata al-khiyarah artinya pilihan, dalam arti: tidak sepantasnya seorang mukmin, baik laki-laki atau perempuan, melakukan pilihan, kalau Allah dan rasul-Nya telah menetapkan pilihannya dalam suatu perkara yang penting, karena ketetapan atau pilihan itu akan menjadi ajaran yang harus diikuti oleh orang-orang beriman di belakang hari.\n2.\tWa\u1e6dar\u0101 \u0648\u064e\u0637\u064e\u0631\u064b\u0627  (al-A\u1e25z\u0101b/33: 37)\nKata wa\u1e6dar hanya disebutkan dalam ayat ini. Kata wa\u1e6dar merupakan kata mufrad, jamaknya aw\u1e6dar, dalam kamus diartikan sebagai hajat dan keinginan (al-hajat wa al-bugyah). Menurut al-\u1e24ajj\u0101j, al-wa\u1e6dar adalah puncak kebutuhan yang mengandung cita-cita. Kemudian, kata ini telah menjadi ungkapan yang lazim dalam masalah talak. Seseorang menceraikan istrinya karena tidak membutuhkannya lagi. Jadi, penggunaan kata wa\u1e6dar dalam rangkaian ayat ini dimaksudkan dengan arti: ketika Zaid bin \u1e24ari\u1e61ah tidak membutuhkan lagi Zainab binti Jahsy (mentalaknya), barulah Allah mengawinkan Nabi Muhammad saw dengannya untuk diketahui dan dimengerti oleh umat Islam bahwa menurut syariat Islam mengawini mantan istri anak angkat adalah halal atau boleh.\n3.\tKh\u0101tam al-Nabiyy\u012bn  \u062e\u064e\u0627\u062a\u064e\u0645 \u0627\u0644\u0646\u0651\u064e\u0628\u0650\u064a\u0651\u0650\u064a\u0652\u0646\u064e(al-A\u1e25z\u0101b/33: 40)\nAda dua qiraat mutawatirah pada kalimat ini, yaitu kh\u0101tam dan kh\u0101tim. Kata kh\u0101tam artinya cincin yang biasa dipakai untuk keindahan. Ada juga unsur menonjol. Sedangkan kata kh\u0101tim adalah isim f\u0101\u2019il dari kh\u0101tam. Para mufasir sepakat, bacaan kh\u0101tam al-nabiyy\u012bn artinya akhir atau pemuncak para nabi (akhir al-nabiyy\u012bn). Nabi Muhammad ditegaskan Allah dalam ayat ini, sebagai nabi terakhir atau penutup. Dengan demikian, ayat ini menyatakan bahwa tidak ada nabi setelah Nabi Muhammad, yang berarti pula tidak ada rasul setelah kerasulan Muhammad, karena kedudukan kerasulan lebih khusus dibandingkan maqam kenabian; rasul lebih istimewa daripada nabi.",
        "sabab_nuzul": null,
        "conclusion": "1.\tNabi Muhammad diperintahkan menikahi bekas istri anak angkatnya, untuk menghilangkan adat Jahiliah yang memandang anak angkat seperti anak kandung dalam segi hukum, keturunan, dan warisan.\n2.\tNabi Muhammad diperintahkan untuk melaksanakan sunatullah seperti yang telah dilaksanakan oleh para nabi sebelumnya dengan khusyuk dan ikhlas.\n3.\tNabi Muhammad adalah nabi penutup, yang tidak ada lagi nabi setelah beliau.\n"
    }
}