{
    "id": 3555,
    "surah_id": 33,
    "ayah": 22,
    "page": 420,
    "quarter_hizb": 42.75,
    "juz": 21,
    "manzil": 5,
    "arabic": "\u0648\u064e\u0644\u064e\u0645\u0651\u064e\u0627 \u0631\u064e\u0627\u064e \u0627\u0644\u0652\u0645\u064f\u0624\u0652\u0645\u0650\u0646\u064f\u0648\u0652\u0646\u064e \u0627\u0644\u0652\u0627\u064e\u062d\u0652\u0632\u064e\u0627\u0628\u064e\u06d9 \u0642\u064e\u0627\u0644\u064f\u0648\u0652\u0627 \u0647\u0670\u0630\u064e\u0627 \u0645\u064e\u0627 \u0648\u064e\u0639\u064e\u062f\u064e\u0646\u064e\u0627 \u0627\u0644\u0644\u0651\u0670\u0647\u064f \u0648\u064e\u0631\u064e\u0633\u064f\u0648\u0652\u0644\u064f\u0647\u0657 \u0648\u064e\u0635\u064e\u062f\u064e\u0642\u064e \u0627\u0644\u0644\u0651\u0670\u0647\u064f \u0648\u064e\u0631\u064e\u0633\u064f\u0648\u0652\u0644\u064f\u0647\u0657  \u06d6\u0648\u064e\u0645\u064e\u0627 \u0632\u064e\u0627\u062f\u064e\u0647\u064f\u0645\u0652 \u0627\u0650\u0644\u0651\u064e\u0627\u0653 \u0627\u0650\u064a\u0652\u0645\u064e\u0627\u0646\u064b\u0627 \u0648\u0651\u064e\u062a\u064e\u0633\u0652\u0644\u0650\u064a\u0652\u0645\u064b\u0627\u06d7 ",
    "latin": "Wa lamm\u0101 ra'al-mu'min\u016bnal-a\u1e25z\u0101b(a), q\u0101l\u016b h\u0101\u017c\u0101 m\u0101 wa\u2018adanall\u0101hu wa ras\u016bluh\u016b wa \u1e63adaqall\u0101hu wa ras\u016bluh(\u016b), wa m\u0101 z\u0101dahum ill\u0101 \u012bm\u0101naw wa tasl\u012bm\u0101(n).",
    "translation": "Ketika orang-orang mukmin melihat golongan-golongan (yang bersekutu) itu, mereka berkata, \u201cInilah yang dijanjikan Allah dan Rasul-Nya613) kepada kita.\u201d Benarlah Allah dan Rasul-Nya. Hal itu justru makin menambah keimanan dan keislaman mereka.",
    "no_footnote": "613",
    "footnotes": "613) Yang dijanjikan Allah Swt. dan Rasul itu adalah kemenangan setelah mengalami kesukaran.",
    "surah": {
        "id": 33,
        "arabic": " \u0627\u0644\u0627\u062d\u0632\u0627\u0628",
        "latin": "Al-A\u1e25z\u0101b",
        "transliteration": "Al-Ahzab",
        "translation": "Golongan Yang Bersekutu",
        "num_ayah": 73,
        "page": 418,
        "location": "Madaniyah"
    },
    "tafsir": {
        "wajiz": "Salah satu keteladanan Rasulullah adalah tidak gentar berhadapan dengan musuh. Inilah yang seharusnya diteladani oleh orang-orang mukmin pada perang Khandak. Dan ketika orang-orang mukmin melihat golongan-golongan Yahudi Bani Quraizah dan kafir Mekah yang bersekutu itu, mereka berkata, \u201cInilah yang dijanjikan Allah dan Rasul-Nya kepada kita. Kita akan memperoleh kemenangan setelah kekalahan kita pada perang Uhud.\u201d Dan benarlah janji Allah dan Rasul-Nya. Dan keadaan yang demikian sulit dan berat itu justru menambah keimanan dan keislaman mereka.",
        "tahlili": "Pada ayat ini, Allah menerangkan sikap dan tindakan kaum Muslimin dalam menghadapi Perang Ahzab. Mereka bekerja dan berjuang semata-mata karena Allah dan mengikuti perintah Nabi, bukan karena kepentingan diri sendiri. Seluruh harta bahkan jiwa raga mereka serahkan kepada Nabi untuk kepentingan perjuangan. Mereka berjuang dengan tabah dan sabar. Semakin besar bahaya mengancam, semakin kuat iman dan ketabahan mereka. Ketika mereka melihat keadaan tentara sekutu yang jumlahnya sangat besar dan akan menyerbu mereka, sedang jumlah mereka hanya sedikit, mereka berkata, \u201cInilah yang telah dijanjikan Allah dan Rasul Nya kepada kita, berupa ujian dan cobaan, sebagai pendahuluan dari kemenangan yang akan datang. Oleh karena itu, kita harus tabah dan sabar dalam menghadapinya.\u201d\nPada ayat yang lain diterangkan syarat-syarat kebahagiaan dan kemenangan yang akan diperoleh orang-orang yang beriman. Allah berfirman:\n\u0627\u064e\u0645\u0652 \u062d\u064e\u0633\u0650\u0628\u0652\u062a\u064f\u0645\u0652 \u0627\u064e\u0646\u0652 \u062a\u064e\u062f\u0652\u062e\u064f\u0644\u064f\u0648\u0627 \u0627\u0644\u0652\u062c\u064e\u0646\u0651\u064e\u0629\u064e \u0648\u064e\u0644\u064e\u0645\u0651\u064e\u0627 \u064a\u064e\u0623\u0652\u062a\u0650\u0643\u064f\u0645\u0652 \u0645\u0651\u064e\u062b\u064e\u0644\u064f \u0627\u0644\u0651\u064e\u0630\u0650\u064a\u0652\u0646\u064e \u062e\u064e\u0644\u064e\u0648\u0652\u0627 \u0645\u0650\u0646\u0652 \u0642\u064e\u0628\u0652\u0644\u0650\u0643\u064f\u0645\u0652 \u06d7 \u0645\u064e\u0633\u0651\u064e\u062a\u0652\u0647\u064f\u0645\u064f \u0627\u0644\u0652\u0628\u064e\u0623\u0652\u0633\u064e\u0627\u06e4\u0621\u064f \u0648\u064e\u0627\u0644\u0636\u0651\u064e\u0631\u0651\u064e\u0627\u06e4\u0621\u064f \u0648\u064e\u0632\u064f\u0644\u0652\u0632\u0650\u0644\u064f\u0648\u0652\u0627 \u062d\u064e\u062a\u0651\u0670\u0649 \u064a\u064e\u0642\u064f\u0648\u0652\u0644\u064e \u0627\u0644\u0631\u0651\u064e\u0633\u064f\u0648\u0652\u0644\u064f \u0648\u064e\u0627\u0644\u0651\u064e\u0630\u0650\u064a\u0652\u0646\u064e \u0627\u0670\u0645\u064e\u0646\u064f\u0648\u0652\u0627 \u0645\u064e\u0639\u064e\u0647\u0657 \u0645\u064e\u062a\u0670\u0649 \u0646\u064e\u0635\u0652\u0631\u064f \u0627\u0644\u0644\u0651\u0670\u0647\u0650 \u06d7 \u0627\u064e\u0644\u064e\u0627\u0653 \u0627\u0650\u0646\u0651\u064e \u0646\u064e\u0635\u0652\u0631\u064e \u0627\u0644\u0644\u0651\u0670\u0647\u0650 \u0642\u064e\u0631\u0650\u064a\u0652\u0628\u064c \u0662\u0661\u0664 (\u0627\u0644\u0628\u0642\u0631\u0629)\nAtaukah kamu mengira bahwa kamu akan masuk surga, padahal belum datang kepadamu (cobaan) seperti (yang dialami) orang-orang terdahulu sebelum kamu. Mereka ditimpa kemelaratan, penderitaan dan diguncang (dengan berbagai cobaan), sehingga Rasul dan orang-orang yang beriman bersamanya berkata, \u201cKapankah datang pertolongan Allah?\u201d Ingatlah, sesungguhnya pertolongan Allah itu dekat. (al-Baqarah/2: 214)\n\nDan firman-Nya lagi:\n\u0627\u064e\u062d\u064e\u0633\u0650\u0628\u064e \u0627\u0644\u0646\u0651\u064e\u0627\u0633\u064f \u0627\u064e\u0646\u0652 \u064a\u0651\u064f\u062a\u0652\u0631\u064e\u0643\u064f\u0648\u0652\u0653\u0627 \u0627\u064e\u0646\u0652 \u064a\u0651\u064e\u0642\u064f\u0648\u0652\u0644\u064f\u0648\u0652\u0653\u0627 \u0627\u0670\u0645\u064e\u0646\u0651\u064e\u0627 \u0648\u064e\u0647\u064f\u0645\u0652 \u0644\u064e\u0627 \u064a\u064f\u0641\u0652\u062a\u064e\u0646\u064f\u0648\u0652\u0646\u064e \u0662 (\u0627\u0644\u0639\u0646\u0643\u0628\u0648\u062a)\nApakah manusia mengira bahwa mereka akan dibiarkan hanya dengan mengatakan, \u201cKami telah beriman,\u201d dan mereka tidak diuji? (al- \u2018Ankab\u016bt/29: 2)\n\nDiriwayatkan oleh Ibnu Ka\u1e61ir bahwa pada waktu menggali parit sebelum tentara sekutu datang, Rasulullah saw pernah menyampaikan bahwa Jibril mengatakan kepadanya bahwa kerajaan Persia dan Romawi akan takluk di bawah kekuasaan kaum Muslimin. Mendengar kabar berita itu, kaum Muslimin sangat senang karena mereka percaya bahwa itu adalah janji Allah. \nTatkala datang tentara sekutu mengepung, mereka menganggap bahwa kedatangan tentara sekutu itu adalah ujian dan cobaan bagi mereka sebelum memperoleh kemenangan dan sebelum mereka menaklukkan Persia dan Romawi, sehingga mereka mengucapkan, \u201cBenar apa yang dijanjikan Allah itu dengan meluaskan agama Islam ke seluruh penjuru dunia di kemudian hari, dan benar pula apa yang diisyaratkan Allah untuk mencapai kemenangan dan kebahagiaan itu, yaitu bertawakal dan sabar dalam menerima cobaan dan halangan.\u201d",
        "intro_surah": "Surah al-A\u1e25z\u0101b terdiri dari 73 ayat, termasuk golongan surah-surah Madaniyah, diturunkan sesudah surah \u0100li \u2018Imr\u0101n.\nDinamai \u201cAl-A\u1e25z\u0101b\u201d yang berarti \u201cgolongan-golongan yang bersekutu\u201d, karena dalam surah ini terdapat beberapa ayat, yaitu ayat 9 sampai dengan 27 yang berhubungan dengan Perang Ahzab, yaitu peperangan yang dilancarkan oleh orang-orang Yahudi, kaum munafik, dan orang-orang musyrik Mekah terhadap orang-orang mukmin di Medinah. Mereka telah mengepung rapat orang mukmin, sehingga sebagian dari mereka telah berputus asa dan menyangka bahwa mereka akan dihancurkan oleh musuh-musuh mereka.\nPeperangan ini merupakan ujian berat dari Allah terhadap orang-orang mukmin untuk menguji keteguhan iman mereka. Akhirnya Allah memberi-kan bala bantuan berupa tentara yang tidak kelihatan dan angin topan, sehingga musuh-musuh yang telah mengepung rapat itu menjadi kacau balau dan melarikan diri.\n\nPokok-pokok Isinya:\n1. \tKeimanan:\n\tCukuplah Allah sebagai pelindung; takdir Allah tidak dapat ditolak; Nabi Muhammad adalah contoh dan teladan yang paling baik; Nabi Muhammad adalah nabi dan rasul yang terakhir; hanya Allah sajalah yang mengetahui kapan terjadi hari Kiamat.\n2. \tHukum:\nHukum \u017bihar; kedudukan anak angkat; dasar hukum waris dalam Islam ialah hubungan nasab (pertalian darah); tidak ada masa idah bagi perempuan yang ditalak sebelum dicampuri; hukum-hukum khusus mengenai perkawinan Nabi Muhammad dan kewajiban-kewajiban istri-istrinya; larangan menyakiti hati Nabi saw.\n3. \tKisah:\nPerang Ahzab (Khandaq); kisah Zainab binti Jahsy dengan Zaid bin \u1e24\u0101ri\u1e61ah; memerangi Bani Qurai\u1e93ah.\n4. \tLain-lain:\nPenyelesaian pertentangan antara orang mukmin dengan orang kafir di akhirat karena mengingkari Allah dan rasul-Nya; sifat orang-orang munafik.",
        "outro_surah": null,
        "munasabah_prev_surah": "HUBUNGAN SURAH AS-SAJDAH\nDENGAN SURAH AL-A\u1e24Z\u0100B\n\nDalam Surah as-Sajdah diterangkan beberapa hal, yaitu Nabi Muhammad adalah benar-benar seorang rasul, anjuran salat malam, dan Allah adalah Penguasa alam semesta. Adapun Surah al-A\u1e25z\u0101b dimulai dengan perintah Nabi Muhammad supaya orang-orang mukmin tetap bertakwa, mengikuti Al-Qur\u2019an, dan hanya Allah-lah yang menolong mereka.\n",
        "munasabah_prev_theme": "Pada ayat-ayat yang lalu diterangkan tentang pengkhianatan orang Yahudi yang bergabung dengan tentara sekutu untuk menghancurkan umat Islam, dan orang munafik yang tidak mau ikut bertempur, bahkan mereka membujuk umat Islam untuk menyerah pada musuh. Pada ayat-ayat berikut ini dijelaskan bahwa di antara orang beriman ada yang tidak gentar untuk berjuang walau harus gugur di medan perang, dan perang ini adalah ujian untuk mengetahui siapa yang benar-benar beriman dan yang tidak beriman.",
        "theme_group": "PENGKHIANATAN ORANG MUNAFIK\nDALAM PERANG AHZAB\n",
        "kosakata": "Kosakata: Uswatun \u1e24asanah \u0627\u064f\u0633\u0652\u0648\u064e\u0629\u064c \u062d\u064e\u0633\u064e\u0646\u064e\u0629\u064c (al-A\u1e25z\u0101b/33: 21)\nUswah \u1e24asanah diterjemahkan dengan panutan yang baik. Uswah bisa dibaca dengan men-\u1e0dammah-kan hamzah, bisa juga dibaca iswah dengan membaca kasrah hamzahnya. Keduanya qira\u2019at yang mutawatirah. Kata ini bisa jadi merupakan kata jadian (ma\u1e63dar) dari as\u0101-ya\u2019s\u016b-aswan-asan,  yang artinya mengikuti (iqtid\u0101\u2019) atau nama dari sesuatu yang diikuti. Akar katanya (alif-sin-waw) yang mempunyai arti menyembuhkan dan memperbaiki, mendamaikan (al-mud\u0101w\u0101h wa al-i\u1e63lah). Seorang dokter disebut al-\u0101s\u012b. Ungkapan \u201casautu al-jurh\u201d artinya aku mengobati luka. Asautu bainal qaum artinya aku mendamaikan dua kelompok itu. Bagaimana hubungan antara arti memperbaiki, mengobati, mendamaikan dengan arti panutan yang merupakan arti dari kata \u201cuswah\u201d, barangkali karena orang yang pekerjaannya mendamaikan, mengobati patut untuk menjadi panutan.",
        "sabab_nuzul": null,
        "conclusion": null
    }
}