{
    "id": 3558,
    "surah_id": 33,
    "ayah": 25,
    "page": 421,
    "quarter_hizb": 42.75,
    "juz": 21,
    "manzil": 5,
    "arabic": "\u0648\u064e\u0631\u064e\u062f\u0651\u064e \u0627\u0644\u0644\u0651\u0670\u0647\u064f \u0627\u0644\u0651\u064e\u0630\u0650\u064a\u0652\u0646\u064e \u0643\u064e\u0641\u064e\u0631\u064f\u0648\u0652\u0627 \u0628\u0650\u063a\u064e\u064a\u0652\u0638\u0650\u0647\u0650\u0645\u0652 \u0644\u064e\u0645\u0652 \u064a\u064e\u0646\u064e\u0627\u0644\u064f\u0648\u0652\u0627 \u062e\u064e\u064a\u0652\u0631\u064b\u0627 \u06d7\u0648\u064e\u0643\u064e\u0641\u064e\u0649 \u0627\u0644\u0644\u0651\u0670\u0647\u064f \u0627\u0644\u0652\u0645\u064f\u0624\u0652\u0645\u0650\u0646\u0650\u064a\u0652\u0646\u064e \u0627\u0644\u0652\u0642\u0650\u062a\u064e\u0627\u0644\u064e \u06d7\u0648\u064e\u0643\u064e\u0627\u0646\u064e \u0627\u0644\u0644\u0651\u0670\u0647\u064f \u0642\u064e\u0648\u0650\u064a\u0651\u064b\u0627 \u0639\u064e\u0632\u0650\u064a\u0652\u0632\u064b\u0627\u06da ",
    "latin": "Wa raddall\u0101hul-la\u017c\u012bna kafar\u016b bigai\u1e93ihim lam yan\u0101l\u016b khair\u0101(n), wa kafall\u0101hul-mu'min\u012bnal-qit\u0101l(a), wa k\u0101nall\u0101hu qawiyyan \u2018az\u012bz\u0101(n).",
    "translation": "Allah menghalau orang-orang kafir itu dalam keadaan hati mereka penuh kejengkelan. Mereka tidak memperoleh keuntungan apa pun. Cukuplah Allah (yang menghindarkan) orang-orang mukmin dari peperangan.615) Allah Maha Kuat lagi Maha Perkasa.",
    "no_footnote": "615",
    "footnotes": "615) Dalam perang Khandaq, orang mukmin urung berperang sebab Allah Swt. telah menghalau musuh mereka dengan mengirimkan angin dan malaikat.",
    "surah": {
        "id": 33,
        "arabic": " \u0627\u0644\u0627\u062d\u0632\u0627\u0628",
        "latin": "Al-A\u1e25z\u0101b",
        "transliteration": "Al-Ahzab",
        "translation": "Golongan Yang Bersekutu",
        "num_ayah": 73,
        "page": 418,
        "location": "Madaniyah"
    },
    "tafsir": {
        "wajiz": "Dan pada akhir Perang Khandak, Allah menghalau orang-orang kafir itu dengan mengirim angin kencang yang membuat keadaan mereka penuh kejengkelan karena menderita kekalahan tanpa peperangan dan mereka juga tidak memperoleh keuntungan apa pun, baik ganimah maupun tawanan perang. Dengan demikian, cukuplah Allah yang menolong menghindarkan orang-orang mukmin dalam peperangan karena musuh mereka hancur tersapu angin kencang. Dan Allah Mahakuat, Mahaperkasa; tidak ada yang mampu mengalahkan dan melemahkan-Nya.",
        "tahlili": "Pada ayat ini, kembali Allah menerangkan tentang nikmat besar yang telah dilimpahkan-Nya kepada kaum Muslimin di Perang Ahzab, sehingga mereka lepas dari bahaya kehancuran. Nikmat itu ialah Allah telah mengirimkan kepada mereka bala bantuan berupa angin kencang yang sangat dingin dan bala tentara malaikat yang tidak kelihatan. Akibatnya orang-orang yang ingkar kepada Allah dan Rasul-Nya, yaitu kaum Quraisy beserta pengikut-pengikutnya, Ga\u1e6daf\u0101n dan pengikut-pengikutnya, golongan Yahudi, dan kaum munafik, tidak memperoleh apa yang mereka inginkan, bahkan mereka lari tunggang-langgang mencari keselamatan dirinya, kembali ke kampung halamannya masing-masing.\nDiriwayatkan oleh al-Bukh\u0101r\u012b dan Muslim dari Ab\u016b Hurairah bahwa Rasulullah saw bersabda:\n\u0644\u064e\u0627\u0627\u0650\u0644\u064e\u0647\u064e \u0627\u0650\u0644\u0627\u0651\u064e \u0627\u0644\u0644\u0647 \u064f\u0648\u064e\u062d\u0652\u062f\u064e\u0647\u064f \u0635\u064e\u062f\u064e\u0642\u064e \u0648\u064e\u0639\u0652\u062f\u064e\u0647\u064f \u0648\u064e\u0646\u064e\u0635\u064e\u0631\u064e \u0639\u064e\u0628\u0652\u062f\u064e\u0647\u064f \u0648\u064e\u0627\u064e\u0639\u064e\u0632\u0651\u064e\u062c\u064f\u0646\u0652\u062f\u064e\u0647\u064f \u0648\u064e\u0647\u064e\u0632\u064e\u0645\u064e \u0627\u0652\u0644\u0627\u064e\u062d\u0652\u0632\u064e\u0627\u0628\u064e \u0648\u064e\u062d\u0652\u062f\u064e\u0647\u064f \u0641\u064e\u0644\u064e\u0627 \u0634\u064e\u064a\u0652\u0621\u064e \u0628\u064e\u0639\u0652\u062f\u064e\u0647\u064f.\nTidak ada Tuhan selain Allah sendiri. Dia menepati janji-Nya, menolong hamba-Nya, memenangkan tentara-Nya, menghancurkan tentara yang bersekutu sendirian, maka tidak ada lagi sesuatu pun sesudahnya.\n\nPada hadis yang lain al-Bukh\u0101r\u012b dan Muslim dari \u2018Abdull\u0101h bin Ab\u016b Auf\u0101, ia berkata, \u201cRasulullah saw berdoa kepada Allah:\n\u0627\u064e\u0644\u0644\u0651\u064e\u0647\u064f\u0645\u0651\u064e \u0645\u064f\u0646\u064e\u0632\u0651\u0650\u0644\u064e \u0627\u0644\u0652\u0643\u0650\u062a\u064e\u0627\u0628\u0650 \u0633\u064e\u0631\u0650\u064a\u0652\u0639\u064e \u0627\u0644\u0652\u062d\u0650\u0633\u064e\u0627\u0628\u0650 \u0627\u0650\u0647\u0652\u0632\u0650\u0645\u0650 \u0627\u0652\u0644\u0627\u064e\u062d\u0652\u0632\u064e\u0627\u0628\u064e \u0627\u064e\u0644\u0644\u0651\u064e\u0647\u064f\u0645\u0651\u064e \u0627\u0647\u0652\u0632\u0650\u0645\u0652\u0647\u064f\u0645\u0652 \u0648\u064e\u0632\u064e\u0644\u0652\u0632\u0650\u0644\u0652\u0647\u064f\u0645\u0652.\n\u201cWahai Tuhan yang telah menurunkan Al-Qur\u2019an, amat cepat hisabnya, hancurkanlah tentara yang bersekutu itu, wahai Tuhan, hancurkanlah mereka dan goncangkanlah mereka.\u201d\n\nMenurut riwayat Mu\u1e25ammad bin Is\u1e25\u0101q, tatkala tentara yang bersekutu telah lari dan meninggalkan parit itu, Rasulullah saw bersabda:\n\u0644\u064e\u0646\u0652 \u062a\u064e\u063a\u0652\u0632\u064f\u0648\u064e\u0643\u064f\u0645\u0652 \u0642\u064f\u0631\u064e\u064a\u0652\u0634\u064c \u0628\u064e\u0639\u0652\u062f\u064e \u0639\u064e\u0627\u0645\u0650\u0643\u064f\u0645\u0652 \u0647\u064e\u0630\u064e\u0627 \u0648\u064e\u0644\u0670\u0643\u0650\u0646\u0651\u064e\u0643\u064f\u0645\u0652 \u062a\u064e\u063a\u0652\u0632\u064f\u0648\u0652\u0647\u064f\u0645\u0652.\nOrang-orang Quraisy sekali-kali tidak akan memerangi kamu sesudah tahun ini, tetapi kamulah yang akan memerangi mereka.\n\nPerkataan Rasulullah ini terbukti di kemudian hari. Setelah Perang Ahzab, orang-orang musyrik tidak pernah lagi memerangi kaum Muslimin, tetapi Nabi dan kaum Musliminlah yang memerangi mereka, sampai Mekah dapat ditaklukkan. Oleh karena itu, dapat dikatakan bahwa peperangan Ahzab merupakan titik puncak kesulitan yang dihadapi Nabi dan kaum Muslimin dalam menghadapi orang-orang musyrik dalam menyebarkan agama Islam. Sekalipun kesulitan-kesulitan masih ada, tetapi tidak berarti bila dibanding dengan kesulitan-kesulitan sebelumnya.\nPada akhir ayat ini ditegaskan bahwa Allah Mahakuat lagi Maha Perkasa, tidak dapat ditandingi oleh sesuatu pun. Oleh Karena itu, dengan mudah Dia menghalau tentara yang bersekutu yang berjumlah banyak itu.",
        "intro_surah": "Surah al-A\u1e25z\u0101b terdiri dari 73 ayat, termasuk golongan surah-surah Madaniyah, diturunkan sesudah surah \u0100li \u2018Imr\u0101n.\nDinamai \u201cAl-A\u1e25z\u0101b\u201d yang berarti \u201cgolongan-golongan yang bersekutu\u201d, karena dalam surah ini terdapat beberapa ayat, yaitu ayat 9 sampai dengan 27 yang berhubungan dengan Perang Ahzab, yaitu peperangan yang dilancarkan oleh orang-orang Yahudi, kaum munafik, dan orang-orang musyrik Mekah terhadap orang-orang mukmin di Medinah. Mereka telah mengepung rapat orang mukmin, sehingga sebagian dari mereka telah berputus asa dan menyangka bahwa mereka akan dihancurkan oleh musuh-musuh mereka.\nPeperangan ini merupakan ujian berat dari Allah terhadap orang-orang mukmin untuk menguji keteguhan iman mereka. Akhirnya Allah memberi-kan bala bantuan berupa tentara yang tidak kelihatan dan angin topan, sehingga musuh-musuh yang telah mengepung rapat itu menjadi kacau balau dan melarikan diri.\n\nPokok-pokok Isinya:\n1. \tKeimanan:\n\tCukuplah Allah sebagai pelindung; takdir Allah tidak dapat ditolak; Nabi Muhammad adalah contoh dan teladan yang paling baik; Nabi Muhammad adalah nabi dan rasul yang terakhir; hanya Allah sajalah yang mengetahui kapan terjadi hari Kiamat.\n2. \tHukum:\nHukum \u017bihar; kedudukan anak angkat; dasar hukum waris dalam Islam ialah hubungan nasab (pertalian darah); tidak ada masa idah bagi perempuan yang ditalak sebelum dicampuri; hukum-hukum khusus mengenai perkawinan Nabi Muhammad dan kewajiban-kewajiban istri-istrinya; larangan menyakiti hati Nabi saw.\n3. \tKisah:\nPerang Ahzab (Khandaq); kisah Zainab binti Jahsy dengan Zaid bin \u1e24\u0101ri\u1e61ah; memerangi Bani Qurai\u1e93ah.\n4. \tLain-lain:\nPenyelesaian pertentangan antara orang mukmin dengan orang kafir di akhirat karena mengingkari Allah dan rasul-Nya; sifat orang-orang munafik.",
        "outro_surah": null,
        "munasabah_prev_surah": "HUBUNGAN SURAH AS-SAJDAH\nDENGAN SURAH AL-A\u1e24Z\u0100B\n\nDalam Surah as-Sajdah diterangkan beberapa hal, yaitu Nabi Muhammad adalah benar-benar seorang rasul, anjuran salat malam, dan Allah adalah Penguasa alam semesta. Adapun Surah al-A\u1e25z\u0101b dimulai dengan perintah Nabi Muhammad supaya orang-orang mukmin tetap bertakwa, mengikuti Al-Qur\u2019an, dan hanya Allah-lah yang menolong mereka.\n",
        "munasabah_prev_theme": "Pada ayat-ayat yang lalu diterangkan tentang pengkhianatan orang Yahudi yang bergabung dengan tentara sekutu untuk menghancurkan umat Islam, dan orang munafik yang tidak mau ikut bertempur, bahkan mereka membujuk umat Islam untuk menyerah pada musuh. Pada ayat-ayat berikut ini dijelaskan bahwa di antara orang beriman ada yang tidak gentar untuk berjuang walau harus gugur di medan perang, dan perang ini adalah ujian untuk mengetahui siapa yang benar-benar beriman dan yang tidak beriman.",
        "theme_group": "PENGKHIANATAN ORANG MUNAFIK\nDALAM PERANG AHZAB\n",
        "kosakata": "Kosakata: Uswatun \u1e24asanah \u0627\u064f\u0633\u0652\u0648\u064e\u0629\u064c \u062d\u064e\u0633\u064e\u0646\u064e\u0629\u064c (al-A\u1e25z\u0101b/33: 21)\nUswah \u1e24asanah diterjemahkan dengan panutan yang baik. Uswah bisa dibaca dengan men-\u1e0dammah-kan hamzah, bisa juga dibaca iswah dengan membaca kasrah hamzahnya. Keduanya qira\u2019at yang mutawatirah. Kata ini bisa jadi merupakan kata jadian (ma\u1e63dar) dari as\u0101-ya\u2019s\u016b-aswan-asan,  yang artinya mengikuti (iqtid\u0101\u2019) atau nama dari sesuatu yang diikuti. Akar katanya (alif-sin-waw) yang mempunyai arti menyembuhkan dan memperbaiki, mendamaikan (al-mud\u0101w\u0101h wa al-i\u1e63lah). Seorang dokter disebut al-\u0101s\u012b. Ungkapan \u201casautu al-jurh\u201d artinya aku mengobati luka. Asautu bainal qaum artinya aku mendamaikan dua kelompok itu. Bagaimana hubungan antara arti memperbaiki, mengobati, mendamaikan dengan arti panutan yang merupakan arti dari kata \u201cuswah\u201d, barangkali karena orang yang pekerjaannya mendamaikan, mengobati patut untuk menjadi panutan.",
        "sabab_nuzul": null,
        "conclusion": "1. \tRasulullah merupakan teladan yang sempurna.\n2. \tDi antara orang-orang yang beriman, ada yang benar-benar tidak gentar menghadapi pertempuran dan mereka gugur sebagai syuhada.\n3. \tAllah menguji manusia dengan ketakutan dan malapetaka untuk mem-bedakan yang benar-benar beriman dan tidak beriman.\n4. \tAllah Mahakuasa sehingga tidak sukar bagi-Nya untuk menghancurkan tentara sekutu pada Perang Ahzab dan menjadikan umat Islam sebagai pemenang."
    }
}