{
    "id": 3648,
    "surah_id": 34,
    "ayah": 42,
    "page": 433,
    "quarter_hizb": 44,
    "juz": 22,
    "manzil": 5,
    "arabic": "\u0641\u064e\u0627\u0644\u0652\u064a\u064e\u0648\u0652\u0645\u064e \u0644\u064e\u0627 \u064a\u064e\u0645\u0652\u0644\u0650\u0643\u064f \u0628\u064e\u0639\u0652\u0636\u064f\u0643\u064f\u0645\u0652 \u0644\u0650\u0628\u064e\u0639\u0652\u0636\u064d \u0646\u0651\u064e\u0641\u0652\u0639\u064b\u0627 \u0648\u0651\u064e\u0644\u064e\u0627 \u0636\u064e\u0631\u0651\u064b\u0627 \u06d7\u0648\u064e\u0646\u064e\u0642\u064f\u0648\u0652\u0644\u064f \u0644\u0650\u0644\u0651\u064e\u0630\u0650\u064a\u0652\u0646\u064e \u0638\u064e\u0644\u064e\u0645\u064f\u0648\u0652\u0627 \u0630\u064f\u0648\u0652\u0642\u064f\u0648\u0652\u0627 \u0639\u064e\u0630\u064e\u0627\u0628\u064e \u0627\u0644\u0646\u0651\u064e\u0627\u0631\u0650 \u0627\u0644\u0651\u064e\u062a\u0650\u064a\u0652 \u0643\u064f\u0646\u0652\u062a\u064f\u0645\u0652 \u0628\u0650\u0647\u064e\u0627 \u062a\u064f\u0643\u064e\u0630\u0651\u0650\u0628\u064f\u0648\u0652\u0646\u064e ",
    "latin": "Fal-yauma l\u0101 yamliku ba\u2018\u1e0dukum liba\u2018\u1e0din naf\u2018aw wa \u1e0darr\u0101(n), wa naq\u016blu lil-la\u017c\u012bna \u1e93alam\u016b \u017c\u016bq\u016b \u2018a\u017c\u0101ban-n\u0101ril-lat\u012b kuntum bih\u0101 tuka\u017c\u017cib\u016bn(a).",
    "translation": "Pada hari ini sebagian kamu tidak kuasa (mendatangkan) manfaat dan (menolak) mudarat kepada sebagian yang lain. Kami katakan kepada orang-orang yang zalim, \u201cRasakanlah olehmu azab neraka yang selalu kamu dustakan!\u201d",
    "no_footnote": null,
    "footnotes": null,
    "surah": {
        "id": 34,
        "arabic": " \u0633\u0628\u0623",
        "latin": "Saba' ",
        "transliteration": "Saba'",
        "translation": "Saba'",
        "num_ayah": 54,
        "page": 428,
        "location": "Makkiyah"
    },
    "tafsir": {
        "wajiz": "Maka pada hari Kiamat ini sebagian kamu yang disembah maupun yang menyembah, sama-sama tidak kuasa mendatangkan manfaat bagi yang lain maupun menolak mudarat dari sebagian yang lain. Dan Kami katakan kepada orang-orang yang zalim, yakni yang menyembah selain Allah, \u201cRasakanlah olehmu azab neraka yang dahulu kamu dustakan.\u201d",
        "tahlili": "Pada hari Mahsyar itu Allah menyatakan bahwa baik yang menyembah selain Allah maupun yang disembah tidak akan bisa berbuat apa-apa, baik yang menguntungkan maupun yang merugikan yang lain. Orang-orang kafir yang menyembah selain Allah itu tidak akan memperoleh pertolongan dari yang mereka sembah, karena yang disembah itu memang tidak mampu berbuat apa-apa. Orang yang menyembah itu juga tidak akan bisa menyalahkan yang disembah, karena yang disembah itu tidak pernah meminta mereka menyembahnya. \nDalam Al-Qur\u2019an dinyatakan bahwa siapa pun tidak akan bisa menolong siapa pun, termasuk keluarga atau teman dekat, sebagaimana firman Allah:\n\u064a\u064e\u0648\u0652\u0645\u064e \u064a\u064e\u0641\u0650\u0631\u0651\u064f \u0627\u0644\u0652\u0645\u064e\u0631\u0652\u0621\u064f \u0645\u0650\u0646\u0652 \u0627\u064e\u062e\u0650\u064a\u0652\u0647\u0650\u06d9 \u0663\u0664 \u0648\u064e\u0627\u064f\u0645\u0651\u0650\u0647\u0656 \u0648\u064e\u0627\u064e\u0628\u0650\u064a\u0652\u0647\u0650\u06d9 \u0663\u0665 \u0648\u064e\u0635\u064e\u0627\u062d\u0650\u0628\u064e\u062a\u0650\u0647\u0656 \u0648\u064e\u0628\u064e\u0646\u0650\u064a\u0652\u0647\u0650\u06d7 \u0663\u0666 \u0644\u0650\u0643\u064f\u0644\u0651\u0650 \u0627\u0645\u0652\u0631\u0650\u0626\u064d \u0645\u0651\u0650\u0646\u0652\u0647\u064f\u0645\u0652 \u064a\u064e\u0648\u0652\u0645\u064e\u0649\u0655\u0650\u0630\u064d \u0634\u064e\u0623\u0652\u0646\u064c \u064a\u0651\u064f\u063a\u0652\u0646\u0650\u064a\u0652\u0647\u0650\u06d7 \u0663\u0667 (\u0639\u0628\u0633)\nPada hari itu manusia lari dari saudaranya, dan dari ibu dan bapaknya, dan dari istri dan anak-anaknya. Setiap orang dari mereka pada hari itu mempunyai urusan yang menyibukkannya. (\u2018Abasa/80: 34-37)\n\nJuga firman-Nya:\n\u0648\u064e\u0644\u064e\u0627 \u064a\u064e\u0633\u0652\u0640\u0654\u064e\u0644\u064f \u062d\u064e\u0645\u0650\u064a\u0652\u0645\u064c \u062d\u064e\u0645\u0650\u064a\u0652\u0645\u064b\u0627\u06da \u0661\u0660 (\u0627\u0644\u0645\u0639\u0627\u0631\u062c)\nDan tidak ada seorang teman karib pun menanyakan temannya. (al-Ma\u2018\u0101rij/70: 10) \n\nMereka akan diseret dan dijebloskan ke dalam neraka dan tambah dihinakan lagi dengan kata-kata, \u201cRasakan azab neraka yang dulu kalian tidak percayai!\u201d Kata-kata itu berarti bahwa mereka disalahkan karena tidak percaya adanya neraka pada waktu di dunia, yang akan membuat mereka lebih tersiksa. Kata-kata itu juga berarti bahwa azab neraka itu adalah dahsyat. \nDemikianlah balasan bagi orang-orang yang tidak mengindahkan ajakan Rasulullah saw. Penyampaian peristiwa itu di dalam Al-Qur\u2019an bertujuan agar para pemimpin kafir Mekah, dan siapa saja sesudahnya, untuk beriman sehingga peristiwa itu nanti tidak menimpa mereka.",
        "intro_surah": "Surah Saba\u2019 terdiri atas 54 ayat, termasuk golongan surah-surah Makkiyyah, diturunkan sesudah Surah Luqm\u0101n. Dinamakan Surah Saba\u2019 karena di dalamnya terdapat kisah kaum Saba\u2019. \nSaba\u2019 adalah nama suatu kabilah dari kabilah-kabilah Arab yang tinggal di daerah Yaman sekarang ini. Mereka mendirikan kerajaan yang terkenal dengan nama kerajaan Sabaiyah, ibu kotanya Ma\u2019rib. Mereka telah dapat membangun suatu bendungan raksasa yang bernama Bendungan Ma\u2019rib, sehingga negeri mereka menjadi subur dan makmur. Kemewahan dan kemakmuran menyebabkan kaum Saba\u2019 lupa dan ingkar kepada Allah yang telah melimpahkan nikmat dan karunia-Nya kepada mereka. Mereka mengingkari pula seruan para rasul yang diutus Allah. Karena keingkaran ini, Allah menimpakan kepada mereka azab berupa sailul \u2018arim (banjir besar) yang ditimbulkan oleh bobolnya Bendungan Ma\u2019rib. Setelah itu, negeri Saba\u2019 menjadi kering dan tandus, dan kerajaan mereka pun hancur.\n\nPokok-pokok Isinya:\n1.\tKeimanan:\nIlmu Allah meliputi segala yang ada di langit dan di bumi, kebenaran adanya hari kebangkitan dan hari pembalasan; Nabi Muhammad adalah pemberi peringatan, pada hari Kiamat berhala-berhala tidak dapat memberi manfaat sedikit pun; kalau seorang sesat, maka akibat kesesatannya itu akan menimpa dirinya sendiri, dan kalau ia menemui dan mengikuti jalan yang benar, maka hal itu adalah karena petunjuk dari Allah.\n2.\tKisah:\nKisah Nabi Daud dan Nabi Sulaiman, kisah kaum Saba\u2019, dan lain-lain.\n3.\tLain-lain:\na. \tCelaan kepada kaum musyrikin yang menyembah berhala, tuduh- menuduh antara pemimpin-pemimpin mereka yang menyesatkan dan pengikut-pengikutnya pada hari Kiamat;\nb. \tSikap orang-orang musyrik pada waktu mendengar Al-Qur\u2019an dibacakan; \nc. \tRasul-rasul tidak menerima upah dalam melaksanakan dakwahnya;\nd. \tOrang-orang musyrik di akhirat meminta kepada Allah agar dikem-balikan ke dunia untuk melaksanakan perintah Allah dan menjauhi larangan-Nya;\ne. \tOrang yang hidup berlebih-lebihan dan berlaku sewenang-wenang selalu memusuhi para Nabi;\nf. \tPembangkangan kaum Quraisy;\ng. \tKeadaan orang-orang musyrik di akhirat.\n ",
        "outro_surah": null,
        "munasabah_prev_surah": "HUBUNGAN SURAH AL-A\u1e24Z\u0100B\nDENGAN SURAH SABA\u2019\n\n1.\tPada akhir Surah al-A\u1e25z\u0101b disebutkan bahwa Allah bersifat Maha Pengampun lagi Maha Penyayang; sedang di awal Surah Saba\u2019 disebutkan pula sifat yang demikian itu.\n2.\tPada Surah al-A\u1e25z\u0101b diceritakan bahwa orang-orang kafir menanyakan kapan terjadinya hari Kiamat dengan maksud memperolok-olokkan Nabi Muhammad, sedang pada Surah Saba\u2019 diceritakan pula bahwa orang kafir itu menjadikan berita hari Kiamat bukan saja sebagai olok-olokan, tetapi dengan angkuh mengingkarinya dan mencela orang-orang yang percaya kepada hari Kiamat itu.\n",
        "munasabah_prev_theme": "Pada ayat-ayat yang lalu, Allah menjelaskan bahwa penolakan terhadap dakwah nabi-nabi selalu datang dari golongan yang berkuasa yang merasa terganggu kepentingannya oleh isi dakwah itu. Begitu juga yang menghalangi dakwah Nabi Muhammad adalah para pemimpin kafir Mekah. Mereka memandang tolok ukur kebenaran itu adalah kesenangan hidup, bukan iman dan perbuatan baik. Dalam ayat-ayat berikut dipahami bahwa para pemimpin kafir Mekah yang menolak beriman kepada Allah itu memandang sumber kesenangan mereka itu adalah malaikat, sehingga mereka mempertuhankannya. Di akhirat nanti, mereka akan dipertemukan dengan para malaikat untuk menjelaskan apakah para malaikat tersebut pernah meminta untuk disembah.",
        "theme_group": "KAUM MUSYRIK AKAN DIKONFRONTASI\nDENGAN SEMBAHAN MEREKA",
        "kosakata": "Kosakata: Ya\u1e25syuruhum \u064a\u064e\u062d\u0652\u0634\u064f\u0631\u064f\u0647\u064f\u0645\u0652 (Saba\u2019/ : 40)\nKata ya\u1e25syuruhum merupakan bentuk fi\u2018il mu\u1e0d\u0101ri\u2018 yang terambil dari akar kata \u1e25asyara ya\u1e25syuru \u1e25asyran yang berarti mengumpulkan atau menghimpun. Sebuah perkumpulan disebut ma\u1e25syar. Hari Kiamat disebut juga dengan yaum al-ma\u1e25syar karena pada hari itu semua manusia dikumpulkan di suatu tempat yang juga disebut Padang Mahsyar. Nabi Muhammad dinamai dengan al-\u1e25\u0101syir karena beliau telah menghimpun manusia. Al-\u1e24asyar juga berarti kematian (\u1e61umma il\u0101 rabbihim yu\u1e25syar\u016bn). Al-\u1e24asyarah adalah hewan serangga, bentuk jamaknya al-\u1e25asyar\u0101t. \u1e24asyar juga mengandung arti pengusiran dari satu tempat secara berkelompok. \nYa\u1e25syuruhum dalam ayat ini menerangkan bahwa akan ada hari di mana semua manusia akan dikumpulkan di Padang Mahsyar untuk dimintai pertanggungjawabannya atas semua yang pernah mereka kerjakan selama hidup di dunia. Pada hari ini, tidak akan ada yang luput dari perhitungan Allah sekecil apa pun dan tidak bisa mengelak sedikit pun serta tidak ada yang bisa membantu seorang pun kecuali amal ibadahnya. Semua anggota badan akan bersaksi atas perilakunya selama di dunia",
        "sabab_nuzul": null,
        "conclusion": "1.\tMereka yang menyembah selain Allah akan dipertemukan nanti di akhirat dengan yang mereka sembah untuk membuktikan kepada para penyembah itu bahwa tindakan mereka itu salah. Di antara mereka adalah orang-orang yang menyembah malaikat.\n2.\tYang disembah menyatakan bahwa mereka tidak pernah meminta manusia untuk menyembahnya. Yang menyembah itulah yang sesungguhnya keliru, karena mereka sesungguhnya menyembah jin atau setan karena selalu menggoda mereka.\n3.\tPara penyembah selain Allah itu nanti tidak dapat berkutik. Mereka diseret ke dalam neraka dan dihinakan."
    }
}