{
    "id": 3607,
    "surah_id": 34,
    "ayah": 1,
    "page": 428,
    "quarter_hizb": 43.5,
    "juz": 22,
    "manzil": 5,
    "arabic": "\u0627\u064e\u0644\u0652\u062d\u064e\u0645\u0652\u062f\u064f \u0644\u0650\u0644\u0651\u0670\u0647\u0650 \u0627\u0644\u0651\u064e\u0630\u0650\u064a\u0652 \u0644\u064e\u0647\u0657 \u0645\u064e\u0627 \u0641\u0650\u0649 \u0627\u0644\u0633\u0651\u064e\u0645\u0670\u0648\u0670\u062a\u0650 \u0648\u064e\u0645\u064e\u0627 \u0641\u0650\u0649 \u0627\u0644\u0652\u0627\u064e\u0631\u0652\u0636\u0650 \u0648\u064e\u0644\u064e\u0647\u064f \u0627\u0644\u0652\u062d\u064e\u0645\u0652\u062f\u064f \u0641\u0650\u0649 \u0627\u0644\u0652\u0627\u0670\u062e\u0650\u0631\u064e\u0629\u0650\u06d7 \u0648\u064e\u0647\u064f\u0648\u064e \u0627\u0644\u0652\u062d\u064e\u0643\u0650\u064a\u0652\u0645\u064f \u0627\u0644\u0652\u062e\u064e\u0628\u0650\u064a\u0652\u0631\u064f",
    "latin": "Al-\u1e25amdu lill\u0101hil-la\u017c\u012b lah\u016b m\u0101 fis-sam\u0101w\u0101ti wa m\u0101 fil-ar\u1e0di wa lahul-\u1e25amdu fil-\u0101khirah(ti), wa huwal-\u1e25ak\u012bmul-khab\u012br(u).",
    "translation": "Segala puji bagi Allah yang memiliki segala yang di langit dan yang di bumi serta bagi-Nya segala puji di akhirat. Dialah Yang Maha Bijaksana lagi Maha Teliti. ",
    "no_footnote": null,
    "footnotes": null,
    "surah": {
        "id": 34,
        "arabic": " \u0633\u0628\u0623",
        "latin": "Saba' ",
        "transliteration": "Saba'",
        "translation": "Saba'",
        "num_ayah": 54,
        "page": 428,
        "location": "Makkiyah"
    },
    "tafsir": {
        "wajiz": "Pada bagian pungkasan Surah al-Ahzab Allah menegaskan pen-tingnya menunaikan amanat. Di sana Allah juga mengancam orang munafik dan kafir dengan azab yang pedih dan mengampuni dosa orang yang bertobat, karena Allah Maha Pengampun dan Maha Penyayang. Surah Saba\u2019 lantas diawali dengan pujian kepada Allah, Pemilik apa saja yang ada di langit dan bumi. Segala puji bagi Allah yang memiliki, menguasai, dan mengatur apa yang ada di langit dan apa yang ada di bumi, dan segala puji di akhirat juga bagi Allah karena Dialah Penguasa dan Pengendali kehidupan akhirat. Dan Dialah Yang Mahabijaksana dalam tindakan dan ciptaan-Nya, Mahateliti sehingga mengetahui semua urusan secara rinci.",
        "tahlili": "Ayat ini menegaskan bahwa Allah-lah yang berhak menerima segala pujian karena Dia yang menciptakan semua yang ada di langit dan di bumi. Dialah pemilik yang sebenarnya, tidak ada seorang pun yang bersekutu dengan Allah dalam menciptakan dan memilikinya.\nAllah pula yang mengatur dan mengurusnya serta melimpahkan karunia-Nya agar semuanya berjalan dengan tertib dan teratur. Oleh sebab itu, tidak ada yang patut memperoleh pujian kecuali Allah, tidak ada yang patut disembah dan dipanjatkan doa kecuali kepada Allah. Adapun orang-orang yang menyembah dan memuja patung-patung atau yang lainnya adalah orang-orang yang tidak mempergunakan akal. \nBanyak sekali bukti yang menunjukkan wujud dan keesaan Allah yang terdapat di bumi dan di langit. Bila manusia mau memperhatikan, tentu dia akan sampai kepada kesimpulan bahwa Pencipta semua alam ini adalah Allah Yang Maha Esa, Mahakuasa, dan Maha Pencipta. Hanya Allah yang berhak disembah dan dipuji, walaupun Dia sendiri tidak memerlukan pujian dari hamba dan makhluk-Nya. Hanya makhluk-makhluk-Nya yang harus memuja dan memuji-Nya, karena begitu besar dan banyaknya karunia yang dilimpahkan kepadanya. Sekiranya tidak ada yang menyembah dan memuji-Nya atau semua makhluk-Nya kafir dan ingkar terhadap nikmat dan karunia-Nya, maka hal itu tidak akan merugikan-Nya sedikit pun sebagaimana tersebut dalam firman-Nya:\n\u0627\u0650\u0646\u0652 \u062a\u064e\u0643\u0652\u0641\u064f\u0631\u064f\u0648\u0652\u0653\u0627 \u0627\u064e\u0646\u0652\u062a\u064f\u0645\u0652 \u0648\u064e\u0645\u064e\u0646\u0652 \u0641\u0650\u0649 \u0627\u0644\u0652\u0627\u064e\u0631\u0652\u0636\u0650 \u062c\u064e\u0645\u0650\u064a\u0652\u0639\u064b\u0627 \u06d9\u0641\u064e\u0627\u0650\u0646\u0651\u064e \u0627\u0644\u0644\u0651\u0670\u0647\u064e \u0644\u064e\u063a\u064e\u0646\u0650\u064a\u0651\u064c \u062d\u064e\u0645\u0650\u064a\u0652\u062f\u064c \n\u201cJika kamu dan orang yang ada di bumi semuanya mengingkari (nikmat Allah), maka sesungguhnya Allah Mahakaya, Maha Terpuji.\u201d (Ibr\u0101h\u012bm/14: 8)\n\nUntuk menyadarkan manusia agar mau menggunakan akalnya, Allah menerangkan bahwa semua makhluk-Nya di langit dan di bumi bertasbih memuji-Nya, termasuk burung-burung yang terbang di udara. Allah berfirman:\n\u0627\u064e\u0644\u064e\u0645\u0652 \u062a\u064e\u0631\u064e \u0627\u064e\u0646\u0651\u064e \u0627\u0644\u0644\u0651\u0670\u0647\u064e \u064a\u064f\u0633\u064e\u0628\u0651\u0650\u062d\u064f \u0644\u064e\u0647\u0657 \u0645\u064e\u0646\u0652 \u0641\u0650\u0649 \u0627\u0644\u0633\u0651\u064e\u0645\u0670\u0648\u0670\u062a\u0650 \u0648\u064e\u0627\u0644\u0652\u0627\u064e\u0631\u0652\u0636\u0650 \u0648\u064e\u0627\u0644\u0637\u0651\u064e\u064a\u0652\u0631\u064f \u0635\u0670\u06e4\u0641\u0651\u0670\u062a\u064d\u06d7  \u0643\u064f\u0644\u0651\u064c \u0642\u064e\u062f\u0652 \u0639\u064e\u0644\u0650\u0645\u064e \u0635\u064e\u0644\u064e\u0627\u062a\u064e\u0647\u0657 \u0648\u064e\u062a\u064e\u0633\u0652\u0628\u0650\u064a\u0652\u062d\u064e\u0647\u0657\u06d7 \u0648\u064e\u0627\u0644\u0644\u0651\u0670\u0647\u064f \u0639\u064e\u0644\u0650\u064a\u0652\u0645\u064c\u06e2 \u0628\u0650\u0645\u064e\u0627 \u064a\u064e\u0641\u0652\u0639\u064e\u0644\u064f\u0648\u0652\u0646\u064e \u0664\u0661 (\u0627\u0644\u0646\u0651\u0648\u0631)\nTidakkah engkau (Muhammad) tahu bahwa kepada Allah-lah bertasbih apa yang di langit dan di bumi, dan juga burung yang mengembangkan sayapnya. Masing-masing sungguh, telah mengetahui (cara) berdoa dan bertasbih. Allah Maha Mengetahui apa yang mereka kerjakan. (an-N\u016br/24: 41)\n\nAyat selanjutnya menegaskan bahwa Allah yang berhak dipuji di akhirat nanti, karena Dia yang mempunyai kekuasaan di sana, dan bertindak dengan adil dan bijaksana dalam memperhitungkan dan membalas perbuatan hamba-Nya. Tidak ada seorang pun yang dirugikan dalam perhitungan perbuatannya, yang baik dibalas dengan kebaikan, dan yang jahat dibalas dengan siksa yang setimpal, bahkan dengan rahmat dan karunia-Nya satu perbuatan yang baik dibalas dengan berlipat ganda. Di dalam ayat lain diterangkan bagaimana besarnya pujian hamba-hamba-Nya yang beriman terhadap nikmat yang dikaruniakan kepada mereka sebagai balasan atas perbuatannya selama hidup di dunia dengan firman-Nya:\n\u0648\u064e\u0642\u064e\u0627\u0644\u064f\u0648\u0627 \u0627\u0644\u0652\u062d\u064e\u0645\u0652\u062f\u064f \u0644\u0650\u0644\u0651\u0670\u0647\u0650 \u0627\u0644\u0651\u064e\u0630\u0650\u064a\u0652 \u0635\u064e\u062f\u064e\u0642\u064e\u0646\u064e\u0627 \u0648\u064e\u0639\u0652\u062f\u064e\u0647\u0657 \u0648\u064e\u0627\u064e\u0648\u0652\u0631\u064e\u062b\u064e\u0646\u064e\u0627 \u0627\u0644\u0652\u0627\u064e\u0631\u0652\u0636\u064e \u0646\u064e\u062a\u064e\u0628\u064e\u0648\u0651\u064e\u0627\u064f \u0645\u0650\u0646\u064e \u0627\u0644\u0652\u062c\u064e\u0646\u0651\u064e\u0629\u0650 \u062d\u064e\u064a\u0652\u062b\u064f \u0646\u064e\u0634\u064e\u0627\u06e4\u0621\u064f \u06da\u0641\u064e\u0646\u0650\u0639\u0652\u0645\u064e \u0627\u064e\u062c\u0652\u0631\u064f \u0627\u0644\u0652\u0639\u0670\u0645\u0650\u0644\u0650\u064a\u0652\u0646\u064e \u0667\u0664 (\u0627\u0644\u0632\u0645\u0631)\nDan mereka berkata, \u201cSegala puji bagi Allah yang telah memenuhi janji-Nya kepada kami dan telah memberikan tempat ini kepada kami sedang kami (diperkenankan) menempati surga di mana saja yang kami kehendaki.\u201d Maka (surga itulah) sebaik-baik balasan bagi orang-orang yang beramal. (az-Zumar/39: 74)\nDan firman-Nya:\n\u0648\u064e\u0642\u064e\u0627\u0644\u064f\u0648\u0627 \u0627\u0644\u0652\u062d\u064e\u0645\u0652\u062f\u064f \u0644\u0650\u0644\u0651\u0670\u0647\u0650 \u0627\u0644\u0651\u064e\u0630\u0650\u064a\u0652\u0653 \u0627\u064e\u0630\u0652\u0647\u064e\u0628\u064e \u0639\u064e\u0646\u0651\u064e\u0627 \u0627\u0644\u0652\u062d\u064e\u0632\u064e\u0646\u064e\u06d7 \u0627\u0650\u0646\u0651\u064e \u0631\u064e\u0628\u0651\u064e\u0646\u064e\u0627 \u0644\u064e\u063a\u064e\u0641\u064f\u0648\u0652\u0631\u064c \u0634\u064e\u0643\u064f\u0648\u0652\u0631\u064c\u06d9 \u0663\u0664 \u06e8\u0627\u0644\u0651\u064e\u0630\u0650\u064a\u0652\u0653 \u0627\u064e\u062d\u064e\u0644\u0651\u064e\u0646\u064e\u0627 \u062f\u064e\u0627\u0631\u064e \u0627\u0644\u0652\u0645\u064f\u0642\u064e\u0627\u0645\u064e\u0629\u0650 \u0645\u0650\u0646\u0652 \u0641\u064e\u0636\u0652\u0644\u0650\u0647\u0656\u06da \u0644\u064e\u0627 \u064a\u064e\u0645\u064e\u0633\u0651\u064f\u0646\u064e\u0627 \u0641\u0650\u064a\u0652\u0647\u064e\u0627 \u0646\u064e\u0635\u064e\u0628\u064c \u0648\u0651\u064e\u0644\u064e\u0627 \u064a\u064e\u0645\u064e\u0633\u0651\u064f\u0646\u064e\u0627 \u0641\u0650\u064a\u0652\u0647\u064e\u0627 \u0644\u064f\u063a\u064f\u0648\u0652\u0628\u064c \u0663\u0665 (\u0641\u0627\u0637\u0631)\nDan mereka berkata, \u201cSegala puji bagi Allah yang telah menghilangkan kesedihan dari kami. Sungguh, Tuhan kami benar-benar Maha Pengampun, Maha Mensyukuri, yang dengan karunia-Nya menempatkan kami dalam tempat yang kekal (surga); di dalamnya kami tidak merasa lelah dan tidak pula merasa lesu.\u201d (F\u0101\u1e6dir/35: 34-35)\n\nKemudian Allah menegaskan bahwa Dialah Yang Mahabijaksana, berbuat dan bertindak, serta mengatur dan mengendalikan urusan dunia dan akhirat serta alam seluruhnya. Dialah Yang Maha Mengetahui segala sesuatu dan segala urusan. Dia Mengetahui segala-galanya dengan ilmu-Nya Yang Mahaluas.",
        "intro_surah": "Surah Saba\u2019 terdiri atas 54 ayat, termasuk golongan surah-surah Makkiyyah, diturunkan sesudah Surah Luqm\u0101n. Dinamakan Surah Saba\u2019 karena di dalamnya terdapat kisah kaum Saba\u2019. \nSaba\u2019 adalah nama suatu kabilah dari kabilah-kabilah Arab yang tinggal di daerah Yaman sekarang ini. Mereka mendirikan kerajaan yang terkenal dengan nama kerajaan Sabaiyah, ibu kotanya Ma\u2019rib. Mereka telah dapat membangun suatu bendungan raksasa yang bernama Bendungan Ma\u2019rib, sehingga negeri mereka menjadi subur dan makmur. Kemewahan dan kemakmuran menyebabkan kaum Saba\u2019 lupa dan ingkar kepada Allah yang telah melimpahkan nikmat dan karunia-Nya kepada mereka. Mereka mengingkari pula seruan para rasul yang diutus Allah. Karena keingkaran ini, Allah menimpakan kepada mereka azab berupa sailul \u2018arim (banjir besar) yang ditimbulkan oleh bobolnya Bendungan Ma\u2019rib. Setelah itu, negeri Saba\u2019 menjadi kering dan tandus, dan kerajaan mereka pun hancur.\n\nPokok-pokok Isinya:\n1.\tKeimanan:\nIlmu Allah meliputi segala yang ada di langit dan di bumi, kebenaran adanya hari kebangkitan dan hari pembalasan; Nabi Muhammad adalah pemberi peringatan, pada hari Kiamat berhala-berhala tidak dapat memberi manfaat sedikit pun; kalau seorang sesat, maka akibat kesesatannya itu akan menimpa dirinya sendiri, dan kalau ia menemui dan mengikuti jalan yang benar, maka hal itu adalah karena petunjuk dari Allah.\n2.\tKisah:\nKisah Nabi Daud dan Nabi Sulaiman, kisah kaum Saba\u2019, dan lain-lain.\n3.\tLain-lain:\na. \tCelaan kepada kaum musyrikin yang menyembah berhala, tuduh- menuduh antara pemimpin-pemimpin mereka yang menyesatkan dan pengikut-pengikutnya pada hari Kiamat;\nb. \tSikap orang-orang musyrik pada waktu mendengar Al-Qur\u2019an dibacakan; \nc. \tRasul-rasul tidak menerima upah dalam melaksanakan dakwahnya;\nd. \tOrang-orang musyrik di akhirat meminta kepada Allah agar dikem-balikan ke dunia untuk melaksanakan perintah Allah dan menjauhi larangan-Nya;\ne. \tOrang yang hidup berlebih-lebihan dan berlaku sewenang-wenang selalu memusuhi para Nabi;\nf. \tPembangkangan kaum Quraisy;\ng. \tKeadaan orang-orang musyrik di akhirat.\n ",
        "outro_surah": null,
        "munasabah_prev_surah": "HUBUNGAN SURAH AL-A\u1e24Z\u0100B\nDENGAN SURAH SABA\u2019\n\n1.\tPada akhir Surah al-A\u1e25z\u0101b disebutkan bahwa Allah bersifat Maha Pengampun lagi Maha Penyayang; sedang di awal Surah Saba\u2019 disebutkan pula sifat yang demikian itu.\n2.\tPada Surah al-A\u1e25z\u0101b diceritakan bahwa orang-orang kafir menanyakan kapan terjadinya hari Kiamat dengan maksud memperolok-olokkan Nabi Muhammad, sedang pada Surah Saba\u2019 diceritakan pula bahwa orang kafir itu menjadikan berita hari Kiamat bukan saja sebagai olok-olokan, tetapi dengan angkuh mengingkarinya dan mencela orang-orang yang percaya kepada hari Kiamat itu.\n",
        "munasabah_prev_theme": "Pada ayat-ayat yang lalu, Allah memerintahkan umatnya untuk melaksanakan amanat yang telah mereka terima akibat kebodohan dan kezaliman mereka. Allah mengancam orang munafik dan orang musyrik dengan azab yang pedih, dan menjanjikan yang beriman dan bertobat dengan ampunan dan rahmat-Nya. Pada ayat-ayat berikut ini, Allah menjelaskan amanat lain, yaitu mengajarkan orang beriman untuk memuji Allah, Pemilik langit dan bumi yang mengetahui apa yang terjadi di antaranya karena Allah Maha Pengasih dan Pengampun.",
        "theme_group": "ALLAH MAHA TERPUJI DAN MAHALUAS ILMUNYA",
        "kosakata": "1. Yaliju \u064a\u064e\u0644\u0650\u062c\u064f (Saba\u2019/34: 2)\nKata yaliju secara kebahasaan berarti masuk atau ke dalam. Dalam konteks ayat di atas, Allah menjelaskan bahwa Diri-Nya mengetahui segala sesuatu baik yang masuk ke dalam bumi maupun yang keluar darinya, dan apa yang turun dari langit maupun yang naik ke sana. Bahkan dalam keterangan lain ditegaskan, Allah mengetahui semut hitam yang berjalan di malam pekat di atas batu hitam. Itulah kekuasaan dan pengetahuan Allah yang luas tak terbatas.\n2. Ya\u2018ruju \u064a\u064e\u0639\u0652\u0631\u064f\u062c\u064f (Saba\u2019/34: 2)\nKata ya\u2018ruju yang terambil dari akar kata \u2018araja yang secara kebahasaan berarti naik atau mendaki. Derivasi kata ini sama dengan kata mi\u2018raj yang sering kita dengar terkait peristiwa pewajiban salat. Oleh karena itu, perjalanan malam Rasulullah dari Masjidil Aqsa di al-Quds Palestina ke Sidratul Muntaha di langit ketujuh itu sering disebut mi\u2018raj. Dalam konteks ayat di atas, kata itu difungsikan untuk menjelaskan bahwa Allah mengetahui secara persis apa saja yang naik ke langit dari bumi ini.",
        "sabab_nuzul": null,
        "conclusion": null
    }
}