{
    "id": 3630,
    "surah_id": 34,
    "ayah": 24,
    "page": 431,
    "quarter_hizb": 44,
    "juz": 22,
    "manzil": 5,
    "arabic": "\u06de \u0642\u064f\u0644\u0652 \u0645\u064e\u0646\u0652 \u064a\u0651\u064e\u0631\u0652\u0632\u064f\u0642\u064f\u0643\u064f\u0645\u0652 \u0645\u0651\u0650\u0646\u064e \u0627\u0644\u0633\u0651\u064e\u0645\u0670\u0648\u0670\u062a\u0650 \u0648\u064e\u0627\u0644\u0652\u0627\u064e\u0631\u0652\u0636\u0650\u06d7 \u0642\u064f\u0644\u0650 \u0627\u0644\u0644\u0651\u0670\u0647\u064f \u06d9\u0648\u064e\u0627\u0650\u0646\u0651\u064e\u0627\u0653 \u0627\u064e\u0648\u0652 \u0627\u0650\u064a\u0651\u064e\u0627\u0643\u064f\u0645\u0652 \u0644\u064e\u0639\u064e\u0644\u0670\u0649 \u0647\u064f\u062f\u064b\u0649 \u0627\u064e\u0648\u0652 \u0641\u0650\u064a\u0652 \u0636\u064e\u0644\u0670\u0644\u064d \u0645\u0651\u064f\u0628\u0650\u064a\u0652\u0646\u064d ",
    "latin": "Qul may yarzuqukum minas-sam\u0101w\u0101ti wal-ar\u1e0d(i), qulill\u0101h(u), wa inn\u0101 au iyy\u0101kum la\u2018al\u0101 hudan au f\u012b \u1e0dal\u0101lim mub\u012bn(in).",
    "translation": "Katakanlah (Nabi Muhammad), \u201cSiapakah yang menganugerahkan rezeki kepadamu dari langit dan bumi?\u201d Katakanlah, \u201cAllah.\u201d Sesungguhnya kami atau kamu (orang-orang musyrik) benar-benar berada di dalam petunjuk atau dalam kesesatan yang nyata.",
    "no_footnote": null,
    "footnotes": null,
    "surah": {
        "id": 34,
        "arabic": " \u0633\u0628\u0623",
        "latin": "Saba' ",
        "transliteration": "Saba'",
        "translation": "Saba'",
        "num_ayah": 54,
        "page": 428,
        "location": "Makkiyah"
    },
    "tafsir": {
        "wajiz": "Usai menegaskan bahwa sembahan selain Allah tidak mampu mendatangkan manfaat apa pun kepada penyembahnya, lalu Allah berfirman, \u201cKatakanlah, wahai Nabi Muhammad kepada orang-orang musyrik, \u2018Siapakah yang memberi rezeki kepadamu yang bersumber dari langit dan dari bumi?\u2019 Katakanlah, wahai Nabi Muhammad, \u2018Allah yang memberi rezeki. Dan sesungguhnya kami, orang beriman, atau kamu, wahai kaum musyrik, pasti salah satu dari kita berada dalam kebenaran dengan kedudukan yang tinggi atau terjerumus dalam kesesatan yang nyata dengan kedudukan yang sangat hina.\u201d",
        "tahlili": "Pada ayat ini, Allah dengan perantaraan Nabi Muhammad menanyakan kepada kaum musyrik, siapakah yang memberi mereka rezeki dari langit dan bumi dengan menurunkan hujan, dan dengan air hujan itu bumi menjadi subur dan menumbuhkan berbagai macam tumbuhan untuk menjadi makanan bagi mereka dan binatang ternak. Mereka tentu tidak dapat menjawabnya. Walaupun mereka ingin mengatakan Allah, jawaban yang sesuai dengan hati nurani mereka, tetapi mereka menjawabnya berhala-berhala, jawaban yang sebetulnya bertentangan dengan hati nurani mereka yang membenarkan seruan Nabi Muhammad. Oleh sebab itu, mereka terdiam, tidak dapat memberikan jawaban apa pun. Demikianlah Allah memerintahkan kepada Muhammad bahwa yang memberi rezeki baik dari langit maupun bumi hanyalah Allah. Pertanyaan semacam ini disebut pula pada ayat lain yaitu:\n\u0642\u064f\u0644\u0652 \u0645\u064e\u0646\u0652 \u0631\u0651\u064e\u0628\u0651\u064f \u0627\u0644\u0633\u0651\u064e\u0645\u0670\u0648\u0670\u062a\u0650 \u0648\u064e\u0627\u0644\u0652\u0627\u064e\u0631\u0652\u0636\u0650\u06d7 \u0642\u064f\u0644\u0650 \u0627\u0644\u0644\u0651\u0670\u0647\u064f \u06d7\u0642\u064f\u0644\u0652 \u0627\u064e\u0641\u064e\u0627\u062a\u0651\u064e\u062e\u064e\u0630\u0652\u062a\u064f\u0645\u0652 \u0645\u0651\u0650\u0646\u0652 \u062f\u064f\u0648\u0652\u0646\u0650\u0647\u0656\u0653 \u0627\u064e\u0648\u0652\u0644\u0650\u064a\u064e\u0627\u06e4\u0621\u064e \u0644\u064e\u0627 \u064a\u064e\u0645\u0652\u0644\u0650\u0643\u064f\u0648\u0652\u0646\u064e \u0644\u0650\u0627\u064e\u0646\u0652\u0641\u064f\u0633\u0650\u0647\u0650\u0645\u0652 \u0646\u064e\u0641\u0652\u0639\u064b\u0627 \u0648\u0651\u064e\u0644\u064e\u0627 \u0636\u064e\u0631\u0651\u064b\u0627\u06d7 \nKatakanlah (Muhammad), \u201cSiapakah Tuhan langit dan bumi?\u201d Katakanlah, \u201cAllah.\u201d Katakanlah, \u201cPantaskah kamu mengambil pelindung-pelindung selain Allah, padahal mereka tidak kuasa mendatangkan manfaat maupun menolak mudarat bagi dirinya sendiri?\u201d (ar-Ra\u2018d/13: 16) \n\nAllah lalu menyuruh Nabi Muhammad mengatakan kepada mereka setelah tidak dapat menjawab pertanyaan di atas, \u201cKami atau kamu pasti berada dalam petunjuk atau dalam kesesatan yang nyata.\u201d Inilah suatu cara berdiskusi yang amat halus dan tajam. Nabi tidak mengatakan bahwa kaum musyrik itulah yang sesat dan dirinya yang benar, tetapi dia menyatakan salah satu di antara keduanya pasti ada yang mengikuti jalan yang benar dan ada yang mengikuti jalan yang sesat. Ucapan ini pasti menarik lawan untuk berpikir siapa sebenarnya yang mendapat petunjuk dan siapa yang sesat, dan menghindari cara-cara yang keras karena akan mendatangkan jawaban yang keras pula. Kalau Nabi saw mengatakan dengan tegas bahwa merekalah yang sesat, tentu mereka akan menjawab dengan tegas bahwa Nabilah yang sesat.",
        "intro_surah": "Surah Saba\u2019 terdiri atas 54 ayat, termasuk golongan surah-surah Makkiyyah, diturunkan sesudah Surah Luqm\u0101n. Dinamakan Surah Saba\u2019 karena di dalamnya terdapat kisah kaum Saba\u2019. \nSaba\u2019 adalah nama suatu kabilah dari kabilah-kabilah Arab yang tinggal di daerah Yaman sekarang ini. Mereka mendirikan kerajaan yang terkenal dengan nama kerajaan Sabaiyah, ibu kotanya Ma\u2019rib. Mereka telah dapat membangun suatu bendungan raksasa yang bernama Bendungan Ma\u2019rib, sehingga negeri mereka menjadi subur dan makmur. Kemewahan dan kemakmuran menyebabkan kaum Saba\u2019 lupa dan ingkar kepada Allah yang telah melimpahkan nikmat dan karunia-Nya kepada mereka. Mereka mengingkari pula seruan para rasul yang diutus Allah. Karena keingkaran ini, Allah menimpakan kepada mereka azab berupa sailul \u2018arim (banjir besar) yang ditimbulkan oleh bobolnya Bendungan Ma\u2019rib. Setelah itu, negeri Saba\u2019 menjadi kering dan tandus, dan kerajaan mereka pun hancur.\n\nPokok-pokok Isinya:\n1.\tKeimanan:\nIlmu Allah meliputi segala yang ada di langit dan di bumi, kebenaran adanya hari kebangkitan dan hari pembalasan; Nabi Muhammad adalah pemberi peringatan, pada hari Kiamat berhala-berhala tidak dapat memberi manfaat sedikit pun; kalau seorang sesat, maka akibat kesesatannya itu akan menimpa dirinya sendiri, dan kalau ia menemui dan mengikuti jalan yang benar, maka hal itu adalah karena petunjuk dari Allah.\n2.\tKisah:\nKisah Nabi Daud dan Nabi Sulaiman, kisah kaum Saba\u2019, dan lain-lain.\n3.\tLain-lain:\na. \tCelaan kepada kaum musyrikin yang menyembah berhala, tuduh- menuduh antara pemimpin-pemimpin mereka yang menyesatkan dan pengikut-pengikutnya pada hari Kiamat;\nb. \tSikap orang-orang musyrik pada waktu mendengar Al-Qur\u2019an dibacakan; \nc. \tRasul-rasul tidak menerima upah dalam melaksanakan dakwahnya;\nd. \tOrang-orang musyrik di akhirat meminta kepada Allah agar dikem-balikan ke dunia untuk melaksanakan perintah Allah dan menjauhi larangan-Nya;\ne. \tOrang yang hidup berlebih-lebihan dan berlaku sewenang-wenang selalu memusuhi para Nabi;\nf. \tPembangkangan kaum Quraisy;\ng. \tKeadaan orang-orang musyrik di akhirat.\n ",
        "outro_surah": null,
        "munasabah_prev_surah": "HUBUNGAN SURAH AL-A\u1e24Z\u0100B\nDENGAN SURAH SABA\u2019\n\n1.\tPada akhir Surah al-A\u1e25z\u0101b disebutkan bahwa Allah bersifat Maha Pengampun lagi Maha Penyayang; sedang di awal Surah Saba\u2019 disebutkan pula sifat yang demikian itu.\n2.\tPada Surah al-A\u1e25z\u0101b diceritakan bahwa orang-orang kafir menanyakan kapan terjadinya hari Kiamat dengan maksud memperolok-olokkan Nabi Muhammad, sedang pada Surah Saba\u2019 diceritakan pula bahwa orang kafir itu menjadikan berita hari Kiamat bukan saja sebagai olok-olokan, tetapi dengan angkuh mengingkarinya dan mencela orang-orang yang percaya kepada hari Kiamat itu.\n",
        "munasabah_prev_theme": "Pada ayat-ayat yang lalu, Allah menyuruh Nabi Muhammad menantang penyembah-penyembah berhala dengan mengatakan bahwa berhala-berhala itu tidak memiliki suatu apa pun di bumi atau di langit, sendiri-sendiri atau berserikat dengan lain dan di akhirat berhala-berhala itu tidak pula dapat memberi syafaat kepada mereka. Pada ayat-ayat berikut ini, Allah menyuruh Nabi-Nya melanjutkan tantangan terhadap kaum musyrik dengan menanyakan kepada mereka siapakah yang memberi rezeki dari langit dan bumi? Dengan pertanyaan ini tentu mereka tidak dapat menjawab kecuali mengakui bahwa hanya Allah yang memberi rezeki. Dialah Tuhan yang tiada Tuhan selain Dia. Kemudian Allah memerintahkan kepada Nabi Muhammad agar mengatakan pula kepada mereka bahwa masing-masing (kaum musyrik dan kaum mukmin) tidak bertanggung jawab atas perbuatan orang lain, dan Allah akan memberi keputusan antara kita di akhirat.\n",
        "theme_group": "KELANJUTAN TANTANGAN\nTERHADAP KAUM MUSYRIKIN\n",
        "kosakata": "Kosakata: Al\u1e25aqtum \u0623\u064e\u0644\u0652\u062d\u064e\u0642\u0652\u062a\u064f\u0645\u0652 (Saba\u2019/34: 27)  \n\tKata al\u1e25aqtum berasal dari kata la\u1e25iqa yal\u1e25aqu lu\u1e25\u016bq. Kata yang terdiri dari huruf lam, \u1e25a, dan qaf memiliki arti menemukan dan mendapatkannya. Dari sini kemudian lahir makna menyusul dan mengikuti seperti doa ketika ziarah kubur, \u201cWa inn\u0101 insy\u0101 Allah bikum l\u0101\u1e25iq\u016bn\u201d. La\u1e25aq juga berarti lampiran yang menyertai sebuah buku yang selesai ditulis. La\u1e25aq juga diartikan dengan sesuatu yang mengikuti baik pada binatang atau tumbuh-tumbuhan. La\u1e25aq dalam pohon diartikan dengan munculnya buah untuk kedua kalinya. La\u1e25iqa berarti bernisbat kepada, atau menimpanya dan mengikutinya. Inna \u2018a\u017c\u0101baka bilkuff\u0101ri mul\u1e25iq (sesungguhnya azab-Mu akan menimpa orang-orang kafir).\n\t\tDalam ayat ini, Allah menjelaskan tentang perintah-Nya kepada Nabi Muhammad agar menanyakan kepada kaum kafir untuk menjelaskan Tuhan yang mereka sembah. Tuhan yang mereka anggap sama atau mempunyai hubungan dengan Allah dan menjadikannya sebagai sekutu Allah. Pertanyaan yang diajukan meliputi siapa sebenarnya yang memberikan rezeki di langit dan di bumi, mereka pasti akan menjawab Allah-lah Sang Pemberi rezeki semua yang berada di langit dan di bumi. Oleh karena itu, Nabi Muhammad diperintahkan untuk meminta mereka memperlihatkan kepadanya sembahan-sembahan yang dihubungkan dengan Allah sebagai sekutu-Nya. Maka sekali-kali tidak mungkin, sebenarnya Dialah Allah Yang Mahaperkasa lagi Mahabijaksana. ",
        "sabab_nuzul": null,
        "conclusion": null
    }
}