{
    "id": 3610,
    "surah_id": 34,
    "ayah": 4,
    "page": 428,
    "quarter_hizb": 43.5,
    "juz": 22,
    "manzil": 5,
    "arabic": "\u0644\u0651\u0650\u064a\u064e\u062c\u0652\u0632\u0650\u064a\u064e \u0627\u0644\u0651\u064e\u0630\u0650\u064a\u0652\u0646\u064e \u0627\u0670\u0645\u064e\u0646\u064f\u0648\u0652\u0627 \u0648\u064e\u0639\u064e\u0645\u0650\u0644\u064f\u0648\u0627 \u0627\u0644\u0635\u0651\u0670\u0644\u0650\u062d\u0670\u062a\u0650\u06d7 \u0627\u064f\u0648\u0644\u0670\u06e4\u0649\u0655\u0650\u0643\u064e \u0644\u064e\u0647\u064f\u0645\u0652 \u0645\u0651\u064e\u063a\u0652\u0641\u0650\u0631\u064e\u0629\u064c \u0648\u0651\u064e\u0631\u0650\u0632\u0652\u0642\u064c \u0643\u064e\u0631\u0650\u064a\u0652\u0645\u064c ",
    "latin": "Liyajziyal-la\u017c\u012bna \u0101man\u016b wa \u2018amilu\u1e63-\u1e63\u0101li\u1e25\u0101t(i), ul\u0101'ika lahum magfiratuw wa rizqun kar\u012bm(un).",
    "translation": "Supaya Dia memberi balasan kepada orang-orang yang beriman dan beramal saleh. Mereka itulah orang-orang yang memperoleh ampunan dan rezeki yang mulia.",
    "no_footnote": null,
    "footnotes": null,
    "surah": {
        "id": 34,
        "arabic": " \u0633\u0628\u0623",
        "latin": "Saba' ",
        "transliteration": "Saba'",
        "translation": "Saba'",
        "num_ayah": 54,
        "page": 428,
        "location": "Makkiyah"
    },
    "tafsir": {
        "wajiz": "Kedatangan hari Kiamat itu tiada lain agar Dia memberi balasan kepada orang-orang yang beriman dan mengerjakan kebajikan semasa di dunia. Mereka memperoleh ampunan dan rezeki yang mulia, yakni surga.",
        "tahlili": "Adapun orang-orang yang beriman percaya kepada hari kebangkitan dan membuktikan keimanan mereka dengan mengerjakan amal saleh serta menjauhi perbuatan yang dilarang Allah. Mereka akan memperoleh ampun-an dari Allah Yang Maha Pengampun. Allah akan mengampuni kesalahan mereka dan menghapuskan dosa mereka sesuai dengan firman-Nya:\n\u0627\u0650\u0646\u0651\u064e \u0627\u0644\u0652\u062d\u064e\u0633\u064e\u0646\u0670\u062a\u0650 \u064a\u064f\u0630\u0652\u0647\u0650\u0628\u0652\u0646\u064e \u0627\u0644\u0633\u0651\u064e\u064a\u0651\u0650\u0627\u0670\u062a\u0650\u06d7 \u0630\u0670\u0644\u0650\u0643\u064e \u0630\u0650\u0643\u0652\u0631\u0670\u0649 \u0644\u0650\u0644\u0630\u0651\u0670\u0643\u0650\u0631\u0650\u064a\u0652\u0646\u064e \u0661\u0661\u0664 ( \u0647\u0648\u062f)\nPerbuatan-perbuatan baik itu menghapus kesalahan-kesalahan. Itulah peringatan bagi orang-orang yang selalu mengingat (Allah). (H\u016bd/11: 114)\n\nMereka akan memperoleh rezeki yang halal dan kehidupan bahagia di dalam surga Na\u2018\u012bm.",
        "intro_surah": "Surah Saba\u2019 terdiri atas 54 ayat, termasuk golongan surah-surah Makkiyyah, diturunkan sesudah Surah Luqm\u0101n. Dinamakan Surah Saba\u2019 karena di dalamnya terdapat kisah kaum Saba\u2019. \nSaba\u2019 adalah nama suatu kabilah dari kabilah-kabilah Arab yang tinggal di daerah Yaman sekarang ini. Mereka mendirikan kerajaan yang terkenal dengan nama kerajaan Sabaiyah, ibu kotanya Ma\u2019rib. Mereka telah dapat membangun suatu bendungan raksasa yang bernama Bendungan Ma\u2019rib, sehingga negeri mereka menjadi subur dan makmur. Kemewahan dan kemakmuran menyebabkan kaum Saba\u2019 lupa dan ingkar kepada Allah yang telah melimpahkan nikmat dan karunia-Nya kepada mereka. Mereka mengingkari pula seruan para rasul yang diutus Allah. Karena keingkaran ini, Allah menimpakan kepada mereka azab berupa sailul \u2018arim (banjir besar) yang ditimbulkan oleh bobolnya Bendungan Ma\u2019rib. Setelah itu, negeri Saba\u2019 menjadi kering dan tandus, dan kerajaan mereka pun hancur.\n\nPokok-pokok Isinya:\n1.\tKeimanan:\nIlmu Allah meliputi segala yang ada di langit dan di bumi, kebenaran adanya hari kebangkitan dan hari pembalasan; Nabi Muhammad adalah pemberi peringatan, pada hari Kiamat berhala-berhala tidak dapat memberi manfaat sedikit pun; kalau seorang sesat, maka akibat kesesatannya itu akan menimpa dirinya sendiri, dan kalau ia menemui dan mengikuti jalan yang benar, maka hal itu adalah karena petunjuk dari Allah.\n2.\tKisah:\nKisah Nabi Daud dan Nabi Sulaiman, kisah kaum Saba\u2019, dan lain-lain.\n3.\tLain-lain:\na. \tCelaan kepada kaum musyrikin yang menyembah berhala, tuduh- menuduh antara pemimpin-pemimpin mereka yang menyesatkan dan pengikut-pengikutnya pada hari Kiamat;\nb. \tSikap orang-orang musyrik pada waktu mendengar Al-Qur\u2019an dibacakan; \nc. \tRasul-rasul tidak menerima upah dalam melaksanakan dakwahnya;\nd. \tOrang-orang musyrik di akhirat meminta kepada Allah agar dikem-balikan ke dunia untuk melaksanakan perintah Allah dan menjauhi larangan-Nya;\ne. \tOrang yang hidup berlebih-lebihan dan berlaku sewenang-wenang selalu memusuhi para Nabi;\nf. \tPembangkangan kaum Quraisy;\ng. \tKeadaan orang-orang musyrik di akhirat.\n ",
        "outro_surah": null,
        "munasabah_prev_surah": "HUBUNGAN SURAH AL-A\u1e24Z\u0100B\nDENGAN SURAH SABA\u2019\n\n1.\tPada akhir Surah al-A\u1e25z\u0101b disebutkan bahwa Allah bersifat Maha Pengampun lagi Maha Penyayang; sedang di awal Surah Saba\u2019 disebutkan pula sifat yang demikian itu.\n2.\tPada Surah al-A\u1e25z\u0101b diceritakan bahwa orang-orang kafir menanyakan kapan terjadinya hari Kiamat dengan maksud memperolok-olokkan Nabi Muhammad, sedang pada Surah Saba\u2019 diceritakan pula bahwa orang kafir itu menjadikan berita hari Kiamat bukan saja sebagai olok-olokan, tetapi dengan angkuh mengingkarinya dan mencela orang-orang yang percaya kepada hari Kiamat itu.\n",
        "munasabah_prev_theme": "Pada ayat-ayat yang lalu ditegaskan bahwa Allah sajalah yang berhak dipuji di dunia dan di akhirat. Juga dijelaskan bahwa ilmu Allah Mahaluas dan dalam, mencakup semua yang ada di langit dan di bumi serta dunia dan akhirat. Pada ayat-ayat berikut ini, Allah menerangkan keingkaran orang-orang kafir terhadap adanya hari kebangkitan. Keingkaran yang timbul dari kesombongan sehingga mereka mencemoohkan rasul dan orang-orang mukmin yang memercayainya. Ayat ini juga menerangkan bahwa adanya hari kebangkitan itu adalah untuk membalas perbuatan manusia di dunia dengan seadil-adilnya. Yang berbuat baik dimasukkan ke dalam surga dan yang berbuat buruk dimasukkan ke dalam neraka.\nPada ayat-ayat yang lalu ditegaskan bahwa Allah sajalah yang berhak dipuji di dunia dan di akhirat. Juga dijelaskan bahwa ilmu Allah Mahaluas dan dalam, mencakup semua yang ada di langit dan di bumi serta dunia dan akhirat. Pada ayat-ayat berikut ini, Allah menerangkan keingkaran orang-orang kafir terhadap adanya hari kebangkitan. Keingkaran yang timbul dari kesombongan sehingga mereka mencemoohkan rasul dan orang-orang mukmin yang memercayainya. Ayat ini juga menerangkan bahwa adanya hari kebangkitan itu adalah untuk membalas perbuatan manusia di dunia dengan seadil-adilnya. Yang berbuat baik dimasukkan ke dalam surga dan yang berbuat buruk dimasukkan ke dalam neraka.",
        "theme_group": "KEINGKARAN ORANG-ORANG KAFIR TERHADAP\nHARI KIAMAT DAN BALASANNYA",
        "kosakata": "Kosakata: L\u0101 Ya\u2018zubu \u0644\u064e\u0627\u064a\u064e\u0639\u0652\u0632\u064f\u0628\u064f (Saba\u2019/34: 3)\nKata l\u0101 ya\u2018zubu secara kebahasaan berarti tidak ada yang bersembunyi. Dalam konteks ayat di atas, sesungguhnya ayat ini menjadi bagian dari penjelas atau penguat ayat sebelumnya, terkait kekuasaan dan pengetahuan Allah yang luas tak terbatas. Dikatakan, tidak ada sesuatu pun yang tersembunyi atau tidak diketahui oleh Allah kendati sesuatu itu sekecil atom, baik itu di langit maupun di bumi. Bahkan, yang lebih kecil dari itu pun, pasti Allah mengetahuinya, karena telah termaktub dalam Lau\u1e25 Ma\u1e25f\u016b\u1e93. \nMelalui kata ini, sesungguhnya Allah sedang menggambarkan keadaan orang-orang kafir yang tidak mengakui adanya hari kiamat. Allah mengetahui secara persis keingkaran dan segala kejelekan perilaku mereka di dunia fana ini, kendati keingkaran dan kejelekan itu sekecil atom, atau bahkan lebih kecil darinya. Allah pasti akan membalasnya di hari kebangkitan kelak. ",
        "sabab_nuzul": null,
        "conclusion": null
    }
}