{
    "id": 3698,
    "surah_id": 35,
    "ayah": 38,
    "page": 438,
    "quarter_hizb": 44.5,
    "juz": 22,
    "manzil": 5,
    "arabic": "\u0627\u0650\u0646\u0651\u064e \u0627\u0644\u0644\u0651\u0670\u0647\u064e \u0639\u064e\u0627\u0644\u0650\u0645\u064f \u063a\u064e\u064a\u0652\u0628\u0650 \u0627\u0644\u0633\u0651\u064e\u0645\u0670\u0648\u0670\u062a\u0650 \u0648\u064e\u0627\u0644\u0652\u0627\u064e\u0631\u0652\u0636\u0650\u06d7 \u0627\u0650\u0646\u0651\u064e\u0647\u0657 \u0639\u064e\u0644\u0650\u064a\u0652\u0645\u064c \u06e2\u0628\u0650\u0630\u064e\u0627\u062a\u0650 \u0627\u0644\u0635\u0651\u064f\u062f\u064f\u0648\u0652\u0631\u0650 ",
    "latin": "Innall\u0101ha \u2018\u0101limu gaibis-sam\u0101w\u0101ti wal-ar\u1e0d(i), innah\u016b \u2018al\u012bmum bi\u017c\u0101ti\u1e63-\u1e63ud\u016br(i).",
    "translation": "Sesungguhnya Allah mengetahui yang gaib di langit dan di bumi. Sesungguhnya Dia Maha Mengetahui segala isi hati.",
    "no_footnote": null,
    "footnotes": null,
    "surah": {
        "id": 35,
        "arabic": " \u0641\u0627\u0637\u0631",
        "latin": "F\u0101\u1e6dir",
        "transliteration": "Fatir",
        "translation": "Pencipta",
        "num_ayah": 45,
        "page": 434,
        "location": "Makkiyah"
    },
    "tafsir": {
        "wajiz": "Allah mengabaikan permohonan orang-orang kafir itu, karena sungguh, Allah mengetahui yang gaib dan tersembunyi di langit dan di bumi; tidak ada yang luput dari pengetahuan-Nya. Sungguh, Dia Maha Mengetahui segala isi hati dan akan memberinya balasan yang sepadan.",
        "tahlili": "Ayat ini memerintahkan kepada Nabi Muhammad agar memberi per-ingatan keras kepada orang-orang musyrik bahwa Allah Maha Mengetahui segala apa yang mereka sembunyikan. Allah juga Maha Mengetahui perasaan yang terkandung dalam hati mereka, dan rencana apa yang akan mereka kerjakan. Allah pulalah yang mengetahui segala yang tak terlihat oleh pancaindra manusia, baik yang ada di langit maupun di bumi. Oleh karena itu, hendaklah orang-orang musyrik itu merasa takut kepada Allah, sebab segala gerak-gerik mereka di bawah pengawasan-Nya. Segala yang mereka rencanakan untuk menipu rasul dan melenyapkan kebenaran agama-Nya di bumi ini, atau usaha mereka untuk membantu sekutu mereka dalam menuhankan berhala, pasti diketahui Allah. \nAllah Mengetahui segala perasaan yang terkandung dalam hati manusia, dan perbuatan apa saja yang mereka kerjakan. Firman Allah \u201cSesungguhnya Dia Maha Mengetahui apa yang ada dalam dada manusia\u201d mengisyaratkan kepada pengertian sekalipun orang-orang kafir diberi kesempatan untuk hidup lebih lama lagi, namun mereka tidak akan meninggalkan kekufurannya. Oleh karena itu, sia-sia Allah memanjangkan umurnya. ",
        "intro_surah": "Surah F\u0101\u1e6dir terdiri atas 45 ayat, termasuk surah Makkiyyah, diturunkan sesudah Surah al-Furq\u0101n, dan merupakan surah terakhir dari urutan surah-surah yang dimulai dengan al-\u1e25amdulill\u0101h. Dinamakan F\u0101\u1e6dir karena terdapat kata f\u0101\u1e6dir pada ayat pertama surah ini, yang artinya adalah \u201cPencipta\u201d. Dalam ayat itu diterangkan bahwa Allah adalah pencipta alam semesta, termasuk manusia dan malaikat. Surah ini dinamai juga \u201cSurah Malaikat\u201d, karena pada ayat ini disebutkan bahwa Allah telah menjadikan malaikat-malaikat sebagai utusan-Nya kepada manusia.\n\nPokok-pokok Isinya\n1.\tKeimanan:\nMenyampaikan bukti-bukti dan tanda-tanda bahwa Allah Mahakuasa, Mahakasih, dan Mahasayang, bahwa Nabi Muhammad saw benar sebagai nabi dan penyampai wahyu, bahwa ajaran-ajaran yang disampaikan dalam Al-Qur\u2019an benar, dan bahwa hari kemudian pasti terjadi beserta nasib yang dialami orang kafir di dalamnya. \n2.\tAyat-ayat tentang alam semesta:\nAntara lain tentang angin yang membawa hujan, penciptaan manusia secara bertahap, dua jenis air (tawar dan asin) yang tak bercampur, adanya siang dan malam, manusia, tumbuhan dan hewan dengan berbagai macam spesiesnya, dan sebagainya. Semuanya itu menunjukkan bahwa Allah Mahakuasa dan mengharuskan manusia yang memahaminya untuk mengimani-Nya. \n3.\tIbadah dan Akhlak:\nPerlunya manusia beribadah dan berlomba dalam berbuat baik, agar mereka selamat dan bahagia di akhirat. Fungsi manusia adalah sebagai khalifah, ia harus memenuhi seruan rasul, tidak boleh sombong, tidak teperdaya oleh rayuan setan sehingga yang buruk dianggap baik, dan sebagainya. Namun bila manusia berdosa, Allah tidak langsung menghukumnya, tetapi menundanya untuk memberi kesempatan kepadanya untuk bertobat. ",
        "outro_surah": null,
        "munasabah_prev_surah": "HUBUNGAN SURAH SABA\u2019 DENGAN SURAH F\u0100\u1e6cIR\n\n1.\tKedua surah dimulai dengan pernyataan tentang keterpujian Allah. Dalam Surah Saba\u2019, keterpujian itu mengenai kepemilikan langit, bumi, dan akhirat, sedangkan dalam Surah F\u0101\u1e6dir mengenai penciptaan langit dan bumi serta pengiriman malaikat sebagai utusan-Nya kepada manusia.\n2.\tKedua surah meminta manusia agar beriman kepada Allah. Dalam Surah Saba\u2019 yang ditekankan adalah Allah sebagai yang memberi manusia rezeki dan meminta tanggung jawabnya di akhirat, dalam Surah F\u0101\u1e6dir yang ditekankan adalah Allah sebagai pencipta alam sebagai tanda kekuasaan-Nya, yang akan dihancurkan-Nya pada hari kiamat, kemudian dihidupkan-Nya kembali.  \n3.\tKedua surah meminta manusia agar mengimani para nabi, siapa yang tidak beriman maka nasib yang dialami umat-umat terdahulu hendaknya mereka jadikan pelajaran. Dalam Surah Saba\u2019, manusia tidak beriman karena sombong sebab mereka berkuasa dan kaya. Dalam Surah F\u0101\u1e6dir kesombongan itu terjadi karena tipuan setan.\n4.\tKedua surah meminta manusia beriman kepada Al-Qur\u2019an. Dalam Surah Saba\u2019, Al-Qur\u2019an dinyatakan pasti benar dan yang menentangnya akan kalah. Dalam Surah F\u0101\u1e6dir dinyatakan adanya tiga sikap manusia yang beriman kepadanya: yang masih melakukan kesalahan, yang mengerjakan ajaran secara pas-pasan, dan yang berlomba dalam pelaksanaannya sebaik mungkin.\n5.\tKedua surah meminta manusia agar beriman kepada hari kemudian dan adanya penyesalan mereka yang kafir karena akan diazab. Dalam Surah Saba\u2019 dilukiskan imannya orang-orang kafir itu pada waktu sudah dihadapkan kepada neraka dan memohon ampunan Allah. Dalam Surah F\u0101\u1e6dir dilukiskan bagaimana dahsyatnya neraka itu dan orang-orang kafir itu berteriak-teriak minta dikeluarkan untuk dapat beriman dan berbuat baik.\n6.\tKedua surah menegaskan ketidakbenaran agama syirik karena tidak ada landasan kebenarannya yaitu wahyu yang disampaikan nabi.\n7.\tKedua surah menyampaikan tanda-tanda kemahakuasaan Allah di dunia. Dalam Surah Saba\u2019, tanda-tanda itu adalah keagungan kerajaan Nabi Daud dan Nabi Sulaiman, serta kemakmuran negeri Saba\u2019 yang kemudian dihancurkan karena pembangkangan penduduknya. Dalam Surah F\u0101\u1e6dir, tanda-tanda itu adalah alam yang luar biasa besar dan dahsyatnya ini termasuk penciptaan manusia.\n8.\tKedua surah meminta agar Nabi Muhammad tidak goyah dalam menghadapi kekafiran manusia. Dalam Surah Saba\u2019, kekafiran itu dilatarbelakangi kesombongan dan kebanggaan terhadap nenek moyang. Dalam Surah F\u0101\u1e6dir, kekafiran itu karena rayuan setan.\n",
        "munasabah_prev_theme": "Pada ayat-ayat yang lalu diterangkan bahwa orang-orang yang zalim tidak akan mendapat seorang penolong pun untuk melepaskan diri dari azab Allah. Mereka di neraka tidak hidup dan tidak pula mati, tetapi terus-menerus dalam siksaan. Pada ayat-ayat berikut ini dijelaskan bahwa segala sesuatu berada dalam kekuasaan dan pengetahuan Allah. Juga dijelaskan bahwa keingkaran orang-orang kafir hanya akan membawa kerugian bagi mereka sendiri.\n",
        "theme_group": "ILMU ALLAH MELIPUTI SEGALANYA",
        "kosakata": "Kosakata: Maqtan  \u0645\u064e\u0642\u0652\u062a\u064b\u0627 (F\u0101\u1e6dir/35: 39)\nKata maqtan adalah kata jadian (ma\u1e63dar) dari kata maqata-yamqutu-maqtan. Kata ini berarti kemarahan dan kebencian yang amat sangat. Di dalam Al-Qur\u2019an, kata ini disebut sebanyak lima kali, dan seluruhnya menunjukkan arti yang sama. Di dalam tradisi Jahiliah dikenal aturan di mana seorang laki-laki menikahi istri bapaknya yang ditinggal mati atau diceraikannya. Pernikahan yang kemudian dilarang setelah Islam datang ini disebut zaw\u0101jul maqti. Adapun maksud kata maqtan di dalam konteks ayat ini adalah kekufuran mereka tidak menambah apa-apa selain kebencian dan kemarahan dari Allah dan orang-orang yang beriman. Imam a\u1e6d-\u1e6cabar\u012b dalam tafsirnya menulis penafsiran senada, yaitu \u201csemakin jauh dari rahmat Allah\u201d. ",
        "sabab_nuzul": null,
        "conclusion": null
    }
}