{
    "id": 3691,
    "surah_id": 35,
    "ayah": 31,
    "page": 438,
    "quarter_hizb": 44.5,
    "juz": 22,
    "manzil": 5,
    "arabic": "\u0648\u064e\u0627\u0644\u0651\u064e\u0630\u0650\u064a\u0652\u0653 \u0627\u064e\u0648\u0652\u062d\u064e\u064a\u0652\u0646\u064e\u0627\u0653 \u0627\u0650\u0644\u064e\u064a\u0652\u0643\u064e \u0645\u0650\u0646\u064e \u0627\u0644\u0652\u0643\u0650\u062a\u0670\u0628\u0650 \u0647\u064f\u0648\u064e \u0627\u0644\u0652\u062d\u064e\u0642\u0651\u064f \u0645\u064f\u0635\u064e\u062f\u0651\u0650\u0642\u064b\u0627 \u0644\u0651\u0650\u0645\u064e\u0627 \u0628\u064e\u064a\u0652\u0646\u064e \u064a\u064e\u062f\u064e\u064a\u0652\u0647\u0650\u06d7 \u0627\u0650\u0646\u0651\u064e \u0627\u0644\u0644\u0651\u0670\u0647\u064e \u0628\u0650\u0639\u0650\u0628\u064e\u0627\u062f\u0650\u0647\u0656 \u0644\u064e\u062e\u064e\u0628\u0650\u064a\u0652\u0631\u064c\u06e2 \u0628\u064e\u0635\u0650\u064a\u0652\u0631\u064c ",
    "latin": "Wal-la\u017c\u012b au\u1e25ain\u0101 ilaika minal-kit\u0101bi huwal-\u1e25aqqu mu\u1e63addiqal lim\u0101 baina yadaih(i), innall\u0101ha bi\u2018ib\u0101dih\u012b lakhab\u012brum ba\u1e63\u012br(un).",
    "translation": "Apa yang telah Kami wahyukan kepadamu (Nabi Muhammad), yaitu Kitab Suci (Al-Qur\u2019an), itulah yang benar yang membenarkan kitab-kitab sebelumnya. Sesungguhnya Allah benar-benar Maha Mengetahui lagi Maha Melihat (keadaan) hamba-hamba-Nya.",
    "no_footnote": null,
    "footnotes": null,
    "surah": {
        "id": 35,
        "arabic": " \u0641\u0627\u0637\u0631",
        "latin": "F\u0101\u1e6dir",
        "transliteration": "Fatir",
        "translation": "Pencipta",
        "num_ayah": 45,
        "page": 434,
        "location": "Makkiyah"
    },
    "tafsir": {
        "wajiz": "Usai memberi janji pahala yang sempurna bagi orang-orang yang selalu membaca dan mengamalkan Al-Qur\u2019an, Allah lalu menyusuli-nya dengan penegasan bahwa Al-Qur\u2019an itu adalah benar-benar wahyu dari Allah. Dan apa yang telah Kami wahyukan kepadamu, wahai Nabi Muhammad, yaitu Kitab Al-Qur\u2019an, itulah yang benar; tidak ada sedikit pun kebatilan dan keraguan di dalamnya; ia juga membenarkan kitab-kitab yang sebelumnya bahwa kitab-kitab itu berasal dari allah. Sungguh, Allah benar-benar Maha Mengetahui, Maha Melihat keadaan hamba-hamba-Nya.",
        "tahlili": "Sesungguhnya Al-Qur\u2019an yang diturunkan kepada Nabi Muhammad adalah Kitabullah yang benar-benar diturunkan dari Allah. Oleh karena itu, Allah mewajibkan kepada Nabi dan kepada segenap umatnya untuk mengamalkan ajarannya dan mengikuti pedoman-pedoman hidup yang terdapat di dalamnya. Bila seorang muslim telah mematuhi secara sempurna ajaran Al-Qur\u2019an itu, maka ia tidak perlu lagi mengamalkan kitab-kitab suci sebelumnya, sekalipun diwajibkan untuk mengimaninya. Sebab apa yang pernah diterangkan dalam kitab-kitab sebelumnya, telah dibenarkan oleh Al-Qur\u2019an. Dengan kata lain, beriman dengan kitab-kitab suci yang pernah diturunkan kepada para rasul sebelum Nabi Muhammad bukan berarti mengamalkan ajarannya, tetapi cukup mengimani kebenarannya, sebab intisari dari apa yang tercantum dalam kitab-kitab itu telah tertera pula dalam Al-Qur\u2019an. Allah Maha Mengetahui perihal hamba-Nya. Allah Mahateliti akan aturan-aturan hidup yang perlu bagi mereka. Atas dasar itulah Dia menetapkan aturan dan hukum-hukum yang sesuai dengan kehidupan mereka, di mana dan kapan mereka berada. Guna kesejahteraan manusia seutuhnya, Allah mengutus para rasul dengan tugas menyampaikan syariat-Nya, di mana Nabi Muhammad adalah rasul terakhir yang diutus untuk sekalian manusia sampai hari Kiamat. Risalah dan syariat yang dibawanya kekal dan abadi sampai tibanya hari Kiamat.\nFirman Allah:\n\u0627\u064e\u0644\u0644\u0651\u0670\u0647\u064f \u0627\u064e\u0639\u0652\u0644\u064e\u0645\u064f \u062d\u064e\u064a\u0652\u062b\u064f \u064a\u064e\u062c\u0652\u0639\u064e\u0644\u064f \u0631\u0650\u0633\u0670\u0644\u064e\u062a\u064e\u0647\u0657\u06d7 \nAllah lebih mengetahui di mana Dia menempatkan tugas kerasulan-Nya. (al-An\u2018\u0101m/6: 124) \n\nImam Ibnu Ka\u1e61ir menjelaskan bahwa maksud pengetahuan Allah yang Mahaluas mengenai perihal hamba-Nya itu ialah Dia mengangkat derajat para nabi dan rasul melebihi manusia keseluruhannya. Bahkan di antara mereka (para nabi) itu sendiri berbeda-beda tingkat ketinggiannya, dan kedudukan Nabi Muhammad melebihi semua mereka.",
        "intro_surah": "Surah F\u0101\u1e6dir terdiri atas 45 ayat, termasuk surah Makkiyyah, diturunkan sesudah Surah al-Furq\u0101n, dan merupakan surah terakhir dari urutan surah-surah yang dimulai dengan al-\u1e25amdulill\u0101h. Dinamakan F\u0101\u1e6dir karena terdapat kata f\u0101\u1e6dir pada ayat pertama surah ini, yang artinya adalah \u201cPencipta\u201d. Dalam ayat itu diterangkan bahwa Allah adalah pencipta alam semesta, termasuk manusia dan malaikat. Surah ini dinamai juga \u201cSurah Malaikat\u201d, karena pada ayat ini disebutkan bahwa Allah telah menjadikan malaikat-malaikat sebagai utusan-Nya kepada manusia.\n\nPokok-pokok Isinya\n1.\tKeimanan:\nMenyampaikan bukti-bukti dan tanda-tanda bahwa Allah Mahakuasa, Mahakasih, dan Mahasayang, bahwa Nabi Muhammad saw benar sebagai nabi dan penyampai wahyu, bahwa ajaran-ajaran yang disampaikan dalam Al-Qur\u2019an benar, dan bahwa hari kemudian pasti terjadi beserta nasib yang dialami orang kafir di dalamnya. \n2.\tAyat-ayat tentang alam semesta:\nAntara lain tentang angin yang membawa hujan, penciptaan manusia secara bertahap, dua jenis air (tawar dan asin) yang tak bercampur, adanya siang dan malam, manusia, tumbuhan dan hewan dengan berbagai macam spesiesnya, dan sebagainya. Semuanya itu menunjukkan bahwa Allah Mahakuasa dan mengharuskan manusia yang memahaminya untuk mengimani-Nya. \n3.\tIbadah dan Akhlak:\nPerlunya manusia beribadah dan berlomba dalam berbuat baik, agar mereka selamat dan bahagia di akhirat. Fungsi manusia adalah sebagai khalifah, ia harus memenuhi seruan rasul, tidak boleh sombong, tidak teperdaya oleh rayuan setan sehingga yang buruk dianggap baik, dan sebagainya. Namun bila manusia berdosa, Allah tidak langsung menghukumnya, tetapi menundanya untuk memberi kesempatan kepadanya untuk bertobat. ",
        "outro_surah": null,
        "munasabah_prev_surah": "HUBUNGAN SURAH SABA\u2019 DENGAN SURAH F\u0100\u1e6cIR\n\n1.\tKedua surah dimulai dengan pernyataan tentang keterpujian Allah. Dalam Surah Saba\u2019, keterpujian itu mengenai kepemilikan langit, bumi, dan akhirat, sedangkan dalam Surah F\u0101\u1e6dir mengenai penciptaan langit dan bumi serta pengiriman malaikat sebagai utusan-Nya kepada manusia.\n2.\tKedua surah meminta manusia agar beriman kepada Allah. Dalam Surah Saba\u2019 yang ditekankan adalah Allah sebagai yang memberi manusia rezeki dan meminta tanggung jawabnya di akhirat, dalam Surah F\u0101\u1e6dir yang ditekankan adalah Allah sebagai pencipta alam sebagai tanda kekuasaan-Nya, yang akan dihancurkan-Nya pada hari kiamat, kemudian dihidupkan-Nya kembali.  \n3.\tKedua surah meminta manusia agar mengimani para nabi, siapa yang tidak beriman maka nasib yang dialami umat-umat terdahulu hendaknya mereka jadikan pelajaran. Dalam Surah Saba\u2019, manusia tidak beriman karena sombong sebab mereka berkuasa dan kaya. Dalam Surah F\u0101\u1e6dir kesombongan itu terjadi karena tipuan setan.\n4.\tKedua surah meminta manusia beriman kepada Al-Qur\u2019an. Dalam Surah Saba\u2019, Al-Qur\u2019an dinyatakan pasti benar dan yang menentangnya akan kalah. Dalam Surah F\u0101\u1e6dir dinyatakan adanya tiga sikap manusia yang beriman kepadanya: yang masih melakukan kesalahan, yang mengerjakan ajaran secara pas-pasan, dan yang berlomba dalam pelaksanaannya sebaik mungkin.\n5.\tKedua surah meminta manusia agar beriman kepada hari kemudian dan adanya penyesalan mereka yang kafir karena akan diazab. Dalam Surah Saba\u2019 dilukiskan imannya orang-orang kafir itu pada waktu sudah dihadapkan kepada neraka dan memohon ampunan Allah. Dalam Surah F\u0101\u1e6dir dilukiskan bagaimana dahsyatnya neraka itu dan orang-orang kafir itu berteriak-teriak minta dikeluarkan untuk dapat beriman dan berbuat baik.\n6.\tKedua surah menegaskan ketidakbenaran agama syirik karena tidak ada landasan kebenarannya yaitu wahyu yang disampaikan nabi.\n7.\tKedua surah menyampaikan tanda-tanda kemahakuasaan Allah di dunia. Dalam Surah Saba\u2019, tanda-tanda itu adalah keagungan kerajaan Nabi Daud dan Nabi Sulaiman, serta kemakmuran negeri Saba\u2019 yang kemudian dihancurkan karena pembangkangan penduduknya. Dalam Surah F\u0101\u1e6dir, tanda-tanda itu adalah alam yang luar biasa besar dan dahsyatnya ini termasuk penciptaan manusia.\n8.\tKedua surah meminta agar Nabi Muhammad tidak goyah dalam menghadapi kekafiran manusia. Dalam Surah Saba\u2019, kekafiran itu dilatarbelakangi kesombongan dan kebanggaan terhadap nenek moyang. Dalam Surah F\u0101\u1e6dir, kekafiran itu karena rayuan setan.\n",
        "munasabah_prev_theme": "Pada ayat yang lalu, Allah telah menjelaskan bahwa orang-orang yang selalu membaca kitab suci Al-Qur\u2019an serta mengamalkan makna dan kandungan ayat yang dibacanya, akan disempurnakan Allah pahalanya di akhirat kelak. Pada ayat-ayat berikut ini diterangkan lagi bahwa Kitabullah (Al-Qur\u2019an) yang dibaca itu adalah kitab suci yang benar-benar wahyu dari Allah. Namun orang yang menerima Al-Qur\u2019an terbagi menjadi tiga tingkatan, yaitu yang menganiaya dirinya, yang mengambil sikap pertengah-an (muqtasid), dan yang berlomba dalam kebaikan. ",
        "theme_group": "TINGKATAN MANUSIA DALAM \nMENERIMA AL-Qur\u2019an\n",
        "kosakata": "1. S\u0101biqun bil-Khair\u0101t  \u0633\u064e\u0627\u0628\u0650\u0642\u064c \u0628\u0650\u0627\u0644\u0652\u062e\u064e\u064a\u0652\u0631\u064e\u0627\u062a\u0650  (F\u0101\u1e6dir/35: 32) \nKata s\u0101biq adalah isim fa\u2018il terambil dari kata al-sabq yakni berlomba/ perlombaan. Makna s\u0101biq adalah seorang yang mencapai batas yang dituju mendahului yang lainnya. Kata s\u0101biq dan turunannya dalam Al-Qur\u2019an disebut 37 kali tersebar dalam 26 surah. Kata al-khair\u0101t adalah bentuk jamak dari kata khair yakni kebajikan. Kata al-khair\u0101t disebut 10 kali dalam Al-Qur\u2019an tersebar dalam 8 surah. Dengan demikian, makna s\u0101biq bi al-khair\u0101t dalam Surah F\u0101\u1e6dir ayat 32 adalah orang yang mendahului dalam kebajikan.\n2. D\u0101rul-Muq\u0101mah\t\u062f\u064e\u0627\u0631\u064f \u0627\u0644\u0652\u0645\u064f\u0642\u064e\u0627\u0645\u064e\u0629\u0650 (F\u0101\u1e6dir/35 :35) \nKata d\u0101r dalam Al-Qur\u2019an disebut 56 kali dalam berbagai bentuk, tersebar dalam 27 surah. Kata d\u0101r berasal dari dawara yang secara terminologi bermakna bergerak dan kembali pada tempat semula, istirahat setelah ia bergerak dan melakukan aktivitasnya. Pengertian kata ini kemudian meluas pada pengertian lain, yakni tempat tinggal atau rumah, karena rumah berfungsi sebagai tempat kembali manusia setelah melakukan berbagai aktivitas sehari-hari. Di samping pengertian tersebut di atas, d\u0101r bisa bermakna perkampungan karena setelah seseorang melakukan berbagai  perjalanan, dia akan kembali ke kampungnya. Kemudian kata ad-d\u0101r berarti dataran rendah yang dikelilingi oleh dataran-dataran tinggi (pegunungan).\nKata d\u0101r yang dihubungkan dengan konteks pembicaraan dalam Al-Qur\u2019an secara garis besar dapat dikategorikan  menjadi dua, yaitu yang bersifat keduniaan dan yang bersifat keakhiratan. Dari pembicaraan dalam Al-Qur\u2019an, tergambar bahwa kata d\u0101r berarti suatu tempat yang menjadi akhir dari berbagai aktivitas kehidupan manusia, baik menyangkut kehidupan duniawi maupun kehidupan ukhrawi. Namun kebanyakan pembicaraan Al-Qur\u2019an mengenai d\u0101r lebih mengarah pada pembalasan kehidupan di akhirat, baik berupa balasan kebaikan dengan surga, maupun balasan kejahatan dengan neraka. \nKata al-muq\u0101mah berarti kekal. Jadi makna d\u0101r al-muq\u0101mah dalam Surah F\u0101\u1e6dir ayat 35 adalah tempat kediaman yang kekal di akhirat.",
        "sabab_nuzul": null,
        "conclusion": null
    }
}