{
    "id": 3689,
    "surah_id": 35,
    "ayah": 29,
    "page": 437,
    "quarter_hizb": 44.5,
    "juz": 22,
    "manzil": 5,
    "arabic": "\u0627\u0650\u0646\u0651\u064e \u0627\u0644\u0651\u064e\u0630\u0650\u064a\u0652\u0646\u064e \u064a\u064e\u062a\u0652\u0644\u064f\u0648\u0652\u0646\u064e \u0643\u0650\u062a\u0670\u0628\u064e \u0627\u0644\u0644\u0651\u0670\u0647\u0650 \u0648\u064e\u0627\u064e\u0642\u064e\u0627\u0645\u064f\u0648\u0627 \u0627\u0644\u0635\u0651\u064e\u0644\u0670\u0648\u0629\u064e \u0648\u064e\u0627\u064e\u0646\u0652\u0641\u064e\u0642\u064f\u0648\u0652\u0627 \u0645\u0650\u0645\u0651\u064e\u0627 \u0631\u064e\u0632\u064e\u0642\u0652\u0646\u0670\u0647\u064f\u0645\u0652 \u0633\u0650\u0631\u0651\u064b\u0627 \u0648\u0651\u064e\u0639\u064e\u0644\u064e\u0627\u0646\u0650\u064a\u064e\u0629\u064b \u064a\u0651\u064e\u0631\u0652\u062c\u064f\u0648\u0652\u0646\u064e \u062a\u0650\u062c\u064e\u0627\u0631\u064e\u0629\u064b \u0644\u0651\u064e\u0646\u0652 \u062a\u064e\u0628\u064f\u0648\u0652\u0631\u064e\u06d9 ",
    "latin": "Innal-la\u017c\u012bna yatl\u016bna kit\u0101ball\u0101hi wa aq\u0101mu\u1e63-\u1e63al\u0101ta wa anfaq\u016b mimm\u0101 razaqn\u0101hum sirraw wa \u2018al\u0101niyatay yarj\u016bna tij\u0101ratal lan tab\u016br(a).",
    "translation": "Sesungguhnya orang-orang yang selalu membaca Kitab Allah (Al-Qur\u2019an), menegakkan salat, dan menginfakkan sebagian rezeki yang Kami anugerahkan kepadanya secara sembunyi-sembunyi dan terang-terangan, mereka itu mengharapkan perdagangan yang tidak akan pernah rugi.",
    "no_footnote": null,
    "footnotes": null,
    "surah": {
        "id": 35,
        "arabic": " \u0641\u0627\u0637\u0631",
        "latin": "F\u0101\u1e6dir",
        "transliteration": "Fatir",
        "translation": "Pencipta",
        "num_ayah": 45,
        "page": 434,
        "location": "Makkiyah"
    },
    "tafsir": {
        "wajiz": "Pada ayat ini Allah menyebutkan sebagian tanda orang yang takut kepada-Nya. Sesungguhnya orang-orang yang selalu membaca Kitab Allah, yakni Al-Qur\u2019an, lalu mereka mengkaji dan mengamalkan kandungannya, dan melaksanakan salat dengan sempurna syarat dan rukunnya, dan menginfakkan sebagian rezeki yang Kami anugerahkan kepada-nya dengan diam-diam dan terang-terangan, baik dalam keadaan lapang maupun sempit, mereka itu mengharapkan perdagangan dengan Allah yang tidak akan pernah rugi,",
        "tahlili": "Pada ayat ini, Allah menerangkan bahwa orang-orang yang selalu membaca Al-Qur\u2019an, meyakini berita, mempelajari kata dan maknanya lalu diamalkan, mengikuti perintah, menjauhi larangan, mengerjakan salat pada waktunya sesuai dengan cara yang telah ditetapkan dan dengan penuh ikhlas dan khusyuk, menafkahkan harta bendanya tanpa berlebih-lebihan dengan ikhlas tanpa ria, baik secara diam-diam atau terang-terangan, mereka adalah orang yang mengamalkan ilmunya dan berbuat baik dengan Tuhan mereka. Mereka itu ibarat pedagang yang tidak merugi, tetapi memperoleh pahala yang berlipat ganda sebagai karunia Allah, berdasarkan amal baktinya. Firman Allah:\n\u0641\u064e\u0627\u064e\u0645\u0651\u064e\u0627 \u0627\u0644\u0651\u064e\u0630\u0650\u064a\u0652\u0646\u064e \u0627\u0670\u0645\u064e\u0646\u064f\u0648\u0652\u0627 \u0648\u064e\u0639\u064e\u0645\u0650\u0644\u064f\u0648\u0627 \u0627\u0644\u0635\u0651\u0670\u0644\u0650\u062d\u0670\u062a\u0650 \u0641\u064e\u064a\u064f\u0648\u064e\u0641\u0651\u0650\u064a\u0652\u0647\u0650\u0645\u0652 \u0627\u064f\u062c\u064f\u0648\u0652\u0631\u064e\u0647\u064f\u0645\u0652 \u0648\u064e\u064a\u064e\u0632\u0650\u064a\u0652\u062f\u064f\u0647\u064f\u0645\u0652 \u0645\u0651\u0650\u0646\u0652 \u0641\u064e\u0636\u0652\u0644\u0650\u0647\u0656\u06da \u0648\u064e\u0627\u064e\u0645\u0651\u064e\u0627 \u0627\u0644\u0651\u064e\u0630\u0650\u064a\u0652\u0646\u064e \u0627\u0633\u0652\u062a\u064e\u0646\u0652\u0643\u064e\u0641\u064f\u0648\u0652\u0627 \u0648\u064e\u0627\u0633\u0652\u062a\u064e\u0643\u0652\u0628\u064e\u0631\u064f\u0648\u0652\u0627 \u0641\u064e\u064a\u064f\u0639\u064e\u0630\u0651\u0650\u0628\u064f\u0647\u064f\u0645\u0652 \u0639\u064e\u0630\u064e\u0627\u0628\u064b\u0627 \u0627\u064e\u0644\u0650\u064a\u0652\u0645\u064b\u0627\u06d9 \u0648\u0651\u064e\u0644\u064e\u0627 \u064a\u064e\u062c\u0650\u062f\u064f\u0648\u0652\u0646\u064e \u0644\u064e\u0647\u064f\u0645\u0652 \u0645\u0650\u0651\u0646\u0652 \u062f\u064f\u0648\u0652\u0646\u0650 \u0627\u0644\u0644\u0651\u0670\u0647\u0650 \u0648\u064e\u0644\u0650\u064a\u0651\u064b\u0627 \u0648\u0651\u064e\u0644\u064e\u0627 \u0646\u064e\u0635\u0650\u064a\u0652\u0631\u064b\u0627 \u0661\u0667\u0663 (\u0627\u0644\u0646\u0633\u0627\u06e4\u0621)\nAdapun orang-orang yang beriman dan mengerjakan kebajikan, Allah akan menyempurnakan pahala bagi mereka dan menambah sebagian dari karunia-Nya. (an-Nis\u0101'/4: 173) \n\nSelain dari itu, mereka juga akan memperoleh ampunan atas kesalahan dan kejahatan yang telah dilakukan, karena Allah Maha Pengampun lagi Maha Mensyukuri hamba-hamba-Nya, memberikan pahala yang sempurna terhadap amal-amal mereka, memaafkan kesalahannya dan menambah nikmat-Nya. Sejalan dengan ini firman Allah:\n\u0627\u0650\u0646\u0651\u064e \u0627\u0644\u0644\u0651\u0670\u0647\u064e \u063a\u064e\u0641\u064f\u0648\u0652\u0631\u064c \u0634\u064e\u0643\u064f\u0648\u0652\u0631\u064c \nSungguh, Allah Maha Pengampun, Maha Mensyukuri. (asy-Sy\u016br\u0101/42: 23) ",
        "intro_surah": "Surah F\u0101\u1e6dir terdiri atas 45 ayat, termasuk surah Makkiyyah, diturunkan sesudah Surah al-Furq\u0101n, dan merupakan surah terakhir dari urutan surah-surah yang dimulai dengan al-\u1e25amdulill\u0101h. Dinamakan F\u0101\u1e6dir karena terdapat kata f\u0101\u1e6dir pada ayat pertama surah ini, yang artinya adalah \u201cPencipta\u201d. Dalam ayat itu diterangkan bahwa Allah adalah pencipta alam semesta, termasuk manusia dan malaikat. Surah ini dinamai juga \u201cSurah Malaikat\u201d, karena pada ayat ini disebutkan bahwa Allah telah menjadikan malaikat-malaikat sebagai utusan-Nya kepada manusia.\n\nPokok-pokok Isinya\n1.\tKeimanan:\nMenyampaikan bukti-bukti dan tanda-tanda bahwa Allah Mahakuasa, Mahakasih, dan Mahasayang, bahwa Nabi Muhammad saw benar sebagai nabi dan penyampai wahyu, bahwa ajaran-ajaran yang disampaikan dalam Al-Qur\u2019an benar, dan bahwa hari kemudian pasti terjadi beserta nasib yang dialami orang kafir di dalamnya. \n2.\tAyat-ayat tentang alam semesta:\nAntara lain tentang angin yang membawa hujan, penciptaan manusia secara bertahap, dua jenis air (tawar dan asin) yang tak bercampur, adanya siang dan malam, manusia, tumbuhan dan hewan dengan berbagai macam spesiesnya, dan sebagainya. Semuanya itu menunjukkan bahwa Allah Mahakuasa dan mengharuskan manusia yang memahaminya untuk mengimani-Nya. \n3.\tIbadah dan Akhlak:\nPerlunya manusia beribadah dan berlomba dalam berbuat baik, agar mereka selamat dan bahagia di akhirat. Fungsi manusia adalah sebagai khalifah, ia harus memenuhi seruan rasul, tidak boleh sombong, tidak teperdaya oleh rayuan setan sehingga yang buruk dianggap baik, dan sebagainya. Namun bila manusia berdosa, Allah tidak langsung menghukumnya, tetapi menundanya untuk memberi kesempatan kepadanya untuk bertobat. ",
        "outro_surah": null,
        "munasabah_prev_surah": "HUBUNGAN SURAH SABA\u2019 DENGAN SURAH F\u0100\u1e6cIR\n\n1.\tKedua surah dimulai dengan pernyataan tentang keterpujian Allah. Dalam Surah Saba\u2019, keterpujian itu mengenai kepemilikan langit, bumi, dan akhirat, sedangkan dalam Surah F\u0101\u1e6dir mengenai penciptaan langit dan bumi serta pengiriman malaikat sebagai utusan-Nya kepada manusia.\n2.\tKedua surah meminta manusia agar beriman kepada Allah. Dalam Surah Saba\u2019 yang ditekankan adalah Allah sebagai yang memberi manusia rezeki dan meminta tanggung jawabnya di akhirat, dalam Surah F\u0101\u1e6dir yang ditekankan adalah Allah sebagai pencipta alam sebagai tanda kekuasaan-Nya, yang akan dihancurkan-Nya pada hari kiamat, kemudian dihidupkan-Nya kembali.  \n3.\tKedua surah meminta manusia agar mengimani para nabi, siapa yang tidak beriman maka nasib yang dialami umat-umat terdahulu hendaknya mereka jadikan pelajaran. Dalam Surah Saba\u2019, manusia tidak beriman karena sombong sebab mereka berkuasa dan kaya. Dalam Surah F\u0101\u1e6dir kesombongan itu terjadi karena tipuan setan.\n4.\tKedua surah meminta manusia beriman kepada Al-Qur\u2019an. Dalam Surah Saba\u2019, Al-Qur\u2019an dinyatakan pasti benar dan yang menentangnya akan kalah. Dalam Surah F\u0101\u1e6dir dinyatakan adanya tiga sikap manusia yang beriman kepadanya: yang masih melakukan kesalahan, yang mengerjakan ajaran secara pas-pasan, dan yang berlomba dalam pelaksanaannya sebaik mungkin.\n5.\tKedua surah meminta manusia agar beriman kepada hari kemudian dan adanya penyesalan mereka yang kafir karena akan diazab. Dalam Surah Saba\u2019 dilukiskan imannya orang-orang kafir itu pada waktu sudah dihadapkan kepada neraka dan memohon ampunan Allah. Dalam Surah F\u0101\u1e6dir dilukiskan bagaimana dahsyatnya neraka itu dan orang-orang kafir itu berteriak-teriak minta dikeluarkan untuk dapat beriman dan berbuat baik.\n6.\tKedua surah menegaskan ketidakbenaran agama syirik karena tidak ada landasan kebenarannya yaitu wahyu yang disampaikan nabi.\n7.\tKedua surah menyampaikan tanda-tanda kemahakuasaan Allah di dunia. Dalam Surah Saba\u2019, tanda-tanda itu adalah keagungan kerajaan Nabi Daud dan Nabi Sulaiman, serta kemakmuran negeri Saba\u2019 yang kemudian dihancurkan karena pembangkangan penduduknya. Dalam Surah F\u0101\u1e6dir, tanda-tanda itu adalah alam yang luar biasa besar dan dahsyatnya ini termasuk penciptaan manusia.\n8.\tKedua surah meminta agar Nabi Muhammad tidak goyah dalam menghadapi kekafiran manusia. Dalam Surah Saba\u2019, kekafiran itu dilatarbelakangi kesombongan dan kebanggaan terhadap nenek moyang. Dalam Surah F\u0101\u1e6dir, kekafiran itu karena rayuan setan.\n",
        "munasabah_prev_theme": "Pada ayat-ayat yang lalu ditegaskan bahwa hanya kepada Allah dan azab-Nya manusia diwajibkan untuk takut, dan hanya para ulama yang benar-benar takut kepada Allah. Pada ayat-ayat berikut ini diterangkan cara mendapatkan pahala dan karunia Allah tanpa pernah merugi, yaitu membaca Al-Qur\u2019an dan berinfak di jalan Allah setiap saat.",
        "theme_group": "PERNIAGAAN YANG TIDAK PERNAH RUGI\n",
        "kosakata": "Kosakata: Lan Tab\u016br \u0644\u064e\u0646\u0652 \u062a\u064e\u0628\u064f\u0648\u0652\u0631 (F\u0101\u1e6dir/35: 29) \nKata lan tab\u016br berarti tidak akan merugi. Kata ini dan derivasinya dalam Al-Qur\u2019an disebut 5 kali dan tersebar dalam 4 surah. Kata lan tab\u016br di-sebutkan bergandengan dengan kata tij\u0101rah dalam Surah F\u0101\u1e6dir ayat 29, yaitu tij\u0101rah lan tab\u016br berarti perdagangan yang tidak akan merugi. Al-Qur\u2019an dalam mengajak manusia memercayai dan mengamalkan tuntunannya dalam segala aspek sering kali menggunakan istilah-istilah yang dikenal oleh dunia bisnis, seperti perdagangan, jual beli, untung rugi, kredit, dan sebagainya. Demikian terlihat Al-Qur\u2019an menggunakan logika pelaku bisnis dalam menawarkan ajaran-ajarannya, seperti pelaku bisnis yang selalu memperhitungkan untung rugi dan lain-lain. Ayat ini bagaikan berdialog dengan para pelaku bisnis itu.",
        "sabab_nuzul": null,
        "conclusion": null
    }
}