{
    "id": 3675,
    "surah_id": 35,
    "ayah": 15,
    "page": 436,
    "quarter_hizb": 44.5,
    "juz": 22,
    "manzil": 5,
    "arabic": "\u06de \u064a\u0670\u0653\u0627\u064e\u064a\u0651\u064f\u0647\u064e\u0627 \u0627\u0644\u0646\u0651\u064e\u0627\u0633\u064f \u0627\u064e\u0646\u0652\u062a\u064f\u0645\u064f \u0627\u0644\u0652\u0641\u064f\u0642\u064e\u0631\u064e\u0627\u06e4\u0621\u064f \u0627\u0650\u0644\u064e\u0649 \u0627\u0644\u0644\u0651\u0670\u0647\u0650 \u06da\u0648\u064e\u0627\u0644\u0644\u0651\u0670\u0647\u064f \u0647\u064f\u0648\u064e \u0627\u0644\u0652\u063a\u064e\u0646\u0650\u064a\u0651\u064f \u0627\u0644\u0652\u062d\u064e\u0645\u0650\u064a\u0652\u062f\u064f ",
    "latin": "Y\u0101 ayyuhan-n\u0101su antumul-fuqar\u0101'u ilall\u0101h(i), wall\u0101hu huwal-ganiyyul-\u1e25am\u012bd(u).",
    "translation": "Wahai manusia, kamulah yang memerlukan Allah. Hanya Allah Yang Maha Kaya lagi Maha Terpuji.",
    "no_footnote": null,
    "footnotes": null,
    "surah": {
        "id": 35,
        "arabic": " \u0641\u0627\u0637\u0631",
        "latin": "F\u0101\u1e6dir",
        "transliteration": "Fatir",
        "translation": "Pencipta",
        "num_ayah": 45,
        "page": 434,
        "location": "Makkiyah"
    },
    "tafsir": {
        "wajiz": "Hanya Allah Tuhan yang patut disembah. Dia Mahakuasa, pemilik langit dan bumi, sehingga itu manusia sudah pasti sangat memerlukan rahmat dan pertolongan-Nya. Wahai manusia! Kamulah yang memerlukan Allah; dan Allah, Dialah Yang Mahakaya, tidak memerlukan apa pun, lagi Maha Terpuji nama, sifat, dan perbuatan-Nya.",
        "tahlili": "Pada ayat ini diterangkan bahwa manusia sangat berkepentingan kepada Penciptanya yaitu Allah karena semua manusia membutuhkan pertolongan-Nya dalam seluruh aspek kehidupan, seperti kekuatan, rezeki, menolak  bahaya, mendapat kenikmatan, ilmu dan sebagainya, baik urusan dunia maupun akhirat. Semua itu tidak akan terjadi kecuali dengan rahmat dan taufik Allah.  \nHanya Allah yang wajib disembah dan diharapkan rida-Nya. Ia Mahakaya, tidak memerlukan sesuatu. Maha Terpuji atas nikmat yang telah dianugerahkan kepada para hamba-Nya. Setiap nikmat yang dimiliki oleh manusia berasal dari sisi-Nya. Dialah yang seharusnya dipuji dan disyukuri dalam segala hal. Di ayat lain Allah menegaskan:\n\u0644\u064e\u0647\u0657 \u0645\u064e\u0627 \u0641\u0650\u0649 \u0627\u0644\u0633\u0651\u064e\u0645\u0670\u0648\u0670\u062a\u0650 \u0648\u064e\u0645\u064e\u0627 \u0641\u0650\u0649 \u0627\u0644\u0652\u0627\u064e\u0631\u0652\u0636\u0650\u06d7 \u0648\u064e\u0627\u0650\u0646\u0651\u064e \u0627\u0644\u0644\u0651\u0670\u0647\u064e \u0644\u064e\u0647\u064f\u0648\u064e \u0627\u0644\u0652\u063a\u064e\u0646\u0650\u064a\u0651\u064f \u0627\u0644\u0652\u062d\u064e\u0645\u0650\u064a\u0652\u062f\u064f \u08d6 \u0666\u0664 (\u0627\u0644\u062d\u062c)\nMilik-Nyalah apa yang ada di langit dan apa yang ada di bumi. Dan Allah benar-benar Mahakaya, Maha Terpuji. (al-\u1e24ajj/22: 64)",
        "intro_surah": "Surah F\u0101\u1e6dir terdiri atas 45 ayat, termasuk surah Makkiyyah, diturunkan sesudah Surah al-Furq\u0101n, dan merupakan surah terakhir dari urutan surah-surah yang dimulai dengan al-\u1e25amdulill\u0101h. Dinamakan F\u0101\u1e6dir karena terdapat kata f\u0101\u1e6dir pada ayat pertama surah ini, yang artinya adalah \u201cPencipta\u201d. Dalam ayat itu diterangkan bahwa Allah adalah pencipta alam semesta, termasuk manusia dan malaikat. Surah ini dinamai juga \u201cSurah Malaikat\u201d, karena pada ayat ini disebutkan bahwa Allah telah menjadikan malaikat-malaikat sebagai utusan-Nya kepada manusia.\n\nPokok-pokok Isinya\n1.\tKeimanan:\nMenyampaikan bukti-bukti dan tanda-tanda bahwa Allah Mahakuasa, Mahakasih, dan Mahasayang, bahwa Nabi Muhammad saw benar sebagai nabi dan penyampai wahyu, bahwa ajaran-ajaran yang disampaikan dalam Al-Qur\u2019an benar, dan bahwa hari kemudian pasti terjadi beserta nasib yang dialami orang kafir di dalamnya. \n2.\tAyat-ayat tentang alam semesta:\nAntara lain tentang angin yang membawa hujan, penciptaan manusia secara bertahap, dua jenis air (tawar dan asin) yang tak bercampur, adanya siang dan malam, manusia, tumbuhan dan hewan dengan berbagai macam spesiesnya, dan sebagainya. Semuanya itu menunjukkan bahwa Allah Mahakuasa dan mengharuskan manusia yang memahaminya untuk mengimani-Nya. \n3.\tIbadah dan Akhlak:\nPerlunya manusia beribadah dan berlomba dalam berbuat baik, agar mereka selamat dan bahagia di akhirat. Fungsi manusia adalah sebagai khalifah, ia harus memenuhi seruan rasul, tidak boleh sombong, tidak teperdaya oleh rayuan setan sehingga yang buruk dianggap baik, dan sebagainya. Namun bila manusia berdosa, Allah tidak langsung menghukumnya, tetapi menundanya untuk memberi kesempatan kepadanya untuk bertobat. ",
        "outro_surah": null,
        "munasabah_prev_surah": "HUBUNGAN SURAH SABA\u2019 DENGAN SURAH F\u0100\u1e6cIR\n\n1.\tKedua surah dimulai dengan pernyataan tentang keterpujian Allah. Dalam Surah Saba\u2019, keterpujian itu mengenai kepemilikan langit, bumi, dan akhirat, sedangkan dalam Surah F\u0101\u1e6dir mengenai penciptaan langit dan bumi serta pengiriman malaikat sebagai utusan-Nya kepada manusia.\n2.\tKedua surah meminta manusia agar beriman kepada Allah. Dalam Surah Saba\u2019 yang ditekankan adalah Allah sebagai yang memberi manusia rezeki dan meminta tanggung jawabnya di akhirat, dalam Surah F\u0101\u1e6dir yang ditekankan adalah Allah sebagai pencipta alam sebagai tanda kekuasaan-Nya, yang akan dihancurkan-Nya pada hari kiamat, kemudian dihidupkan-Nya kembali.  \n3.\tKedua surah meminta manusia agar mengimani para nabi, siapa yang tidak beriman maka nasib yang dialami umat-umat terdahulu hendaknya mereka jadikan pelajaran. Dalam Surah Saba\u2019, manusia tidak beriman karena sombong sebab mereka berkuasa dan kaya. Dalam Surah F\u0101\u1e6dir kesombongan itu terjadi karena tipuan setan.\n4.\tKedua surah meminta manusia beriman kepada Al-Qur\u2019an. Dalam Surah Saba\u2019, Al-Qur\u2019an dinyatakan pasti benar dan yang menentangnya akan kalah. Dalam Surah F\u0101\u1e6dir dinyatakan adanya tiga sikap manusia yang beriman kepadanya: yang masih melakukan kesalahan, yang mengerjakan ajaran secara pas-pasan, dan yang berlomba dalam pelaksanaannya sebaik mungkin.\n5.\tKedua surah meminta manusia agar beriman kepada hari kemudian dan adanya penyesalan mereka yang kafir karena akan diazab. Dalam Surah Saba\u2019 dilukiskan imannya orang-orang kafir itu pada waktu sudah dihadapkan kepada neraka dan memohon ampunan Allah. Dalam Surah F\u0101\u1e6dir dilukiskan bagaimana dahsyatnya neraka itu dan orang-orang kafir itu berteriak-teriak minta dikeluarkan untuk dapat beriman dan berbuat baik.\n6.\tKedua surah menegaskan ketidakbenaran agama syirik karena tidak ada landasan kebenarannya yaitu wahyu yang disampaikan nabi.\n7.\tKedua surah menyampaikan tanda-tanda kemahakuasaan Allah di dunia. Dalam Surah Saba\u2019, tanda-tanda itu adalah keagungan kerajaan Nabi Daud dan Nabi Sulaiman, serta kemakmuran negeri Saba\u2019 yang kemudian dihancurkan karena pembangkangan penduduknya. Dalam Surah F\u0101\u1e6dir, tanda-tanda itu adalah alam yang luar biasa besar dan dahsyatnya ini termasuk penciptaan manusia.\n8.\tKedua surah meminta agar Nabi Muhammad tidak goyah dalam menghadapi kekafiran manusia. Dalam Surah Saba\u2019, kekafiran itu dilatarbelakangi kesombongan dan kebanggaan terhadap nenek moyang. Dalam Surah F\u0101\u1e6dir, kekafiran itu karena rayuan setan.\n",
        "munasabah_prev_theme": "Pada ayat-ayat yang lalu, Allah menerangkan bahwa milik-Nyalah kerajaan bumi dan langit, sedangkan berhala-berhala yang disembah orang-orang musyrik tidak memiliki apa-apa, tidak dapat mendatangkan  manfaat, dan tidak dapat menolak mudarat. Pada ayat-ayat berikut ini, Allah menerangkan bahwa manusia itu membutuhkan Allah dan mempunyai keperluan kepada-Nya. Allah berkuasa atasnya, menghidupkan atau mematikan mereka. Hanya Dialah yang wajib disembah, karena manfaat dan mudarat itu ada di tangan-Nya, dan kepadanya semua makhluk akan kembali. ",
        "theme_group": "MANUSIA SANGAT MEMERLUKAN RAHMAT ALLAH",
        "kosakata": "1. Al-Fuqar\u0101\u2019 \u0627\u064e\u0644\u0652\u0641\u064f\u0642\u064e\u0631\u064e\u0627\u0621 (F\u0101\u1e6dir/35: 15)\nKata ini merupakan bentuk jamak dari faq\u012br, yang artinya yang membutuhkan. Orang miskin disebut sebagai faq\u012br, karena ia membutuhkan sesuatu untuk menutupi kebutuhan hidupnya. Kata faq\u012br terambil dari kata al-faq\u0101r yaitu tulang punggung. Orang fakir (faq\u012br) disebut demikian karena tulang punggungnya patah akibat membawa beban yang berat. \nDalam ayat ini, kata tersebut dirangkai dengan kata lain, sehingga membentuk frasa (gabungan kata) antum al-fuqar\u0101', yang artinya \u201ckamulah yang membutuhkan\u201d. Frasa ini mengandung makna pembatasan, yaitu kamu saja yang benar-benar perlu kepada Allah. Namun demikian, pembatasan ini tidak harus dipahami bahwa selain kamu tidak butuh. Hal yang sedemikian ini karena semua makhluk membutuhkan Allah dalam wujud dan kesinambungannya, sedang Allah tidak membutuhkan apa pun, karena wujud-Nya berasal dari Zat-Nya sendiri. Mereka yang dimaksud dalam ayat ini adalah semua makhluk tanpa kecuali, walaupun konteksnya tertuju kepada manusia yang kafir. \nSelain itu dapat pula dikatakan bahwa kebutuhan manusia kepada Allah demikian besar, jauh lebih besar daripada kebutuhan makhluk lain. Keperluan manusia kepada Allah sangat banyak karena mereka memang membutuhkannya, apalagi dengan potensinya sebagai makhluk yang diserahi amanah untuk mengelola alam dan isinya ini. Semakin banyak keinginan manusia, semakin banyak pula kebutuhannya, dan itu semua hanya Allah saja yang dapat memenuhinya. \n2. Khalqin Jad\u012bd  \u062e\u064e\u0644\u0652\u0642\u064d \u062c\u064e\u062f\u0650\u064a\u0652\u062f\u064d (F\u0101\u1e6dir/35: 16) \nKata khalq berarti penciptaan. Kata ini dan kata lain turunannya dalam Al-Qur\u2019an disebut 261 kali tersebar dalam 75 surah. Dilihat dari pemakaian-nya, kata khalq dalam Al-Qur\u2019an mempunyai pengertian sebagai berikut:\na.\tApabila objeknya selain dari alam semesta, kata khalq berarti penciptaan sesuatu dari bahan atau materi yang sudah ada, seperti manusia (Adam dan keturunannya) yang diciptakan Allah dari suatu materi yang sudah ada, misalnya disebutkan bahwa  manusia diciptakan dari sari pati tanah, atau dari tanah kering seperti tembikar. Demikian pula halnya iblis dan jin diciptakan Allah dari materi yang sudah ada, misalnya disebutkan bahwa iblis/jin diciptakan Allah dari api, atau dari nyala api. Juga hewan diciptakan Allah dari sesuatu yang sudah ada, yakni dari air.\nb.\tApabila objeknya alam semesta, maka Al-Qur\u2019an tidak menjelaskan secara rinci, apakah ia diciptakan dari bahan atau materi yang sudah ada atau dari ketiadaan.\nJadi kata khalq yang objeknya selain alam semesta titik tekannya adalah penciptaan jasad, seperti jasad manusia diciptakan dari tanah, iblis dan jin dari api, sedangkan kata khalq yang berobjek alam semesta tidak ditemukan petunjuk penekanannya secara tegas. Dengan demikian, kata khalq pada ayat 16 Surah F\u0101\u1e6dir berarti penciptaan jasad manusia dengan bahan atau materi yang sudah ada. Kata jad\u012bd berarti baru. Dari ungkapan di atas, dapat disimpulkan bahwa makna khalq jad\u012bd dalam ayat tersebut adalah penciptaan jasad manusia yang baru dari bahan atau materi yang sudah ada.",
        "sabab_nuzul": null,
        "conclusion": null
    }
}