{
    "id": 3710,
    "surah_id": 36,
    "ayah": 5,
    "page": 440,
    "quarter_hizb": 44.75,
    "juz": 22,
    "manzil": 5,
    "arabic": "\u062a\u064e\u0646\u0652\u0632\u0650\u064a\u0652\u0644\u064e \u0627\u0644\u0652\u0639\u064e\u0632\u0650\u064a\u0652\u0632\u0650 \u0627\u0644\u0631\u0651\u064e\u062d\u0650\u064a\u0652\u0645\u0650\u06d9 ",
    "latin": "Tanz\u012blal-\u2018az\u012bzir-ra\u1e25\u012bm(i).",
    "translation": "(sebagai wahyu) yang diturunkan oleh (Allah) Yang Maha Perkasa lagi Maha Penyayang,",
    "no_footnote": null,
    "footnotes": null,
    "surah": {
        "id": 36,
        "arabic": " \u064a\u0670\u0633\u06e4",
        "latin": "Y\u0101s\u012bn",
        "transliteration": "Yasin",
        "translation": "Yasin",
        "num_ayah": 83,
        "page": 440,
        "location": "Makkiyah"
    },
    "tafsir": {
        "wajiz": "Al-Qur\u2019an adalah wahyu yang diturunkan oleh Allah Yang Mahaperkasa, yakni mampu mengalahkan siapa pun dan melaksanakan apa pun yang Dia kehendaki; Maha Penyayang kepada semua hamba-Nya, utamanya kepada mereka yang beriman.",
        "tahlili": "Ayat ini dengan tegas menentukan kedudukan Al-Qur\u2019an, yakni kitab suci yang berasal dari Allah, bukan kitab suci hasil karangan manusia. Allah telah menyatakan kepada para hamba-Nya agar memahami hakikat kitab suci yang diturunkan-Nya, yaitu dari Zat Yang Maha Perkasa, yang bertindak seperti apa yang dikehendaki-Nya, tetapi Dia juga Maha Penyayang kepada hamba-Nya. Kasih sayang itu tertuang dalam Al-Qur\u2019an yang mengandung rahmat bagi seluruh manusia.\nArti yang serupa dengan ayat ini adalah:\n\u0648\u064e\u0627\u0650\u0646\u0651\u064e\u0647\u0657 \u0644\u064e\u062a\u064e\u0646\u0652\u0632\u0650\u064a\u0652\u0644\u064f \u0631\u064e\u0628\u0651\u0650 \u0627\u0644\u0652\u0639\u0670\u0644\u064e\u0645\u0650\u064a\u0652\u0646\u064e \u06d7 \u0661\u0669\u0662\nDan sungguh, (Al-Qur\u2019an) ini benar-benar diturunkan oleh Tuhan seluruh alam. (asy-Syu\u2018ar\u0101'/26: 192)\n",
        "intro_surah": "Surah Y\u0101s\u012bn terdiri dari 83 ayat, termasuk kelompok surah-surah Makkiyyah, diturunkan sesudah Surah al-Jinn. Dinamakan Y\u0101s\u012bn karena dimulai dengan huruf Y\u0101 S\u012bn. Sebagaimana halnya arti huruf-huruf abjad yang terletak pada permulaan beberapa surah Al-Qur\u2019an, demikian pula arti Y\u0101 S\u012bn yang terdapat pada ayat permulaan surah ini, yaitu Allah mengisyaratkan bahwa sesudah huruf tersebut akan dikemukakan hal-hal yang penting, antara lain Allah bersumpah dengan Al-Qur\u2019an bahwa Muhammad saw benar-benar seorang rasul yang diutus-Nya kepada kaum yang belum pernah diutus kepada mereka rasul-rasul.\n\nPokok-pokok Isinya:\n1.\tKeimanan:\nBukti-bukti adanya hari Kebangkitan; Al-Qur\u2019an bukanlah syair; ilmu-kekuasaan dan rahmat Allah; surga dan sifat-sifat yang disediakan bagi orang-orang mukmin; menyucikan Allah dari sifat-sifat yang tidak layak bagi-Nya; anggota badan manusia akan menjadi saksi pada hari Kiamat atas segala perbuatannya di dunia.\n2.\tKisah:\n\tKisah utusan-utusan Nabi Isa dengan penduduk Antakia (Syam).\n3.\tLain-lain:\nPeringatan tidak berfaedah bagi orang musyrik; Allah menciptakan segala sesuatu berpasang-pasangan; semua jenis bintang di cakrawala berjalan pada garis edar yang telah ditentukan Allah; ajal dan hari kiamat datangnya secara tiba-tiba; Allah menghibur hati Rasulullah saw terhadap sikap kaum musyrikin yang menyakitkan hatinya.",
        "outro_surah": null,
        "munasabah_prev_surah": "HUBUNGAN SURAH F\u0100\u1e6cIR\nDENGAN SURAH Y\u0100S\u012aN\n\n1.\tPada bagian akhir Surah F\u0101\u1e6dir dikemukakan bahwa orang-orang musyrik bersumpah akan beriman apabila datang kepada mereka seorang pemberi peringatan (rasul). Tetapi, setelah datang kepada mereka rasul, mereka mengingkarinya. Pada permulaan Surah Y\u0101s\u012bn, Allah menegas-kan bahwa Nabi Muhammad adalah seorang rasul yang selalu berada di jalan yang lurus untuk memberi peringatan kepada mereka, tetapi mereka tetap tidak beriman.\n2.\tPada Surah F\u0101\u1e6dir disebutkan bahwa Allah menundukkan matahari dan bulan, masing-masing beredar menurut waktu tertentu, sedang pada Surah Y\u0101s\u012bn disebutkan bahwa matahari beredar pada garis edar yang telah ditetapkan Allah, dan bulan mempunyai garis edar yang telah ditentukan pula.\n",
        "munasabah_prev_theme": "Pada ayat yang lalu (akhir Surah F\u0101\u1e6dir), Allah memerintahkan kaum musyrik untuk berjalan di bumi agar mengambil pelajaran bahwa orang yang mendustakan para rasul pasti dibinasakan Allah. Pada awal Surah Y\u0101s\u012bn, Allah bersumpah bahwa Muhammad adalah utusan-Nya yang tidak boleh didustakan supaya orang Quraisy tidak dibinasakan Allah.",
        "theme_group": "\nAL-QUR\u2019AN DAN KERASULAN NABI MUHAMMAD SAW",
        "kosakata": "Kosakata: Y\u0101 S\u012bn \u064a\u0670\u0633 (Y\u0101s\u012bn/36: 1)\nKata y\u0101 s\u012bn dalam istilah ilmu-ilmu Al-Qur\u2019an disebut al-a\u1e25ruf al-muqa\u1e6d\u1e6da\u2018ah yang berarti huruf-huruf yang dibaca secara terpeng-gal-penggal, bukan dalam kesatuan kata. Nama Surah Y\u0101s\u012bn diambil dari kata ini. Sebagian ulama tafsir ada yang menyerahkan pengertian huruf-huruf ini kepada Allah Ta\u2018ala, karena termasuk ayat-ayat mutasyabihat. Namun segolongan yang lain mencoba menakwilkannya. Menurut yang terakhir ini, huruf-huruf ini mengisyaratkan tantangan kepada bangsa Arab bahwa Al-Qur\u2019an itu tersusun dari huruf-huruf hijaiyah sama seperti ucapan mereka. Meskipun Al-Qur\u2019an dan perkataan mereka memiliki bahan dasar yang sama, namun mereka tidak bisa membuat sesuatu yang serupa mutunya dengan Al-Qur\u2019an. Khusus berkenaan dengan kata y\u0101 s\u012bn, sebagian ulama ada yang mengatakan bahwa kata ini adalah kata yang digunakan Allah untuk bersumpah. Pendapat ini diriwayatkan dari Ibnu \u2018Abb\u0101s, \u2018Ikrimah, dan Mujahid. Ulama lain mengatakan bahwa y\u0101 s\u012bn adalah salah satu nama Al-Qur\u2019an. Pendapat ini diriwayatkan dari Qat\u0101dah. \n",
        "sabab_nuzul": null,
        "conclusion": null
    }
}