{
    "id": 3735,
    "surah_id": 36,
    "ayah": 30,
    "page": 442,
    "quarter_hizb": 45,
    "juz": 23,
    "manzil": 5,
    "arabic": "\u064a\u0670\u062d\u064e\u0633\u0652\u0631\u064e\u0629\u064b \u0639\u064e\u0644\u064e\u0649 \u0627\u0644\u0652\u0639\u0650\u0628\u064e\u0627\u062f\u0650\u06da \u0645\u064e\u0627 \u064a\u064e\u0623\u0652\u062a\u0650\u064a\u0652\u0647\u0650\u0645\u0652 \u0645\u0651\u0650\u0646\u0652 \u0631\u0651\u064e\u0633\u064f\u0648\u0652\u0644\u064d \u0627\u0650\u0644\u0651\u064e\u0627 \u0643\u064e\u0627\u0646\u064f\u0648\u0652\u0627 \u0628\u0650\u0647\u0656 \u064a\u064e\u0633\u0652\u062a\u064e\u0647\u0652\u0632\u0650\u0621\u064f\u0648\u0652\u0646\u064e ",
    "latin": "Y\u0101 \u1e25asratan \u2018alal-\u2018ib\u0101d(i), m\u0101 ya't\u012bhim mir ras\u016blin ill\u0101 k\u0101n\u016b bih\u012b yastahzi'\u016bn(a).",
    "translation": "Alangkah besar penyesalan diri para hamba itu. Setiap datang seorang rasul kepada mereka, mereka selalu memperolok-olokkannya.",
    "no_footnote": null,
    "footnotes": null,
    "surah": {
        "id": 36,
        "arabic": " \u064a\u0670\u0633\u06e4",
        "latin": "Y\u0101s\u012bn",
        "transliteration": "Yasin",
        "translation": "Yasin",
        "num_ayah": 83,
        "page": 440,
        "location": "Makkiyah"
    },
    "tafsir": {
        "wajiz": "Orang-orang yang mendustakan para rasul akan menyesal pada hari Kiamat. Alangkah besar penyesalan terhadap hamba-hamba itu, setiap datang seorang rasul yang menyeru kepada mereka agar beriman kepada Allah dan menempuh jalan yang benar, mereka selalu memperolok-olokkan bahkan membunuh-nya.",
        "tahlili": "Allah menerangkan bahwa sikap dan tingkah laku kaum kafir semacam ini sangat disesalkan. Mereka tidak hanya menolak seruan iman, tetapi juga memperolok-olokkan para rasul dan orang-orang yang telah beriman. Bahkan, tak jarang mereka menganiaya dan membunuhnya. Jika mereka mau berpikir dengan akal yang sehat, pastilah mereka menerima seruan iman dari para rasul dan orang-orang yang telah beriman. Allah menerangkan kedudukan orang-orang kafir di akhirat nanti tatkala mereka ditimpa azab yang dahsyat karena mendustakan para rasul.",
        "intro_surah": "Surah Y\u0101s\u012bn terdiri dari 83 ayat, termasuk kelompok surah-surah Makkiyyah, diturunkan sesudah Surah al-Jinn. Dinamakan Y\u0101s\u012bn karena dimulai dengan huruf Y\u0101 S\u012bn. Sebagaimana halnya arti huruf-huruf abjad yang terletak pada permulaan beberapa surah Al-Qur\u2019an, demikian pula arti Y\u0101 S\u012bn yang terdapat pada ayat permulaan surah ini, yaitu Allah mengisyaratkan bahwa sesudah huruf tersebut akan dikemukakan hal-hal yang penting, antara lain Allah bersumpah dengan Al-Qur\u2019an bahwa Muhammad saw benar-benar seorang rasul yang diutus-Nya kepada kaum yang belum pernah diutus kepada mereka rasul-rasul.\n\nPokok-pokok Isinya:\n1.\tKeimanan:\nBukti-bukti adanya hari Kebangkitan; Al-Qur\u2019an bukanlah syair; ilmu-kekuasaan dan rahmat Allah; surga dan sifat-sifat yang disediakan bagi orang-orang mukmin; menyucikan Allah dari sifat-sifat yang tidak layak bagi-Nya; anggota badan manusia akan menjadi saksi pada hari Kiamat atas segala perbuatannya di dunia.\n2.\tKisah:\n\tKisah utusan-utusan Nabi Isa dengan penduduk Antakia (Syam).\n3.\tLain-lain:\nPeringatan tidak berfaedah bagi orang musyrik; Allah menciptakan segala sesuatu berpasang-pasangan; semua jenis bintang di cakrawala berjalan pada garis edar yang telah ditentukan Allah; ajal dan hari kiamat datangnya secara tiba-tiba; Allah menghibur hati Rasulullah saw terhadap sikap kaum musyrikin yang menyakitkan hatinya.",
        "outro_surah": null,
        "munasabah_prev_surah": "HUBUNGAN SURAH F\u0100\u1e6cIR\nDENGAN SURAH Y\u0100S\u012aN\n\n1.\tPada bagian akhir Surah F\u0101\u1e6dir dikemukakan bahwa orang-orang musyrik bersumpah akan beriman apabila datang kepada mereka seorang pemberi peringatan (rasul). Tetapi, setelah datang kepada mereka rasul, mereka mengingkarinya. Pada permulaan Surah Y\u0101s\u012bn, Allah menegas-kan bahwa Nabi Muhammad adalah seorang rasul yang selalu berada di jalan yang lurus untuk memberi peringatan kepada mereka, tetapi mereka tetap tidak beriman.\n2.\tPada Surah F\u0101\u1e6dir disebutkan bahwa Allah menundukkan matahari dan bulan, masing-masing beredar menurut waktu tertentu, sedang pada Surah Y\u0101s\u012bn disebutkan bahwa matahari beredar pada garis edar yang telah ditetapkan Allah, dan bulan mempunyai garis edar yang telah ditentukan pula.\n",
        "munasabah_prev_theme": "Pada ayat-ayat yang lalu diterangkan bahwa hamba Allah yang telah mendapat cahaya iman memaklumkan keimanannya kepada kaumnya yang belum beriman, dan mengajak mereka untuk beriman. Namun kaum itu tetap tidak mau beriman, bahkan membunuhnya. Perbuatan seperti ini memang menjadi sikap dan tingkah laku orang-orang kafir, baik kaum dari \u1e24ab\u012bb an-Najj\u0101r di atas, maupun kaum kafir lainnya. Pada ayat-ayat berikut diterangkan nasib mereka yang senantiasa menyesal di akhirat.",
        "theme_group": "TINGKAH LAKU KAUM KAFIR\nMENIMBULKAN PENYESALAN",
        "kosakata": "Kosakata: Mu\u1e25\u1e0dar\u016bn \u0645\u064f\u062d\u0652\u0636\u064e\u0631\u064f\u0648\u0652\u0646\u064e (Y\u0101s\u012bn/36: 32)\n\tKata tersebut merupakan bentuk isim maf\u2018\u016bl dari a\u1e25\u1e0dara-yu\u1e25\u1e0diru-i\u1e25\u1e0d\u0101ran-mu\u1e25\u1e0d\u0101ran, yang artinya dihadirkan. Tidak kurang dari sembilan kali, kata serupa itu diulang dalam Al-Qur\u2019an, semuanya disebutkan dalam hubungan pembicaraan bahwa manusia yang akan mengalami penyiksaan (azab) atau menerima balasan surga dihadirkan untuk menerima pembalasannya masing-masing. Tidak ada yang absen atau bolos demi menghindari balasan itu. Ada pihak lain (malaikat) yang bertugas menghadirkan mereka untuk menerima pembalasan, baik balasan buruk atau balasan baik. Menurut penjelasan Ibnu al-Jauz\u012b, semua umat manusia akan dihadirkan pada hari kiamat, kemudian amal-amal mereka dibalas dengan seadil-adilnya.\n",
        "sabab_nuzul": null,
        "conclusion": null
    }
}