{
    "id": 3752,
    "surah_id": 36,
    "ayah": 47,
    "page": 443,
    "quarter_hizb": 45,
    "juz": 23,
    "manzil": 5,
    "arabic": "\u0648\u064e\u0627\u0650\u0630\u064e\u0627 \u0642\u0650\u064a\u0652\u0644\u064e \u0644\u064e\u0647\u064f\u0645\u0652 \u0627\u064e\u0646\u0652\u0641\u0650\u0642\u064f\u0648\u0652\u0627 \u0645\u0650\u0645\u0651\u064e\u0627 \u0631\u064e\u0632\u064e\u0642\u064e\u0643\u064f\u0645\u064f \u0627\u0644\u0644\u0651\u0670\u0647\u064f \u06d9\u0642\u064e\u0627\u0644\u064e \u0627\u0644\u0651\u064e\u0630\u0650\u064a\u0652\u0646\u064e \u0643\u064e\u0641\u064e\u0631\u064f\u0648\u0652\u0627 \u0644\u0650\u0644\u0651\u064e\u0630\u0650\u064a\u0652\u0646\u064e \u0627\u0670\u0645\u064e\u0646\u064f\u0648\u0652\u0653\u0627 \u0627\u064e\u0646\u064f\u0637\u0652\u0639\u0650\u0645\u064f \u0645\u064e\u0646\u0652 \u0644\u0651\u064e\u0648\u0652 \u064a\u064e\u0634\u064e\u0627\u06e4\u0621\u064f \u0627\u0644\u0644\u0651\u0670\u0647\u064f \u0627\u064e\u0637\u0652\u0639\u064e\u0645\u064e\u0647\u0657\u0653  \u06d6\u0627\u0650\u0646\u0652 \u0627\u064e\u0646\u0652\u062a\u064f\u0645\u0652 \u0627\u0650\u0644\u0651\u064e\u0627 \u0641\u0650\u064a\u0652 \u0636\u064e\u0644\u0670\u0644\u064d \u0645\u0651\u064f\u0628\u0650\u064a\u0652\u0646\u064d",
    "latin": "Wa i\u017c\u0101 q\u012bla lahum anfiq\u016b mimm\u0101 razaqakumull\u0101h(u), q\u0101lal-la\u017c\u012bna kafar\u016b lil-la\u017c\u012bna \u0101man\u016b anu\u1e6d\u2018imu mal lau yasy\u0101'ull\u0101hu a\u1e6d\u2018amah(\u016b), in antum ill\u0101 f\u012b \u1e0dal\u0101lim mub\u012bn(in).",
    "translation": "Apabila dikatakan kepada mereka, \u201cInfakkanlah sebagian rezeki yang diberikan Allah kepadamu,\u201d orang-orang yang kufur itu berkata kepada orang-orang yang beriman, \u201cApakah pantas kami memberi makan kepada orang-orang yang jika Allah menghendaki, Dia akan memberinya makan? Kamu benar-benar dalam kesesatan yang nyata.\u201d",
    "no_footnote": null,
    "footnotes": null,
    "surah": {
        "id": 36,
        "arabic": " \u064a\u0670\u0633\u06e4",
        "latin": "Y\u0101s\u012bn",
        "transliteration": "Yasin",
        "translation": "Yasin",
        "num_ayah": 83,
        "page": 440,
        "location": "Makkiyah"
    },
    "tafsir": {
        "wajiz": "Dan salah satu bukti keingkaran mereka adalah bahwa apabila dikatakan kepada mereka, \u201cInfakkanlah sebagian rezeki yang diberikan Allah kepadamu kepada orang yang membutuhkan,\u201d orang-orang yang kafir itu berkata kepada orang-orang yang beriman dengan nada mengejek, \u201cApakah pantas kami memberi makan kepada orang-orang yang jika Allah menghendaki, Dia akan memberinya makan? Sungguh, kamu benar-benar dalam kesesatan yang nyata.\u201d Demikianlah sifat orang kafir. Mereka tidak mau berinfak, bersedekah, dan berzakat padahal semua itu akan kembali manfaatnya kepada diri mereka.",
        "tahlili": "Allah menyebutkan sisi lain dari keingkaran mereka, yaitu keengganan mereka menyumbangkan sebagian harta yang telah dikaruniakan-Nya kepada mereka. Apabila kepada mereka dianjurkan menafkahkan harta bagi kepentingan fakir miskin dan orang yang memerlukan bantuan, mereka menjawab kepada orang-orang beriman yang menganjurkan itu, \u201cApa perlunya kami memberi mereka itu makan, karena Allah dapat memberi makan bila Allah menghendaki.\u201d Di samping itu, mereka mengatakan bahwa orang-orang mukmin yang suka menyumbangkan harta benda untuk membantu fakir miskin itu adalah orang-orang yang sesat dan bodoh.\nAlangkah jauh pendapat mereka itu dari kebenaran. Menyumbangkan sebagian harta benda dan menolong orang lain berupa sumbangan wajib, seperti zakat, maupun sumbangan suka rela, seperti sedekah, merupakan perwujudan dari rasa iman dan syukur atas nikmat Allah, dan sekaligus menghilangkan sifat bakhil dari jiwa manusia. Harta benda, menurut ajaran Islam mempunyai fungsi sosial, bukan hanya untuk kepentingan diri sendiri.\nHarta benda haruslah dijadikan alat untuk mempererat tali persaudaraan, solidaritas, dan kegotongroyongan. Manusia tidak akan dapat hidup sendiri, tanpa mengharapkan pertolongan orang lain dalam berbagai keperluan hidup, walau pun ia seorang yang kaya raya.",
        "intro_surah": "Surah Y\u0101s\u012bn terdiri dari 83 ayat, termasuk kelompok surah-surah Makkiyyah, diturunkan sesudah Surah al-Jinn. Dinamakan Y\u0101s\u012bn karena dimulai dengan huruf Y\u0101 S\u012bn. Sebagaimana halnya arti huruf-huruf abjad yang terletak pada permulaan beberapa surah Al-Qur\u2019an, demikian pula arti Y\u0101 S\u012bn yang terdapat pada ayat permulaan surah ini, yaitu Allah mengisyaratkan bahwa sesudah huruf tersebut akan dikemukakan hal-hal yang penting, antara lain Allah bersumpah dengan Al-Qur\u2019an bahwa Muhammad saw benar-benar seorang rasul yang diutus-Nya kepada kaum yang belum pernah diutus kepada mereka rasul-rasul.\n\nPokok-pokok Isinya:\n1.\tKeimanan:\nBukti-bukti adanya hari Kebangkitan; Al-Qur\u2019an bukanlah syair; ilmu-kekuasaan dan rahmat Allah; surga dan sifat-sifat yang disediakan bagi orang-orang mukmin; menyucikan Allah dari sifat-sifat yang tidak layak bagi-Nya; anggota badan manusia akan menjadi saksi pada hari Kiamat atas segala perbuatannya di dunia.\n2.\tKisah:\n\tKisah utusan-utusan Nabi Isa dengan penduduk Antakia (Syam).\n3.\tLain-lain:\nPeringatan tidak berfaedah bagi orang musyrik; Allah menciptakan segala sesuatu berpasang-pasangan; semua jenis bintang di cakrawala berjalan pada garis edar yang telah ditentukan Allah; ajal dan hari kiamat datangnya secara tiba-tiba; Allah menghibur hati Rasulullah saw terhadap sikap kaum musyrikin yang menyakitkan hatinya.",
        "outro_surah": null,
        "munasabah_prev_surah": "HUBUNGAN SURAH F\u0100\u1e6cIR\nDENGAN SURAH Y\u0100S\u012aN\n\n1.\tPada bagian akhir Surah F\u0101\u1e6dir dikemukakan bahwa orang-orang musyrik bersumpah akan beriman apabila datang kepada mereka seorang pemberi peringatan (rasul). Tetapi, setelah datang kepada mereka rasul, mereka mengingkarinya. Pada permulaan Surah Y\u0101s\u012bn, Allah menegas-kan bahwa Nabi Muhammad adalah seorang rasul yang selalu berada di jalan yang lurus untuk memberi peringatan kepada mereka, tetapi mereka tetap tidak beriman.\n2.\tPada Surah F\u0101\u1e6dir disebutkan bahwa Allah menundukkan matahari dan bulan, masing-masing beredar menurut waktu tertentu, sedang pada Surah Y\u0101s\u012bn disebutkan bahwa matahari beredar pada garis edar yang telah ditetapkan Allah, dan bulan mempunyai garis edar yang telah ditentukan pula.\n",
        "munasabah_prev_theme": "Pada ayat-ayat yang lalu, Allah telah menunjukkan bukti-bukti kekuasaan-Nya yang Mahabesar, memberi manusia kemampuan membuat saran transportasi baik di darat maupun laut. Semuanya itu dikaruniakan Allah kepada manusia karena kasih sayang dan rahmat-Nya yang amat besar kepada mereka, agar mereka dapat bersenang-senang menikmati karunia itu. \nPada ayat-ayat berikut ini, Allah menjelaskan sikap orang-orang yang ingkar, yang tidak mau memperhatikan tanda-tanda kekuasaan-Nya yang terdapat di alam ini, dan tidak mau bersyukur atas nikmat dan karunia yang telah mereka peroleh.",
        "theme_group": "SIKAP ORANG-ORANG YANG INGKAR",
        "kosakata": "Kosakata: Mu\u2018ri\u1e0d\u012bn \u0645\u064f\u0639\u0652\u0631\u0650\u0636\u0650\u064a\u0652\u0646\u064e (Y\u0101s\u012bn/36: 46)\nLafal mu\u2018ri\u1e0d\u012bn berasal dari fi\u2018il: a\u2018ra\u1e0da, yu\u2018ri\u1e0du, i\u2018r\u0101\u1e0d(an) artinya berpaling, menghindar. Bentuk dalam isim f\u0101\u2018il (orang yang mengerjakan atau melakukan pekerjaan tersebut) yaitu mu\u2018ri\u1e0d, kemudian dalam bentuk jamak menjadi mu\u2018ri\u1e0d\u016bn dalam keadaan marfu\u2018, dan mu\u2018ri\u1e0d\u012bn dalam keadaan mans\u016bb atau majr\u016br. Ungkapan dalam ayat 46 ini ialah: k\u0101n\u016b \u2018anh\u0101 mu\u2018ri\u1e0d\u012bn artinya: mereka berpaling darinya. Maksudnya meskipun berbagai peringatan diberikan kepada mereka (orang-orang yang tidak percaya pada Allah dan Hari Akhir) dan ditunjukkan kepada mereka tanda-tanda kekuasaan Allah, mereka selalu saja menolak, berpaling, dan menghindar. Hati mereka memang sudah terkunci rapat, sudah tertutup dari kebenaran yang disampaikan Allah kepada mereka, sebagaimana firman Allah dalam Surah al-Baqarah/2: 6 yang artinya: Sesungguhnya orang-orang kafir, sama saja bagi mereka, engkau (Muhammad) beri peringatan atau tidak engkau beri peringatan, mereka tidak akan beriman.",
        "sabab_nuzul": null,
        "conclusion": "1. \tOrang-orang yang ingkar tidak mau menerima nasihat kebenaran, dan senantiasa memalingkan muka dan hati mereka dari setiap tanda-tanda kebesaran dan kekuasaan Allah.\n2. \tHati mereka kasar dan bakhil, tidak mempedulikan nasib orang lain yang memerlukan pertolongan, dan menganggap kebaikan itu sebagai perbuatan bodoh dan sesat.\n3. \tHarta tidak hanya berfungsi untuk kesejahteraan diri dan keluarga, tetapi juga memiliki fungsi sosial guna menolong sesama manusia.\n"
    }
}