{
    "id": 3724,
    "surah_id": 36,
    "ayah": 19,
    "page": 441,
    "quarter_hizb": 44.75,
    "juz": 22,
    "manzil": 5,
    "arabic": "\u0642\u064e\u0627\u0644\u064f\u0648\u0652\u0627 \u0637\u064e\u0627\u06e4\u0649\u0655\u0650\u0631\u064f\u0643\u064f\u0645\u0652 \u0645\u0651\u064e\u0639\u064e\u0643\u064f\u0645\u0652\u06d7 \u0627\u064e\u0649\u0655\u0650\u0646\u0652 \u0630\u064f\u0643\u0651\u0650\u0631\u0652\u062a\u064f\u0645\u0652\u06d7 \u0628\u064e\u0644\u0652 \u0627\u064e\u0646\u0652\u062a\u064f\u0645\u0652 \u0642\u064e\u0648\u0652\u0645\u064c \u0645\u0651\u064f\u0633\u0652\u0631\u0650\u0641\u064f\u0648\u0652\u0646\u064e ",
    "latin": "Q\u0101l\u016b \u1e6d\u0101'irukum ma\u2018akum, a'in \u017cukkirtum, bal antum qaumum musrif\u016bn(a).",
    "translation": "Mereka (para rasul) berkata, \u201cKemalangan kamu itu (akibat perbuatan) kamu sendiri. Apakah karena kamu diberi peringatan, (lalu kamu menjadi malang)? Sebenarnya kamu adalah kaum yang melampaui batas.\u201d",
    "no_footnote": null,
    "footnotes": null,
    "surah": {
        "id": 36,
        "arabic": " \u064a\u0670\u0633\u06e4",
        "latin": "Y\u0101s\u012bn",
        "transliteration": "Yasin",
        "translation": "Yasin",
        "num_ayah": 83,
        "page": 440,
        "location": "Makkiyah"
    },
    "tafsir": {
        "wajiz": "Mereka, yakni ketiga utusan itu, berkata, \u201cKemalangan kamu itu adalah karena perbuatan buruk kamu sendiri. Kamu bernasib buruk akibat keengganan kamu menerima ajakan kami. Apakah karena kamu diberi peringatan, lalu kamu menuduh kami sebagai penyebab kemalangan itu? Tuduhan kamu sama sekali tidak benar! Sebenarnya kamu adalah kaum yang melampaui batas dalam kedurhakaan sehingga mengakibatkan penderitaan yang kamu sebut sebagai nasib sial.\u201d",
        "tahlili": "Pada ayat ini dijelaskan bahwa penduduk Antakia tidak bisa lagi mematahkan alasan-alasan para rasul itu. Oleh karena itu, mereka mengancam dengan mengatakan bahwa kalau kesengsaraan menimpa mereka kelak, maka hal ini disebabkan perbuatan ketiga orang tersebut. Dengan demikian, kalau para rasul itu tidak mau menghentikan dakwah yang sia-sia ini, terpaksa mereka merajamnya dengan batu atau menjatuhkan siksaan yang amat pedih. Ketiga utusan itu menangkis perkataan mereka dengan mengatakan bahwa seandainya penduduk Antakia kelak terpaksa mengalami siksaan, itu adalah akibat perbuatan mereka sendiri. Bukankah mereka yang mempersekutukan Allah, mengerjakan perbuatan maksiat, dan melakukan kesalahan-kesalahan? Sedangkan ketiga utusan itu hanya sekadar mengajak mereka untuk mentauhidkan Allah, mengikhlaskan diri dalam beribadah, dan tobat dari segala kesalahan. Apakah karena para rasul itu memperingatkan mereka dengan azab Allah yang sangat pedih dan mengajak mereka mengesakan Allah, lalu mereka menyiksa para rasul itu? Itukah balasan yang pantas bagi para rasul itu? Hal itu menunjukkan bahwa mereka adalah bangsa yang melampaui batas dengan cara berpikir dan menetapkan putusan untuk menyiksa dan merajam para rasul. Mereka menganggap buruk orang-orang yang semestinya menjadi tempat mereka meminta petunjuk. Ayat yang mirip pengertiannya dengan ayat ini adalah:\n\u0641\u064e\u0627\u0650\u0630\u064e\u0627 \u062c\u064e\u0627\u06e4\u0621\u064e\u062a\u0652\u0647\u064f\u0645\u064f \u0627\u0644\u0652\u062d\u064e\u0633\u064e\u0646\u064e\u0629\u064f \u0642\u064e\u0627\u0644\u064f\u0648\u0652\u0627 \u0644\u064e\u0646\u064e\u0627 \u0647\u0670\u0630\u0650\u0647\u0656 \u06da\u0648\u064e\u0627\u0650\u0646\u0652 \u062a\u064f\u0635\u0650\u0628\u0652\u0647\u064f\u0645\u0652 \u0633\u064e\u064a\u0651\u0650\u0626\u064e\u0629\u064c \u064a\u0651\u064e\u0637\u0651\u064e\u064a\u0651\u064e\u0631\u064f\u0648\u0652\u0627 \u0628\u0650\u0645\u064f\u0648\u0652\u0633\u0670\u0649 \u0648\u064e\u0645\u064e\u0646\u0652 \u0645\u0651\u064e\u0639\u064e\u0647\u0657\u06d7 \u0627\u064e\u0644\u064e\u0627\u0653 \u0627\u0650\u0646\u0651\u064e\u0645\u064e\u0627 \u0637\u0670\u06e4\u0649\u0655\u0650\u0631\u064f\u0647\u064f\u0645\u0652 \u0639\u0650\u0646\u0652\u062f\u064e \u0627\u0644\u0644\u0651\u0670\u0647\u0650 \u0648\u064e\u0644\u0670\u0643\u0650\u0646\u0651\u064e \u0627\u064e\u0643\u0652\u062b\u064e\u0631\u064e\u0647\u064f\u0645\u0652 \u0644\u064e\u0627 \u064a\u064e\u0639\u0652\u0644\u064e\u0645\u064f\u0648\u0652\u0646\u064e \u0661\u0663\u0661\nKemudian apabila kebaikan (kemakmuran) datang kepada mereka, mereka berkata, \u201cIni adalah karena (usaha) kami.\u201d Dan jika mereka ditimpa kesusahan, mereka lemparkan sebab kesialan itu kepada Musa dan pengikutnya. Ketahuilah, sesungguhnya nasib mereka di tangan Allah, namun kebanyakan mereka tidak mengetahui. (al-A\u2018r\u0101f/7: 131)",
        "intro_surah": "Surah Y\u0101s\u012bn terdiri dari 83 ayat, termasuk kelompok surah-surah Makkiyyah, diturunkan sesudah Surah al-Jinn. Dinamakan Y\u0101s\u012bn karena dimulai dengan huruf Y\u0101 S\u012bn. Sebagaimana halnya arti huruf-huruf abjad yang terletak pada permulaan beberapa surah Al-Qur\u2019an, demikian pula arti Y\u0101 S\u012bn yang terdapat pada ayat permulaan surah ini, yaitu Allah mengisyaratkan bahwa sesudah huruf tersebut akan dikemukakan hal-hal yang penting, antara lain Allah bersumpah dengan Al-Qur\u2019an bahwa Muhammad saw benar-benar seorang rasul yang diutus-Nya kepada kaum yang belum pernah diutus kepada mereka rasul-rasul.\n\nPokok-pokok Isinya:\n1.\tKeimanan:\nBukti-bukti adanya hari Kebangkitan; Al-Qur\u2019an bukanlah syair; ilmu-kekuasaan dan rahmat Allah; surga dan sifat-sifat yang disediakan bagi orang-orang mukmin; menyucikan Allah dari sifat-sifat yang tidak layak bagi-Nya; anggota badan manusia akan menjadi saksi pada hari Kiamat atas segala perbuatannya di dunia.\n2.\tKisah:\n\tKisah utusan-utusan Nabi Isa dengan penduduk Antakia (Syam).\n3.\tLain-lain:\nPeringatan tidak berfaedah bagi orang musyrik; Allah menciptakan segala sesuatu berpasang-pasangan; semua jenis bintang di cakrawala berjalan pada garis edar yang telah ditentukan Allah; ajal dan hari kiamat datangnya secara tiba-tiba; Allah menghibur hati Rasulullah saw terhadap sikap kaum musyrikin yang menyakitkan hatinya.",
        "outro_surah": null,
        "munasabah_prev_surah": "HUBUNGAN SURAH F\u0100\u1e6cIR\nDENGAN SURAH Y\u0100S\u012aN\n\n1.\tPada bagian akhir Surah F\u0101\u1e6dir dikemukakan bahwa orang-orang musyrik bersumpah akan beriman apabila datang kepada mereka seorang pemberi peringatan (rasul). Tetapi, setelah datang kepada mereka rasul, mereka mengingkarinya. Pada permulaan Surah Y\u0101s\u012bn, Allah menegas-kan bahwa Nabi Muhammad adalah seorang rasul yang selalu berada di jalan yang lurus untuk memberi peringatan kepada mereka, tetapi mereka tetap tidak beriman.\n2.\tPada Surah F\u0101\u1e6dir disebutkan bahwa Allah menundukkan matahari dan bulan, masing-masing beredar menurut waktu tertentu, sedang pada Surah Y\u0101s\u012bn disebutkan bahwa matahari beredar pada garis edar yang telah ditetapkan Allah, dan bulan mempunyai garis edar yang telah ditentukan pula.\n",
        "munasabah_prev_theme": "Pada ayat-ayat yang lalu, Allah telah menyebutkan sikap orang-orang musyrik yang telah dikunci mati hati mereka sehingga sulit sekali mendengar seruan untuk beriman. Pada ayat-ayat berikut ini dikisahkan sikap orang-orang musyrik sebelum mereka yang hampir sama dengan orang musyrik Mekah, terutama dalam kesombongan dan sikap mereka yang selalu mendustakan rasul, dan tidak mau mendengar sama sekali nasihat dan pengajarannya. Mereka itulah a\u1e63\u1e25\u0101bul qaryah (penduduk negeri) yang menurut pendapat ahli-ahli tafsir tidak lain adalah suku bangsa Antakia yang tinggal di negeri Syam.",
        "theme_group": "KISAH A\u1e62\u1e24\u0100BUL QARYAH",
        "kosakata": "Kosakata: A\u1e63\u1e25\u0101bul Qaryah \u0627\u064e\u0635\u0652\u062d\u064e\u0627\u0628\u064e \u0627\u0652\u0644\u0642\u064e\u0631\u0652\u064a\u064e\u0629  (Y\u0101 s\u012bn/36: 13)\nSebutan  \u201cpenduduk kota\u201d dalam ayat di atas mendapat perhatian banyak mufassir, dari dahulu hingga sekarang. Mereka sangat beragam dalam menafsirkan kata \u201cpenduduk kota\u201d dalam ayat itu: penduduk, kota, dan para rasul. Dalam hal ini tampaknya mereka masih banyak berspekulasi dengan keterangan yang panjang lebar. Tetapi jika disimpulkan, sebenarnya kisah itu sebagai sebuah perumpamaan, seperti disebutkan dalam pangkal pertama ayat itu, sehingga tidak perlu ditafsirkan dan dibahas begitu panjang lebar bahwa nama kota itu Antakia (Antioch/An\u1e6d\u0101kiyah) dengan segala peristiwanya yang sampai dirinci demikian rupa. Antakia berasal dari kata bahasa Turki, Antakya\u2014sebuah kota padat penduduk di Suria dahulu kala, dan sekarang merupakan kota utama  di selatan Turki, terletak di dekat mulut Sungai Orontes, sekitar 19 km barat laut perbatasan Suria. \nMengenai peristiwa dan nama kota itu, mungkin asumsi beberapa mufassir pada cerita-cerita dalam  Alkitab, Perjanjian Baru, Kisah Para Rasul 11: 26-27 yang menyebutkan bahwa di Antiokhia ini murid-murid Yesus berhasil menyebarkan agama di sana, dan di kota ini pula, murid-murid itu untuk pertama kalinya disebut Kristen.\nBanyak mufassir bercerita begitu terinci, yang intinya bahwa yang mendatangi kota itu para utusan Nabi Isa. Setelah berada di dekat kota Antakia, mereka melihat orang tua yang sedang menggembalakan kambingnya. Lalu terjadi dialog panjang di antara mereka.  Ketika orang tua itu menanyakan siapa mereka, dijawab bahwa mereka utusan Isa Almasih, akan mengajak mereka beribadah kepada Allah dan meninggalkan penyembahan berhala. Ketika dimintai bukti, mereka menjawab bahwa mereka dapat menyembuhkan orang sakit dan buta sejak lahir serta penyakit sopak. Orang  tua itu meminta mereka mengobati anaknya yang menderita penyakit menahun, kemudian kedua utusan itu mengusap anaknya yang sakit lalu sembuh. Maka tersebarlah berita itu di seluruh kota dan banyak orang sakit yang disembuhkan. Berita itu sampai juga kepada raja, yang juga penyembah berhala. Kedua orang itu pun dipenjarakan, dihukum cambuk 200 kali, dan seterusnya. Kemudian Nabi Isa mengutus orang ketiga, Syam\u2018\u016bn (Bibel, Simson), pemimpin murid-murid Yesus (\u1e25aw\u0101riyy\u016bn) untuk menolong mereka. \nCerita-cerita demikian itu ada yang mereka terima melalui Ka\u2018bul-Ahbar yang juga sering merawikan hadis, atau dari Wahab bin Munabbih, yang banyak bercerita tentang sejarah lama. Keduanya adalah tabi\u2018in asal Yahudi Yaman, dan dianggap banyak tahu tentang Taurat.\nSeterusnya cerita-cerita Yahudi dan Nasrani itu berjalan mulus panjang lebar. Padahal di dalam ayat itu tak disebutkan nama orang, tempat, atau waktu. Patut sekali bila cerita-cerita semacam ini digolongkan ke dalam Israiliyat. Lalu sebagian mufassir mengomentari bahwa ayat-ayat itu ditujukan kepada Rasulullah untuk menghiburnya, \u201cIni contoh kesabaran para rasul itu menghadapi siksaan, sedang engkau (Muhammad) datang kepada kaummu seorang diri, dan kaummu lebih banyak daripada kaum ketiga orang itu. Mereka mendatangi penduduk kota, sedang engkau diutus kepada seluruh umat manusia.\u201d Ada juga mufassir yang mengatakan bahwa dua orang utusan itu (ayat 14) adalah Nabi Musa dan Nabi Isa dan utusan ketiga, yang untuk memperkuat, adalah Nabi Muhammad. \nSehubungan dengan hal ini, Ibnu Ka\u1e61\u012br mengatakan secara ringkas bahwa banyak ulama dahulu yang berpendapat kota ini adalah Antakia, dan ketiga orang itu adalah para utusan Isa Almasih, seperti diterangkan oleh Qat\u0101dah dan yang lain. Dilihat dari kenyataan, kisah itu menunjukkan bahwa mereka adalah para utusan Allah, bukan utusan Almasih. Disebutkan dalam firman Allah itu, \u201cKetika Kami mengutus kepada mereka dua orang utusan.\u201d  Kalau mereka murid-muridnya, tentu dikatakan dengan ungkapan yang sesuai bahwa mereka dari pihak Almasih. Penduduk kota Antakia yang pertama beriman kepada Almasih sampai penduduknya yang terakhir, melalui para utusan itu. Karenanya, di mata orang Kristen, ia termasuk di antara empat kota para uskup, yakni: 1. Baitul mukadas (Yerusalem) sebab ini negeri Almasih; 2. Antakia, karena mereka adalah yang pertama beriman kepadanya sampai penduduknya yang terakhir; 3. Iskandaria, karena di situ mereka sepakat menetapkan adanya para bapa, para uskup agung, para uskup, para diaken, dan para rahib. 4. Roma, karena itu adalah kota Kaisar Konstantin yang membela dan memperkuat agama mereka. Setelah Konstantinopel dibangun, mereka memindahkan pusat agama itu dari Roma ke kota ini. Yang berhubungan dengan sejarah mereka ini tidak sedikit dari mereka yang mengatakan\u2014seperti Sa\u2018d bin Batriq dan yang lain dari kalangan Ahli Kitab dan juga dari Muslimin. Atas dasar ini dapat dilihat bahwa penduduk kota yang tersebut dalam Al-Qur\u2019an adalah kota lain, bukan Antakia, yang juga dikatakan oleh banyak ulama dahulu. Demikian Ibnu Ka\u1e61\u012br menjelaskan ayat ini.\nSebagian mufassir memang ada yang merasa tidak puas bila sebuah ayat, bahkan sebuah  kosakata ditafsirkan secara sederhana. Tetapi biasanya lalu merentangnya kian ke mari, dengan mengutip kata si fulan, kata si anu, q\u0101la wa q\u012bla,  dari anu, \u2018an ful\u0101n, yang kadang sampai memerlukan beberapa halaman. Lalu diakhiri dengan: Wall\u0101hu a\u20181am,  bukan dengan kesimpulan! \nApalagi jika menyangkut cerita yang lebih mengasyikkan, seperti kisah Nabi Yusuf, Nabi Sulaiman, kisah Penghuni Gua, atau kisah-kisah lain dalam Qur\u2019an. \nDalam menafsirkan ayat-ayat di atas, al-Qasimi hanya mengatakan bahwa \u201cpenduduk kota\u201d itu sebagai perumpamaan bagi kota Mekah, dan agar diingatkan pada kisah yang mengajak orang kepada kebenaran dan meninggalkan penyembahan berhala. Seperti Abdullah Yusuf Ali, al-Qasimi juga menolak penafsiran cerita-cerita di atas dengan mengutip Ibnu Ka\u1e61\u012br seperti disebutkan itu, sebagai koreksi atas sebagian mufassir yang ber-panjang lebar mengomentari ayat-ayat seperti itu sampai menyimpang dari pokok masalah. Banyak di antara mereka, kata al-Qasimi, yang beranggapan bahwa menguraikan ungkapan-ungkapan  yang singkat dalam Al-Qur\u2019an itu dengan penjelasan-penjelasan yang panjang-panjang, sudah dijadikan seni ilmu tersendiri pula. Dalam catatan khusus, ia menambahkan bahwa keindahan Al-Qur\u2019an serta gaya dan kefasihannya yang tak dapat ditiru itu justru terletak pada ungkapan-ungkapannya yang serba singkat dan mendalam dengan semangat kisah-kisahnya berupa pelajaran dan peringatan. Seharusnya ini disambut pula dengan penjelasan yang terbatas pada hal-hal yang memberi manfaat serta menjauhi kecenderungan tukang-tukang cerita dan para sejarawan. Apa gunanya membawa-bawa beberapa nama yang tidak jelas. Kebanyakan cerita itu munqati\u2018  dan  mauquf, tak dapat dijadikan pegangan karena memang tidak mempunyai dasar yang otentik.",
        "sabab_nuzul": null,
        "conclusion": null
    }
}