{
    "id": 3758,
    "surah_id": 36,
    "ayah": 53,
    "page": 443,
    "quarter_hizb": 45,
    "juz": 23,
    "manzil": 5,
    "arabic": "\u0627\u0650\u0646\u0652 \u0643\u064e\u0627\u0646\u064e\u062a\u0652 \u0627\u0650\u0644\u0651\u064e\u0627 \u0635\u064e\u064a\u0652\u062d\u064e\u0629\u064b \u0648\u0651\u064e\u0627\u062d\u0650\u062f\u064e\u0629\u064b \u0641\u064e\u0627\u0650\u0630\u064e\u0627 \u0647\u064f\u0645\u0652 \u062c\u064e\u0645\u0650\u064a\u0652\u0639\u064c \u0644\u0651\u064e\u062f\u064e\u064a\u0652\u0646\u064e\u0627 \u0645\u064f\u062d\u0652\u0636\u064e\u0631\u064f\u0648\u0652\u0646\u064e",
    "latin": "In k\u0101nat ill\u0101 \u1e63ai\u1e25ataw w\u0101\u1e25idatan fa'i\u017c\u0101 hum jam\u012b\u2018ul ladain\u0101 mu\u1e25\u1e0dar\u016bn(a).",
    "translation": "Teriakan itu hanya sekali saja, maka seketika itu mereka semua dihadapkan kepada Kami (untuk dihisab).",
    "no_footnote": null,
    "footnotes": null,
    "surah": {
        "id": 36,
        "arabic": " \u064a\u0670\u0633\u06e4",
        "latin": "Y\u0101s\u012bn",
        "transliteration": "Yasin",
        "translation": "Yasin",
        "num_ayah": 83,
        "page": 440,
        "location": "Makkiyah"
    },
    "tafsir": {
        "wajiz": "Teriakan sebagai pertanda kebangkitan itu hanya sekali saja, maka seketika itu mereka semua dihadapkan kepada Kami untuk dihisab. Ayat ini menerangkan betapa mudah bagi Allah untuk membangkitkan seluruh umat manusia (Lihat Surah an-Nahl/16: 77)",
        "tahlili": "Ayat ini menerangkan bagaimana mudahnya bagi Allah untuk membangkitkan seluruh manusia yang pernah ada dahulu sebelum datangnya hari Kiamat. Cukup dengan satu teriakan saja, maka hiduplah kembali seluruh manusia, dan berkumpul di hadapan Allah untuk menerima perhitungan dan keputusan yang adil dari-Nya.\nAyat yang lain yang maksudnya sama dengan ayat ini ialah firman-Nya:\n\u0648\u064e\u0645\u064e\u0627\u0653 \u0627\u064e\u0645\u0652\u0631\u064f \u0627\u0644\u0633\u0651\u064e\u0627\u0639\u064e\u0629\u0650 \u0627\u0650\u0644\u0651\u064e\u0627 \u0643\u064e\u0644\u064e\u0645\u0652\u062d\u0650 \u0627\u0644\u0652\u0628\u064e\u0635\u064e\u0631\u0650 \u0627\u064e\u0648\u0652 \u0647\u064f\u0648\u064e \u0627\u064e\u0642\u0652\u0631\u064e\u0628\u064f\u06d7 \u0627\u0650\u0646\u0651\u064e \u0627\u0644\u0644\u0651\u0670\u0647\u064e \u0639\u064e\u0644\u0670\u0649 \u0643\u064f\u0644\u0651\u0650 \u0634\u064e\u064a\u0652\u0621\u064d \u0642\u064e\u062f\u0650\u064a\u0652\u0631\u064c \nUrusan kejadian Kiamat itu, hanya seperti sekejap mata atau lebih cepat (lagi). Sesungguhnya Allah Mahakuasa atas segala sesuatu. (an-Na\u1e25l/16: 77)\n\nDan firman-Nya:\n\u0641\u064e\u0627\u0650\u0646\u0651\u064e\u0645\u064e\u0627 \u0647\u0650\u064a\u064e \u0632\u064e\u062c\u0652\u0631\u064e\u0629\u064c \u0648\u0651\u064e\u0627\u062d\u0650\u062f\u064e\u0629\u064c\u06d9 \u0661\u0663 \u0641\u064e\u0627\u0650\u0630\u064e\u0627 \u0647\u064f\u0645\u0652 \u0628\u0650\u0627\u0644\u0633\u0651\u064e\u0627\u0647\u0650\u0631\u064e\u0629\u0650\u06d7 \u0661\u0664\nMaka pengembalian itu hanyalah dengan sekali tiupan saja. Maka seketika itu mereka hidup kembali di bumi (yang baru). (an-N\u0101zi\u2018\u0101t/79: 13-14)\n",
        "intro_surah": "Surah Y\u0101s\u012bn terdiri dari 83 ayat, termasuk kelompok surah-surah Makkiyyah, diturunkan sesudah Surah al-Jinn. Dinamakan Y\u0101s\u012bn karena dimulai dengan huruf Y\u0101 S\u012bn. Sebagaimana halnya arti huruf-huruf abjad yang terletak pada permulaan beberapa surah Al-Qur\u2019an, demikian pula arti Y\u0101 S\u012bn yang terdapat pada ayat permulaan surah ini, yaitu Allah mengisyaratkan bahwa sesudah huruf tersebut akan dikemukakan hal-hal yang penting, antara lain Allah bersumpah dengan Al-Qur\u2019an bahwa Muhammad saw benar-benar seorang rasul yang diutus-Nya kepada kaum yang belum pernah diutus kepada mereka rasul-rasul.\n\nPokok-pokok Isinya:\n1.\tKeimanan:\nBukti-bukti adanya hari Kebangkitan; Al-Qur\u2019an bukanlah syair; ilmu-kekuasaan dan rahmat Allah; surga dan sifat-sifat yang disediakan bagi orang-orang mukmin; menyucikan Allah dari sifat-sifat yang tidak layak bagi-Nya; anggota badan manusia akan menjadi saksi pada hari Kiamat atas segala perbuatannya di dunia.\n2.\tKisah:\n\tKisah utusan-utusan Nabi Isa dengan penduduk Antakia (Syam).\n3.\tLain-lain:\nPeringatan tidak berfaedah bagi orang musyrik; Allah menciptakan segala sesuatu berpasang-pasangan; semua jenis bintang di cakrawala berjalan pada garis edar yang telah ditentukan Allah; ajal dan hari kiamat datangnya secara tiba-tiba; Allah menghibur hati Rasulullah saw terhadap sikap kaum musyrikin yang menyakitkan hatinya.",
        "outro_surah": null,
        "munasabah_prev_surah": "HUBUNGAN SURAH F\u0100\u1e6cIR\nDENGAN SURAH Y\u0100S\u012aN\n\n1.\tPada bagian akhir Surah F\u0101\u1e6dir dikemukakan bahwa orang-orang musyrik bersumpah akan beriman apabila datang kepada mereka seorang pemberi peringatan (rasul). Tetapi, setelah datang kepada mereka rasul, mereka mengingkarinya. Pada permulaan Surah Y\u0101s\u012bn, Allah menegas-kan bahwa Nabi Muhammad adalah seorang rasul yang selalu berada di jalan yang lurus untuk memberi peringatan kepada mereka, tetapi mereka tetap tidak beriman.\n2.\tPada Surah F\u0101\u1e6dir disebutkan bahwa Allah menundukkan matahari dan bulan, masing-masing beredar menurut waktu tertentu, sedang pada Surah Y\u0101s\u012bn disebutkan bahwa matahari beredar pada garis edar yang telah ditetapkan Allah, dan bulan mempunyai garis edar yang telah ditentukan pula.\n",
        "munasabah_prev_theme": "Pada ayat-ayat yang lalu, Allah memerintahkan agar bertakwa kepada-Nya, dan menerangkan bukti-bukti kekuasaan dan kebesaran-Nya, serta adanya hari kebangkitan. Pada ayat-ayat berikut ini, Allah menerangkan kemungkaran orang-orang kafir terhadap hari kebangkitan itu, bahkan mereka minta segera didatangkan dan memperolok-olokkannya. Kemudian Dia menegaskan bahwa hari Kiamat itu pasti datang, akan datang tanpa mereka sadari dan pada hari Kiamat itu mereka akan menyesali sikap mereka. Tetapi penyesalan pada hari itu tidak berguna lagi.",
        "theme_group": "\nSIKAP ORANG KAFIR TERHADAP HARI KEBANGKITAN \nDAN KEADAAN MEREKA DI HARI KIAMAT",
        "kosakata": "Kosakata: Marqadin\u0101  \u0645\u064e\u0631\u0652\u0642\u064e\u062f\u0650\u0646\u064e\u0627  (Y\u0101s\u012bn/36: 52)\nMarqadin\u0101 artinya tempat tidur kami. Berasal dari fi\u2018il raqada-yarqudu-ruq\u016bdan artinya tidur atau berbaring. Marqad adalah isim makan (kata benda yang menunjukkan tempat terjadi atau berlakunya perbuatan tersebut), kemudian diberi \u1e0dam\u012br (kata ganti) orang pertama jamak yang menunjukkan kepunyaan, menjadi marqadin\u0101 artinya tempat tidur atau tempat berbaring kami. Al-Qur\u2019an menggunakan kata ini untuk ungkapan kehidupan alam kubur dalam rangka menjelaskan bahwa kehidupan di alam kubur laksana tidur, begitu cepat hal itu berlalu. Pada ayat 52 digambarkan sikap terkejut orang-orang kafir yang tidak percaya pada hari akhir dan hari kebangkitan, yaitu ketika ditiup sangkakala kedua yang membangunkan semua manusia dari kubur masing-masing, maka orang-orang kafir dengan sangat terkejut dan masih tidak percaya berkata, \u201cAduh celaka kami, siapa yang membangkitkan kami dari tempat tidur kami? Padahal sebetulnya peristiwa inilah yang dijanjikan Allah yang Maha Pengasih sebagaimana telah diberitakan oleh para rasul, dan benarlah para rasul yang telah diutus Allah itu, tetapi dulu mereka tidak mau percaya. Kini mereka baru sadar tetapi sudah terlambat.",
        "sabab_nuzul": null,
        "conclusion": null
    }
}