{
    "id": 3772,
    "surah_id": 36,
    "ayah": 67,
    "page": 444,
    "quarter_hizb": 45.25,
    "juz": 23,
    "manzil": 5,
    "arabic": "\u0648\u064e\u0644\u064e\u0648\u0652 \u0646\u064e\u0634\u064e\u0627\u06e4\u0621\u064f \u0644\u064e\u0645\u064e\u0633\u064e\u062e\u0652\u0646\u0670\u0647\u064f\u0645\u0652 \u0639\u064e\u0644\u0670\u0649 \u0645\u064e\u0643\u064e\u0627\u0646\u064e\u062a\u0650\u0647\u0650\u0645\u0652 \u0641\u064e\u0645\u064e\u0627 \u0627\u0633\u0652\u062a\u064e\u0637\u064e\u0627\u0639\u064f\u0648\u0652\u0627 \u0645\u064f\u0636\u0650\u064a\u0651\u064b\u0627 \u0648\u0651\u064e\u0644\u064e\u0627 \u064a\u064e\u0631\u0652\u062c\u0650\u0639\u064f\u0648\u0652\u0646\u064e \u08d6 ",
    "latin": "Wa lau nasy\u0101'u lamasakhn\u0101hum \u2018al\u0101 mak\u0101natihim famasta\u1e6d\u0101\u2018\u016b mu\u1e0diyyaw wa l\u0101 yarji\u2018\u016bn(a).",
    "translation": "Seandainya Kami menghendaki, pastilah Kami akan mengubah bentuk mereka di tempat mereka berada, sehingga mereka tidak sanggup meneruskan perjalanan dan juga tidak sanggup pulang kembali.",
    "no_footnote": null,
    "footnotes": null,
    "surah": {
        "id": 36,
        "arabic": " \u064a\u0670\u0633\u06e4",
        "latin": "Y\u0101s\u012bn",
        "transliteration": "Yasin",
        "translation": "Yasin",
        "num_ayah": 83,
        "page": 440,
        "location": "Makkiyah"
    },
    "tafsir": {
        "wajiz": "Dan jika Kami menghendaki pula, pastilah Kami ubah bentuk mereka,yakni orang-orang kafir, di tempat mereka berada sehingga mereka tidak sanggup berjalan lagi dan juga tidak sanggup kembali. Namun, hal itu tidak Kami lakukan karena kasih sayang Kami. Karena rahmat pula, Aku masih memberi manusia kesempatan untuk bertobat dan beramal saleh meski mereka telah menyekutukan-Ku.",
        "tahlili": "Ayat ini juga menerangkan kekuasaan Allah, yaitu jika Allah menghendaki maka Dia dapat mengubah bentuk orang-orang kafir di tempat mereka berada, sehingga tidak sanggup lagi berjalan dan kembali. Akan tetapi, hal itu tidak dilakukan karena Allah Maha Pengasih dan Maha Penyayang. Meskipun begitu, orang-orang kafir yang memiliki kesempatan untuk beramal saleh sesuai petunjuk agama juga tidak melakukannya, bahkan mereka bertambah ingkar sehingga pantas mendapat siksa yang berat dan menghinakan di akhirat.",
        "intro_surah": "Surah Y\u0101s\u012bn terdiri dari 83 ayat, termasuk kelompok surah-surah Makkiyyah, diturunkan sesudah Surah al-Jinn. Dinamakan Y\u0101s\u012bn karena dimulai dengan huruf Y\u0101 S\u012bn. Sebagaimana halnya arti huruf-huruf abjad yang terletak pada permulaan beberapa surah Al-Qur\u2019an, demikian pula arti Y\u0101 S\u012bn yang terdapat pada ayat permulaan surah ini, yaitu Allah mengisyaratkan bahwa sesudah huruf tersebut akan dikemukakan hal-hal yang penting, antara lain Allah bersumpah dengan Al-Qur\u2019an bahwa Muhammad saw benar-benar seorang rasul yang diutus-Nya kepada kaum yang belum pernah diutus kepada mereka rasul-rasul.\n\nPokok-pokok Isinya:\n1.\tKeimanan:\nBukti-bukti adanya hari Kebangkitan; Al-Qur\u2019an bukanlah syair; ilmu-kekuasaan dan rahmat Allah; surga dan sifat-sifat yang disediakan bagi orang-orang mukmin; menyucikan Allah dari sifat-sifat yang tidak layak bagi-Nya; anggota badan manusia akan menjadi saksi pada hari Kiamat atas segala perbuatannya di dunia.\n2.\tKisah:\n\tKisah utusan-utusan Nabi Isa dengan penduduk Antakia (Syam).\n3.\tLain-lain:\nPeringatan tidak berfaedah bagi orang musyrik; Allah menciptakan segala sesuatu berpasang-pasangan; semua jenis bintang di cakrawala berjalan pada garis edar yang telah ditentukan Allah; ajal dan hari kiamat datangnya secara tiba-tiba; Allah menghibur hati Rasulullah saw terhadap sikap kaum musyrikin yang menyakitkan hatinya.",
        "outro_surah": null,
        "munasabah_prev_surah": "HUBUNGAN SURAH F\u0100\u1e6cIR\nDENGAN SURAH Y\u0100S\u012aN\n\n1.\tPada bagian akhir Surah F\u0101\u1e6dir dikemukakan bahwa orang-orang musyrik bersumpah akan beriman apabila datang kepada mereka seorang pemberi peringatan (rasul). Tetapi, setelah datang kepada mereka rasul, mereka mengingkarinya. Pada permulaan Surah Y\u0101s\u012bn, Allah menegas-kan bahwa Nabi Muhammad adalah seorang rasul yang selalu berada di jalan yang lurus untuk memberi peringatan kepada mereka, tetapi mereka tetap tidak beriman.\n2.\tPada Surah F\u0101\u1e6dir disebutkan bahwa Allah menundukkan matahari dan bulan, masing-masing beredar menurut waktu tertentu, sedang pada Surah Y\u0101s\u012bn disebutkan bahwa matahari beredar pada garis edar yang telah ditetapkan Allah, dan bulan mempunyai garis edar yang telah ditentukan pula.\n",
        "munasabah_prev_theme": "Pada ayat-ayat yang lalu, Allah menerangkan keadaan orang-orang beriman di akhirat. Mereka hidup dalam keadaan saling mencintai, menghormati antara yang satu dengan yang lain, dan masing-masing mereka memperoleh jodoh yang mereka ingini baik berupa istri maupun suami di dalam surga, sehingga mereka tidak ingat keadaan orang-orang kafir yang sedang mengalami siksa yang berat di dalam neraka. Pada ayat-ayat berikut ini diterangkan keadaan orang-orang kafir di dalam neraka, sebagai balasan dari perbuatan dosa yang telah mereka lakukan selama hidup di dunia.",
        "theme_group": "AZAB YANG MENIMPA\nORANG-ORANG KAFIR DI NERAKA",
        "kosakata": "Kosakata: Jibillan Ka\u1e61\u012bran \u062c\u0650\u0628\u0650\u0644\u0651\u064b\u0627 \u0643\u064e\u062b\u0650\u064a\u0652\u0631\u064b\u0627 (Y\u0101s\u012bn/36: 62)\nJibillan ka\u1e61\u012bran artinya bagian terbesar kelompok manusia. Dalam bahasa Arab ada empat kata yang hampir sama yang berarti kelompok atau kumpulan orang yang sangat banyak, yaitu jibillah-jublatu-jubulla-jibilla. Pada ayat 62 ini, Allah mengingatkan kita bahwa sungguh setan itu telah menyesatkan bagian terbesar kelompok manusia, maka apakah kamu tidak berfikir dan menggunakan akalmu? Iblis dan juga keturunannya yaitu setan-setan memang telah bersumpah akan berbuat sekuat tenaga untuk menggoda dan mempengaruhi manusia supaya sesat dari jalan yang benar (al-A\u2018r\u0101f/7: 15). Dengan berbagai cara dan jalan manusia akan selalu digoda dan diiming-imingi supaya tertarik dan memandang indah berbagai perbuatan maksiat, yang akhirnya mereka semua dapat disesatkan oleh ajakan dan rayuan iblis dan setan. Pada kenyataannya memang sebagian besar manusia dapat terpengaruh dan tergoda oleh setan sampai akhirnya mereka mau mengikuti jalan sesat yang telah dihiasi dengan berbagai keindahan oleh setan. Yang tidak tergoda dan tidak terpengaruh hanyalah hamba-hamba Allah yang beriman dan beribadah dengan ikhlas (al-\u1e24ijr/15: 39-40).",
        "sabab_nuzul": null,
        "conclusion": null
    }
}