{
    "id": 3799,
    "surah_id": 37,
    "ayah": 11,
    "page": 446,
    "quarter_hizb": 45.5,
    "juz": 23,
    "manzil": 6,
    "arabic": "\u0641\u064e\u0627\u0633\u0652\u062a\u064e\u0641\u0652\u062a\u0650\u0647\u0650\u0645\u0652 \u0627\u064e\u0647\u064f\u0645\u0652 \u0627\u064e\u0634\u064e\u062f\u0651\u064f \u062e\u064e\u0644\u0652\u0642\u064b\u0627 \u0627\u064e\u0645\u0652 \u0645\u0651\u064e\u0646\u0652 \u062e\u064e\u0644\u064e\u0642\u0652\u0646\u064e\u0627 \u06d7\u0627\u0650\u0646\u0651\u064e\u0627 \u062e\u064e\u0644\u064e\u0642\u0652\u0646\u0670\u0647\u064f\u0645\u0652 \u0645\u0651\u0650\u0646\u0652 \u0637\u0650\u064a\u0652\u0646\u064d \u0644\u0651\u064e\u0627\u0632\u0650\u0628\u064d ",
    "latin": "Fastaftihim ahum asyaddu khalqan am man khalaqn\u0101, inn\u0101 khalaqn\u0101hum min \u1e6d\u012bnil l\u0101zib(in).",
    "translation": "Maka, tanyakanlah kepada mereka (musyrik Makkah), \u201cApakah mereka (manusia) lebih sulit penciptaannya ataukah selainnya (langit, bumi, dan lainnya) yang telah Kami ciptakan?\u201d Sesungguhnya Kami telah menciptakan (bapak) mereka (Adam) dari tanah liat.",
    "no_footnote": null,
    "footnotes": null,
    "surah": {
        "id": 37,
        "arabic": " \u0627\u0644\u0635\u0651\u0670\u06e4\u0641\u0651\u0670\u062a",
        "latin": "A\u1e63-\u1e62\u0101ff\u0101t",
        "transliteration": "As-Saffat",
        "translation": "Barisan-Barisan",
        "num_ayah": 182,
        "page": 446,
        "location": "Makkiyah"
    },
    "tafsir": {
        "wajiz": "Usai menjelaskan bukti-bukti kekuasaan-Nya di alam raya, Allah beralih membuktikan kuasa-Nya dalam menciptakan manusia. Wahai Nabi Muhammad, maka tanyakanlah kepada mereka yang musyrik, \u201cApakah penciptaan mereka yang lebih sulit ataukah apa yang telah Kami ciptakan itu yakni malaikat, langit, dan bumi seisinya?\u201d Sesungguhnya Kami telah menciptakan Nabi Adam, yaitu nenek moyang mereka dari tanah liat.",
        "tahlili": "Allah memerintahkan Nabi Muhammad menanyakan kepada orang-orang yang mengingkari adanya kebangkitan dari kubur tentang mana yang lebih sukar antara menjadikan manusia termasuk orang-orang yang ingkar tadi dengan menjadikan malaikat, langit, bumi, dan segala isinya, yang wujudnya lebih besar dan lebih beraneka ragam.\nAllah memerintahkan rasul-Nya supaya mengajukan pertanyaan kepada mereka, dimaksudkan sebagai celaan terhadap sikap keras kepala mereka. Sebenarnya, mereka sendiri mengakui bahwa penciptaan langit, bumi, dan segala isinya yang besar itu lebih sukar dari menciptakan manusia. Maka bagaimana mereka dapat mengingkari kebangkitan itu, padahal mereka menyaksikan suatu yang lebih sukar dari apa yang mereka ingkari itu.\nFirman Allah:\n\u0627\u064e\u0648\u064e\u0644\u064e\u064a\u0652\u0633\u064e \u0627\u0644\u0651\u064e\u0630\u0650\u064a\u0652 \u062e\u064e\u0644\u064e\u0642\u064e \u0627\u0644\u0633\u0651\u064e\u0645\u0670\u0648\u0670\u062a\u0650 \u0648\u064e\u0627\u0644\u0652\u0627\u064e\u0631\u0652\u0636\u064e \u0628\u0650\u0642\u0670\u062f\u0650\u0631\u064d \u0639\u064e\u0644\u0670\u0653\u0649 \u0627\u064e\u0646\u0652 \u064a\u0651\u064e\u062e\u0652\u0644\u064f\u0642\u064e \u0645\u0650\u062b\u0652\u0644\u064e\u0647\u064f\u0645\u0652 \u06d7\u0628\u064e\u0644\u0670\u0649 \u0648\u064e\u0647\u064f\u0648\u064e \u0627\u0644\u0652\u062e\u064e\u0644\u0651\u0670\u0642\u064f \u0627\u0644\u0652\u0639\u064e\u0644\u0650\u064a\u0652\u0645\u064f \u0668\u0661 (\u064a\u0670\u0633\u06e4)\nDan bukankah (Allah) yang menciptakan langit dan bumi, mampu menciptakan kembali yang serupa itu (jasad mereka yang sudah hancur itu)? Benar, dan Dia Maha Pencipta, Maha Mengetahui. (Y\u0101s\u012bn/36: 81)\n\nDalam ayat lain Allah berfirman:\n\u0644\u064e\u062e\u064e\u0644\u0652\u0642\u064f \u0627\u0644\u0633\u0651\u064e\u0645\u0670\u0648\u0670\u062a\u0650 \u0648\u064e\u0627\u0644\u0652\u0627\u064e\u0631\u0652\u0636\u0650 \u0627\u064e\u0643\u0652\u0628\u064e\u0631\u064f \u0645\u0650\u0646\u0652 \u062e\u064e\u0644\u0652\u0642\u0650 \u0627\u0644\u0646\u0651\u064e\u0627\u0633\u0650 \u0648\u064e\u0644\u0670\u0643\u0650\u0646\u0651\u064e \u0627\u064e\u0643\u0652\u062b\u064e\u0631\u064e \u0627\u0644\u0646\u0651\u064e\u0627\u0633\u0650 \u0644\u064e\u0627 \u064a\u064e\u0639\u0652\u0644\u064e\u0645\u064f\u0648\u0652\u0646\u064e \u0665\u0667 (\u063a\u0627\u0641\u0631)\nSungguh, penciptaan langit dan bumi itu lebih besar daripada penciptaan manusia, akan tetapi kebanyakan manusia tidak mengetahui. (G\u0101fir/40: 57) \nUntuk menjelaskan perbandingan ini Allah memberikan tambahan penjelasan dengan menyebutkan kejadian nenek moyang mereka, yaitu Adam dari tanah liat. Proses kejadian Adam itu menunjukkan kepada mereka tentang kesederhanaan penciptaannya jika dibandingkan dengan penciptaan alam semesta yang mahabesar ini. Bilamana Allah kuasa menciptakan alam ini, tentulah lebih kuasa lagi menghidupkan kembali anak cucu Adam pada hari Kiamat.\nRasulullah kemudian diperingatkan Allah agar jangan terlalu mengharapkan berimannya mereka yang keras kepala. Tidak ada manfaat bagi mereka segala keterangan dan peringatan itu karena mereka tidak tertarik. Bahkan orang-orang kafir itu memperolok-olokkan Rasul, sehingga Rasulullah sendiri merasa heran.\nSesungguhnya hati mereka telah tertutup, dan jiwa mereka tidak dapat menjangkau keyakinan yang seperti itu. Mereka tidak mampu lagi melihat keterangan-keterangan dan tanda-tanda yang dapat menunjukkan kebangkitan dari kubur. Bahkan kesombongan dan pembangkangan mereka telah sampai ke puncaknya. Mereka memperolok-olokkan apa yang telah diucapkan oleh Nabi Muhammad saw, dan meremehkan kesungguhan beliau supaya mereka meyakini hari kebangkitan itu.",
        "intro_surah": "Surah ini merupakan surah ke-37 dalam Al-Qur\u2019an dan termasuk dalam kelompok surah-surah Makkiyyah, diturunkan sesudah Surah al-An\u2018\u0101m. Ia terdiri dari 182 ayat.\nNama surah ini diambil dari kata-kata \u201ca\u1e63-\u1e62\u0101ff\u0101t\u201d yang terdapat pada ayat yang pertama, a\u1e63-\u1e62\u0101ff\u0101t berarti \u201cyang berbaris-baris\u201d.\nPada permulaan surah ini diterangkan keadaan malaikat yang berbaris-baris dengan jiwa yang bersih di hadapan Tuhan, tidak dapat digoda oleh iblis dan setan.\nIni semua dikemukakan untuk menjadi pelajaran dan kaca perbandingan tentang ketaatan dan penghambaan diri yang tulus ikhlas kepada Allah swt.\n\nPokok-pokok Isinya:\n1. \tKeimanan:\nPada bagian ini dibentangkan dalil-dalil tentang kemahaesaan Allah dan tentang adanya hari Kebangkitan, Padang Mahsyar di hari Kiamat, dan tentang malaikat yang selalu bertasbih kepada Allah.\n2. \tKisah-kisah:\nTentang Nabi Nuh, Ismail, Musa, Harun, Ilyas, Lut, dan Yunus.\n3. \tLain-lain:\nSikap orang-orang kafir terhadap Al-Qur\u2019an, saling tuduh-menuduh antara kaum kafir dan para pengikut mereka pada hari Kiamat; kenikmatan di surga yang diperoleh orang-orang yang beriman; kisah tentang pohon zaqqum; celaan terhadap orang-orang yang mengatakan bahwa Allah mempunyai anak; penjelasan bahwa yang baik belum tentu menurunkan keturunan yang baik pula. ",
        "outro_surah": null,
        "munasabah_prev_surah": "HUBUNGAN SURAH Y\u0100S\u012aN DENGAN\nSURAH A\u1e62-\u1e62\u0100FF\u0100T\n\n1. \tPada Surah Y\u0101s\u012bn disebut secara umum tentang umat-umat yang telah dihancurkan Allah karena ingkar kepada-Nya, sedang Surah a\u1e63-\u1e62\u0101ff\u0101t menjelaskan kisah-kisah itu dengan menyebut kisah-kisah Ibrahim, Isa, dengan kaumnya.\n2. \tPada akhir Surah Y\u0101s\u012bn disebut secara umum keadaan orang-orang mukmin dan orang kafir di hari Kiamat, sedang Surah a\u1e63-\u1e62\u0101ff\u0101t menjelaskannya.\n3. \tPada Surah Y\u0101s\u012bn disebutkan tentang kekuasaan Allah membangkitkan manusia dan menghidupkannya kembali, karena Dialah yang menciptakan mereka dan Dialah yang menghendakinya demikian, sedang Surah a\u1e63-\u1e62\u0101ff\u0101t menjelaskan lebih luas dengan mengemukakan contoh-contoh yang berhubungan dengan itu.\n",
        "munasabah_prev_theme": "Pada ayat-ayat sebelumnya, Allah swt telah menetapkan wujud, keesaan, ilmu, dan kodrat-Nya dengan menyebut tentang kejadian langit, bumi, dan penciptaan manusia serta kekuasaannya membangkitkan kembali setelah mati. Pada kelompok ayat ini, Allah kembali menetapkan adanya kebangkitan dari kubur dengan menerangkan bahwa menjadikan seluruh alam yang besar dan beraneka warna itu lebih sukar dibandingkan dengan menjadikan manusia. Maka bukan suatu hal yang sukar bagi Allah menjadikan manusia hidup kembali, sekalipun tulang-belulang manusia itu telah hancur karena lama terkubur dalam tanah.",
        "theme_group": "TUHAN MEMATAHKAN DALIL-DALIL\nKAUM MUSYRIKIN\n",
        "kosakata": "Kosakata: \u1e6c\u012bn L\u0101zib \u0637\u0650\u064a\u0652\u0646\u064d \u0644\u064e\u0627\u0632\u0650\u0628\u064d (a\u1e63-\u1e62\u0101ff\u0101t/37: 11)\n\tA\u1e6d-\u1e6c\u012bn artinya tanah yang bercampur air, sedangkan al-l\u0101zib artinya sesuatu yang menempel dengan yang lain. Pernyataan ini adalah satu fase dari fase-fase penciptaan Nabi Adam. Fase berikutnya adalah fase tanah liat kering yang berasal dari lumpur hitam yang diberi bentuk(Hama' masn\u016bn). Fase terakhir adalah fase \u201cTembikar\u201d(\u1e63al\u1e63\u0101l kalfakhkh\u0101r). Setelah itu Allah menghembuskan roh kepadanya. \n",
        "sabab_nuzul": null,
        "conclusion": null
    }
}