{
    "id": 3806,
    "surah_id": 37,
    "ayah": 18,
    "page": 446,
    "quarter_hizb": 45.5,
    "juz": 23,
    "manzil": 6,
    "arabic": "\u0642\u064f\u0644\u0652 \u0646\u064e\u0639\u064e\u0645\u0652 \u0648\u064e\u0627\u064e\u0646\u0652\u062a\u064f\u0645\u0652 \u062f\u0670\u062e\u0650\u0631\u064f\u0648\u0652\u0646\u064e\u06da ",
    "latin": "Qul na\u2018am wa antum d\u0101khir\u016bn(a).",
    "translation": "Katakanlah (Nabi Muhammad), \u201cYa (kamu akan dibangkitkan) dan kamu akan terhina.\u201d",
    "no_footnote": null,
    "footnotes": null,
    "surah": {
        "id": 37,
        "arabic": " \u0627\u0644\u0635\u0651\u0670\u06e4\u0641\u0651\u0670\u062a",
        "latin": "A\u1e63-\u1e62\u0101ff\u0101t",
        "transliteration": "As-Saffat",
        "translation": "Barisan-Barisan",
        "num_ayah": 182,
        "page": 446,
        "location": "Makkiyah"
    },
    "tafsir": {
        "wajiz": "Wahai Nabi Muhammad, katakanlah kepada mereka, \u201cYa, Allah akan membangkitkan seluruh umat manusia, dan kamu akan dibangkitkan di hadapan-Nya dalam keadaan rendah dan terhina.\u201d",
        "tahlili": "Allah memerintahkan Nabi Muhammad agar menjawab pertanyaan mereka secara tegas bahwa benar mereka dan nenek moyangnya akan dibangkitkan kembali sesudah menjadi tanah. Mereka yang ingkar itu menjadi hina di hadapan Allah Yang Mahatinggi. Sebagaimana Allah berfirman:\n\u0627\u0650\u0646\u0651\u064e \u0627\u0644\u0651\u064e\u0630\u0650\u064a\u0652\u0646\u064e \u064a\u064e\u0633\u0652\u062a\u064e\u0643\u0652\u0628\u0650\u0631\u064f\u0648\u0652\u0646\u064e \u0639\u064e\u0646\u0652 \u0639\u0650\u0628\u064e\u0627\u062f\u064e\u062a\u0650\u064a\u0652 \u0633\u064e\u064a\u064e\u062f\u0652\u062e\u064f\u0644\u064f\u0648\u0652\u0646\u064e \u062c\u064e\u0647\u064e\u0646\u0651\u064e\u0645\u064e \u062f\u064e\u0627\u062e\u0650\u0631\u0650\u064a\u0652\u0646\u064e \u08d6 \u0666\u0660 (\u063a\u0627\u0641\u0631)\nSesungguhnya orang-orang yang sombong tidak mau menyembah-Ku akan masuk neraka Jahanam dalam keadaan hina dina. (al- G\u0101fir /40: 60)\nDalam ayat lain Allah berfirman:\n\u0648\u064e\u0643\u064f\u0644\u0651\u064c \u0627\u064e\u062a\u064e\u0648\u0652\u0647\u064f \u062f\u0670\u062e\u0650\u0631\u0650\u064a\u0652\u0646\u064e \n\u2026 Dan semua mereka datang menghadap-Nya dengan merendahkan diri. (an-Naml/27: 87)\n\nTerjadinya hari Kiamat sangatlah mudah bagi Allah. Dengan satu teriakan saja yang ditiupkan dari sangkakala manusia akan bangkit dari kubur dan hidup kembali. Pada waktu itu, mereka akan menyaksikan terlaksananya ancaman Allah.\n",
        "intro_surah": "Surah ini merupakan surah ke-37 dalam Al-Qur\u2019an dan termasuk dalam kelompok surah-surah Makkiyyah, diturunkan sesudah Surah al-An\u2018\u0101m. Ia terdiri dari 182 ayat.\nNama surah ini diambil dari kata-kata \u201ca\u1e63-\u1e62\u0101ff\u0101t\u201d yang terdapat pada ayat yang pertama, a\u1e63-\u1e62\u0101ff\u0101t berarti \u201cyang berbaris-baris\u201d.\nPada permulaan surah ini diterangkan keadaan malaikat yang berbaris-baris dengan jiwa yang bersih di hadapan Tuhan, tidak dapat digoda oleh iblis dan setan.\nIni semua dikemukakan untuk menjadi pelajaran dan kaca perbandingan tentang ketaatan dan penghambaan diri yang tulus ikhlas kepada Allah swt.\n\nPokok-pokok Isinya:\n1. \tKeimanan:\nPada bagian ini dibentangkan dalil-dalil tentang kemahaesaan Allah dan tentang adanya hari Kebangkitan, Padang Mahsyar di hari Kiamat, dan tentang malaikat yang selalu bertasbih kepada Allah.\n2. \tKisah-kisah:\nTentang Nabi Nuh, Ismail, Musa, Harun, Ilyas, Lut, dan Yunus.\n3. \tLain-lain:\nSikap orang-orang kafir terhadap Al-Qur\u2019an, saling tuduh-menuduh antara kaum kafir dan para pengikut mereka pada hari Kiamat; kenikmatan di surga yang diperoleh orang-orang yang beriman; kisah tentang pohon zaqqum; celaan terhadap orang-orang yang mengatakan bahwa Allah mempunyai anak; penjelasan bahwa yang baik belum tentu menurunkan keturunan yang baik pula. ",
        "outro_surah": null,
        "munasabah_prev_surah": "HUBUNGAN SURAH Y\u0100S\u012aN DENGAN\nSURAH A\u1e62-\u1e62\u0100FF\u0100T\n\n1. \tPada Surah Y\u0101s\u012bn disebut secara umum tentang umat-umat yang telah dihancurkan Allah karena ingkar kepada-Nya, sedang Surah a\u1e63-\u1e62\u0101ff\u0101t menjelaskan kisah-kisah itu dengan menyebut kisah-kisah Ibrahim, Isa, dengan kaumnya.\n2. \tPada akhir Surah Y\u0101s\u012bn disebut secara umum keadaan orang-orang mukmin dan orang kafir di hari Kiamat, sedang Surah a\u1e63-\u1e62\u0101ff\u0101t menjelaskannya.\n3. \tPada Surah Y\u0101s\u012bn disebutkan tentang kekuasaan Allah membangkitkan manusia dan menghidupkannya kembali, karena Dialah yang menciptakan mereka dan Dialah yang menghendakinya demikian, sedang Surah a\u1e63-\u1e62\u0101ff\u0101t menjelaskan lebih luas dengan mengemukakan contoh-contoh yang berhubungan dengan itu.\n",
        "munasabah_prev_theme": "Pada ayat-ayat sebelumnya, Allah swt telah menetapkan wujud, keesaan, ilmu, dan kodrat-Nya dengan menyebut tentang kejadian langit, bumi, dan penciptaan manusia serta kekuasaannya membangkitkan kembali setelah mati. Pada kelompok ayat ini, Allah kembali menetapkan adanya kebangkitan dari kubur dengan menerangkan bahwa menjadikan seluruh alam yang besar dan beraneka warna itu lebih sukar dibandingkan dengan menjadikan manusia. Maka bukan suatu hal yang sukar bagi Allah menjadikan manusia hidup kembali, sekalipun tulang-belulang manusia itu telah hancur karena lama terkubur dalam tanah.",
        "theme_group": "TUHAN MEMATAHKAN DALIL-DALIL\nKAUM MUSYRIKIN\n",
        "kosakata": "Kosakata: \u1e6c\u012bn L\u0101zib \u0637\u0650\u064a\u0652\u0646\u064d \u0644\u064e\u0627\u0632\u0650\u0628\u064d (a\u1e63-\u1e62\u0101ff\u0101t/37: 11)\n\tA\u1e6d-\u1e6c\u012bn artinya tanah yang bercampur air, sedangkan al-l\u0101zib artinya sesuatu yang menempel dengan yang lain. Pernyataan ini adalah satu fase dari fase-fase penciptaan Nabi Adam. Fase berikutnya adalah fase tanah liat kering yang berasal dari lumpur hitam yang diberi bentuk(Hama' masn\u016bn). Fase terakhir adalah fase \u201cTembikar\u201d(\u1e63al\u1e63\u0101l kalfakhkh\u0101r). Setelah itu Allah menghembuskan roh kepadanya. \n",
        "sabab_nuzul": null,
        "conclusion": null
    }
}