{
    "id": 3811,
    "surah_id": 37,
    "ayah": 23,
    "page": 446,
    "quarter_hizb": 45.5,
    "juz": 23,
    "manzil": 6,
    "arabic": "\u0645\u0650\u0646\u0652 \u062f\u064f\u0648\u0652\u0646\u0650 \u0627\u0644\u0644\u0651\u0670\u0647\u0650 \u0641\u064e\u0627\u0647\u0652\u062f\u064f\u0648\u0652\u0647\u064f\u0645\u0652 \u0627\u0650\u0644\u0670\u0649 \u0635\u0650\u0631\u064e\u0627\u0637\u0650 \u0627\u0644\u0652\u062c\u064e\u062d\u0650\u064a\u0652\u0645\u0650 ",
    "latin": "Min d\u016bnill\u0101hi fahd\u016bhum il\u0101 \u1e63ir\u0101\u1e6dil-ja\u1e25\u012bm(i).",
    "translation": "selain Allah. Lalu, tunjukkanlah kepada mereka jalan ke (neraka) Jahim.",
    "no_footnote": null,
    "footnotes": null,
    "surah": {
        "id": 37,
        "arabic": " \u0627\u0644\u0635\u0651\u0670\u06e4\u0641\u0651\u0670\u062a",
        "latin": "A\u1e63-\u1e62\u0101ff\u0101t",
        "transliteration": "As-Saffat",
        "translation": "Barisan-Barisan",
        "num_ayah": 182,
        "page": 446,
        "location": "Makkiyah"
    },
    "tafsir": {
        "wajiz": "Bawalah serta apa yang orang-orang musyrik itu sembah selain Allah, lalu tunjukkanlah kepada mereka jalan ke neraka dan giringlah mereka masuk ke dalamnya.\u201d",
        "tahlili": "Kemudian pada hari itu diperintahkan kepada malaikat Zabaniyah untuk mengumpulkan orang-orang yang telah berbuat zalim, agar pergi ke tempat hukuman menurut kelompok perbuatan dosa mereka masing-masing, yaitu para pezina sesama pezina, pemakan riba sesama pemakan riba, demikianlah seterusnya. Demikian pula penyembah-penyembah berhala dikumpulkan bersama berhalanya agar mereka tambah merasa malu dan sedih. Lalu mereka digiring menuju neraka Jahim. Allah berfirman:\n\u0648\u064e\u0646\u064e\u062d\u0652\u0634\u064f\u0631\u064f\u0647\u064f\u0645\u0652 \u064a\u064e\u0648\u0652\u0645\u064e \u0627\u0644\u0652\u0642\u0650\u064a\u0670\u0645\u064e\u0629\u0650 \u0639\u064e\u0644\u0670\u0649 \u0648\u064f\u062c\u064f\u0648\u0652\u0647\u0650\u0647\u0650\u0645\u0652 \u0639\u064f\u0645\u0652\u064a\u064b\u0627 \u0648\u0651\u064e\u0628\u064f\u0643\u0652\u0645\u064b\u0627 \u0648\u0651\u064e\u0635\u064f\u0645\u0651\u064b\u0627\u06d7 \u0645\u064e\u0623\u0652\u0648\u0670\u0649\u0647\u064f\u0645\u0652 \u062c\u064e\u0647\u064e\u0646\u0651\u064e\u0645\u064f\u06d7 \u0643\u064f\u0644\u0651\u064e\u0645\u064e\u0627 \u062e\u064e\u0628\u064e\u062a\u0652 \u0632\u0650\u062f\u0652\u0646\u0670\u0647\u064f\u0645\u0652 \u0633\u064e\u0639\u0650\u064a\u0652\u0631\u064b\u0627 \u0669\u0667 (\u0627\u0644\u0627\u0633\u0631\u0627\u06e4\u0621)\nDan Kami akan mengumpulkan mereka pada hari Kiamat dengan wajah tersungkur, dalam keadaan buta, bisu, dan tuli. Tempat kediaman mereka adalah neraka Jahanam. Setiap kali nyala api Jahanam itu akan padam, Kami tambah lagi nyalanya bagi mereka. (al-Isr\u0101'/17: 97)",
        "intro_surah": "Surah ini merupakan surah ke-37 dalam Al-Qur\u2019an dan termasuk dalam kelompok surah-surah Makkiyyah, diturunkan sesudah Surah al-An\u2018\u0101m. Ia terdiri dari 182 ayat.\nNama surah ini diambil dari kata-kata \u201ca\u1e63-\u1e62\u0101ff\u0101t\u201d yang terdapat pada ayat yang pertama, a\u1e63-\u1e62\u0101ff\u0101t berarti \u201cyang berbaris-baris\u201d.\nPada permulaan surah ini diterangkan keadaan malaikat yang berbaris-baris dengan jiwa yang bersih di hadapan Tuhan, tidak dapat digoda oleh iblis dan setan.\nIni semua dikemukakan untuk menjadi pelajaran dan kaca perbandingan tentang ketaatan dan penghambaan diri yang tulus ikhlas kepada Allah swt.\n\nPokok-pokok Isinya:\n1. \tKeimanan:\nPada bagian ini dibentangkan dalil-dalil tentang kemahaesaan Allah dan tentang adanya hari Kebangkitan, Padang Mahsyar di hari Kiamat, dan tentang malaikat yang selalu bertasbih kepada Allah.\n2. \tKisah-kisah:\nTentang Nabi Nuh, Ismail, Musa, Harun, Ilyas, Lut, dan Yunus.\n3. \tLain-lain:\nSikap orang-orang kafir terhadap Al-Qur\u2019an, saling tuduh-menuduh antara kaum kafir dan para pengikut mereka pada hari Kiamat; kenikmatan di surga yang diperoleh orang-orang yang beriman; kisah tentang pohon zaqqum; celaan terhadap orang-orang yang mengatakan bahwa Allah mempunyai anak; penjelasan bahwa yang baik belum tentu menurunkan keturunan yang baik pula. ",
        "outro_surah": null,
        "munasabah_prev_surah": "HUBUNGAN SURAH Y\u0100S\u012aN DENGAN\nSURAH A\u1e62-\u1e62\u0100FF\u0100T\n\n1. \tPada Surah Y\u0101s\u012bn disebut secara umum tentang umat-umat yang telah dihancurkan Allah karena ingkar kepada-Nya, sedang Surah a\u1e63-\u1e62\u0101ff\u0101t menjelaskan kisah-kisah itu dengan menyebut kisah-kisah Ibrahim, Isa, dengan kaumnya.\n2. \tPada akhir Surah Y\u0101s\u012bn disebut secara umum keadaan orang-orang mukmin dan orang kafir di hari Kiamat, sedang Surah a\u1e63-\u1e62\u0101ff\u0101t menjelaskannya.\n3. \tPada Surah Y\u0101s\u012bn disebutkan tentang kekuasaan Allah membangkitkan manusia dan menghidupkannya kembali, karena Dialah yang menciptakan mereka dan Dialah yang menghendakinya demikian, sedang Surah a\u1e63-\u1e62\u0101ff\u0101t menjelaskan lebih luas dengan mengemukakan contoh-contoh yang berhubungan dengan itu.\n",
        "munasabah_prev_theme": "Pada ayat-ayat yang lalu telah diceritakan keingkaran orang-orang musyrikin Mekah akan hari kebangkitan dan segala peristiwa yang akan terjadi pada hari Kiamat itu. Maka pada ayat-ayat ini Allah menambahkan penjelasan tentang keadaan mereka pada hari itu bahwa mereka mengumpat dirinya sendiri ketika melihat kedahsyatan yang terjadi pada hari itu. Mereka mengakui dengan jujur bahwa mereka dahulunya dalam kesesatan. Mereka juga menyesali sedalam-dalamnya akan keterlanjuran perbuatan-perbuatan mereka, tetapi penyesalan itu sudah tidak ada gunanya lagi.",
        "theme_group": "KEADAAN ORANG-ORANG MUSYRIK DI AKHIRAT",
        "kosakata": "Kosakata: Y\u0101 Wailan\u0101 \u064a\u064e\u0627\u0648\u064e\u064a\u0652\u0644\u064e\u0646\u064e\u0627 (a\u1e63-\u1e62\u0101ff\u0101t/37: 20)\nKata ini terdiri dari huruf nida' ya' yang digunakan untuk memanggil, dan kata wail yang berarti celaka. Sedangkan na kata ganti orang pertama yang berarti kita. Kata wail diucapkan ketika melihat sesuatu yang menyedihkan (seperti dalam ayat ini) atau sesuatu yang menggembirakan (seperti Surah H\u016bd/11: 72). Ayat ini mengungkapkan reaksi orang-orang yang ketika di dunia menentang hari Kebangkitan, mereka terperanjat dan takut apalagi setelah siksa yang diancamkan di dunia telah menanti mereka.\n",
        "sabab_nuzul": null,
        "conclusion": null
    }
}