{
    "id": 3882,
    "surah_id": 37,
    "ayah": 94,
    "page": 449,
    "quarter_hizb": 45.75,
    "juz": 23,
    "manzil": 6,
    "arabic": "\u0641\u064e\u0627\u064e\u0642\u0652\u0628\u064e\u0644\u064f\u0648\u0652\u0653\u0627 \u0627\u0650\u0644\u064e\u064a\u0652\u0647\u0650 \u064a\u064e\u0632\u0650\u0641\u0651\u064f\u0648\u0652\u0646\u064e",
    "latin": "Fa aqbal\u016b ilaihi yaziff\u016bn(a).",
    "translation": "Kemudian, mereka (kaumnya) datang bergegas kepadanya.",
    "no_footnote": null,
    "footnotes": null,
    "surah": {
        "id": 37,
        "arabic": " \u0627\u0644\u0635\u0651\u0670\u06e4\u0641\u0651\u0670\u062a",
        "latin": "A\u1e63-\u1e62\u0101ff\u0101t",
        "transliteration": "As-Saffat",
        "translation": "Barisan-Barisan",
        "num_ayah": 182,
        "page": 446,
        "location": "Makkiyah"
    },
    "tafsir": {
        "wajiz": "Hancurnya berhala-berhala itu diketahui oleh kaum Nabi Ibrahim, kemudian mereka datang bergegas kepadanya dengan penuh amarah.",
        "tahlili": "Sesudah kaumnya pergi, Ibrahim diam-diam menuju tempat patung-patung itu, lalu berkata dengan maksud mengejek, \u201cMengapa patung-patung itu tidak memakan makanan yang dihidangkan di hadapannya.\u201d Sesajen itu disuguhkan oleh para penyembahnya pada hari-hari tertentu untuk mengharapkan berkah.\nTentu saja patung-patung itu tidak berkata apa-apa. Akan tetapi, Ibrahim bertanya lagi, \u201cMengapa patung-patung itu tidak menjawab pertanyaanku?\u201d Kemudian patung-patung itu dipukulnya dengan keras sampai hancur kecuali sebuah patung yang paling besar. Peristiwa ini menimbulkan kemarahan kaumnya. Lalu mereka mencari pelakunya dan memperoleh keterangan bahwa Ibrahimlah yang memecahkan patung-patung itu. Mereka cepat-cepat menemui Ibrahim dan menanyakan kepadanya, apakah benar dia memecahkan patung-patung itu. Ibrahim mengelak dari pertanyaan itu dan mengatakan bahwa patung yang besar itulah yang memecahkannya. Setelah mendengar ucapan Ibrahim, kaumnya menundukkan kepala dan merenungkan diri masing-masing. Tidak ada yang dapat mereka perbuat terhadap patung besar itu, yang selama ini mereka sembah.",
        "intro_surah": "Surah ini merupakan surah ke-37 dalam Al-Qur\u2019an dan termasuk dalam kelompok surah-surah Makkiyyah, diturunkan sesudah Surah al-An\u2018\u0101m. Ia terdiri dari 182 ayat.\nNama surah ini diambil dari kata-kata \u201ca\u1e63-\u1e62\u0101ff\u0101t\u201d yang terdapat pada ayat yang pertama, a\u1e63-\u1e62\u0101ff\u0101t berarti \u201cyang berbaris-baris\u201d.\nPada permulaan surah ini diterangkan keadaan malaikat yang berbaris-baris dengan jiwa yang bersih di hadapan Tuhan, tidak dapat digoda oleh iblis dan setan.\nIni semua dikemukakan untuk menjadi pelajaran dan kaca perbandingan tentang ketaatan dan penghambaan diri yang tulus ikhlas kepada Allah swt.\n\nPokok-pokok Isinya:\n1. \tKeimanan:\nPada bagian ini dibentangkan dalil-dalil tentang kemahaesaan Allah dan tentang adanya hari Kebangkitan, Padang Mahsyar di hari Kiamat, dan tentang malaikat yang selalu bertasbih kepada Allah.\n2. \tKisah-kisah:\nTentang Nabi Nuh, Ismail, Musa, Harun, Ilyas, Lut, dan Yunus.\n3. \tLain-lain:\nSikap orang-orang kafir terhadap Al-Qur\u2019an, saling tuduh-menuduh antara kaum kafir dan para pengikut mereka pada hari Kiamat; kenikmatan di surga yang diperoleh orang-orang yang beriman; kisah tentang pohon zaqqum; celaan terhadap orang-orang yang mengatakan bahwa Allah mempunyai anak; penjelasan bahwa yang baik belum tentu menurunkan keturunan yang baik pula. ",
        "outro_surah": null,
        "munasabah_prev_surah": "HUBUNGAN SURAH Y\u0100S\u012aN DENGAN\nSURAH A\u1e62-\u1e62\u0100FF\u0100T\n\n1. \tPada Surah Y\u0101s\u012bn disebut secara umum tentang umat-umat yang telah dihancurkan Allah karena ingkar kepada-Nya, sedang Surah a\u1e63-\u1e62\u0101ff\u0101t menjelaskan kisah-kisah itu dengan menyebut kisah-kisah Ibrahim, Isa, dengan kaumnya.\n2. \tPada akhir Surah Y\u0101s\u012bn disebut secara umum keadaan orang-orang mukmin dan orang kafir di hari Kiamat, sedang Surah a\u1e63-\u1e62\u0101ff\u0101t menjelaskannya.\n3. \tPada Surah Y\u0101s\u012bn disebutkan tentang kekuasaan Allah membangkitkan manusia dan menghidupkannya kembali, karena Dialah yang menciptakan mereka dan Dialah yang menghendakinya demikian, sedang Surah a\u1e63-\u1e62\u0101ff\u0101t menjelaskan lebih luas dengan mengemukakan contoh-contoh yang berhubungan dengan itu.\n",
        "munasabah_prev_theme": "Pada ayat-ayat yang lalu dikisahkan riwayat Nabi Nuh bersama pengikutnya yang diselamatkan dari bencana banjir, ini merupakan balasan Tuhan atas ketabahannya dalam mengajak kaumnya kepada agama yang lurus. Pada ayat-ayat berikut ini dijelaskan tentang kisah Nabi Ibrahim dengan keberanian dan ketawakalannya dalam menghadapi kaumnya. Cerita para nabi dengan masing-masing kaumnya disampaikan kepada Nabi Muhammad untuk memberikan dorongan dan ketetapan hati pada saat menghadapi permusuhan kaumnya yang menolak untuk mengikuti seruannya.",
        "theme_group": "NABI IBRAHIM MENGHANCURKAN BERHALA",
        "kosakata": "1. \tQalb Sal\u012bm \u0642\u064e\u0644\u0652\u0628 \u0633\u064e\u0644\u0650\u064a\u0652\u0645 (a\u1e63-\u1e62\u0101ff\u0101t/37: 84)\nQalb sal\u012bm terdiri dari dua kata, qalb yang berarti hati dan sal\u012bm yang berarti selamat, sehat, tidak sakit, dan sebagainya. Dalam konteks ayat di atas, Allah menjelaskan perihal sikap Nabi Ibrahim yang memiliki qalb sal\u012bm. Pada ayat sebelumnya (ayat 83), Nabi Ibrahim dimasukkan sebagai sy\u012b\u2018atih (golongan Nabi Nuh), karena kesamaan keimanan kepada Allah dan pokok-pokok ajaran agamanya. Bahkan lebih jauh lagi, Nabi Ibrahim menjawab seruan Allah dengan qalb sal\u012bm (hati yang bersih/suci), yakni ia mengikhlaskan jiwa dan raganya di jalan Allah dengan sepenuhnya. Itulah Nabi Ibrahim, yang juga sering disebut sebagai han\u012bf muslim.\n2. \tYaziff\u016bn \u064a\u064e\u0632\u0650\u0641\u0651\u064f\u0648\u0652\u0646\u064e (a\u1e63-\u1e62\u0101ff\u0101t/37: 94)\nSecara kebahasaan, yaziff\u016bn bermakna bergegas atau segera. Dalam konteks ayat di atas, Allah menjelaskan bahwa selepas Nabi Ibrahim menghancurkan patung-patung yang disembah kaumnya, mereka lalu bergegas mendatangi Nabi Ibrahim untuk meminta pertanggungjawaban atas perbuatannya merusak tuhan-tuhan mereka itu. Itulah sikap kaumnya yang jauh dari kebenaran. Mereka mengagungkan dan bahkan menyembah berhala-berhala yang mereka buat sendiri, yang tidak bisa mendatangkan mudarat atau manfaat apa pun bagi diri mereka.",
        "sabab_nuzul": null,
        "conclusion": null
    }
}