{
    "id": 3813,
    "surah_id": 37,
    "ayah": 25,
    "page": 447,
    "quarter_hizb": 45.5,
    "juz": 23,
    "manzil": 6,
    "arabic": "\u0645\u064e\u0627 \u0644\u064e\u0643\u064f\u0645\u0652 \u0644\u064e\u0627 \u062a\u064e\u0646\u064e\u0627\u0635\u064e\u0631\u064f\u0648\u0652\u0646\u064e ",
    "latin": "M\u0101 lakum l\u0101 tan\u0101\u1e63ar\u016bn(a).",
    "translation": "(Mereka lalu dikecam,) \u201cMengapa kamu tidak tolong-menolong (sebagaimana kamu di dunia)?\u201d",
    "no_footnote": null,
    "footnotes": null,
    "surah": {
        "id": 37,
        "arabic": " \u0627\u0644\u0635\u0651\u0670\u06e4\u0641\u0651\u0670\u062a",
        "latin": "A\u1e63-\u1e62\u0101ff\u0101t",
        "transliteration": "As-Saffat",
        "translation": "Barisan-Barisan",
        "num_ayah": 182,
        "page": 446,
        "location": "Makkiyah"
    },
    "tafsir": {
        "wajiz": "Orang-orang musyrik itu ditanya, \u201cMengapa kamu pada hari ini tidak saling tolong-menolong sesama kamu sebagaimana kamu saling bahu-membahu dalam berbuat ingkar?\u201d",
        "tahlili": "Kepada malaikat diperintahkan supaya menahan mereka di tempat pemberhentian dan menanyakan tentang apa yang mereka usahakan, serta dosa dan kemaksiatan yang telah mereka lakukan. Pada waktu itu juga ditanyakan tentang akidah-akidah palsu yang diajarkan oleh setan yang menyesatkan hidup mereka. persoalan ini dijelaskan dalam hadis Nabi saw:\n\u0639\u064e\u0646\u0652 \u0623\u064e\u0628\u0650\u064a\u0652 \u0647\u064f\u0631\u064e\u064a\u0652\u0631\u064e\u0629\u064e \u0642\u064e\u0627\u0644\u064e: \u0642\u064e\u0627\u0644\u064e \u0631\u064e\u0633\u064f\u0648\u0652\u0644\u064f \u0627\u0644\u0644\u0651\u0670\u0647\u0650 \u0635\u064e\u0644\u0651\u064e\u0649 \u0627\u0644\u0644\u0651\u0670\u0647\u064f \u0639\u064e\u0644\u064e\u064a\u0652\u0647\u0650 \u0648\u064e\u0633\u064e\u0644\u0651\u064e\u0645\u064e: \u0644\u064e\u0646\u0652 \u062a\u064e\u0632\u064f\u0648\u0652\u0644\u064e \u0642\u064e\u062f\u064e\u0645\u064e\u0627 \u0639\u064e\u0628\u0652\u062f\u064d \u064a\u064e\u0648\u0652\u0645\u064e \u0627\u0652\u0644\u0642\u0650\u064a\u064e\u0627\u0645\u064e\u0629\u0650 \u062d\u064e\u062a\u0651\u064e\u0649 \u064a\u064f\u0633\u0652\u0623\u064e\u0644\u064e \u0639\u064e\u0646\u0652 \u0623\u064e\u0631\u0652\u0628\u064e\u0639\u0650 \u062e\u0650\u0635\u064e\u0627\u0644\u064d: \u0639\u064e\u0646\u0652 \u0639\u064f\u0645\u0652\u0631\u0650\u0647\u0650 \u0641\u0650\u064a\u0652\u0645\u064e\u0627 \u0623\u064e\u0641\u0652\u0646\u064e\u0627\u0647\u064f \u0648\u064e\u0639\u064e\u0646\u0652 \u0634\u064e\u0628\u064e\u0627\u0628\u0650\u0647\u0650 \u0641\u0650\u064a\u0652\u0645\u064e\u0627 \u0623\u064e\u0628\u0652\u0644\u064e\u0627\u0647\u064f \u0648\u064e\u0639\u064e\u0646\u0652 \u0645\u064e\u0627\u0644\u0650\u0647\u0650 \u0645\u0650\u0646\u0652 \u0623\u064e\u064a\u0652\u0646\u064e \u0627\u0650\u0643\u0652\u062a\u064e\u0633\u064e\u0628\u064e\u0647\u064f \u0648\u064e \u0641\u0650\u064a\u0652\u0645\u064e\u0627 \u0623\u064e\u0646\u0652\u0641\u064e\u0642\u064e\u0647\u064f \u0648\u064e\u0639\u064e\u0646\u0652 \u0639\u0650\u0644\u0652\u0645\u0650\u0647\u0650 \u0645\u064e\u0627\u0630\u064e\u0627 \u0639\u064e\u0645\u0650\u0644\u064e \u0628\u0650\u0647\u0650. (\u0631\u0648\u0627\u0647 \u0627\u0644\u062a\u0631\u0645\u0630\u0649)\nAb\u016b Hurairah meriwayatkan bahwa Rasulullah saw bersabda, \u201cTidaklah bergeser dua telapak kaki seorang hamba pada hari Kiamat sebelum dia ditanya empat perkara: tentang umur dihabiskannya untuk apa, tentang masa mudanya dipergunakan untuk apa, lalu tentang harta yang dimilikinya diperoleh dari mana, dan dipergunakan untuk apa, lalu tentang ilmu sampai sejauh mana diamalkannya. (Riwayat at-Tirmi\u017c\u012b)\n\nPada waktu itu orang-orang kafir bisa saling menolong satu sama lain sebagaimana mereka perkirakan di dunia dulu. Tetapi nyatanya hal itu tidak dapat dilakukan, dan mereka benar-benar ditimpa azab setimpal dengan perbuatannya. Allah berfirman:\n\u064a\u064e\u0648\u0652\u0645\u064e \u0644\u064e\u0627 \u064a\u064f\u063a\u0652\u0646\u0650\u064a\u0652 \u0645\u064e\u0648\u0652\u0644\u064b\u0649 \u0639\u064e\u0646\u0652 \u0645\u0651\u064e\u0648\u0652\u0644\u064b\u0649 \u0634\u064e\u064a\u0652\u0640\u0654\u064b\u0627 \u0648\u0651\u064e\u0644\u064e\u0627 \u0647\u064f\u0645\u0652 \u064a\u064f\u0646\u0652\u0635\u064e\u0631\u064f\u0648\u0652\u0646\u064e\u06d9 \u0664\u0661 (\u0627\u0644\u062f\u062e\u0627\u0646)\n(Yaitu) pada hari (ketika) seorang teman sama sekali tidak dapat memberi manfaat kepada teman lainnya dan mereka tidak akan mendapat pertolongan. (ad-Dukh\u0101n/44: 41) ",
        "intro_surah": "Surah ini merupakan surah ke-37 dalam Al-Qur\u2019an dan termasuk dalam kelompok surah-surah Makkiyyah, diturunkan sesudah Surah al-An\u2018\u0101m. Ia terdiri dari 182 ayat.\nNama surah ini diambil dari kata-kata \u201ca\u1e63-\u1e62\u0101ff\u0101t\u201d yang terdapat pada ayat yang pertama, a\u1e63-\u1e62\u0101ff\u0101t berarti \u201cyang berbaris-baris\u201d.\nPada permulaan surah ini diterangkan keadaan malaikat yang berbaris-baris dengan jiwa yang bersih di hadapan Tuhan, tidak dapat digoda oleh iblis dan setan.\nIni semua dikemukakan untuk menjadi pelajaran dan kaca perbandingan tentang ketaatan dan penghambaan diri yang tulus ikhlas kepada Allah swt.\n\nPokok-pokok Isinya:\n1. \tKeimanan:\nPada bagian ini dibentangkan dalil-dalil tentang kemahaesaan Allah dan tentang adanya hari Kebangkitan, Padang Mahsyar di hari Kiamat, dan tentang malaikat yang selalu bertasbih kepada Allah.\n2. \tKisah-kisah:\nTentang Nabi Nuh, Ismail, Musa, Harun, Ilyas, Lut, dan Yunus.\n3. \tLain-lain:\nSikap orang-orang kafir terhadap Al-Qur\u2019an, saling tuduh-menuduh antara kaum kafir dan para pengikut mereka pada hari Kiamat; kenikmatan di surga yang diperoleh orang-orang yang beriman; kisah tentang pohon zaqqum; celaan terhadap orang-orang yang mengatakan bahwa Allah mempunyai anak; penjelasan bahwa yang baik belum tentu menurunkan keturunan yang baik pula. ",
        "outro_surah": null,
        "munasabah_prev_surah": "HUBUNGAN SURAH Y\u0100S\u012aN DENGAN\nSURAH A\u1e62-\u1e62\u0100FF\u0100T\n\n1. \tPada Surah Y\u0101s\u012bn disebut secara umum tentang umat-umat yang telah dihancurkan Allah karena ingkar kepada-Nya, sedang Surah a\u1e63-\u1e62\u0101ff\u0101t menjelaskan kisah-kisah itu dengan menyebut kisah-kisah Ibrahim, Isa, dengan kaumnya.\n2. \tPada akhir Surah Y\u0101s\u012bn disebut secara umum keadaan orang-orang mukmin dan orang kafir di hari Kiamat, sedang Surah a\u1e63-\u1e62\u0101ff\u0101t menjelaskannya.\n3. \tPada Surah Y\u0101s\u012bn disebutkan tentang kekuasaan Allah membangkitkan manusia dan menghidupkannya kembali, karena Dialah yang menciptakan mereka dan Dialah yang menghendakinya demikian, sedang Surah a\u1e63-\u1e62\u0101ff\u0101t menjelaskan lebih luas dengan mengemukakan contoh-contoh yang berhubungan dengan itu.\n",
        "munasabah_prev_theme": "Pada ayat-ayat yang lalu telah diceritakan keingkaran orang-orang musyrikin Mekah akan hari kebangkitan dan segala peristiwa yang akan terjadi pada hari Kiamat itu. Maka pada ayat-ayat ini Allah menambahkan penjelasan tentang keadaan mereka pada hari itu bahwa mereka mengumpat dirinya sendiri ketika melihat kedahsyatan yang terjadi pada hari itu. Mereka mengakui dengan jujur bahwa mereka dahulunya dalam kesesatan. Mereka juga menyesali sedalam-dalamnya akan keterlanjuran perbuatan-perbuatan mereka, tetapi penyesalan itu sudah tidak ada gunanya lagi.",
        "theme_group": "KEADAAN ORANG-ORANG MUSYRIK DI AKHIRAT",
        "kosakata": "Kosakata: Y\u0101 Wailan\u0101 \u064a\u064e\u0627\u0648\u064e\u064a\u0652\u0644\u064e\u0646\u064e\u0627 (a\u1e63-\u1e62\u0101ff\u0101t/37: 20)\nKata ini terdiri dari huruf nida' ya' yang digunakan untuk memanggil, dan kata wail yang berarti celaka. Sedangkan na kata ganti orang pertama yang berarti kita. Kata wail diucapkan ketika melihat sesuatu yang menyedihkan (seperti dalam ayat ini) atau sesuatu yang menggembirakan (seperti Surah H\u016bd/11: 72). Ayat ini mengungkapkan reaksi orang-orang yang ketika di dunia menentang hari Kebangkitan, mereka terperanjat dan takut apalagi setelah siksa yang diancamkan di dunia telah menanti mereka.\n",
        "sabab_nuzul": null,
        "conclusion": null
    }
}