{
    "id": 3794,
    "surah_id": 37,
    "ayah": 6,
    "page": 446,
    "quarter_hizb": 45.5,
    "juz": 23,
    "manzil": 6,
    "arabic": "\u0627\u0650\u0646\u0651\u064e\u0627 \u0632\u064e\u064a\u0651\u064e\u0646\u0651\u064e\u0627 \u0627\u0644\u0633\u0651\u064e\u0645\u064e\u0627\u06e4\u0621\u064e \u0627\u0644\u062f\u0651\u064f\u0646\u0652\u064a\u064e\u0627 \u0628\u0650\u0632\u0650\u064a\u0652\u0646\u064e\u0629\u0650 \u06e8\u0650\u0627\u0644\u0652\u0643\u064e\u0648\u064e\u0627\u0643\u0650\u0628\u0650\u06d9",
    "latin": "Inn\u0101 zayyannas-sam\u0101'ad-dun-y\u0101 biz\u012bnatinil-kaw\u0101kib(i).",
    "translation": "Sesungguhnya Kami telah menghiasi langit dunia (yang terdekat) dengan hiasan (berupa) bintang-bintang.",
    "no_footnote": null,
    "footnotes": null,
    "surah": {
        "id": 37,
        "arabic": " \u0627\u0644\u0635\u0651\u0670\u06e4\u0641\u0651\u0670\u062a",
        "latin": "A\u1e63-\u1e62\u0101ff\u0101t",
        "transliteration": "As-Saffat",
        "translation": "Barisan-Barisan",
        "num_ayah": 182,
        "page": 446,
        "location": "Makkiyah"
    },
    "tafsir": {
        "wajiz": "Sesungguhnya Kami telah menghias langit dunia yang terdekat dengan bumi dengan hiasan bintang-bintang dan planet-planet yang begitu indah.",
        "tahlili": "Selanjutnya Allah menambahkan lagi bukti-bukti tentang kekuasaan-Nya, yaitu bahwa Dia telah menghias langit dengan planet-planet yang demikian indah. Barang siapa memandang langit di waktu malam yang cerah dan penuh bintang, serta bulan yang bersinar lemah, semestinya merasa sangat takjub dan dari mulutnya akan terucap kata-kata \u201cAll\u0101hu Akbar\u201d, Allah Mahabesar.",
        "intro_surah": "Surah ini merupakan surah ke-37 dalam Al-Qur\u2019an dan termasuk dalam kelompok surah-surah Makkiyyah, diturunkan sesudah Surah al-An\u2018\u0101m. Ia terdiri dari 182 ayat.\nNama surah ini diambil dari kata-kata \u201ca\u1e63-\u1e62\u0101ff\u0101t\u201d yang terdapat pada ayat yang pertama, a\u1e63-\u1e62\u0101ff\u0101t berarti \u201cyang berbaris-baris\u201d.\nPada permulaan surah ini diterangkan keadaan malaikat yang berbaris-baris dengan jiwa yang bersih di hadapan Tuhan, tidak dapat digoda oleh iblis dan setan.\nIni semua dikemukakan untuk menjadi pelajaran dan kaca perbandingan tentang ketaatan dan penghambaan diri yang tulus ikhlas kepada Allah swt.\n\nPokok-pokok Isinya:\n1. \tKeimanan:\nPada bagian ini dibentangkan dalil-dalil tentang kemahaesaan Allah dan tentang adanya hari Kebangkitan, Padang Mahsyar di hari Kiamat, dan tentang malaikat yang selalu bertasbih kepada Allah.\n2. \tKisah-kisah:\nTentang Nabi Nuh, Ismail, Musa, Harun, Ilyas, Lut, dan Yunus.\n3. \tLain-lain:\nSikap orang-orang kafir terhadap Al-Qur\u2019an, saling tuduh-menuduh antara kaum kafir dan para pengikut mereka pada hari Kiamat; kenikmatan di surga yang diperoleh orang-orang yang beriman; kisah tentang pohon zaqqum; celaan terhadap orang-orang yang mengatakan bahwa Allah mempunyai anak; penjelasan bahwa yang baik belum tentu menurunkan keturunan yang baik pula. ",
        "outro_surah": null,
        "munasabah_prev_surah": "HUBUNGAN SURAH Y\u0100S\u012aN DENGAN\nSURAH A\u1e62-\u1e62\u0100FF\u0100T\n\n1. \tPada Surah Y\u0101s\u012bn disebut secara umum tentang umat-umat yang telah dihancurkan Allah karena ingkar kepada-Nya, sedang Surah a\u1e63-\u1e62\u0101ff\u0101t menjelaskan kisah-kisah itu dengan menyebut kisah-kisah Ibrahim, Isa, dengan kaumnya.\n2. \tPada akhir Surah Y\u0101s\u012bn disebut secara umum keadaan orang-orang mukmin dan orang kafir di hari Kiamat, sedang Surah a\u1e63-\u1e62\u0101ff\u0101t menjelaskannya.\n3. \tPada Surah Y\u0101s\u012bn disebutkan tentang kekuasaan Allah membangkitkan manusia dan menghidupkannya kembali, karena Dialah yang menciptakan mereka dan Dialah yang menghendakinya demikian, sedang Surah a\u1e63-\u1e62\u0101ff\u0101t menjelaskan lebih luas dengan mengemukakan contoh-contoh yang berhubungan dengan itu.\n",
        "munasabah_prev_theme": "Pada akhir Surah Y\u0101s\u012bn, Allah menjelaskan kekuasaan-Nya pada hari Kiamat dan hari kebangkitan dengan membangkitkan kembali semua manusia yang telah mati secara utuh meskipun sudah lama meninggal dunia dan tulang-belulangnya telah hancur. Allah yang menciptakan manusia pertama kali kemudian mematikannya, tentu dapat menciptakannya kembali seperti yang telah diciptakan dahulu. Pada permulaan Surah a\u1e63-\u1e62\u0101ff\u0101t, Allah menegaskan kembali keesaan dan kekuasaan-Nya di alam yang luas dan besar ini.\n",
        "theme_group": "KEESAAN DAN KEKUASAAN ALLAH",
        "kosakata": "1.\tA\u1e63-\u1e62\u0101ff\u0101t \u0627\u0644\u0635\u0651\u064e\u0627\u0641\u0651\u064e\u0627\u062a\u0650 (a\u1e63-\u1e62\u0101ff\u0101t/37: 1)\nA\u1e63-\u1e62\u0101ff\u0101t bentuk jamak dari a\u1e63-\u1e63\u0101f isim fa\u2018il dari fi\u2018il ma\u1e0d\u012b \u1e63affa. Kata a\u1e63-\u1e63aff artinya garis lurus pada setiap hal (as-sa\u1e6dr al mustawi min kulli syai\u2019). Baris artinya kembali kepada munculnya sesuatu secara teratur, rapih, tertib. A\u1e63-\u1e63afuf adalah unta yang membiarkan kedua kaki depannya tetap di tempat untuk memberikan peluang bagi pemerah susunya sehingga tempat susu berbaris dengan teratur untuk mendapatkan giliran diisi dengan air susu unta tersebut. Daging yang ditaruh di atas bara api untuk dibakar dinamakan as-\u1e63afif. Daging tersebut biasanya ditaruh dengan teratur. \tDalam ayat ini Allah tidak menyebutkan rombongan siapa yang berbaris dengan teratur, oleh karena itu para mufasir berbeda pendapat dalam hal ini. Apakah itu merupakan rombongan malaikat atau yang lainnya. \n2. Az-Z\u0101jir\u0101t \u0627\u0644\u0632\u0651\u064e\u0627\u062c\u0650\u0631\u064e\u0627\u062a\u0650 (a\u1e63-\u1e62aff\u0101t/37: 2)\nAz-Z\u0101jir\u0101t berasal dari kata az-zajr yang artinya mendorong, mengusir dengan suara keras, dan kasar dari sesuatu yang tidak diinginkan oleh pelakunya. Menurut ar-Ragib al-I\u1e63fah\u0101n\u012b, az-z\u0101jir\u0101t pada ayat ini adalah malaikat yang menggiring awan ke lokasi yang ditetapkan Allah untuk diturunkan hujan. Namun demikian, banyak ulama yang memahami az-z\u0101jir\u0101t dengan malaikat-malaikat yang menghardik dan mencegah manusia melakukan pelanggaran, baik pelanggaran hukum, syariat, maupun pelanggaran batas-batas yang sudah ditentukan Allah untuk menjamin kelestarian di alam raya ini.\n3. At-T\u0101liy\u0101t \u0627\u0644\u062a\u0651\u064e\u0627\u0644\u0650\u064a\u064e\u0627\u062a\u0650 (a\u1e63-\u1e62aff\u0101t/37: 3)\nAt-T\u0101liy\u0101t berasal dari kata tal\u0101 yang artinya datang sesudahnya atau mengikuti. Objek yang diikuti bisa berupa benda, hukum, atau peraturan. Dari kata ini lahir makna yang berarti membaca karena membaca berarti mengikuti huruf demi huruf. Kata tal\u0101 khusus untuk membaca kitab suci dan mengikuti perintah, larangan, janji, dan ancaman yang tercantum dalam kitab suci tersebut. At-T\u0101liy\u0101t dalam ayat ini dipahami sebagai malaikat yang membacakan wahyu-wahyu Ilahi kepada para nabi. Pada ayat ini, Allah bersumpah demi malaikat-malaikat yang berbaris teratur yang menghardik setan sehingga tidak mengganggu proses penurunan wahyu atau ketika malaikat membacakannya kepada para nabi.",
        "sabab_nuzul": null,
        "conclusion": null
    }
}