{
    "id": 3921,
    "surah_id": 37,
    "ayah": 133,
    "page": 451,
    "quarter_hizb": 45.75,
    "juz": 23,
    "manzil": 6,
    "arabic": "\u0648\u064e\u0627\u0650\u0646\u0651\u064e \u0644\u064f\u0648\u0652\u0637\u064b\u0627 \u0644\u0651\u064e\u0645\u0650\u0646\u064e \u0627\u0644\u0652\u0645\u064f\u0631\u0652\u0633\u064e\u0644\u0650\u064a\u0652\u0646\u064e\u06d7 ",
    "latin": "Wa inna l\u016b\u1e6dal laminal-mursal\u012bn(a).",
    "translation": "Sesungguhnya Lut benar-benar termasuk para rasul.",
    "no_footnote": null,
    "footnotes": null,
    "surah": {
        "id": 37,
        "arabic": " \u0627\u0644\u0635\u0651\u0670\u06e4\u0641\u0651\u0670\u062a",
        "latin": "A\u1e63-\u1e62\u0101ff\u0101t",
        "transliteration": "As-Saffat",
        "translation": "Barisan-Barisan",
        "num_ayah": 182,
        "page": 446,
        "location": "Makkiyah"
    },
    "tafsir": {
        "wajiz": "Bila nabi-nabi yang disebutkan sebelumnya berasal dari garis keturunan Nabi Ibrahim, nabi berikut ini merupakan anak paman Nabi Ibrahim yang berjuang bersamanya dalam menyampaikan risalah Allah. Dialah Nabi Lut. Dan sungguh, Nabi Lut benar-benar termasuk salah seorang yang Allah pilih menjadi rasul untuk berdakwah kepada penduduk Sodom.",
        "tahlili": "Pada ayat ini diterangkan bahwa Nabi Lut adalah seorang rasul Allah. Ia sezaman dengan Nabi Ibrahim. Ia diutus Allah ke negeri bernama Sodom di daerah Palestina. Penduduk negeri ini terkenal dengan perilaku homoseksual. Nabi Lut berusaha menyadarkan mereka dengan menyatakan bahwa perbuatan mereka itu menyimpang dan dikutuk Allah. Allah berfirman:\n\u0648\u064e\u0644\u064f\u0648\u0652\u0637\u064b\u0627 \u0627\u0650\u0630\u0652 \u0642\u064e\u0627\u0644\u064e \u0644\u0650\u0642\u064e\u0648\u0652\u0645\u0650\u0647\u0656\u0653 \u0627\u0650\u0646\u0651\u064e\u0643\u064f\u0645\u0652 \u0644\u064e\u062a\u064e\u0623\u0652\u062a\u064f\u0648\u0652\u0646\u064e \u0627\u0644\u0652\u0641\u064e\u0627\u062d\u0650\u0634\u064e\u0629\u064e \u06d6\u0645\u064e\u0627 \u0633\u064e\u0628\u064e\u0642\u064e\u0643\u064f\u0645\u0652 \u0628\u0650\u0647\u064e\u0627 \u0645\u0650\u0646\u0652 \u0627\u064e\u062d\u064e\u062f\u064d \u0645\u0651\u0650\u0646\u064e \u0627\u0644\u0652\u0639\u0670\u0644\u064e\u0645\u0650\u064a\u0652\u0646\u064e \u0662\u0668 \u0627\u064e\u0649\u0655\u0650\u0646\u0651\u064e\u0643\u064f\u0645\u0652 \u0644\u064e\u062a\u064e\u0623\u0652\u062a\u064f\u0648\u0652\u0646\u064e \u0627\u0644\u0631\u0651\u0650\u062c\u064e\u0627\u0644\u064e \u0648\u064e\u062a\u064e\u0642\u0652\u0637\u064e\u0639\u064f\u0648\u0652\u0646\u064e \u0627\u0644\u0633\u0651\u064e\u0628\u0650\u064a\u0652\u0644\u064e \u06d5\u06d9 \u0648\u064e\u062a\u064e\u0623\u0652\u062a\u064f\u0648\u0652\u0646\u064e \u0641\u0650\u064a\u0652 \u0646\u064e\u0627\u062f\u0650\u064a\u0652\u0643\u064f\u0645\u064f \u0627\u0644\u0652\u0645\u064f\u0646\u0652\u0643\u064e\u0631\u064e \u06d7\u0641\u064e\u0645\u064e\u0627 \u0643\u064e\u0627\u0646\u064e \u062c\u064e\u0648\u064e\u0627\u0628\u064e \u0642\u064e\u0648\u0652\u0645\u0650\u0647\u0656\u0653 \u0627\u0650\u0644\u0651\u064e\u0627\u0653 \u0627\u064e\u0646\u0652 \u0642\u064e\u0627\u0644\u064f\u0648\u0627 \u0627\u0626\u0652\u062a\u0650\u0646\u064e\u0627 \u0628\u0650\u0639\u064e\u0630\u064e\u0627\u0628\u0650 \u0627\u0644\u0644\u0651\u0670\u0647\u0650 \u0627\u0650\u0646\u0652 \u0643\u064f\u0646\u0652\u062a\u064e \u0645\u0650\u0646\u064e \u0627\u0644\u0635\u0651\u0670\u062f\u0650\u0642\u0650\u064a\u0652\u0646\u064e \u0662\u0669 (\u0627\u0644\u0639\u0646\u0643\u0628\u0648\u062a)\nDan (ingatlah) ketika Lut berkata kepada kaumnya, \u201cKamu benar-benar melakukan perbuatan yang sangat keji (homoseksual) yang belum pernah dilakukan oleh seorang pun dari umat-umat sebelum kamu. Apakah pantas kamu mendatangi laki-laki, menyamun dan mengerjakan kemungkaran di tempat-tempat pertemuanmu?\u201d Maka jawaban kaumnya tidak lain hanya mengatakan, \u201cDatangkanlah kepada kami azab Allah, jika engkau termasuk orang-orang yang benar.\u201d (al-\u2018Ankab\u016bt/29: 28-29)\n\nTetapi peringatan dan nasihat Nabi Lut itu tidak mereka indahkan, bahkan mereka menantang Nabi Lut untuk segera memohon kepada Allah untuk mendatangkan azab kepada mereka.",
        "intro_surah": "Surah ini merupakan surah ke-37 dalam Al-Qur\u2019an dan termasuk dalam kelompok surah-surah Makkiyyah, diturunkan sesudah Surah al-An\u2018\u0101m. Ia terdiri dari 182 ayat.\nNama surah ini diambil dari kata-kata \u201ca\u1e63-\u1e62\u0101ff\u0101t\u201d yang terdapat pada ayat yang pertama, a\u1e63-\u1e62\u0101ff\u0101t berarti \u201cyang berbaris-baris\u201d.\nPada permulaan surah ini diterangkan keadaan malaikat yang berbaris-baris dengan jiwa yang bersih di hadapan Tuhan, tidak dapat digoda oleh iblis dan setan.\nIni semua dikemukakan untuk menjadi pelajaran dan kaca perbandingan tentang ketaatan dan penghambaan diri yang tulus ikhlas kepada Allah swt.\n\nPokok-pokok Isinya:\n1. \tKeimanan:\nPada bagian ini dibentangkan dalil-dalil tentang kemahaesaan Allah dan tentang adanya hari Kebangkitan, Padang Mahsyar di hari Kiamat, dan tentang malaikat yang selalu bertasbih kepada Allah.\n2. \tKisah-kisah:\nTentang Nabi Nuh, Ismail, Musa, Harun, Ilyas, Lut, dan Yunus.\n3. \tLain-lain:\nSikap orang-orang kafir terhadap Al-Qur\u2019an, saling tuduh-menuduh antara kaum kafir dan para pengikut mereka pada hari Kiamat; kenikmatan di surga yang diperoleh orang-orang yang beriman; kisah tentang pohon zaqqum; celaan terhadap orang-orang yang mengatakan bahwa Allah mempunyai anak; penjelasan bahwa yang baik belum tentu menurunkan keturunan yang baik pula. ",
        "outro_surah": null,
        "munasabah_prev_surah": "HUBUNGAN SURAH Y\u0100S\u012aN DENGAN\nSURAH A\u1e62-\u1e62\u0100FF\u0100T\n\n1. \tPada Surah Y\u0101s\u012bn disebut secara umum tentang umat-umat yang telah dihancurkan Allah karena ingkar kepada-Nya, sedang Surah a\u1e63-\u1e62\u0101ff\u0101t menjelaskan kisah-kisah itu dengan menyebut kisah-kisah Ibrahim, Isa, dengan kaumnya.\n2. \tPada akhir Surah Y\u0101s\u012bn disebut secara umum keadaan orang-orang mukmin dan orang kafir di hari Kiamat, sedang Surah a\u1e63-\u1e62\u0101ff\u0101t menjelaskannya.\n3. \tPada Surah Y\u0101s\u012bn disebutkan tentang kekuasaan Allah membangkitkan manusia dan menghidupkannya kembali, karena Dialah yang menciptakan mereka dan Dialah yang menghendakinya demikian, sedang Surah a\u1e63-\u1e62\u0101ff\u0101t menjelaskan lebih luas dengan mengemukakan contoh-contoh yang berhubungan dengan itu.\n",
        "munasabah_prev_theme": "Pada ayat-ayat yang lalu dikisahkan bahwa Nabi Ilyas telah berjuang menyadarkan kaumnya dari kekafiran, dan sebagian kaumnya itu tetap membangkang dan sebagian lain beriman. Nabi Lut yang diceritakan pada ayat-ayat berikut ini juga sudah berjuang menyadarkan kaumnya, dan juga mendapat perlawanan yang keras, karena yang membangkang itu termasuk keluarganya sendiri. Allah menyelamatkannya dan kaumnya yang beriman sebagaimana nabi-nabi dan umat-umat terdahulu yang beriman. Mereka juga meninggalkan nama yang harum. ",
        "theme_group": "KISAH NABI LUT",
        "kosakata": "Kosakata: \u2018Aj\u016bz(an) \u0639\u064e\u062c\u064f\u0648\u0652\u0632\u064b\u0627 (a\u1e63-\u1e62\u0101ff\u0101t/37: 135)\n\u2018Aj\u016bz terambil dari akar kata \u2018ajaza-ya\u2018jizu-\u2018uj\u016bzan maknanya \u201clemah\u201d. \u2018Aj\u016bz artinya \u201cperempuan tua karena fisiknya lemah\u201d. Yang dimaksud disini adalah istri Nabi Lut. Ia termasuk orang yang tidak mau keluar dari negerinya yang akan dibalikkan oleh para malaikat karena melakukan perbuatan homoseksual. Dalam Al-Qur\u2019an contohnya adalah seperti yang terdapat dalam Surah al-M\u0101'idah/5: 31, \u201cLemahkah aku seperti burung gagak ini\u2026?\u201d Itu adalah ucapan Qabil setelah membunuh saudaranya Habil yang tidak mengerti cara menguburkan jasad saudaranya itu, kemudian melihat burung gagak menguburkan bangkai kawannya.",
        "sabab_nuzul": null,
        "conclusion": null
    }
}