{
    "id": 3934,
    "surah_id": 37,
    "ayah": 146,
    "page": 451,
    "quarter_hizb": 46,
    "juz": 23,
    "manzil": 6,
    "arabic": "\u0648\u064e\u0627\u064e\u0646\u0652\u06e2\u0628\u064e\u062a\u0652\u0646\u064e\u0627 \u0639\u064e\u0644\u064e\u064a\u0652\u0647\u0650 \u0634\u064e\u062c\u064e\u0631\u064e\u0629\u064b \u0645\u0651\u0650\u0646\u0652 \u064a\u0651\u064e\u0642\u0652\u0637\u0650\u064a\u0652\u0646\u064d\u06da ",
    "latin": "Wa ambatn\u0101 \u2018alaihi syajaratam miy yaq\u1e6d\u012bn(in).",
    "translation": "Kami kemudian menumbuhkan tanaman sejenis labu untuknya.",
    "no_footnote": null,
    "footnotes": null,
    "surah": {
        "id": 37,
        "arabic": " \u0627\u0644\u0635\u0651\u0670\u06e4\u0641\u0651\u0670\u062a",
        "latin": "A\u1e63-\u1e62\u0101ff\u0101t",
        "transliteration": "As-Saffat",
        "translation": "Barisan-Barisan",
        "num_ayah": 182,
        "page": 446,
        "location": "Makkiyah"
    },
    "tafsir": {
        "wajiz": "Dengan kemurahan-Ku, untuk dia Kami tumbuhkan sebatang pohon dari jenis labu sebagai makanan yang segar, lezat, dan bergizi sehingga kekuatan dan kesehatannya berangsur pulih.",
        "tahlili": "Setelah satu, atau tiga, atau beberapa hari, menurut beberapa pendapat, Nabi Yunus berada di dalam perut ikan besar itu, Allah memerintahkan ikan tersebut memuntahkannya ke suatu daerah tandus tidak ditumbuhi tanaman apa pun. Karena beberapa saat berada di dalam perut ikan, kondisi Nabi Yunus lemah sekali. Untuk menyelamatkannya dari terpaan panas matahari, Allah menumbuhkan pohon yaq\u1e6d\u012bn (sejenis labu) di sampingnya. Daun pohon itu melindunginya dan buahnya jadi makanannya.",
        "intro_surah": "Surah ini merupakan surah ke-37 dalam Al-Qur\u2019an dan termasuk dalam kelompok surah-surah Makkiyyah, diturunkan sesudah Surah al-An\u2018\u0101m. Ia terdiri dari 182 ayat.\nNama surah ini diambil dari kata-kata \u201ca\u1e63-\u1e62\u0101ff\u0101t\u201d yang terdapat pada ayat yang pertama, a\u1e63-\u1e62\u0101ff\u0101t berarti \u201cyang berbaris-baris\u201d.\nPada permulaan surah ini diterangkan keadaan malaikat yang berbaris-baris dengan jiwa yang bersih di hadapan Tuhan, tidak dapat digoda oleh iblis dan setan.\nIni semua dikemukakan untuk menjadi pelajaran dan kaca perbandingan tentang ketaatan dan penghambaan diri yang tulus ikhlas kepada Allah swt.\n\nPokok-pokok Isinya:\n1. \tKeimanan:\nPada bagian ini dibentangkan dalil-dalil tentang kemahaesaan Allah dan tentang adanya hari Kebangkitan, Padang Mahsyar di hari Kiamat, dan tentang malaikat yang selalu bertasbih kepada Allah.\n2. \tKisah-kisah:\nTentang Nabi Nuh, Ismail, Musa, Harun, Ilyas, Lut, dan Yunus.\n3. \tLain-lain:\nSikap orang-orang kafir terhadap Al-Qur\u2019an, saling tuduh-menuduh antara kaum kafir dan para pengikut mereka pada hari Kiamat; kenikmatan di surga yang diperoleh orang-orang yang beriman; kisah tentang pohon zaqqum; celaan terhadap orang-orang yang mengatakan bahwa Allah mempunyai anak; penjelasan bahwa yang baik belum tentu menurunkan keturunan yang baik pula. ",
        "outro_surah": null,
        "munasabah_prev_surah": "HUBUNGAN SURAH Y\u0100S\u012aN DENGAN\nSURAH A\u1e62-\u1e62\u0100FF\u0100T\n\n1. \tPada Surah Y\u0101s\u012bn disebut secara umum tentang umat-umat yang telah dihancurkan Allah karena ingkar kepada-Nya, sedang Surah a\u1e63-\u1e62\u0101ff\u0101t menjelaskan kisah-kisah itu dengan menyebut kisah-kisah Ibrahim, Isa, dengan kaumnya.\n2. \tPada akhir Surah Y\u0101s\u012bn disebut secara umum keadaan orang-orang mukmin dan orang kafir di hari Kiamat, sedang Surah a\u1e63-\u1e62\u0101ff\u0101t menjelaskannya.\n3. \tPada Surah Y\u0101s\u012bn disebutkan tentang kekuasaan Allah membangkitkan manusia dan menghidupkannya kembali, karena Dialah yang menciptakan mereka dan Dialah yang menghendakinya demikian, sedang Surah a\u1e63-\u1e62\u0101ff\u0101t menjelaskan lebih luas dengan mengemukakan contoh-contoh yang berhubungan dengan itu.\n",
        "munasabah_prev_theme": "Pada ayat-ayat yang lalu dikisahkan tentang seorang nabi yang bukan dari Bani Israil, yaitu Nabi Lut yang telah berjuang keras memberantas perilaku homoseksual kaumnya. Karena selalu membangkang dan tidak mau meninggalkan perbuatan terkutuk itu, Allah akhirnya menghancurkan negeri itu dan menyelamatkan Nabi Lut dan umatnya yang beriman. Pada ayat-ayat berikut dikisahkan kembali seorang rasul dari kalangan Bani Israil yang juga mendapat penentangan yang sangat keras dari umatnya, yaitu Nabi Yunus putera Matta. Ia tidak tahan menghadapi penentangan kaumnya itu lalu lari meninggalkan tugasnya. Dengan demikian tidak ada rasul atau penganjur kebaikan yang tidak mendapat perlawanan yang biasanya datang dari kaum yang berkuasa di negeri itu. ",
        "theme_group": "KISAH NABI YUNUS",
        "kosakata": "1.\tAl-Mud\u1e25a\u1e0d\u012bn \u0627\u064e\u0644\u0652\u0640\u0645\u064f\u062f\u0652\u062d\u064e\u0636\u0650\u064a\u0652\u0646\u064e (a\u1e63-\u1e62\u0101ff\u0101t/37: 141)\nKata dasarnya da\u1e25a\u1e0da-yad\u1e25a\u1e0du-da\u1e25\u1e0dan artinya \u201cbatil\u201d, \u201csalah\u201d. Ad\u1e25a\u1e0da artinya \u201cmenyatakan seseorang salah\u201d. Al-Mud\u1e25a\u1e0d adalah ism al-maf\u2018\u016bl yang berarti \u201corang yang dinyatakan salah/kalah\u201d dalam undian. Yang dimaksud adalah Nabi Yunus. Ia dinyatakan kalah, dan karena itu harus keluar dari kapal, mencebur ke laut, supaya kapal tidak tenggelam.\n2.\tAl-\u1e24\u016bt \u0627\u064e\u0644\u0652\u062d\u064f\u0648\u0652\u062a\u064f (a\u1e63-\u1e62\u0101ff\u0101t/37: 142)\n\u1e24\u016bt adalah jamak \u1e25\u012btan berarti ikan secara umum, kecil atau besar, tetapi ada yang membatasi hanya pada ikan besar. Selain pada ayat di atas, kata \u201c\u1e25\u016bt\u201d terdapat juga pada Surah al-Kahf/18: 61 dan 63, al-Qalam/68: 48, dan kata jamak \u201c\u1e25\u012btan\u201d pada al-A'r\u0101f/7: 163. Ada pula yang mengartikan kata \u201can-nun\u201d juga ikan (al-Anbiy\u0101'/21: 87). Tetapi dalam pembahasan ini kita batasi pada pengertian kata \u201c\u1e25\u016bt\u201d a\u1e63-\u1e62\u0101ff\u0101t/37: 142 yang berhubungan dengan Nabi Yunus. (Lihat juga Kosakata \u201cNabi Yunus\u201d).\n3.\tAl-\u2018Ar\u0101' \u0627\u064e\u0644\u0652\u0639\u064e\u0631\u064e\u0627\u0621\u0650 (a\u1e63-\u1e62\u0101ff\u0101t/37: 145)\nKata \u2018ar\u0101' berasal dari kata dasar \u2018ar\u012by yang secara umum dapat berarti telanjang, terbuka dari segala yang tertutup. Dalam pengertian ayat di atas dikiaskan pada alam yang terbuka, telanjang, tanah yang tandus, tanpa ada tanaman yang tumbuh. Yunus terlempar dari perut ikan ke alam terbuka, tandus, dan terasa asing sekali baginya; akibatnya ia jadi sakit (saq\u012bm). Mungkin karena terasa sangat tiba-tiba. Sebagian  mufasir mengatakan sakit dalam arti batin, sedih, dan stres. (lihat kosakata \u201cNabi Yunus\u201d).",
        "sabab_nuzul": null,
        "conclusion": null
    }
}