{
    "id": 3954,
    "surah_id": 37,
    "ayah": 166,
    "page": 452,
    "quarter_hizb": 46,
    "juz": 23,
    "manzil": 6,
    "arabic": "\u0648\u064e\u0627\u0650\u0646\u0651\u064e\u0627 \u0644\u064e\u0646\u064e\u062d\u0652\u0646\u064f \u0627\u0644\u0652\u0645\u064f\u0633\u064e\u0628\u0651\u0650\u062d\u064f\u0648\u0652\u0646\u064e",
    "latin": "Wa inn\u0101 lana\u1e25nul-musabbi\u1e25\u016bn(a).",
    "translation": "Sesungguhnya kamilah yang benar-benar terus bertasbih (kepada Allah).\u201d",
    "no_footnote": null,
    "footnotes": null,
    "surah": {
        "id": 37,
        "arabic": " \u0627\u0644\u0635\u0651\u0670\u06e4\u0641\u0651\u0670\u062a",
        "latin": "A\u1e63-\u1e62\u0101ff\u0101t",
        "transliteration": "As-Saffat",
        "translation": "Barisan-Barisan",
        "num_ayah": 182,
        "page": 446,
        "location": "Makkiyah"
    },
    "tafsir": {
        "wajiz": "Dan sungguh, kami benar-benar terus bertasbih, menyucikan dan mengagungkan asma-Nya dari sifat-sifat yang tidak layak bagi-Nya.",
        "tahlili": "Kemudian Allah menjelaskan perilaku malaikat bahwa mereka selalu bertasbih kepada-Nya. Bertasbih adalah mensucikan Allah dari sifat-sifat yang tidak layak bagi-Nya, baik berupa sifat-sifat kekurangan, seperti lemah, mengantuk, perlu pembantu/anak dan sebagainya atau sifat-sifat tercela seperti pemarah, zalim, dan sebagainya. Bertasbih itu tidak cukup hanya dengan ucapan, dengan membaca sub\u1e25\u0101nall\u0101h, tetapi perlu diiringi dengan perbuatan. Contoh tasbih yang sempurna adalah apa yang dikerjakan malaikat, dimana mereka tidak hanya terus menerus memuji Allah tetapi juga melaksanakan sepenuhnya perintah-perintah-Nya.",
        "intro_surah": "Surah ini merupakan surah ke-37 dalam Al-Qur\u2019an dan termasuk dalam kelompok surah-surah Makkiyyah, diturunkan sesudah Surah al-An\u2018\u0101m. Ia terdiri dari 182 ayat.\nNama surah ini diambil dari kata-kata \u201ca\u1e63-\u1e62\u0101ff\u0101t\u201d yang terdapat pada ayat yang pertama, a\u1e63-\u1e62\u0101ff\u0101t berarti \u201cyang berbaris-baris\u201d.\nPada permulaan surah ini diterangkan keadaan malaikat yang berbaris-baris dengan jiwa yang bersih di hadapan Tuhan, tidak dapat digoda oleh iblis dan setan.\nIni semua dikemukakan untuk menjadi pelajaran dan kaca perbandingan tentang ketaatan dan penghambaan diri yang tulus ikhlas kepada Allah swt.\n\nPokok-pokok Isinya:\n1. \tKeimanan:\nPada bagian ini dibentangkan dalil-dalil tentang kemahaesaan Allah dan tentang adanya hari Kebangkitan, Padang Mahsyar di hari Kiamat, dan tentang malaikat yang selalu bertasbih kepada Allah.\n2. \tKisah-kisah:\nTentang Nabi Nuh, Ismail, Musa, Harun, Ilyas, Lut, dan Yunus.\n3. \tLain-lain:\nSikap orang-orang kafir terhadap Al-Qur\u2019an, saling tuduh-menuduh antara kaum kafir dan para pengikut mereka pada hari Kiamat; kenikmatan di surga yang diperoleh orang-orang yang beriman; kisah tentang pohon zaqqum; celaan terhadap orang-orang yang mengatakan bahwa Allah mempunyai anak; penjelasan bahwa yang baik belum tentu menurunkan keturunan yang baik pula. ",
        "outro_surah": null,
        "munasabah_prev_surah": "HUBUNGAN SURAH Y\u0100S\u012aN DENGAN\nSURAH A\u1e62-\u1e62\u0100FF\u0100T\n\n1. \tPada Surah Y\u0101s\u012bn disebut secara umum tentang umat-umat yang telah dihancurkan Allah karena ingkar kepada-Nya, sedang Surah a\u1e63-\u1e62\u0101ff\u0101t menjelaskan kisah-kisah itu dengan menyebut kisah-kisah Ibrahim, Isa, dengan kaumnya.\n2. \tPada akhir Surah Y\u0101s\u012bn disebut secara umum keadaan orang-orang mukmin dan orang kafir di hari Kiamat, sedang Surah a\u1e63-\u1e62\u0101ff\u0101t menjelaskannya.\n3. \tPada Surah Y\u0101s\u012bn disebutkan tentang kekuasaan Allah membangkitkan manusia dan menghidupkannya kembali, karena Dialah yang menciptakan mereka dan Dialah yang menghendakinya demikian, sedang Surah a\u1e63-\u1e62\u0101ff\u0101t menjelaskan lebih luas dengan mengemukakan contoh-contoh yang berhubungan dengan itu.\n",
        "munasabah_prev_theme": "Setelah pada ayat-ayat yang lalu disampaikan kekeliruan pandangan kaum kafir Mekah mengenai malaikat yang mereka anggap sebagai putri-putri Allah. Pada ayat-ayat berikut diterangkan sekelumit sifat-sifat malaikat yang perlu diketahui dan diimani oleh manusia.\n",
        "theme_group": "\nSIFAT-SIFAT MALAIKAT\n",
        "kosakata": "Kosakata: Maq\u0101m Ma\u2018l\u016bm  \u0645\u064e\u0642\u064e\u0627\u0645\u064c \u0645\u064e\u0639\u0652\u0644\u064f\u0648\u0652\u0645\u064c (a\u1e63-\u1e62\u0101ff\u0101t/37: 164)\nKata maq\u0101m berasal dari kata q\u0101ma yaq\u016bmu yang berarti berdiri, antonim dari kata jul\u016bs (duduk). Maq\u0101m berarti tempat berdiri dua telapak kaki. Maq\u0101m juga berarti kedudukan, posisi, atau derajat. Kata ini juga diartikan dengan tempat atau lokasi. Maq\u0101m ma\u2018l\u016bm artinya kedudukan yang tertentu sesuai dengan apa yang telah digariskan oleh Sang Maha Pencipta. Masing-masing tidak dapat melampaui batas ketentuan yang telah ditetapkan,  karena itu setiap makhluk diciptakan hanya untuk taat dan beribadah kepada-Nya. \nKalimat maq\u0101m terulang dalam Al-Qur\u2019an sebanyak 14 kali, dua kali disandingkan dengan maq\u0101m kar\u012bm (ad-Dukh\u0101n/44: 26, asy-Syu\u2018ar\u0101'/26: 58),  sekali dengan maq\u0101m am\u012bn (ad-Dukh\u0101n/44: 21),  dua kali dengan maq\u0101m Ibr\u0101h\u012bm (al-Baqarah/2: 125, \u0100li \u2018Imr\u0101n/3: 97), sekali dengan maq\u0101m ma\u1e25m\u016bd (al-Isr\u0101'/17: 79), maq\u0101m ma\u2018l\u016bm (a\u1e63-\u1e62\u0101ff\u0101t/37: 164) dan sisanya disandingkan dengan kata rabb dan \u1e0dam\u012br.    \nSedangkan kata ma\u2018l\u016bm merupakan isim maf\u2018\u016bl dari akar kata \u2018alima ya\u2018lamu yang berarti sifat mengetahui sesuatu. Allah memiliki sifat al-\u2018Al\u012bm, al-\u2018Al\u0101m, al-\u2018\u0100lim yang kesemuanya menunjukkan kepada kemahatahuan Allah terhadap alam dan segala isinya. Kalimat yang tersusun dari huruf-huruf \u2018ain, lam, dan mim menunjukkan kepada sesuatu objek yang jelas sehingga tidak menimbulkan keraguan. Manusia yang memiliki keahlian mengetahui ilmu agama dengan jelas disebut dengan alim atau ulama. Al-\u2018Alamah juga artinya tanda untuk mengetahui sesuatu, seperti bendera disebut juga \u2018alam, bentuk jamaknya adalah \u2018al\u0101m. Dalam Al-Qur\u2019an ditemukan banyak sekali ayat-ayat yang menggunakan akar kata yang sama. Dari kata ini juga terbentuk kata al-\u2018\u0101lam yang berarti semua jenis makhluk yang ada di alam semesta ini atau sesuatu selain Zat Allah. Disebut \u2018alam sebagai tanda bagi manusia dalam memahami kebesaran dan keagungan Allah. Tidak ada bentuk mufrad dari kata \u2018\u0101lam. Ma\u2018l\u016bm berarti sesuatu yang telah diketahui dan ditentukan. Kata ini sudah menjadi istilah dalam bahasa Indonesia untuk hal-hal yang sudah diketahui yaitu maklum. \nPada ayat di atas, Allah menjelaskan tentang kedudukan malaikat sebagai makhluk Allah. Para malaikat telah mempunyai kedudukan yang tertentu (maq\u0101m ma\u2018l\u016bm). Mereka ini memiliki tugas yang tidak boleh dilebihkan atau dikurangi. Semuanya sudah ditentukan sesuai dengan ketetapan-Nya. Dan kenyataannya, mereka adalah makhluk Allah yang senantiasa taat menjalankan segala perintah-Nya, sedikit pun tidak pernah mendurhakai Allah terhadap apa yang diperintahkan-Nya (at-Ta\u1e25r\u012bm/66: 6).\n",
        "sabab_nuzul": null,
        "conclusion": null
    }
}