{
    "id": 3940,
    "surah_id": 37,
    "ayah": 152,
    "page": 451,
    "quarter_hizb": 46,
    "juz": 23,
    "manzil": 6,
    "arabic": "\u0648\u064e\u0644\u064e\u062f\u064e \u0627\u0644\u0644\u0651\u0670\u0647\u064f \u06d9\u0648\u064e\u0627\u0650\u0646\u0651\u064e\u0647\u064f\u0645\u0652 \u0644\u064e\u0643\u0670\u0630\u0650\u0628\u064f\u0648\u0652\u0646\u064e\u06d9",
    "latin": "Waladall\u0101h(u), wa innahum lak\u0101\u017cib\u016bn(a).",
    "translation": "\u201cAllah mempunyai anak.\u201d Sesungguhnya mereka benar-benar pendusta.",
    "no_footnote": null,
    "footnotes": null,
    "surah": {
        "id": 37,
        "arabic": " \u0627\u0644\u0635\u0651\u0670\u06e4\u0641\u0651\u0670\u062a",
        "latin": "A\u1e63-\u1e62\u0101ff\u0101t",
        "transliteration": "As-Saffat",
        "translation": "Barisan-Barisan",
        "num_ayah": 182,
        "page": 446,
        "location": "Makkiyah"
    },
    "tafsir": {
        "wajiz": " \u201cAllah mempunyai anak.\u201d Mahasuci Allah. Tiada sekutu bagi-Nya. Dia tidak beranak dan tidak pula diperanakkan. Dan sungguh, mereka benar-benar pendusta karena tuduhan mereka tidak berdasar sama sekali.",
        "tahlili": "Selanjutnya Allah mengecam lebih keras lagi ucapan atau pandangan mereka bahwa Allah punya anak itu. Allah menegaskan bahwa pandangan mereka itu hanyalah suatu kebohongan besar yang direkayasa. Karena rekayasa seperti itu maka Allah mencap mereka sebagai pembohong-pembohong besar. Untuk mempertegas kecaman terhadap kebohongan mereka itu, Allah bertanya, \u201cApakah Ia memilih anak perempuan daripada anak laki-laki?\u201d Maksudnya: anak perempuan rendah dalam pandangan mereka, dan anak laki-laki mulia, lalu apakah Allah akan memilih anak perempuan dan untuk mereka anak laki-laki? Bila demikian keadaannya berarti Allah bodoh dan mereka pintar. Pandangan itulah yang dikecam Allah, karena Allah tidak mungkin beranak dan tidak memerlukan anak, dan tidak boleh dilecehkan dengan pandangan seperti itu, bahwa untuk Allah cukup anak perempuan sedangkan untuk mereka anak laki-laki. Mereka harus mempertanggungjawabkan dosa besar karena pandangan yang keliru itu dan dosa orang-orang yang mengikutinya. Firman Allah:\n\u0627\u064e\u0641\u064e\u0627\u064e\u0635\u0652\u0641\u0670\u0649\u0643\u064f\u0645\u0652 \u0631\u064e\u0628\u0651\u064f\u0643\u064f\u0645\u0652 \u0628\u0650\u0627\u0644\u0652\u0628\u064e\u0646\u0650\u064a\u0652\u0646\u064e \u0648\u064e\u0627\u062a\u0651\u064e\u062e\u064e\u0630\u064e \u0645\u0650\u0646\u064e \u0627\u0644\u0652\u0645\u064e\u0644\u0670\u06e4\u0649\u0655\u0650\u0643\u064e\u0629\u0650 \u0627\u0650\u0646\u064e\u0627\u062b\u064b\u0627\u06d7 \u0627\u0650\u0646\u0651\u064e\u0643\u064f\u0645\u0652 \u0644\u064e\u062a\u064e\u0642\u064f\u0648\u0652\u0644\u064f\u0648\u0652\u0646\u064e \u0642\u064e\u0648\u0652\u0644\u064b\u0627 \u0639\u064e\u0638\u0650\u064a\u0652\u0645\u064b\u0627 \u08d6 \u0664\u0660 (\u0627\u0644\u0627\u0633\u0631\u0627\u06e4\u0621)\nMaka apakah pantas Tuhan memilihkan anak laki-laki untukmu dan Dia mengambil anak perempuan dari malaikat? Sungguh, kamu benar-benar mengucapkan kata yang besar (dosanya). (al-Isr\u0101'/17: 40)",
        "intro_surah": "Surah ini merupakan surah ke-37 dalam Al-Qur\u2019an dan termasuk dalam kelompok surah-surah Makkiyyah, diturunkan sesudah Surah al-An\u2018\u0101m. Ia terdiri dari 182 ayat.\nNama surah ini diambil dari kata-kata \u201ca\u1e63-\u1e62\u0101ff\u0101t\u201d yang terdapat pada ayat yang pertama, a\u1e63-\u1e62\u0101ff\u0101t berarti \u201cyang berbaris-baris\u201d.\nPada permulaan surah ini diterangkan keadaan malaikat yang berbaris-baris dengan jiwa yang bersih di hadapan Tuhan, tidak dapat digoda oleh iblis dan setan.\nIni semua dikemukakan untuk menjadi pelajaran dan kaca perbandingan tentang ketaatan dan penghambaan diri yang tulus ikhlas kepada Allah swt.\n\nPokok-pokok Isinya:\n1. \tKeimanan:\nPada bagian ini dibentangkan dalil-dalil tentang kemahaesaan Allah dan tentang adanya hari Kebangkitan, Padang Mahsyar di hari Kiamat, dan tentang malaikat yang selalu bertasbih kepada Allah.\n2. \tKisah-kisah:\nTentang Nabi Nuh, Ismail, Musa, Harun, Ilyas, Lut, dan Yunus.\n3. \tLain-lain:\nSikap orang-orang kafir terhadap Al-Qur\u2019an, saling tuduh-menuduh antara kaum kafir dan para pengikut mereka pada hari Kiamat; kenikmatan di surga yang diperoleh orang-orang yang beriman; kisah tentang pohon zaqqum; celaan terhadap orang-orang yang mengatakan bahwa Allah mempunyai anak; penjelasan bahwa yang baik belum tentu menurunkan keturunan yang baik pula. ",
        "outro_surah": null,
        "munasabah_prev_surah": "HUBUNGAN SURAH Y\u0100S\u012aN DENGAN\nSURAH A\u1e62-\u1e62\u0100FF\u0100T\n\n1. \tPada Surah Y\u0101s\u012bn disebut secara umum tentang umat-umat yang telah dihancurkan Allah karena ingkar kepada-Nya, sedang Surah a\u1e63-\u1e62\u0101ff\u0101t menjelaskan kisah-kisah itu dengan menyebut kisah-kisah Ibrahim, Isa, dengan kaumnya.\n2. \tPada akhir Surah Y\u0101s\u012bn disebut secara umum keadaan orang-orang mukmin dan orang kafir di hari Kiamat, sedang Surah a\u1e63-\u1e62\u0101ff\u0101t menjelaskannya.\n3. \tPada Surah Y\u0101s\u012bn disebutkan tentang kekuasaan Allah membangkitkan manusia dan menghidupkannya kembali, karena Dialah yang menciptakan mereka dan Dialah yang menghendakinya demikian, sedang Surah a\u1e63-\u1e62\u0101ff\u0101t menjelaskan lebih luas dengan mengemukakan contoh-contoh yang berhubungan dengan itu.\n",
        "munasabah_prev_theme": "Dalam kisah-kisah yang lalu dijelaskan bagaimana nabi-nabi terdahulu, Nuh, Ibrahim, Musa, Harun, Ilyas, Lut, dan Yunus, ditentang oleh kaum mereka. Mereka diajak untuk menyembah Tuhan yang sebenarnya yaitu Allah, mereka membangkang. Karena tak mungkin lagi diharapkan, mereka dimusnahkan oleh Allah, kecuali umat Nabi Yunus yang diterima iman mereka menjelang datangnya azab atau bencana. Hal yang sama dialami Nabi Muhammad saw dan umatnya. Pada ayat-ayat berikut ini, kaum kafir Mekah diminta agar mereka mengambil pelajaran dari peristiwa-peristiwa itu. Jika menginginkan, Allah bisa saja memusnahkan mereka seperti umat-umat terdahulu itu. Oleh karena itu, mereka hendaknya beriman kepada Allah dengan sebenar-benarnya dan tidak berpandangan keliru mengenai Allah dan para malaikat-Nya.",
        "theme_group": "KEKELIRUAN KEPERCAYAAN KAUM KAFIR MEKAH\nBAHWA MALAIKAT ADALAH ANAK PEREMPUAN ALLAH",
        "kosakata": "Kosakata: Nasab(an) \u0646\u064e\u0633\u064e\u0628\u064b\u0627 (a\u1e63-\u1e62\u0101ff\u0101t/37: 158)\nKata dasarnya nasaba-yansubu-nasaban \u201cmenyebutkan hubungan darahnya\u201d. Nasab adalah hubungan darah seseorang, baik vertikal, antara ayah dengan anak, maupun horizontal, antara saudara-saudaranya dengan anak pamannya. Kaum kafir Mekah memandang antara Allah dan jin ada hubungan darah seperti itu. Hal itu adalah pandangan yang sangat sesat dan dicerca oleh Al-Qur\u2019an.",
        "sabab_nuzul": null,
        "conclusion": null
    }
}