{
    "id": 3959,
    "surah_id": 37,
    "ayah": 171,
    "page": 452,
    "quarter_hizb": 46,
    "juz": 23,
    "manzil": 6,
    "arabic": "\u0648\u064e\u0644\u064e\u0642\u064e\u062f\u0652 \u0633\u064e\u0628\u064e\u0642\u064e\u062a\u0652 \u0643\u064e\u0644\u0650\u0645\u064e\u062a\u064f\u0646\u064e\u0627 \u0644\u0650\u0639\u0650\u0628\u064e\u0627\u062f\u0650\u0646\u064e\u0627 \u0627\u0644\u0652\u0645\u064f\u0631\u0652\u0633\u064e\u0644\u0650\u064a\u0652\u0646\u064e \u06d6",
    "latin": "Wa laqad sabaqat kalimatun\u0101 li\u2018ib\u0101dinal-mursal\u012bn(a).",
    "translation": "Sungguh, janji Kami benar-benar telah tetap bagi hamba-hamba Kami yang menjadi rasul.",
    "no_footnote": null,
    "footnotes": null,
    "surah": {
        "id": 37,
        "arabic": " \u0627\u0644\u0635\u0651\u0670\u06e4\u0641\u0651\u0670\u062a",
        "latin": "A\u1e63-\u1e62\u0101ff\u0101t",
        "transliteration": "As-Saffat",
        "translation": "Barisan-Barisan",
        "num_ayah": 182,
        "page": 446,
        "location": "Makkiyah"
    },
    "tafsir": {
        "wajiz": "Sekalipun para rasul menghadapi rintangan berat dalam dakwahnya, pada akhirnya kebenaran akan menang, sesuai janji Allah. Dan sungguh, janji Kami telah tetap sejak semula bagi hamba-hamba Kami yang menjadi rasul, ",
        "tahlili": "Allah menegaskan bahwa ketetapan-Nya telah berlaku sejak semula berkenaan dengan para rasul-Nya. Mereka itu dibela oleh Allah dan hamba-hamba-Nya yang beriman akan menang. Pernyataan bahwa Allah akan membantu para rasul-Nya ditegaskan dalam ayat lain:\n\u0627\u0650\u0646\u0651\u064e\u0627 \u0644\u064e\u0646\u064e\u0646\u0652\u0635\u064f\u0631\u064f \u0631\u064f\u0633\u064f\u0644\u064e\u0646\u064e\u0627 \u0648\u064e\u0627\u0644\u0651\u064e\u0630\u0650\u064a\u0652\u0646\u064e \u0627\u0670\u0645\u064e\u0646\u064f\u0648\u0652\u0627 \u0641\u0650\u0649 \u0627\u0644\u0652\u062d\u064e\u064a\u0670\u0648\u0629\u0650 \u0627\u0644\u062f\u0651\u064f\u0646\u0652\u064a\u064e\u0627 \u0648\u064e\u064a\u064e\u0648\u0652\u0645\u064e \u064a\u064e\u0642\u064f\u0648\u0652\u0645\u064f \u0627\u0644\u0652\u0627\u064e\u0634\u0652\u0647\u064e\u0627\u062f\u064f\u06d9 \u0665\u0661 (\u063a\u0627\u0641\u0631)\nSesungguhnya Kami akan menolong rasul-rasul Kami dan orang-orang yang beriman dalam kehidupan dunia dan pada hari tampilnya para saksi (hari Kiamat). (G\u0101fir/40: 51)\n\nBahwa para rasul Allah beserta kaum yang beriman akan menang ditegaskan pula dalam ayat lain:\n\u0643\u064e\u062a\u064e\u0628\u064e \u0627\u0644\u0644\u0651\u0670\u0647\u064f \u0644\u064e\u0627\u064e\u063a\u0652\u0644\u0650\u0628\u064e\u0646\u0651\u064e \u0627\u064e\u0646\u064e\u0627\u06e0 \u0648\u064e\u0631\u064f\u0633\u064f\u0644\u0650\u064a\u0652\u06d7 \u0627\u0650\u0646\u0651\u064e \u0627\u0644\u0644\u0651\u0670\u0647\u064e \u0642\u064e\u0648\u0650\u064a\u0651\u064c \u0639\u064e\u0632\u0650\u064a\u0652\u0632\u064c \u0662\u0661 (\u0627\u0644\u0645\u062c\u0627\u062f\u0644\u0629)\nAllah telah menetapkan, \u201cAku dan rasul-rasul-Ku pasti menang.\u201d Sungguh, Allah Mahakuat, Mahaperkasa. (al-Muj\u0101dalah/58: 21)\n\nBukti ketetapan Allah itu sudah jelas dari pengalaman umat-umat terdahulu sebagaimana sudah dibaca kisah-kisah mereka dalam ayat-ayat sebelum ini, yaitu bahwa rasul-rasul Allah beserta mereka yang beriman mendapat pertolongan dari-Nya, sedangkan umat mereka yang durhaka mengalami kehancuran. Begitu pulalah Nabi Muhammad saw, beliau dan pengikutnya akan dibantu oleh Allah sebagaimana rasul-rasul-Nya yang lain, dan beliau beserta kaum Muslimin akan menang menghadapi kaum kafir Mekah, cepat atau lambat. ",
        "intro_surah": "Surah ini merupakan surah ke-37 dalam Al-Qur\u2019an dan termasuk dalam kelompok surah-surah Makkiyyah, diturunkan sesudah Surah al-An\u2018\u0101m. Ia terdiri dari 182 ayat.\nNama surah ini diambil dari kata-kata \u201ca\u1e63-\u1e62\u0101ff\u0101t\u201d yang terdapat pada ayat yang pertama, a\u1e63-\u1e62\u0101ff\u0101t berarti \u201cyang berbaris-baris\u201d.\nPada permulaan surah ini diterangkan keadaan malaikat yang berbaris-baris dengan jiwa yang bersih di hadapan Tuhan, tidak dapat digoda oleh iblis dan setan.\nIni semua dikemukakan untuk menjadi pelajaran dan kaca perbandingan tentang ketaatan dan penghambaan diri yang tulus ikhlas kepada Allah swt.\n\nPokok-pokok Isinya:\n1. \tKeimanan:\nPada bagian ini dibentangkan dalil-dalil tentang kemahaesaan Allah dan tentang adanya hari Kebangkitan, Padang Mahsyar di hari Kiamat, dan tentang malaikat yang selalu bertasbih kepada Allah.\n2. \tKisah-kisah:\nTentang Nabi Nuh, Ismail, Musa, Harun, Ilyas, Lut, dan Yunus.\n3. \tLain-lain:\nSikap orang-orang kafir terhadap Al-Qur\u2019an, saling tuduh-menuduh antara kaum kafir dan para pengikut mereka pada hari Kiamat; kenikmatan di surga yang diperoleh orang-orang yang beriman; kisah tentang pohon zaqqum; celaan terhadap orang-orang yang mengatakan bahwa Allah mempunyai anak; penjelasan bahwa yang baik belum tentu menurunkan keturunan yang baik pula. ",
        "outro_surah": null,
        "munasabah_prev_surah": "HUBUNGAN SURAH Y\u0100S\u012aN DENGAN\nSURAH A\u1e62-\u1e62\u0100FF\u0100T\n\n1. \tPada Surah Y\u0101s\u012bn disebut secara umum tentang umat-umat yang telah dihancurkan Allah karena ingkar kepada-Nya, sedang Surah a\u1e63-\u1e62\u0101ff\u0101t menjelaskan kisah-kisah itu dengan menyebut kisah-kisah Ibrahim, Isa, dengan kaumnya.\n2. \tPada akhir Surah Y\u0101s\u012bn disebut secara umum keadaan orang-orang mukmin dan orang kafir di hari Kiamat, sedang Surah a\u1e63-\u1e62\u0101ff\u0101t menjelaskannya.\n3. \tPada Surah Y\u0101s\u012bn disebutkan tentang kekuasaan Allah membangkitkan manusia dan menghidupkannya kembali, karena Dialah yang menciptakan mereka dan Dialah yang menghendakinya demikian, sedang Surah a\u1e63-\u1e62\u0101ff\u0101t menjelaskan lebih luas dengan mengemukakan contoh-contoh yang berhubungan dengan itu.\n",
        "munasabah_prev_theme": "Di akhir ayat yang lalu dinyatakan bahwa kaum kafir akan mengetahui akibat dari pengingkaran mereka terhadap ajaran yang dibawa Rasulullah. Mereka akan kalah dan menderita baik di dunia maupun di akhirat. Pada ayat-ayat berikut ini dijelaskan bentuk penderitaan mereka itu, juga dijelaskan tentang kemenangan yang akan diraih kaum Muslimin.\n",
        "theme_group": "ISLAM PASTI MENANG",
        "kosakata": "Kosakata: Bis\u0101\u1e25atihim \u0628\u0650\u0633\u064e\u0627\u062d\u064e\u062a\u0650\u0647\u0650\u0645\u0652 (a\u1e63-\u1e62\u0101ff\u0101t/37: 177)\nKata bis\u0101\u1e25atihim terambil dari kata s\u0101\u1e25ah yang memiliki arti suatu tempat yang luas dan lapang. Turunnya sesuatu di halaman yang sangat luas mengisyaratkan banyaknya yang turun. Bentuk jamaknya adalah s\u0101\u1e25\u0101t. S\u0101\u1e25at ad-d\u0101r berarti halaman rumah. As-S\u0101'i\u1e25 adalah air yang terus mengalir yang berada di halaman, bentuk jamaknya adalah suy\u016b\u1e25. Dalam hadis Nabi disebutkan \u201cM\u0101 suqiya bissai\u1e25i fa f\u012bhi al-\u2018usyr (Lahan yang dialiri oleh air yang mengalir maka zakatnya adalah sepersepuluh). Kata nazala yang mendahuluinya mengisyaratkan kehebatan dan penguasaan apa yang diturunkan (dalam hal ini siksa) atas siapa-siapa yang berada di sekitar halaman itu. \nKata ini berasal dari kata s\u0101\u1e25a yang berarti melakukan perjalanan di muka bumi (fas\u012b\u1e25\u016b fi al-ar\u1e0d). Nabi Isa digelari dengan al-Mas\u012b\u1e25 karena beliau senang bepergian, jika malam telah tiba ia melakukan salat sampai tiba waktu subuh. Al-Misy\u0101\u1e25 adalah mereka yang melakukan perjalanan dan melakukan perusakan di muka bumi. Sa'\u012b\u1e25 juga diartikan dengan mereka yang melakukan ibadah puasa dengan menjaga anggota tubuh dari kemaksiatan, diibaratkan dengan mereka yang melakukan perjalanan tanpa makanan (at-Taubah/9: 112, at-Ta\u1e25r\u012bm/66: 5).   \n Ayat ini menjelaskan tentang sikap orang-orang musyrik Mekah yang menantang Muhammad untuk membuktikan kebenaran risalah yang dibawanya agar sesegera mungkin menurunkan azab atau siksa. Ini artinya mereka tidak mempercayai akan adanya siksa Allah. Kemudian Allah menegaskan cepat atau lambat siksa itu pasti akan datang. Apabila siksaan itu turun di halaman (s\u0101\u1e25ah) mereka, pasti amat dahsyat bencana tersebut dan amat buruklah pagi hari yang dialami oleh orang-orang yang diperingatkan itu. Siksa dan bencana yang menimpa mereka digambarkan seperti serangan tentara yang menghancurkan kampung halaman mereka. Mereka diberikan peringatan untuk menyerah tetapi tidak menghiraukannya. Mereka tidak memiliki kesempatan untuk mempertahankan dan menyelamatkan diri mereka. Mereka akan mengalami kehancuran yang pedih. \n",
        "sabab_nuzul": null,
        "conclusion": null
    }
}