{
    "id": 3909,
    "surah_id": 37,
    "ayah": 121,
    "page": 450,
    "quarter_hizb": 45.75,
    "juz": 23,
    "manzil": 6,
    "arabic": "\u0627\u0650\u0646\u0651\u064e\u0627 \u0643\u064e\u0630\u0670\u0644\u0650\u0643\u064e \u0646\u064e\u062c\u0652\u0632\u0650\u0649 \u0627\u0644\u0652\u0645\u064f\u062d\u0652\u0633\u0650\u0646\u0650\u064a\u0652\u0646\u064e",
    "latin": "Inn\u0101 ka\u017c\u0101lika najzil-mu\u1e25sin\u012bn(a).",
    "translation": "Sesungguhnya, demikianlah Kami memberi balasan kepada orang-orang yang berbuat kebaikan.",
    "no_footnote": null,
    "footnotes": null,
    "surah": {
        "id": 37,
        "arabic": " \u0627\u0644\u0635\u0651\u0670\u06e4\u0641\u0651\u0670\u062a",
        "latin": "A\u1e63-\u1e62\u0101ff\u0101t",
        "transliteration": "As-Saffat",
        "translation": "Barisan-Barisan",
        "num_ayah": 182,
        "page": 446,
        "location": "Makkiyah"
    },
    "tafsir": {
        "wajiz": "Demikianlah Kami memberi balasan kepada orang-orang yang berbuat baik, rela berkorban, dan sabar dalam memperjuangkan ajaran tauhid. ",
        "tahlili": "Dua ayat ini menjelaskan bahwa kenikmatan yang besar tersebut di atas seperti kemenangan atas musuh-musuh, petunjuk-petunjuk Tuhan, kemuliaan-kemuliaan, dan sebagainya adalah berkat amal kebajikan yang mereka lakukan, dan pengorbanan serta penderitaan mereka dalam memperjuangkan penegakan agama tauhid. Jadi begitulah Allah memberikan pembalasan pahala dunia-akhirat atas orang-orang yang berbuat kebaikan untuk kemaslahatan sesama umat manusia.\nYang mendorong keduanya mengerjakan amal-amal kebajikan dan bersedia mengalami penderitaan adalah iman yang bersemi dalam dada mereka. Dari landasan iman yang kuat lahirlah perbuatan-perbuatan yang mulia, itulah sebabnya Allah menegaskan bahwa keduanya adalah hamba-hamba Allah yang beriman.",
        "intro_surah": "Surah ini merupakan surah ke-37 dalam Al-Qur\u2019an dan termasuk dalam kelompok surah-surah Makkiyyah, diturunkan sesudah Surah al-An\u2018\u0101m. Ia terdiri dari 182 ayat.\nNama surah ini diambil dari kata-kata \u201ca\u1e63-\u1e62\u0101ff\u0101t\u201d yang terdapat pada ayat yang pertama, a\u1e63-\u1e62\u0101ff\u0101t berarti \u201cyang berbaris-baris\u201d.\nPada permulaan surah ini diterangkan keadaan malaikat yang berbaris-baris dengan jiwa yang bersih di hadapan Tuhan, tidak dapat digoda oleh iblis dan setan.\nIni semua dikemukakan untuk menjadi pelajaran dan kaca perbandingan tentang ketaatan dan penghambaan diri yang tulus ikhlas kepada Allah swt.\n\nPokok-pokok Isinya:\n1. \tKeimanan:\nPada bagian ini dibentangkan dalil-dalil tentang kemahaesaan Allah dan tentang adanya hari Kebangkitan, Padang Mahsyar di hari Kiamat, dan tentang malaikat yang selalu bertasbih kepada Allah.\n2. \tKisah-kisah:\nTentang Nabi Nuh, Ismail, Musa, Harun, Ilyas, Lut, dan Yunus.\n3. \tLain-lain:\nSikap orang-orang kafir terhadap Al-Qur\u2019an, saling tuduh-menuduh antara kaum kafir dan para pengikut mereka pada hari Kiamat; kenikmatan di surga yang diperoleh orang-orang yang beriman; kisah tentang pohon zaqqum; celaan terhadap orang-orang yang mengatakan bahwa Allah mempunyai anak; penjelasan bahwa yang baik belum tentu menurunkan keturunan yang baik pula. ",
        "outro_surah": null,
        "munasabah_prev_surah": "HUBUNGAN SURAH Y\u0100S\u012aN DENGAN\nSURAH A\u1e62-\u1e62\u0100FF\u0100T\n\n1. \tPada Surah Y\u0101s\u012bn disebut secara umum tentang umat-umat yang telah dihancurkan Allah karena ingkar kepada-Nya, sedang Surah a\u1e63-\u1e62\u0101ff\u0101t menjelaskan kisah-kisah itu dengan menyebut kisah-kisah Ibrahim, Isa, dengan kaumnya.\n2. \tPada akhir Surah Y\u0101s\u012bn disebut secara umum keadaan orang-orang mukmin dan orang kafir di hari Kiamat, sedang Surah a\u1e63-\u1e62\u0101ff\u0101t menjelaskannya.\n3. \tPada Surah Y\u0101s\u012bn disebutkan tentang kekuasaan Allah membangkitkan manusia dan menghidupkannya kembali, karena Dialah yang menciptakan mereka dan Dialah yang menghendakinya demikian, sedang Surah a\u1e63-\u1e62\u0101ff\u0101t menjelaskan lebih luas dengan mengemukakan contoh-contoh yang berhubungan dengan itu.\n",
        "munasabah_prev_theme": "Ayat-ayat yang lalu mengisahkan kelahiran Ishak serta menjelaskan keberkahan yang diberikan kepadanya dan orang tuanya, dijelaskan pula tentang keadaan keturunannya yang baik dan yang buruk. Ayat-ayat berikut ini mengisahkan dua orang nabi dan keturunan Ishak yang berbuat kebajikan terhadap kaumnya yaitu Musa dan Harun.",
        "theme_group": "KISAH NABI MUSA DAN NABI HARUN\n",
        "kosakata": "Kosakata: Al-Karb al-\u2018A\u1e93\u012bm \u0627\u0644\u0652\u0643\u064e\u0631\u0652\u0628 \u0627\u0644\u0652\u0639\u064e\u0638\u0650\u064a\u0652\u0645 (a\u1e63-\u1e62\u0101ff\u0101t/37: 15)\nAl-Karb berasal dari karuba-yakrubu-kur\u016bban artinya \u201cmembalik tanah\u201d. Al-Karb adalah \u201cmusibah dahsyat\u201d. Dinamakan demikian karena musibah itu sangat menyedihkan sehingga membongkar hati. Al-Karb al-\u2018a\u1e93\u012bm artinya adalah musibah besar. Musibah yang dimaksud adalah yang menimpa Bani Israil, yaitu pembersihan etnis oleh Fir\u2018aun dan aparat-aparatnya. Tetapi Allah menyelamatkan mereka dari musibah itu.",
        "sabab_nuzul": null,
        "conclusion": null
    }
}