{
    "id": 3983,
    "surah_id": 38,
    "ayah": 13,
    "page": 453,
    "quarter_hizb": 46,
    "juz": 23,
    "manzil": 6,
    "arabic": "\u0648\u064e\u062b\u064e\u0645\u064f\u0648\u0652\u062f\u064f \u0648\u064e\u0642\u064e\u0648\u0652\u0645\u064f \u0644\u064f\u0648\u0652\u0637\u064d \u0648\u0651\u064e\u0627\u064e\u0635\u0652\u062d\u0670\u0628\u064f \u0644\u0652\u0640\u0654\u064e\u064a\u0652\u0643\u064e\u0629\u0650 \u06d7 \u0627\u064f\u0648\u0644\u0670\u06e4\u0649\u0655\u0650\u0643\u064e \u0627\u0644\u0652\u0627\u064e\u062d\u0652\u0632\u064e\u0627\u0628\u064f",
    "latin": "Wa \u1e61am\u016bdu wa qaumu l\u016b\u1e6diw wa a\u1e63\u1e25\u0101bul-aikah(ti), ul\u0101'ikal-a\u1e25z\u0101b(u).",
    "translation": "(Begitu juga) Samud, kaum Lut, dan penduduk Aikah. Mereka itulah golongan yang bersekutu (menentang para rasul).",
    "no_footnote": null,
    "footnotes": null,
    "surah": {
        "id": 38,
        "arabic": "\u0635\u06e4",
        "latin": "\u1e62\u0101d ",
        "transliteration": "Sad",
        "translation": "\u1e62\u0101d ",
        "num_ayah": 88,
        "page": 453,
        "location": "Makkiyah"
    },
    "tafsir": {
        "wajiz": "Dan hal yang sama juga dilakukan oleh kaum Samud, kaum Nabi Lut, dan penduduk Aikah, yakni kaum Nabi Syuaib. Mereka pun mendustakan para rasul Allah. Kaum Samud dihancurkan dengan suara menggelegar, kaum Nabi Lut dengan hujan batu, dan penduduk Aikah dengan kilat yang menyambar. Mereka itulah golongan-golongan yang bersekutu dalam menyembah berhala dan berbuat kejahatan.",
        "tahlili": "Pada kedua ayat ini, Allah menjelaskan enam kaum yang mendustakan rasul-rasul Allah, serta akibat yang mereka derita, dengan maksud agar menjadi pelajaran bagi kaum musyrik Mekah, sehingga mereka terlepas dari kesesatan, dan mau menerima tuntunan hidayah. Mereka itu adalah:\nPertama, kaum Nuh yang menuduh Nabi Nuh telah memberikan nasihat dan peringatan yang dibuat-buat. Oleh karena itu, mereka memperolok-olok, bahkan mengatakan bahwa Nabi Nuh gila. Meskipun Nabi Nuh telah berulang kali menyeru kepada mereka dengan lemah-lembut agar mereka beragama tauhid tetapi tantangan mereka tidak berkurang juga, bahkan bertambah-tambah, akhirnya Nabi Nuh berdoa kepada Allah.\nFirman Allah:\n\u0648\u064e\u0642\u064e\u0627\u0644\u064e \u0646\u064f\u0648\u0652\u062d\u064c \u0631\u0651\u064e\u0628\u0651\u0650 \u0644\u064e\u0627 \u062a\u064e\u0630\u064e\u0631\u0652 \u0639\u064e\u0644\u064e\u0649 \u0627\u0644\u0652\u0627\u064e\u0631\u0652\u0636\u0650 \u0645\u0650\u0646\u064e \u0627\u0644\u0652\u0643\u0670\u0641\u0650\u0631\u0650\u064a\u0652\u0646\u064e \u062f\u064e\u064a\u0651\u064e\u0627\u0631\u064b\u0627 \u0662\u0666 \u0627\u0650\u0646\u0651\u064e\u0643\u064e \u0627\u0650\u0646\u0652 \u062a\u064e\u0630\u064e\u0631\u0652\u0647\u064f\u0645\u0652 \u064a\u064f\u0636\u0650\u0644\u0651\u064f\u0648\u0652\u0627 \u0639\u0650\u0628\u064e\u0627\u062f\u064e\u0643\u064e \u0648\u064e\u0644\u064e\u0627 \u064a\u064e\u0644\u0650\u062f\u064f\u0648\u0652\u0653\u0627 \u0627\u0650\u0644\u0651\u064e\u0627 \u0641\u064e\u0627\u062c\u0650\u0631\u064b\u0627 \u0643\u064e\u0641\u0651\u064e\u0627\u0631\u064b\u0627 \u0662\u0667 \nDan Nuh berkata, \u201cYa Tuhanku, janganlah Engkau biarkan seorang pun di antara orang-orang kafir itu tinggal di atas bumi. Sesungguhnya jika Engkau biarkan mereka tinggal, niscaya mereka akan menyesatkan hamba-hamba-Mu, dan mereka hanya akan melahirkan anak-anak yang jahat dan tidak tahu bersyukur.\u201d (N\u016b\u1e25/71: 26-27)\n\nKaum Nuh tetap mendustakan seruannya, bahkan tenggelam dalam kesesatan. Allah membinasakan mereka dengan perantaraan badai, topan, dan banjir sebagai balasan dari kejahatan yang mereka lakukan. Akan tetapi, Nuh dan pengikut-pengikutnya diselamatkan Allah dari siksaan itu.\nAllah berfirman:\n\u0641\u064e\u0641\u064e\u062a\u064e\u062d\u0652\u0646\u064e\u0627\u0653 \u0627\u064e\u0628\u0652\u0648\u064e\u0627\u0628\u064e \u0627\u0644\u0633\u0651\u064e\u0645\u064e\u0627\u06e4\u0621\u0650 \u0628\u0650\u0645\u064e\u0627\u06e4\u0621\u064d \u0645\u0651\u064f\u0646\u0652\u0647\u064e\u0645\u0650\u0631\u064d\u06d6 \u0661\u0661 \u0648\u0651\u064e\u0641\u064e\u062c\u0651\u064e\u0631\u0652\u0646\u064e\u0627 \u0627\u0644\u0652\u0627\u064e\u0631\u0652\u0636\u064e \u0639\u064f\u064a\u064f\u0648\u0652\u0646\u064b\u0627 \u0641\u064e\u0627\u0644\u0652\u062a\u064e\u0642\u064e\u0649 \u0627\u0644\u0652\u0645\u064e\u0627\u06e4\u0621\u064f \u0639\u064e\u0644\u0670\u0653\u0649 \u0627\u064e\u0645\u0652\u0631\u064d \u0642\u064e\u062f\u0652 \u0642\u064f\u062f\u0650\u0631\u064e \u06da \u0661\u0662 \u0648\u064e\u062d\u064e\u0645\u064e\u0644\u0652\u0646\u0670\u0647\u064f \u0639\u064e\u0644\u0670\u0649 \u0630\u064e\u0627\u062a\u0650 \u0627\u064e\u0644\u0652\u0648\u064e\u0627\u062d\u064d \u0648\u0651\u064e\u062f\u064f\u0633\u064f\u0631\u064d\u06d9 \u0661\u0663 \u062a\u064e\u062c\u0652\u0631\u0650\u064a\u0652 \u0628\u0650\u0627\u064e\u0639\u0652\u064a\u064f\u0646\u0650\u0646\u064e\u0627\u06da \u062c\u064e\u0632\u064e\u0627\u06e4\u0621\u064b \u0644\u0650\u0651\u0645\u064e\u0646\u0652 \u0643\u064e\u0627\u0646\u064e \u0643\u064f\u0641\u0650\u0631\u064e \u0661\u0664\nLalu Kami bukakan pintu-pintu langit dengan (menurunkan) air yang tercurah, dan Kami jadikan bumi menyemburkan mata-mata air maka bertemulah (air-air) itu sehingga (meluap menimbulkan) keadaan (bencana) yang telah ditetapkan. Dan Kami angkut dia (Nuh) ke atas (kapal) yang terbuat dari papan dan pasak, yang berlayar dengan pemeliharaan (pengawasan) Kami sebagai balasan bagi orang yang telah diingkari (kaumnya). (al-Qamar/54: 11-14)\n\nKedua, kaum \u2018Ad yang mendustakan seruan Hud yang mengajak mereka menyembah Allah Yang Maha Esa dan meninggalkan sembahan-sembahan yang mereka persekutukan dengan Allah. Akan tetapi, kaum \u2018Ad menentang seruan itu, bahkan mereka memperolok-olokkan Hud dan mengatakannya gila. Itulah sebabnya mereka dibinasakan dengan angin yang sangat dingin lagi kencang.\nAllah berfirman:\n\u0648\u064e\u0627\u064e\u0645\u0651\u064e\u0627 \u0639\u064e\u0627\u062f\u064c \u0641\u064e\u0627\u064f\u0647\u0652\u0644\u0650\u0643\u064f\u0648\u0652\u0627 \u0628\u0650\u0631\u0650\u064a\u0652\u062d\u064d \u0635\u064e\u0631\u0652\u0635\u064e\u0631\u064d \u0639\u064e\u0627\u062a\u0650\u064a\u064e\u0629\u064d\u06d9 \u0666 \u0633\u064e\u062e\u0651\u064e\u0631\u064e\u0647\u064e\u0627 \u0639\u064e\u0644\u064e\u064a\u0652\u0647\u0650\u0645\u0652 \u0633\u064e\u0628\u0652\u0639\u064e \u0644\u064e\u064a\u064e\u0627\u0644\u064d \u0648\u0651\u064e\u062b\u064e\u0645\u0670\u0646\u0650\u064a\u064e\u0629\u064e \u0627\u064e\u064a\u0651\u064e\u0627\u0645\u064d\u06d9 \u062d\u064f\u0633\u064f\u0648\u0652\u0645\u064b\u0627 \u0641\u064e\u062a\u064e\u0631\u064e\u0649 \u0627\u0644\u0652\u0642\u064e\u0648\u0652\u0645\u064e \u0641\u0650\u064a\u0652\u0647\u064e\u0627 \u0635\u064e\u0631\u0652\u0639\u0670\u0649\u06d9 \u0643\u064e\u0627\u064e\u0646\u0651\u064e\u0647\u064f\u0645\u0652 \u0627\u064e\u0639\u0652\u062c\u064e\u0627\u0632\u064f \u0646\u064e\u062e\u0652\u0644\u064d \u062e\u064e\u0627\u0648\u0650\u064a\u064e\u0629\u064d\u06da \u0667 \u0641\u064e\u0647\u064e\u0644\u0652 \u062a\u064e\u0631\u0670\u0649 \u0644\u064e\u0647\u064f\u0645\u0652 \u0645\u0650\u0651\u0646\u0652\u06e2 \u0628\u064e\u0627\u0642\u0650\u064a\u064e\u0629\u064d \u0668 \nSedangkan kaum \u2018Ad, mereka telah dibinasakan dengan angin topan yang sangat dingin,  Allah menimpakan angin itu kepada mereka selama tujuh malam delapan hari terus-menerus; maka kamu melihat kaum \u2018Ad pada waktu itu mati bergelimpangan seperti batang-batang pohon kurma yang telah kosong (lapuk). Maka adakah kamu melihat seorang pun yang masih tersisa di antara mereka? (al-\u1e24\u0101qqah/69: 6-8)\n\nKetiga, Fir\u2018aun yang mempunyai tentara yang besar. Di samping itu, ia mempunyai tempat penyiksaan khusus guna menyiksa musuh-musuhnya dan bangunan yang tinggi dan kokoh. Allah telah mengutus Musa kepada Fir\u2018aun dan para pengikutnya agar menghentikan kesesatannya dan menyembah Allah Yang Maha Esa. Kebenaran seruan Musa itu dikuatkan pula dengan mukjizat. Akan tetapi Fir\u2018aun dan para pengikutnya tetap berkeras hati menolak seruan Musa, bahkan bersikap sombong dan menghinanya dengan menyatakan bahwa dialah tuhan yang maha tinggi. Maka Allah memerintahkan Musa untuk mengungsikan kaumnya agar selamat dari kekejaman Fir\u2018aun. Dengan begitu, selamatlah Musa dan kaum Bani Israil dari pengejaran Fir\u2018aun sedang dia dengan bala tentaranya tenggelam ditelan gelombang laut.\nAllah berfirman:\n\u06de \u0648\u064e\u062c\u064e\u0627\u0648\u064e\u0632\u0652\u0646\u064e\u0627 \u0628\u0650\u0628\u064e\u0646\u0650\u064a\u0652\u0653 \u0627\u0650\u0633\u0652\u0631\u064e\u0627\u06e4\u0621\u0650\u064a\u0652\u0644\u064e \u0627\u0644\u0652\u0628\u064e\u062d\u0652\u0631\u064e \u0641\u064e\u0627\u064e\u062a\u0652\u0628\u064e\u0639\u064e\u0647\u064f\u0645\u0652 \u0641\u0650\u0631\u0652\u0639\u064e\u0648\u0652\u0646\u064f \u0648\u064e\u062c\u064f\u0646\u064f\u0648\u0652\u062f\u064f\u0647\u0657 \u0628\u064e\u063a\u0652\u064a\u064b\u0627 \u0648\u0651\u064e\u0639\u064e\u062f\u0652\u0648\u064b\u0627 \u06d7\u062d\u064e\u062a\u0651\u0670\u0649\u0653 \u0627\u0650\u0630\u064e\u0627\u0653 \u0627\u064e\u062f\u0652\u0631\u064e\u0643\u064e\u0647\u064f \u0627\u0644\u0652\u063a\u064e\u0631\u064e\u0642\u064f \u0642\u064e\u0627\u0644\u064e \u0627\u0670\u0645\u064e\u0646\u0652\u062a\u064f \u0627\u064e\u0646\u0651\u064e\u0647\u0657 \u0644\u064e\u0627\u0653 \u0627\u0650\u0644\u0670\u0647\u064e \u0627\u0650\u0644\u0651\u064e\u0627 \u0627\u0644\u0651\u064e\u0630\u0650\u064a\u0652\u0653 \u0627\u0670\u0645\u064e\u0646\u064e\u062a\u0652 \u0628\u0650\u0647\u0656 \u0628\u064e\u0646\u064f\u0648\u0652\u0653\u0627 \u0627\u0650\u0633\u0652\u0631\u064e\u0627\u06e4\u0621\u0650\u064a\u0652\u0644\u064e \u0648\u064e\u0627\u064e\u0646\u064e\u0627\u06e0 \u0645\u0650\u0646\u064e \u0627\u0644\u0652\u0645\u064f\u0633\u0652\u0644\u0650\u0645\u0650\u064a\u0652\u0646\u064e \u0669\u0660 \u0627\u0670\u06e4\u0644\u0652\u0640\u0654\u0670\u0646\u064e \u0648\u064e\u0642\u064e\u062f\u0652 \u0639\u064e\u0635\u064e\u064a\u0652\u062a\u064e \u0642\u064e\u0628\u0652\u0644\u064f \u0648\u064e\u0643\u064f\u0646\u0652\u062a\u064e \u0645\u0650\u0646\u064e \u0627\u0644\u0652\u0645\u064f\u0641\u0652\u0633\u0650\u062f\u0650\u064a\u0652\u0646\u064e \u0669\u0661 \u0641\u064e\u0627\u0644\u0652\u064a\u064e\u0648\u0652\u0645\u064e \u0646\u064f\u0646\u064e\u062c\u0651\u0650\u064a\u0652\u0643\u064e \u0628\u0650\u0628\u064e\u062f\u064e\u0646\u0650\u0643\u064e \u0644\u0650\u062a\u064e\u0643\u064f\u0648\u0652\u0646\u064e \u0644\u0650\u0645\u064e\u0646\u0652 \u062e\u064e\u0644\u0652\u0641\u064e\u0643\u064e \u0627\u0670\u064a\u064e\u0629\u064b \u06d7\u0648\u064e\u0627\u0650\u0646\u0651\u064e \u0643\u064e\u062b\u0650\u064a\u0652\u0631\u064b\u0627 \u0645\u0650\u0651\u0646\u064e \u0627\u0644\u0646\u0651\u064e\u0627\u0633\u0650 \u0639\u064e\u0646\u0652 \u0627\u0670\u064a\u0670\u062a\u0650\u0646\u064e\u0627 \u0644\u064e\u063a\u0670\u0641\u0650\u0644\u064f\u0648\u0652\u0646\u064e \u08d6 \u0669\u0662 \nDan Kami selamatkan Bani Israil melintasi laut, kemudian Fir\u2018aun dan bala tentaranya mengikuti mereka, untuk menzalimi dan menindas (mereka). Sehingga ketika Fir\u2018aun hampir tenggelam dia berkata, \u201cAku percaya bahwa tidak ada tuhan melainkan Tuhan yang dipercayai oleh Bani Israil, dan aku termasuk orang-orang Muslim (berserah diri).\u201d Mengapa baru sekarang (kamu beriman), padahal sesungguhnya engkau telah durhaka sejak dahulu, dan engkau termasuk orang yang berbuat kerusakan. Maka pada hari ini Kami selamatkan jasadmu agar engkau dapat menjadi pelajaran bagi orang-orang yang datang setelahmu, tetapi kebanyakan manusia tidak mengindahkan tanda-tanda (kekuasaan) Kami. (Y\u016bnus/10: 90-92)\n\nMakna aut\u0101d yang lain adalah pasung-pasung yang digunakan Fir\u2018aun untuk menyiksa. Ada juga yang mengatakan bahwa Fir\u2018aun mempunyai istana yang megah dan kokoh.\nKeempat, kaum Samud yang mendustakan seruan Nabi Saleh yang diutus untuk mereka. Mereka telah berbuat kesalahan yang melampaui batas. Mereka telah menyembelih unta yang seharusnya dipelihara. Sebagai balasan atas kedurhakaan mereka, Allah telah menimpakan suara keras yang mengguntur, hingga mereka musnah seperti rumput-rumput kering.\nAllah berfirman:\n\u0643\u064e\u0630\u0651\u064e\u0628\u064e\u062a\u0652 \u062b\u064e\u0645\u064f\u0648\u0652\u062f\u064f \u0628\u0650\u0627\u0644\u0646\u0651\u064f\u0630\u064f\u0631\u0650 \u0662\u0663 \u0641\u064e\u0642\u064e\u0627\u0644\u064f\u0648\u0652\u0653\u0627 \u0627\u064e\u0628\u064e\u0634\u064e\u0631\u064b\u0627 \u0645\u0650\u0651\u0646\u0651\u064e\u0627 \u0648\u064e\u0627\u062d\u0650\u062f\u064b\u0627 \u0646\u0651\u064e\u062a\u0651\u064e\u0628\u0650\u0639\u064f\u0647\u0657\u0653 \u06d9\u0627\u0650\u0646\u0651\u064e\u0627\u0653 \u0627\u0650\u0630\u064b\u0627 \u0644\u0651\u064e\u0641\u0650\u064a\u0652 \u0636\u064e\u0644\u0670\u0644\u064d \u0648\u0651\u064e\u0633\u064f\u0639\u064f\u0631\u064d \u0662\u0664 \u0621\u064e\u0627\u064f\u0644\u0652\u0642\u0650\u064a\u064e \u0627\u0644\u0630\u0651\u0650\u0643\u0652\u0631\u064f \u0639\u064e\u0644\u064e\u064a\u0652\u0647\u0650 \u0645\u0650\u0646\u0652\u06e2 \u0628\u064e\u064a\u0652\u0646\u0650\u0646\u064e\u0627 \u0628\u064e\u0644\u0652 \u0647\u064f\u0648\u064e \u0643\u064e\u0630\u0651\u064e\u0627\u0628\u064c \u0627\u064e\u0634\u0650\u0631\u064c \u0662\u0665 \u0633\u064e\u064a\u064e\u0639\u0652\u0644\u064e\u0645\u064f\u0648\u0652\u0646\u064e \u063a\u064e\u062f\u064b\u0627 \u0645\u0651\u064e\u0646\u0650 \u0627\u0644\u0652\u0643\u064e\u0630\u0651\u064e\u0627\u0628\u064f \u0627\u0644\u0652\u0627\u064e\u0634\u0650\u0631\u064f \u0662\u0666 \u0627\u0650\u0646\u0651\u064e\u0627 \u0645\u064f\u0631\u0652\u0633\u0650\u0644\u064f\u0648\u0627 \u0627\u0644\u0646\u0651\u064e\u0627\u0642\u064e\u0629\u0650 \u0641\u0650\u062a\u0652\u0646\u064e\u0629\u064b \u0644\u0651\u064e\u0647\u064f\u0645\u0652 \u0641\u064e\u0627\u0631\u0652\u062a\u064e\u0642\u0650\u0628\u0652\u0647\u064f\u0645\u0652 \u0648\u064e\u0627\u0635\u0652\u0637\u064e\u0628\u0650\u0631\u0652\u06d6 \u0662\u0667 \u0648\u064e\u0646\u064e\u0628\u0651\u0650\u0626\u0652\u0647\u064f\u0645\u0652 \u0627\u064e\u0646\u0651\u064e \u0627\u0644\u0652\u0645\u064e\u0627\u06e4\u0621\u064e \u0642\u0650\u0633\u0652\u0645\u064e\u0629\u064c \u06e2 \u0628\u064e\u064a\u0652\u0646\u064e\u0647\u064f\u0645\u0652\u06da \u0643\u064f\u0644\u0651\u064f \u0634\u0650\u0631\u0652\u0628\u064d \u0645\u0651\u064f\u062d\u0652\u062a\u064e\u0636\u064e\u0631\u064c \u0662\u0668 \u0641\u064e\u0646\u064e\u0627\u062f\u064e\u0648\u0652\u0627 \u0635\u064e\u0627\u062d\u0650\u0628\u064e\u0647\u064f\u0645\u0652 \u0641\u064e\u062a\u064e\u0639\u064e\u0627\u0637\u0670\u0649 \u0641\u064e\u0639\u064e\u0642\u064e\u0631\u064e \u0662\u0669 \u0641\u064e\u0643\u064e\u064a\u0652\u0641\u064e \u0643\u064e\u0627\u0646\u064e \u0639\u064e\u0630\u064e\u0627\u0628\u0650\u064a\u0652 \u0648\u064e\u0646\u064f\u0630\u064f\u0631\u0650 \u0663\u0660 \u0627\u0650\u0646\u0651\u064e\u0627\u0653 \u0627\u064e\u0631\u0652\u0633\u064e\u0644\u0652\u0646\u064e\u0627 \u0639\u064e\u0644\u064e\u064a\u0652\u0647\u0650\u0645\u0652 \u0635\u064e\u064a\u0652\u062d\u064e\u0629\u064b \u0648\u0651\u064e\u0627\u062d\u0650\u062f\u064e\u0629\u064b \u0641\u064e\u0643\u064e\u0627\u0646\u064f\u0648\u0652\u0627 \u0643\u064e\u0647\u064e\u0634\u0650\u064a\u0652\u0645\u0650 \u0627\u0644\u0652\u0645\u064f\u062d\u0652\u062a\u064e\u0638\u0650\u0631\u0650 \u0663\u0661\nKaum \u1e60am\u016bd pun telah mendustakan peringatan itu. Maka mereka berkata, \u201cBagaimana kita akan mengikuti seorang manusia (biasa) di antara kita? Sungguh, kalau begitu kita benar-benar telah sesat dan gila. Apakah wahyu itu diturunkan kepadanya di antara kita? Pastilah dia (Saleh) seorang yang sangat pendusta (dan) sombong.\u201d Kelak mereka akan mengetahui siapa yang sebenarnya sangat pendusta (dan) sombong itu. Sesungguhnya Kami akan mengirimkan unta betina sebagai cobaan bagi mereka, maka tunggulah mereka dan bersabarlah (Saleh). Dan beritahukanlah kepada mereka bahwa air itu dibagi di antara mereka (dengan unta betina itu); setiap orang berhak mendapat giliran minum. Maka mereka memanggil kawannya, lalu dia menangkap (unta itu) dan memotongnya. Maka betapa dahsyatnya azab-Ku dan peringatan-Ku! Kami kirimkan atas mereka satu suara yang keras mengguntur, maka jadilah mereka seperti batang-batang kering yang lapuk. (al-Qamar/54: 23-31)\n\nKelima, Nabi Lut juga didustakan kaumnya. Berulang kali dia memperingatkan kaumnya agar bertakwa kepada Allah dan meninggalkan perbuatan keji, melakukan homoseksual, namun mereka tetap tidak menghiraukannya. Allah lalu memerintahkan Lut dan keluarganya meninggalkan Sodom karena mereka akan diazab dengan siksa yang membinasakan.\nAllah berfirman:\n\u0643\u064e\u0630\u0651\u064e\u0628\u064e\u062a\u0652 \u0642\u064e\u0648\u0652\u0645\u064f \u0644\u064f\u0648\u0652\u0637\u064d \u06e2\u0628\u0650\u0627\u0644\u0646\u0651\u064f\u0630\u064f\u0631\u0650 \u0663\u0663 \u0627\u0650\u0646\u0651\u064e\u0627\u0653 \u0627\u064e\u0631\u0652\u0633\u064e\u0644\u0652\u0646\u064e\u0627 \u0639\u064e\u0644\u064e\u064a\u0652\u0647\u0650\u0645\u0652 \u062d\u064e\u0627\u0635\u0650\u0628\u064b\u0627 \u0627\u0650\u0644\u0651\u064e\u0627\u0653 \u0627\u0670\u0644\u064e \u0644\u064f\u0648\u0652\u0637\u064d \u06d7\u0646\u064e\u062c\u0651\u064e\u064a\u0652\u0646\u0670\u0647\u064f\u0645\u0652 \u0628\u0650\u0633\u064e\u062d\u064e\u0631\u064d\u06d9 \u0663\u0664\nKaum Lut pun telah mendustakan peringatan itu. Sesungguhnya Kami kirimkan kepada mereka badai yang membawa batu-batu (yang menimpa mereka), kecuali keluarga Lut. Kami selamatkan mereka sebelum fajar menyingsing. (al-Qamar/54: 33-34)\n\nKeenam, A\u1e63\u1e25\u0101bul Aikah, yang merupakan kaum Nabi Syuaib, juga mendustakan nabinya. Nabi Syuaib mengajak mereka agar menyembah Allah Yang Maha Esa, melarang mempersekutukan-Nya, dan tidak mengurangi timbangan. Akan tetapi, kaumnya bukan saja menolak seruan itu, bahkan mereka bersekutu menentangnya. Itulah sebabnya mereka dibinasakan dengan kilat yang menyambar mereka dalam keadaan gelap gulita.\nAllah berfirman:\n\u0641\u064e\u0627\u064e\u0633\u0652\u0642\u0650\u0637\u0652 \u0639\u064e\u0644\u064e\u064a\u0652\u0646\u064e\u0627 \u0643\u0650\u0633\u064e\u0641\u064b\u0627 \u0645\u0651\u0650\u0646\u064e \u0627\u0644\u0633\u0651\u064e\u0645\u064e\u0627\u06e4\u0621\u0650 \u0627\u0650\u0646\u0652 \u0643\u064f\u0646\u0652\u062a\u064e \u0645\u0650\u0646\u064e \u0627\u0644\u0635\u0651\u0670\u062f\u0650\u0642\u0650\u064a\u0652\u0646\u064e \u06d7 \u0661\u0668\u0667 \u0642\u064e\u0627\u0644\u064e \u0631\u064e\u0628\u0651\u0650\u064a\u0652\u0653 \u0627\u064e\u0639\u0652\u0644\u064e\u0645\u064f \u0628\u0650\u0645\u064e\u0627 \u062a\u064e\u0639\u0652\u0645\u064e\u0644\u064f\u0648\u0652\u0646\u064e \u0661\u0668\u0668 \u0641\u064e\u0643\u064e\u0630\u0651\u064e\u0628\u064f\u0648\u0652\u0647\u064f \u0641\u064e\u0627\u064e\u062e\u064e\u0630\u064e\u0647\u064f\u0645\u0652 \u0639\u064e\u0630\u064e\u0627\u0628\u064f \u064a\u064e\u0648\u0652\u0645\u0650 \u0627\u0644\u0638\u0651\u064f\u0644\u0651\u064e\u0629\u0650 \u06d7\u0627\u0650\u0646\u0651\u064e\u0647\u0657 \u0643\u064e\u0627\u0646\u064e \u0639\u064e\u0630\u064e\u0627\u0628\u064e \u064a\u064e\u0648\u0652\u0645\u064d \u0639\u064e\u0638\u0650\u064a\u0652\u0645\u064d \u0661\u0668\u0669\n\u201cMaka jatuhkanlah kepada kami gumpalan dari langit, jika engkau termasuk orang-orang yang benar.\u201d Dia (Syuaib) berkata, \u201cTuhanku lebih mengetahui apa yang kamu kerjakan.\u201d Kemudian mereka mendustakannya (Syuaib), lalu mereka ditimpa azab pada hari yang gelap. Sungguh, itulah azab pada hari yang dahsyat. (asy-Syu\u2018ar\u0101'/26: 187-189)",
        "intro_surah": "Surah \u1e62\u0101d terdiri dari 88 ayat, termasuk surah Makkiyyah, diturunkan sesudah Surah al-Qamar dan sebelum Surah al-A\u2018r\u0101f. Surah ini dinamakan Surah \u1e62\u0101d karena dimulai dengan huruf \u201c\u1e62\u0101d\u201d. \n\nPokok-pokok Isinya\n1.\tKeimanan:\na.\tKeesaan Allah yang telah menciptakan alam, mengirim nabi-nabi, menurunkan Al-Qur\u2019an, menciptakan hari akhirat, dan membalas yang baik dengan surga dan yang jahat dengan neraka.\nb.\tDalam surah ini Allah bersumpah dengan Al-Qur\u2019an untuk menunjukkan bahwa Kitab itu betul-betul wahyu dan isinya benar.\nc.\tIman kepada Nabi Muhammad, jangan menuduhnya dengan bermacam tuduhan seperti mengatakannya pesihir.\nd.\tIman kepada hari akhirat, yaitu tempat manusia hidup abadi sesuai dengan balasan amalnya.\n2.\tKisah-kisah:\na.\tKaum-kaum Nabi Nuh, \u2018Ad, Fir\u2018aun, A\u1e63\u1e25\u0101b al-Aikah yang ingkar lalu dihukum Allah.\nb.\tNabi-nabi Daud, Sulaiman, dan Ayub yang diuji Allah, supaya jadi pelajaran bagi manusia agar memiliki sifat sabar.\nc.\tNabi-nabi Ibrahim, Ishak, Yakub yang terpilih, dan Nabi-nabi Ismail, Ilyasa\u2018, Zulkifli yang merupakan orang-orang saleh.\nd.\tKisah penciptaan Adam dan Iblis, supaya jadi pelajaran bagi manusia bahwa Iblis itu adalah musuh terbesar mereka yang selalu ingin menjatuhkan mereka pada kesesatan.\n3.\tLain-lain:\na.\tFungsi Nabi Muhammad sebagai pemberi peringatan tanpa meminta imbalan atas tugasnya, dan Al-Qur\u2019an sebagai pedoman hidup paling benar, dan kebenarannya akan segera terbukti.\nb.\tPenyebab manusia masuk neraka adalah kesombongan dan permusuhan yang sengit dengan para rasul.\n",
        "outro_surah": null,
        "munasabah_prev_surah": "HUBUNGAN SURAH A\u1e62-\u1e62\u0100FF\u0100T\nDENGAN SURAH \u1e62\u0100D\n\n1.\tPokok-pokok yang disampaikan dalam Surah a\u1e63-\u1e62\u0101ff\u0101t adalah bukti-bukti tentang kemahaesaan dan kemahakuasaan Allah swt, adanya hari kemudian, perlunya manusia beriman dan menjalankan ajaran-ajaran yang disampaikan dalam Al-Qur\u2019an, dan adanya dua kelompok manusia yaitu yang beriman dan yang kafir dan nasib serta tempat mereka masing-masing nanti di akhirat apakah surga atau neraka. Surah \u1e62\u0101d dimulai dengan pernyataan-pernyataan tentang pokok-pokok yang disampaikan dalam Surah a\u1e63-\u1e62\u0101ff\u0101t, yaitu tentang Al-Qur\u2019an sebagai petunjuk, adanya manusia yang ingkar, kehancuran umat-umat terdahulu karena kekafiran mereka, tuduhan yang tidak benar terhadap Allah swt dan Nabi Muhammad. \n2.\tDalam Surah a\u1e63-\u1e62\u0101ff\u0101t dikisahkan perjuangan nabi-nabi Nuh, Ibrahim, Musa, Harun, Ilyas, Lut, dan Yunus serta nasib umat mereka. Dalam surah ini disampaikan nasib umat Nabi Nuh, \u2018Ad, Fir\u2018aun, dan A\u1e63\u1e25\u0101b al-Aikah dan kisah kesabaran nabi-nabi Daud dan Sulaiman, Ayub, Ibrahim, Ismail, Ilyasa\u2018, dan Zulkifli dalam berjuang.\n3.\tKedua surah menginginkan manusia supaya beriman, jangan menyekutukan Allah, jangan berpandangan salah terhadap Nabi Muhammad, mengakui dan menjalankan ajaran Al-Qur\u2019an, dan mengimani bahwa setelah kehidupan yang sekarang, ada lagi kehidupan yang abadi di akhirat. Manusia yang beriman akan bahagia, sedangkan yang kafir akan sengsara. \n4.\tGambaran kehidupan di dalam surga dan neraka yang sangat hidup. Di dalam Surah a\u1e63-\u1e62\u0101ff\u0101t dilukiskan bagaimana penghuni-penghuni neraka itu saling menyalahkan tetapi itu tidak ada gunanya. Dalam Surah \u1e62\u0101d penghuni neraka itu mencari orang yang menjerumuskan mereka tetapi tidak mereka temukan.",
        "munasabah_prev_theme": "Pada ayat-ayat sebelumnya, Allah menjelaskan keingkaran orang-orang kafir Mekah terhadap kerasulan Muhammad, serta akibat yang dideritanya karena keingkaran itu. Pada ayat-ayat berikut ini, Allah mengisahkan keingkaran umat-umat terdahulu kepada para rasul yang diutus kepada mereka serta akibat yang diderita karena keingkaran mereka juga.",
        "theme_group": "PARA PENENTANG RASUL PASTI HANCUR",
        "kosakata": "1. \t\u017bu al-Aut\u0101d \u0630\u064f\u0648 \u0627\u0652\u0644\u0627\u064e\u0648\u0652\u062a\u0627\u064e\u062f (\u1e62\u0101d/38: 12)\nKata al-aut\u0101d merupakan bentuk plural dari kata wat\u012bd yang terambil dari kata watada wat\u012bd yang berarti kayu atau besi yang runcing yang ditanam di tanah dan ujungnya diikat dengan tali dan dihubungkan dengan tenda atau kemah (patok) untuk mengokohkannya. Kata ini mengandung makna penguatan, penetapan dan pengukuhan. Bentuk jamaknya adalah aut\u0101d. Gunung disebut dalam Al-Qur\u2019an aut\u0101d (wa al-jib\u0101l aut\u0101da), karena dengan gunung bumi menjadi kokoh. \nPada ayat ini menggambarkan tentang sekian banyak sarana dan prasarana yang menegaskan tentang kebesaran dan kemegahan kekuasaan Fir\u2018aun. Syeikh Muhammad Abduh misalnya memahami aut\u0101d di sini dengan arti piramid yang dibangun Fir\u2018aun sebagai simbol kekuasaannya. Pengertian ini bisa-bisa saja, karena pada dinasti ke-19, Raja Fir\u2018aun Menepeth II memiliki perhatian yang sangat besar terhadap sarana dan prasarana terutama arsitektur bangunan.\n\tPada ayat ini Allah juga mengisahkan tentang kehancuran umat terdahulu supaya menjadi pelajaran bagi kaum kafir Mekah sehingga mereka bisa terlepas dari kesesatan dan mau menerima hidayah Ilahi. Ada enam kaum yang karena keengganannya mengikuti ajakan para nabi, akhirnya mereka dihancurkan. Keenam kaum ini adalah Kaum Nabi Nuh, Kaum \u2018Ad (umat Nabi H\u016bd), Fir\u2018aun (umat Nabi Musa), Kaum Samud (umat Nabi Saleh), Kaum Nabi Lut dan A\u1e63\u1e25\u0101b al-Aikah (umat Nabi Syuaib). Dari keenam kaum ini, Fir\u2018aun disifati dengan \u017cu al-aut\u0101d yang artinya Fir\u2018aun yang memiliki bala tentara yang besar. Allah mengutus Musa untuk mengajaknya menyembah Allah, akan tetapi dengan keangkuhannya Fira\u2018un dan bala tentaranya menolak seruan Musa, bahkan dengan congkak dia mengaku bahwa sebenarnya dialah Tuhan yang maha tinggi (ana rabbukum al-a\u2018l\u0101). Untuk itu Allah mewahyukan kepada Nabi Musa untuk mengevakuasi umatnya yang beriman ke tempat yang lebih aman karena Allah akan menurunkan azab kepada Fir\u2018aun dan bala tentaranya dengan cara menenggelamkan mereka di lautan. \n2. \tFaw\u0101q \u0641\u064e\u0648\u064e\u0627\u0642 (\u1e62\u0101d/38: 15)\nKata faw\u0101q terambil dari kata f\u0101qa yaf\u016bqu yang berarti melebihi dari kadar yang biasanya. Kata fauqa yang berarti \u201cdi atas\u201d merupakan antonim dari kata tahta yang berarti \u201cdi bawah\u201d. Artinya kata f\u0101qa mengandung arti sesuatu yang berada di atas yang lain atau lebih dari yang lain. Imra'at f\u0101iqah berarti perempuan yang memiliki kecantikan di atas kecantikan wanita lain. Pada ayat ini berarti teriakan itu tidak ada yang melebihinya. Ada juga yang mengartikan kata ini dalam arti saat atau jeda antara dua kali perasan susu unta. Biasanya hewan setelah diperas susunya beberapa perasan dibiarkan beristirahat sejenak agar air susunya berkumpul lagi dan setelah itu diperas lagi.  \n Ayat ini menjelaskan tentang ancaman Allah kepada kaum kafir Mekah yang senantiasa menentang dan membangkang terhadap ajakan Rasul dengan akan ditimpakannya satu teriakan (\u1e63ai\u1e25ah) yang amat keras dan dahsyat sebagai tanda datangnya hari Kiamat. Pada saat datangnya \u1e63ai\u1e25ah yang tiba-tiba ini, mereka tidak akan memiliki kesempatan untuk melarikan diri dan mengelak, karena teriakan ini tidak mempunyai waktu jeda sedikit pun (m\u0101 lah\u0101 min faw\u0101q). \n",
        "sabab_nuzul": null,
        "conclusion": null
    }
}