{
    "id": 3986,
    "surah_id": 38,
    "ayah": 16,
    "page": 453,
    "quarter_hizb": 46,
    "juz": 23,
    "manzil": 6,
    "arabic": "\u0648\u064e\u0642\u064e\u0627\u0644\u064f\u0648\u0652\u0627 \u0631\u064e\u0628\u0651\u064e\u0646\u064e\u0627 \u0639\u064e\u062c\u0651\u0650\u0644\u0652 \u0644\u0651\u064e\u0646\u064e\u0627 \u0642\u0650\u0637\u0651\u064e\u0646\u064e\u0627 \u0642\u064e\u0628\u0652\u0644\u064e \u064a\u064e\u0648\u0652\u0645\u0650 \u0627\u0644\u0652\u062d\u0650\u0633\u064e\u0627\u0628\u0650",
    "latin": "Wa q\u0101l\u016b rabban\u0101 \u2018ajjil lan\u0101 qi\u1e6d\u1e6dan\u0101 qabla yaumil-\u1e25is\u0101b(i).",
    "translation": "Mereka berkata, \u201cWahai Tuhan kami, segerakanlah untuk kami bagian (dari siksa) kami sebelum hari Perhitungan.\u201d",
    "no_footnote": null,
    "footnotes": null,
    "surah": {
        "id": 38,
        "arabic": "\u0635\u06e4",
        "latin": "\u1e62\u0101d ",
        "transliteration": "Sad",
        "translation": "\u1e62\u0101d ",
        "num_ayah": 88,
        "page": 453,
        "location": "Makkiyah"
    },
    "tafsir": {
        "wajiz": "Dan mereka dengan nada sinis dan penuh keingkaran berkata, \u201cYa Tuhan kami, segerakanlah azab yang diperuntukkan bagi kami sebelum hari perhitungan.\u201d Dengan ucapan ini mereka bermaksud memperolok Nabi yang menyampaikan bahwa ancaman yang Allah tujukan kepada mereka adalah azab di hari Kiamat (Lihat Surah al-Anfal/8: 32)",
        "tahlili": "Pada ayat ini, Allah mengungkapkan keingkaran orang-orang kafir Mekah terhadap azab yang diancamkan kepada mereka. Mereka memperolok-olokkan Rasulullah setelah mendengar bahwa azab yang diancamkan kepada mereka itu ialah azab di hari Kiamat. Mereka meminta kepada Allah agar azab yang diancamkan kepada mereka itu dipercepat datangnya dan tidak perlu ditunggu hingga hari perhitungan tiba. \nAllah berfirman:\n\u0648\u064e\u0627\u0650\u0630\u0652 \u0642\u064e\u0627\u0644\u064f\u0648\u0627 \u0627\u0644\u0644\u0651\u0670\u0647\u064f\u0645\u0651\u064e \u0627\u0650\u0646\u0652 \u0643\u064e\u0627\u0646\u064e \u0647\u0670\u0630\u064e\u0627 \u0647\u064f\u0648\u064e \u0627\u0644\u0652\u062d\u064e\u0642\u0651\u064e \u0645\u0650\u0646\u0652 \u0639\u0650\u0646\u0652\u062f\u0650\u0643\u064e \u0641\u064e\u0627\u064e\u0645\u0652\u0637\u0650\u0631\u0652 \u0639\u064e\u0644\u064e\u064a\u0652\u0646\u064e\u0627 \u062d\u0650\u062c\u064e\u0627\u0631\u064e\u0629\u064b \u0645\u0651\u0650\u0646\u064e \u0627\u0644\u0633\u0651\u064e\u0645\u064e\u0627\u06e4\u0621\u0650 \u0627\u064e\u0648\u0650 \u0627\u0626\u0652\u062a\u0650\u0646\u064e\u0627 \u0628\u0650\u0639\u064e\u0630\u064e\u0627\u0628\u064d \u0627\u064e\u0644\u0650\u064a\u0652\u0645\u064d \u0663\u0662 \nDan (ingatlah), ketika mereka (orang-orang musyrik) berkata, \u201cYa Allah, jika (Al-Qur\u2019an) ini benar (wahyu) dari Engkau, maka hujanilah kami dengan batu dari langit, atau datangkanlah kepada kami azab yang pedih.\u201d (al-Anf\u0101l/8: 32)\nMenurut riwayat Imam an-Nas\u0101'i dari Ibnu \u2018Abb\u0101s, bahwa orang yang meminta agar siksa Allah disegerakan datangnya itu ialah an-N\u0101\u1e0dir bin Hari\u1e61 \u2018Alaqah bin Kaladah. An-N\u0101\u1e0dir mati terbunuh dalam Perang Badar.\nYang dimaksud dengan hari perhitungan ialah hari diperiksanya setiap amal seseorang, dengan pemeriksaan yang teliti agar mendapat balasan yang sesuai dengan amalnya. Terjadinya hari perhitungan itu didahului oleh teriakan keras yang membinasakan seluruh kehidupan pada hari Kiamat.",
        "intro_surah": "Surah \u1e62\u0101d terdiri dari 88 ayat, termasuk surah Makkiyyah, diturunkan sesudah Surah al-Qamar dan sebelum Surah al-A\u2018r\u0101f. Surah ini dinamakan Surah \u1e62\u0101d karena dimulai dengan huruf \u201c\u1e62\u0101d\u201d. \n\nPokok-pokok Isinya\n1.\tKeimanan:\na.\tKeesaan Allah yang telah menciptakan alam, mengirim nabi-nabi, menurunkan Al-Qur\u2019an, menciptakan hari akhirat, dan membalas yang baik dengan surga dan yang jahat dengan neraka.\nb.\tDalam surah ini Allah bersumpah dengan Al-Qur\u2019an untuk menunjukkan bahwa Kitab itu betul-betul wahyu dan isinya benar.\nc.\tIman kepada Nabi Muhammad, jangan menuduhnya dengan bermacam tuduhan seperti mengatakannya pesihir.\nd.\tIman kepada hari akhirat, yaitu tempat manusia hidup abadi sesuai dengan balasan amalnya.\n2.\tKisah-kisah:\na.\tKaum-kaum Nabi Nuh, \u2018Ad, Fir\u2018aun, A\u1e63\u1e25\u0101b al-Aikah yang ingkar lalu dihukum Allah.\nb.\tNabi-nabi Daud, Sulaiman, dan Ayub yang diuji Allah, supaya jadi pelajaran bagi manusia agar memiliki sifat sabar.\nc.\tNabi-nabi Ibrahim, Ishak, Yakub yang terpilih, dan Nabi-nabi Ismail, Ilyasa\u2018, Zulkifli yang merupakan orang-orang saleh.\nd.\tKisah penciptaan Adam dan Iblis, supaya jadi pelajaran bagi manusia bahwa Iblis itu adalah musuh terbesar mereka yang selalu ingin menjatuhkan mereka pada kesesatan.\n3.\tLain-lain:\na.\tFungsi Nabi Muhammad sebagai pemberi peringatan tanpa meminta imbalan atas tugasnya, dan Al-Qur\u2019an sebagai pedoman hidup paling benar, dan kebenarannya akan segera terbukti.\nb.\tPenyebab manusia masuk neraka adalah kesombongan dan permusuhan yang sengit dengan para rasul.\n",
        "outro_surah": null,
        "munasabah_prev_surah": "HUBUNGAN SURAH A\u1e62-\u1e62\u0100FF\u0100T\nDENGAN SURAH \u1e62\u0100D\n\n1.\tPokok-pokok yang disampaikan dalam Surah a\u1e63-\u1e62\u0101ff\u0101t adalah bukti-bukti tentang kemahaesaan dan kemahakuasaan Allah swt, adanya hari kemudian, perlunya manusia beriman dan menjalankan ajaran-ajaran yang disampaikan dalam Al-Qur\u2019an, dan adanya dua kelompok manusia yaitu yang beriman dan yang kafir dan nasib serta tempat mereka masing-masing nanti di akhirat apakah surga atau neraka. Surah \u1e62\u0101d dimulai dengan pernyataan-pernyataan tentang pokok-pokok yang disampaikan dalam Surah a\u1e63-\u1e62\u0101ff\u0101t, yaitu tentang Al-Qur\u2019an sebagai petunjuk, adanya manusia yang ingkar, kehancuran umat-umat terdahulu karena kekafiran mereka, tuduhan yang tidak benar terhadap Allah swt dan Nabi Muhammad. \n2.\tDalam Surah a\u1e63-\u1e62\u0101ff\u0101t dikisahkan perjuangan nabi-nabi Nuh, Ibrahim, Musa, Harun, Ilyas, Lut, dan Yunus serta nasib umat mereka. Dalam surah ini disampaikan nasib umat Nabi Nuh, \u2018Ad, Fir\u2018aun, dan A\u1e63\u1e25\u0101b al-Aikah dan kisah kesabaran nabi-nabi Daud dan Sulaiman, Ayub, Ibrahim, Ismail, Ilyasa\u2018, dan Zulkifli dalam berjuang.\n3.\tKedua surah menginginkan manusia supaya beriman, jangan menyekutukan Allah, jangan berpandangan salah terhadap Nabi Muhammad, mengakui dan menjalankan ajaran Al-Qur\u2019an, dan mengimani bahwa setelah kehidupan yang sekarang, ada lagi kehidupan yang abadi di akhirat. Manusia yang beriman akan bahagia, sedangkan yang kafir akan sengsara. \n4.\tGambaran kehidupan di dalam surga dan neraka yang sangat hidup. Di dalam Surah a\u1e63-\u1e62\u0101ff\u0101t dilukiskan bagaimana penghuni-penghuni neraka itu saling menyalahkan tetapi itu tidak ada gunanya. Dalam Surah \u1e62\u0101d penghuni neraka itu mencari orang yang menjerumuskan mereka tetapi tidak mereka temukan.",
        "munasabah_prev_theme": "Pada ayat-ayat sebelumnya, Allah menjelaskan keingkaran orang-orang kafir Mekah terhadap kerasulan Muhammad, serta akibat yang dideritanya karena keingkaran itu. Pada ayat-ayat berikut ini, Allah mengisahkan keingkaran umat-umat terdahulu kepada para rasul yang diutus kepada mereka serta akibat yang diderita karena keingkaran mereka juga.",
        "theme_group": "PARA PENENTANG RASUL PASTI HANCUR",
        "kosakata": "1. \t\u017bu al-Aut\u0101d \u0630\u064f\u0648 \u0627\u0652\u0644\u0627\u064e\u0648\u0652\u062a\u0627\u064e\u062f (\u1e62\u0101d/38: 12)\nKata al-aut\u0101d merupakan bentuk plural dari kata wat\u012bd yang terambil dari kata watada wat\u012bd yang berarti kayu atau besi yang runcing yang ditanam di tanah dan ujungnya diikat dengan tali dan dihubungkan dengan tenda atau kemah (patok) untuk mengokohkannya. Kata ini mengandung makna penguatan, penetapan dan pengukuhan. Bentuk jamaknya adalah aut\u0101d. Gunung disebut dalam Al-Qur\u2019an aut\u0101d (wa al-jib\u0101l aut\u0101da), karena dengan gunung bumi menjadi kokoh. \nPada ayat ini menggambarkan tentang sekian banyak sarana dan prasarana yang menegaskan tentang kebesaran dan kemegahan kekuasaan Fir\u2018aun. Syeikh Muhammad Abduh misalnya memahami aut\u0101d di sini dengan arti piramid yang dibangun Fir\u2018aun sebagai simbol kekuasaannya. Pengertian ini bisa-bisa saja, karena pada dinasti ke-19, Raja Fir\u2018aun Menepeth II memiliki perhatian yang sangat besar terhadap sarana dan prasarana terutama arsitektur bangunan.\n\tPada ayat ini Allah juga mengisahkan tentang kehancuran umat terdahulu supaya menjadi pelajaran bagi kaum kafir Mekah sehingga mereka bisa terlepas dari kesesatan dan mau menerima hidayah Ilahi. Ada enam kaum yang karena keengganannya mengikuti ajakan para nabi, akhirnya mereka dihancurkan. Keenam kaum ini adalah Kaum Nabi Nuh, Kaum \u2018Ad (umat Nabi H\u016bd), Fir\u2018aun (umat Nabi Musa), Kaum Samud (umat Nabi Saleh), Kaum Nabi Lut dan A\u1e63\u1e25\u0101b al-Aikah (umat Nabi Syuaib). Dari keenam kaum ini, Fir\u2018aun disifati dengan \u017cu al-aut\u0101d yang artinya Fir\u2018aun yang memiliki bala tentara yang besar. Allah mengutus Musa untuk mengajaknya menyembah Allah, akan tetapi dengan keangkuhannya Fira\u2018un dan bala tentaranya menolak seruan Musa, bahkan dengan congkak dia mengaku bahwa sebenarnya dialah Tuhan yang maha tinggi (ana rabbukum al-a\u2018l\u0101). Untuk itu Allah mewahyukan kepada Nabi Musa untuk mengevakuasi umatnya yang beriman ke tempat yang lebih aman karena Allah akan menurunkan azab kepada Fir\u2018aun dan bala tentaranya dengan cara menenggelamkan mereka di lautan. \n2. \tFaw\u0101q \u0641\u064e\u0648\u064e\u0627\u0642 (\u1e62\u0101d/38: 15)\nKata faw\u0101q terambil dari kata f\u0101qa yaf\u016bqu yang berarti melebihi dari kadar yang biasanya. Kata fauqa yang berarti \u201cdi atas\u201d merupakan antonim dari kata tahta yang berarti \u201cdi bawah\u201d. Artinya kata f\u0101qa mengandung arti sesuatu yang berada di atas yang lain atau lebih dari yang lain. Imra'at f\u0101iqah berarti perempuan yang memiliki kecantikan di atas kecantikan wanita lain. Pada ayat ini berarti teriakan itu tidak ada yang melebihinya. Ada juga yang mengartikan kata ini dalam arti saat atau jeda antara dua kali perasan susu unta. Biasanya hewan setelah diperas susunya beberapa perasan dibiarkan beristirahat sejenak agar air susunya berkumpul lagi dan setelah itu diperas lagi.  \n Ayat ini menjelaskan tentang ancaman Allah kepada kaum kafir Mekah yang senantiasa menentang dan membangkang terhadap ajakan Rasul dengan akan ditimpakannya satu teriakan (\u1e63ai\u1e25ah) yang amat keras dan dahsyat sebagai tanda datangnya hari Kiamat. Pada saat datangnya \u1e63ai\u1e25ah yang tiba-tiba ini, mereka tidak akan memiliki kesempatan untuk melarikan diri dan mengelak, karena teriakan ini tidak mempunyai waktu jeda sedikit pun (m\u0101 lah\u0101 min faw\u0101q). \n",
        "sabab_nuzul": null,
        "conclusion": "1. \tUmat-umat nabi terdahulu yang mengingkari para rasul dan nabi, dibinasakan Allah.\n2. \tApabila kaum musyrik Mekah tetap mengingkari Rasulullah, mereka pasti akan mendapat siksa yang membinasakan.\n3. \tMenghadapi ancaman yang membinasakan, orang-orang kafir Mekah malah menantang agar ancaman itu disegerakan, dan tidak perlu ditunda hingga saat hari Kiamat tiba.\n4. \tSikap kaum musyrikin yang menantang dipercepatnya ancaman itu menunjukkan bahwa mereka mengingkari kebenaran wahyu dan terjadinya hari Kiamat.\n"
    }
}