{
    "id": 4027,
    "surah_id": 38,
    "ayah": 57,
    "page": 456,
    "quarter_hizb": 46.5,
    "juz": 23,
    "manzil": 6,
    "arabic": "\u0647\u0670\u0630\u064e\u0627\u06d9 \u0641\u064e\u0644\u0652\u064a\u064e\u0630\u064f\u0648\u0652\u0642\u064f\u0648\u0652\u0647\u064f \u062d\u064e\u0645\u0650\u064a\u0652\u0645\u064c \u0648\u0651\u064e\u063a\u064e\u0633\u0651\u064e\u0627\u0642\u064c\u06d9",
    "latin": "H\u0101\u017c\u0101, falya\u017c\u016bq\u016bhu \u1e25am\u012bmuw wa gass\u0101q(un).",
    "translation": "Inilah (azab neraka). Biarlah mereka merasakannya. (Minuman mereka) air yang mendidih dan cairan nanah (yang menjijikkan).",
    "no_footnote": null,
    "footnotes": null,
    "surah": {
        "id": 38,
        "arabic": "\u0635\u06e4",
        "latin": "\u1e62\u0101d ",
        "transliteration": "Sad",
        "translation": "\u1e62\u0101d ",
        "num_ayah": 88,
        "page": 453,
        "location": "Makkiyah"
    },
    "tafsir": {
        "wajiz": "Inilah azab yang Allah janjikan kepada para pendurhaka, maka biarlah mereka merasakannya dan mengetahui betapa pedih azab itu. Inilah air mendidih yang sangat panas dan membakar mulut, kerongkongan, serta usus mereka, dan air yang sangat dingin, yaitu nanah busuk dingin yang mengalir dari tubuh-tubuh penghuni neraka,",
        "tahlili": "Allah menyatakan kepada orang-orang kafir di dalam neraka, \u201cHai orang kafir, inilah azab yang pernah Aku janjikan dahulu, maka rasakanlah olehmu bagaimana berat dan pedihnya azab itu. Minumlah di dalam neraka itu air panas yang sedang mendidih yang membakar mulut dan usus-ususmu atau nanah busuk yang mengalir dari tubuh-tubuh penghuni neraka yang sangat dingin. Selain dari itu kamu sekalian akan merasakan azab-azab yang lain yang kamu sendiri tidak mengetahui bentuk azab itu, selain kamu hanya merasakan kesengsaraan yang luar biasa.\u201d\n\tRasulullah saw bersabda:\n\u0639\u064e\u0646\u0652 \u0623\u064e\u0628\u0650\u064a\u0652 \u0633\u064e\u0639\u0650\u064a\u0652\u062f\u0650 \u0627\u0644\u0652\u062e\u064f\u062f\u0652\u0631\u0650\u064a\u0651\u0650 \u0639\u064e\u0646\u0652 \u0631\u064e\u0633\u064f\u0648\u0652\u0644\u0650 \u0627\u0644\u0644\u0651\u0670\u0647\u0650 \u0635\u064e\u0644\u0651\u064e\u0649 \u0627\u0644\u0644\u0651\u0670\u0647\u064f \u0639\u064e\u0644\u064e\u064a\u0652\u0647\u0650 \u0648\u064e\u0633\u064e\u0644\u0651\u064e\u0645\u064e \u0623\u064e\u0646\u0651\u064e\u0647\u064f \u0642\u064e\u0627\u0644\u064e \u0644\u064e\u0648\u0652 \u0623\u064e\u0646\u0651\u064e \u062f\u064e\u0644\u0652\u0648\u064b\u0627 \u0645\u0650\u0646\u0652 \u063a\u064e\u0633\u0651\u064e\u0627\u0642\u064d \u064a\u064f\u0647\u0652\u0631\u064e\u0627\u0642\u064f \u0641\u0650\u0649 \u0627\u0644\u062f\u0651\u064f\u0646\u0652\u064a\u064e\u0627 \u0644\u064e\u0623\u064e\u0646\u0652\u062a\u064e\u0646\u064e \u0623\u064e\u0647\u0652\u0644\u064e \u0627\u0644\u062f\u0651\u064f\u0646\u0652\u064a\u064e\u0627. (\u0631\u0648\u0627\u0647 \u0627\u0644\u062d\u0627\u0643\u0645)\nDari Ab\u016b Sa\u2018\u012bd al-Khudr\u012b, dari Nabi saw, beliau bersabda, \u201cSeandainya satu timba dari minuman penghuni neraka ditumpahkan di dunia, maka semua penghuni dunia akan berbau busuk. (Riwayat al-\u1e24\u0101kim)\n\nJika diperhatikan ayat-ayat ini dan dihubungkan dengan ayat-ayat yang sebelumnya seakan-akan ayat ini merupakan imbangan perkataan Allah kepada ahli surga. Pada ayat yang lalu disebutkan bahwa penduduk surga diberikan buah-buahan yang baik dan minuman yang lezat rasanya, sedang pada ayat ini diterangkan bahwa penduduk neraka disuruh merasakan air panas yang mendidih dan nanah yang mengalir. Hal ini berarti bahwa penduduk surga memperoleh semua yang diminta dan diingini, sedang penduduk neraka disuruh bahkan dipaksa melakukan sesuatu yang tidak diingininya.\nKalau orang-orang yang beriman di dalam surga memperoleh bidadari yang tidak liar pandangannya dan sebaya umurnya, maka penduduk neraka memperoleh azab yang bermacam-macam yang sangat berat dan pedih.",
        "intro_surah": "Surah \u1e62\u0101d terdiri dari 88 ayat, termasuk surah Makkiyyah, diturunkan sesudah Surah al-Qamar dan sebelum Surah al-A\u2018r\u0101f. Surah ini dinamakan Surah \u1e62\u0101d karena dimulai dengan huruf \u201c\u1e62\u0101d\u201d. \n\nPokok-pokok Isinya\n1.\tKeimanan:\na.\tKeesaan Allah yang telah menciptakan alam, mengirim nabi-nabi, menurunkan Al-Qur\u2019an, menciptakan hari akhirat, dan membalas yang baik dengan surga dan yang jahat dengan neraka.\nb.\tDalam surah ini Allah bersumpah dengan Al-Qur\u2019an untuk menunjukkan bahwa Kitab itu betul-betul wahyu dan isinya benar.\nc.\tIman kepada Nabi Muhammad, jangan menuduhnya dengan bermacam tuduhan seperti mengatakannya pesihir.\nd.\tIman kepada hari akhirat, yaitu tempat manusia hidup abadi sesuai dengan balasan amalnya.\n2.\tKisah-kisah:\na.\tKaum-kaum Nabi Nuh, \u2018Ad, Fir\u2018aun, A\u1e63\u1e25\u0101b al-Aikah yang ingkar lalu dihukum Allah.\nb.\tNabi-nabi Daud, Sulaiman, dan Ayub yang diuji Allah, supaya jadi pelajaran bagi manusia agar memiliki sifat sabar.\nc.\tNabi-nabi Ibrahim, Ishak, Yakub yang terpilih, dan Nabi-nabi Ismail, Ilyasa\u2018, Zulkifli yang merupakan orang-orang saleh.\nd.\tKisah penciptaan Adam dan Iblis, supaya jadi pelajaran bagi manusia bahwa Iblis itu adalah musuh terbesar mereka yang selalu ingin menjatuhkan mereka pada kesesatan.\n3.\tLain-lain:\na.\tFungsi Nabi Muhammad sebagai pemberi peringatan tanpa meminta imbalan atas tugasnya, dan Al-Qur\u2019an sebagai pedoman hidup paling benar, dan kebenarannya akan segera terbukti.\nb.\tPenyebab manusia masuk neraka adalah kesombongan dan permusuhan yang sengit dengan para rasul.\n",
        "outro_surah": null,
        "munasabah_prev_surah": "HUBUNGAN SURAH A\u1e62-\u1e62\u0100FF\u0100T\nDENGAN SURAH \u1e62\u0100D\n\n1.\tPokok-pokok yang disampaikan dalam Surah a\u1e63-\u1e62\u0101ff\u0101t adalah bukti-bukti tentang kemahaesaan dan kemahakuasaan Allah swt, adanya hari kemudian, perlunya manusia beriman dan menjalankan ajaran-ajaran yang disampaikan dalam Al-Qur\u2019an, dan adanya dua kelompok manusia yaitu yang beriman dan yang kafir dan nasib serta tempat mereka masing-masing nanti di akhirat apakah surga atau neraka. Surah \u1e62\u0101d dimulai dengan pernyataan-pernyataan tentang pokok-pokok yang disampaikan dalam Surah a\u1e63-\u1e62\u0101ff\u0101t, yaitu tentang Al-Qur\u2019an sebagai petunjuk, adanya manusia yang ingkar, kehancuran umat-umat terdahulu karena kekafiran mereka, tuduhan yang tidak benar terhadap Allah swt dan Nabi Muhammad. \n2.\tDalam Surah a\u1e63-\u1e62\u0101ff\u0101t dikisahkan perjuangan nabi-nabi Nuh, Ibrahim, Musa, Harun, Ilyas, Lut, dan Yunus serta nasib umat mereka. Dalam surah ini disampaikan nasib umat Nabi Nuh, \u2018Ad, Fir\u2018aun, dan A\u1e63\u1e25\u0101b al-Aikah dan kisah kesabaran nabi-nabi Daud dan Sulaiman, Ayub, Ibrahim, Ismail, Ilyasa\u2018, dan Zulkifli dalam berjuang.\n3.\tKedua surah menginginkan manusia supaya beriman, jangan menyekutukan Allah, jangan berpandangan salah terhadap Nabi Muhammad, mengakui dan menjalankan ajaran Al-Qur\u2019an, dan mengimani bahwa setelah kehidupan yang sekarang, ada lagi kehidupan yang abadi di akhirat. Manusia yang beriman akan bahagia, sedangkan yang kafir akan sengsara. \n4.\tGambaran kehidupan di dalam surga dan neraka yang sangat hidup. Di dalam Surah a\u1e63-\u1e62\u0101ff\u0101t dilukiskan bagaimana penghuni-penghuni neraka itu saling menyalahkan tetapi itu tidak ada gunanya. Dalam Surah \u1e62\u0101d penghuni neraka itu mencari orang yang menjerumuskan mereka tetapi tidak mereka temukan.",
        "munasabah_prev_theme": "Pada ayat-ayat yang lalu, Allah swt menerangkan bahwa orang-orang yang bertakwa memperoleh tempat kembali yang baik berupa surga yang penuh kenikmatan, sebagai balasan dari perbuatan baik yang telah mereka kerjakan. Pada ayat-ayat ini, Allah menerangkan azab yang diterima oleh orang-orang kafir di neraka nanti, sebagai balasan dari perbuatan yang telah mereka kerjakan.",
        "theme_group": "AZAB BAGI ORANG KAFIR",
        "kosakata": "1.\tLi a\u1e6d-\u1e6c\u0101g\u012bn \u0644\u0650\u0644\u0637\u0651\u064e\u0627\u063a\u0650\u064a\u0652\u0646\u064e (\u1e62\u0101d/38: 55)\nTerm li a\u1e6d-\u1e6d\u0101g\u012bn terdiri dari dua kata, yaitu li dan a\u1e6d-\u1e6d\u0101g\u012bn. Yang pertama (li) merupakan kata depan yang bersifat posesif dengan arti bagi. Sedang yang kedua (a\u1e6d-\u1e6d\u0101g\u012bn) merupakan bentuk fa\u2018il dari kata kerja \u1e6dag\u0101-ya\u1e6dg\u0101, yang artinya berlebih-lebihan dalam kemungkaran. Dengan demikian li a\u1e6d-\u1e6d\u0101g\u012bn dapat diartikan bagi orang-orang yang berlebih-lebihan atau kelewat- batas dalam berbuat maksiat. Bagi mereka yang seperti ini hanya akan mendapat tempat yang paling buruk di akhirat kelak.\n2.\t\u1e24am\u012bm wa Gass\u0101q \u062d\u064e\u0645\u0650\u064a\u0652\u0645\u064c \u0648\u064e\u063a\u064e\u0633\u0651\u064e\u0627\u0642\u064c  (\u1e62\u0101d/38: 57)\nKata \u1e25am\u012bm yang berarti air sangat panas berasal dari \u1e25amma-ya\u1e25ummu-\u1e25amman dan \u1e25am\u0101man yang artinya panas.\nSedangkan kata gass\u0101q terambil dari kata gasaqa yang biasa digunakan dalam arti mengalirnya cairan atau nanah dari luka. Atas dasar itu ia dipahami oleh banyak ulama dalam arti nanah. Ada juga yang memahaminya dalam arti air yang sangat dingin.\nJadi makna \u1e25am\u012bm dan gass\u0101q dalam ayat 57 Surah \u1e62\u0101d tersebut adalah air yang sangat panas dan cairan nanah, atau air yang sangat panas dan sangat dingin, sebagai balasan atas para pendurhaka di dalam neraka.",
        "sabab_nuzul": null,
        "conclusion": null
    }
}