{
    "id": 4025,
    "surah_id": 38,
    "ayah": 55,
    "page": 456,
    "quarter_hizb": 46.5,
    "juz": 23,
    "manzil": 6,
    "arabic": "\u0647\u0670\u0630\u064e\u0627 \u06d7\u0648\u064e\u0627\u0650\u0646\u0651\u064e \u0644\u0650\u0644\u0637\u0651\u0670\u063a\u0650\u064a\u0652\u0646\u064e \u0644\u064e\u0634\u064e\u0631\u0651\u064e \u0645\u064e\u0627\u0670\u0628\u064d\u06d9",
    "latin": "H\u0101\u017c\u0101, wa inna li\u1e6d-\u1e6d\u0101g\u012bna lasyarra ma'\u0101b(in).",
    "translation": "Inilah (kenikmatan bagi orang yang bertakwa). Sesungguhnya bagi orang-orang yang melampaui batas benar-benar (disediakan) tempat kembali yang buruk.",
    "no_footnote": null,
    "footnotes": null,
    "surah": {
        "id": 38,
        "arabic": "\u0635\u06e4",
        "latin": "\u1e62\u0101d ",
        "transliteration": "Sad",
        "translation": "\u1e62\u0101d ",
        "num_ayah": 88,
        "page": 453,
        "location": "Makkiyah"
    },
    "tafsir": {
        "wajiz": "Bila Allah menyediakan surga beserta segala kenikmatan di dalamnya bagi orang yang taat, maka Allah menyediakan jahanam bagi orang yang durhaka terhadap risalah Allah. Beginilah karunia Allah kepada orang-orang yang bertakwa. Dan sungguh, bagi orang-orang yang durhaka terhadap perintah Allah dan rasul-Nya di dunia pasti di akhirat nanti disediakan tempat kembali yang buruk. ",
        "tahlili": "Pada ayat ini diterangkan keadaan orang-orang kafir di dalam neraka. Mereka memperoleh tempat kembali yang buruk, mengalami kesengsaraan yang tiada taranya di dalam neraka. Segala tempat yang mereka tempati baik tempat duduk, tempat tidur, tempat istirahat, dan sebagainya, merupakan tempat yang tidak mereka senangi, karena di tempat itu mereka selalu mengalami siksaan yang berat.\nDalam ayat yang lain diterangkan keadaan orang kafir di dalam neraka, Allah berfirman:\n\u0644\u064e\u0647\u064f\u0645\u0652 \u0645\u0650\u0651\u0646\u0652 \u062c\u064e\u0647\u064e\u0646\u0651\u064e\u0645\u064e \u0645\u0650\u0647\u064e\u0627\u062f\u064c \u0648\u0651\u064e\u0645\u0650\u0646\u0652 \u0641\u064e\u0648\u0652\u0642\u0650\u0647\u0650\u0645\u0652 \u063a\u064e\u0648\u064e\u0627\u0634\u064d\u06d7 \u0648\u064e\u0643\u064e\u0630\u0670\u0644\u0650\u0643\u064e \u0646\u064e\u062c\u0652\u0632\u0650\u0649 \u0627\u0644\u0638\u0651\u0670\u0644\u0650\u0645\u0650\u064a\u0652\u0646\u064e \u0664\u0661 \nBagi mereka tikar tidur dari api neraka dan di atas mereka ada selimut (api neraka). Demikianlah Kami memberi balasan kepada orang-orang yang zalim. (al-A\u2018r\u0101f/7: 41)",
        "intro_surah": "Surah \u1e62\u0101d terdiri dari 88 ayat, termasuk surah Makkiyyah, diturunkan sesudah Surah al-Qamar dan sebelum Surah al-A\u2018r\u0101f. Surah ini dinamakan Surah \u1e62\u0101d karena dimulai dengan huruf \u201c\u1e62\u0101d\u201d. \n\nPokok-pokok Isinya\n1.\tKeimanan:\na.\tKeesaan Allah yang telah menciptakan alam, mengirim nabi-nabi, menurunkan Al-Qur\u2019an, menciptakan hari akhirat, dan membalas yang baik dengan surga dan yang jahat dengan neraka.\nb.\tDalam surah ini Allah bersumpah dengan Al-Qur\u2019an untuk menunjukkan bahwa Kitab itu betul-betul wahyu dan isinya benar.\nc.\tIman kepada Nabi Muhammad, jangan menuduhnya dengan bermacam tuduhan seperti mengatakannya pesihir.\nd.\tIman kepada hari akhirat, yaitu tempat manusia hidup abadi sesuai dengan balasan amalnya.\n2.\tKisah-kisah:\na.\tKaum-kaum Nabi Nuh, \u2018Ad, Fir\u2018aun, A\u1e63\u1e25\u0101b al-Aikah yang ingkar lalu dihukum Allah.\nb.\tNabi-nabi Daud, Sulaiman, dan Ayub yang diuji Allah, supaya jadi pelajaran bagi manusia agar memiliki sifat sabar.\nc.\tNabi-nabi Ibrahim, Ishak, Yakub yang terpilih, dan Nabi-nabi Ismail, Ilyasa\u2018, Zulkifli yang merupakan orang-orang saleh.\nd.\tKisah penciptaan Adam dan Iblis, supaya jadi pelajaran bagi manusia bahwa Iblis itu adalah musuh terbesar mereka yang selalu ingin menjatuhkan mereka pada kesesatan.\n3.\tLain-lain:\na.\tFungsi Nabi Muhammad sebagai pemberi peringatan tanpa meminta imbalan atas tugasnya, dan Al-Qur\u2019an sebagai pedoman hidup paling benar, dan kebenarannya akan segera terbukti.\nb.\tPenyebab manusia masuk neraka adalah kesombongan dan permusuhan yang sengit dengan para rasul.\n",
        "outro_surah": null,
        "munasabah_prev_surah": "HUBUNGAN SURAH A\u1e62-\u1e62\u0100FF\u0100T\nDENGAN SURAH \u1e62\u0100D\n\n1.\tPokok-pokok yang disampaikan dalam Surah a\u1e63-\u1e62\u0101ff\u0101t adalah bukti-bukti tentang kemahaesaan dan kemahakuasaan Allah swt, adanya hari kemudian, perlunya manusia beriman dan menjalankan ajaran-ajaran yang disampaikan dalam Al-Qur\u2019an, dan adanya dua kelompok manusia yaitu yang beriman dan yang kafir dan nasib serta tempat mereka masing-masing nanti di akhirat apakah surga atau neraka. Surah \u1e62\u0101d dimulai dengan pernyataan-pernyataan tentang pokok-pokok yang disampaikan dalam Surah a\u1e63-\u1e62\u0101ff\u0101t, yaitu tentang Al-Qur\u2019an sebagai petunjuk, adanya manusia yang ingkar, kehancuran umat-umat terdahulu karena kekafiran mereka, tuduhan yang tidak benar terhadap Allah swt dan Nabi Muhammad. \n2.\tDalam Surah a\u1e63-\u1e62\u0101ff\u0101t dikisahkan perjuangan nabi-nabi Nuh, Ibrahim, Musa, Harun, Ilyas, Lut, dan Yunus serta nasib umat mereka. Dalam surah ini disampaikan nasib umat Nabi Nuh, \u2018Ad, Fir\u2018aun, dan A\u1e63\u1e25\u0101b al-Aikah dan kisah kesabaran nabi-nabi Daud dan Sulaiman, Ayub, Ibrahim, Ismail, Ilyasa\u2018, dan Zulkifli dalam berjuang.\n3.\tKedua surah menginginkan manusia supaya beriman, jangan menyekutukan Allah, jangan berpandangan salah terhadap Nabi Muhammad, mengakui dan menjalankan ajaran Al-Qur\u2019an, dan mengimani bahwa setelah kehidupan yang sekarang, ada lagi kehidupan yang abadi di akhirat. Manusia yang beriman akan bahagia, sedangkan yang kafir akan sengsara. \n4.\tGambaran kehidupan di dalam surga dan neraka yang sangat hidup. Di dalam Surah a\u1e63-\u1e62\u0101ff\u0101t dilukiskan bagaimana penghuni-penghuni neraka itu saling menyalahkan tetapi itu tidak ada gunanya. Dalam Surah \u1e62\u0101d penghuni neraka itu mencari orang yang menjerumuskan mereka tetapi tidak mereka temukan.",
        "munasabah_prev_theme": "Pada ayat-ayat yang lalu, Allah swt menerangkan bahwa orang-orang yang bertakwa memperoleh tempat kembali yang baik berupa surga yang penuh kenikmatan, sebagai balasan dari perbuatan baik yang telah mereka kerjakan. Pada ayat-ayat ini, Allah menerangkan azab yang diterima oleh orang-orang kafir di neraka nanti, sebagai balasan dari perbuatan yang telah mereka kerjakan.",
        "theme_group": "AZAB BAGI ORANG KAFIR",
        "kosakata": "1.\tLi a\u1e6d-\u1e6c\u0101g\u012bn \u0644\u0650\u0644\u0637\u0651\u064e\u0627\u063a\u0650\u064a\u0652\u0646\u064e (\u1e62\u0101d/38: 55)\nTerm li a\u1e6d-\u1e6d\u0101g\u012bn terdiri dari dua kata, yaitu li dan a\u1e6d-\u1e6d\u0101g\u012bn. Yang pertama (li) merupakan kata depan yang bersifat posesif dengan arti bagi. Sedang yang kedua (a\u1e6d-\u1e6d\u0101g\u012bn) merupakan bentuk fa\u2018il dari kata kerja \u1e6dag\u0101-ya\u1e6dg\u0101, yang artinya berlebih-lebihan dalam kemungkaran. Dengan demikian li a\u1e6d-\u1e6d\u0101g\u012bn dapat diartikan bagi orang-orang yang berlebih-lebihan atau kelewat- batas dalam berbuat maksiat. Bagi mereka yang seperti ini hanya akan mendapat tempat yang paling buruk di akhirat kelak.\n2.\t\u1e24am\u012bm wa Gass\u0101q \u062d\u064e\u0645\u0650\u064a\u0652\u0645\u064c \u0648\u064e\u063a\u064e\u0633\u0651\u064e\u0627\u0642\u064c  (\u1e62\u0101d/38: 57)\nKata \u1e25am\u012bm yang berarti air sangat panas berasal dari \u1e25amma-ya\u1e25ummu-\u1e25amman dan \u1e25am\u0101man yang artinya panas.\nSedangkan kata gass\u0101q terambil dari kata gasaqa yang biasa digunakan dalam arti mengalirnya cairan atau nanah dari luka. Atas dasar itu ia dipahami oleh banyak ulama dalam arti nanah. Ada juga yang memahaminya dalam arti air yang sangat dingin.\nJadi makna \u1e25am\u012bm dan gass\u0101q dalam ayat 57 Surah \u1e62\u0101d tersebut adalah air yang sangat panas dan cairan nanah, atau air yang sangat panas dan sangat dingin, sebagai balasan atas para pendurhaka di dalam neraka.",
        "sabab_nuzul": null,
        "conclusion": null
    }
}