{
    "id": 4045,
    "surah_id": 38,
    "ayah": 75,
    "page": 457,
    "quarter_hizb": 46.5,
    "juz": 23,
    "manzil": 6,
    "arabic": "\u0642\u064e\u0627\u0644\u064e \u064a\u0670\u0653\u0627\u0650\u0628\u0652\u0644\u0650\u064a\u0652\u0633\u064f \u0645\u064e\u0627 \u0645\u064e\u0646\u064e\u0639\u064e\u0643\u064e \u0627\u064e\u0646\u0652 \u062a\u064e\u0633\u0652\u062c\u064f\u062f\u064e \u0644\u0650\u0645\u064e\u0627 \u062e\u064e\u0644\u064e\u0642\u0652\u062a\u064f \u0628\u0650\u064a\u064e\u062f\u064e\u064a\u0651\u064e \u06d7 \u0627\u064e\u0633\u0652\u062a\u064e\u0643\u0652\u0628\u064e\u0631\u0652\u062a\u064e \u0627\u064e\u0645\u0652 \u0643\u064f\u0646\u0652\u062a\u064e \u0645\u0650\u0646\u064e \u0627\u0644\u0652\u0639\u064e\u0627\u0644\u0650\u064a\u0652\u0646\u064e",
    "latin": "Q\u0101la y\u0101 ibl\u012bsu m\u0101 mana\u2018aka an tasjuda  lim\u0101 khalaqtu biyadayy(a), astakbarta am kunta minal-\u2018\u0101l\u012bn(a).",
    "translation": "(Allah) berfirman, \u201cWahai Iblis, apakah yang menghalangimu untuk bersujud kepada yang telah Aku ciptakan dengan kedua tangan-Ku (kekuasaan-Ku)? Apakah kamu menyombongkan diri ataukah (memang) termasuk golongan yang (lebih) tinggi?\u201d",
    "no_footnote": null,
    "footnotes": null,
    "surah": {
        "id": 38,
        "arabic": "\u0635\u06e4",
        "latin": "\u1e62\u0101d ",
        "transliteration": "Sad",
        "translation": "\u1e62\u0101d ",
        "num_ayah": 88,
        "page": 453,
        "location": "Makkiyah"
    },
    "tafsir": {
        "wajiz": "Mengetahui hal tersebut Allah bertanya, \u201cWahai Iblis, apakah yang menghalangi kamu sujud dengan hormat kepada Adam yang telah Aku ciptakan dengan kekuasaan-Ku dan Aku muliakan? Apakah kamu menyombongkan diri dengan mengabaikan perintah-Ku atau kamu merasa termasuk golongan yang lebih tinggi dan terhormat daripada Adam?\u201d ",
        "tahlili": "Allah berkata kepada Iblis, \u201cHai Iblis, apa yang menyebabkanmu enggan sujud menghormati Adam, makhluk yang telah Aku ciptakan sendiri dengan kekuasaan-Ku? Aku sendirilah yang menciptakan Adam itu, bukan makhluk-Ku yang menciptakannya. Kenapa kamu berlaku angkuh dan sombong. Apakah kamu telah merasa dirimu lebih tinggi dan lebih terhormat di antara makhluk-makhluk yang telah Aku ciptakan, sehingga kamu berpendapat bahwa kamu berhak dan berwenang berbuat apa yang kamu inginkan?\u201d\nIblis menjawab dan memberikan alasan pembangkangannya. Ia mengatakan bahwa ia lebih baik daripada Adam karena Allah menjadikannya dari api, sedang Adam dari tanah. Menurut Iblis, api lebih baik daripada tanah karena sifat api selalu meninggi dan tanah selalu di bawah. Padahal, materi asal itu tidak bisa dijadikan indikator kemuliaan makhluk. Kemuliaan itu tergantung pada ketaatan dan kepatuhan kepada Allah. Percakapan di atas disebutkan dalam firman Allah:\n\u0642\u064e\u0627\u0644\u064e \u0645\u064e\u0627 \u0645\u064e\u0646\u064e\u0639\u064e\u0643\u064e \u0627\u064e\u0644\u0651\u064e\u0627 \u062a\u064e\u0633\u0652\u062c\u064f\u062f\u064e \u0627\u0650\u0630\u0652 \u0627\u064e\u0645\u064e\u0631\u0652\u062a\u064f\u0643\u064e \u06d7\u0642\u064e\u0627\u0644\u064e \u0627\u064e\u0646\u064e\u0627\u06e0 \u062e\u064e\u064a\u0652\u0631\u064c \u0645\u0650\u0651\u0646\u0652\u0647\u064f\u06da \u062e\u064e\u0644\u064e\u0642\u0652\u062a\u064e\u0646\u0650\u064a\u0652 \u0645\u0650\u0646\u0652 \u0646\u0651\u064e\u0627\u0631\u064d \u0648\u0651\u064e\u062e\u064e\u0644\u064e\u0642\u0652\u062a\u064e\u0647\u0657 \u0645\u0650\u0646\u0652 \u0637\u0650\u064a\u0652\u0646\u064d \u0661\u0662\n(Allah) berfirman, \u201cApakah yang menghalangimu (sehingga) kamu tidak bersujud (kepada Adam) ketika Aku menyuruhmu?\u201d (Iblis) menjawab, \u201cAku lebih baik daripada dia. Engkau ciptakan aku dari api, sedangkan dia Engkau ciptakan dari tanah.\u201d(al-A\u2018r\u0101f/7: 12).",
        "intro_surah": "Surah \u1e62\u0101d terdiri dari 88 ayat, termasuk surah Makkiyyah, diturunkan sesudah Surah al-Qamar dan sebelum Surah al-A\u2018r\u0101f. Surah ini dinamakan Surah \u1e62\u0101d karena dimulai dengan huruf \u201c\u1e62\u0101d\u201d. \n\nPokok-pokok Isinya\n1.\tKeimanan:\na.\tKeesaan Allah yang telah menciptakan alam, mengirim nabi-nabi, menurunkan Al-Qur\u2019an, menciptakan hari akhirat, dan membalas yang baik dengan surga dan yang jahat dengan neraka.\nb.\tDalam surah ini Allah bersumpah dengan Al-Qur\u2019an untuk menunjukkan bahwa Kitab itu betul-betul wahyu dan isinya benar.\nc.\tIman kepada Nabi Muhammad, jangan menuduhnya dengan bermacam tuduhan seperti mengatakannya pesihir.\nd.\tIman kepada hari akhirat, yaitu tempat manusia hidup abadi sesuai dengan balasan amalnya.\n2.\tKisah-kisah:\na.\tKaum-kaum Nabi Nuh, \u2018Ad, Fir\u2018aun, A\u1e63\u1e25\u0101b al-Aikah yang ingkar lalu dihukum Allah.\nb.\tNabi-nabi Daud, Sulaiman, dan Ayub yang diuji Allah, supaya jadi pelajaran bagi manusia agar memiliki sifat sabar.\nc.\tNabi-nabi Ibrahim, Ishak, Yakub yang terpilih, dan Nabi-nabi Ismail, Ilyasa\u2018, Zulkifli yang merupakan orang-orang saleh.\nd.\tKisah penciptaan Adam dan Iblis, supaya jadi pelajaran bagi manusia bahwa Iblis itu adalah musuh terbesar mereka yang selalu ingin menjatuhkan mereka pada kesesatan.\n3.\tLain-lain:\na.\tFungsi Nabi Muhammad sebagai pemberi peringatan tanpa meminta imbalan atas tugasnya, dan Al-Qur\u2019an sebagai pedoman hidup paling benar, dan kebenarannya akan segera terbukti.\nb.\tPenyebab manusia masuk neraka adalah kesombongan dan permusuhan yang sengit dengan para rasul.\n",
        "outro_surah": null,
        "munasabah_prev_surah": "HUBUNGAN SURAH A\u1e62-\u1e62\u0100FF\u0100T\nDENGAN SURAH \u1e62\u0100D\n\n1.\tPokok-pokok yang disampaikan dalam Surah a\u1e63-\u1e62\u0101ff\u0101t adalah bukti-bukti tentang kemahaesaan dan kemahakuasaan Allah swt, adanya hari kemudian, perlunya manusia beriman dan menjalankan ajaran-ajaran yang disampaikan dalam Al-Qur\u2019an, dan adanya dua kelompok manusia yaitu yang beriman dan yang kafir dan nasib serta tempat mereka masing-masing nanti di akhirat apakah surga atau neraka. Surah \u1e62\u0101d dimulai dengan pernyataan-pernyataan tentang pokok-pokok yang disampaikan dalam Surah a\u1e63-\u1e62\u0101ff\u0101t, yaitu tentang Al-Qur\u2019an sebagai petunjuk, adanya manusia yang ingkar, kehancuran umat-umat terdahulu karena kekafiran mereka, tuduhan yang tidak benar terhadap Allah swt dan Nabi Muhammad. \n2.\tDalam Surah a\u1e63-\u1e62\u0101ff\u0101t dikisahkan perjuangan nabi-nabi Nuh, Ibrahim, Musa, Harun, Ilyas, Lut, dan Yunus serta nasib umat mereka. Dalam surah ini disampaikan nasib umat Nabi Nuh, \u2018Ad, Fir\u2018aun, dan A\u1e63\u1e25\u0101b al-Aikah dan kisah kesabaran nabi-nabi Daud dan Sulaiman, Ayub, Ibrahim, Ismail, Ilyasa\u2018, dan Zulkifli dalam berjuang.\n3.\tKedua surah menginginkan manusia supaya beriman, jangan menyekutukan Allah, jangan berpandangan salah terhadap Nabi Muhammad, mengakui dan menjalankan ajaran Al-Qur\u2019an, dan mengimani bahwa setelah kehidupan yang sekarang, ada lagi kehidupan yang abadi di akhirat. Manusia yang beriman akan bahagia, sedangkan yang kafir akan sengsara. \n4.\tGambaran kehidupan di dalam surga dan neraka yang sangat hidup. Di dalam Surah a\u1e63-\u1e62\u0101ff\u0101t dilukiskan bagaimana penghuni-penghuni neraka itu saling menyalahkan tetapi itu tidak ada gunanya. Dalam Surah \u1e62\u0101d penghuni neraka itu mencari orang yang menjerumuskan mereka tetapi tidak mereka temukan.",
        "munasabah_prev_theme": "Pada ayat-ayat yang lalu diterangkan bahwa Rasulullah membawa peringatan tentang azab bagi umatnya yang kafir dan ingkar pada dakwahnya. Pada ayat-ayat ini diterangkan tentang keengganan Iblis untuk taat pada perintah Allah untuk menghormat kepada Adam. Keengganan ini disebabkan oleh kedengkian dan kesombongannya. Demikian pula orang kafir Mekah enggan menerima dakwah Rasulullah dan selalu menentangnya karena kedengkian dan kesombongan mereka, sebagaimana yang dilakukan Iblis. ",
        "theme_group": "KISAH PENCIPTAAN NABI ADAM \n",
        "kosakata": "1.\tIbl\u012bs \u0625\u0650\u0628\u0652\u0644\u0650\u064a\u0652\u0633 (\u1e62\u0101d/38: 74)\nKata ibl\u012bs jamaknya ab\u0101lis dan ab\u0101lisah diambil dari fi\u2018il ablasa yang berarti jahat, bersedih, bingung, dan putus asa. Asal katanya al-balas yang berarti orang yang jahat. Iblis diciptakan dari api dan berasal dari golongan jin, yakni makhluk halus yang tidak dapat ditangkap oleh indera biasa.\nIblis identik dengan setan, tetapi setan tidak hanya membangkang perintah Tuhan sebagaimana Iblis, tetapi juga sebagai penggoda manusia. Iblis sudah ada sebelum Nabi Adam diciptakan. Sedangkan setan adalah iblis dengan peran dan fungsi baru itu, hidup dalam kalangan manusia dan seusia dengan mereka. Dalam kisah-kisah penciptaan Adam disebutkan dalam Al-Qur\u2019an adalah Iblis. Iblis tidak saja mengingkari perintah Allah dan tidak mau menghormati Adam, tetapi juga terlibat dalam perdebatan panjang dengan Allah. Akan tetapi, ketika Adam dan Hawa telah tergoda dengan memakan buah terlarang, maka yang menggoda mereka itu tidak lagi disebut Iblis, melainkan setan. Karena keangkuhan dan kedurhakaannya, Iblis dilaknat oleh Allah sampai hari kemudian.\n2.\tYaum al-Waqt al-Ma\u2018l\u016bm\t\u064a\u064e\u0648\u0652\u0645\u0650 \u0627\u0644\u0652\u0648\u064e\u0642\u0652\u062a\u0650 \u0627\u0644\u0652\u0645\u064e\u0639\u0652\u0644\u064f\u0648\u0652\u0645\u0650 (\u1e62\u0101d/38: 81)\nKata-kata yaum al-waqt al-ma\u2018l\u016bm artinya hari yang ditentukan, atau hari yang diketahui. Disebutkan dalam Surah \u1e62\u0101d/38 ayat 81 sebagai jawaban Allah terhadap permohonan Iblis, agar ia diberi penangguhan, yakni dipanjangkan usianya ke satu waktu yang lama sampai waktu semua manusia dibangkitkan dari kubur, yakni hari Kiamat. Hari Kiamat adalah hari peniupan pertama sangkakala. Dinamakan hari yang maklum atau hari yang diketahui, karena hanya Allah-lah yang mengetahuinya, sebagaimana firman-Nya dalam banyak ayat Al-Qur\u2019an. Iblis mengajukan permohonannya itu dengan tujuan memperoleh  kesempatan untuk menggoda serta menjerumuskan manusia dan tentu saja ini hanya dapat dilakukannya sebelum manusia mengalami kematian. ",
        "sabab_nuzul": null,
        "conclusion": null
    }
}