{
    "id": 4018,
    "surah_id": 38,
    "ayah": 48,
    "page": 456,
    "quarter_hizb": 46.25,
    "juz": 23,
    "manzil": 6,
    "arabic": "\u0648\u064e\u0627\u0630\u0652\u0643\u064f\u0631\u0652 \u0627\u0650\u0633\u0652\u0645\u0670\u0639\u0650\u064a\u0652\u0644\u064e \u0648\u064e\u0627\u0644\u0652\u064a\u064e\u0633\u064e\u0639\u064e \u0648\u064e\u0630\u064e\u0627 \u0627\u0644\u0652\u0643\u0650\u0641\u0652\u0644\u0650 \u06d7\u0648\u064e\u0643\u064f\u0644\u0651\u064c \u0645\u0651\u0650\u0646\u064e \u0627\u0644\u0652\u0627\u064e\u062e\u0652\u064a\u064e\u0627\u0631\u0650\u06d7",
    "latin": "Wa\u017ckur ism\u0101\u2018\u012bla wal-yasa\u2018a wa \u017cal-kifl(i), wa kullum minal-akhy\u0101r(i).",
    "translation": "Ingatlah Ismail, Ilyasa, dan Zulkifli. Semuanya termasuk orang-orang yang paling baik.",
    "no_footnote": null,
    "footnotes": null,
    "surah": {
        "id": 38,
        "arabic": "\u0635\u06e4",
        "latin": "\u1e62\u0101d ",
        "transliteration": "Sad",
        "translation": "\u1e62\u0101d ",
        "num_ayah": 88,
        "page": 453,
        "location": "Makkiyah"
    },
    "tafsir": {
        "wajiz": "Dan ingatlah, wahai Nabi Muhammad, kisah moyang bangsa Arab, yaitu Nabi Ismail bin Ibrahim; Nabi Ilyasa\u2019 bin Akhtub dan Nabi Zulkifli putra paman Nabi Ilyasa\u2019--nabi-nabi dari Bani Israil. Semuanya termasuk orang-orang yang paling baik yang dipilih Allah untuk membimbing kaumnya menuju ketaatan kepada Allah dan menjauhi kemusyrikan.",
        "tahlili": "Pada ayat ini, Allah memerintahkan kepada Rasulullah saw agar mengisahkan nabi-nabi yang lain, yaitu Ismail, Ilyasa\u2018, dan Zulkifli kepada kaumnya. Mereka ini adalah nabi-nabi yang gigih memperjuangkan tegaknya agama Allah di tengah-tengah kaumnya.\nAyat ini memisahkan penyebutan Ismail dengan ayahnya Ibrahim. Hal ini mengisyaratkan adanya perpisahan antara keduanya. Memang Nabi Ismail berpisah dengan ayahnya, setelah beliau ditinggal bersama ibunya, Hajar, di Mekah. \u1e6cahir bin Asyur, seperti yang dikutip Quraish Shihab, memahami bahwa pemisahan itu karena Nabi Ismail kelak akan menjadi kakek moyang dari umat yang besar, yaitu bangsa Arab. Sedang Ishak dan Yakub disatukan dengan Ibrahim karena mereka memang menjadi kakek moyang Bani Israil.\nPenggabungan Ilyasa\u2018 dan Ismail karena adanya persamaan antara keduanya, antara lain mereka sama-sama sebagai manusia pilihan, kedudukan Ilyasa\u2018 di kalangan Bani Israil serupa dengan kedudukan Ismail di kalangan keturunan Ibrahim. Kesamaan itu adalah Ilyasa\u2018 membantu Nabi Ilyas, sebagaimana Ismail membantu Ibrahim.\nMenurut asy-Syaukani dalam Tafsir Fat\u1e25 al-Qadir disebutkan bahwa penggabungan penyebutan Zulkifli, Ilyasa\u2018, dan Ismail karena mereka mempunyai kesamaan, yaitu orang-orang penyabar.\nPada penghujung ayat, Allah menegaskan bahwa mereka ini adalah hamba-hamba Allah yang paling baik, berakhlak tinggi, berbudi luhur, dan membimbing kaumnya agar taat kepada Allah dan menjauhi kemusyrikan.",
        "intro_surah": "Surah \u1e62\u0101d terdiri dari 88 ayat, termasuk surah Makkiyyah, diturunkan sesudah Surah al-Qamar dan sebelum Surah al-A\u2018r\u0101f. Surah ini dinamakan Surah \u1e62\u0101d karena dimulai dengan huruf \u201c\u1e62\u0101d\u201d. \n\nPokok-pokok Isinya\n1.\tKeimanan:\na.\tKeesaan Allah yang telah menciptakan alam, mengirim nabi-nabi, menurunkan Al-Qur\u2019an, menciptakan hari akhirat, dan membalas yang baik dengan surga dan yang jahat dengan neraka.\nb.\tDalam surah ini Allah bersumpah dengan Al-Qur\u2019an untuk menunjukkan bahwa Kitab itu betul-betul wahyu dan isinya benar.\nc.\tIman kepada Nabi Muhammad, jangan menuduhnya dengan bermacam tuduhan seperti mengatakannya pesihir.\nd.\tIman kepada hari akhirat, yaitu tempat manusia hidup abadi sesuai dengan balasan amalnya.\n2.\tKisah-kisah:\na.\tKaum-kaum Nabi Nuh, \u2018Ad, Fir\u2018aun, A\u1e63\u1e25\u0101b al-Aikah yang ingkar lalu dihukum Allah.\nb.\tNabi-nabi Daud, Sulaiman, dan Ayub yang diuji Allah, supaya jadi pelajaran bagi manusia agar memiliki sifat sabar.\nc.\tNabi-nabi Ibrahim, Ishak, Yakub yang terpilih, dan Nabi-nabi Ismail, Ilyasa\u2018, Zulkifli yang merupakan orang-orang saleh.\nd.\tKisah penciptaan Adam dan Iblis, supaya jadi pelajaran bagi manusia bahwa Iblis itu adalah musuh terbesar mereka yang selalu ingin menjatuhkan mereka pada kesesatan.\n3.\tLain-lain:\na.\tFungsi Nabi Muhammad sebagai pemberi peringatan tanpa meminta imbalan atas tugasnya, dan Al-Qur\u2019an sebagai pedoman hidup paling benar, dan kebenarannya akan segera terbukti.\nb.\tPenyebab manusia masuk neraka adalah kesombongan dan permusuhan yang sengit dengan para rasul.\n",
        "outro_surah": null,
        "munasabah_prev_surah": "HUBUNGAN SURAH A\u1e62-\u1e62\u0100FF\u0100T\nDENGAN SURAH \u1e62\u0100D\n\n1.\tPokok-pokok yang disampaikan dalam Surah a\u1e63-\u1e62\u0101ff\u0101t adalah bukti-bukti tentang kemahaesaan dan kemahakuasaan Allah swt, adanya hari kemudian, perlunya manusia beriman dan menjalankan ajaran-ajaran yang disampaikan dalam Al-Qur\u2019an, dan adanya dua kelompok manusia yaitu yang beriman dan yang kafir dan nasib serta tempat mereka masing-masing nanti di akhirat apakah surga atau neraka. Surah \u1e62\u0101d dimulai dengan pernyataan-pernyataan tentang pokok-pokok yang disampaikan dalam Surah a\u1e63-\u1e62\u0101ff\u0101t, yaitu tentang Al-Qur\u2019an sebagai petunjuk, adanya manusia yang ingkar, kehancuran umat-umat terdahulu karena kekafiran mereka, tuduhan yang tidak benar terhadap Allah swt dan Nabi Muhammad. \n2.\tDalam Surah a\u1e63-\u1e62\u0101ff\u0101t dikisahkan perjuangan nabi-nabi Nuh, Ibrahim, Musa, Harun, Ilyas, Lut, dan Yunus serta nasib umat mereka. Dalam surah ini disampaikan nasib umat Nabi Nuh, \u2018Ad, Fir\u2018aun, dan A\u1e63\u1e25\u0101b al-Aikah dan kisah kesabaran nabi-nabi Daud dan Sulaiman, Ayub, Ibrahim, Ismail, Ilyasa\u2018, dan Zulkifli dalam berjuang.\n3.\tKedua surah menginginkan manusia supaya beriman, jangan menyekutukan Allah, jangan berpandangan salah terhadap Nabi Muhammad, mengakui dan menjalankan ajaran Al-Qur\u2019an, dan mengimani bahwa setelah kehidupan yang sekarang, ada lagi kehidupan yang abadi di akhirat. Manusia yang beriman akan bahagia, sedangkan yang kafir akan sengsara. \n4.\tGambaran kehidupan di dalam surga dan neraka yang sangat hidup. Di dalam Surah a\u1e63-\u1e62\u0101ff\u0101t dilukiskan bagaimana penghuni-penghuni neraka itu saling menyalahkan tetapi itu tidak ada gunanya. Dalam Surah \u1e62\u0101d penghuni neraka itu mencari orang yang menjerumuskan mereka tetapi tidak mereka temukan.",
        "munasabah_prev_theme": "Pada ayat-ayat yang lalu, Allah memerintahkan kepada Rasulullah agar mengisahkan kepada kaumnya kisah perjuangan para nabi, yang sangat taat dan sabar menghadapi segala macam rintangan dan cobaan hidup. Pada ayat-ayat berikut ini, Allah memerintahkan kepada Rasul-Nya agar mengisahkan beberapa nabi yang terpilih, yang mempunyai ilmu pengetahuan yang luas, kesadaran yang tinggi untuk mempertahankan kebenaran, dan memiliki jiwa yang bersih atau suci dalam melaksanakan perintah-perintah Tuhannya hingga mereka dimasukkan ke dalam deretan hamba-hamba Allah yang terpilih. ",
        "theme_group": "KISAH BEBERAPA NABI PILIHAN",
        "kosakata": "Kosakata: Uli al-aid\u012b  \u0623\u064f\u0648\u0652\u0644\u0650\u0649 \u0627\u0652\u0644\u0623\u064e\u064a\u0652\u062f\u0650\u064a\u0652 (\u1e62\u0101d/38: 45)\nTerm uli al-aid\u012b terdiri dari dua kata, yaitu uli dan al-aid\u012b. Yang pertama (uli) merupakan bentuk jamak yang artinya memiliki. Sedang yang kedua (al-aid\u012b) merupakan bentuk jamak dari al-yad yang artinya tangan. Karena tangan dipergunakan untuk melakukan pekerjaan-pekerjaan, ringan atau berat, dan memberi sesuatu kepada yang lain, maka kata itu juga diberi arti kuat/teguh atau pemberian. Yang dimaksud pada ayat ini adalah keteguhan dalam beragama. Dengan demikian, uli al-aid\u012b diartikan sebagai orang-orang yang memiliki keteguhan beragama. Adapun yang dimaksud dalam ayat ini adalah Nabi Ibrahim, Ishak, dan Yakub.",
        "sabab_nuzul": null,
        "conclusion": "1. \tRasulullah dan para pengikutnya diperintahkan agar mencontoh Nabi Ibrahim, Ishak, dan Yakub karena ketaatan dan kesabarannya. Mereka dikaruniai Allah ilmu pengetahuan agama dan kemampuan untuk mempertahankan agama tauhid.\n2. \tAkhlak mereka yang tinggi dan budi pekerti mereka yang luhur hendaklah diteladani dan menjadi pelajaran bagi kaum Muslimin.\n3. \tMereka berjuang untuk menegakkan kalimat tauhid dan dengan gigih menghancurkan kemusyrikan, sehingga dimasukkan Allah dalam golongan hamba-Nya yang paling baik.\n4. \tIsmail, Ilyasa\u2018, dan Zulkifli dimasukkan oleh Allah juga ke dalam golongan hamba-hamba-Nya yang terpilih, karena kesabarannya menegakkan kalimat tauhid dan memusnahkan kemusyrikan. Perjuangan mereka ini patut dicontoh dan dipedomani."
    }
}