{
    "id": 3992,
    "surah_id": 38,
    "ayah": 22,
    "page": 454,
    "quarter_hizb": 46.25,
    "juz": 23,
    "manzil": 6,
    "arabic": "\u0627\u0650\u0630\u0652 \u062f\u064e\u062e\u064e\u0644\u064f\u0648\u0652\u0627 \u0639\u064e\u0644\u0670\u0649 \u062f\u064e\u0627\u0648\u0657\u062f\u064e \u0641\u064e\u0641\u064e\u0632\u0650\u0639\u064e \u0645\u0650\u0646\u0652\u0647\u064f\u0645\u0652 \u0642\u064e\u0627\u0644\u064f\u0648\u0652\u0627 \u0644\u064e\u0627 \u062a\u064e\u062e\u064e\u0641\u0652\u06da \u062e\u064e\u0635\u0652\u0645\u0670\u0646\u0650 \u0628\u064e\u063a\u0670\u0649 \u0628\u064e\u0639\u0652\u0636\u064f\u0646\u064e\u0627 \u0639\u064e\u0644\u0670\u0649 \u0628\u064e\u0639\u0652\u0636\u064d \u0641\u064e\u0627\u062d\u0652\u0643\u064f\u0645\u0652 \u0628\u064e\u064a\u0652\u0646\u064e\u0646\u064e\u0627 \u0628\u0650\u0627\u0644\u0652\u062d\u064e\u0642\u0651\u0650 \u0648\u064e\u0644\u064e\u0627 \u062a\u064f\u0634\u0652\u0637\u0650\u0637\u0652 \u0648\u064e\u0627\u0647\u0652\u062f\u0650\u0646\u064e\u0627\u0653 \u0627\u0650\u0644\u0670\u0649 \u0633\u064e\u0648\u064e\u0627\u06e4\u0621\u0650 \u0627\u0644\u0635\u0651\u0650\u0631\u064e\u0627\u0637\u0650",
    "latin": "I\u017c dakhal\u016b \u2018al\u0101 d\u0101w\u016bda fafazi\u2018a minhum q\u0101l\u016b l\u0101 takhaf, kha\u1e63m\u0101ni bag\u0101 ba\u2018\u1e0dun\u0101 \u2018al\u0101 ba\u2018\u1e0din fa\u1e25kum bainan\u0101 bil-\u1e25aqqi wa l\u0101 tusy\u1e6di\u1e6d wahdin\u0101 il\u0101 saw\u0101'i\u1e63-\u1e63ir\u0101\u1e6d(i).",
    "translation": "Ketika mereka masuk menemui Daud, dia terkejut karena (kedatangan) mereka. Mereka berkata, \u201cJanganlah takut! (Kami) berdua sedang berselisih. Sebagian kami berbuat aniaya kepada yang lain. Maka, berilah keputusan di antara kami dengan hak, janganlah menyimpang dari kebenaran, dan tunjukilah kami ke jalan yang lurus.\u201d",
    "no_footnote": null,
    "footnotes": null,
    "surah": {
        "id": 38,
        "arabic": "\u0635\u06e4",
        "latin": "\u1e62\u0101d ",
        "transliteration": "Sad",
        "translation": "\u1e62\u0101d ",
        "num_ayah": 88,
        "page": 453,
        "location": "Makkiyah"
    },
    "tafsir": {
        "wajiz": "Ketika itu, mereka masuk untuk menemui Nabi Dawud lalu dia terkejut karena kedatangan mereka yang tak terduga itu dan mengira mereka hendak berbuat tidak baik kepadanya. Mereka berkata untuk menenangkan hatinya, \u201cJanganlah takut! Wahai Nabi Dawud, kami berdua sedang berselisih tentang suatu perkara; sebagian dari kami berbuat zalim kepada yang lain, maka berilah keputusan di antara kami secara adil dan janganlah menyimpang dari kebenaran serta tunjukilah kami ke jalan yang lurus dan benar.",
        "tahlili": "Allah menyebutkan salah satu peristiwa yang menarik di antara kisah Nabi Daud. Kisah ini dimulai dengan pertanyaan yang ditujukan kepada Rasulullah dan pengikut-pengikutnya, untuk menunjukkan bahwa kisah dimaksud benar-benar menarik perhatian dan patut diteladani. Kisah yang menarik itu ialah kisah orang-orang yang berperkara yang datang kepada Nabi Daud. Daud pada waktu itu berada di tempat peribadatannya. Nabi Daud pun terperanjat karena beliau menyangka mereka itu datang untuk memperdayainya. Nabi Daud menduga demikian, karena mereka datang dengan cara dan dalam waktu yang tak biasa. Pada saat itulah, mereka meminta kepada Daud agar tidak merasa takut. Selanjutnya mereka menjelaskan bahwa mereka mempunyai perkara yang harus diputuskan, dan meminta agar perkaranya diputuskan dengan keputusan yang adil, lagi tidak menyimpang dari kebenaran.",
        "intro_surah": "Surah \u1e62\u0101d terdiri dari 88 ayat, termasuk surah Makkiyyah, diturunkan sesudah Surah al-Qamar dan sebelum Surah al-A\u2018r\u0101f. Surah ini dinamakan Surah \u1e62\u0101d karena dimulai dengan huruf \u201c\u1e62\u0101d\u201d. \n\nPokok-pokok Isinya\n1.\tKeimanan:\na.\tKeesaan Allah yang telah menciptakan alam, mengirim nabi-nabi, menurunkan Al-Qur\u2019an, menciptakan hari akhirat, dan membalas yang baik dengan surga dan yang jahat dengan neraka.\nb.\tDalam surah ini Allah bersumpah dengan Al-Qur\u2019an untuk menunjukkan bahwa Kitab itu betul-betul wahyu dan isinya benar.\nc.\tIman kepada Nabi Muhammad, jangan menuduhnya dengan bermacam tuduhan seperti mengatakannya pesihir.\nd.\tIman kepada hari akhirat, yaitu tempat manusia hidup abadi sesuai dengan balasan amalnya.\n2.\tKisah-kisah:\na.\tKaum-kaum Nabi Nuh, \u2018Ad, Fir\u2018aun, A\u1e63\u1e25\u0101b al-Aikah yang ingkar lalu dihukum Allah.\nb.\tNabi-nabi Daud, Sulaiman, dan Ayub yang diuji Allah, supaya jadi pelajaran bagi manusia agar memiliki sifat sabar.\nc.\tNabi-nabi Ibrahim, Ishak, Yakub yang terpilih, dan Nabi-nabi Ismail, Ilyasa\u2018, Zulkifli yang merupakan orang-orang saleh.\nd.\tKisah penciptaan Adam dan Iblis, supaya jadi pelajaran bagi manusia bahwa Iblis itu adalah musuh terbesar mereka yang selalu ingin menjatuhkan mereka pada kesesatan.\n3.\tLain-lain:\na.\tFungsi Nabi Muhammad sebagai pemberi peringatan tanpa meminta imbalan atas tugasnya, dan Al-Qur\u2019an sebagai pedoman hidup paling benar, dan kebenarannya akan segera terbukti.\nb.\tPenyebab manusia masuk neraka adalah kesombongan dan permusuhan yang sengit dengan para rasul.\n",
        "outro_surah": null,
        "munasabah_prev_surah": "HUBUNGAN SURAH A\u1e62-\u1e62\u0100FF\u0100T\nDENGAN SURAH \u1e62\u0100D\n\n1.\tPokok-pokok yang disampaikan dalam Surah a\u1e63-\u1e62\u0101ff\u0101t adalah bukti-bukti tentang kemahaesaan dan kemahakuasaan Allah swt, adanya hari kemudian, perlunya manusia beriman dan menjalankan ajaran-ajaran yang disampaikan dalam Al-Qur\u2019an, dan adanya dua kelompok manusia yaitu yang beriman dan yang kafir dan nasib serta tempat mereka masing-masing nanti di akhirat apakah surga atau neraka. Surah \u1e62\u0101d dimulai dengan pernyataan-pernyataan tentang pokok-pokok yang disampaikan dalam Surah a\u1e63-\u1e62\u0101ff\u0101t, yaitu tentang Al-Qur\u2019an sebagai petunjuk, adanya manusia yang ingkar, kehancuran umat-umat terdahulu karena kekafiran mereka, tuduhan yang tidak benar terhadap Allah swt dan Nabi Muhammad. \n2.\tDalam Surah a\u1e63-\u1e62\u0101ff\u0101t dikisahkan perjuangan nabi-nabi Nuh, Ibrahim, Musa, Harun, Ilyas, Lut, dan Yunus serta nasib umat mereka. Dalam surah ini disampaikan nasib umat Nabi Nuh, \u2018Ad, Fir\u2018aun, dan A\u1e63\u1e25\u0101b al-Aikah dan kisah kesabaran nabi-nabi Daud dan Sulaiman, Ayub, Ibrahim, Ismail, Ilyasa\u2018, dan Zulkifli dalam berjuang.\n3.\tKedua surah menginginkan manusia supaya beriman, jangan menyekutukan Allah, jangan berpandangan salah terhadap Nabi Muhammad, mengakui dan menjalankan ajaran Al-Qur\u2019an, dan mengimani bahwa setelah kehidupan yang sekarang, ada lagi kehidupan yang abadi di akhirat. Manusia yang beriman akan bahagia, sedangkan yang kafir akan sengsara. \n4.\tGambaran kehidupan di dalam surga dan neraka yang sangat hidup. Di dalam Surah a\u1e63-\u1e62\u0101ff\u0101t dilukiskan bagaimana penghuni-penghuni neraka itu saling menyalahkan tetapi itu tidak ada gunanya. Dalam Surah \u1e62\u0101d penghuni neraka itu mencari orang yang menjerumuskan mereka tetapi tidak mereka temukan.",
        "munasabah_prev_theme": "Pada ayat-ayat yang lalu, Allah menjelaskan pengingkaran dan tantangan kaum musyrikin kepada Rasulullah dan pengikut-pengikutnya, yang melampaui batas. Mereka menuduh Rasulullah sebagai pendusta dan tukang sihir. Mereka menentang agar siksa yang diancamkan segera didatangkan. Pada ayat-ayat berikut ini, Allah memerintahkan kepada Rasulullah dan seluruh kaum Muslimin agar bersabar dalam menghadapi pengingkaran dan penghinaan kaum musyrikin, dengan mengambil contoh teladan pada perjuangan nabi yang diutus sebelumnya. Tiap-tiap nabi yang mendapat tantangan itu dan menyelamatkan kaumnya, tentu diberi jalan untuk mengatasi tantangan itu dan menyelamatkan kaumnya dari penganiayaan musuh-musuhnya.\n",
        "theme_group": "KISAH NABI DAUD ",
        "kosakata": "1. \t\u017ba al-Aid \u0630\u064e\u0627 \u0627\u0652\u0644\u0627\u064e\u064a\u0652\u062f\u0650 (\u1e62\u0101d/38: 17)\nKata aid berasal dari kata \u0101da ya\u012bdu aidan yang berarti kekuatan baik secara fisik atau non fisik. At-Ta'y\u012bd berarti menguatkan, dalam firman-Nya \u201cI\u017c ayyadtuka bi r\u016b\u1e25 al-Quds. Pada ayat lain Allah berfirman: Wa as-sam\u0101\u2019 banain\u0101h\u0101 bi aidin. Rajul ayyid artinya lelaki yang sangat kuat. Iy\u0101d adalah sesuatu yang bisa menguatkan dan menjaga.  \nPada ayat ini Allah menjelaskan tentang sifat salah satu nabi-Nya yaitu  Daud. Nabi Daud dianugerahi Allah dengan kekuatan yang dimilikinya. Kekuatan di sini adalah kekuatan dalam menaati Allah dan kekuatan dalam memahami agama. Ketaatan kepada Allah dan pengetahuannya terhadap agama tergambar pada tindakannya yang selalu berjuang melaksanakan amanat, menyebarluaskan risalah tauhid tanpa menampakkan kelemahan sedikit pun. Beliau dikenal sebagai nabi yang kuat dalam beribadah, beliau senantiasa melaksanakan sehari berpuasa sehari berbuka, sehingga dikenal puasa selang sehari dengan puasa Nabi Daud. Beliau juga menggunakan sepertiga malam untuk salat Tahajud. Kekuatan ini juga diartikan dengan kekuatan secara fisik dan mental. Beliau tidak pernah lari bila bertemu musuh, ia diberikan mukjizat berupa kemampuan melunakkan besi (Saba'/34: 10-11). Ia juga memiliki kerajaan yang kuat, hikmah  dan kebijaksanaan dalam menyelesaikan permasalahan. \n2. \tNa\u2018jah \u0646\u064e\u0639\u0652\u062c\u064e\u0629\u064c (\u1e62\u0101d/38: 23)\nKata na\u2018jah memiliki arti kambing atau biri-biri betina, sapi liar atau kambing gunung, bentuk jamaknya adalah ni\u2018\u0101j dan na\u2018aj\u0101t. Bangsa Arab menyebut wanita dengan na\u2018jat dan sy\u0101t. Na\u2018ija ar-rajul artinya seseorang yang memakan daging kambing  lalu merasa tidak enak perutnya. Imra\u2018at n\u0101\u2018ijah artinya perempuan yang memiliki warna kulit putih mulus. An\u2018aja ar-rajul artinya orang itu menggemukkan kambingnya.  \t",
        "sabab_nuzul": null,
        "conclusion": null
    }
}