{
    "id": 4000,
    "surah_id": 38,
    "ayah": 30,
    "page": 455,
    "quarter_hizb": 46.25,
    "juz": 23,
    "manzil": 6,
    "arabic": "\u0648\u064e\u0648\u064e\u0647\u064e\u0628\u0652\u0646\u064e\u0627 \u0644\u0650\u062f\u064e\u0627\u0648\u0657\u062f\u064e \u0633\u064f\u0644\u064e\u064a\u0652\u0645\u0670\u0646\u064e\u06d7 \u0646\u0650\u0639\u0652\u0645\u064e \u0627\u0644\u0652\u0639\u064e\u0628\u0652\u062f\u064f \u06d7\u0627\u0650\u0646\u0651\u064e\u0647\u0657\u0653 \u0627\u064e\u0648\u0651\u064e\u0627\u0628\u064c\u06d7",
    "latin": "Wa wahabn\u0101 lid\u0101w\u016bda wa sulaim\u0101n(a), ni\u2018mal-\u2018abd(u), innah\u016b aww\u0101b(un).",
    "translation": "Kami menganugerahkan kepada Daud (anak bernama) Sulaiman. Dia adalah sebaik-baik hamba. Sesungguhnya dia sangat taat (kepada Allah).",
    "no_footnote": null,
    "footnotes": null,
    "surah": {
        "id": 38,
        "arabic": "\u0635\u06e4",
        "latin": "\u1e62\u0101d ",
        "transliteration": "Sad",
        "translation": "\u1e62\u0101d ",
        "num_ayah": 88,
        "page": 453,
        "location": "Makkiyah"
    },
    "tafsir": {
        "wajiz": "Dan tidak hanya anugerah ilmu pengetahuan dan kenabian, kepada Nabi Dawud Kami karuniakan pula seorang putra yang mengikuti jejak dan perjuangannya, yaitu Nabi Sulaiman. Dia adalah sebaik-baik hamba yang selalu beribadah dan bersyukur. Sungguh, dia sangat taat pada perintah Allah.",
        "tahlili": "Allah menjelaskan bahwa di samping dianugerahi kemuliaan dan kekuasaan, Daud juga dianugerahi putera yang saleh, yang mempunyai kemampuan melanjutkan perjuangannya, yaitu Sulaiman. Ia mewarisi sifat-sifat ayahnya. Ia terkenal sebagai hamba yang taat beribadah dan dalam segala urusan ia selalu bersyukur kepada Allah. Ia yakin bahwa segala macam kenikmatan dan keindahan itu terwujud hanyalah semata-mata karena limpahan rahmat Allah dan karunia-Nya. Itulah sebabnya ia disebut sebagai hamba Allah yang paling baik, dan sebagai pujian yang pantas diberikan kepadanya. Allah menyifatinya sebagai hamba-Nya yang amat taat kepada-Nya. Dengan demikian, Allah mengangkat Nabi Sulaiman menjadi nabi penerus kenabian dan kerajaan Nabi Daud, serta mewarisi ilmu pengetahuannya yang tertuang dalam Kitab Zabur.\nAllah berfirman:\n\u0648\u064e\u0648\u064e\u0631\u0650\u062b\u064e \u0633\u064f\u0644\u064e\u064a\u0652\u0645\u0670\u0646\u064f \u062f\u064e\u0627\u0648\u0657\u062f\u064e ... \u0661\u0666\nDan Sulaiman telah mewarisi Daud. (an-Naml/27: 16)",
        "intro_surah": "Surah \u1e62\u0101d terdiri dari 88 ayat, termasuk surah Makkiyyah, diturunkan sesudah Surah al-Qamar dan sebelum Surah al-A\u2018r\u0101f. Surah ini dinamakan Surah \u1e62\u0101d karena dimulai dengan huruf \u201c\u1e62\u0101d\u201d. \n\nPokok-pokok Isinya\n1.\tKeimanan:\na.\tKeesaan Allah yang telah menciptakan alam, mengirim nabi-nabi, menurunkan Al-Qur\u2019an, menciptakan hari akhirat, dan membalas yang baik dengan surga dan yang jahat dengan neraka.\nb.\tDalam surah ini Allah bersumpah dengan Al-Qur\u2019an untuk menunjukkan bahwa Kitab itu betul-betul wahyu dan isinya benar.\nc.\tIman kepada Nabi Muhammad, jangan menuduhnya dengan bermacam tuduhan seperti mengatakannya pesihir.\nd.\tIman kepada hari akhirat, yaitu tempat manusia hidup abadi sesuai dengan balasan amalnya.\n2.\tKisah-kisah:\na.\tKaum-kaum Nabi Nuh, \u2018Ad, Fir\u2018aun, A\u1e63\u1e25\u0101b al-Aikah yang ingkar lalu dihukum Allah.\nb.\tNabi-nabi Daud, Sulaiman, dan Ayub yang diuji Allah, supaya jadi pelajaran bagi manusia agar memiliki sifat sabar.\nc.\tNabi-nabi Ibrahim, Ishak, Yakub yang terpilih, dan Nabi-nabi Ismail, Ilyasa\u2018, Zulkifli yang merupakan orang-orang saleh.\nd.\tKisah penciptaan Adam dan Iblis, supaya jadi pelajaran bagi manusia bahwa Iblis itu adalah musuh terbesar mereka yang selalu ingin menjatuhkan mereka pada kesesatan.\n3.\tLain-lain:\na.\tFungsi Nabi Muhammad sebagai pemberi peringatan tanpa meminta imbalan atas tugasnya, dan Al-Qur\u2019an sebagai pedoman hidup paling benar, dan kebenarannya akan segera terbukti.\nb.\tPenyebab manusia masuk neraka adalah kesombongan dan permusuhan yang sengit dengan para rasul.\n",
        "outro_surah": null,
        "munasabah_prev_surah": "HUBUNGAN SURAH A\u1e62-\u1e62\u0100FF\u0100T\nDENGAN SURAH \u1e62\u0100D\n\n1.\tPokok-pokok yang disampaikan dalam Surah a\u1e63-\u1e62\u0101ff\u0101t adalah bukti-bukti tentang kemahaesaan dan kemahakuasaan Allah swt, adanya hari kemudian, perlunya manusia beriman dan menjalankan ajaran-ajaran yang disampaikan dalam Al-Qur\u2019an, dan adanya dua kelompok manusia yaitu yang beriman dan yang kafir dan nasib serta tempat mereka masing-masing nanti di akhirat apakah surga atau neraka. Surah \u1e62\u0101d dimulai dengan pernyataan-pernyataan tentang pokok-pokok yang disampaikan dalam Surah a\u1e63-\u1e62\u0101ff\u0101t, yaitu tentang Al-Qur\u2019an sebagai petunjuk, adanya manusia yang ingkar, kehancuran umat-umat terdahulu karena kekafiran mereka, tuduhan yang tidak benar terhadap Allah swt dan Nabi Muhammad. \n2.\tDalam Surah a\u1e63-\u1e62\u0101ff\u0101t dikisahkan perjuangan nabi-nabi Nuh, Ibrahim, Musa, Harun, Ilyas, Lut, dan Yunus serta nasib umat mereka. Dalam surah ini disampaikan nasib umat Nabi Nuh, \u2018Ad, Fir\u2018aun, dan A\u1e63\u1e25\u0101b al-Aikah dan kisah kesabaran nabi-nabi Daud dan Sulaiman, Ayub, Ibrahim, Ismail, Ilyasa\u2018, dan Zulkifli dalam berjuang.\n3.\tKedua surah menginginkan manusia supaya beriman, jangan menyekutukan Allah, jangan berpandangan salah terhadap Nabi Muhammad, mengakui dan menjalankan ajaran Al-Qur\u2019an, dan mengimani bahwa setelah kehidupan yang sekarang, ada lagi kehidupan yang abadi di akhirat. Manusia yang beriman akan bahagia, sedangkan yang kafir akan sengsara. \n4.\tGambaran kehidupan di dalam surga dan neraka yang sangat hidup. Di dalam Surah a\u1e63-\u1e62\u0101ff\u0101t dilukiskan bagaimana penghuni-penghuni neraka itu saling menyalahkan tetapi itu tidak ada gunanya. Dalam Surah \u1e62\u0101d penghuni neraka itu mencari orang yang menjerumuskan mereka tetapi tidak mereka temukan.",
        "munasabah_prev_theme": "Pada ayat yang lalu, Allah memerintahkan kepada Rasulullah dan kaum Muslimin agar mentadaburi Al-Qur\u2019an agar mendapatkan bimbingan dan  kemuliaan sehingga memiliki kemampuan memimpin kaumnya. Pada ayat-ayat berikut ini, Allah mengisahkan Sulaiman putera Daud, seorang hamba yang saat taat sehingga dianugerahi kemuliaan dan kekuasaan memimpin kaumnya.",
        "theme_group": "KISAH NABI SULAIMAN",
        "kosakata": "1.\ta\u1e63-\u1e62\u0101fin\u0101t al-Jiy\u0101d \u0627\u0644\u0635\u0651\u064e\u0627\u0641\u0650\u0646\u064e\u0627\u062a\u064f \u0627\u0644\u0652\u062c\u0650\u064a\u064e\u0627\u062f\u064f (\u1e62\u0101d/38: 31)\nTerm a\u1e63-\u1e63\u0101fin\u0101t al-jiy\u0101d terdiri dari dua kata, yaitu a\u1e63-\u1e63\u0101fin\u0101t dan al-jiy\u0101d. Yang pertama (a\u1e63-\u1e63\u0101fin\u0101t) merupakan bentuk jamak dari \u1e63\u0101fin, yang artinya kuda yang berdiri dengan tiga kaki, sedang yang satu terangkat dan hanya ujungnya yang menyentuh tanah. \u1e63\u0101fin merupakan kata yang hanya dipergunakan untuk menyebut keadaan kuda dalam kondisi seperti yang telah disebutkan. Oleh karena itu, kata a\u1e63-\u1e63\u0101fin\u0101t merupakan ajektif yang subjeknya tidak disebutkan, namun dapat diketahui bahwa subjeknya adalah kuda-kuda.\nSedang yang kedua (al-jiy\u0101d) merupakan bentuk jamak dari kata al-jawad, yang artinya kuda yang istimewa. Kata ini dapat pula berarti pemberian yang sangat banyak. Manusia yang sangat dermawan biasa disebut al-jawad. Kuda yang berlari sekuat tenaga disebut jawad, karena semua tenaganya dicurahkan untuk berlari.\n\ta\u1e63-\u1e63\u0101fin\u0101t al-jiy\u0101d, dengan demikian, dapat diartikan sebagai kuda-kuda istimewa yang dapat berlari kencang. Dalam ayat ini, kuda-kuda ini dihadiahkan kepada Nabi Sulaiman, dan beliau sangat menyukainya. Karena asyik memperhatikan dan mengaguminya, beliau sampai lupa untuk mengingat (beribadah) kepada Tuhannya.\n2.\tJasadan \u062c\u064e\u0633\u064e\u062f\u064b\u0627 (\u1e62\u0101d/38: 34)\nJasad artinya tubuh, yang dalam ayat ini adalah tubuh yang dicampakkan ke atas singgasana Nabi Sulaiman. Ada yang berpendapat bahwa yang dimaksud dengan jasad ini adalah patung dari ayah salah satu istri beliau yang atas izinnya dibuat agar si istri dapat mengenangnya. Patung ini disebut jasad dan dicampakkan, dalam arti diletakkan dengan mantap di sekitar singgasananya.\n\tPendapat lain mengungkapkan bahwa yang dimaksud dengan jasad pada ayat ini adalah jasad Nabi Sulaiman sendiri pada saat ia menderita sakit parah. Seakan-akan ayat di atas mengungkapkan, \u201dDan Kami mencampak-kannya di atas singgasananya, bagaikan satu jasad tanpa roh akibat sakit yang dideritanya.\u201d\n\tAda pula yang mengartikan sebagai bentuk metafora, yaitu bahwa kewibawaan suatu singgasana itu berkaitan erat dengan sesuatu yang bersifat immaterial. Bila hal itu telah kehilangan substansi abstraknya, maka ia akan menjadi suatu bentuk material saja, atau dalam istilah ayat ini jasad tanpa roh, dan bentuk tanpa jiwa. Berkaitan dengan Nabi Sulaiman yang juga raja, bila sebelumnya memiliki singgasana yang sangat berwibawa, karena tergabung di atasnya kemuliaan kenabian dan keagungan kerajaan. Dengan keadaannya yang sedemikian, tidak seorangpun berani menentangnya. Namun demikian, kini singgasana itu tidak memiliki wibawa lagi, sehingga ada sesuatu yang dicampakkan ke atasnya tanpa keinginan Nabi Sulaiman. Yang sedemikian ini agar beliau mengetahui bahwa kekuasaan itu hanya bersumber dari Allah.",
        "sabab_nuzul": null,
        "conclusion": null
    }
}