{
    "id": 4108,
    "surah_id": 39,
    "ayah": 50,
    "page": 464,
    "quarter_hizb": 47,
    "juz": 24,
    "manzil": 6,
    "arabic": "\u0642\u064e\u062f\u0652 \u0642\u064e\u0627\u0644\u064e\u0647\u064e\u0627 \u0627\u0644\u0651\u064e\u0630\u0650\u064a\u0652\u0646\u064e \u0645\u0650\u0646\u0652 \u0642\u064e\u0628\u0652\u0644\u0650\u0647\u0650\u0645\u0652 \u0641\u064e\u0645\u064e\u0627\u0653 \u0627\u064e\u063a\u0652\u0646\u0670\u0649 \u0639\u064e\u0646\u0652\u0647\u064f\u0645\u0652 \u0645\u0651\u064e\u0627 \u0643\u064e\u0627\u0646\u064f\u0648\u0652\u0627 \u064a\u064e\u0643\u0652\u0633\u0650\u0628\u064f\u0648\u0652\u0646\u064e",
    "latin": "Qad q\u0101lahal-la\u017c\u012bna min qablihim fam\u0101 agn\u0101 \u2018anhum m\u0101 k\u0101n\u016b yaksib\u016bn(a).",
    "translation": "Sungguh, orang-orang yang sebelum mereka pun telah mengatakan hal itu. Maka, tidak berguna lagi bagi mereka apa yang selalu mereka usahakan.",
    "no_footnote": null,
    "footnotes": null,
    "surah": {
        "id": 39,
        "arabic": "\u0627\u0644\u0632\u0651\u0645\u0631",
        "latin": "Az-Zumar",
        "transliteration": "Az-Zumar",
        "translation": "Rombongan",
        "num_ayah": 75,
        "page": 458,
        "location": "Makkiyah"
    },
    "tafsir": {
        "wajiz": "Sikap yang tergambar di atas bukan hanya dimiliki oleh orang-orang musyrik Mekah, tetapi juga oleh orang-orang yang jauh sebelum mereka. Sungguh, orang-orang yang sebelum mereka, yaitu Qarun pada masa Nabi Musa, pun telah mengatakan hal itu juga (Lihat: Surah al-Qasas/28: 78), maka oleh sebab itu, tidak berguna lagi bagi mereka sedikit pun apa yang dahulu mereka kerjakan di kehidupan dunia.",
        "tahlili": "Pada ayat ini, Allah menerangkan bahwa ucapan seperti itu pernah didengar pula dari umat-umat sebelum mereka, sehingga anggapan seperti itu bukanlah anggapan yang baru. Apa-apa yang mereka usahakan dahulu itu tidak berguna untuk menolak datangnya azab dari Allah karena mereka selalu bersikap mendustakan dan mencemooh kedatangan utusan Allah.",
        "intro_surah": "Surah az-Zumar terdiri dari 75 ayat, termasuk kelompok surah-surah Makkiyyah diturunkan sesudah Surah Saba\u2019.\nDinamakan \u201caz-Zumar\u201d karena kata \u201caz-zumar\u201d terdapat pada ayat 71 dan 73 surah itu.\nDalam ayat-ayat tersebut diterangkan keadaan manusia di hari Kiamat setelah mereka dihisab, di waktu itu mereka terbagi menjadi dua kelompok: satu kelompok dibawa ke neraka dan satu kelompok lagi dibawa ke surga. Masing-masing rombongan memperoleh balasan dari apa yang mereka kerjakan di dunia dahulu.\nSurah ini dinamakan juga \u201cal-Guraf\u201d (kamar-kamar) sehubungan dengan perkataan \u201cguraf\u201d yang terdapat dalam ayat 20, di mana diterangkan keadaan kamar-kamar dalam surga yang diperoleh orang-orang yang bertakwa.\n\nPokok-pokok Isinya:\n1.\tKeimanan:\nDalil-dalil keesaan dan kekuasaan Allah; malaikat-malaikat berkumpul di sekeliling Arasy bertasbih kepada Tuhannya; pada hari Kiamat tiap-tiap orang mempunyai catatan amalnya masing-masing.\n2.\tKisah-kisah:\nPerintah memurnikan ketaatan kepada Allah; larangan berputus asa terhadap rahmat Allah.\n3.\tLain-lain:\nTabiat orang-orang musyrik dalam keadaan senang dan susah; perumpamaan dalam Al-Qur\u2019an dan faedahnya; kedahsyatan hari Kiamat; air muka orang musyrik dan air muka orang mukmin pada hari Kiamat; janji Allah mengampuni orang-orang yang bersalah bila mereka bertobat.",
        "outro_surah": null,
        "munasabah_prev_surah": "HUBUNGAN SURAH \u1e62\u0100D DENGAN\nSURAH AZ-ZUMAR\n\n1. \tAkhir Surah \u1e62\u0101d menerangkan bahwa Al-Qur\u2019an merupakan peringatan bagi semesta alam, sedang permulaan Surah az-Zumar menerangkan bahwa Al-Qur\u2019an turun dari Allah Yang Mahaperkasa, lagi Mahabijaksana.\n2. \tKedua surah menyebut hal ihwal makhluk sejak permulaan sampai kembali kepada Allah.\n3. \tKalau kita perhatikan seakan-akan Surah az-Zumar merupakan lanjutan dari Surah \u1e62\u0101d, karena pada akhir Surah \u1e62\u0101d diterangkan penciptaan Adam. Kemudian pada Surah az-Zumar diterangkan Allah menciptakan manusia semuanya dan menerangkan kesudahan nasib manusia yaitu semua manusia akan mati, kemudian dibangkitkan kembali dan dihisab, akhirnya orang yang bertakwa dimasukkan ke dalam surga, dan orang yang kafir dimasukkan ke dalam neraka.\n",
        "munasabah_prev_theme": "Ayat-ayat yang lalu menerangkan keburukan akidah kaum musyrikin dan akibat-akibatnya. Ayat-ayat berikut ini mengemukakan satu macam lagi dari kebobrokan akhlak mereka, yaitu bila ditimpa kemudaratan, seperti kemiskinan dan berbagai penyakit, mereka segera memohon kepada Allah. Mereka hanya memusatkan kebaikan kepada Allah karena mengetahui bahwa hanya Dialah yang dapat menghindarkan mereka dari bahaya dan malapetaka itu. Akan tetapi, jika mendapat nikmat dalam keadaan sehat dan sukaria, mereka lalu beranggapan bahwa semua nikmat dan kesenangan itu adalah berkat usaha dan kegiatan mereka sendiri. Mereka tidak mengetahui bahwa sebenarnya nasib baik atau buruk itu sengaja disampaikan Allah kepada mereka sebagai ujian, untuk mengetahui apakah mereka mensyukuri nikmat-nikmat Allah itu atau mengingkarinya.\n",
        "theme_group": "SALAH SATU WATAK MANUSIA YANG BURUK",
        "kosakata": "Kosakata: Khawwaln\u0101hu \u062e\u064e\u0648\u0651\u064e\u0644\u0652\u0646\u064e\u0627\u0647\u064f (az-Zumar/39: 49)\nKata khawwaln\u0101hu berarti Kami (Allah) memberikan kepadanya, berasal dari fi\u2018il khawwala-yukhawwilu-takhw\u012blan yang berarti memberikan. Kata khawwala dan serumpun dengannya disebutkan 3 (tiga) kali dalam Al-Qur\u2019an dan semuanya berarti memberikan.\nAyat 49 Surah az-Zumar tersebut berbicara tentang perangai manusia yang cenderung mengikuti hawa nafsu dan teperdaya oleh kenikmatan duniawi dan faktor lahiriah. Jika ditimpa musibah, dia datang menghadap Tuhannya, dan jika dianugerahi nikmat, dia melupakannya dan menyatakan bahwa nikmat itu berkat kepandaian dan pengalamannya.",
        "sabab_nuzul": null,
        "conclusion": null
    }
}