{
    "id": 4078,
    "surah_id": 39,
    "ayah": 20,
    "page": 460,
    "quarter_hizb": 46.75,
    "juz": 23,
    "manzil": 6,
    "arabic": "\u0644\u0670\u0643\u0650\u0646\u0650 \u0627\u0644\u0651\u064e\u0630\u0650\u064a\u0652\u0646\u064e \u0627\u062a\u0651\u064e\u0642\u064e\u0648\u0652\u0627 \u0631\u064e\u0628\u0651\u064e\u0647\u064f\u0645\u0652 \u0644\u064e\u0647\u064f\u0645\u0652 \u063a\u064f\u0631\u064e\u0641\u064c \u0645\u0651\u0650\u0646\u0652 \u0641\u064e\u0648\u0652\u0642\u0650\u0647\u064e\u0627 \u063a\u064f\u0631\u064e\u0641\u064c \u0645\u0651\u064e\u0628\u0652\u0646\u0650\u064a\u0651\u064e\u0629\u064c  \u06d9\u062a\u064e\u062c\u0652\u0631\u0650\u064a\u0652 \u0645\u0650\u0646\u0652 \u062a\u064e\u062d\u0652\u062a\u0650\u0647\u064e\u0627 \u0627\u0644\u0652\u0627\u064e\u0646\u0652\u0647\u0670\u0631\u064f \u06d5\u06d7 \u0648\u064e\u0639\u0652\u062f\u064e \u0627\u0644\u0644\u0651\u0670\u0647\u0650 \u06d7 \u0644\u064e\u0627 \u064a\u064f\u062e\u0652\u0644\u0650\u0641\u064f \u0627\u0644\u0644\u0651\u0670\u0647\u064f \u0627\u0644\u0652\u0645\u0650\u064a\u0652\u0639\u064e\u0627\u062f\u064e",
    "latin": "L\u0101kinil-la\u017c\u012bnattaqau rabbahum lahum gurafum min fauqih\u0101 gurafum mabniyyah(tun), tajr\u012b min ta\u1e25tihal-anh\u0101r(u), wa\u2018dall\u0101h(i), l\u0101 yukhlifull\u0101hul-m\u012b\u2018\u0101d(a).",
    "translation": "Akan tetapi, orang-orang yang bertakwa kepada Tuhannya bagi mereka kamar-kamar (di surga), di atasnya terdapat kamar-kamar yang dibangun (bertingkat-tingkat), dan mengalir di bawahnya sungai-sungai. (Itulah) janji Allah. Allah tidak akan mengingkari janji.",
    "no_footnote": null,
    "footnotes": null,
    "surah": {
        "id": 39,
        "arabic": "\u0627\u0644\u0632\u0651\u0645\u0631",
        "latin": "Az-Zumar",
        "transliteration": "Az-Zumar",
        "translation": "Rombongan",
        "num_ayah": 75,
        "page": 458,
        "location": "Makkiyah"
    },
    "tafsir": {
        "wajiz": "Tetapi, orang-orang yang bertakwa kepada Tuhannya dengan melaksanakan perintah dan menjauhi larangan-Nya, mereka mendapat kamar-kamar di surga yang di atasnya terdapat pula kamar-kamar yang dibangun bertingkat-tingkat, yang mengalir di bawahnya sungai-sungai dengan aneka rasa dan warna (Lihat Surah Muhammad/47: 15). Itulah janji Allah yang sebenar-benarnya. Allah tidak akan pernah memungkiri janji-Nya.",
        "tahlili": "Pada ayat ini diulangi lagi penyebutan perbuatan-perbuatan yang diridai Allah, yaitu segala perbuatan takwa, perbuatan wajib, dan sunah. Orang yang mengerjakan perbuatan-perbuatan tersebut akan ditempatkan nanti di dalam kamar-kamar surga yang terdapat segala macam yang mereka inginkan di dalamnya dan dihiasi dengan taman-taman yang indah yang mengalir sungai-sungai di dalamnya. Itulah janji Allah kepada setiap orang yang beriman dan bertakwa. Janji itu adalah janji yang benar, tidak akan dimungkiri sedikit pun, karena Allah tidak akan memungkiri janji-Nya.",
        "intro_surah": "Surah az-Zumar terdiri dari 75 ayat, termasuk kelompok surah-surah Makkiyyah diturunkan sesudah Surah Saba\u2019.\nDinamakan \u201caz-Zumar\u201d karena kata \u201caz-zumar\u201d terdapat pada ayat 71 dan 73 surah itu.\nDalam ayat-ayat tersebut diterangkan keadaan manusia di hari Kiamat setelah mereka dihisab, di waktu itu mereka terbagi menjadi dua kelompok: satu kelompok dibawa ke neraka dan satu kelompok lagi dibawa ke surga. Masing-masing rombongan memperoleh balasan dari apa yang mereka kerjakan di dunia dahulu.\nSurah ini dinamakan juga \u201cal-Guraf\u201d (kamar-kamar) sehubungan dengan perkataan \u201cguraf\u201d yang terdapat dalam ayat 20, di mana diterangkan keadaan kamar-kamar dalam surga yang diperoleh orang-orang yang bertakwa.\n\nPokok-pokok Isinya:\n1.\tKeimanan:\nDalil-dalil keesaan dan kekuasaan Allah; malaikat-malaikat berkumpul di sekeliling Arasy bertasbih kepada Tuhannya; pada hari Kiamat tiap-tiap orang mempunyai catatan amalnya masing-masing.\n2.\tKisah-kisah:\nPerintah memurnikan ketaatan kepada Allah; larangan berputus asa terhadap rahmat Allah.\n3.\tLain-lain:\nTabiat orang-orang musyrik dalam keadaan senang dan susah; perumpamaan dalam Al-Qur\u2019an dan faedahnya; kedahsyatan hari Kiamat; air muka orang musyrik dan air muka orang mukmin pada hari Kiamat; janji Allah mengampuni orang-orang yang bersalah bila mereka bertobat.",
        "outro_surah": null,
        "munasabah_prev_surah": "HUBUNGAN SURAH \u1e62\u0100D DENGAN\nSURAH AZ-ZUMAR\n\n1. \tAkhir Surah \u1e62\u0101d menerangkan bahwa Al-Qur\u2019an merupakan peringatan bagi semesta alam, sedang permulaan Surah az-Zumar menerangkan bahwa Al-Qur\u2019an turun dari Allah Yang Mahaperkasa, lagi Mahabijaksana.\n2. \tKedua surah menyebut hal ihwal makhluk sejak permulaan sampai kembali kepada Allah.\n3. \tKalau kita perhatikan seakan-akan Surah az-Zumar merupakan lanjutan dari Surah \u1e62\u0101d, karena pada akhir Surah \u1e62\u0101d diterangkan penciptaan Adam. Kemudian pada Surah az-Zumar diterangkan Allah menciptakan manusia semuanya dan menerangkan kesudahan nasib manusia yaitu semua manusia akan mati, kemudian dibangkitkan kembali dan dihisab, akhirnya orang yang bertakwa dimasukkan ke dalam surga, dan orang yang kafir dimasukkan ke dalam neraka.\n",
        "munasabah_prev_theme": "Pada ayat-ayat yang lalu diterangkan keadaan orang-orang yang menyembah berhala serta akibat yang akan dialaminya nanti di akhirat. Pada ayat-ayat berikut ini, Allah menerangkan sifat-sifat orang yang mendapat hidayat dari Allah dan balasan yang akan diterimanya di akhirat kelak.\n",
        "theme_group": "ORANG YANG MENDAPAT\nHIDAYAH ALLAH",
        "kosakata": "Kosakata: Guraf  \u063a\u064f\u0631\u064e\u0641\u064c (az-Zumar/39: 20)\nKata guraf adalah bentuk jamak dari kata gurfah, yang terbentuk dari kata garafa-yagrifu-gurfatan. Kata gurfah memiliki dua makna, yaitu seciduk sebagaimana yang terdapat dalam ayat, \u201cKecuali menciduk seciduk tangan..\u201d (al-Baqarah/2: 249). Selebihnya kata gurfah di dalam Al-Qur\u2019an digunakan untuk makna tingkatan yang tinggi di antara tingkatan-tingkatan surga, atau tempat yang tinggi di dalam surga. Ia disebut dengan bentuk tunggal, yaitu gurfah sebanyak satu kali dalam Surah al-Furq\u0101n ayat 75; dengan bentuk jamak guraf sebanyak 3 kali, yaitu pada Surah al-\u2018Ankab\u016bt ayat 58 dan pada Surah az-Zumar ayat 20 ini; dan dengan bentuk jamak ta'n\u012b\u1e61 sekali dalam Surah Saba\u2019 ayat 27. ",
        "sabab_nuzul": null,
        "conclusion": "1. \tAllah memerintahkan kepada Rasulullah saw agar menyampaikan kabar gembira kepada orang-orang yang tidak menyembah berhala, sabar dalam menghadapi godaan setan, dan taat serta patuh kepada Allah yaitu mereka akan dipelihara Allah dan diberi balasan yang berlipat ganda.\n2. \tOrang yang mendengarkan perkataan yang baik dan mengerjakan yang baik dari perkataan itu adalah orang yang mendapat taufik dari Allah dan selalu menggunakan akal pikirannya.\n3. \tAllah mencela orang-orang yang sombong dan merasa dirinya berkuasa serta sanggup mengerjakan apa saja.\n4. \tOrang yang bertakwa akan ditempatkan di kamar-kamar yang bagus di dalam surga dengan taman-taman yang indah pula.\n5. \tAllah pasti menepati janji-Nya.\n6. \tAnjuran untuk memperhatikan isi pembicaraan dan bukan pada siapa yang menyampaikannya."
    }
}