{
    "id": 4117,
    "surah_id": 39,
    "ayah": 59,
    "page": 465,
    "quarter_hizb": 47.25,
    "juz": 24,
    "manzil": 6,
    "arabic": "\u0628\u064e\u0644\u0670\u0649 \u0642\u064e\u062f\u0652 \u062c\u064e\u0627\u06e4\u0621\u064e\u062a\u0652\u0643\u064e \u0627\u0670\u064a\u0670\u062a\u0650\u064a\u0652 \u0641\u064e\u0643\u064e\u0630\u0651\u064e\u0628\u0652\u062a\u064e \u0628\u0650\u0647\u064e\u0627 \u0648\u064e\u0627\u0633\u0652\u062a\u064e\u0643\u0652\u0628\u064e\u0631\u0652\u062a\u064e \u0648\u064e\u0643\u064f\u0646\u0652\u062a\u064e \u0645\u0650\u0646\u064e \u0627\u0644\u0652\u0643\u0670\u0641\u0650\u0631\u0650\u064a\u0652\u0646\u064e",
    "latin": "Bal\u0101 qad j\u0101'atka \u0101y\u0101t\u012b fa ka\u017c\u017cabta bih\u0101 wastakbarta wa kunta minal-k\u0101fir\u012bn(a).",
    "translation": "Tidak begitu! Sebenarnya ayat-ayat-Ku telah datang kepadamu, tetapi kamu mendustakannya, menyombongkan diri, dan termasuk orang-orang kafir.",
    "no_footnote": null,
    "footnotes": null,
    "surah": {
        "id": 39,
        "arabic": "\u0627\u0644\u0632\u0651\u0645\u0631",
        "latin": "Az-Zumar",
        "transliteration": "Az-Zumar",
        "translation": "Rombongan",
        "num_ayah": 75,
        "page": 458,
        "location": "Makkiyah"
    },
    "tafsir": {
        "wajiz": "Untuk menghindari penyesalan itulah, Allah memberi peringatan kepada manusia. Sungguh, sebenarnya kalau kalian mau mendengarkan keterangan-keterangan-Ku yang telah datang kepadamu yang dibawa oleh para nabi dan rasul, kalian tidak akan menyesal di hari kemudian. Akan tetapi, kamu mendustakannya, malah kamu menyombongkan diri dan termasuk orang kafir dan durhaka.",
        "tahlili": "Pada ayat ini, Allah menyatakan kepada orang yang telah sesat dan tidak mau mempergunakan kesempatan untuk bertobat itu bahwa nasib yang menimpa mereka tak dapat dihindarkan lagi karena Allah telah cukup memberi pelajaran dan peringatan. Allah juga telah memberikan kesempatan untuk bertobat dan berbuat baik, tetapi semua itu tidak diindahkan dan tidak dipedulikan. \nMereka hanya mengikuti hawa nafsu dan keinginan belaka sehingga menjadi orang yang durhaka, sombong, dan takabur. Mereka juga termasuk ke dalam golongan orang-orang kafir. Semua angan-angan dan permohonan mereka ditolak semuanya dan berlakulah terhadap dirinya keadilan Allah, yang berbuat baik dan bertakwa dimasukkan ke dalam surga dan yang berbuat jahat dan durhaka dimasukkan ke dalam neraka.",
        "intro_surah": "Surah az-Zumar terdiri dari 75 ayat, termasuk kelompok surah-surah Makkiyyah diturunkan sesudah Surah Saba\u2019.\nDinamakan \u201caz-Zumar\u201d karena kata \u201caz-zumar\u201d terdapat pada ayat 71 dan 73 surah itu.\nDalam ayat-ayat tersebut diterangkan keadaan manusia di hari Kiamat setelah mereka dihisab, di waktu itu mereka terbagi menjadi dua kelompok: satu kelompok dibawa ke neraka dan satu kelompok lagi dibawa ke surga. Masing-masing rombongan memperoleh balasan dari apa yang mereka kerjakan di dunia dahulu.\nSurah ini dinamakan juga \u201cal-Guraf\u201d (kamar-kamar) sehubungan dengan perkataan \u201cguraf\u201d yang terdapat dalam ayat 20, di mana diterangkan keadaan kamar-kamar dalam surga yang diperoleh orang-orang yang bertakwa.\n\nPokok-pokok Isinya:\n1.\tKeimanan:\nDalil-dalil keesaan dan kekuasaan Allah; malaikat-malaikat berkumpul di sekeliling Arasy bertasbih kepada Tuhannya; pada hari Kiamat tiap-tiap orang mempunyai catatan amalnya masing-masing.\n2.\tKisah-kisah:\nPerintah memurnikan ketaatan kepada Allah; larangan berputus asa terhadap rahmat Allah.\n3.\tLain-lain:\nTabiat orang-orang musyrik dalam keadaan senang dan susah; perumpamaan dalam Al-Qur\u2019an dan faedahnya; kedahsyatan hari Kiamat; air muka orang musyrik dan air muka orang mukmin pada hari Kiamat; janji Allah mengampuni orang-orang yang bersalah bila mereka bertobat.",
        "outro_surah": null,
        "munasabah_prev_surah": "HUBUNGAN SURAH \u1e62\u0100D DENGAN\nSURAH AZ-ZUMAR\n\n1. \tAkhir Surah \u1e62\u0101d menerangkan bahwa Al-Qur\u2019an merupakan peringatan bagi semesta alam, sedang permulaan Surah az-Zumar menerangkan bahwa Al-Qur\u2019an turun dari Allah Yang Mahaperkasa, lagi Mahabijaksana.\n2. \tKedua surah menyebut hal ihwal makhluk sejak permulaan sampai kembali kepada Allah.\n3. \tKalau kita perhatikan seakan-akan Surah az-Zumar merupakan lanjutan dari Surah \u1e62\u0101d, karena pada akhir Surah \u1e62\u0101d diterangkan penciptaan Adam. Kemudian pada Surah az-Zumar diterangkan Allah menciptakan manusia semuanya dan menerangkan kesudahan nasib manusia yaitu semua manusia akan mati, kemudian dibangkitkan kembali dan dihisab, akhirnya orang yang bertakwa dimasukkan ke dalam surga, dan orang yang kafir dimasukkan ke dalam neraka.\n",
        "munasabah_prev_theme": "Pada ayat-ayat yang lalu, Allah menerangkan ancaman-Nya terhadap orang-orang kafir bahwa mereka tidak akan dapat menghindarkan diri dari siksa-Nya dan amal mereka tak akan dapat menolong walaupun sedikit. Pada ayat-ayat berikut ini, Allah menunjukkan firman-Nya kepada hamba-Nya yang mukmin yang telah terlanjur mengerjakan dosa dan menganjurkan kepada mereka supaya jangan berputusasa terhadap rahmat-Nya. Allah akan mengampuni dosa mereka bila benar-benar bertobat dan menyesali kesalahan mereka dan berjanji tidak akan mengerjakannya lagi serta mengiringinya dengan berbuat kebaikan sebagai bukti atas kembalinya mereka kepada jalan yang benar.\n",
        "theme_group": "PERINTAH BERTOBAT",
        "kosakata": "1. \tL\u0101 Taqna\u1e6d\u016b \u0644\u064e\u0627 \u062a\u064e\u0642\u0652\u0646\u064e\u0637\u064f\u0648\u0652\u0627 (az-Zumar/39: 53)\nKata l\u0101 taqna\u1e6d\u016b terdiri dari l\u0101 n\u0101hiyah (menunjukkan larangan) dan taqna\u1e6d\u016b adalah fi\u2018il mu\u1e0d\u0101ri\u2018 \u1e0dam\u012br jama\u2018 (kata kerja sekarang untuk banyak) yang berarti janganlah kamu berputus asa, dari fi\u2018il (kata kerja) qana\u1e6da-yaqnu\u1e6du-qun\u016b\u1e6dan, atau qani\u1e6da-yaqna\u1e6du-qana\u1e6dan, yang berarti putus asa, putus harapan. Kata yang serumpun atau seasal dengan taqna\u1e6du disebutkan 5 (lima) kali dalam Al-Qur\u2019an. \nKata qana\u1e6d dari l\u0101 taqna\u1e6d\u016b dalam Surah az-Zumar ayat 53 ini berarti keputusasaan dan penyesalan. \n2. \tY\u0101 \u1e25asrat\u0101 \u064a\u064e\u0627\u062d\u064e\u0633\u0652\u0631\u064e\u062a\u064e\u0649 (az-Zumar/39: 56)\nKata y\u0101 \u1e25asrat\u0101 terdiri dari huruf y\u0101 ( \u064a\u0627 ) yang digunakan untuk menyeru sambil menampakkan penyesalan, dan kata \u1e25asrah yang terambil dari kata \u1e25asira-ya\u1e25saru-\u1e25asratan berarti mengeluh, payah, atau letih. Kata \u1e25asrah digunakan dalam arti keresahan dan penyesalan atas sesuatu yang telah lewat. Huruf \u201calif\u201d pada akhir kata (\u064a\u0627\u062d\u0633\u0631\u062a\u0627) berfungsi menunjuk diri pembicara.\nKata y\u0101 \u1e25asrat\u0101 dalam Surah az-Zumar ayat 56 ini berarti bahwa manusia menyesal di hari kemudian atas kelalaiannya di dunia, misalnya ketika dia melihat hartanya yang ditinggalkan telah diwarisi oleh orang lain, sedangkan dia ketika hidupnya sangat kikir dan enggan mengeluarkan zakat. Kemudian di akhirat dia melihat orang yang mewarisi hartanya itu menggunakannya sesuai dengan ajaran agama, sehingga dia memperoleh ganjaran melalui harta yang diwarisinya itu, sedang dia sebagai pemilik asal harta disiksa akibat kedurhakaannya.\n",
        "sabab_nuzul": null,
        "conclusion": "1. \tAllah dengan karunia dan rahmat-Nya memberi kesempatan kepada orang-orang yang berdosa untuk segera bertobat dan kembali ke jalan yang benar serta melarang mereka berputusasa terhadap rahmat-Nya yang besar dan luas.\n2. \tHendaklah seorang hamba Allah segera bertobat dan berserah diri kepadanya sebelum datang waktu di mana tobat dan penyesalan tidak diterima lagi.\n3. \tAllah memperingatkan kepada orang-orang yang belum bertobat supaya cepat-cepat bertobat karena bila telah datang hari perhitungan, tidak ada gunanya lagi mengemukakan penyesalan terhadap diri mereka.\n4. \tBagi orang-orang yang tidak mau bertobat akan dimasukkan dalam golongan orang-orang kafir dan dimasukkan ke dalam neraka Jahanam."
    }
}