{
    "id": 4125,
    "surah_id": 39,
    "ayah": 67,
    "page": 465,
    "quarter_hizb": 47.25,
    "juz": 24,
    "manzil": 6,
    "arabic": "\u0648\u064e\u0645\u064e\u0627 \u0642\u064e\u062f\u064e\u0631\u064f\u0648\u0627 \u0627\u0644\u0644\u0651\u0670\u0647\u064e \u062d\u064e\u0642\u0651\u064e \u0642\u064e\u062f\u0652\u0631\u0650\u0647\u0656\u06d6 \u0648\u064e\u0627\u0644\u0652\u0627\u064e\u0631\u0652\u0636\u064f \u062c\u064e\u0645\u0650\u064a\u0652\u0639\u064b\u0627 \u0642\u064e\u0628\u0652\u0636\u064e\u062a\u064f\u0647\u0657 \u064a\u064e\u0648\u0652\u0645\u064e \u0627\u0644\u0652\u0642\u0650\u064a\u0670\u0645\u064e\u0629\u0650 \u0648\u064e\u0627\u0644\u0633\u0651\u064e\u0645\u0670\u0648\u0670\u062a\u064f \u0645\u064e\u0637\u0652\u0648\u0650\u064a\u0651\u0670\u062a\u064c\u06e2 \u0628\u0650\u064a\u064e\u0645\u0650\u064a\u0652\u0646\u0650\u0647\u0656 \u06d7\u0633\u064f\u0628\u0652\u062d\u0670\u0646\u064e\u0647\u0657 \u0648\u064e\u062a\u064e\u0639\u0670\u0644\u0670\u0649 \u0639\u064e\u0645\u0651\u064e\u0627 \u064a\u064f\u0634\u0652\u0631\u0650\u0643\u064f\u0648\u0652\u0646\u064e",
    "latin": "Wa m\u0101 qadarull\u0101ha \u1e25aqqa qadrih(\u012b), wal-ar\u1e0du jam\u012b\u2018an qab\u1e0datuh\u016b yaumal-qiy\u0101mati was-sam\u0101w\u0101tu ma\u1e6dwiyy\u0101tum biyam\u012bnih(\u012b), sub\u1e25\u0101nah\u016b wa ta\u2018\u0101l\u0101 \u2018amm\u0101 yusyrik\u016bn(a).",
    "translation": "Mereka tidak mengagungkan Allah sebagaimana mestinya. Padahal, bumi seluruhnya (ada dalam) genggaman-Nya pada hari Kiamat dan langit digulung dengan tangan kanan-Nya.664) Maha Suci dan Maha Tinggi Dia dari apa yang mereka persekutukan.",
    "no_footnote": "664",
    "footnotes": "664) Ayat ini menggambarkan kebesaran dan kekuasaan Allah Swt. dan hanya Dia yang berkuasa pada hari Kiamat.",
    "surah": {
        "id": 39,
        "arabic": "\u0627\u0644\u0632\u0651\u0645\u0631",
        "latin": "Az-Zumar",
        "transliteration": "Az-Zumar",
        "translation": "Rombongan",
        "num_ayah": 75,
        "page": 458,
        "location": "Makkiyah"
    },
    "tafsir": {
        "wajiz": "Dalam ayat-ayat yang lalu, Allah digambarkan sebagai Pencipta dan Pemilik segala, dan Nabi Muhammad diperintah untuk menolak ajakan orang-orang musyrik Mekah untuk menyembah selain Allah. Ayat-ayat berikut membawa kecaman terhadap orang-orang musyrik tersebut. Dan ketahuilah bahwa dengan ajakan menyekutukan Allah itu, mereka tidak mengagungkan Allah sebagaimana mestinya, padahal bumi dengan seluruh isi-nya berada dalam genggaman tangan-Nya pada hari Kiamat, dan demikian pula langit dengan seluruh lapisannya digulung oleh Allah dengan tangan kanan-Nya. Mahasuci Dia dari segala apa yang tidak wajar bagi-Nya dan Mahatinggi Dia dari segala apa yang mereka persekutukan dengan-Nya.",
        "tahlili": "Pada ayat ini, Allah mencela perbuatan kaum musyrikin Mekah karena menyembah berhala dan patung, mengingkari kebesaran dan kekuasaan-Nya. Allah juga mengingatkan betapa besar nikmat yang telah dikaruniakan-Nya kepada mereka. Seakan-akan yang berkuasa dan memberi karunia itu adalah patung-patung yang tidak berdaya yang mereka buat dengan tangan mereka sendiri. Alangkah rendahnya jalan pikiran mereka dengan mengagungkan suatu yang hina dan tak berdaya. Allah selanjutnya menegaskan bahwa bumi ini seluruhnya berada dalam genggaman-Nya pada hari Kiamat, demikian pula langit tergulung di tangan kanan-Nya. Jika langit dan bumi semuanya berada dalam genggaman-Nya, maka siapakah lagi yang lebih besar, lebih agung, lebih berkuasa dari Allah? Apakah mereka mengagungkan patung-patung itu sedang patung-patung itu adalah sebagian kecil saja dari langit dan bumi? Mengenai ayat ini, Imam al-Bukh\u0101r\u012b meriwayatkan dari Ibnu Mas\u2018\u016bd sebuah hadis:\n\u062c\u064e\u0627\u0621\u064e \u062d\u064e\u0628\u0652\u0631\u064c \u0645\u0650\u0646\u064e \u0627\u0644\u0652\u0623\u064e\u062d\u0652\u0628\u064e\u0627\u0631\u0650 \u0625\u0650\u0644\u064e\u0649 \u0631\u064e\u0633\u064f\u0648\u0652\u0644\u0650 \u0627\u0644\u0644\u0651\u0670\u0647\u0650 \u0635\u064e\u0644\u0651\u064e\u0649 \u0627\u0644\u0644\u0651\u0670\u0647\u064f \u0639\u064e\u0644\u064e\u064a\u0652\u0647\u0650 \u0648\u064e\u0633\u064e\u0644\u0651\u064e\u0645\u064e \u0641\u064e\u0642\u064e\u0627\u0644\u064e: \u064a\u064e\u0627 \u0645\u064f\u062d\u064e\u0645\u0651\u064e\u062f\u064f \u0625\u0650\u0646\u0651\u064e\u0627 \u0646\u064e\u062c\u0650\u062f\u064f \u0623\u064e\u0646\u0651\u064e \u0627\u0644\u0644\u0651\u0670\u0647\u064e \u0639\u064e\u0632\u0651\u064e \u0648\u064e\u062c\u064e\u0644\u0651\u064e \u064a\u064e\u062c\u0652\u0639\u064e\u0644\u064f \u0627\u0644\u0633\u0651\u064e\u0645\u0670\u0648\u064e\u0627\u062a\u0650 \u0639\u064e\u0644\u064e\u0649 \u0623\u064f\u0635\u0652\u0628\u064f\u0639\u064d \u0648\u064e\u0627\u0652\u0644\u0623\u064e\u0631\u064e\u0636\u0650\u064a\u0652\u0646\u064e \u0639\u064e\u0644\u064e\u0649 \u0623\u064f\u0635\u0652\u0628\u064f\u0639\u064d \u0648\u064e\u0627\u0644\u0634\u0651\u064e\u062c\u064e\u0631\u064e \u0639\u064e\u0644\u064e\u0649 \u0623\u064f\u0635\u0652\u0628\u064f\u0639\u064d \u0648\u064e\u0627\u0644\u0652\u0645\u064e\u0627\u0621\u064e \u0648\u064e\u0627\u0644\u062b\u0651\u064e\u0631\u064e\u0649 \u0639\u064e\u0644\u064e\u0649 \u0623\u064f\u0635\u0652\u0628\u064f\u0639\u064d \u0648\u064e\u0633\u064e\u0627\u0626\u0650\u0631\u064e \u0627\u0644\u0652\u062e\u064e\u0644\u0652\u0642\u0650 \u0639\u064e\u0644\u064e\u0649 \u0623\u064f\u0635\u0652\u0628\u064f\u0639\u064d \u064a\u064e\u0642\u064f\u0648\u0652\u0644\u064f \u0623\u064e\u0646\u064e\u0627 \u0627\u0644\u0652\u0645\u064e\u0644\u0650\u0643\u064f. \u0641\u064e\u0636\u064e\u062d\u0650\u0643\u064e \u0631\u064e\u0633\u064f\u0648\u0652\u0644\u064f \u0627\u0644\u0644\u0651\u0670\u0647\u0650 \u0635\u064e\u0644\u0651\u064e\u0649 \u0627\u0644\u0644\u0651\u0670\u0647\u064f \u0639\u064e\u0644\u064e\u064a\u0652\u0647\u0650 \u0648\u064e\u0633\u064e\u0644\u0651\u064e\u0645\u064e \u062d\u064e\u062a\u0651\u064e\u0649 \u0628\u064e\u062f\u064e\u062a\u0652 \u0646\u064e\u0648\u064e\u0627\u062c\u0650\u0630\u064f\u0647\u064f \u062a\u064e\u0635\u0652\u062f\u0650\u064a\u0652\u0642\u064b\u0627 \u0644\u0650\u0642\u064e\u0648\u0652\u0644\u0650 \u0627\u0644\u0652\u062d\u064e\u0628\u0652\u0631\u0650 \u062b\u064f\u0645\u0651\u064e \u0642\u064e\u0631\u064e\u0623\u064e \u0647\u0670\u0630\u0650\u0647\u0650 \u0627\u0644\u0652\u0627\u0670\u064a\u064e\u0629\u064e: \u0648\u064e\u0645\u064e\u0627 \u0642\u064e\u062f\u064e\u0631\u064f\u0648\u0627 \u0627\u0644\u0644\u0651\u0670\u0647\u064e \u062d\u064e\u0642\u0651\u064e \u0642\u064e\u062f\u0652\u0631\u0650\u0647\u0650. \nTelah datang salah seorang pendeta kepada Rasulullah saw dan berkata kepadanya, \u201cHai Muhammad, sesungguhnya aku menemui (dalam kitab kami) bahwa Allah Yang Mahaperkasa meletakkan langit di salah satu jarinya, bumi di jari yang lain, pohon-pohon di jari yang lain, air dan tanah di jari yang lain, dan makhluk-makhluk lainnya di jari yang lain pula, lalu Dia berkata, \u2018Akulah raja\u2019.\u201d Rasulullah saw tertawa mendengar kata-kata pendeta itu sehingga kelihatan gerahamnya tanda setuju. Kemudian Nabi saw membaca ayat 67 ini.\n\nTentang penggambaran langit dan bumi dalam genggaman-Nya, mungkin dapat dipahami dengan makna bahwa alam ini dalam kekuasaan-Nya. Bagaimana hakikat yang sebenarnya dari keadaan bumi yang berada dalam genggaman Allah, kita tidak tahu. Hal itu termasuk masalah-masalah yang gaib, yang harus diterima sebagaimana yang diterangkan Allah. Yang mesti diyakini sepenuhnya adalah Allah tidak dapat diserupakan dengan suatu apa pun. Firman Allah:\n\u0644\u064e\u064a\u0652\u0633\u064e \u0643\u064e\u0645\u0650\u062b\u0652\u0644\u0650\u0647\u0656 \u0634\u064e\u064a\u0652\u0621\u064c \u06da\u0648\u064e\u0647\u064f\u0648\u064e \u0627\u0644\u0633\u0651\u064e\u0645\u0650\u064a\u0652\u0639\u064f \u0627\u0644\u0652\u0628\u064e\u0635\u0650\u064a\u0652\u0631\u064f \nTidak ada sesuatu pun yang serupa dengan Dia. Dan Dia Yang Maha Mendengar, Maha Melihat. (asy-Sy\u016br\u0101/42: 11)\n\nKemudian Allah menutup ayat ini dengan menyatakan bahwa mempersekutukan Allah dengan makhluk lainnya apalagi dengan sesuatu yang remeh tak berdaya seperti patung-patung itu adalah perbuatan sesat dan menyesatkan. Maha Suci Allah dari segala paham itu dan tidak layak bagi kekuasaan dan keagungan-Nya untuk dipersekutukan dengan yang lain.",
        "intro_surah": "Surah az-Zumar terdiri dari 75 ayat, termasuk kelompok surah-surah Makkiyyah diturunkan sesudah Surah Saba\u2019.\nDinamakan \u201caz-Zumar\u201d karena kata \u201caz-zumar\u201d terdapat pada ayat 71 dan 73 surah itu.\nDalam ayat-ayat tersebut diterangkan keadaan manusia di hari Kiamat setelah mereka dihisab, di waktu itu mereka terbagi menjadi dua kelompok: satu kelompok dibawa ke neraka dan satu kelompok lagi dibawa ke surga. Masing-masing rombongan memperoleh balasan dari apa yang mereka kerjakan di dunia dahulu.\nSurah ini dinamakan juga \u201cal-Guraf\u201d (kamar-kamar) sehubungan dengan perkataan \u201cguraf\u201d yang terdapat dalam ayat 20, di mana diterangkan keadaan kamar-kamar dalam surga yang diperoleh orang-orang yang bertakwa.\n\nPokok-pokok Isinya:\n1.\tKeimanan:\nDalil-dalil keesaan dan kekuasaan Allah; malaikat-malaikat berkumpul di sekeliling Arasy bertasbih kepada Tuhannya; pada hari Kiamat tiap-tiap orang mempunyai catatan amalnya masing-masing.\n2.\tKisah-kisah:\nPerintah memurnikan ketaatan kepada Allah; larangan berputus asa terhadap rahmat Allah.\n3.\tLain-lain:\nTabiat orang-orang musyrik dalam keadaan senang dan susah; perumpamaan dalam Al-Qur\u2019an dan faedahnya; kedahsyatan hari Kiamat; air muka orang musyrik dan air muka orang mukmin pada hari Kiamat; janji Allah mengampuni orang-orang yang bersalah bila mereka bertobat.",
        "outro_surah": null,
        "munasabah_prev_surah": "HUBUNGAN SURAH \u1e62\u0100D DENGAN\nSURAH AZ-ZUMAR\n\n1. \tAkhir Surah \u1e62\u0101d menerangkan bahwa Al-Qur\u2019an merupakan peringatan bagi semesta alam, sedang permulaan Surah az-Zumar menerangkan bahwa Al-Qur\u2019an turun dari Allah Yang Mahaperkasa, lagi Mahabijaksana.\n2. \tKedua surah menyebut hal ihwal makhluk sejak permulaan sampai kembali kepada Allah.\n3. \tKalau kita perhatikan seakan-akan Surah az-Zumar merupakan lanjutan dari Surah \u1e62\u0101d, karena pada akhir Surah \u1e62\u0101d diterangkan penciptaan Adam. Kemudian pada Surah az-Zumar diterangkan Allah menciptakan manusia semuanya dan menerangkan kesudahan nasib manusia yaitu semua manusia akan mati, kemudian dibangkitkan kembali dan dihisab, akhirnya orang yang bertakwa dimasukkan ke dalam surga, dan orang yang kafir dimasukkan ke dalam neraka.\n",
        "munasabah_prev_theme": "Pada ayat-ayat yang lalu, Allah menerangkan keadaan orang-orang kafir dan orang-orang mukmin pada hari Kiamat. Pada ayat-ayat berikut ini, Allah menerangkan bahwa Dialah pemegang kekuasaan di langit dan di bumi, maka tidak ada yang patut disembah kecuali Dia. Orang-orang yang menyembah selain Allah dan menyuruh orang menganut kepercayaan syirik adalah orang-orang bodoh yang tidak mempergunakan akalnya untuk memikirkan mana yang hak dan mana yang batil. Orang-orang yang menyembah selain Allah akan dihapus segala amalnya dan mereka adalah orang-orang yang merugi.\n",
        "theme_group": "KEKUASAAN ALLAH DI LANGIT DAN DI BUMI",
        "kosakata": "1.\tMaq\u0101l\u012bd \u0645\u064e\u0642\u064e\u0627\u0644\u0650\u064a\u0652\u062f\u064f (az-Zumar/39: 63)\nKata maq\u0101l\u012bd adalah bentuk jamak dari miql\u0101d atau miqlid yang berarti kunci. Ada juga yang berpendapat bahwa kata ini tidak memiliki bentuk tunggal dan bahwa ia terambil dari kata taql\u012bd yang bermakna keharusan.\nPenyebutan kata maq\u0101l\u012bd pada Surah az-Zumar ayat 63 tersebut adalah sebagai penegasan bahwa Allah yang memiliki segala sesuatu. Dia pula menguasai dan mengendalikan segala persoalan yang berada di langit dan di bumi, baik yang nyata maupun yang tersembunyi. \n2.\tMa\u1e6dwiyy\u0101t \u0645\u064e\u0637\u0652\u0648\u0650\u064a\u0651\u064e\u0627\u062a  (az-Zumar/39: 67)\nKata ma\u1e6dwiyy\u0101t adalah jamak dari kata ma\u1e6dwiyyah, isim maf\u2018\u016bl (passive participle) dari kata \u1e6dawiya\u2014ya\u1e6dw\u0101\u2014\u1e6dayyan yang artinya melipat. Dalam doa perjalanan disebutkan: i\u1e6dwi lana al-ar\u1e0d, yang berarti dekatkanlah bumi untuk kami dan mudahkanlah perjalanan di atasnya agar jaraknya tidak jauh bagi kami, seolah-olah bumi itu sudah dilipat. Dari kata tersebut terambil kata a\u1e6d-\u1e6dawiyyu yang berarti sumur yang tertutup oleh batu. Kalimat \u1e6dawiya \u2018ann\u012b amrahu berarti ia menyembunyikan urusannya dariku. Dan yang dimaksud dengan kata ma\u1e6dwiyy\u0101t di sini adalah bahwa langit-langit itu dilipat oleh Allah pada hari Kiamat. Ada beberapa riwayat tentang penafsiran tentang ayat ini. Ibnu \u2018Abb\u0101s mengatakan bahwa Allah menggenggam bumi dan langit dengan tangan kanan-Nya. Keterangan lain dari Ibnu \u2018Abb\u0101s mengatakan bahwa langit dan bumi di tangan Allah itu seperti biji sawi di tangan kalian.",
        "sabab_nuzul": null,
        "conclusion": "1. \tAllah menegaskan bahwa Dialah Pencipta segala sesuatu. Dialah yang mengurus dan mengendalikannya, dan orang-orang yang mengingkari kebenaran ini akan merugi di dunia dan akhirat.\n2. \tKaum musyrikin Mekah mengajak Nabi Muhammad supaya ikut menyembah berhala bersama mereka. Ajakan itu ditolak mentah-mentah oleh beliau karena yakin ajakan itu salah dan akan membawa kepada terhapusnya amal baik selama ini.\n3. \tOrang-orang musyrik tidak menempatkan Allah pada tempat-Nya yang mulia dan tinggi, padahal langit dan bumi berada dalam genggaman-Nya pada hari Kiamat nanti. Maka tidak ada alasan lain kecuali kita harus taat dan berserah diri kepada-Nya."
    }
}