{
    "id": 4190,
    "surah_id": 40,
    "ayah": 57,
    "page": 473,
    "quarter_hizb": 48,
    "juz": 24,
    "manzil": 6,
    "arabic": "\u0644\u064e\u062e\u064e\u0644\u0652\u0642\u064f \u0627\u0644\u0633\u0651\u064e\u0645\u0670\u0648\u0670\u062a\u0650 \u0648\u064e\u0627\u0644\u0652\u0627\u064e\u0631\u0652\u0636\u0650 \u0627\u064e\u0643\u0652\u0628\u064e\u0631\u064f \u0645\u0650\u0646\u0652 \u062e\u064e\u0644\u0652\u0642\u0650 \u0627\u0644\u0646\u0651\u064e\u0627\u0633\u0650 \u0648\u064e\u0644\u0670\u0643\u0650\u0646\u0651\u064e \u0627\u064e\u0643\u0652\u062b\u064e\u0631\u064e \u0627\u0644\u0646\u0651\u064e\u0627\u0633\u0650 \u0644\u064e\u0627 \u064a\u064e\u0639\u0652\u0644\u064e\u0645\u064f\u0648\u0652\u0646\u064e",
    "latin": "Lakhalqus-sam\u0101w\u0101ti wal-ar\u1e0di akbaru min khalqin-n\u0101si wa l\u0101kinna ak\u1e61aran-n\u0101si l\u0101 ya\u2018lam\u016bn(a). ",
    "translation": "Penciptaan langit dan bumi itu sungguh lebih besar daripada penciptaan manusia, tetapi kebanyakan manusia tidak mengetahui.",
    "no_footnote": null,
    "footnotes": null,
    "surah": {
        "id": 40,
        "arabic": " \u063a\u0627\u0641\u0631",
        "latin": "G\u0101fir ",
        "transliteration": "Gafir",
        "translation": "Maha Pengampun",
        "num_ayah": 85,
        "page": 467,
        "location": "Makkiyah"
    },
    "tafsir": {
        "wajiz": "Titik fokus yang mereka debat dari pemberitaan ayat-ayat Allah itu adalah pada kebangkitan manusia dari alam kubur. Maka, Allah membantahnya dengan menyebut bahwa penciptaan langit dan bumi lebih besar peristiwanya daripada hanya sekadar menciptakan kembali manusia yang sudah mati. Sungguh, bahwa penciptaan langit dan bumi itu, jauh lebih besar serta lebih hebat memperlihatkan kemahakuasaan Allah, daripada hanya sekadar penciptaan manusia kembali untuk bangkit dari kubur. Akan tetapi, kebanyakan manusia, yakni orang-orang yang durhaka, tidak mengetahui hakikat perbandingan antara penciptaan langit dan bumi serta membangkitkan manusia dari kubur.",
        "tahlili": "Pada ayat ini, Allah mengemukakan salah satu bukti adanya hari kebangkitan pada hari Kiamat nanti. Dia menerangkan bahwa menciptakan langit dan bumi lebih \u201cberat\u201d dan \u201csukar\u201d dibanding dengan menciptakan manusia, baik pada waktu pertama kali menciptakannya maupun pada waktu mengulanginya kembali. Langit dan bumi beserta segala isinya tidak terhingga luas dan besarnya. Tidak terhitung jumlah planet-planet di sana. Tidak terhitung jumlah binatang dan tumbuh-tumbuhan yang ada padanya. Gunung-gunung dan sungai-sungai yang mengalir tidak bisa dilacak semua oleh manusia. Hukum-hukum dan ilmu pengetahuan yang berhubungan dengannya tidak bisa diketahui oleh manusia seluruhnya. Oleh karena itu, orang-orang musyrik jangan sekali-kali mengira bahwa Allah yang telah menciptakan langit dan bumi serta manusia yang ada di dalamnya, tidak sanggup membangkitkan manusia kembali pada hari Kiamat atau meng-hidupkan kembali orang-orang yang telah mati. Tidak sesuatu pun yang sukar bagi Allah, semua mudah bagi-Nya.\nAllah berfirman:\n\u0627\u064e\u0648\u064e\u0644\u064e\u0645\u0652 \u064a\u064e\u0631\u064e\u0648\u0652\u0627 \u0627\u064e\u0646\u0651\u064e \u0627\u0644\u0644\u0651\u0670\u0647\u064e \u0627\u0644\u0651\u064e\u0630\u0650\u064a\u0652 \u062e\u064e\u0644\u064e\u0642\u064e \u0627\u0644\u0633\u0651\u064e\u0645\u0670\u0648\u0670\u062a\u0650 \u0648\u064e\u0627\u0644\u0652\u0627\u064e\u0631\u0652\u0636\u064e \u0648\u064e\u0644\u064e\u0645\u0652 \u064a\u064e\u0639\u0652\u064a\u064e \u0628\u0650\u062e\u064e\u0644\u0652\u0642\u0650\u0647\u0650\u0646\u0651\u064e \u0628\u0650\u0642\u0670\u062f\u0650\u0631\u064d \u0639\u064e\u0644\u0670\u0653\u0649 \u0627\u064e\u0646\u0652 \u064a\u0651\u064f\u062d\u0652\u064a\u0650 \u06e7\u064e \u0627\u0644\u0652\u0645\u064e\u0648\u0652\u062a\u0670\u0649 \u06d7\u0628\u064e\u0644\u0670\u0653\u0649 \u0627\u0650\u0646\u0651\u064e\u0647\u0657 \u0639\u064e\u0644\u0670\u0649 \u0643\u064f\u0644\u0651\u0650 \u0634\u064e\u064a\u0652\u0621\u064d \u0642\u064e\u062f\u0650\u064a\u0652\u0631\u064c \u0663\u0663 (\u0627\u0644\u0627\u062d\u0642\u0627\u0641)\nDan tidakkah mereka memperhatikan bahwa sesungguhnya Allah yang menciptakan langit dan bumi dan Dia tidak merasa payah karena menciptakannya, dan Dia kuasa menghidupkan yang mati? Begitulah; sungguh, Dia Mahakuasa atas segala sesuatu. (al-A\u1e25q\u0101f/46: 33)\n\nAyat 57 Surah az-Zumar ini seolah menekankan bahwa penciptaan alam semesta ini jauh lebih rumit (besar) daripada penciptaan manusia (hal ini tentu dalam pandangan manusia karena bagi Allah tidak ada yang rumit sedikit pun). Padahal dari jumlah tulisan hasil pemikiran dan temuan, pengungkapan teori terciptanya alam semesta ini lebih banyak dan lebih pesat perkembangannya dibandingkan dengan  perkembangan teori kejadian manusia yang sampai saat ini masih dipenuhi oleh pertanyaan-pertanyaan belum terjawab dan fakta-fakta yang kontroversial. Dilihat dari waktu keberadaannya secara ilmu pengetahuan, manusia (homo sapiens) diperkirakan muncul pada 40.000 tahun yang lalu, kurun waktu ini bukan apa-apa dibandingkan  umur alam semesta yang diperkirakan telah berada semenjak 7 miliar tahun yang lalu, apalagi jika dibandingkan dengan sejarah peradaban manusia yang jejaknya ditemukan hanya sekitar 7000 tahun yang lalu. Tampaknya pengetahuan kita tentang kejadian alam semesta inipun sebenarnya tidak lebih banyak dari apa yang kita ketahui tentang kejadian manusia.\nPada akhir ayat ini, Allah menerangkan bukti-bukti yang dikemukakan itu dan amat sedikit manusia yang mau berpikir untuk mencari kebenaran yang hakiki. Mereka terlalu dipengaruhi hawa nafsu dan kesenangan dunia yang sifatnya hanya sementara. Mereka juga tidak mau mendengar dan menyadari bahwa Allah Mahakuasa, tidak ada sesuatu pun yang dapat mengalahkan-Nya",
        "intro_surah": "Surah G\u0101fir terdiri atas 85 ayat, termasuk kelompok surah Makkiyyah, diturunkan sesudah Surah az-Zumar. Dinamai \u201cG\u0101fir\u201d (yang mengampuni) karena ada hubungannya dengan kalimat \u201cG\u0101fir\u201d yang terdapat pada ayat 3 surah ini. Ayat ini mengingatkan bahwa \u201cMaha Pengampun\u201d dan \u201cMaha Penerima Taubat\u201d adalah termasuk dari sifat-sifat Allah. Oleh karena itu, hamba-hamba Allah tidak perlu terlalu risau terhadap perbuatan-perbuatan dosa yang telah terlanjur mereka lakukan. Semuanya itu akan diampuni Allah asal benar-benar memohon ampun dan bertobat kepada-Nya dan berjanji tidak akan mengerjakan perbuatan-perbuatan dosa itu lagi.\nDinamakan pula \u201cal-Mu'min\u201d (Orang yang beriman), karena terdapat perkataan \u201cmu'min\u201d dalam surah ini, yaitu pada ayat 28. Dalam ayat 28 ini diterangkan bahwa salah seorang dari kaum Fir\u2018aun telah beriman kepada Nabi Musa dengan menyembunyikan imannya kepada kaumnya, setelah mendengar keterangan dan melihat mukjizat yang ditujukan oleh Nabi Musa. Hati kecil orang ini mencela Fir\u2018aun dan kaumnya yang tidak mau beriman kepada Nabi Musa, sekalipun telah dikemukakan keterangan dan mukjizat yang diminta mereka.\nSurah ini juga dinamai \u201ca\u1e6d-\u1e6caul\u201d (Yang mempunyai Karunia) karena perkataan tersebut terdapat pada ayat 3.\n\nPokok-pokok Isinya:\n1. \tKeimanan:\nSifat-sifat malaikat yang memiliki \u2018Arasy dan yang berada di sekitarnya; dalil-dalil yang menunjukkan kekuasaan Allah, sifat-sifat Allah yang menunjukkan kebesaran dan keagungan-Nya, ilmu Allah meliputi segala sesuatu; bukti-bukti yang menunjukkan adanya hari kebangkitan.\n2. \tKisah:\n\tKisah Musa dengan Fir\u2018aun.\n3. \tLain-lain:\nAl-Qur\u2019an al-Karim dan sikap orang-orang mukmin dan orang-orang kafir terhadapnya; permohonan orang-orang kafir supaya dikeluarkan dari neraka; peringatan kepada orang-orang musyrik tentang kedahsyatan hari Kiamat, anjuran bersabar dalam menghadapi kaum musyrikin; nikmat-nikmat Allah yang terdapat di daratan dan lautan; janji Rasulullah saw bahwa orang-orang mukmin akan menang terhadap musuhnya.\nHUBUNGAN SURAH AZ-ZUMAR DENGAN\nSURAH G\u0100FIR\n\n1. \tSurah az-Zumar menerangkan bagaimana nasib orang-orang mukmin yang bertakwa kepada Allah dan mengikuti ajaran yang dibawa rasul-Nya di akhirat nanti. Juga dijelaskan nasib orang-orang kafir di akhirat, di mana ketika mereka di dunia selalu mengingkari nabi yang diutus kepada mereka. Surah G\u0101fir menerangkan bahwa Allah mengampuni segala dosa hamba-Nya yang mau kembali mengikuti jalan yang benar. Hal ini merupakan ajakan Allah kepada orang-orang kafir agar mereka bertobat dan beriman.\n2. \tKeduanya mengutarakan hal-hal yang berhubungan dengan keadaan hari Kiamat, keadaan di Padang Mahsyar, surga, dan neraka.\n ",
        "outro_surah": null,
        "munasabah_prev_surah": "HUBUNGAN SURAH AZ-ZUMAR DENGAN\nSURAH G\u0100FIR\n\n1. \tSurah az-Zumar menerangkan bagaimana nasib orang-orang mukmin yang bertakwa kepada Allah dan mengikuti ajaran yang dibawa rasul-Nya di akhirat nanti. Juga dijelaskan nasib orang-orang kafir di akhirat, di mana ketika mereka di dunia selalu mengingkari nabi yang diutus kepada mereka. Surah G\u0101fir menerangkan bahwa Allah mengampuni segala dosa hamba-Nya yang mau kembali mengikuti jalan yang benar. Hal ini merupakan ajakan Allah kepada orang-orang kafir agar mereka bertobat dan beriman.\n2. \tKeduanya mengutarakan hal-hal yang berhubungan dengan keadaan hari Kiamat, keadaan di Padang Mahsyar, surga, dan neraka.",
        "munasabah_prev_theme": "Pada ayat-ayat yang lalu diterangkan tentang jaminan Allah kepada para rasul dan orang-orang yang beriman bahwa Dia pasti menolong dan memberikan kemenangan kepada mereka baik di dunia maupun di akhirat. Allah juga memerintahkan agar bersabar dan bertasbih pagi dan petang. Pada ayat-ayat berikut diterangkan bahwa orang-orang yang mengingkari ayat-ayat Allah adalah orang-orang yang dalam hati mereka ada kesombongan dan keangkuhan kepada Allah. Juga diterangkan bukti-bukti kekuasaan Allah dan kepastian adanya hari kebangkitan.\n",
        "theme_group": "KESOMBONGAN MENJADI PENYEBAB KEINGKARAN\nKEPADA ALLAH\n",
        "kosakata": "Kosakata: Al-Mus\u012b\u2019u \u0627\u0644\u0652\u0645\u064f\u0633\u0650\u064a\u0652\u0626\u064f (G\u0101fir/40: 58)\nKata al-mus\u012b\u2019u merupakan isim f\u0101\u2018il dari kata as\u0101\u2019a-yus\u012b\u2019u yang artinya orang yang berbuat kejelekan atau kejahatan. Sedangkan kata s\u0101\u2019a-yas\u016b\u2019u-s\u016b\u2019an berarti sesuatu yang membuat manusia celaka, sedih, atau menjengkelkan, baik urusan dunia maupun akhirat. Kata ini juga berarti melakukan sesuatu yang dibenci. As-S\u016b\u2019u adalah perbuatan jelek atau mungkar. Dari sini, kata ini berkisar pada makna kalimat atau perbuatan yang menunjukkan kepada keburukan, kejelekan, kejahatan, kehancuran, dan kerusakan. As-sau\u2019ah artinya perempuan yang buruk rupa, berarti juga aurat atau kemaluan.  \nUngkapan ayat ini menjelaskan bahwa tidak akan sama kedudukan dan derajat orang-orang yang beriman yang mau mencari kebenaran dan beramal saleh dengan orang-orang kafir yang senantiasa melakukan perbuatan-perbuatan buruk yang dibenci oleh Allah. ",
        "sabab_nuzul": null,
        "conclusion": null
    }
}