{
    "id": 4218,
    "surah_id": 40,
    "ayah": 85,
    "page": 476,
    "quarter_hizb": 48.25,
    "juz": 24,
    "manzil": 6,
    "arabic": "\u0641\u064e\u0644\u064e\u0645\u0652 \u064a\u064e\u0643\u064f \u064a\u064e\u0646\u0652\u0641\u064e\u0639\u064f\u0647\u064f\u0645\u0652 \u0627\u0650\u064a\u0652\u0645\u064e\u0627\u0646\u064f\u0647\u064f\u0645\u0652 \u0644\u064e\u0645\u0651\u064e\u0627 \u0631\u064e\u0627\u064e\u0648\u0652\u0627 \u0628\u064e\u0623\u0652\u0633\u064e\u0646\u064e\u0627 \u06d7\u0633\u064f\u0646\u0651\u064e\u062a\u064e \u0627\u0644\u0644\u0651\u0670\u0647\u0650 \u0627\u0644\u0651\u064e\u062a\u0650\u064a\u0652 \u0642\u064e\u062f\u0652 \u062e\u064e\u0644\u064e\u062a\u0652 \u0641\u0650\u064a\u0652 \u0639\u0650\u0628\u064e\u0627\u062f\u0650\u0647\u0656\u06da \u0648\u064e\u062e\u064e\u0633\u0650\u0631\u064e \u0647\u064f\u0646\u064e\u0627\u0644\u0650\u0643\u064e \u0627\u0644\u0652\u0643\u0670\u0641\u0650\u0631\u064f\u0648\u0652\u0646\u064e \u08d6 ",
    "latin": "Falam yaku yanfa\u2018uhum \u012bm\u0101nuhum lamm\u0101 ra'au ba'san\u0101, sunnatall\u0101hil lat\u012b qad khalat f\u012b \u2018ib\u0101dih(\u012b), wa khasira hun\u0101likal-k\u0101fir\u016bn(a).",
    "translation": "Tidak berguna lagi iman mereka setelah melihat azab Kami. (Yang demikian itu) merupakan sunatullah yang telah berlaku terhadap hamba-hamba-Nya. Ketika itu, rugilah orang-orang kafir.",
    "no_footnote": null,
    "footnotes": null,
    "surah": {
        "id": 40,
        "arabic": " \u063a\u0627\u0641\u0631",
        "latin": "G\u0101fir ",
        "transliteration": "Gafir",
        "translation": "Maha Pengampun",
        "num_ayah": 85,
        "page": 467,
        "location": "Makkiyah"
    },
    "tafsir": {
        "wajiz": "Maka tak pelak lagi, iman mereka ketika mereka telah melihat dan merasakan azab Kami, tidak berguna lagi sama sekali bagi mereka. Itulah ketentuan Allah yang telah berlaku terhadap hamba-hamba-Nya yang durhaka. Dan ketika itu rugilah orang-orang kafir yang berbuat durhaka dengan penuh kesombongan.[]",
        "tahlili": "Ayat ini menegaskan bahwa pengakuan iman orang-orang seperti diterangkan ayat di atas, tidak ada manfaatnya lagi jika azab Allah telah datang. Pintu tobat telah tertutup bagi mereka, seperti firman Allah kepada Fir\u2018aun waktu ia akan tenggelam:\n\u062d\u064e\u062a\u0651\u0670\u0649\u0653 \u0627\u0650\u0630\u064e\u0627\u0653 \u0627\u064e\u062f\u0652\u0631\u064e\u0643\u064e\u0647\u064f \u0627\u0644\u0652\u063a\u064e\u0631\u064e\u0642\u064f \u0642\u064e\u0627\u0644\u064e \u0627\u0670\u0645\u064e\u0646\u0652\u062a\u064f \u0627\u064e\u0646\u0651\u064e\u0647\u0657 \u0644\u064e\u0627\u0653 \u0627\u0650\u0644\u0670\u0647\u064e \u0627\u0650\u0644\u0651\u064e\u0627 \u0627\u0644\u0651\u064e\u0630\u0650\u064a\u0652\u0653 \u0627\u0670\u0645\u064e\u0646\u064e\u062a\u0652 \u0628\u0650\u0647\u0656 \u0628\u064e\u0646\u064f\u0648\u0652\u0653\u0627 \u0627\u0650\u0633\u0652\u0631\u064e\u0627\u06e4\u0621\u0650\u064a\u0652\u0644\u064e \u0648\u064e\u0627\u064e\u0646\u064e\u0627\u06e0 \u0645\u0650\u0646\u064e \u0627\u0644\u0652\u0645\u064f\u0633\u0652\u0644\u0650\u0645\u0650\u064a\u0652\u0646\u064e \u0669\u0660 \u0627\u0670\u06e4\u0644\u0652\u0640\u0654\u0670\u0646\u064e \u0648\u064e\u0642\u064e\u062f\u0652 \u0639\u064e\u0635\u064e\u064a\u0652\u062a\u064e \u0642\u064e\u0628\u0652\u0644\u064f \u0648\u064e\u0643\u064f\u0646\u0652\u062a\u064e \u0645\u0650\u0646\u064e \u0627\u0644\u0652\u0645\u064f\u0641\u0652\u0633\u0650\u062f\u0650\u064a\u0652\u0646\u064e 91 \n\u2026Sehingga ketika Fir\u2018aun hampir tenggelam dia berkata, \u201cAku percaya bahwa tidak ada tuhan melainkan Tuhan yang dipercayai oleh Bani Israil, dan aku termasuk orang-orang Muslim (berserah diri).\u201d Mengapa baru sekarang (kamu beriman), padahal sesungguhnya engkau telah durhaka sejak dahulu, dan engkau termasuk orang yang berbuat kerusakan. (Y\u016bnus/10: 90-91)\n\nAyat ini memberi peringatan bahwa iman itu akan berfaedah bagi seseorang apabila ia beriman kepada Allah dalam kehidupannya di dunia yang fana ini, pikiran dan hatinya merasakan kebesaran dan kekuasaan Allah dan ia merasa bahwa hidup dan matinya bergantung pada-Nya. Jika melakukan kesalahan, ia pun segera bertobat dan berjanji tidak akan melakukan kesalahan lagi.\nYang diterangkan itu adalah hukum-hukum Tuhan yang berlaku bagi semua orang. Iman itu tidak ada faedahnya lagi di kala mereka melihat azab. Pada saat itu tidak ada lagi gunanya iman dan semua orang-orang yang kafir akan merugi.",
        "intro_surah": "Surah G\u0101fir terdiri atas 85 ayat, termasuk kelompok surah Makkiyyah, diturunkan sesudah Surah az-Zumar. Dinamai \u201cG\u0101fir\u201d (yang mengampuni) karena ada hubungannya dengan kalimat \u201cG\u0101fir\u201d yang terdapat pada ayat 3 surah ini. Ayat ini mengingatkan bahwa \u201cMaha Pengampun\u201d dan \u201cMaha Penerima Taubat\u201d adalah termasuk dari sifat-sifat Allah. Oleh karena itu, hamba-hamba Allah tidak perlu terlalu risau terhadap perbuatan-perbuatan dosa yang telah terlanjur mereka lakukan. Semuanya itu akan diampuni Allah asal benar-benar memohon ampun dan bertobat kepada-Nya dan berjanji tidak akan mengerjakan perbuatan-perbuatan dosa itu lagi.\nDinamakan pula \u201cal-Mu'min\u201d (Orang yang beriman), karena terdapat perkataan \u201cmu'min\u201d dalam surah ini, yaitu pada ayat 28. Dalam ayat 28 ini diterangkan bahwa salah seorang dari kaum Fir\u2018aun telah beriman kepada Nabi Musa dengan menyembunyikan imannya kepada kaumnya, setelah mendengar keterangan dan melihat mukjizat yang ditujukan oleh Nabi Musa. Hati kecil orang ini mencela Fir\u2018aun dan kaumnya yang tidak mau beriman kepada Nabi Musa, sekalipun telah dikemukakan keterangan dan mukjizat yang diminta mereka.\nSurah ini juga dinamai \u201ca\u1e6d-\u1e6caul\u201d (Yang mempunyai Karunia) karena perkataan tersebut terdapat pada ayat 3.\n\nPokok-pokok Isinya:\n1. \tKeimanan:\nSifat-sifat malaikat yang memiliki \u2018Arasy dan yang berada di sekitarnya; dalil-dalil yang menunjukkan kekuasaan Allah, sifat-sifat Allah yang menunjukkan kebesaran dan keagungan-Nya, ilmu Allah meliputi segala sesuatu; bukti-bukti yang menunjukkan adanya hari kebangkitan.\n2. \tKisah:\n\tKisah Musa dengan Fir\u2018aun.\n3. \tLain-lain:\nAl-Qur\u2019an al-Karim dan sikap orang-orang mukmin dan orang-orang kafir terhadapnya; permohonan orang-orang kafir supaya dikeluarkan dari neraka; peringatan kepada orang-orang musyrik tentang kedahsyatan hari Kiamat, anjuran bersabar dalam menghadapi kaum musyrikin; nikmat-nikmat Allah yang terdapat di daratan dan lautan; janji Rasulullah saw bahwa orang-orang mukmin akan menang terhadap musuhnya.\nHUBUNGAN SURAH AZ-ZUMAR DENGAN\nSURAH G\u0100FIR\n\n1. \tSurah az-Zumar menerangkan bagaimana nasib orang-orang mukmin yang bertakwa kepada Allah dan mengikuti ajaran yang dibawa rasul-Nya di akhirat nanti. Juga dijelaskan nasib orang-orang kafir di akhirat, di mana ketika mereka di dunia selalu mengingkari nabi yang diutus kepada mereka. Surah G\u0101fir menerangkan bahwa Allah mengampuni segala dosa hamba-Nya yang mau kembali mengikuti jalan yang benar. Hal ini merupakan ajakan Allah kepada orang-orang kafir agar mereka bertobat dan beriman.\n2. \tKeduanya mengutarakan hal-hal yang berhubungan dengan keadaan hari Kiamat, keadaan di Padang Mahsyar, surga, dan neraka.\n ",
        "outro_surah": "Surah G\u0101fir mengemukakan hal-hal yang berhubungan dengan bantahan orang-orang kafir dan pengakuan orang-orang mukmin terhadap Al-Qur\u2019an terutama yang berhubungan dengan ketauhidan, serta penegasan kebangkitan dan kerasulan. Surah ini juga mengemukakan bahwa keadaan orang-orang musyrik akan sama halnya dengan keadaan Fir\u2018aun, dan H\u0101m\u0101n, bila orang-orang musyrik tetap pada kemusyrikannya.",
        "munasabah_prev_surah": "HUBUNGAN SURAH AZ-ZUMAR DENGAN\nSURAH G\u0100FIR\n\n1. \tSurah az-Zumar menerangkan bagaimana nasib orang-orang mukmin yang bertakwa kepada Allah dan mengikuti ajaran yang dibawa rasul-Nya di akhirat nanti. Juga dijelaskan nasib orang-orang kafir di akhirat, di mana ketika mereka di dunia selalu mengingkari nabi yang diutus kepada mereka. Surah G\u0101fir menerangkan bahwa Allah mengampuni segala dosa hamba-Nya yang mau kembali mengikuti jalan yang benar. Hal ini merupakan ajakan Allah kepada orang-orang kafir agar mereka bertobat dan beriman.\n2. \tKeduanya mengutarakan hal-hal yang berhubungan dengan keadaan hari Kiamat, keadaan di Padang Mahsyar, surga, dan neraka.",
        "munasabah_prev_theme": "Ayat-ayat yang lalu menerangkan bahwa Allah telah memberikan karunia dan nikmat yang banyak bagi manusia, di antaranya berupa binatang ternak, agar mereka bersyukur dan tidak mengingkari-Nya. Ayat-ayat berikut ini menjelaskan bahwa Allah menghimbau manusia untuk mengambil pelajaran dari malapetaka yang menimpa umat-umat terdahulu di dunia, bukan di akhirat. Kalau tidak, mereka akan merugi.",
        "theme_group": "MALAPETAKA YANG MENIMPA UMAT-UMAT TERDAHULU\n",
        "kosakata": "Kosakata: Sunnatall\u0101h \u0633\u064f\u0646\u0651\u064e\u062a\u064e \u0627\u0644\u0644\u0651\u0670\u0647\u0650 (G\u0101fir/40: 85)\nSunnatull\u0101h artinya ketentuan Allah, hukum Allah, dan ketetapan Allah. Fi\u2018il sanna-yasunnu-sannan mempunyai banyak arti, antara lain menerangkan atau menjelaskan, mengatur dengan baik, menetapkan dan membuat ketentuan. Pada ayat terakhir Surah G\u0101fir ini, Allah menegaskan bahwa sunnatull\u0101h atau ketentuan Allah sebagaimana telah berlaku pada hamba-hamba-Nya dan seluruh makhluk-Nya akan tetap berlaku pada siapa pun, yaitu setelah manusia disuruh beriman dan taat pada perintah dan larangan-Nya maka akan diberi balasan kebahagiaan surga bagi orang-orang yang taat dan beriman. Akan tetapi, manusia diazab jika ingkar dan menolak perintah-Nya. Apabila seseorang baru akan beriman setelah melihat datangnya siksa Allah, maka keinginan mereka untuk beriman ditolak karena sudah terlambat. Manusia demikian sudah tidak memiliki waktu lagi untuk melaksanakan perintah Allah dan untuk menghindari larangan-Nya. Demikianlah ketentuan Allah yang berlaku untuk semua hamba-Nya, tanpa kecuali.",
        "sabab_nuzul": null,
        "conclusion": "1.\tSebenarnya orang-orang musyrik Mekah sudah mengetahui akibat yang dialami orang-orang terdahulu yang mengingkari Allah, karena mereka selalu melalui negeri-negeri yang pernah didiami oleh umat-umat itu dan melihat bekas-bekas peninggalan mereka. Akan tetapi, mereka tidak mengambil pelajaran dari kejadian-kejadian yang mereka saksikan itu.\n2.\tUmat-umat terdahulu ditimpa azab karena tidak mengindahkan seruan para rasul yang diutus kepada mereka, bahkan mereka senang dengan agama yang mereka anut itu.\n3.\tWatak manusia ialah baru beriman kepada Allah tatkala sudah melihat azab yang akan ditimpakan kepada mereka. Akan tetapi pada saat itu, iman mereka tidak berfaedah lagi.\n4.\tDi antara sunatullah ialah Allah tidak akan menerima tobat seseorang yang baru beriman tatkala azab menimpa mereka.\n"
    }
}