{
    "id": 4138,
    "surah_id": 40,
    "ayah": 5,
    "page": 467,
    "quarter_hizb": 47.5,
    "juz": 24,
    "manzil": 6,
    "arabic": "\u0643\u064e\u0630\u0651\u064e\u0628\u064e\u062a\u0652 \u0642\u064e\u0628\u0652\u0644\u064e\u0647\u064f\u0645\u0652 \u0642\u064e\u0648\u0652\u0645\u064f \u0646\u064f\u0648\u0652\u062d\u064d \u0648\u0651\u064e\u0627\u0644\u0652\u0627\u064e\u062d\u0652\u0632\u064e\u0627\u0628\u064f \u0645\u0650\u0646\u0652\u06e2 \u0628\u064e\u0639\u0652\u062f\u0650\u0647\u0650\u0645\u0652 \u06d6\u0648\u064e\u0647\u064e\u0645\u0651\u064e\u062a\u0652 \u0643\u064f\u0644\u0651\u064f \u0627\u064f\u0645\u0651\u064e\u0629\u064d\u06e2 \u0628\u0650\u0631\u064e\u0633\u064f\u0648\u0652\u0644\u0650\u0647\u0650\u0645\u0652 \u0644\u0650\u064a\u064e\u0623\u0652\u062e\u064f\u0630\u064f\u0648\u0652\u0647\u064f \u0648\u064e\u062c\u064e\u0627\u062f\u064e\u0644\u064f\u0648\u0652\u0627 \u0628\u0650\u0627\u0644\u0652\u0628\u064e\u0627\u0637\u0650\u0644\u0650 \u0644\u0650\u064a\u064f\u062f\u0652\u062d\u0650\u0636\u064f\u0648\u0652\u0627 \u0628\u0650\u0647\u0650 \u0627\u0644\u0652\u062d\u064e\u0642\u0651\u064e \u0641\u064e\u0627\u064e\u062e\u064e\u0630\u0652\u062a\u064f\u0647\u064f\u0645\u0652 \u06d7\u0641\u064e\u0643\u064e\u064a\u0652\u0641\u064e \u0643\u064e\u0627\u0646\u064e \u0639\u0650\u0642\u064e\u0627\u0628\u0650",
    "latin": "Ka\u017c\u017cabat qablahum qaumu n\u016b\u1e25iw wal-a\u1e25z\u0101bu mim ba\u2018dihim, wa hammat kullu ummatim biras\u016blihim liya'khu\u017c\u016bhu wa j\u0101dal\u016b bil-b\u0101\u1e6dili liyud\u1e25i\u1e0d\u016b bihil-\u1e25aqqa fa'akha\u017ctuhum, fa kaifa k\u0101na \u2018iq\u0101b(i).",
    "translation": "Sebelum mereka, kaum Nuh dan golongan-golongan yang bersekutu setelah mereka mendustakan (rasul). Setiap umat telah merencanakan (tipu daya) terhadap rasul mereka untuk membunuhnya. Mereka membantah dengan (alasan) yang batil untuk melenyapkan kebenaran. Maka, Aku menyiksa mereka. Bagaimanakah (pedihnya) azab-Ku?",
    "no_footnote": null,
    "footnotes": null,
    "surah": {
        "id": 40,
        "arabic": " \u063a\u0627\u0641\u0631",
        "latin": "G\u0101fir ",
        "transliteration": "Gafir",
        "translation": "Maha Pengampun",
        "num_ayah": 85,
        "page": 467,
        "location": "Makkiyah"
    },
    "tafsir": {
        "wajiz": "Sebelum mereka, orang-orang musyrik Mekah, mendustakan wahyu Allah, kaum Nuh dan golongan-golongan yang bersekutu setelah mereka telah terlebih dahulu melakukan hal yang sama, yakni mendustakan rasul-rasul Allah, dan setiap umat ketika itu juga telah merencanakan tipu daya terhadap rasul mereka untuk menawannya bahkan sampai mencelakakannya, dan mereka membantah dengan alasan yang batil untuk melenyapkan kebenaran yang dibawa oleh para rasul itu. Karena itu, Aku, Allah Yang Mahaperkasa, tawan dan siksa mereka dengan azab. Maka camkanlah dengan sungguh-sungguh bahwa betapa pedihnya azab-Ku?",
        "tahlili": "Pada ayat ini, Allah menghibur Nabi Muhammad agar jangan cemas dan gusar menghadapi kaumnya yang selalu menentang dan mendustakannya. Hal demikian adalah sunatullah yang berlaku pada setiap nabi dan rasul yang diutus Allah. Kaum Nuh mendustakan Nabi Nuh, begitu pula umat-umat yang lain, telah mendustakan para nabi dan rasul yang diutus kepada mereka, seperti kaum \u2018Ad, Samud, dan lain-lain. Bahkan, selain mendustakan para rasul, mereka juga merencanakan makar terhadap para rasul. Mereka berusaha melawan para rasul mereka dan menganiaya sekehendak hati. Mereka tidak henti-hentinya menentang, mendustakan, dan mendebat rasul-rasul dengan alasan yang batil dan tak berdasar. Di antara perkataan mereka adalah rasul-rasul itu manusia-manusia biasa seperti mereka juga, dengan maksud untuk melepaskan kebenaran, mengaburkan yang hak yang datangnya dari Allah, serta senantiasa mematikan dan memadamkan cahaya (agama) Allah, sebagaimana firman Allah:\n\u064a\u064f\u0631\u0650\u064a\u0652\u062f\u064f\u0648\u0652\u0646\u064e \u0627\u064e\u0646\u0652 \u064a\u0651\u064f\u0637\u0652\u0641\u0650\u0640\u0654\u064f\u0648\u0652\u0627 \u0646\u064f\u0648\u0652\u0631\u064e \u0627\u0644\u0644\u0651\u0670\u0647\u0650 \u0628\u0650\u0627\u064e\u0641\u0652\u0648\u064e\u0627\u0647\u0650\u0647\u0650\u0645\u0652 \u0648\u064e\u064a\u064e\u0623\u0652\u0628\u064e\u0649 \u0627\u0644\u0644\u0651\u0670\u0647\u064f \u0627\u0650\u0644\u0651\u064e\u0627\u0653 \u0627\u064e\u0646\u0652 \u064a\u0651\u064f\u062a\u0650\u0645\u0651\u064e \u0646\u064f\u0648\u0652\u0631\u064e\u0647\u0657 \u0648\u064e\u0644\u064e\u0648\u0652 \u0643\u064e\u0631\u0650\u0647\u064e \u0627\u0644\u0652\u0643\u0670\u0641\u0650\u0631\u064f\u0648\u0652\u0646\u064e \u0663\u0662 (\u0627\u0644\u062a\u0648\u0628\u0629)\nMereka hendak memadamkan cahaya (agama) Allah dengan mulut (ucapan-ucapan) mereka, tetapi Allah menolaknya, malah berkehendak menyempurnakan cahaya-Nya, walaupun orang-orang kafir itu tidak menyukai. (at-Taubah/9: 32)\n\nAllah tidak tinggal diam melihat perbuatan jahat yang menunjukkan kebejatan akhlak mereka itu. Mereka diazab dengan siksaan yang amat pedih dan dibinasakan oleh Allah, bahkan ada yang dimusnahkan sehingga mereka seakan-akan tak pernah ada di bumi ini. Umat Muhammad saw, terutama penduduk Mekah, dapat menyaksikan bekas-bekas kehancuran mereka sebagaimana dikisahkan dalam Al-Qur\u2019an:\n\u0648\u064e\u0627\u0650\u0646\u0651\u064e\u0643\u064f\u0645\u0652 \u0644\u064e\u062a\u064e\u0645\u064f\u0631\u0651\u064f\u0648\u0652\u0646\u064e \u0639\u064e\u0644\u064e\u064a\u0652\u0647\u0650\u0645\u0652 \u0645\u0651\u064f\u0635\u0652\u0628\u0650\u062d\u0650\u064a\u0652\u0646\u06d9\u064e \u0661\u0663\u0667 \u0648\u064e\u0628\u0650\u0627\u0644\u0651\u064e\u064a\u0652\u0644\u0650\u06d7 \u0627\u064e\u0641\u064e\u0644\u064e\u0627 \u062a\u064e\u0639\u0652\u0642\u0650\u0644\u064f\u0648\u0652\u0646\u064e \u08d6 \u0661\u0663\u0668 (\u0627\u0644\u0635\u0651\u0670\u06e4\u0641\u0651\u0670\u062a)\nDan sesungguhnya kamu (penduduk Mekah) benar-benar akan melalui (bekas-bekas) mereka pada waktu pagi, dan pada waktu malam. Maka mengapa kamu tidak mengerti? (a\u1e63-\u1e62\u0101ff\u0101t/37: 137-138)",
        "intro_surah": "Surah G\u0101fir terdiri atas 85 ayat, termasuk kelompok surah Makkiyyah, diturunkan sesudah Surah az-Zumar. Dinamai \u201cG\u0101fir\u201d (yang mengampuni) karena ada hubungannya dengan kalimat \u201cG\u0101fir\u201d yang terdapat pada ayat 3 surah ini. Ayat ini mengingatkan bahwa \u201cMaha Pengampun\u201d dan \u201cMaha Penerima Taubat\u201d adalah termasuk dari sifat-sifat Allah. Oleh karena itu, hamba-hamba Allah tidak perlu terlalu risau terhadap perbuatan-perbuatan dosa yang telah terlanjur mereka lakukan. Semuanya itu akan diampuni Allah asal benar-benar memohon ampun dan bertobat kepada-Nya dan berjanji tidak akan mengerjakan perbuatan-perbuatan dosa itu lagi.\nDinamakan pula \u201cal-Mu'min\u201d (Orang yang beriman), karena terdapat perkataan \u201cmu'min\u201d dalam surah ini, yaitu pada ayat 28. Dalam ayat 28 ini diterangkan bahwa salah seorang dari kaum Fir\u2018aun telah beriman kepada Nabi Musa dengan menyembunyikan imannya kepada kaumnya, setelah mendengar keterangan dan melihat mukjizat yang ditujukan oleh Nabi Musa. Hati kecil orang ini mencela Fir\u2018aun dan kaumnya yang tidak mau beriman kepada Nabi Musa, sekalipun telah dikemukakan keterangan dan mukjizat yang diminta mereka.\nSurah ini juga dinamai \u201ca\u1e6d-\u1e6caul\u201d (Yang mempunyai Karunia) karena perkataan tersebut terdapat pada ayat 3.\n\nPokok-pokok Isinya:\n1. \tKeimanan:\nSifat-sifat malaikat yang memiliki \u2018Arasy dan yang berada di sekitarnya; dalil-dalil yang menunjukkan kekuasaan Allah, sifat-sifat Allah yang menunjukkan kebesaran dan keagungan-Nya, ilmu Allah meliputi segala sesuatu; bukti-bukti yang menunjukkan adanya hari kebangkitan.\n2. \tKisah:\n\tKisah Musa dengan Fir\u2018aun.\n3. \tLain-lain:\nAl-Qur\u2019an al-Karim dan sikap orang-orang mukmin dan orang-orang kafir terhadapnya; permohonan orang-orang kafir supaya dikeluarkan dari neraka; peringatan kepada orang-orang musyrik tentang kedahsyatan hari Kiamat, anjuran bersabar dalam menghadapi kaum musyrikin; nikmat-nikmat Allah yang terdapat di daratan dan lautan; janji Rasulullah saw bahwa orang-orang mukmin akan menang terhadap musuhnya.\nHUBUNGAN SURAH AZ-ZUMAR DENGAN\nSURAH G\u0100FIR\n\n1. \tSurah az-Zumar menerangkan bagaimana nasib orang-orang mukmin yang bertakwa kepada Allah dan mengikuti ajaran yang dibawa rasul-Nya di akhirat nanti. Juga dijelaskan nasib orang-orang kafir di akhirat, di mana ketika mereka di dunia selalu mengingkari nabi yang diutus kepada mereka. Surah G\u0101fir menerangkan bahwa Allah mengampuni segala dosa hamba-Nya yang mau kembali mengikuti jalan yang benar. Hal ini merupakan ajakan Allah kepada orang-orang kafir agar mereka bertobat dan beriman.\n2. \tKeduanya mengutarakan hal-hal yang berhubungan dengan keadaan hari Kiamat, keadaan di Padang Mahsyar, surga, dan neraka.\n ",
        "outro_surah": null,
        "munasabah_prev_surah": "HUBUNGAN SURAH AZ-ZUMAR DENGAN\nSURAH G\u0100FIR\n\n1. \tSurah az-Zumar menerangkan bagaimana nasib orang-orang mukmin yang bertakwa kepada Allah dan mengikuti ajaran yang dibawa rasul-Nya di akhirat nanti. Juga dijelaskan nasib orang-orang kafir di akhirat, di mana ketika mereka di dunia selalu mengingkari nabi yang diutus kepada mereka. Surah G\u0101fir menerangkan bahwa Allah mengampuni segala dosa hamba-Nya yang mau kembali mengikuti jalan yang benar. Hal ini merupakan ajakan Allah kepada orang-orang kafir agar mereka bertobat dan beriman.\n2. \tKeduanya mengutarakan hal-hal yang berhubungan dengan keadaan hari Kiamat, keadaan di Padang Mahsyar, surga, dan neraka.",
        "munasabah_prev_theme": "Pada ayat-ayat yang lalu, Allah menegaskan bahwa Kitab Suci Al-Qur\u2019an diturunkan sebagai petunjuk bagi manusia untuk mencapai kebahagiaan di dunia dan akhirat apabila manusia itu mengamalkan isinya dan menuruti petunjuknya. Pada ayat-ayat berikut ini, Allah menerangkan tentang orang-orang yang mendebat dan menentang isi Al-Qur\u2019an dengan maksud meniadakan dan memadamkan cahayanya. Allah juga memerintahkan rasul-Nya supaya jangan teperdaya oleh kemewahan dan kemakmuran hidup para penentangnya.",
        "theme_group": "ORANG MUKMIN TIDAK BOLEH TEPERDAYA\nOLEH KEMAKMURAN ORANG MUSYRIK\n",
        "kosakata": "Kosakata: Liyud\u1e25i\u1e0d\u016b \u0644\u0650\u064a\u064f\u062f\u0652\u062d\u0650\u0636\u064f\u0648\u0652\u0627 (G\u0101fir/40: 5)\nBentuk fi\u2018il mu\u1e0d\u0101ri\u2018 dari ad\u1e25a\u1e0da-yud\u1e25i\u1e0du. Akar katanya (dal-\u1e25a-\u1e0dad) artinya berkisar pada: hilang, lenyap dan tergelincir. Seorang yang terpeleset kakinya dikatakan  da\u1e25a\u1e0dat rijluhu. Hujjah dan alasan yang tidak mantap disebut juga d\u0101\u1e25i\u1e0dah. Dengan demikian makna dari liyud\u1e25i\u1e0d\u016b bih\u012b al haqq ialah agar supaya mereka melenyapkan kebenaran dengan yang batil itu. \n",
        "sabab_nuzul": null,
        "conclusion": null
    }
}