{
    "id": 4136,
    "surah_id": 40,
    "ayah": 3,
    "page": 467,
    "quarter_hizb": 47.5,
    "juz": 24,
    "manzil": 6,
    "arabic": "\u063a\u064e\u0627\u0641\u0650\u0631\u0650 \u0627\u0644\u0630\u0651\u064e\u0646\u0652\u06e2\u0628\u0650 \u0648\u064e\u0642\u064e\u0627\u0628\u0650\u0644\u0650 \u0627\u0644\u062a\u0651\u064e\u0648\u0652\u0628\u0650 \u0634\u064e\u062f\u0650\u064a\u0652\u062f\u0650 \u0627\u0644\u0652\u0639\u0650\u0642\u064e\u0627\u0628\u0650 \u0630\u0650\u0649 \u0627\u0644\u0637\u0651\u064e\u0648\u0652\u0644\u0650\u06d7  \u0644\u064e\u0627\u0653 \u0627\u0650\u0644\u0670\u0647\u064e \u0627\u0650\u0644\u0651\u064e\u0627 \u0647\u064f\u0648\u064e \u06d7\u0627\u0650\u0644\u064e\u064a\u0652\u0647\u0650 \u0627\u0644\u0652\u0645\u064e\u0635\u0650\u064a\u0652\u0631\u064f ",
    "latin": "G\u0101firi\u017c-\u017cambi wa q\u0101bilit-taubi syad\u012bdil-\u2018iq\u0101bi \u017ci\u1e6d-\u1e6daul(i), l\u0101 il\u0101ha ill\u0101 huw(a), ilaihil-ma\u1e63\u012br(u). ",
    "translation": "(Dia) Pengampun dosa, Penerima tobat, Pemberi hukuman yang keras, (dan) Pemilik karunia. Tidak ada tuhan  selain Dia. Hanya kepada-Nyalah (semua makhluk) kembali.",
    "no_footnote": null,
    "footnotes": null,
    "surah": {
        "id": 40,
        "arabic": " \u063a\u0627\u0641\u0631",
        "latin": "G\u0101fir ",
        "transliteration": "Gafir",
        "translation": "Maha Pengampun",
        "num_ayah": 85,
        "page": 467,
        "location": "Makkiyah"
    },
    "tafsir": {
        "wajiz": "Dia Allah Yang Maha Pengampun, mengampuni dosa dan menerima tobat bagi orang yang mau memohon ampunan dan bertobat, dan pada waktu yang bersamaan juga sangat keras hukuman-Nya; serta Dia juga yang memiliki karunia. Tidak ada tuhan yang berhak untuk disembah selain Dia. Hanya kepada-Nya saja-lah semua makhluk kembali.",
        "tahlili": "Pada ayat ini dijelaskan lima macam sifat Allah yang menurunkan  Al-Qur\u2019an:\n1. \tPengampun Dosa\nSifat Allah ini ditegaskan pula pada ayat yang lain, sebagaimana firman Allah:\n\u0646\u064e\u0628\u0651\u0650\u0626\u0652 \u0639\u0650\u0628\u064e\u0627\u062f\u0650\u064a\u0652\u0653 \u0627\u064e\u0646\u0651\u0650\u064a\u0652\u0653 \u0627\u064e\u0646\u064e\u0627 \u0627\u0644\u0652\u063a\u064e\u0641\u064f\u0648\u0652\u0631\u064f \u0627\u0644\u0631\u0651\u064e\u062d\u0650\u064a\u0652\u0645\u064f\u06d9 \u0664\u0669 (\u0627\u0644\u062d\u062c\u0631)\nKabarkanlah kepada hamba-hamba-Ku, bahwa Akulah Yang Maha Pengampun, Maha Penyayang. (al-\u1e24ijr/15: 49)\n\nDan firman-Nya:\n\u0627\u0650\u0646\u0651\u064e\u0647\u0657 \u0647\u064f\u0648\u064e \u0627\u0644\u0652\u063a\u064e\u0641\u064f\u0648\u0652\u0631\u064f \u0627\u0644\u0631\u0651\u064e\u062d\u0650\u064a\u0652\u0645\u064f \nSungguh, Dialah Yang Maha Pengampun, Maha Penyayang. (az-Zumar/39: 53)\n\n\tBagaimana pun banyaknya dosa seseorang apabila ia meminta ampun kepada Allah dengan sungguh-sungguh, maka Allah akan mengampuni semua dosanya sebagaimana dijelaskan dalam hadis Qudsi sebagai berikut:\n\u064a\u064e\u0627 \u0639\u0650\u0628\u064e\u0627\u062f\u0650\u064a\u0652\u060c \u0625\u0650\u0646\u0651\u064e\u0643\u064f\u0645\u0652 \u062a\u064f\u062e\u0652\u0637\u0650\u0626\u064f\u0648\u0652\u0646\u064e \u0628\u0650\u0627\u0644\u0644\u0651\u064e\u064a\u0652\u0644\u0650 \u0648\u064e\u0627\u0644\u0646\u0651\u064e\u0647\u064e\u0627\u0631\u0650 \u0648\u064e\u0623\u064e\u0646\u064e\u0627 \u0623\u064e\u063a\u0652\u0641\u0650\u0631\u064f \u0627\u0644\u0630\u0651\u064f\u0646\u064f\u0648\u0652\u0628\u064e \u062c\u064e\u0645\u0650\u064a\u0652\u0639\u064b\u0627 \u0641\u064e\u0627\u0633\u0652\u062a\u064e\u063a\u0652\u0641\u0650\u0631\u064f\u0648\u0652\u0646\u0650\u064a\u0652 \u0623\u064e\u063a\u0652\u0641\u0650\u0631\u0652\u0644\u064e\u0643\u064f\u0645\u0652. (\u0631\u0648\u0627\u0647 \u0645\u0633\u0644\u0645 \u0639\u0646 \u0623\u0628\u064a \u0630\u0631\u0651)\nHai hamba-hamba-Ku, sesungguhnya kamu melakukan kesalahan di waktu siang dan malam, dan Aku mengampuni dosa-dosa itu semuanya, maka mintalah ampun pada-Ku, niscaya Aku mengampuninya. (Riwayat Muslim dari Abu \u017barr)\n\t\nDi dalam hadis Qudsi yang lain, Allah menegaskan pula:\n\u064a\u064e\u0627 \u0627\u0628\u0652\u0646\u064e \u0622\u062f\u064e\u0645\u064e\u060c \u0625\u0650\u0646\u0651\u064e\u0643\u064e \u0645\u064e\u0627 \u062f\u064e\u0639\u064e\u0648\u0652\u062a\u064e\u0646\u0650\u064a\u0652 \u0648\u064e\u0631\u064e\u062c\u064e\u0648\u0652\u062a\u064e\u0646\u0650\u064a\u0652 \u063a\u064e\u0641\u064e\u0631\u0652\u062a\u064f \u0644\u064e\u0643\u064e \u0639\u064e\u0644\u064e\u0649 \u0645\u064e\u0627 \u0643\u064e\u0627\u0646\u064e \u0641\u0650\u064a\u0652\u0643\u064e \u0648\u064e\u0644\u064e\u0627 \u0623\u064f\u0628\u064e\u0627\u0644\u0650\u0649\u060c \u064a\u064e\u0627 \u0627\u0628\u0652\u0646\u064e \u0622\u062f\u064e\u0645\u064e\u060c \u0644\u064e\u0648\u0652 \u0628\u064e\u0644\u064e\u063a\u064e\u062a\u0652 \u0630\u064f\u0646\u064f\u0648\u0652\u0628\u064f\u0643\u064e \u0639\u064e\u0646\u064e\u0627\u0646\u064e \u0627\u0644\u0633\u0651\u064e\u0645\u064e\u0627\u0621\u0650 \u062b\u064f\u0645\u0651\u064e \u0627\u0633\u0652\u062a\u064e\u063a\u0652\u0641\u064e\u0631\u0652\u062a\u064e\u0646\u0650\u064a\u0652 \u063a\u064e\u0641\u064e\u0631\u0652\u062a\u064f \u0644\u064e\u0643\u064e \u0648\u064e\u0644\u064e\u0627 \u0623\u064f\u0628\u064e\u0627\u0644\u0650\u0649. (\u0631\u0648\u0627\u0647 \u0627\u0644\u062a\u0631\u0645\u0630\u064a \u0639\u0646 \u0623\u0646\u0633 \u0628\u0646 \u0645\u0627\u0644\u0643)\nAllah berfirman, \u201cWahai anak Adam! Selagi kamu meminta dan mengharap kepada-Ku, maka Aku akan mengampuni dosa-dosa yang ada padamu dan tidak Aku pedulikan lagi. Wahai anak Adam! Andaikata dosamu (bertumpuk) dan telah sampai ke awan langit, kemudian kamu meminta ampun kepada-Ku niscaya Aku mengampuninya dan tidak Aku pedulikan lagi. (Riwayat at-Tirmiz\u012b dari Anas bin M\u0101lik)\n\n2. \tPenerima Tobat \nSifat Allah ini ditegaskan pula pada ayat yang lain di dalam Al-Qur\u2019an:\n\u0627\u064e\u0644\u064e\u0645\u0652 \u064a\u064e\u0639\u0652\u0644\u064e\u0645\u064f\u0648\u0652\u0653\u0627 \u0627\u064e\u0646\u0651\u064e \u0627\u0644\u0644\u0651\u0670\u0647\u064e \u0647\u064f\u0648\u064e \u064a\u064e\u0642\u0652\u0628\u064e\u0644\u064f \u0627\u0644\u062a\u0651\u064e\u0648\u0652\u0628\u064e\u0629\u064e \u0639\u064e\u0646\u0652 \u0639\u0650\u0628\u064e\u0627\u062f\u0650\u0647\u0656 \nTidakkah mereka mengetahui, bahwa Allah menerima tobat hamba-hamba-Nya. (at-Taubah/9: 104)\n\nSeseorang yang telah berbuat kejahatan seperti penganiayaan dan lain-lain, kemudian ia bertobat, menyesali perbuatannya itu, mempertebal imannya, berbuat baik, dan tetap di jalan Allah, maka Allah akan menerima tobatnya, sebagaimana firman-Nya:\n\u0641\u064e\u0645\u064e\u0646\u0652 \u062a\u064e\u0627\u0628\u064e \u0645\u0650\u0646\u0652\u06e2 \u0628\u064e\u0639\u0652\u062f\u0650 \u0638\u064f\u0644\u0652\u0645\u0650\u0647\u0656 \u0648\u064e\u0627\u064e\u0635\u0652\u0644\u064e\u062d\u064e \u0641\u064e\u0627\u0650\u0646\u0651\u064e \u0627\u0644\u0644\u0651\u0670\u0647\u064e \u064a\u064e\u062a\u064f\u0648\u0652\u0628\u064f \u0639\u064e\u0644\u064e\u064a\u0652\u0647\u0650 \u06d7\nTetapi barang siapa bertobat setelah melakukan kejahatan itu dan memperbaiki diri, maka sesungguhnya Allah menerima tobatnya. (al-M\u0101\u2019idah/5: 39)\n\nDan firman-Nya:\n\u0648\u064e\u0627\u0650\u0646\u0651\u0650\u064a\u0652 \u0644\u064e\u063a\u064e\u0641\u0651\u064e\u0627\u0631\u064c \u0644\u0650\u0651\u0645\u064e\u0646\u0652 \u062a\u064e\u0627\u0628\u064e \u0648\u064e\u0627\u0670\u0645\u064e\u0646\u064e \u0648\u064e\u0639\u064e\u0645\u0650\u0644\u064e \u0635\u064e\u0627\u0644\u0650\u062d\u064b\u0627 \u062b\u064f\u0645\u0651\u064e \u0627\u0647\u0652\u062a\u064e\u062f\u0670\u0649 \u0668\u0662 (\u0637\u0670\u0647\u0670)\nDan sungguh, Aku Maha Pengampun bagi yang bertobat, beriman dan berbuat kebajikan, kemudian tetap dalam petunjuk. (\u1e6c\u0101h\u0101/20: 82)\n\nDan firman-Nya lagi:\n\u0627\u0650\u0644\u0651\u064e\u0627 \u0627\u0644\u0651\u064e\u0630\u0650\u064a\u0652\u0646\u064e \u062a\u064e\u0627\u0628\u064f\u0648\u0652\u0627 \u0648\u064e\u0627\u064e\u0635\u0652\u0644\u064e\u062d\u064f\u0648\u0652\u0627 \u0648\u064e\u0628\u064e\u064a\u0651\u064e\u0646\u064f\u0648\u0652\u0627 \u0641\u064e\u0627\u064f\u0648\u0644\u0670\u06e4\u0649\u0655\u0650\u0643\u064e \u0627\u064e\u062a\u064f\u0648\u0652\u0628\u064f \u0639\u064e\u0644\u064e\u064a\u0652\u0647\u0650\u0645\u0652 \u06da \u0648\u064e\u0627\u064e\u0646\u064e\u0627 \u0627\u0644\u062a\u0651\u064e\u0648\u0651\u064e\u0627\u0628\u064f \u0627\u0644\u0631\u0651\u064e\u062d\u0650\u064a\u0652\u0645\u064f \u0661\u0666\u0660 (\u0627\u0644\u0628\u0642\u0631\u0629)\nKecuali mereka yang telah bertobat, mengadakan perbaikan dan menjelaskan(nya), mereka itulah yang Aku terima tobatnya dan Akulah Yang Maha Penerima tobat, Maha Penyayang. (al-Baqarah/2: 160)\n\n3. \tHukuman-Nya Sangat Berat. \nMengenai hal ini Allah berfirman:\n\u0627\u064e\u0646\u0651\u064e \u0627\u0644\u0652\u0642\u064f\u0648\u0651\u064e\u0629\u064e \u0644\u0650\u0644\u0651\u0670\u0647\u0650 \u062c\u064e\u0645\u0650\u064a\u0652\u0639\u064b\u0627 \u06d9\u0648\u0651\u064e\u0627\u064e\u0646\u0651\u064e \u0627\u0644\u0644\u0651\u0670\u0647\u064e \u0634\u064e\u062f\u0650\u064a\u0652\u062f\u064f \u0627\u0644\u0652\u0639\u064e\u0630\u064e\u0627\u0628\u0650 \n\u2026Bahwa kekuatan itu semuanya milik Allah dan bahwa Allah sangat berat azab-Nya (niscaya mereka menyesal). (al-Baqarah/2: 165)\n\nOrang-orang yang berbuat jahat, bergelimang dosa seperti mendustakan dan memungkiri ayat-ayat Allah, menempuh jalan yang sesat yaitu selain jalan yang telah ditunjukkan dan digariskan-Nya, mereka itulah yang mendapat siksa Allah yang berat dan keras, sebagaimana firman-Nya:\n\u0643\u064e\u062f\u064e\u0623\u0652\u0628\u0650 \u0627\u0670\u0644\u0650 \u0641\u0650\u0631\u0652\u0639\u064e\u0648\u0652\u0646\u064e\u06d9 \u0648\u064e\u0627\u0644\u0651\u064e\u0630\u0650\u064a\u0652\u0646\u064e \u0645\u0650\u0646\u0652 \u0642\u064e\u0628\u0652\u0644\u0650\u0647\u0650\u0645\u0652\u06d7 \u0643\u064e\u0630\u0651\u064e\u0628\u064f\u0648\u0652\u0627 \u0628\u0650\u0627\u0670\u064a\u0670\u062a\u0650\u0646\u064e\u0627\u06da \u0641\u064e\u0627\u064e\u062e\u064e\u0630\u064e\u0647\u064f\u0645\u064f \u0627\u0644\u0644\u0651\u0670\u0647\u064f \u0628\u0650\u0630\u064f\u0646\u064f\u0648\u0652\u0628\u0650\u0647\u0650\u0645\u0652 \u06d7 \u0648\u064e\u0627\u0644\u0644\u0651\u0670\u0647\u064f \u0634\u064e\u062f\u0650\u064a\u0652\u062f\u064f \u0627\u0644\u0652\u0639\u0650\u0642\u064e\u0627\u0628\u0650 \u0661\u0661 (\u0627\u0670\u0644 \u0639\u0645\u0631\u0627\u0646)\nMereka mendustakan ayat-ayat Kami, maka Allah menyiksa mereka disebabkan dosa-dosanya. Allah sangat berat hukuman-Nya. (\u0100li \u2018Imr\u0101n/3: 11)\n\nPada ayat lain Allah menegaskan:\n\u0627\u0650\u0646\u0651\u064e \u0627\u0644\u0651\u064e\u0630\u0650\u064a\u0652\u0646\u064e \u0643\u064e\u0641\u064e\u0631\u064f\u0648\u0652\u0627 \u0628\u0650\u0627\u0670\u064a\u0670\u062a\u0650 \u0627\u0644\u0644\u0651\u0670\u0647\u0650 \u0644\u064e\u0647\u064f\u0645\u0652 \u0639\u064e\u0630\u064e\u0627\u0628\u064c \u0634\u064e\u062f\u0650\u064a\u0652\u062f\u064c \u06d7\u0648\u064e\u0627\u0644\u0644\u0651\u0670\u0647\u064f \u0639\u064e\u0632\u0650\u064a\u0652\u0632\u064c \u0630\u064f\u0648 \u0627\u0646\u0652\u062a\u0650\u0642\u064e\u0627\u0645\u064d\u06d7 \nSungguh, orang-orang yang ingkar terhadap ayat-ayat Allah akan memperoleh azab yang berat. Allah Mahaperkasa lagi mempunyai hukuman. (\u0100li \u2018Imr\u0101n/3: 4)\n\nDan firman-Nya pula:\n\u0627\u0650\u0646\u0651\u064e \u0627\u0644\u0651\u064e\u0630\u0650\u064a\u0652\u0646\u064e \u064a\u064e\u0636\u0650\u0644\u0651\u064f\u0648\u0652\u0646\u064e \u0639\u064e\u0646\u0652 \u0633\u064e\u0628\u0650\u064a\u0652\u0644\u0650 \u0627\u0644\u0644\u0651\u0670\u0647\u0650 \u0644\u064e\u0647\u064f\u0645\u0652 \u0639\u064e\u0630\u064e\u0627\u0628\u064c \u0634\u064e\u062f\u0650\u064a\u0652\u062f\u064c \u06e2\u0628\u0650\u0645\u064e\u0627 \u0646\u064e\u0633\u064f\u0648\u0652\u0627 \u064a\u064e\u0648\u0652\u0645\u064e \u0627\u0644\u0652\u062d\u0650\u0633\u064e\u0627\u0628\u0650 \u08d6 \nSungguh, orang-orang yang sesat dari jalan Allah akan mendapat azab yang berat, karena mereka melupakan hari perhitungan. (\u1e62\u0101d/38: 26)\n\n4. \tPemberi Karunia. \nSetiap karunia dan nikmat yang kita peroleh adalah dari Allah sebagaimana firman-Nya:\n\u0641\u064e\u0636\u0652\u0644\u064b\u0627 \u0645\u0651\u0650\u0646\u064e \u0627\u0644\u0644\u0651\u0670\u0647\u0650 \u0648\u064e\u0646\u0650\u0639\u0652\u0645\u064e\u0629\u064b \u06d7\u0648\u064e\u0627\u0644\u0644\u0651\u0670\u0647\u064f \u0639\u064e\u0644\u0650\u064a\u0652\u0645\u064c \u062d\u064e\u0643\u0650\u064a\u0652\u0645\u064c \u0668 (\u0627\u0644\u062d\u062c\u0631\u0670\u062a)\nSebagai karunia dan nikmat dari Allah. Dan Allah Maha Mengetahui, Mahabijaksana. (al-\u1e24ujur\u0101t/49: 8)\n\n\tDan firman-Nya:\n\u0648\u064e\u0645\u064e\u0627 \u0628\u0650\u0643\u064f\u0645\u0652 \u0645\u0651\u0650\u0646\u0652 \u0646\u0650\u0651\u0639\u0652\u0645\u064e\u0629\u064d \u0641\u064e\u0645\u0650\u0646\u064e \u0627\u0644\u0644\u0651\u0670\u0647\u0650 \nDan segala nikmat yang ada padamu (datangnya) dari Allah. (an-Na\u1e25l/16: 53)\n\nTidak ada seorang manusia, dengan jalan apa pun, yang dapat memberi angka yang pasti mengenai banyaknya karunia dan nikmat yang telah diberikan Allah padanya, sebagaimana firman-Nya:\n\u0648\u064e\u0627\u0650\u0646\u0652 \u062a\u064e\u0639\u064f\u062f\u0651\u064f\u0648\u0652\u0627 \u0646\u0650\u0639\u0652\u0645\u064e\u0629\u064e \u0627\u0644\u0644\u0651\u0670\u0647\u0650 \u0644\u064e\u0627 \u062a\u064f\u062d\u0652\u0635\u064f\u0648\u0652\u0647\u064e\u0627 \u06d7\nDan jika kamu menghitung nikmat Allah, niscaya kamu tidak akan mampu menghitungnya. (an-Na\u1e25l/16: 18)\n\n5. \tAllah Maha Esa \nSalah satu sifat Allah yang wajib diimani yaitu bahwa Dia Maha Esa, tidak ada Tuhan selain Dia, tiada sekutu bagi-Nya, tiada sesuatu yang serupa dengan Dia, sebagaimana firman Allah:\n\u0644\u064e\u064a\u0652\u0633\u064e \u0643\u064e\u0645\u0650\u062b\u0652\u0644\u0650\u0647\u0656 \u0634\u064e\u064a\u0652\u0621\u064c \u06da\u0648\u064e\u0647\u064f\u0648\u064e \u0627\u0644\u0633\u0651\u064e\u0645\u0650\u064a\u0652\u0639\u064f \u0627\u0644\u0652\u0628\u064e\u0635\u0650\u064a\u0652\u0631\u064f \nTidak ada sesuatu pun yang serupa dengan Dia. Dan Dia Yang Maha Mendengar, Maha Melihat. (asy-Sy\u016br\u0101/42: 11)\n\nSekiranya Ia mempunyai sekutu, ada tuhan lain yang berkuasa sama dengan kekuasaan-Nya, maka dunia ini akan hancur sebagaimana firman Allah:\n\u0644\u064e\u0648\u0652 \u0643\u064e\u0627\u0646\u064e \u0641\u0650\u064a\u0652\u0647\u0650\u0645\u064e\u0627\u0653 \u0627\u0670\u0644\u0650\u0647\u064e\u0629\u064c \u0627\u0650\u0644\u0651\u064e\u0627 \u0627\u0644\u0644\u0651\u0670\u0647\u064f \u0644\u064e\u0641\u064e\u0633\u064e\u062f\u064e\u062a\u064e\u0627\u06da \u0641\u064e\u0633\u064f\u0628\u0652\u062d\u0670\u0646\u064e \u0627\u0644\u0644\u0651\u0670\u0647\u0650 \u0631\u064e\u0628\u0651\u0650 \u0627\u0644\u0652\u0639\u064e\u0631\u0652\u0634\u0650 \u0639\u064e\u0645\u0651\u064e\u0627 \u064a\u064e\u0635\u0650\u0641\u064f\u0648\u0652\u0646\u064e \u0662\u0662 (\u0627\u0644\u0627\u0646\u0628\u064a\u0627\u06e4\u0621)\nSeandainya pada keduanya (di langit dan di bumi) ada tuhan-tuhan selain Allah, tentu keduanya telah binasa. Mahasuci Allah yang memiliki \u2018Arasy, dari apa yang mereka sifatkan. (al-Anbiy\u0101\u2019/21: 22)\nOrang-orang yang mengatakan bahwa Allah itu adalah salah satu dari yang tiga termasuk golongan yang ingkar dan kafir, karena sebenarnya Allah itu Esa, tiada Tuhan selain Dia, firman Allah:\n\u0644\u064e\u0642\u064e\u062f\u0652 \u0643\u064e\u0641\u064e\u0631\u064e \u0627\u0644\u0651\u064e\u0630\u0650\u064a\u0652\u0646\u064e \u0642\u064e\u0627\u0644\u064f\u0648\u0652\u0653\u0627 \u0627\u0650\u0646\u0651\u064e \u0627\u0644\u0644\u0651\u0670\u0647\u064e \u062b\u064e\u0627\u0644\u0650\u062b\u064f \u062b\u064e\u0644\u0670\u062b\u064e\u0629\u064d \u06d8 \u0648\u064e\u0645\u064e\u0627 \u0645\u0650\u0646\u0652 \u0627\u0650\u0644\u0670\u0647\u064d \u0627\u0650\u0644\u0651\u064e\u0627\u0653 \u0627\u0650\u0644\u0670\u0647\u064c \u0648\u0651\u064e\u0627\u062d\u0650\u062f\u064c \u06d7\u0648\u064e\u0627\u0650\u0646\u0652 \u0644\u0651\u064e\u0645\u0652 \u064a\u064e\u0646\u0652\u062a\u064e\u0647\u064f\u0648\u0652\u0627 \u0639\u064e\u0645\u0651\u064e\u0627 \u064a\u064e\u0642\u064f\u0648\u0652\u0644\u064f\u0648\u0652\u0646\u064e \u0644\u064e\u064a\u064e\u0645\u064e\u0633\u0651\u064e\u0646\u0651\u064e \u0627\u0644\u0651\u064e\u0630\u0650\u064a\u0652\u0646\u064e \u0643\u064e\u0641\u064e\u0631\u064f\u0648\u0652\u0627 \u0645\u0650\u0646\u0652\u0647\u064f\u0645\u0652 \u0639\u064e\u0630\u064e\u0627\u0628\u064c \u0627\u064e\u0644\u0650\u064a\u0652\u0645\u064c \u0667\u0663 (\u0627\u0644\u0645\u0627\u06e4\u0626\u062f\u0629)\nSungguh, telah kafir orang-orang yang mengatakan, bahwa Allah adalah salah satu dari yang tiga, padahal tidak ada tuhan (yang berhak disembah) selain Tuhan Yang Esa. Jika mereka tidak berhenti dari apa yang mereka katakan, pasti orang-orang yang kafir di antara mereka akan ditimpa azab yang pedih. (al-M\u0101\u2019idah/5: 73)\n\nAyat ini diakhiri dengan suatu ketegasan bahwa semua makhluk akan kembali kepada Allah dan di sanalah nanti disempurnakan balasan bagi mereka menurut perbuatan mereka masing-masing sebagaimana firman Allah:\n\u0648\u064e\u0627\u062a\u0651\u064e\u0642\u064f\u0648\u0652\u0627 \u064a\u064e\u0648\u0652\u0645\u064b\u0627 \u062a\u064f\u0631\u0652\u062c\u064e\u0639\u064f\u0648\u0652\u0646\u064e \u0641\u0650\u064a\u0652\u0647\u0650 \u0627\u0650\u0644\u064e\u0649 \u0627\u0644\u0644\u0651\u0670\u0647\u0650 \u06d7\u062b\u064f\u0645\u0651\u064e \u062a\u064f\u0648\u064e\u0641\u0651\u0670\u0649 \u0643\u064f\u0644\u0651\u064f \u0646\u064e\u0641\u0652\u0633\u064d \u0645\u0651\u064e\u0627 \u0643\u064e\u0633\u064e\u0628\u064e\u062a\u0652 \u0648\u064e\u0647\u064f\u0645\u0652 \u0644\u064e\u0627 \u064a\u064f\u0638\u0652\u0644\u064e\u0645\u064f\u0648\u0652\u0646\u064e \u08d6 \u0662\u0668\u0661 (\u0627\u0644\u0628\u0642\u0631\u0629)\nDan takutlah pada hari (ketika) kamu semua dikembalikan kepada Allah. Kemudian setiap orang diberi balasan yang sempurna sesuai dengan apa yang telah dilakukannya, dan mereka tidak dizalimi (dirugikan). (al-Baqarah/2: 281)",
        "intro_surah": "Surah G\u0101fir terdiri atas 85 ayat, termasuk kelompok surah Makkiyyah, diturunkan sesudah Surah az-Zumar. Dinamai \u201cG\u0101fir\u201d (yang mengampuni) karena ada hubungannya dengan kalimat \u201cG\u0101fir\u201d yang terdapat pada ayat 3 surah ini. Ayat ini mengingatkan bahwa \u201cMaha Pengampun\u201d dan \u201cMaha Penerima Taubat\u201d adalah termasuk dari sifat-sifat Allah. Oleh karena itu, hamba-hamba Allah tidak perlu terlalu risau terhadap perbuatan-perbuatan dosa yang telah terlanjur mereka lakukan. Semuanya itu akan diampuni Allah asal benar-benar memohon ampun dan bertobat kepada-Nya dan berjanji tidak akan mengerjakan perbuatan-perbuatan dosa itu lagi.\nDinamakan pula \u201cal-Mu'min\u201d (Orang yang beriman), karena terdapat perkataan \u201cmu'min\u201d dalam surah ini, yaitu pada ayat 28. Dalam ayat 28 ini diterangkan bahwa salah seorang dari kaum Fir\u2018aun telah beriman kepada Nabi Musa dengan menyembunyikan imannya kepada kaumnya, setelah mendengar keterangan dan melihat mukjizat yang ditujukan oleh Nabi Musa. Hati kecil orang ini mencela Fir\u2018aun dan kaumnya yang tidak mau beriman kepada Nabi Musa, sekalipun telah dikemukakan keterangan dan mukjizat yang diminta mereka.\nSurah ini juga dinamai \u201ca\u1e6d-\u1e6caul\u201d (Yang mempunyai Karunia) karena perkataan tersebut terdapat pada ayat 3.\n\nPokok-pokok Isinya:\n1. \tKeimanan:\nSifat-sifat malaikat yang memiliki \u2018Arasy dan yang berada di sekitarnya; dalil-dalil yang menunjukkan kekuasaan Allah, sifat-sifat Allah yang menunjukkan kebesaran dan keagungan-Nya, ilmu Allah meliputi segala sesuatu; bukti-bukti yang menunjukkan adanya hari kebangkitan.\n2. \tKisah:\n\tKisah Musa dengan Fir\u2018aun.\n3. \tLain-lain:\nAl-Qur\u2019an al-Karim dan sikap orang-orang mukmin dan orang-orang kafir terhadapnya; permohonan orang-orang kafir supaya dikeluarkan dari neraka; peringatan kepada orang-orang musyrik tentang kedahsyatan hari Kiamat, anjuran bersabar dalam menghadapi kaum musyrikin; nikmat-nikmat Allah yang terdapat di daratan dan lautan; janji Rasulullah saw bahwa orang-orang mukmin akan menang terhadap musuhnya.\nHUBUNGAN SURAH AZ-ZUMAR DENGAN\nSURAH G\u0100FIR\n\n1. \tSurah az-Zumar menerangkan bagaimana nasib orang-orang mukmin yang bertakwa kepada Allah dan mengikuti ajaran yang dibawa rasul-Nya di akhirat nanti. Juga dijelaskan nasib orang-orang kafir di akhirat, di mana ketika mereka di dunia selalu mengingkari nabi yang diutus kepada mereka. Surah G\u0101fir menerangkan bahwa Allah mengampuni segala dosa hamba-Nya yang mau kembali mengikuti jalan yang benar. Hal ini merupakan ajakan Allah kepada orang-orang kafir agar mereka bertobat dan beriman.\n2. \tKeduanya mengutarakan hal-hal yang berhubungan dengan keadaan hari Kiamat, keadaan di Padang Mahsyar, surga, dan neraka.\n ",
        "outro_surah": null,
        "munasabah_prev_surah": "HUBUNGAN SURAH AZ-ZUMAR DENGAN\nSURAH G\u0100FIR\n\n1. \tSurah az-Zumar menerangkan bagaimana nasib orang-orang mukmin yang bertakwa kepada Allah dan mengikuti ajaran yang dibawa rasul-Nya di akhirat nanti. Juga dijelaskan nasib orang-orang kafir di akhirat, di mana ketika mereka di dunia selalu mengingkari nabi yang diutus kepada mereka. Surah G\u0101fir menerangkan bahwa Allah mengampuni segala dosa hamba-Nya yang mau kembali mengikuti jalan yang benar. Hal ini merupakan ajakan Allah kepada orang-orang kafir agar mereka bertobat dan beriman.\n2. \tKeduanya mengutarakan hal-hal yang berhubungan dengan keadaan hari Kiamat, keadaan di Padang Mahsyar, surga, dan neraka.",
        "munasabah_prev_theme": "Pada akhir Surah az-Zumar dijelaskan bagaimana orang-orang yang bertakwa dan para malaikat di akhirat memuji Allah dan mensucikan-Nya dari berbagai sifat yang tidak layak. Pada awal Surah G\u0101fir dijelaskan bahwa Al-Qur\u2019an adalah Kalamullah, bukan ciptaan Muhammad. Juga dijelaskan bahwa Allah Yang Maha Pengampun memiliki karunia dan Ia merupakan tempat kembali semua makhluk.",
        "theme_group": "ALLAH MAHA PENGAMPUN DAN PENERIMA TOBAT",
        "kosakata": "1. \tG\u0101fir \u063a\u064e\u0627\u0641\u0650\u0631 (G\u0101fir/40: 3)\nKata g\u0101fir adalah isim f\u0101\u2018il (active participle/kata pelaku) dari kata gafara-yagfiru-gafran. Kata gafara memiliki akar makna menutupi. Kalimat gafara al-mat\u0101\u2018 berarti memasukkan barang ke dalam wadah. Kalimat gafara Allahu \u017cun\u016bbahu berarti Allah menutupi (mengampuni) dosa-dosanya. Kalimat gafara al-amr berarti memperbaiki urusan. Kata ini diambil dari Asm\u0101'ul \u1e24usn\u0101, yaitu G\u0101fir, al-Gaf\u016br, atau al-Gaff\u0101r. Makna Yang Mengampuni inilah yang dimaksud dari lafal G\u0101fir pada ayat ini.\n2. \t\u017b\u012b a\u1e6d-\u1e6caul \u0630\u0650\u0649 \u0627\u0644\u0637\u0651\u064e\u0648\u0652\u0644 (G\u0101fir/40: 3)\nKata \u017c\u012b dalam kaidah bahasa Arab merupakan salah satu dari al-asm\u0101\u2019 al-khamsah (kata benda lima), yaitu abu (ayah), akh\u016b (saudara), \u1e25am\u016b (paman), f\u016b (mulut), dan \u017c\u016b.. (empunya..). Pengelompokan ini didasarkan pada hukum i\u2018r\u0101b yang khusus (bukan di sini tempatnya untuk menjelaskan). Kata \u1e6daul adalah kata jadian (ma\u1e63dar) dari \u1e6d\u0101la-ya\u1e6d\u016blu-\u1e6daulan yang memiliki akar makna panjang. Rajulun \u1e6daw\u012blun berarti pria yang tinggi posturnya. Dari kata ini diambil kata \u1e6daul, \u1e6d\u0101\u2019il, dan \u1e6d\u0101\u2019ilah yang memiliki arti karunia, qudrah, kekayaan, kelapangan, dan ketinggian. Makna yang terakhir inilah yang dimaksud dari kata \u1e6daul di sini. Demikianlah makna yang ditulis oleh a\u1e6d-\u1e6cabar\u012b, yaitu Allah adalah Pemiliki fadilah dan nikmat yang terbentang bagi hamba-hamba-Nya yang dikehendaki-Nya. Makna ini sejalan dengan riwayat dari Ibnu \u2018Abb\u0101s yang mengatakan, Yang memiliki kekayaan dan keluasan rezeki.\n",
        "sabab_nuzul": null,
        "conclusion": "1. \tKitab Suci Al-Qur\u2019an benar-benar diturunkan dari Allah, Tuhan Yang Mahaperkasa, tiada sesuatu yang dapat mengalahkan-Nya, Maha Mengetahui, tiada sesuatu pun yang tersembunyi daripada-Nya.\n2. \tAllah mengampuni dosa, menerima tobat bagi orang yang meminta ampunan dan bertobat dengan tobat yang benar, berat dan keras hukuman-Nya kepada orang yang selalu berbuat jahat dan bergelimang dosa, memberikan karunia kepada hamba yang dikehendaki-Nya, dan semua makhluk akan kembali kepada-Nya di akhirat kelak."
    }
}