{
    "id": 4172,
    "surah_id": 40,
    "ayah": 39,
    "page": 471,
    "quarter_hizb": 47.75,
    "juz": 24,
    "manzil": 6,
    "arabic": "\u064a\u0670\u0642\u064e\u0648\u0652\u0645\u0650 \u0627\u0650\u0646\u0651\u064e\u0645\u064e\u0627 \u0647\u0670\u0630\u0650\u0647\u0650 \u0627\u0644\u0652\u062d\u064e\u064a\u0670\u0648\u0629\u064f \u0627\u0644\u062f\u0651\u064f\u0646\u0652\u064a\u064e\u0627 \u0645\u064e\u062a\u064e\u0627\u0639\u064c  \u06d6\u0648\u0651\u064e\u0627\u0650\u0646\u0651\u064e \u0627\u0644\u0652\u0627\u0670\u062e\u0650\u0631\u064e\u0629\u064e \u0647\u0650\u064a\u064e \u062f\u064e\u0627\u0631\u064f \u0627\u0644\u0652\u0642\u064e\u0631\u064e\u0627\u0631\u0650",
    "latin": "Y\u0101 qaumi innam\u0101 h\u0101\u017cihil-\u1e25ay\u0101tud-dun-y\u0101 mat\u0101\u2018(un), wa innal-\u0101khirata hiya d\u0101rul-qar\u0101r(i).",
    "translation": "Wahai kaumku, sesungguhnya kehidupan dunia ini hanyalah kesenangan (sementara) dan sesungguhnya akhirat itulah negeri yang kekal.",
    "no_footnote": null,
    "footnotes": null,
    "surah": {
        "id": 40,
        "arabic": " \u063a\u0627\u0641\u0631",
        "latin": "G\u0101fir ",
        "transliteration": "Gafir",
        "translation": "Maha Pengampun",
        "num_ayah": 85,
        "page": 467,
        "location": "Makkiyah"
    },
    "tafsir": {
        "wajiz": "Wahai kaumku! Sesungguhnya kehidupan dunia yang fana ini hanyalah kesenangan sementara yang mudah didapat dan mudah pula lenyap, dan sesungguhnya akhirat itulah negeri yang tidak akan pernah lenyap dan kekal selama-lamanya.\u201d",
        "tahlili": "Pada ayat ini diterangkan bahwa orang yang beriman kepada Musa berkata kepada kaumnya, \u201cWahai kaumku, kehidupan dunia ini adalah kehidupan yang fana, di mana kesenangan serta kebahagiaan yang diperoleh di dalamnya adalah kesenangan dan kebahagiaan yang tidak sempurna serta tidak kekal. Adapun kehidupan akhirat adalah kehidupan yang kekal, kesenangan dan kebahagiaan yang diperoleh adalah kesenangan dan kebahagiaan yang sempurna. Oleh karena itu, janganlah sekali-kali kamu mengingkari Allah dalam kehidupan dunia ini agar kamu terhindar dari siksa-Nya di akhirat nanti.\u201d",
        "intro_surah": "Surah G\u0101fir terdiri atas 85 ayat, termasuk kelompok surah Makkiyyah, diturunkan sesudah Surah az-Zumar. Dinamai \u201cG\u0101fir\u201d (yang mengampuni) karena ada hubungannya dengan kalimat \u201cG\u0101fir\u201d yang terdapat pada ayat 3 surah ini. Ayat ini mengingatkan bahwa \u201cMaha Pengampun\u201d dan \u201cMaha Penerima Taubat\u201d adalah termasuk dari sifat-sifat Allah. Oleh karena itu, hamba-hamba Allah tidak perlu terlalu risau terhadap perbuatan-perbuatan dosa yang telah terlanjur mereka lakukan. Semuanya itu akan diampuni Allah asal benar-benar memohon ampun dan bertobat kepada-Nya dan berjanji tidak akan mengerjakan perbuatan-perbuatan dosa itu lagi.\nDinamakan pula \u201cal-Mu'min\u201d (Orang yang beriman), karena terdapat perkataan \u201cmu'min\u201d dalam surah ini, yaitu pada ayat 28. Dalam ayat 28 ini diterangkan bahwa salah seorang dari kaum Fir\u2018aun telah beriman kepada Nabi Musa dengan menyembunyikan imannya kepada kaumnya, setelah mendengar keterangan dan melihat mukjizat yang ditujukan oleh Nabi Musa. Hati kecil orang ini mencela Fir\u2018aun dan kaumnya yang tidak mau beriman kepada Nabi Musa, sekalipun telah dikemukakan keterangan dan mukjizat yang diminta mereka.\nSurah ini juga dinamai \u201ca\u1e6d-\u1e6caul\u201d (Yang mempunyai Karunia) karena perkataan tersebut terdapat pada ayat 3.\n\nPokok-pokok Isinya:\n1. \tKeimanan:\nSifat-sifat malaikat yang memiliki \u2018Arasy dan yang berada di sekitarnya; dalil-dalil yang menunjukkan kekuasaan Allah, sifat-sifat Allah yang menunjukkan kebesaran dan keagungan-Nya, ilmu Allah meliputi segala sesuatu; bukti-bukti yang menunjukkan adanya hari kebangkitan.\n2. \tKisah:\n\tKisah Musa dengan Fir\u2018aun.\n3. \tLain-lain:\nAl-Qur\u2019an al-Karim dan sikap orang-orang mukmin dan orang-orang kafir terhadapnya; permohonan orang-orang kafir supaya dikeluarkan dari neraka; peringatan kepada orang-orang musyrik tentang kedahsyatan hari Kiamat, anjuran bersabar dalam menghadapi kaum musyrikin; nikmat-nikmat Allah yang terdapat di daratan dan lautan; janji Rasulullah saw bahwa orang-orang mukmin akan menang terhadap musuhnya.\nHUBUNGAN SURAH AZ-ZUMAR DENGAN\nSURAH G\u0100FIR\n\n1. \tSurah az-Zumar menerangkan bagaimana nasib orang-orang mukmin yang bertakwa kepada Allah dan mengikuti ajaran yang dibawa rasul-Nya di akhirat nanti. Juga dijelaskan nasib orang-orang kafir di akhirat, di mana ketika mereka di dunia selalu mengingkari nabi yang diutus kepada mereka. Surah G\u0101fir menerangkan bahwa Allah mengampuni segala dosa hamba-Nya yang mau kembali mengikuti jalan yang benar. Hal ini merupakan ajakan Allah kepada orang-orang kafir agar mereka bertobat dan beriman.\n2. \tKeduanya mengutarakan hal-hal yang berhubungan dengan keadaan hari Kiamat, keadaan di Padang Mahsyar, surga, dan neraka.\n ",
        "outro_surah": null,
        "munasabah_prev_surah": "HUBUNGAN SURAH AZ-ZUMAR DENGAN\nSURAH G\u0100FIR\n\n1. \tSurah az-Zumar menerangkan bagaimana nasib orang-orang mukmin yang bertakwa kepada Allah dan mengikuti ajaran yang dibawa rasul-Nya di akhirat nanti. Juga dijelaskan nasib orang-orang kafir di akhirat, di mana ketika mereka di dunia selalu mengingkari nabi yang diutus kepada mereka. Surah G\u0101fir menerangkan bahwa Allah mengampuni segala dosa hamba-Nya yang mau kembali mengikuti jalan yang benar. Hal ini merupakan ajakan Allah kepada orang-orang kafir agar mereka bertobat dan beriman.\n2. \tKeduanya mengutarakan hal-hal yang berhubungan dengan keadaan hari Kiamat, keadaan di Padang Mahsyar, surga, dan neraka.",
        "munasabah_prev_theme": "Pada ayat-ayat yang lalu diterangkan bahwa Fir\u2018aun mengingkari adanya Tuhan, bahkan melecehkan-Nya dengan meminta menterinya agar memba-ngun menara guna melihat Tuhan. Pada ayat-ayat berikut ini diterangkan bahwa sekalipun kaum Fir\u2018aun itu tetap menantang Musa dan menganiaya para pengikutnya, namun orang yang beriman tetap melaksanakan seruannya dan terus menasihati kaumnya. \n",
        "theme_group": "AJAKAN BERIMAN DAN BERAMAL SALEH",
        "kosakata": "1. \tSab\u012bl ar-Rasy\u0101d \u0633\u064e\u0628\u0650\u064a\u0652\u0644\u064e \u0627\u0644\u0631\u0651\u064e\u0634\u064e\u0627\u062f\u0650 (G\u0101fir/40: 38)\nSab\u012bl artinya jalan (biasa). Berbeda dengan \u1e63ir\u0101\u1e6d yaitu jalan yang lebar dan bebas hambatan. Bisa diibaratkan dengan jalan utama atau jalan tol, itu adalah \u1e63ir\u0101\u1e6d, sedangkan jalan-jalan lebih kecil di samping kiri dan kanannya yang bermuara kepadanya adalah sab\u012bl. Dalam Al-Qur\u2019an dilukiskan bahwa sab\u012bl itu banyak. Ada sab\u012bl All\u0101h \u2018jalan Allah\u2019, sab\u012bl G\u0101fir\u012bn \u201cjalan orang Mukmin\u2019, sab\u012bl al-mujrim\u012bn \u2018jalan orang berdosa, sab\u012bl a\u1e6d-\u1e6c\u0101g\u016bt \u2018jalan setan\u2019, dan sebagainya. Bila Anda menempuh jalan, tempuhlah sab\u012bl All\u0101h atau sab\u012bl G\u0101fir\u012bn karena kedua jalan itu bermuara pada \u1e63ir\u0101\u1e6d mustaq\u012bm \u2018jalan lurus\u2019 yang lebar dan bebas hambatan yang pasti menyampaikan ke surga.\nAr-Rasy\u0101d adalah ma\u1e63dar dari rasyada-yarsyudu-rusydan-rasy\u0101dan artinya \u201cbenar\u201d, \u201clurus\u201d. Dengan demikian, sab\u012bl ar-rasy\u0101d maksudnya adalah jalan untuk mencapai kebenaran, petunjuk, kebaikan, dan sebagainya. Itu adalah ucapan seorang keluarga Fir\u2018aun yang beriman mengajak rakyatnya agar beriman kepada apa yang didakwakan Nabi Musa.\n2. \tAn-Naj\u0101h \u0627\u0644\u0646\u0651\u064e\u062c\u0670\u0648\u0629\u0650\t (G\u0101fir/40: 41)\nKata an-Naj\u0101h berasal dari kata naja yanj\u016b yang arti asalnya adalah terpisah dari sesuatu atau terselamatkan. Naj\u0101 ful\u0101n berarti si fulan telah selamat dari sesuatu yang membahayakannya. An-Najwah atau an-naj\u0101h adalah tempat yang sangat tinggi yang karena ketinggiannya terpisah dari daerah sekitarnya. Dinamakan demikian karena dataran yang tinggi bisa menyelamatkan dari bahaya banjir. \nDalam ayat ini, Allah menjelaskan tentang sikap kaum yang beriman kepada Allah dari umat Nabi Musa walaupun terjadi intimidasi dan tekanan dari kaum Fir\u2018aun. Mereka tetap mengajak dan menyeru kaum Fir\u2018aun dan pengikutnya untuk masuk ke dalam ajaran tauhid. Mereka merasa heran karena sebenarnya apa yang mereka serukan merupakan jalan yang lurus untuk menuju keselamatan dunia dan akhirat. Keselamatan yang bisa menghindarkan seseorang dari siksaan api neraka dan murka Allah dan menghantarkan seseorang menuju jalan keabadian surgawi. Dalam konteks ini, sang mukmin merasa heran karena begitu jelas dan demikian bermanfaat ajakannya, namun mereka menolaknya bahkan mengajak kepada ajakan yang bertolak belakang. Seruan kaum Fir\u2018aun untuk menyembah berhala adalah jalan kesesatan dan kesengsaraan yang akan membawanya ke dalam neraka.    \n",
        "sabab_nuzul": null,
        "conclusion": null
    }
}