{
    "id": 4155,
    "surah_id": 40,
    "ayah": 22,
    "page": 469,
    "quarter_hizb": 47.75,
    "juz": 24,
    "manzil": 6,
    "arabic": "\u0630\u0670\u0644\u0650\u0643\u064e \u0628\u0650\u0627\u064e\u0646\u0651\u064e\u0647\u064f\u0645\u0652 \u0643\u064e\u0627\u0646\u064e\u062a\u0652 \u062a\u0651\u064e\u0623\u0652\u062a\u0650\u064a\u0652\u0647\u0650\u0645\u0652 \u0631\u064f\u0633\u064f\u0644\u064f\u0647\u064f\u0645\u0652 \u0628\u0650\u0627\u0644\u0652\u0628\u064e\u064a\u0651\u0650\u0646\u0670\u062a\u0650 \u0641\u064e\u0643\u064e\u0641\u064e\u0631\u064f\u0648\u0652\u0627 \u0641\u064e\u0627\u064e\u062e\u064e\u0630\u064e\u0647\u064f\u0645\u064f \u0627\u0644\u0644\u0651\u0670\u0647\u064f \u06d7\u0627\u0650\u0646\u0651\u064e\u0647\u0657 \u0642\u064e\u0648\u0650\u064a\u0651\u064c \u0634\u064e\u062f\u0650\u064a\u0652\u062f\u064f \u0627\u0644\u0652\u0639\u0650\u0642\u064e\u0627\u0628\u0650",
    "latin": "\u017b\u0101lika bi'annahum k\u0101nat ta't\u012bhim rusuluhum bil-bayyin\u0101ti fakafar\u016b fa'akha\u017cahumull\u0101h(u), innah\u016b qawiyyun syad\u012bdul-\u2018iq\u0101b(i).",
    "translation": "Yang demikian itu adalah karena sesungguhnya rasul-rasul telah datang kepada mereka dengan membawa bukti-bukti yang nyata666) lalu mereka ingkar. Maka, Allah mengazab mereka. Sesungguhnya Dia Maha Kuat lagi Maha Keras hukuman-Nya.",
    "no_footnote": "666",
    "footnotes": "666) Maksud bukti-bukti yang nyata adalah mukjizat, hukum-hukum, dan ajaran yang dibawanya.",
    "surah": {
        "id": 40,
        "arabic": " \u063a\u0627\u0641\u0631",
        "latin": "G\u0101fir ",
        "transliteration": "Gafir",
        "translation": "Maha Pengampun",
        "num_ayah": 85,
        "page": 467,
        "location": "Makkiyah"
    },
    "tafsir": {
        "wajiz": "Yang demikian itu, yakni azab yang mereka terima adalah karena sesungguhnya rasul-rasul telah datang kepada mereka dengan membawa bukti-bukti yang nyata, berupa mukjizat dan hukum-hukum dari Allah, lalu mereka ingkar kepada para rasul itu; maka Allah mengazab mereka. Sungguh, Dia Mahakuat, lagi Mahakeras hukuman-Nya.",
        "tahlili": "Sebab utama Allah menjatuhkan azab itu adalah kekafiran mereka. Mereka tidak mau menerima kebenaran yang dibawa para rasul, bahwa tidak ada Tuhan selain Allah, manusia perlu berbuat baik dalam hidup di dunia ini, dan adanya hari kemudian tempat manusia menerima balasan perbuatannya. \nApa yang disampaikan para nabi itu adalah kebenaran sejati dan tidak dapat dibantah, tetapi mereka menentangnya. Bila Allah menghukum, maka hukuman-Nya amat keras. Karena pembangkangan itu, Allah menghancurkan mereka. Itulah akibat pembangkangan terhadap kebenaran agama. Peristiwa-peristiwa itu hendaknya menjadi pelajaran bagi kaum kafir Mekah yang membangkang kepada ajakan Nabi Muhammad. Mereka hendaknya segera sadar dan berhenti dari kedurhakaan mereka karena mereka pun bisa mengalami nasib yang sama seperti umat-umat terdahulu itu.",
        "intro_surah": "Surah G\u0101fir terdiri atas 85 ayat, termasuk kelompok surah Makkiyyah, diturunkan sesudah Surah az-Zumar. Dinamai \u201cG\u0101fir\u201d (yang mengampuni) karena ada hubungannya dengan kalimat \u201cG\u0101fir\u201d yang terdapat pada ayat 3 surah ini. Ayat ini mengingatkan bahwa \u201cMaha Pengampun\u201d dan \u201cMaha Penerima Taubat\u201d adalah termasuk dari sifat-sifat Allah. Oleh karena itu, hamba-hamba Allah tidak perlu terlalu risau terhadap perbuatan-perbuatan dosa yang telah terlanjur mereka lakukan. Semuanya itu akan diampuni Allah asal benar-benar memohon ampun dan bertobat kepada-Nya dan berjanji tidak akan mengerjakan perbuatan-perbuatan dosa itu lagi.\nDinamakan pula \u201cal-Mu'min\u201d (Orang yang beriman), karena terdapat perkataan \u201cmu'min\u201d dalam surah ini, yaitu pada ayat 28. Dalam ayat 28 ini diterangkan bahwa salah seorang dari kaum Fir\u2018aun telah beriman kepada Nabi Musa dengan menyembunyikan imannya kepada kaumnya, setelah mendengar keterangan dan melihat mukjizat yang ditujukan oleh Nabi Musa. Hati kecil orang ini mencela Fir\u2018aun dan kaumnya yang tidak mau beriman kepada Nabi Musa, sekalipun telah dikemukakan keterangan dan mukjizat yang diminta mereka.\nSurah ini juga dinamai \u201ca\u1e6d-\u1e6caul\u201d (Yang mempunyai Karunia) karena perkataan tersebut terdapat pada ayat 3.\n\nPokok-pokok Isinya:\n1. \tKeimanan:\nSifat-sifat malaikat yang memiliki \u2018Arasy dan yang berada di sekitarnya; dalil-dalil yang menunjukkan kekuasaan Allah, sifat-sifat Allah yang menunjukkan kebesaran dan keagungan-Nya, ilmu Allah meliputi segala sesuatu; bukti-bukti yang menunjukkan adanya hari kebangkitan.\n2. \tKisah:\n\tKisah Musa dengan Fir\u2018aun.\n3. \tLain-lain:\nAl-Qur\u2019an al-Karim dan sikap orang-orang mukmin dan orang-orang kafir terhadapnya; permohonan orang-orang kafir supaya dikeluarkan dari neraka; peringatan kepada orang-orang musyrik tentang kedahsyatan hari Kiamat, anjuran bersabar dalam menghadapi kaum musyrikin; nikmat-nikmat Allah yang terdapat di daratan dan lautan; janji Rasulullah saw bahwa orang-orang mukmin akan menang terhadap musuhnya.\nHUBUNGAN SURAH AZ-ZUMAR DENGAN\nSURAH G\u0100FIR\n\n1. \tSurah az-Zumar menerangkan bagaimana nasib orang-orang mukmin yang bertakwa kepada Allah dan mengikuti ajaran yang dibawa rasul-Nya di akhirat nanti. Juga dijelaskan nasib orang-orang kafir di akhirat, di mana ketika mereka di dunia selalu mengingkari nabi yang diutus kepada mereka. Surah G\u0101fir menerangkan bahwa Allah mengampuni segala dosa hamba-Nya yang mau kembali mengikuti jalan yang benar. Hal ini merupakan ajakan Allah kepada orang-orang kafir agar mereka bertobat dan beriman.\n2. \tKeduanya mengutarakan hal-hal yang berhubungan dengan keadaan hari Kiamat, keadaan di Padang Mahsyar, surga, dan neraka.\n ",
        "outro_surah": null,
        "munasabah_prev_surah": "HUBUNGAN SURAH AZ-ZUMAR DENGAN\nSURAH G\u0100FIR\n\n1. \tSurah az-Zumar menerangkan bagaimana nasib orang-orang mukmin yang bertakwa kepada Allah dan mengikuti ajaran yang dibawa rasul-Nya di akhirat nanti. Juga dijelaskan nasib orang-orang kafir di akhirat, di mana ketika mereka di dunia selalu mengingkari nabi yang diutus kepada mereka. Surah G\u0101fir menerangkan bahwa Allah mengampuni segala dosa hamba-Nya yang mau kembali mengikuti jalan yang benar. Hal ini merupakan ajakan Allah kepada orang-orang kafir agar mereka bertobat dan beriman.\n2. \tKeduanya mengutarakan hal-hal yang berhubungan dengan keadaan hari Kiamat, keadaan di Padang Mahsyar, surga, dan neraka.",
        "munasabah_prev_theme": "Pada ayat-ayat yang lalu, Allah menyampaikan peringatan-Nya kepada kaum kafir bahwa mereka nanti akan disiksa pada hari kemudian. Pada ayat-ayat berikut ini, Allah memperingatkan mereka tentang adanya siksaan di dunia sebagaimana yang telah ditimpakan-Nya kepada umat-umat terdahulu. Oleh karena itu, mereka hendaknya datang untuk menyaksikan sendiri puing-puing peninggalan kaum kafir yang telah dihancurkan Allah, di mana mereka lebih perkasa, namun Allah tidak terhalang dalam memusnahkan karena keingkaran dan dosa-dosa mereka.",
        "theme_group": "PERINGATAN ALLAH KEPADA ORANG KAFIR",
        "kosakata": "Kosakata: Min W\u0101q \u0645\u0650\u0646\u0652 \u0648\u064e\u0627\u0642\u064d (G\u0101fir/40: 21)\nW\u0101q merupakan bentuk isim fa\u2019il dari waq\u0101-yaq\u012b-wiq\u0101yatan. Akar katanya (waw-qaf-ya\u2019) artinya menghalau atau menolak sesuatu dari sesuatu (keburukan) dengan sesuatu yang lain. Seperti menghalau kambing dari serigala dengan teriakan, atau lainnya, dalam rangka menjaganya. Dari sini muncul arti menjaga atau menolong. Ungkapan taqwa juga muncul dari kata ini. Orang yang bertakwa adalah orang yang menjaga dirinya dengan melaksanakan seluruh perintah Allah dan larangan-Nya agar tidak masuk neraka. Dalam ayat ini yang dimaksud dengan w\u0101q adalah segala sesuatu yang menjaga.\n",
        "sabab_nuzul": null,
        "conclusion": "1.\tUmat-umat terdahulu yang lebih kuat dan lebih maju daripada kaum kafir Mekah, dihancurkan Allah karena pembangkangan mereka terhadap seruan nabi mereka.\n2.\tPeristiwa itu hendaknya menjadi pelajaran bagi kaum kafir Mekah, dan siapa saja sesudahnya, agar mereka beriman kepada Allah. Membangkang kepada ajaran-ajaran Allah yang disampaikan para rasul-Nya hanya akan berakibat kesengsaraan, di dunia bila Allah menghendaki, atau nanti di akhirat."
    }
}