{
    "id": 4169,
    "surah_id": 40,
    "ayah": 36,
    "page": 471,
    "quarter_hizb": 47.75,
    "juz": 24,
    "manzil": 6,
    "arabic": "\u0648\u064e\u0642\u064e\u0627\u0644\u064e \u0641\u0650\u0631\u0652\u0639\u064e\u0648\u0652\u0646\u064f \u064a\u0670\u0647\u064e\u0627\u0645\u0670\u0646\u064f \u0627\u0628\u0652\u0646\u0650 \u0644\u0650\u064a\u0652 \u0635\u064e\u0631\u0652\u062d\u064b\u0627 \u0644\u0651\u064e\u0639\u064e\u0644\u0651\u0650\u064a\u0652\u0653 \u0627\u064e\u0628\u0652\u0644\u064f\u063a\u064f \u0627\u0644\u0652\u0627\u064e\u0633\u0652\u0628\u064e\u0627\u0628\u064e\u06d9",
    "latin": "Wa q\u0101la fir\u2018aunu y\u0101 h\u0101m\u0101nubni l\u012b \u1e63ar\u1e25al la\u2018all\u012b ablugul-asb\u0101b(a).",
    "translation": "Fir\u2018aun berkata, \u201cHai Haman, buatkanlah untukku sebuah bangunan yang tinggi agar aku sampai ke pintu-pintu,",
    "no_footnote": null,
    "footnotes": null,
    "surah": {
        "id": 40,
        "arabic": " \u063a\u0627\u0641\u0631",
        "latin": "G\u0101fir ",
        "transliteration": "Gafir",
        "translation": "Maha Pengampun",
        "num_ayah": 85,
        "page": 467,
        "location": "Makkiyah"
    },
    "tafsir": {
        "wajiz": "Dan Fir\u2019aun berkata kepada salah seorang menterinya bernama Haman, \u201cWahai Haman! Buatkanlah untukku sebuah bangunan yang tinggi yang dapat terlihat oleh semua orang dan agar aku dapat naik sampai ke pintu-pintu langit.",
        "tahlili": "Fir\u2018aun tetap tidak menerima nasihat salah seorang keluarganya itu. Ia tetap membangkang dan tidak mau menerima dakwah Nabi Musa. Oleh karena itu, ia ingin mengejek Nabi Musa. Ia memerintahkan H\u0101m\u0101n, perdana menterinya, untuk membangun sebuah istana besar dan megah yang menjulang ke angkasa. Dalam ayat lain diinformasikan bahwa istana itu dibangun dari batu bata yang dibuat dari tanah liat yang dibakar:\n\u0648\u064e\u0642\u064e\u0627\u0644\u064e \u0641\u0650\u0631\u0652\u0639\u064e\u0648\u0652\u0646\u064f \u064a\u0670\u0653\u0627\u064e\u064a\u0651\u064f\u0647\u064e\u0627 \u0627\u0644\u0652\u0645\u064e\u0644\u064e\u0627\u064f \u0645\u064e\u0627 \u0639\u064e\u0644\u0650\u0645\u0652\u062a\u064f \u0644\u064e\u0643\u064f\u0645\u0652 \u0645\u0651\u0650\u0646\u0652 \u0627\u0650\u0644\u0670\u0647\u064d \u063a\u064e\u064a\u0652\u0631\u0650\u064a\u0652\u06da \u0641\u064e\u0627\u064e\u0648\u0652\u0642\u0650\u062f\u0652 \u0644\u0650\u064a\u0652 \u064a\u0670\u0647\u064e\u0627\u0645\u0670\u0646\u064f \u0639\u064e\u0644\u064e\u0649 \u0627\u0644\u0637\u0651\u0650\u064a\u0652\u0646\u0650 \u0641\u064e\u0627\u062c\u0652\u0639\u064e\u0644\u0652 \u0644\u0651\u0650\u064a\u0652 \u0635\u064e\u0631\u0652\u062d\u064b\u0627 \u0644\u0651\u064e\u0639\u064e\u0644\u0651\u0650\u064a\u0652\u0653 \u0627\u064e\u0637\u0651\u064e\u0644\u0650\u0639\u064f \u0627\u0650\u0644\u0670\u0653\u0649 \u0627\u0650\u0644\u0670\u0647\u0650 \u0645\u064f\u0648\u0652\u0633\u0670\u0649\u06d9 \u0648\u064e\u0627\u0650\u0646\u0651\u0650\u064a\u0652 \u0644\u064e\u0627\u064e\u0638\u064f\u0646\u0651\u064f\u0647\u0657 \u0645\u0650\u0646\u064e \u0627\u0644\u0652\u0643\u0670\u0630\u0650\u0628\u0650\u064a\u0652\u0646\u064e \u0663\u0668 (\u0627\u0644\u0642\u0635\u0635)\nDan Fir\u2018aun berkata, \u201cWahai para pembesar kaumku! Aku tidak mengetahui ada Tuhan bagimu selain aku. Maka bakarkanlah tanah liat untukku wahai H\u0101m\u0101n (untuk membuat batu bata), kemudian buatkanlah bangunan yang tinggi untukku agar aku dapat naik melihat Tuhannya Musa, dan aku yakin bahwa dia termasuk pendusta.\u201d (al-Qa\u1e63a\u1e63/28: 38)\n\nMaksud pembuatan bangunan besar, megah, dan menjulang ke angkasa itu adalah sebagai tempat atau tangga untuk mengintai atau menyaksikan adanya Tuhan Nabi Musa. Ia menyatakan bahwa Nabi Musa sebenarnya seorang pembohong karena ia yakin tidak ada Tuhan di langit. Maksud ucapannya itu adalah untuk mengelabui rakyatnya, bahwa memang tidak ada Tuhan di langit sebagaimana yang dikatakan Nabi Musa tersebut. Dengan demikian, ia menginginkan agar rakyatnya tidak percaya kepada Nabi Musa dan tetap mengikutinya.\nFir\u2018aun bertindak demikian karena ia dikuasai oleh ambisinya untuk mengalahkan Nabi Musa. Ia juga dikuasai oleh nafsu agar rakyatnya tidak menemukan kebenaran yang disampaikan Nabi Musa. Ia ingin agar rakyatnya tetap mematuhinya, dan untuk itu ia berbuat segala cara, dari memutarbalikkan kebenaran sampai mengejek. Ambisi dan nafsu itulah yang banyak menjerumuskan manusia, sebagaimana dilukiskan syair Arab berikut:\n\u0648\u064e\u0627\u0644\u0646\u0651\u064e\u0641\u0652\u0633\u064f \u0643\u064e\u0627\u0644\u0637\u0651\u0650\u0641\u0652\u0644\u0650 \u0625\u0650\u0646\u0652 \u062a\u064f\u0647\u0652\u0645\u0650\u0644\u0652\u0647\u064f \u0634\u064e\u0628\u0651\u064e \u0639\u064e\u0644\u0670\u0649\n\u062d\u064f\u0628\u0651\u0650 \u0627\u0644\u0631\u0651\u064e\u0636\u064e\u0627\u0639\u0650 \u0648\u064e\u0625\u0650\u0646\u0652 \u062a\u064e\u0641\u0652\u0637\u0650\u0645\u0652\u0647\u064f \u064a\u064e\u0646\u0652\u0641\u064e\u0637\u0650\u0645\u0650\nNafsu itu bagaikan bayi, jika kau biarkan, ia akan dewasa dengan\nterus-menerus ingin menyusu, tapi bila kau sapih, \nia akan tersapih sendirinya.\n\nKemudian ayat ini ditutup dengan suatu penegasan bahwa tipu muslihat Fir\u2018aun untuk mengalahkan Nabi Musa dan mematikan agama tauhid yang ia bawa gagal dan membawa kerugian besar. Gagal karena dakwah Nabi Musa tetap tidak dapat dibendungnya. Rugi karena biaya yang dikeluarkannya tidak sedikit, sedangkan hasilnya tidak ada. Hal itu karena Allah selalu membinasakan kebatilan yang dikerjakan manusia dan menghancurkan akibat yang ditinggalkan perbuatan batil itu, sebagaimana difirmankan-Nya:\n\u0627\u0650\u0646\u0651\u064e \u0647\u0670\u0653\u0624\u064f\u0644\u064e\u0627\u06e4\u0621\u0650 \u0645\u064f\u062a\u064e\u0628\u0651\u064e\u0631\u064c \u0645\u0651\u064e\u0627 \u0647\u064f\u0645\u0652 \u0641\u0650\u064a\u0652\u0647\u0650 \u0648\u064e\u0628\u0670\u0637\u0650\u0644\u064c \u0645\u0651\u064e\u0627 \u0643\u064e\u0627\u0646\u064f\u0648\u0652\u0627 \u064a\u064e\u0639\u0652\u0645\u064e\u0644\u064f\u0648\u0652\u0646\u064e \u0661\u0663\u0669 (\u0627\u0644\u0627\u0639\u0631\u0627\u0641)\nSesungguhnya mereka akan dihancurkan (oleh kepercayaan) yang dianutnya dan akan sia-sia apa yang telah mereka kerjakan. (al-A\u2018r\u0101f/7: 139)\n",
        "intro_surah": "Surah G\u0101fir terdiri atas 85 ayat, termasuk kelompok surah Makkiyyah, diturunkan sesudah Surah az-Zumar. Dinamai \u201cG\u0101fir\u201d (yang mengampuni) karena ada hubungannya dengan kalimat \u201cG\u0101fir\u201d yang terdapat pada ayat 3 surah ini. Ayat ini mengingatkan bahwa \u201cMaha Pengampun\u201d dan \u201cMaha Penerima Taubat\u201d adalah termasuk dari sifat-sifat Allah. Oleh karena itu, hamba-hamba Allah tidak perlu terlalu risau terhadap perbuatan-perbuatan dosa yang telah terlanjur mereka lakukan. Semuanya itu akan diampuni Allah asal benar-benar memohon ampun dan bertobat kepada-Nya dan berjanji tidak akan mengerjakan perbuatan-perbuatan dosa itu lagi.\nDinamakan pula \u201cal-Mu'min\u201d (Orang yang beriman), karena terdapat perkataan \u201cmu'min\u201d dalam surah ini, yaitu pada ayat 28. Dalam ayat 28 ini diterangkan bahwa salah seorang dari kaum Fir\u2018aun telah beriman kepada Nabi Musa dengan menyembunyikan imannya kepada kaumnya, setelah mendengar keterangan dan melihat mukjizat yang ditujukan oleh Nabi Musa. Hati kecil orang ini mencela Fir\u2018aun dan kaumnya yang tidak mau beriman kepada Nabi Musa, sekalipun telah dikemukakan keterangan dan mukjizat yang diminta mereka.\nSurah ini juga dinamai \u201ca\u1e6d-\u1e6caul\u201d (Yang mempunyai Karunia) karena perkataan tersebut terdapat pada ayat 3.\n\nPokok-pokok Isinya:\n1. \tKeimanan:\nSifat-sifat malaikat yang memiliki \u2018Arasy dan yang berada di sekitarnya; dalil-dalil yang menunjukkan kekuasaan Allah, sifat-sifat Allah yang menunjukkan kebesaran dan keagungan-Nya, ilmu Allah meliputi segala sesuatu; bukti-bukti yang menunjukkan adanya hari kebangkitan.\n2. \tKisah:\n\tKisah Musa dengan Fir\u2018aun.\n3. \tLain-lain:\nAl-Qur\u2019an al-Karim dan sikap orang-orang mukmin dan orang-orang kafir terhadapnya; permohonan orang-orang kafir supaya dikeluarkan dari neraka; peringatan kepada orang-orang musyrik tentang kedahsyatan hari Kiamat, anjuran bersabar dalam menghadapi kaum musyrikin; nikmat-nikmat Allah yang terdapat di daratan dan lautan; janji Rasulullah saw bahwa orang-orang mukmin akan menang terhadap musuhnya.\nHUBUNGAN SURAH AZ-ZUMAR DENGAN\nSURAH G\u0100FIR\n\n1. \tSurah az-Zumar menerangkan bagaimana nasib orang-orang mukmin yang bertakwa kepada Allah dan mengikuti ajaran yang dibawa rasul-Nya di akhirat nanti. Juga dijelaskan nasib orang-orang kafir di akhirat, di mana ketika mereka di dunia selalu mengingkari nabi yang diutus kepada mereka. Surah G\u0101fir menerangkan bahwa Allah mengampuni segala dosa hamba-Nya yang mau kembali mengikuti jalan yang benar. Hal ini merupakan ajakan Allah kepada orang-orang kafir agar mereka bertobat dan beriman.\n2. \tKeduanya mengutarakan hal-hal yang berhubungan dengan keadaan hari Kiamat, keadaan di Padang Mahsyar, surga, dan neraka.\n ",
        "outro_surah": null,
        "munasabah_prev_surah": "HUBUNGAN SURAH AZ-ZUMAR DENGAN\nSURAH G\u0100FIR\n\n1. \tSurah az-Zumar menerangkan bagaimana nasib orang-orang mukmin yang bertakwa kepada Allah dan mengikuti ajaran yang dibawa rasul-Nya di akhirat nanti. Juga dijelaskan nasib orang-orang kafir di akhirat, di mana ketika mereka di dunia selalu mengingkari nabi yang diutus kepada mereka. Surah G\u0101fir menerangkan bahwa Allah mengampuni segala dosa hamba-Nya yang mau kembali mengikuti jalan yang benar. Hal ini merupakan ajakan Allah kepada orang-orang kafir agar mereka bertobat dan beriman.\n2. \tKeduanya mengutarakan hal-hal yang berhubungan dengan keadaan hari Kiamat, keadaan di Padang Mahsyar, surga, dan neraka.",
        "munasabah_prev_theme": "Setelah mendengar nasihat dari salah seorang keluarganya itu, Fir\u2018aun bukannya sadar tetapi malah semakin sombong dan congkak. Dengan maksud untuk mengejek, ia meminta H\u0101m\u0101n, perdana menterinya, untuk membangun istana megah dan menjulang ke angkasa supaya ia dapat naik ke langit untuk menyaksikan adanya Tuhan Nabi Musa. Tetapi ejekan itulah akhirnya yang membawa kehancuran baginya.",
        "theme_group": "FIR\u2018AUN MENGINGKARI ADANYA TUHAN",
        "kosakata": "1. \t\u1e62ar\u1e25an \u0635\u064e\u0631\u0652\u062d\u064b\u0627 (G\u0101fir/40: 36)\n\u1e62ar\u1e25an terambil dari kata dasar \u1e63ara\u1e25a-ya\u1e63ru\u1e25u-\u1e63ar\u1e25an artinya \u201cbersih\u201d, \u201cjelas\u201d. A\u1e63-\u1e62ar\u1e25 adalah kata benda (isim)-nya. Makna harfiahnya adalah \u201cistana/gedung tinggi dan megah\u201d supaya dapat melihat apa yang di atas dan di bawah secara jelas. Fir\u2018aun dalam Surah G\u0101fir/40: 36 meminta dibangunkan bangunan megah dan menjulang itu untuk dapat mengintip keberadaan Tuhan Nabi Musa.\n2. \tAl-Asb\u0101b \u0627\u0644\u0623\u064e\u0633\u0652\u0628\u064e\u0627\u0628\u064e (G\u0101fir/40: 36)\nAl-Asb\u0101b adalah bentuk jamak dari sabab yang arti harfiahnya \u201ctali untuk memanjat pohon\u201d, yang kemudian bermakna \u201csemua yang menjadi perantara kepada sesuatu\u201d, yang diterjemahkan menjadi \u201cpenyebab\u201d. Kata dasarnya adalah sabba-yasubbu-sabban, artinya \u201cmengantarkan kepada sesuatu\u201d. Dalam Surah G\u0101fir/40: 36-37, Fir\u2018aun meminta dibuatkan istana yang megah dan menjulang supaya ia sampai ke asb\u0101b, yaitu \u201cpenyebab-penyebab\u201d, atau tempat-tempat yang memungkinkan ia dapat mengintip adanya Tuhan dengan jelas.\n3. \tTab\u0101b \u062a\u064e\u0628\u064e\u0627\u0628\u064d (G\u0101fir/40: 37)\nKata dasarnya tabba-yatubbu-tabban-tab\u0101ban artinya \u201cmusnah\u201d, \u201chancur\u201d. Ucapan tabban laka merupakan doa agar orang itu selalu dalam kerugian, susah, dan hancur. Dalam Surah G\u0101fir/40: 37, Allah menegaskan bahwa segala usaha jahat Fir\u2018aun (mencegah rakyatnya beriman dan mempermalukan Nabi Musa mengenai Tuhannya, karena ternyata tidak ditemukan di langit) membawa kerugian dan kehancurannya sendiri.",
        "sabab_nuzul": null,
        "conclusion": null
    }
}