{
    "id": 4147,
    "surah_id": 40,
    "ayah": 14,
    "page": 468,
    "quarter_hizb": 47.5,
    "juz": 24,
    "manzil": 6,
    "arabic": "\u0641\u064e\u0627\u062f\u0652\u0639\u064f\u0648\u0627 \u0627\u0644\u0644\u0651\u0670\u0647\u064e \u0645\u064f\u062e\u0652\u0644\u0650\u0635\u0650\u064a\u0652\u0646\u064e \u0644\u064e\u0647\u064f \u0627\u0644\u062f\u0651\u0650\u064a\u0652\u0646\u064e \u0648\u064e\u0644\u064e\u0648\u0652 \u0643\u064e\u0631\u0650\u0647\u064e \u0627\u0644\u0652\u0643\u0670\u0641\u0650\u0631\u064f\u0648\u0652\u0646\u064e",
    "latin": "Fad\u2018ull\u0101ha mukhli\u1e63\u012bna lahud-d\u012bna wa lau karihal-k\u0101fir\u016bn(a).",
    "translation": "Maka, sembahlah Allah dengan mengikhlaskan ketaatan kepada-Nya meskipun orang-orang kafir tidak menyukai(-nya).",
    "no_footnote": null,
    "footnotes": null,
    "surah": {
        "id": 40,
        "arabic": " \u063a\u0627\u0641\u0631",
        "latin": "G\u0101fir ",
        "transliteration": "Gafir",
        "translation": "Maha Pengampun",
        "num_ayah": 85,
        "page": 467,
        "location": "Makkiyah"
    },
    "tafsir": {
        "wajiz": "Maka oleh sebab itu, sembahlah Allah, dan dengan tulus ikhlas-lah beragama kepada-Nya, meskipun orang-orang kafir tidak menyukai sikap keberagamaan kalian itu.",
        "tahlili": "Pada akhir ayat di atas dinyatakan bahwa orang yang menyadari kekuasaan dan keesaan Allah hanyalah orang-orang yang kembali kepada-Nya. Sepatutnya kita menyembah dan memohon kepada-Nya dengan ikhlas, memurnikan ibadah kepada-Nya, tidak mempersekutukannya dengan yang lain, sebagaimana dijelaskan dalam hadis yang diriwayatkan al-Bukh\u0101r\u012b dan Muslim dari \u2018Abdull\u0101h bin Zubair: \n\u0623\u064e\u0646\u0651\u064e \u0631\u064e\u0633\u064f\u0648\u0652\u0644\u064e \u0627\u0644\u0644\u0651\u0670\u0647\u0650 \u0635\u064e\u0644\u0651\u064e\u0649 \u0627\u0644\u0644\u0651\u0670\u0647\u064f \u0639\u064e\u0644\u064e\u064a\u0652\u0647\u0650 \u0648\u064e\u0633\u064e\u0644\u0651\u064e\u0645\u064e \u0643\u064e\u0627\u0646\u064e \u064a\u064e\u0642\u064f\u0648\u0652\u0644\u064f \u0639\u064e\u0642\u0650\u0628\u064e \u0627\u0644\u0635\u0651\u064e\u0644\u064e\u0648\u064e\u0627\u062a \u0627\u0644\u0652\u0645\u064e\u0643\u0652\u062a\u064f\u0648\u0652\u0628\u064e\u0629: \u0644\u064e\u0627 \u0625\u0650\u0644\u0670\u0647\u064e \u0625\u0650\u0644\u0651\u064e\u0627 \u0627\u0644\u0644\u0651\u0670\u0647\u064f \u0648\u064e\u062d\u0652\u062f\u064e\u0647\u064f \u0644\u064e\u0627 \u0634\u064e\u0631\u0650\u064a\u0652\u0643\u064e \u0644\u064e\u0647\u064f\u060c \u0644\u064e\u0647\u064f \u0627\u0644\u0652\u0645\u064f\u0644\u0652\u0643\u064f \u0648\u064e\u0644\u064e\u0647\u064f \u0627\u0644\u0652\u062d\u064e\u0645\u0652\u062f\u064f \u0648\u064e\u0647\u064f\u0648\u064e \u0639\u064e\u0644\u064e\u0649 \u0643\u064f\u0644\u0651\u0650 \u0634\u064e\u064a\u0652\u0621\u064d \u0642\u064e\u062f\u0650\u064a\u0652\u0631\u064c\u060c \u0644\u064e\u0627 \u062d\u064e\u0648\u0652\u0644\u064e \u0648\u064e\u0644\u064e\u0627 \u0642\u064f\u0648\u0651\u064e\u0629\u064e \u0627\u0650\u0644\u0651\u064e\u0627 \u0628\u0650\u0627\u0644\u0644\u0651\u0670\u0647\u0650\u060c \u0644\u064e\u0627 \u0625\u0650\u0644\u0670\u0647\u064e \u0625\u0650\u0644\u0651\u064e\u0627 \u0627\u0644\u0644\u0651\u0670\u0647\u064f\u060c \u0648\u064e\u0644\u064e\u0627 \u0646\u064e\u0639\u0652\u0628\u064f\u062f\u064f \u0625\u0650\u0644\u0651\u064e\u0627 \u0625\u0650\u064a\u0651\u064e\u0627\u0647\u064f\u060c \u0644\u064e\u0647\u064f \u0627\u0644\u0646\u0651\u0650\u0639\u0652\u0645\u064e\u0629\u064f\u060c \u0648\u064e\u0644\u064e\u0647\u064f \u0627\u0644\u0652\u0641\u064e\u0636\u0652\u0644\u064f\u060c \u0648\u064e\u0644\u064e\u0647\u064f \u0627\u0644\u062b\u0651\u064e\u0646\u064e\u0627\u0621\u064f \u0627\u0644\u0652\u062d\u064e\u0633\u064e\u0646\u064f\u060c \u0644\u064e\u0627 \u0625\u0650\u0644\u0670\u0647\u064e \u0625\u0650\u0644\u0651\u064e\u0627 \u0627\u0644\u0644\u0651\u0670\u0647\u064f \u0645\u064f\u062e\u0652\u0644\u0650\u0635\u0650\u064a\u0652\u0646\u064e \u0644\u064e\u0647\u064f \u0627\u0644\u062f\u0651\u0650\u064a\u0652\u0646\u064e \u0648\u064e\u0644\u064e\u0648\u0652 \u0643\u064e\u0631\u0650\u0647\u064e \u0627\u0644\u0652\u0643\u064e\u0627\u0641\u0650\u0631\u064f\u0648\u0652\u0646\u064e. (\u0631\u0648\u0627\u0647 \u0627\u0644\u0628\u062e\u0627\u0631\u064a \u0648 \u0645\u0633\u0644\u0645 \u0639\u0646 \u0639\u0628\u062f \u0627\u0644\u0644\u0647 \u0628\u0646 \u0627\u0644\u0632\u0628\u064a\u0631)\nBahwa Rasulullah setelah selesai salat fardu membaca L\u0101 il\u0101ha illall\u0101h\u2026dan seterusnya (artinya) Tidak ada Tuhan selain Allah tidak ada sekutu bagi-Nya. Hanya bagi Allah seluruh kekuasaan, bagi-Nya segala puji, dan Dia Mahakuasa atas segala sesuatu. Tidak ada daya dan kekuatan kecuali atas pertolongan Allah. Tidak ada Tuhan selain Allah. Kami tidak menyembah kecuali kepada-Nya. Bagi-Nya semua kenikmatan, anugerah, dan pujian yang baik. Tidak ada Tuhan selain Allah, dengan mengikhlaskan diri dalam berbakti kepada-Nya, walaupun orang-orang kafir tidak menyukai. (Riwayat al-Bukh\u0101r\u012b and Muslim dari \u2018Abdull\u0101h bin Zubair)",
        "intro_surah": "Surah G\u0101fir terdiri atas 85 ayat, termasuk kelompok surah Makkiyyah, diturunkan sesudah Surah az-Zumar. Dinamai \u201cG\u0101fir\u201d (yang mengampuni) karena ada hubungannya dengan kalimat \u201cG\u0101fir\u201d yang terdapat pada ayat 3 surah ini. Ayat ini mengingatkan bahwa \u201cMaha Pengampun\u201d dan \u201cMaha Penerima Taubat\u201d adalah termasuk dari sifat-sifat Allah. Oleh karena itu, hamba-hamba Allah tidak perlu terlalu risau terhadap perbuatan-perbuatan dosa yang telah terlanjur mereka lakukan. Semuanya itu akan diampuni Allah asal benar-benar memohon ampun dan bertobat kepada-Nya dan berjanji tidak akan mengerjakan perbuatan-perbuatan dosa itu lagi.\nDinamakan pula \u201cal-Mu'min\u201d (Orang yang beriman), karena terdapat perkataan \u201cmu'min\u201d dalam surah ini, yaitu pada ayat 28. Dalam ayat 28 ini diterangkan bahwa salah seorang dari kaum Fir\u2018aun telah beriman kepada Nabi Musa dengan menyembunyikan imannya kepada kaumnya, setelah mendengar keterangan dan melihat mukjizat yang ditujukan oleh Nabi Musa. Hati kecil orang ini mencela Fir\u2018aun dan kaumnya yang tidak mau beriman kepada Nabi Musa, sekalipun telah dikemukakan keterangan dan mukjizat yang diminta mereka.\nSurah ini juga dinamai \u201ca\u1e6d-\u1e6caul\u201d (Yang mempunyai Karunia) karena perkataan tersebut terdapat pada ayat 3.\n\nPokok-pokok Isinya:\n1. \tKeimanan:\nSifat-sifat malaikat yang memiliki \u2018Arasy dan yang berada di sekitarnya; dalil-dalil yang menunjukkan kekuasaan Allah, sifat-sifat Allah yang menunjukkan kebesaran dan keagungan-Nya, ilmu Allah meliputi segala sesuatu; bukti-bukti yang menunjukkan adanya hari kebangkitan.\n2. \tKisah:\n\tKisah Musa dengan Fir\u2018aun.\n3. \tLain-lain:\nAl-Qur\u2019an al-Karim dan sikap orang-orang mukmin dan orang-orang kafir terhadapnya; permohonan orang-orang kafir supaya dikeluarkan dari neraka; peringatan kepada orang-orang musyrik tentang kedahsyatan hari Kiamat, anjuran bersabar dalam menghadapi kaum musyrikin; nikmat-nikmat Allah yang terdapat di daratan dan lautan; janji Rasulullah saw bahwa orang-orang mukmin akan menang terhadap musuhnya.\nHUBUNGAN SURAH AZ-ZUMAR DENGAN\nSURAH G\u0100FIR\n\n1. \tSurah az-Zumar menerangkan bagaimana nasib orang-orang mukmin yang bertakwa kepada Allah dan mengikuti ajaran yang dibawa rasul-Nya di akhirat nanti. Juga dijelaskan nasib orang-orang kafir di akhirat, di mana ketika mereka di dunia selalu mengingkari nabi yang diutus kepada mereka. Surah G\u0101fir menerangkan bahwa Allah mengampuni segala dosa hamba-Nya yang mau kembali mengikuti jalan yang benar. Hal ini merupakan ajakan Allah kepada orang-orang kafir agar mereka bertobat dan beriman.\n2. \tKeduanya mengutarakan hal-hal yang berhubungan dengan keadaan hari Kiamat, keadaan di Padang Mahsyar, surga, dan neraka.\n ",
        "outro_surah": null,
        "munasabah_prev_surah": "HUBUNGAN SURAH AZ-ZUMAR DENGAN\nSURAH G\u0100FIR\n\n1. \tSurah az-Zumar menerangkan bagaimana nasib orang-orang mukmin yang bertakwa kepada Allah dan mengikuti ajaran yang dibawa rasul-Nya di akhirat nanti. Juga dijelaskan nasib orang-orang kafir di akhirat, di mana ketika mereka di dunia selalu mengingkari nabi yang diutus kepada mereka. Surah G\u0101fir menerangkan bahwa Allah mengampuni segala dosa hamba-Nya yang mau kembali mengikuti jalan yang benar. Hal ini merupakan ajakan Allah kepada orang-orang kafir agar mereka bertobat dan beriman.\n2. \tKeduanya mengutarakan hal-hal yang berhubungan dengan keadaan hari Kiamat, keadaan di Padang Mahsyar, surga, dan neraka.",
        "munasabah_prev_theme": "Pada ayat-ayat yang lalu, Allah menerangkan bahwa orang-orang mukmin di akhirat akan memperoleh berbagai fasilitas dan kemudahan, di antaranya akan memperoleh doa dan permohonan ampunan dari para malaikat. Pada ayat-ayat berikut ini, Allah menerangkan bahwa orang-orang kafir pada hari Kiamat mengakui dosa-dosa mereka, dan meminta agar dikembalikan ke dunia untuk berbuat baik. Kemudian Allah menerangkan kesempurnaan kekuasaan dan kebijaksanaan-Nya, pemberian rezeki kepada makhluk-Nya, dan sesungguhnya Dia tidak memerlukan sesuatu yang lain daripada-Nya. Juga dijelaskan bahwa Dia menurunkan wahyu kepada hamba-Nya yang dikehendaki untuk memberi peringatan dengan azab nanti di hari Kiamat.\n",
        "theme_group": "ORANG KAFIR INGIN KELUAR DARI NERAKA\n",
        "kosakata": "1.\tMaqt All\u0101h \u0645\u064e\u0642\u0652\u062a\u064f \u0627\u0644\u0644\u0647 (G\u0101fir/40: 10)\nKata yang terambil dari maqata-yamqutu-maqtan. Akar katanya (mim-qaf-ta\u2019) yang berarti jelek, buruk. Pada zaman Jahiliah menikahi istri bapak disebut dengan \u201cnikah maqt\u201d, karena hal ini sangat dibenci dan dimurkai Allah. Al-Asfahan\u012b mengartikan al-maqt dengan kebencian yang sangat terhadap orang yang melakukan sesuatu keburukan.\n2.\tYaum al-Tal\u0101q \u064a\u064e\u0648\u0652\u0645\u064e \u0627\u0644\u062a\u0651\u064e\u0644\u064e\u0627\u0642 (G\u0101fir/40: 15)\nYaum berarti hari. Tal\u0101q bentuk ma\u1e63dar dari tal\u0101q\u0101-yatal\u0101qi-tal\u0101qiyan, mengikuti wazan taf\u0101\u2018ala. Yang mempunyai arti adanya dua orang yang bekerja sama dalam satu hal. Jika kemasukan lam ta\u2018rif dikatakan at-tal\u0101qi. Kemudian ya\u2019 nya dibuang, jadinya at-tal\u0101q. Kata ini  berakar pada (lam-qaf-huruf illat ya\u2019) yang berarti bertemu. Sehingga makna at-tal\u0101q adalah saling bertemu. Maksudnya adalah hari Kiamat. Al-Qur\u2019an tidak menyebutkan pertemuan antara siapa dan siapa. Oleh sebab itu, para mufasir mempunyai lahan untuk menyatakan pendapatnya. Menurut mereka, sebagaimana kata al-Khazin, pertemuan itu antara penghuni langit dan bumi, atau antara Allah dan makhluk-Nya, atau yang menyembah dan yang disembah, atau seseorang dengan amalnya, atau yang menzalimi dan yang dizalimi, dan semua makna tersebut memungkinkan.\n3.\tB\u0101riz\u016bn \u0628\u064e\u0627\u0631\u0650\u0632\u064f\u0648\u0652\u0646\u064e (G\u0101fir/40: 16)\nBentuk isim fa\u2018il yang fi\u2018il ma\u1e0dinya baraza. Akar katanya (ba\u2019-ra\u2019-za\u2019) yang artinya keluar, mencuat, tampak dan lain sebagainya. Kata al-bar\u0101z artinya tanah lapang karena orang yang ada di sini akan tampak. Tabarraza artinya buang air besar di tanah lapang. Pada ayat ini digambarkan bahwa manusia pada hari Kiamat akan keluar dari kuburnya masing-masing dalam keadaan terbuka jelas bagi siapapun, tidak tertutupi oleh suatu apa pun.",
        "sabab_nuzul": null,
        "conclusion": null
    }
}