{
    "id": 4202,
    "surah_id": 40,
    "ayah": 69,
    "page": 475,
    "quarter_hizb": 48.25,
    "juz": 24,
    "manzil": 6,
    "arabic": "\u0627\u064e\u0644\u064e\u0645\u0652 \u062a\u064e\u0631\u064e \u0627\u0650\u0644\u064e\u0649 \u0627\u0644\u0651\u064e\u0630\u0650\u064a\u0652\u0646\u064e \u064a\u064f\u062c\u064e\u0627\u062f\u0650\u0644\u064f\u0648\u0652\u0646\u064e \u0641\u0650\u064a\u0652\u0653 \u0627\u0670\u064a\u0670\u062a\u0650 \u0627\u0644\u0644\u0651\u0670\u0647\u0650 \u06d7\u0627\u064e\u0646\u0651\u0670\u0649 \u064a\u064f\u0635\u0652\u0631\u064e\u0641\u064f\u0648\u0652\u0646\u064e\u06da",
    "latin": "Alam tara ilal-la\u017c\u012bna yuj\u0101dil\u016bna f\u012b \u0101y\u0101till\u0101h(i), ann\u0101 yu\u1e63raf\u016bn(a).",
    "translation": "Apakah kamu tidak memperhatikan orang-orang yang (selalu) membantah ayat-ayat Allah, bagaimana mereka dapat dipalingkan?",
    "no_footnote": null,
    "footnotes": null,
    "surah": {
        "id": 40,
        "arabic": " \u063a\u0627\u0641\u0631",
        "latin": "G\u0101fir ",
        "transliteration": "Gafir",
        "translation": "Maha Pengampun",
        "num_ayah": 85,
        "page": 467,
        "location": "Makkiyah"
    },
    "tafsir": {
        "wajiz": "Setelah disimpulkan pada ayat-ayat yang lalu bahwa Allah-lah pe-nguasa alam semesta ini, dan yang berkuasa menghidupkan dan mematikan, maka ayat-ayat berikut kembali menghadapkan perhatian terhadap orang-orang yang mendebat kebenaran wahyu terutama tentang akibat yang akan mereka terima karena perbuatan tersebut. \u201cApakah kamu, wahai Nabi Muhammad, tidak memperhatikan tentang orang-orang yang selalu membantah dengan batil terhadap semua bukti kebenaran ayat-ayat Allah? Bagaimana jalan pikiran mereka sehingga mereka dapat dipalingkan dari bukti-bukti kebenaran yang sangat jelas dari wahyu itu?\u201d",
        "tahlili": "Allah menyatakan kepada Nabi Muhammad, apakah ia tidak memerhatikan orang-orang yang membantah ayat-ayat Allah yang menerangkan dan membuktikan keesaan-Nya dan adanya hari kebangkitan. Orang-orang kafir itu membantah tanpa mengemukakan dalil-dalil yang kuat atau yang dapat diterima akal dan pikiran yang benar. Hal ini menunjukkan bahwa kekafiran dan keingkaran mereka itu tidak beralasan sedikit pun. Jika ada alasan yang mereka kemukakan, maka alasan itu semata-mata hanya karena ingin mengelakkan diri dari seruan Muhammad.\nSikap mereka yang demikian itu adalah sikap yang aneh dan tidak benar. Jika mereka ingin mencari kebenaran dan ingin mengikuti kepercayaan yang benar, amat banyak dalil-dalil yang dapat mereka pelajari dan perhatikan untuk mencapai keinginan mereka itu.",
        "intro_surah": "Surah G\u0101fir terdiri atas 85 ayat, termasuk kelompok surah Makkiyyah, diturunkan sesudah Surah az-Zumar. Dinamai \u201cG\u0101fir\u201d (yang mengampuni) karena ada hubungannya dengan kalimat \u201cG\u0101fir\u201d yang terdapat pada ayat 3 surah ini. Ayat ini mengingatkan bahwa \u201cMaha Pengampun\u201d dan \u201cMaha Penerima Taubat\u201d adalah termasuk dari sifat-sifat Allah. Oleh karena itu, hamba-hamba Allah tidak perlu terlalu risau terhadap perbuatan-perbuatan dosa yang telah terlanjur mereka lakukan. Semuanya itu akan diampuni Allah asal benar-benar memohon ampun dan bertobat kepada-Nya dan berjanji tidak akan mengerjakan perbuatan-perbuatan dosa itu lagi.\nDinamakan pula \u201cal-Mu'min\u201d (Orang yang beriman), karena terdapat perkataan \u201cmu'min\u201d dalam surah ini, yaitu pada ayat 28. Dalam ayat 28 ini diterangkan bahwa salah seorang dari kaum Fir\u2018aun telah beriman kepada Nabi Musa dengan menyembunyikan imannya kepada kaumnya, setelah mendengar keterangan dan melihat mukjizat yang ditujukan oleh Nabi Musa. Hati kecil orang ini mencela Fir\u2018aun dan kaumnya yang tidak mau beriman kepada Nabi Musa, sekalipun telah dikemukakan keterangan dan mukjizat yang diminta mereka.\nSurah ini juga dinamai \u201ca\u1e6d-\u1e6caul\u201d (Yang mempunyai Karunia) karena perkataan tersebut terdapat pada ayat 3.\n\nPokok-pokok Isinya:\n1. \tKeimanan:\nSifat-sifat malaikat yang memiliki \u2018Arasy dan yang berada di sekitarnya; dalil-dalil yang menunjukkan kekuasaan Allah, sifat-sifat Allah yang menunjukkan kebesaran dan keagungan-Nya, ilmu Allah meliputi segala sesuatu; bukti-bukti yang menunjukkan adanya hari kebangkitan.\n2. \tKisah:\n\tKisah Musa dengan Fir\u2018aun.\n3. \tLain-lain:\nAl-Qur\u2019an al-Karim dan sikap orang-orang mukmin dan orang-orang kafir terhadapnya; permohonan orang-orang kafir supaya dikeluarkan dari neraka; peringatan kepada orang-orang musyrik tentang kedahsyatan hari Kiamat, anjuran bersabar dalam menghadapi kaum musyrikin; nikmat-nikmat Allah yang terdapat di daratan dan lautan; janji Rasulullah saw bahwa orang-orang mukmin akan menang terhadap musuhnya.\nHUBUNGAN SURAH AZ-ZUMAR DENGAN\nSURAH G\u0100FIR\n\n1. \tSurah az-Zumar menerangkan bagaimana nasib orang-orang mukmin yang bertakwa kepada Allah dan mengikuti ajaran yang dibawa rasul-Nya di akhirat nanti. Juga dijelaskan nasib orang-orang kafir di akhirat, di mana ketika mereka di dunia selalu mengingkari nabi yang diutus kepada mereka. Surah G\u0101fir menerangkan bahwa Allah mengampuni segala dosa hamba-Nya yang mau kembali mengikuti jalan yang benar. Hal ini merupakan ajakan Allah kepada orang-orang kafir agar mereka bertobat dan beriman.\n2. \tKeduanya mengutarakan hal-hal yang berhubungan dengan keadaan hari Kiamat, keadaan di Padang Mahsyar, surga, dan neraka.\n ",
        "outro_surah": null,
        "munasabah_prev_surah": "HUBUNGAN SURAH AZ-ZUMAR DENGAN\nSURAH G\u0100FIR\n\n1. \tSurah az-Zumar menerangkan bagaimana nasib orang-orang mukmin yang bertakwa kepada Allah dan mengikuti ajaran yang dibawa rasul-Nya di akhirat nanti. Juga dijelaskan nasib orang-orang kafir di akhirat, di mana ketika mereka di dunia selalu mengingkari nabi yang diutus kepada mereka. Surah G\u0101fir menerangkan bahwa Allah mengampuni segala dosa hamba-Nya yang mau kembali mengikuti jalan yang benar. Hal ini merupakan ajakan Allah kepada orang-orang kafir agar mereka bertobat dan beriman.\n2. \tKeduanya mengutarakan hal-hal yang berhubungan dengan keadaan hari Kiamat, keadaan di Padang Mahsyar, surga, dan neraka.",
        "munasabah_prev_theme": "Pada ayat-ayat terdahulu diterangkan bahwa Rasulullah dan orang-orang yang beriman dilarang Allah menyembah selain Dia, karena Dialah Yang menciptakan segala sesuatu. Dia Yang menghidupkan dan mematikan, dan Dialah Yang Maha Kuasa. Pada ayat-ayat berikut ini diterangkan keadaan orang-orang yang sesat, selalu membantah, dan mengingkari ayat-ayat Allah. Mereka akan dimasukkan ke dalam api neraka yang menyala-nyala, sedangkan tuhan-tuhan yang mereka sembah tidak mampu menolong sedikit pun.",
        "theme_group": "AZAB BAGI ORANG YANG MENENTANG AYAT-AYAT\nALLAH DAN RASUL-NYA",
        "kosakata": "1. \tYus\u1e25ab\u016bna \u064a\u064f\u0633\u0652\u062d\u064e\u0628\u064f\u0648\u0652\u0646\u064e (G\u0101fir/40: 71)\nKata yus\u1e25ab\u0101n adalah fi\u2018il mu\u1e0d\u0101ri\u2018 majh\u016bl, dari sa\u1e25aba\u2013yas\u1e25abu\u2013sa\u1e25ban, yang artinya \u201cmereka diseret.\u201d Hal ini menggambarkan keadaan siksa yang menyedihkan di alam akhirat, yang akan dialami oleh mereka yang mendustakan Al-Qur\u2019an dan mendustakan apa-apa yang dibawa para utusan Allah sebelum Nabi Muhammad. Pada saat belenggu dan rantai yang penuh dengan api neraka telah terikat pada leher mereka, mereka diseret dengan sadis dan dilemparkan ke dalam neraka. Wall\u0101hu a\u2018lam bi al-\u1e63aw\u0101b.\n2. \tYusjar\u016bna \u064a\u064f\u0633\u0652\u062c\u064e\u0631\u064f\u0648\u0652\u0646\u064e (G\u0101fir/40: 72)\nKata yusjar\u016bna adalah fi\u2018il mu\u1e0d\u0101ri\u2018majh\u016bl yaitu kata kerja untuk waktu sekarang dan yang akan datang dalam bentuk pasif. Artinya mereka akan dibakar. Berasal dari fi\u2018il sajara-yasjuru-sajran (\ufeb4\ufea0\ufeae\ufe8d \ufef3\ufeb4\ufea0\ufeae \ufeb4\ufea0\ufeae) artinya menyalakan, membakar, atau menuangkan. Pada ayat 71-72 Surah G\u0101fir ini Allah berfirman, \u201cYus\u1e25ab\u016bna fi al-\u1e25am\u012bm \u1e61umma fi an-n\u0101ri yusjar\u016bn,\u201d. Artinya: mereka akan diseret ke dalam air yang sangat panas kemudian dibakar dalam api neraka. Ini merupakan bagian dari azab bagi orang-orang yang menentang ayat-ayat Allah dan rasul-Nya, karena mereka lebih percaya dan asyik dengan berhala-berhala mereka ketika hidup di dunia. Sebetulnya orang-orang kafir Mekah mengetahui adanya Allah yang mencipta alam dan manusia ini, tetapi mereka sulit membayangkan Allah yang sangat tinggi, lalu mereka menyembah berhala-berhala yang mereka buat sendiri sebagai perantara untuk mendekatkan diri kepada Allah. Maka mereka menjadi musyrik yang menyekutukan Allah. Azab dan hukuman Allah sangat keras terhadap orang-orang yang menyekutukan-Nya.",
        "sabab_nuzul": null,
        "conclusion": null
    }
}