{
    "id": 4144,
    "surah_id": 40,
    "ayah": 11,
    "page": 468,
    "quarter_hizb": 47.5,
    "juz": 24,
    "manzil": 6,
    "arabic": "\u0642\u064e\u0627\u0644\u064f\u0648\u0652\u0627 \u0631\u064e\u0628\u0651\u064e\u0646\u064e\u0627\u0653 \u0627\u064e\u0645\u064e\u062a\u0651\u064e\u0646\u064e\u0627 \u0627\u062b\u0652\u0646\u064e\u062a\u064e\u064a\u0652\u0646\u0650 \u0648\u064e\u0627\u064e\u062d\u0652\u064a\u064e\u064a\u0652\u062a\u064e\u0646\u064e\u0627 \u0627\u062b\u0652\u0646\u064e\u062a\u064e\u064a\u0652\u0646\u0650 \u0641\u064e\u0627\u0639\u0652\u062a\u064e\u0631\u064e\u0641\u0652\u0646\u064e\u0627 \u0628\u0650\u0630\u064f\u0646\u064f\u0648\u0652\u0628\u0650\u0646\u064e\u0627 \u0641\u064e\u0647\u064e\u0644\u0652 \u0627\u0650\u0644\u0670\u0649 \u062e\u064f\u0631\u064f\u0648\u0652\u062c\u064d \u0645\u0651\u0650\u0646\u0652 \u0633\u064e\u0628\u0650\u064a\u0652\u0644\u064d",
    "latin": "Q\u0101l\u016b rabban\u0101 amattana\u1e61nataini wa a\u1e25yaitana\u1e61nataini fa\u2018tarafn\u0101 bi\u017cun\u016bbin\u0101 fa hal il\u0101 khur\u016bjim min sab\u012bl(in).",
    "translation": "Mereka menjawab, \u201cWahai Tuhan kami, Engkau telah mematikan kami dua kali dan telah menghidupkan kami dua kali (pula), lalu kami mengakui dosa-dosa kami. Maka, adakah jalan (bagi kami) untuk keluar (dari neraka)?\u201d",
    "no_footnote": null,
    "footnotes": null,
    "surah": {
        "id": 40,
        "arabic": " \u063a\u0627\u0641\u0631",
        "latin": "G\u0101fir ",
        "transliteration": "Gafir",
        "translation": "Maha Pengampun",
        "num_ayah": 85,
        "page": 467,
        "location": "Makkiyah"
    },
    "tafsir": {
        "wajiz": "Mereka, orang-orang kafir itu pun menjawab, \u201cYa Tuhan kami, kami sadar bahwa Engkau telah mematikan kami dua kali dan telah menghidupkan kami dua kali pula, lalu sekarang kami sadari pula Engkau kuasa menghidupkan orang yang sudah mati. Oleh sebab itulah, kami mengakui dosa-dosa yang telah kami perbuat ketika hidup di dunia. Maka adakah bagi kami ya Allah Yang Maha Pengampun jalan untuk keluar dari neraka ini dan kembali ke kehidupan dunia untuk memperbaiki diri?\u201d",
        "tahlili": "Setelah mendengar seruan malaikat dan tidak tahan lagi merasakan azab yang amat pedih, orang-orang kafir berkata, \u201cWahai Tuhan, Engkau telah mematikan kami dua kali dan menghidupkan kami dua kali. Engkau menjadikan kami dalam keadaan mati lalu menghidupkan kami dengan meniupkan roh ke dalam rahim ibu kami, kemudian mematikan kami di dunia setelah ajal kami berakhir, dan di akhirat nanti kami dihidupkan kembali dengan mengembalikan roh kami untuk dibangkitkan. Firman Allah:\n\u0643\u064e\u064a\u0652\u0641\u064e \u062a\u064e\u0643\u0652\u0641\u064f\u0631\u064f\u0648\u0652\u0646\u064e \u0628\u0650\u0627\u0644\u0644\u0651\u0670\u0647\u0650 \u0648\u064e\u0643\u064f\u0646\u0652\u062a\u064f\u0645\u0652 \u0627\u064e\u0645\u0652\u0648\u064e\u0627\u062a\u064b\u0627 \u0641\u064e\u0627\u064e\u062d\u0652\u064a\u064e\u0627\u0643\u064f\u0645\u0652\u06da \u062b\u064f\u0645\u0651\u064e \u064a\u064f\u0645\u0650\u064a\u0652\u062a\u064f\u0643\u064f\u0645\u0652 \u062b\u064f\u0645\u0651\u064e \u064a\u064f\u062d\u0652\u064a\u0650\u064a\u0652\u0643\u064f\u0645\u0652 \nBagaimana kamu ingkar kepada Allah, padahal kamu (tadinya) mati, lalu Dia menghidupkan kamu, kemudian Dia mematikan kamu lalu Dia menghidupkan kamu kembali. (al-Baqarah/2: 28)\n\nManusia mati ketika masih janin dan berada dalam tubuh orang tuanya. Kemudian dihidupkan ketika lahir ke dunia, lalu kematian berikutnya sudah merupakan suatu keharusan. Setelah itu dihidupkan pada hari Kebangkitan (hari Kiamat). Mereka mengalami dua kali hidup dan dua kali mati.\nSetelah menyaksikan kekuasaan Allah mematikan dan menghidupkan mereka berulang kali, orang-orang kafir menjadi sadar. Mereka mengakui kesalahan-kesalahan di dunia ketika mengingkari hari Kebangkitan dan mengerjakan dosa-dosa yang tak terhitung banyaknya, untuk menebus kesalahan-kesalahan mereka itu. Mereka meminta supaya dikeluarkan dari neraka dan dikembalikan ke dunia untuk beramal saleh dan tidak akan mengerjakan kesalahan dan dosa lagi. Permintaan seperti ini disebutkan juga pada ayat yang lain sebagaimana firman Allah:\n\u0648\u064e\u0644\u064e\u0648\u0652 \u062a\u064e\u0631\u0670\u0649\u0653 \u0627\u0650\u0630\u0650 \u0627\u0644\u0652\u0645\u064f\u062c\u0652\u0631\u0650\u0645\u064f\u0648\u0652\u0646\u064e \u0646\u064e\u0627\u0643\u0650\u0633\u064f\u0648\u0652\u0627 \u0631\u064f\u0621\u064f\u0648\u0652\u0633\u0650\u0647\u0650\u0645\u0652 \u0639\u0650\u0646\u0652\u062f\u064e \u0631\u064e\u0628\u0651\u0650\u0647\u0650\u0645\u0652\u06d7 \u0631\u064e\u0628\u0651\u064e\u0646\u064e\u0627\u0653 \u0627\u064e\u0628\u0652\u0635\u064e\u0631\u0652\u0646\u064e\u0627 \u0648\u064e\u0633\u064e\u0645\u0650\u0639\u0652\u0646\u064e\u0627 \u0641\u064e\u0627\u0631\u0652\u062c\u0650\u0639\u0652\u0646\u064e\u0627 \u0646\u064e\u0639\u0652\u0645\u064e\u0644\u0652 \u0635\u064e\u0627\u0644\u0650\u062d\u064b\u0627 \u0627\u0650\u0646\u0651\u064e\u0627 \u0645\u064f\u0648\u0652\u0642\u0650\u0646\u064f\u0648\u0652\u0646\u064e \u0661\u0662 (\u0627\u0644\u0633\u0651\u062c\u062f\u0629)\nDan (alangkah ngerinya), jika sekiranya kamu melihat orang-orang yang berdosa itu menundukkan kepalanya di hadapan Tuhannya, (mereka berkata), \u201cYa Tuhan kami, kami telah melihat dan mendengar, maka kembalikanlah kami (ke dunia), niscaya kami akan mengerjakan kebajikan. Sungguh, kami adalah orang-orang yang yakin.\u201d (as-Sajdah/32: 12)\n\n\u0631\u064e\u0628\u0651\u064e\u0646\u064e\u0627\u0653 \u0627\u064e\u062e\u0652\u0631\u0650\u062c\u0652\u0646\u064e\u0627 \u0645\u0650\u0646\u0652\u0647\u064e\u0627 \u0641\u064e\u0627\u0650\u0646\u0652 \u0639\u064f\u062f\u0652\u0646\u064e\u0627 \u0641\u064e\u0627\u0650\u0646\u0651\u064e\u0627 \u0638\u0670\u0644\u0650\u0645\u064f\u0648\u0652\u0646\u064e \u0661\u0660\u0667 (\u0627\u0644\u0645\u0624\u0645\u0646\u0648\u0646)\nYa Tuhan kami, keluarkanlah kami darinya (kembalikanlah kami ke dunia), jika kami masih juga kembali (kepada kekafiran), sungguh, kami adalah orang-orang yang zalim. (G\u0101fir\u016bn/23: 107)",
        "intro_surah": "Surah G\u0101fir terdiri atas 85 ayat, termasuk kelompok surah Makkiyyah, diturunkan sesudah Surah az-Zumar. Dinamai \u201cG\u0101fir\u201d (yang mengampuni) karena ada hubungannya dengan kalimat \u201cG\u0101fir\u201d yang terdapat pada ayat 3 surah ini. Ayat ini mengingatkan bahwa \u201cMaha Pengampun\u201d dan \u201cMaha Penerima Taubat\u201d adalah termasuk dari sifat-sifat Allah. Oleh karena itu, hamba-hamba Allah tidak perlu terlalu risau terhadap perbuatan-perbuatan dosa yang telah terlanjur mereka lakukan. Semuanya itu akan diampuni Allah asal benar-benar memohon ampun dan bertobat kepada-Nya dan berjanji tidak akan mengerjakan perbuatan-perbuatan dosa itu lagi.\nDinamakan pula \u201cal-Mu'min\u201d (Orang yang beriman), karena terdapat perkataan \u201cmu'min\u201d dalam surah ini, yaitu pada ayat 28. Dalam ayat 28 ini diterangkan bahwa salah seorang dari kaum Fir\u2018aun telah beriman kepada Nabi Musa dengan menyembunyikan imannya kepada kaumnya, setelah mendengar keterangan dan melihat mukjizat yang ditujukan oleh Nabi Musa. Hati kecil orang ini mencela Fir\u2018aun dan kaumnya yang tidak mau beriman kepada Nabi Musa, sekalipun telah dikemukakan keterangan dan mukjizat yang diminta mereka.\nSurah ini juga dinamai \u201ca\u1e6d-\u1e6caul\u201d (Yang mempunyai Karunia) karena perkataan tersebut terdapat pada ayat 3.\n\nPokok-pokok Isinya:\n1. \tKeimanan:\nSifat-sifat malaikat yang memiliki \u2018Arasy dan yang berada di sekitarnya; dalil-dalil yang menunjukkan kekuasaan Allah, sifat-sifat Allah yang menunjukkan kebesaran dan keagungan-Nya, ilmu Allah meliputi segala sesuatu; bukti-bukti yang menunjukkan adanya hari kebangkitan.\n2. \tKisah:\n\tKisah Musa dengan Fir\u2018aun.\n3. \tLain-lain:\nAl-Qur\u2019an al-Karim dan sikap orang-orang mukmin dan orang-orang kafir terhadapnya; permohonan orang-orang kafir supaya dikeluarkan dari neraka; peringatan kepada orang-orang musyrik tentang kedahsyatan hari Kiamat, anjuran bersabar dalam menghadapi kaum musyrikin; nikmat-nikmat Allah yang terdapat di daratan dan lautan; janji Rasulullah saw bahwa orang-orang mukmin akan menang terhadap musuhnya.\nHUBUNGAN SURAH AZ-ZUMAR DENGAN\nSURAH G\u0100FIR\n\n1. \tSurah az-Zumar menerangkan bagaimana nasib orang-orang mukmin yang bertakwa kepada Allah dan mengikuti ajaran yang dibawa rasul-Nya di akhirat nanti. Juga dijelaskan nasib orang-orang kafir di akhirat, di mana ketika mereka di dunia selalu mengingkari nabi yang diutus kepada mereka. Surah G\u0101fir menerangkan bahwa Allah mengampuni segala dosa hamba-Nya yang mau kembali mengikuti jalan yang benar. Hal ini merupakan ajakan Allah kepada orang-orang kafir agar mereka bertobat dan beriman.\n2. \tKeduanya mengutarakan hal-hal yang berhubungan dengan keadaan hari Kiamat, keadaan di Padang Mahsyar, surga, dan neraka.\n ",
        "outro_surah": null,
        "munasabah_prev_surah": "HUBUNGAN SURAH AZ-ZUMAR DENGAN\nSURAH G\u0100FIR\n\n1. \tSurah az-Zumar menerangkan bagaimana nasib orang-orang mukmin yang bertakwa kepada Allah dan mengikuti ajaran yang dibawa rasul-Nya di akhirat nanti. Juga dijelaskan nasib orang-orang kafir di akhirat, di mana ketika mereka di dunia selalu mengingkari nabi yang diutus kepada mereka. Surah G\u0101fir menerangkan bahwa Allah mengampuni segala dosa hamba-Nya yang mau kembali mengikuti jalan yang benar. Hal ini merupakan ajakan Allah kepada orang-orang kafir agar mereka bertobat dan beriman.\n2. \tKeduanya mengutarakan hal-hal yang berhubungan dengan keadaan hari Kiamat, keadaan di Padang Mahsyar, surga, dan neraka.",
        "munasabah_prev_theme": "Pada ayat-ayat yang lalu, Allah menerangkan bahwa orang-orang mukmin di akhirat akan memperoleh berbagai fasilitas dan kemudahan, di antaranya akan memperoleh doa dan permohonan ampunan dari para malaikat. Pada ayat-ayat berikut ini, Allah menerangkan bahwa orang-orang kafir pada hari Kiamat mengakui dosa-dosa mereka, dan meminta agar dikembalikan ke dunia untuk berbuat baik. Kemudian Allah menerangkan kesempurnaan kekuasaan dan kebijaksanaan-Nya, pemberian rezeki kepada makhluk-Nya, dan sesungguhnya Dia tidak memerlukan sesuatu yang lain daripada-Nya. Juga dijelaskan bahwa Dia menurunkan wahyu kepada hamba-Nya yang dikehendaki untuk memberi peringatan dengan azab nanti di hari Kiamat.\n",
        "theme_group": "ORANG KAFIR INGIN KELUAR DARI NERAKA\n",
        "kosakata": "1.\tMaqt All\u0101h \u0645\u064e\u0642\u0652\u062a\u064f \u0627\u0644\u0644\u0647 (G\u0101fir/40: 10)\nKata yang terambil dari maqata-yamqutu-maqtan. Akar katanya (mim-qaf-ta\u2019) yang berarti jelek, buruk. Pada zaman Jahiliah menikahi istri bapak disebut dengan \u201cnikah maqt\u201d, karena hal ini sangat dibenci dan dimurkai Allah. Al-Asfahan\u012b mengartikan al-maqt dengan kebencian yang sangat terhadap orang yang melakukan sesuatu keburukan.\n2.\tYaum al-Tal\u0101q \u064a\u064e\u0648\u0652\u0645\u064e \u0627\u0644\u062a\u0651\u064e\u0644\u064e\u0627\u0642 (G\u0101fir/40: 15)\nYaum berarti hari. Tal\u0101q bentuk ma\u1e63dar dari tal\u0101q\u0101-yatal\u0101qi-tal\u0101qiyan, mengikuti wazan taf\u0101\u2018ala. Yang mempunyai arti adanya dua orang yang bekerja sama dalam satu hal. Jika kemasukan lam ta\u2018rif dikatakan at-tal\u0101qi. Kemudian ya\u2019 nya dibuang, jadinya at-tal\u0101q. Kata ini  berakar pada (lam-qaf-huruf illat ya\u2019) yang berarti bertemu. Sehingga makna at-tal\u0101q adalah saling bertemu. Maksudnya adalah hari Kiamat. Al-Qur\u2019an tidak menyebutkan pertemuan antara siapa dan siapa. Oleh sebab itu, para mufasir mempunyai lahan untuk menyatakan pendapatnya. Menurut mereka, sebagaimana kata al-Khazin, pertemuan itu antara penghuni langit dan bumi, atau antara Allah dan makhluk-Nya, atau yang menyembah dan yang disembah, atau seseorang dengan amalnya, atau yang menzalimi dan yang dizalimi, dan semua makna tersebut memungkinkan.\n3.\tB\u0101riz\u016bn \u0628\u064e\u0627\u0631\u0650\u0632\u064f\u0648\u0652\u0646\u064e (G\u0101fir/40: 16)\nBentuk isim fa\u2018il yang fi\u2018il ma\u1e0dinya baraza. Akar katanya (ba\u2019-ra\u2019-za\u2019) yang artinya keluar, mencuat, tampak dan lain sebagainya. Kata al-bar\u0101z artinya tanah lapang karena orang yang ada di sini akan tampak. Tabarraza artinya buang air besar di tanah lapang. Pada ayat ini digambarkan bahwa manusia pada hari Kiamat akan keluar dari kuburnya masing-masing dalam keadaan terbuka jelas bagi siapapun, tidak tertutupi oleh suatu apa pun.",
        "sabab_nuzul": null,
        "conclusion": null
    }
}