{
    "id": 4148,
    "surah_id": 40,
    "ayah": 15,
    "page": 468,
    "quarter_hizb": 47.5,
    "juz": 24,
    "manzil": 6,
    "arabic": "\u0631\u064e\u0641\u0650\u064a\u0652\u0639\u064f \u0627\u0644\u062f\u0651\u064e\u0631\u064e\u062c\u0670\u062a\u0650 \u0630\u064f\u0648 \u0627\u0644\u0652\u0639\u064e\u0631\u0652\u0634\u0650\u06da \u064a\u064f\u0644\u0652\u0642\u0650\u0649 \u0627\u0644\u0631\u0651\u064f\u0648\u0652\u062d\u064e \u0645\u0650\u0646\u0652 \u0627\u064e\u0645\u0652\u0631\u0650\u0647\u0656 \u0639\u064e\u0644\u0670\u0649 \u0645\u064e\u0646\u0652 \u064a\u0651\u064e\u0634\u064e\u0627\u06e4\u0621\u064f \u0645\u0650\u0646\u0652 \u0639\u0650\u0628\u064e\u0627\u062f\u0650\u0647\u0656 \u0644\u0650\u064a\u064f\u0646\u0652\u0630\u0650\u0631\u064e \u064a\u064e\u0648\u0652\u0645\u064e \u0627\u0644\u062a\u0651\u064e\u0644\u064e\u0627\u0642\u0650\u06d9",
    "latin": "Raf\u012b\u2018ud-daraj\u0101ti \u017cul-\u2018arsy(i), yulqir-r\u016b\u1e25a min amrih\u012b \u2018al\u0101 may yasy\u0101'u min \u2018ib\u0101dih\u012b liyun\u017cira yaumat-tal\u0101q(i).",
    "translation": "(Dialah) Yang Maha Tinggi derajat-Nya, yang memiliki \u02bbArasy, yang menurunkan wahyu dengan perintah-Nya kepada siapa yang Dia kehendaki di antara hamba-hamba-Nya agar memperingatkan (manusia) tentang hari pertemuan (hari Kiamat).",
    "no_footnote": null,
    "footnotes": null,
    "surah": {
        "id": 40,
        "arabic": " \u063a\u0627\u0641\u0631",
        "latin": "G\u0101fir ",
        "transliteration": "Gafir",
        "translation": "Maha Pengampun",
        "num_ayah": 85,
        "page": 467,
        "location": "Makkiyah"
    },
    "tafsir": {
        "wajiz": "Yakinlah dengan seyakin-yakinnya bahwa Dialah Yang Mahatinggi derajat-Nya, dan Dia pula yang memiliki \u2018Arsy, dan yang menurunkan wahyu yakni Al-Qur\u2019an dengan perintah-Nya kepada siapa yang Dia kehendaki di antara hamba-hamba-Nya untuk menjadi rasul-Nya, agar rasul itu memperingatkan manusia tentang hari pertemuan, yaitu hari Kiamat.",
        "tahlili": "Pada ayat ini, Allah menyebutkan tiga kemuliaan dan keagungan-Nya, sesudah menyebutkan pada ayat sebelumnya tanda-tanda kebesaran dan keesaan-Nya.\na. \tMahatinggi derajat-Nya. Allah jauh lebih Tinggi dan lebih Agung dari segala yang ada. Sebab, segala sesuatu yang selain Allah berhajat kepada-Nya dan tidak sebaliknya. Dia itu azali dan abadi, tidak mempunyai permulaan dan tidak mempunyai akhir. Dia mengetahui segala sesuatu, sebagaimana dijelaskan dalam Al-Qur\u2019an:\n\u06de \u0648\u064e\u0639\u0650\u0646\u0652\u062f\u064e\u0647\u0657 \u0645\u064e\u0641\u064e\u0627\u062a\u0650\u062d\u064f \u0627\u0644\u0652\u063a\u064e\u064a\u0652\u0628\u0650 \u0644\u064e\u0627 \u064a\u064e\u0639\u0652\u0644\u064e\u0645\u064f\u0647\u064e\u0627\u0653 \u0627\u0650\u0644\u0651\u064e\u0627 \u0647\u064f\u0648\u064e\u06d7 \nDan kunci-kunci semua yang gaib ada pada-Nya; tidak ada yang mengetahui selain Dia. (al-An\u2018\u0101m/6: 59)\n\nb. \tMempunyai \u2018Arasy. Allah memiliki \u2018Arasy dan Dia yang mengatur-Nya. Dia-lah yang menguasai alam benda dan yang bukan benda.\nc. \tMenurunkan wahyu. Allah menurunkan wahyu-Nya berisi perintah, baik berupa suruhan atau pun larangan kepada yang dikehendaki-Nya dan menyampaikan hukum-hukum-Nya kepada yang dikehendaki-Nya. Hal seperti itu dinyatakan pula pada ayat lain sebagaimana firman Allah:\n\u064a\u064f\u0646\u064e\u0632\u0651\u0650\u0644\u064f \u0627\u0644\u0652\u0645\u064e\u0644\u0670\u06e4\u0649\u0655\u0650\u0643\u064e\u0629\u064e \u0628\u0650\u0627\u0644\u0631\u0651\u064f\u0648\u0652\u062d\u0650 \u0645\u0650\u0646\u0652 \u0627\u064e\u0645\u0652\u0631\u0650\u0647\u0656 \u0639\u064e\u0644\u0670\u0649 \u0645\u064e\u0646\u0652 \u064a\u0651\u064e\u0634\u064e\u0627\u06e4\u0621\u064f \u0645\u0650\u0646\u0652 \u0639\u0650\u0628\u064e\u0627\u062f\u0650\u0647\u0656\u0653 \u0627\u064e\u0646\u0652 \u0627\u064e\u0646\u0652\u0630\u0650\u0631\u064f\u0648\u0652\u0653\u0627 \u0627\u064e\u0646\u0651\u064e\u0647\u0657 \u0644\u064e\u0627\u0653 \u0627\u0650\u0644\u0670\u0647\u064e \u0627\u0650\u0644\u0651\u064e\u0627\u0653 \u0627\u064e\u0646\u064e\u0627\u06e0 \u0641\u064e\u0627\u062a\u0651\u064e\u0642\u064f\u0648\u0652\u0646\u0650 \u0662 (\u0627\u0644\u0646\u062d\u0644)\nDia menurunkan para malaikat membawa wahyu dengan perintah-Nya kepada siapa yang Dia kehendaki di antara hamba-hamba-Nya, (dengan berfirman) yaitu, \u201cPeringatkanlah (hamba-hamba-Ku), bahwa tidak ada tuhan selain Aku, maka hendaklah kamu bertakwa kepada-Ku.\u201d (an-Na\u1e25l/16: 2)\n\n\tDan firman-Nya:\n\u0648\u064e\u0627\u0650\u0646\u0651\u064e\u0647\u0657 \u0644\u064e\u062a\u064e\u0646\u0652\u0632\u0650\u064a\u0652\u0644\u064f \u0631\u064e\u0628\u0651\u0650 \u0627\u0644\u0652\u0639\u0670\u0644\u064e\u0645\u0650\u064a\u0652\u0646\u064e \u06d7 \u0661\u0669\u0662 \u0646\u064e\u0632\u064e\u0644\u064e \u0628\u0650\u0647\u0650 \u0627\u0644\u0631\u0651\u064f\u0648\u0652\u062d\u064f \u0627\u0644\u0652\u0627\u064e\u0645\u0650\u064a\u0652\u0646\u064f \u06d9 \u0661\u0669\u0663 \u0639\u064e\u0644\u0670\u0649 \u0642\u064e\u0644\u0652\u0628\u0650\u0643\u064e \u0644\u0650\u062a\u064e\u0643\u064f\u0648\u0652\u0646\u064e \u0645\u0650\u0646\u064e \u0627\u0644\u0652\u0645\u064f\u0646\u0652\u0630\u0650\u0631\u0650\u064a\u0652\u0646\u064e \u06d9 \u0661\u0669\u0664 (\u0627\u0644\u0634\u0639\u0631\u0627\u06e4\u0621)\nDan sungguh, (Al-Qur\u2019an) ini benar-benar diturunkan oleh Tuhan seluruh alam, Yang dibawa turun oleh Ar-R\u016b\u1e24 Al-Am\u012bn (Jibril), ke dalam hatimu (Muhammad) agar engkau termasuk orang yang memberi peringatan. (asy-Syu\u2018ar\u0101'/26: 192-194) \n\nAllah menurunkan wahyu untuk memperingatkan manusia tentang adanya hari Kiamat, yaitu ketika yang menyembah dengan yang disembah bertemu, membereskan segala sesuatunya, segala sangkut pautnya yang belum selesai di dunia.",
        "intro_surah": "Surah G\u0101fir terdiri atas 85 ayat, termasuk kelompok surah Makkiyyah, diturunkan sesudah Surah az-Zumar. Dinamai \u201cG\u0101fir\u201d (yang mengampuni) karena ada hubungannya dengan kalimat \u201cG\u0101fir\u201d yang terdapat pada ayat 3 surah ini. Ayat ini mengingatkan bahwa \u201cMaha Pengampun\u201d dan \u201cMaha Penerima Taubat\u201d adalah termasuk dari sifat-sifat Allah. Oleh karena itu, hamba-hamba Allah tidak perlu terlalu risau terhadap perbuatan-perbuatan dosa yang telah terlanjur mereka lakukan. Semuanya itu akan diampuni Allah asal benar-benar memohon ampun dan bertobat kepada-Nya dan berjanji tidak akan mengerjakan perbuatan-perbuatan dosa itu lagi.\nDinamakan pula \u201cal-Mu'min\u201d (Orang yang beriman), karena terdapat perkataan \u201cmu'min\u201d dalam surah ini, yaitu pada ayat 28. Dalam ayat 28 ini diterangkan bahwa salah seorang dari kaum Fir\u2018aun telah beriman kepada Nabi Musa dengan menyembunyikan imannya kepada kaumnya, setelah mendengar keterangan dan melihat mukjizat yang ditujukan oleh Nabi Musa. Hati kecil orang ini mencela Fir\u2018aun dan kaumnya yang tidak mau beriman kepada Nabi Musa, sekalipun telah dikemukakan keterangan dan mukjizat yang diminta mereka.\nSurah ini juga dinamai \u201ca\u1e6d-\u1e6caul\u201d (Yang mempunyai Karunia) karena perkataan tersebut terdapat pada ayat 3.\n\nPokok-pokok Isinya:\n1. \tKeimanan:\nSifat-sifat malaikat yang memiliki \u2018Arasy dan yang berada di sekitarnya; dalil-dalil yang menunjukkan kekuasaan Allah, sifat-sifat Allah yang menunjukkan kebesaran dan keagungan-Nya, ilmu Allah meliputi segala sesuatu; bukti-bukti yang menunjukkan adanya hari kebangkitan.\n2. \tKisah:\n\tKisah Musa dengan Fir\u2018aun.\n3. \tLain-lain:\nAl-Qur\u2019an al-Karim dan sikap orang-orang mukmin dan orang-orang kafir terhadapnya; permohonan orang-orang kafir supaya dikeluarkan dari neraka; peringatan kepada orang-orang musyrik tentang kedahsyatan hari Kiamat, anjuran bersabar dalam menghadapi kaum musyrikin; nikmat-nikmat Allah yang terdapat di daratan dan lautan; janji Rasulullah saw bahwa orang-orang mukmin akan menang terhadap musuhnya.\nHUBUNGAN SURAH AZ-ZUMAR DENGAN\nSURAH G\u0100FIR\n\n1. \tSurah az-Zumar menerangkan bagaimana nasib orang-orang mukmin yang bertakwa kepada Allah dan mengikuti ajaran yang dibawa rasul-Nya di akhirat nanti. Juga dijelaskan nasib orang-orang kafir di akhirat, di mana ketika mereka di dunia selalu mengingkari nabi yang diutus kepada mereka. Surah G\u0101fir menerangkan bahwa Allah mengampuni segala dosa hamba-Nya yang mau kembali mengikuti jalan yang benar. Hal ini merupakan ajakan Allah kepada orang-orang kafir agar mereka bertobat dan beriman.\n2. \tKeduanya mengutarakan hal-hal yang berhubungan dengan keadaan hari Kiamat, keadaan di Padang Mahsyar, surga, dan neraka.\n ",
        "outro_surah": null,
        "munasabah_prev_surah": "HUBUNGAN SURAH AZ-ZUMAR DENGAN\nSURAH G\u0100FIR\n\n1. \tSurah az-Zumar menerangkan bagaimana nasib orang-orang mukmin yang bertakwa kepada Allah dan mengikuti ajaran yang dibawa rasul-Nya di akhirat nanti. Juga dijelaskan nasib orang-orang kafir di akhirat, di mana ketika mereka di dunia selalu mengingkari nabi yang diutus kepada mereka. Surah G\u0101fir menerangkan bahwa Allah mengampuni segala dosa hamba-Nya yang mau kembali mengikuti jalan yang benar. Hal ini merupakan ajakan Allah kepada orang-orang kafir agar mereka bertobat dan beriman.\n2. \tKeduanya mengutarakan hal-hal yang berhubungan dengan keadaan hari Kiamat, keadaan di Padang Mahsyar, surga, dan neraka.",
        "munasabah_prev_theme": "Pada ayat-ayat yang lalu, Allah menerangkan bahwa orang-orang mukmin di akhirat akan memperoleh berbagai fasilitas dan kemudahan, di antaranya akan memperoleh doa dan permohonan ampunan dari para malaikat. Pada ayat-ayat berikut ini, Allah menerangkan bahwa orang-orang kafir pada hari Kiamat mengakui dosa-dosa mereka, dan meminta agar dikembalikan ke dunia untuk berbuat baik. Kemudian Allah menerangkan kesempurnaan kekuasaan dan kebijaksanaan-Nya, pemberian rezeki kepada makhluk-Nya, dan sesungguhnya Dia tidak memerlukan sesuatu yang lain daripada-Nya. Juga dijelaskan bahwa Dia menurunkan wahyu kepada hamba-Nya yang dikehendaki untuk memberi peringatan dengan azab nanti di hari Kiamat.\n",
        "theme_group": "ORANG KAFIR INGIN KELUAR DARI NERAKA\n",
        "kosakata": "1.\tMaqt All\u0101h \u0645\u064e\u0642\u0652\u062a\u064f \u0627\u0644\u0644\u0647 (G\u0101fir/40: 10)\nKata yang terambil dari maqata-yamqutu-maqtan. Akar katanya (mim-qaf-ta\u2019) yang berarti jelek, buruk. Pada zaman Jahiliah menikahi istri bapak disebut dengan \u201cnikah maqt\u201d, karena hal ini sangat dibenci dan dimurkai Allah. Al-Asfahan\u012b mengartikan al-maqt dengan kebencian yang sangat terhadap orang yang melakukan sesuatu keburukan.\n2.\tYaum al-Tal\u0101q \u064a\u064e\u0648\u0652\u0645\u064e \u0627\u0644\u062a\u0651\u064e\u0644\u064e\u0627\u0642 (G\u0101fir/40: 15)\nYaum berarti hari. Tal\u0101q bentuk ma\u1e63dar dari tal\u0101q\u0101-yatal\u0101qi-tal\u0101qiyan, mengikuti wazan taf\u0101\u2018ala. Yang mempunyai arti adanya dua orang yang bekerja sama dalam satu hal. Jika kemasukan lam ta\u2018rif dikatakan at-tal\u0101qi. Kemudian ya\u2019 nya dibuang, jadinya at-tal\u0101q. Kata ini  berakar pada (lam-qaf-huruf illat ya\u2019) yang berarti bertemu. Sehingga makna at-tal\u0101q adalah saling bertemu. Maksudnya adalah hari Kiamat. Al-Qur\u2019an tidak menyebutkan pertemuan antara siapa dan siapa. Oleh sebab itu, para mufasir mempunyai lahan untuk menyatakan pendapatnya. Menurut mereka, sebagaimana kata al-Khazin, pertemuan itu antara penghuni langit dan bumi, atau antara Allah dan makhluk-Nya, atau yang menyembah dan yang disembah, atau seseorang dengan amalnya, atau yang menzalimi dan yang dizalimi, dan semua makna tersebut memungkinkan.\n3.\tB\u0101riz\u016bn \u0628\u064e\u0627\u0631\u0650\u0632\u064f\u0648\u0652\u0646\u064e (G\u0101fir/40: 16)\nBentuk isim fa\u2018il yang fi\u2018il ma\u1e0dinya baraza. Akar katanya (ba\u2019-ra\u2019-za\u2019) yang artinya keluar, mencuat, tampak dan lain sebagainya. Kata al-bar\u0101z artinya tanah lapang karena orang yang ada di sini akan tampak. Tabarraza artinya buang air besar di tanah lapang. Pada ayat ini digambarkan bahwa manusia pada hari Kiamat akan keluar dari kuburnya masing-masing dalam keadaan terbuka jelas bagi siapapun, tidak tertutupi oleh suatu apa pun.",
        "sabab_nuzul": null,
        "conclusion": null
    }
}