{
    "id": 4272,
    "surah_id": 41,
    "ayah": 54,
    "page": 482,
    "quarter_hizb": 49,
    "juz": 25,
    "manzil": 6,
    "arabic": "\u0627\u064e\u0644\u064e\u0627\u0653 \u0627\u0650\u0646\u0651\u064e\u0647\u064f\u0645\u0652  \u0641\u0650\u064a\u0652 \u0645\u0650\u0631\u0652\u064a\u064e\u0629\u064d \u0645\u0651\u0650\u0646\u0652 \u0644\u0651\u0650\u0642\u064e\u0627\u06e4\u0621\u0650 \u0631\u064e\u0628\u0651\u0650\u0647\u0650\u0645\u0652 \u06d7 \u0627\u064e\u0644\u064e\u0627\u0653 \u0627\u0650\u0646\u0651\u064e\u0647\u0657 \u0628\u0650\u0643\u064f\u0644\u0651\u0650 \u0634\u064e\u064a\u0652\u0621\u064d \u0645\u0651\u064f\u062d\u0650\u064a\u0652\u0637\u064c \u08d6",
    "latin": "Al\u0101 innahum f\u012b miryatim mil liq\u0101'i rabbihim, al\u0101 innah\u016b bikulli syai'im mu\u1e25\u012b\u1e6d(un).",
    "translation": "Ketahuilah, sesungguhnya mereka dalam keraguan tentang pertemuan dengan Tuhan mereka. Ketahuilah, sesungguhnya Dia Maha Meliputi segala sesuatu.",
    "no_footnote": null,
    "footnotes": null,
    "surah": {
        "id": 41,
        "arabic": " \u0641\u0635\u0651\u0644\u062a",
        "latin": "Fu\u1e63\u1e63ilat",
        "transliteration": "Fussilat",
        "translation": "Dijelaskan",
        "num_ayah": 54,
        "page": 477,
        "location": "Makkiyah"
    },
    "tafsir": {
        "wajiz": "Allah lalu mengingatkan Nabi Muhammad dengan menyatakan, \u201cIngatlah, sesungguhnya mereka dalam keraguan, yakni tidak meyakini tentang pertemuan dengan Tuhan mereka kelak di hari Kiamat. Ingatlah pula, sesungguhnya Dia Maha Meliputi segala sesuatu dengan ilmu dan kekuasaan-Nya.\u201d",
        "tahlili": "Ayat ini menerangkan keragu-raguan mereka tentang adanya hari kebangkitan dan hari pembalasan, karena menurut mereka, mustahil orang yang telah mati dapat hidup kembali dan mustahil pula tubuh-tubuh yang telah hancur-luluh bersama tanah itu dapat dikumpulkan, dikembalikan seperti semula dan dapat hidup kembali. Karena keragu-raguan itulah mereka menjadi tidak mampu memperhatikan kebenaran Al-Qur\u2019an dan kerasulan Muhammad saw.\nPada akhir ayat ini Allah memperingatkan orang-orang musyrik dengan peringatan yang keras bahwa Dia Maha Mengetahui segala sesuatu. Tidak ada satu pun yang luput dari pengetahuan-Nya. Karena itu Dia akan memberikan balasan dengan seadil-adilnya kepada hamba-hamba-Nya.\n",
        "intro_surah": "Surah Fu\u1e63\u1e63ilat terdiri dari 54 ayat dan termasuk kelompok surah-surah Makkiyyah, diturunkan sesudah Surah G\u0101fir.\n Dinamai \u201cFu\u1e63\u1e63ilat\u201d karena ada hubungannya dengan perkataan \u201cFu\u1e63\u1e63ilat\u201d yang terdapat pada permulaan surah ini. Maksudnya adalah ayat-ayat diperinci dengan jelas tentang hukum-hukum, keimanan, janji dan ancaman, budi pekerti, kisah, dan sebagainya.\nDinamai juga dengan \u201c\u1e24\u0101 M\u012bm as-Sajdah\u201d karena surah ini dimulai dengan \u201c\u1e24\u0101 M\u012bm\u201d dan dalam surah ini terdapat ayat Sajdah.\n\nPokok-pokok Isinya:\n1. \tKeimanan:\nAl-Qur\u2019an dan sikap orang-orang musyrik terhadapnya; kejadian-kejadian langit dan bumi dan apa yang pada keduanya membuktikan adanya Allah. Semua yang terjadi dalam alam semesta tidak lepas dari pengetahuan Allah.\n2. \tLain-lain:\nHikmah penciptaan gunung-gunung; anggota tubuh tiap-tiap orang menjadi saksi terhadap dirinya pada hari Kiamat, azab yang ditimpakan kepada kaum \u2018Ad dan Samud; permohonan orang-orang kafir agar dikembalikan ke dunia untuk mengerjakan amal-amal saleh; berita gembira dari malaikat kepada orang-orang yang beriman; anjuran menghadapi orang-orang kafir secara baik-baik; ancaman terhadap orang-orang yang mengingkari keesaan Allah, sifat-sifat Al-Qur\u2019an Al-Karim; manusia dan wataknya.\n",
        "outro_surah": "Surah Fu\u1e63\u1e63ilat mengutarakan hal-hal yang berhubungan dengan Al-Qur\u2019an dan sikap orang-orang musyrik, mengutarakan kekuasaan Allah di langit dan di bumi; ancaman Allah kepada orang-orang musyrik di dunia dan di akhirat nanti. Kemudian diterangkan keadaan orang-orang yang selalu beribadah kepada Tuhannya dan beberapa tabiat manusia pada umumnya.",
        "munasabah_prev_surah": "HUBUNGAN SURAH G\u0100FIR DENGAN\nSURAH FU\u1e62\u1e62ILAT\n\n1. \tKedua surah memberikan peringatan kepada orang-orang musyrik Mekah yang mengingkari Muhammad saw.\n2. \tKeduanya dimulai dengan menyebut sifat-sifat Al-Qur\u2019an.",
        "munasabah_prev_theme": "Pada ayat-ayat yang lalu Allah swt menerangkan bahwa manusia kebanyakan tidak mempunyai keimanan yang kuat. Jika mereka memperoleh nikmat, mereka lupa dan ingkar kepada Allah; sebaliknya, jika mereka ditimpa musibah, mereka baru berdoa kepada Allah. Pada ayat-ayat berikut, Allah menyuruh orang-orang yang masih mengingkari kenabian Muhammad saw agar mereka merenungkan dan memikirkan bukti-bukti kebenaran Al-Qur\u2019an sebagai kitab yang berasal dari Tuhan pencipta seluruh alam. Mereka perlu melihat tanda-tanda kekuasaan Allah di alam yang terbentang luas maupun pada diri mereka sendiri, sehingga dapat meyakini keesaan Allah dan mereka terhindar dari kesesatan. Dengan demikian mereka akan beriman kepada Allah dan Rasul-Nya serta percaya kepada adanya hari Kiamat dan hari kebangkitan.",
        "theme_group": "\nPERLUNYA MENGAMATI TANDA-TANDA\nKEKUASAAN ALLAH DI ALAM RAYA DAN DIRI MANUSIA",
        "kosakata": "1. Al-\u0100f\u0101q \nKata al-\u0101f\u0101q dalam Al-Qur\u2019an disebut sekali, dalam bentuk plural (jamak). Mufradnya (al-ufuq) disebutkan dua kali, yaitu dalam Surah an-Najm/53: 7 dan Surah at-Takw\u012br/81: 23. Dalam literatur tafsir, al-\u0101f\u0101q pada Surah Fu\u1e63\u1e63ilat/41: 53 ini sekurangnya mengandung lima macam pengertian Pertama, yang dimaksud adalah seantero bumi; kedua, maksudnya semua kejadian atas takdir Allah yang terjadi pada umat terdahulu; ketiga, menjaga planet bumi dalam keadaan mengorbit di angkasa dalam keadaan stabil; keempat, adalah ayat-ayat yang terdapat di langit, seperti matahari, bulan, dan bintang-bintang; kelima, jejak sejarah para pendusta agama pada masa-masa yang lalu. Tetapi yang paling umum dipahami adalah seantero alam. Dengan pengertian yang terakhir berarti bahwa bukti-bukti kebesaran dan kekuasaan Tuhan akan ditampakkan-Nya, antara lain, di seantero alam ciptaan Allah, baik yang dekat maupun jauh.\n2. Mu\u1e25\u012b\u1e6d \u0645\u064f\u062d\u0650\u064a\u0652\u0637 (Fu\u1e63\u1e63ilat/41: 54)\nPada akhir ayat sebelumnya ditegaskan bahwa Tuhan menjadi saksi atas segala sesuatu. Pada akhir ayat 54 ini disebutkan Mu\u1e25\u012b\u1e6d yang menunjuk kepada Zat Tuhan. Kata tersebut berasal dari a\u1e25\u0101\u1e6da-ya\u1e25\u012b\u1e6du-mu\u1e25\u012b\u1e6dan yang artinya \u201cmeliputi\u201d, atau menjangkau. Kalau Tuhan meliputi segala sesuatu, maka itu berarti ia menjangkau dan mengetahui segala sesuatu. Tidak ada suatu apa pun yang luput dari pengetahuan dan jangkauan Tuhan. Kalau pada ayat sebelumnya (ayat 53) Tuhan menjadi saksi atas segala sesuatu, maka pada ujung ayat terakhir surah ini lebih dikuatkan bahwa hal tersebut karena Tuhan memang meliputi atau menjangkau segala sesuatu. Tidak satu hal pun yang lepas dari liputan Tuhan.\n",
        "sabab_nuzul": null,
        "conclusion": "1. \tAllah memerintahkan kepada Nabi Muhammad saw agar mengatakan kepada kaum musyrikin yang meragukan kebenaran Al-Qur\u2019an, mengapa mereka masih juga ingkar, padahal keingkaran itulah yang akan membawa mereka kepada kesesatan yang lebih jauh lagi dan akibatnya mereka akan masuk neraka Jahanam.\n2. \tAllah akan memperlihatkan kekuasaan-Nya kepada kaum musyrikin dengan bukti-bukti yang nyata yang terdapat pada segenap penjuru dunia dan pada diri mereka sendiri, seperti kemenangan kaum Muslimin dalam Perang Badar. Namun, mereka tetap saja ingkar dan membangkang.\n3. \tHal tersebut di atas karena mereka tidak mau percaya kepada hari kebangkitan walaupun berbagai macam dalil dan hujjah yang kuat telah dikemukakan kepada mereka. Allah Yang Maha Mengetahui segala sesuatu akan memberikan balasan yang setimpal terhadap mereka di akhirat."
    }
}