{
    "id": 4219,
    "surah_id": 41,
    "ayah": 1,
    "page": 477,
    "quarter_hizb": 48.25,
    "juz": 24,
    "manzil": 6,
    "arabic": " \u062d\u0670\u0645\u06e4  \u06da ",
    "latin": "\u1e24\u0101 m\u012bm.",
    "translation": "\u1e24a M\u012bm.",
    "no_footnote": null,
    "footnotes": null,
    "surah": {
        "id": 41,
        "arabic": " \u0641\u0635\u0651\u0644\u062a",
        "latin": "Fu\u1e63\u1e63ilat",
        "transliteration": "Fussilat",
        "translation": "Dijelaskan",
        "num_ayah": 54,
        "page": 477,
        "location": "Makkiyah"
    },
    "tafsir": {
        "wajiz": "Ha Mim.Hanya Allah saja Yang Maha Tahu tentang apa maksudnya.",
        "tahlili": "Penjelasan tentang arti \u201c\u1e24\u0101 M\u012bm\u201d dapat dilihat pada Al-Qur\u2019an dan Tafsirnya jilid I, tentang keterangan arti dari faw\u0101ti\u1e25 as-suwar.",
        "intro_surah": "Surah Fu\u1e63\u1e63ilat terdiri dari 54 ayat dan termasuk kelompok surah-surah Makkiyyah, diturunkan sesudah Surah G\u0101fir.\n Dinamai \u201cFu\u1e63\u1e63ilat\u201d karena ada hubungannya dengan perkataan \u201cFu\u1e63\u1e63ilat\u201d yang terdapat pada permulaan surah ini. Maksudnya adalah ayat-ayat diperinci dengan jelas tentang hukum-hukum, keimanan, janji dan ancaman, budi pekerti, kisah, dan sebagainya.\nDinamai juga dengan \u201c\u1e24\u0101 M\u012bm as-Sajdah\u201d karena surah ini dimulai dengan \u201c\u1e24\u0101 M\u012bm\u201d dan dalam surah ini terdapat ayat Sajdah.\n\nPokok-pokok Isinya:\n1. \tKeimanan:\nAl-Qur\u2019an dan sikap orang-orang musyrik terhadapnya; kejadian-kejadian langit dan bumi dan apa yang pada keduanya membuktikan adanya Allah. Semua yang terjadi dalam alam semesta tidak lepas dari pengetahuan Allah.\n2. \tLain-lain:\nHikmah penciptaan gunung-gunung; anggota tubuh tiap-tiap orang menjadi saksi terhadap dirinya pada hari Kiamat, azab yang ditimpakan kepada kaum \u2018Ad dan Samud; permohonan orang-orang kafir agar dikembalikan ke dunia untuk mengerjakan amal-amal saleh; berita gembira dari malaikat kepada orang-orang yang beriman; anjuran menghadapi orang-orang kafir secara baik-baik; ancaman terhadap orang-orang yang mengingkari keesaan Allah, sifat-sifat Al-Qur\u2019an Al-Karim; manusia dan wataknya.\n",
        "outro_surah": null,
        "munasabah_prev_surah": "HUBUNGAN SURAH G\u0100FIR DENGAN\nSURAH FU\u1e62\u1e62ILAT\n\n1. \tKedua surah memberikan peringatan kepada orang-orang musyrik Mekah yang mengingkari Muhammad saw.\n2. \tKeduanya dimulai dengan menyebut sifat-sifat Al-Qur\u2019an.",
        "munasabah_prev_theme": "Di akhir Surah al-Mu\u2019min diterangkan tentang malapetaka yang menimpa umat terdahulu karena keingkaran mereka terhadap risalah yang dibawa para rasul. Pada awal surah ini diterangkan bahwa Al-Qur\u2019an membawa kabar gembira dan menjadi inti risalah Nabi Muhammad berasal dari Allah, namun orang-orang kafir tetap mengingkarinya.",
        "theme_group": "\nAL-QUR\u2019AN PETUNJUK BAGI ORANG YANG MAU\nMEMAHAMI DAN MENGAMALKANNYA",
        "kosakata": "Kosakata: Fu\u1e63\u1e63ilat \u0641\u064f\u0635\u0651\u0650\u0644\u064e\u062a\u0652 (Fu\u1e63\u1e63ilat/41: 3)\nFu\u1e63\u1e63ilat adalah fi\u2018il m\u0101\u1e0d\u012b mabni majh\u016bl, yaitu kata kerja untuk waktu lampau (sudah terjadi) dalam bentuk pasif. Kata fu\u1e63\u1e63ilat artinya: telah dirinci, diterangkan, dijelaskan. Pada ayat 3 ini, Allah menerangkan bahwa Al-Qur\u2019an itu adalah sebuah kitab penting untuk menjadi pedoman hidup bagi manusia untuk mencapai kebahagiaan dunia dan akhirat, kitab ini telah dijelaskan secara rinci surah demi surah, ayat demi ayat, sehingga mudah dilaksanakan. Al-Qur\u2019an diturunkan kepada Nabi Muhammad pada awal abad ke-7 M. Jika kita perhatikan keadaan saat itu pengetahuan manusia masih sangat sederhana, belum ada teori-teori Ilmu Komunikasi, Ekonomi, Sosiologi, dan Politik seperti sekarang ini. Ilmu-ilmu Fisika, Kimia, Biologi, Geologi, Geodesi, Optik, dan lain-lain juga belum ada saat itu. Akan tetapi, Al-Qur\u2019an dengan bahasa yang sederhana yang dapat dipahami masyarakat luas, yaitu bahasa Arab sebagai bahasa ibu (mother tounge) masyarakat Jazirah Arabia yang menjadi media pertama diturunkannya agama Islam yang dibawa oleh Nabi terakhir Muhammad untuk seluruh umat manusia. Maka sangat tepat Al-Qur\u2019an dijelaskan secara rinci ayat-ayatnya untuk dapat dipahami dan diamalkan petunjuk-petunjuknya bagi setiap anggota masyarakat, sehingga terjadi perubahan sosial (social change) secara dinamik dan besar-besaran.",
        "sabab_nuzul": null,
        "conclusion": null
    }
}