{
    "id": 4264,
    "surah_id": 41,
    "ayah": 46,
    "page": 481,
    "quarter_hizb": 48.75,
    "juz": 24,
    "manzil": 6,
    "arabic": "\u0645\u064e\u0646\u0652 \u0639\u064e\u0645\u0650\u0644\u064e \u0635\u064e\u0627\u0644\u0650\u062d\u064b\u0627 \u0641\u064e\u0644\u0650\u0646\u064e\u0641\u0652\u0633\u0650\u0647\u0656 \u06d9\u0648\u064e\u0645\u064e\u0646\u0652 \u0627\u064e\u0633\u064e\u0627\u06e4\u0621\u064e \u0641\u064e\u0639\u064e\u0644\u064e\u064a\u0652\u0647\u064e\u0627 \u06d7\u0648\u064e\u0645\u064e\u0627 \u0631\u064e\u0628\u0651\u064f\u0643\u064e \u0628\u0650\u0638\u064e\u0644\u0651\u064e\u0627\u0645\u064d \u0644\u0651\u0650\u0644\u0652\u0639\u064e\u0628\u0650\u064a\u0652\u062f\u0650  \u06d4 ",
    "latin": "Man \u2018amila \u1e63\u0101li\u1e25an fa linafsih(\u012b), wa man as\u0101'a fa \u2018alaih\u0101, wa m\u0101 rabbuka bi\u1e93all\u0101mil lil-\u2018ab\u012bd(i).",
    "translation": "Siapa yang mengerjakan kebajikan, maka (pahalanya) untuk dirinya sendiri dan siapa yang berbuat jahat, maka (akibatnya) menjadi tanggungan dirinya sendiri. Tuhanmu sama sekali tidak menzalimi hamba-hamba(-Nya).",
    "no_footnote": null,
    "footnotes": null,
    "surah": {
        "id": 41,
        "arabic": " \u0641\u0635\u0651\u0644\u062a",
        "latin": "Fu\u1e63\u1e63ilat",
        "transliteration": "Fussilat",
        "translation": "Dijelaskan",
        "num_ayah": 54,
        "page": 477,
        "location": "Makkiyah"
    },
    "tafsir": {
        "wajiz": "Oleh sebab itu, sadarilah apa yang telah diajarkan oleh Al-Qur\u2019an itu bahwa barang siapa mengerjakan kebajikan maka pahalanya untuk dirinya sendiri, dan barang siapa berbuat jahat maka dosanya menjadi tanggungan dirinya sendiri, bukan dibebankan kepada orang lain. Dan Tuhanmu sama sekali tidak menzalimi hamba-hamba-Nya yang durhaka itu.",
        "tahlili": "Pada akhir ayat surah ini, Allah menerangkan balasan yang akan diberikan terhadap perbuatan-perbuatan yang dilakukan manusia. Barang siapa yang taat kepada Allah dan rasul-Nya dalam kehidupan dunia ini, melaksanakan perintah-perintah-Nya, dan menghentikan larangan-larangan-Nya, berarti ia telah berusaha berbuat kebaikan untuk dirinya sendiri dengan memperoleh pahala yang besar. Barang siapa yang ingkar kepada Allah berarti ia telah berusaha berbuat keburukan untuk dirinya dengan memperoleh siksa yang sangat pedih di akhirat nanti. Seseorang dihukum sesuai dengan perbuatan yang telah dilakukannya, mustahil Allah mengazab seseorang karena perbuatan orang lain.\nAllah berfirman:\n\u0648\u064e\u0644\u064e\u0627 \u062a\u064e\u0632\u0650\u0631\u064f \u0648\u064e\u0627\u0632\u0650\u0631\u064e\u0629\u064c \u0648\u0650\u0651\u0632\u0652\u0631\u064e \u0627\u064f\u062e\u0652\u0631\u0670\u0649\u06da \u062b\u064f\u0645\u0651\u064e \u0627\u0650\u0644\u0670\u0649 \u0631\u064e\u0628\u0651\u0650\u0643\u064f\u0645\u0652 \u0645\u0651\u064e\u0631\u0652\u062c\u0650\u0639\u064f\u0643\u064f\u0645\u0652 \u0641\u064e\u064a\u064f\u0646\u064e\u0628\u0651\u0650\u0626\u064f\u0643\u064f\u0645\u0652 \u0628\u0650\u0645\u064e\u0627 \u0643\u064f\u0646\u0652\u062a\u064f\u0645\u0652 \u0641\u0650\u064a\u0652\u0647\u0650 \u062a\u064e\u062e\u0652\u062a\u064e\u0644\u0650\u0641\u064f\u0648\u0652\u0646\u064e \nDan seseorang tidak akan memikul beban dosa orang lain. Kemudian kepada Tuhanmulah kamu kembali, dan akan diberitahukan-Nya kepadamu apa yang dahulu kamu perselisihkan. (al-An\u2018\u0101m/6: 164)",
        "intro_surah": "Surah Fu\u1e63\u1e63ilat terdiri dari 54 ayat dan termasuk kelompok surah-surah Makkiyyah, diturunkan sesudah Surah G\u0101fir.\n Dinamai \u201cFu\u1e63\u1e63ilat\u201d karena ada hubungannya dengan perkataan \u201cFu\u1e63\u1e63ilat\u201d yang terdapat pada permulaan surah ini. Maksudnya adalah ayat-ayat diperinci dengan jelas tentang hukum-hukum, keimanan, janji dan ancaman, budi pekerti, kisah, dan sebagainya.\nDinamai juga dengan \u201c\u1e24\u0101 M\u012bm as-Sajdah\u201d karena surah ini dimulai dengan \u201c\u1e24\u0101 M\u012bm\u201d dan dalam surah ini terdapat ayat Sajdah.\n\nPokok-pokok Isinya:\n1. \tKeimanan:\nAl-Qur\u2019an dan sikap orang-orang musyrik terhadapnya; kejadian-kejadian langit dan bumi dan apa yang pada keduanya membuktikan adanya Allah. Semua yang terjadi dalam alam semesta tidak lepas dari pengetahuan Allah.\n2. \tLain-lain:\nHikmah penciptaan gunung-gunung; anggota tubuh tiap-tiap orang menjadi saksi terhadap dirinya pada hari Kiamat, azab yang ditimpakan kepada kaum \u2018Ad dan Samud; permohonan orang-orang kafir agar dikembalikan ke dunia untuk mengerjakan amal-amal saleh; berita gembira dari malaikat kepada orang-orang yang beriman; anjuran menghadapi orang-orang kafir secara baik-baik; ancaman terhadap orang-orang yang mengingkari keesaan Allah, sifat-sifat Al-Qur\u2019an Al-Karim; manusia dan wataknya.\n",
        "outro_surah": null,
        "munasabah_prev_surah": "HUBUNGAN SURAH G\u0100FIR DENGAN\nSURAH FU\u1e62\u1e62ILAT\n\n1. \tKedua surah memberikan peringatan kepada orang-orang musyrik Mekah yang mengingkari Muhammad saw.\n2. \tKeduanya dimulai dengan menyebut sifat-sifat Al-Qur\u2019an.",
        "munasabah_prev_theme": "Pada ayat-ayat yang lalu diterangkan bahwa semua perbuatan dan sikap orang-orang musyrik terhadap Al-Qur\u2019an diketahui Allah, tidak ada satu pun yang luput dari pengetahuan-Nya. Oleh karena itu, Dia akan menghukum dengan adil perbuatan mereka itu. Pada ayat-ayat berikut ini, Allah menghibur Nabi Muhammad dan para sahabat yang sedih karena perbuatan orang-orang kafir terhadap Al-Qur\u2019an dengan menyatakan bahwa sikap, tindakan, dan perkataan orang-orang musyrik itu sama dengan apa yang pernah dilakukan orang-orang dahulu terhadap para rasul yang diutus kepada mereka. Akan tetapi, para rasul itu bersabar menghadapinya sampai kemenangan berada pada mereka. ",
        "theme_group": "ALASAN ORANG MUSYRIK MENGINGKARI AL-QUR\u2019AN",
        "kosakata": "1.\tA\u2018jamiyy \u0627\u064e\u0639\u0652\u062c\u064e\u0645\u0650\u064a\u0651\u064c (Fu\u1e63\u1e63ilat/41: 44)\nA\u2018jamiyy dari kata a\u2018jam. Akar kata yang terdiri dari (\u2018ain-jim-mim) mempunyai beberapa arti dasar antara lain adalah : diam (\u1e63amt, suk\u016bt),  keras (\u1e63al\u0101bah, syirdah), menggigit (\u2018a\u1e0d\u1e0d) . Seorang yang tidak mau berkata dan memperlihatkan siapa dirinya disebut dengan a\u2018jam. Begitu juga dengan anak kecil yang belum bisa berbicara. Al-\u2018Ujmah artinya samar, tidak jelas, lawan dari al-ib\u0101nah (memperlihatkan, menjelaskan). Binatang ternak disebut juga \u2018ajm\u0101\u2018 karena dia tidak bisa berkata yang bisa memperlihatkan siapa dirinya. Orang a\u2018jam adalah orang yang bukan Arab, disebut demikian karena mereka jika berkata, perkataannya tidak bisa dipahami oleh orang Arab. \n2.\t\u2018Arabiyy \u0639\u064e\u0631\u064e\u0628\u0650\u064a\u0651\u064c (Fu\u1e63\u1e63ilat/41: 44)\n\u2018Arabiy adalah nisbat kepada Arab. Bisa juga diartikan dengan orang yang bisa menjelaskan kepada orang lain.",
        "sabab_nuzul": null,
        "conclusion": "1. \tSemua yang diucapkan orang-orang musyrik kepada Rasulullah itu pernah diucapkan oleh umat-umat terdahulu kepada rasul-rasul yang diutus kepada mereka.\n2. \tOrang-orang musyrik selalu mencari-cari dalih agar tidak beriman kepada Al-Qur\u2019an.\n3. \tAl-Qur\u2019an itu penawar hati dan obat bagi orang-orang yang percaya kepadanya. Orang-orang musyrik telinganya telah tersumbat dan peng-lihatannya telah tertutup, sehingga tidak dapat melihat kebenaran Al-Qur\u2019an.\n4. \tSebagaimana Bani Israil pernah mencaci rasul yang diutus kepadanya, orang-orang musyrik Mekah juga mencaci Rasulullah saw.\n5. \tPerbuatan baik yang dilakukan seseorang adalah untuk kebaikan dirinya, dan perbuatan buruk yang dilakukan seseorang adalah untuk keburukan dirinya.\n6. \tAllah tidak akan menganiaya hamba-hamba-Nya walaupun sedikit."
    }
}