{
    "id": 4267,
    "surah_id": 41,
    "ayah": 49,
    "page": 482,
    "quarter_hizb": 49,
    "juz": 25,
    "manzil": 6,
    "arabic": "\u0644\u064e\u0627 \u064a\u064e\u0633\u0652\u0640\u0654\u064e\u0645\u064f \u0627\u0644\u0652\u0627\u0650\u0646\u0652\u0633\u064e\u0627\u0646\u064f \u0645\u0650\u0646\u0652 \u062f\u064f\u0639\u064e\u0627\u06e4\u0621\u0650 \u0627\u0644\u0652\u062e\u064e\u064a\u0652\u0631\u0650\u06d6 \u0648\u064e\u0627\u0650\u0646\u0652 \u0645\u0651\u064e\u0633\u0651\u064e\u0647\u064f \u0627\u0644\u0634\u0651\u064e\u0631\u0651\u064f \u0641\u064e\u064a\u064e\u0640\u0654\u064f\u0648\u0652\u0633\u064c \u0642\u064e\u0646\u064f\u0648\u0652\u0637\u064c ",
    "latin": "L\u0101 yas'amul-ins\u0101nu min du\u2018\u0101'il-khair(i), wa im massahusy-syarru fa ya'\u016bsun qan\u016b\u1e6d(un).",
    "translation": "Manusia tidak pernah jemu memohon kebaikan dan jika ditimpa malapetaka, mereka berputus asa dan hilang harapan.",
    "no_footnote": null,
    "footnotes": null,
    "surah": {
        "id": 41,
        "arabic": " \u0641\u0635\u0651\u0644\u062a",
        "latin": "Fu\u1e63\u1e63ilat",
        "transliteration": "Fussilat",
        "translation": "Dijelaskan",
        "num_ayah": 54,
        "page": 477,
        "location": "Makkiyah"
    },
    "tafsir": {
        "wajiz": "Ayat-ayat yang lalu menggambarkan azab di akhirat yang diperoleh manusia yang menyekutukan Allah. Ayat-ayat berikut ini menggambarkan sifat-sifat buruk manusia ketika di dunia ini. Allah menyatakan bahwa manusia pada umumnya tidak jemu memohon kebaikan untuk mendapat kesenangan bagi kehidupan mereka di dunia ini, dan jika sesudah itu disentuh dan ditimpa malapetaka, walau sedikit, yang mengganggu kesenangan mereka, mereka berputus asa terhadap nikmat Allah dan hilang harapannya untuk dikabulkan doanya.",
        "tahlili": "Ayat ini menerangkan keinginan-keinginan manusia untuk mencapai hal-hal yang menyangkut kepentingan dirinya. Sebagian besar manusia adalah orang-orang yang tamak, suka mencari harta dan mencari kesenangan untuk dirinya sendiri.\nMereka menginginkan harta dan kekuasaan, karena menurut mereka dengan harta dan kekuasaan itu semua cita-cita dan keinginannya akan tercapai. Mereka ingin keturunan, karena dengan keturunan itu mereka dapat mewariskan semua harta yang mereka peroleh dan akan selalu ada orang yang mengenang jasa dan keberhasilan mereka selama hidup di dunia. Mereka ingin memperoleh harta benda dunia sebanyak-banyaknya, karena itu mereka berlomba-lomba mencapainya, seakan-akan hidup dan kehidupan mereka dihabiskan untuk itu.\nDalam ayat ini, yang selalu diinginkan dan dicari manusia itu disebut \u201ckhair\u201d (kebaikan). Disebut \u201ckhair\u201d karena yang diinginkan manusia itu adalah kebaikan yang merupakan rahmat dan karunia Allah. Rahmat dan karunia Allah itu mereka jadikan tujuan yang harus dicapai dalam hidup dan kehidupan mereka di dunia ini, bukan sebagai alat atau jalan yang dapat mereka pergunakan untuk mencapai sesuatu yang lebih mulia dan lebih tinggi nilainya, sehingga rahmat dan karunia Allah yang semula adalah baik, mereka jadikan sumber bencana dan malapetaka karena hawa nafsu mereka yang dapat menimpa diri mereka sendiri atau orang lain.\nMaksud \u201cmencari kebaikan\u201d dalam ayat ini ialah menginginkan, berusaha, mencari, menuntut dan menjadikan kebaikan itu sebagai alat dan jalan mencapai tujuan hidup di dunia dan akhirat, bukan untuk mencari kebaikan agar kebaikan itu dapat dijadikan alat dan jalan mencapai tujuan yang diinginkan hawa nafsu. Mencari kebaikan untuk memenuhi keinginan hawa nafsu dapat menimbulkan malapetaka bagi yang mencarinya. Tetapi, jika mencari kebaikan itu tujuannya agar kebaikan itu dapat dijadikan alat dan jalan untuk mencari keridaan Allah, maka mencari kebaikan yang demikian dianjurkan oleh agama Islam.\nMisalnya, seseorang berusaha mencari harta yang halal agar dengan harta itu ia dapat melaksanakan tugas dan kewajibannya sebagai hamba Allah, seperti memberi nafkah keluarganya, berinfak di jalan Allah, menolong fakir miskin, dan sebagainya. Demikian pula, orang yang ingin mencari pangkat dan kekuasaan, ia boleh mencarinya dengan maksud menegakkan keadilan, menegakkan hukum-hukum Allah, dan menolong orang-orang yang sengsara. Usaha yang demikian adalah usaha yang terpuji dan diridai Allah.\nJadi, mencari kebaikan itu pada hakikatnya baik jika kebaikan yang diperoleh itu dijadikan alat dan jalan untuk mencari keridaan Allah. Tetapi, mencari kebaikan itu akan merusak jika kebaikan itu digunakan untuk memenuhi hawa nafsu. \nSifat manusia yang lain ialah jika kebaikan yang dicari itu tidak diperolehnya atau mereka ditimpa suatu musibah, maka mereka menjadi putus asa, seakan-akan tidak ada harapan lagi bagi mereka, tidak ada lagi bumi tempat berpijak dan tidak ada lagi langit tempat berteduh, semua yang mereka inginkan itu seakan-akan sirna. Dalam keadaan yang demikian, mereka menjadi berputus asa dari rahmat Allah dan berprasangka buruk terhadap Allah seakan-akan Allah tidak mempunyai sifat kasih sayang dan bukan Maha Pemberi rahmat kepada hamba-hamba-Nya.\nSifat-sifat yang diterangkan oleh ayat ini adalah sifat orang yang tidak beriman dan tidak memurnikan ketaatan dan kepatuhannya kepada Allah. Mereka masih percaya kepada adanya kekuatan-kekuatan lain yang dapat menolong mereka selain dari kekuatan Allah. Seakan-akan mereka tidak percaya akan adanya rahmat dan karunia-Nya dan tidak percaya adanya kehidupan yang sebenarnya, yaitu kehidupan akhirat.\n Adapun orang-orang yang beriman kepada Allah adalah orang-orang yang tunduk dan patuh kepada-Nya, merasakan keagungan dan kebesaran-Nya dan merasa dirinya bergantung kepada rahmat dan karunia-Nya. Mereka percaya akan adanya kehidupan yang hakiki yaitu kehidupan di akhirat, dan mereka percaya bahwa kehidupan dunia hanya bersifat sementara. Karenanya mereka berusaha dan bekerja semata-mata untuk mencari keridaan-Nya. Mereka juga percaya bahwa Allah selain menguji hamba-hamba-Nya yang beriman dan ujian itu selalu diberikan dalam bermacam-macam bentuk, ada yang berupa kesengsaraan dan penderitaan, dan ada pula yang berbentuk kesenangan dan kekayaan. Apa pun wujud ujian dan cobaan itu, dihadapinya dengan sabar dan tawakal. Jika mereka memperoleh kebaikan dan harta, ia bergembira dan bersyukur kepada-Nya dan jika ditimpa musibah, mereka tetap sabar dan tabah, bahkan semakin mendekatkan diri kepada-Nya. Mereka tetap mengharapkan rahmat dan karunia Allah karena benar-benar yakin akan sifat kasih sayang Allah yang melimpahkan rahmat dan karunia-Nya kepada setiap hamba yang beriman kepada-Nya. Allah swt berfirman:\n\u064a\u0670\u0628\u064e\u0646\u0650\u064a\u0651\u064e \u0627\u0630\u0652\u0647\u064e\u0628\u064f\u0648\u0652\u0627 \u0641\u064e\u062a\u064e\u062d\u064e\u0633\u0651\u064e\u0633\u064f\u0648\u0652\u0627 \u0645\u0650\u0646\u0652 \u064a\u0651\u064f\u0648\u0652\u0633\u064f\u0641\u064e \u0648\u064e\u0627\u064e\u062e\u0650\u064a\u0652\u0647\u0650 \u0648\u064e\u0644\u064e\u0627 \u062a\u064e\u0627\u06df\u064a\u0652\u0640\u0654\u064e\u0633\u064f\u0648\u0652\u0627 \u0645\u0650\u0646\u0652 \u0631\u0651\u064e\u0648\u0652\u062d\u0650 \u0627\u0644\u0644\u0651\u0670\u0647\u0650 \u06d7\u0627\u0650\u0646\u0651\u064e\u0647\u0657 \u0644\u064e\u0627 \u064a\u064e\u0627\u06df\u064a\u0652\u0640\u0654\u064e\u0633\u064f \u0645\u0650\u0646\u0652 \u0631\u0651\u064e\u0648\u0652\u062d\u0650 \u0627\u0644\u0644\u0651\u0670\u0647\u0650 \u0627\u0650\u0644\u0651\u064e\u0627 \u0627\u0644\u0652\u0642\u064e\u0648\u0652\u0645\u064f \u0627\u0644\u0652\u0643\u0670\u0641\u0650\u0631\u064f\u0648\u0652\u0646\u064e \u0668\u0667\nWahai anak-anakku! Pergilah kamu, carilah (berita) tentang Yusuf dan saudaranya dan jangan kamu berputus asa dari rahmat Allah. Sesungguhnya yang berputus asa dari rahmat Allah hanyalah orang-orang yang kafir.\u201d (Y\u016bsuf/12: 87)\n",
        "intro_surah": "Surah Fu\u1e63\u1e63ilat terdiri dari 54 ayat dan termasuk kelompok surah-surah Makkiyyah, diturunkan sesudah Surah G\u0101fir.\n Dinamai \u201cFu\u1e63\u1e63ilat\u201d karena ada hubungannya dengan perkataan \u201cFu\u1e63\u1e63ilat\u201d yang terdapat pada permulaan surah ini. Maksudnya adalah ayat-ayat diperinci dengan jelas tentang hukum-hukum, keimanan, janji dan ancaman, budi pekerti, kisah, dan sebagainya.\nDinamai juga dengan \u201c\u1e24\u0101 M\u012bm as-Sajdah\u201d karena surah ini dimulai dengan \u201c\u1e24\u0101 M\u012bm\u201d dan dalam surah ini terdapat ayat Sajdah.\n\nPokok-pokok Isinya:\n1. \tKeimanan:\nAl-Qur\u2019an dan sikap orang-orang musyrik terhadapnya; kejadian-kejadian langit dan bumi dan apa yang pada keduanya membuktikan adanya Allah. Semua yang terjadi dalam alam semesta tidak lepas dari pengetahuan Allah.\n2. \tLain-lain:\nHikmah penciptaan gunung-gunung; anggota tubuh tiap-tiap orang menjadi saksi terhadap dirinya pada hari Kiamat, azab yang ditimpakan kepada kaum \u2018Ad dan Samud; permohonan orang-orang kafir agar dikembalikan ke dunia untuk mengerjakan amal-amal saleh; berita gembira dari malaikat kepada orang-orang yang beriman; anjuran menghadapi orang-orang kafir secara baik-baik; ancaman terhadap orang-orang yang mengingkari keesaan Allah, sifat-sifat Al-Qur\u2019an Al-Karim; manusia dan wataknya.\n",
        "outro_surah": null,
        "munasabah_prev_surah": "HUBUNGAN SURAH G\u0100FIR DENGAN\nSURAH FU\u1e62\u1e62ILAT\n\n1. \tKedua surah memberikan peringatan kepada orang-orang musyrik Mekah yang mengingkari Muhammad saw.\n2. \tKeduanya dimulai dengan menyebut sifat-sifat Al-Qur\u2019an.",
        "munasabah_prev_theme": "Pada ayat-ayat yang terdahulu Allah menerangkan keadaan orang-orang musyrik di akhirat nanti dengan berhala-berhala yang pernah mereka sembah. Berhala-berhala itu tidak memberi manfaat apa pun, karena berhala itu juga makhluk, sehingga para penyembah berhala sadar akan kesesatan mereka. Pada ayat-ayat berikut ini diterangkan sikap manusia dalam menerima rahmat dan cobaan Allah. Jika mereka menerima rahmat, mereka menyatakan bahwa semua rahmat itu diterimanya semata-mata karena hasil usahanya, bukan merupakan karunia dari Allah. Tetapi, jika mereka ditimpa musibah, mereka berputus asa.",
        "theme_group": "SIKAP MANUSIA KETIKA MENERIMA RAHMAT\nDAN COBAAN ALLAH SWT",
        "kosakata": "Kosakata: Ya\u2019\u016bsun Qan\u016b\u1e6d \u064a\u064e\u0626\u064f\u0648\u0652\u0633\u064c \u0642\u064e\u0646\u064f\u0648\u0652\u0637 (Fu\u1e63\u1e63ilat/41: 49)\n\tUngkapan tersebut terdiri dari dua kata, yaitu kata ya\u2019\u016bs yang artinya putus asa dan kata qan\u016b\u1e6d yang berfungsi sebagai ta\u2019k\u012bd (penguat) yang arti sebenarnya sama: putus harapan. Menurut Sibawaih ungkapan itu memuat dua bahasa tetapi sudah biasa digabung menjadi satu ungkapan yang menggambarkan betapa putus asanya manusia kafir apabila kepadanya dicobakan kefakiran dan ujian yang berat. Dengan demikian, ungkapan ya\u2019\u016bsun qan\u016b\u1e6d merupakan ungkapan untuk menggambarkan kondisi batin manusia yang sangat berputus asa setiap menghadapi kefakiran dan cobaan-cobaan berat. Karakter manusia yang lemah iman sangat sering berputus asa, hal tersebut merupakan suatu karakter yang buruk sekali.\n",
        "sabab_nuzul": null,
        "conclusion": null
    }
}