{
    "id": 4292,
    "surah_id": 42,
    "ayah": 20,
    "page": 485,
    "quarter_hizb": 49.25,
    "juz": 25,
    "manzil": 6,
    "arabic": "\u0645\u064e\u0646\u0652 \u0643\u064e\u0627\u0646\u064e \u064a\u064f\u0631\u0650\u064a\u0652\u062f\u064f \u062d\u064e\u0631\u0652\u062b\u064e \u0627\u0644\u0652\u0627\u0670\u062e\u0650\u0631\u064e\u0629\u0650 \u0646\u064e\u0632\u0650\u062f\u0652 \u0644\u064e\u0647\u0657 \u0641\u0650\u064a\u0652 \u062d\u064e\u0631\u0652\u062b\u0650\u0647\u0656\u06da \u0648\u064e\u0645\u064e\u0646\u0652 \u0643\u064e\u0627\u0646\u064e \u064a\u064f\u0631\u0650\u064a\u0652\u062f\u064f \u062d\u064e\u0631\u0652\u062b\u064e \u0627\u0644\u062f\u0651\u064f\u0646\u0652\u064a\u064e\u0627 \u0646\u064f\u0624\u0652\u062a\u0650\u0647\u0656 \u0645\u0650\u0646\u0652\u0647\u064e\u0627\u06d9 \u0648\u064e\u0645\u064e\u0627 \u0644\u064e\u0647\u0657 \u0641\u0650\u0649 \u0627\u0644\u0652\u0627\u0670\u062e\u0650\u0631\u064e\u0629\u0650 \u0645\u0650\u0646\u0652 \u0646\u0651\u064e\u0635\u0650\u064a\u0652\u0628\u064d  ",
    "latin": "Man k\u0101na yur\u012bdu \u1e25ar\u1e61al-\u0101khirati nazid lah\u016b f\u012b \u1e25ar\u1e61ih(\u012b), wa man k\u0101na yur\u012bdu \u1e25ar\u1e61ad-dun-y\u0101 nu'tih\u012b minh\u0101, wa m\u0101 lah\u016b fil-\u0101khirati min na\u1e63\u012bb(in).",
    "translation": "Siapa yang menghendaki balasan di akhirat, akan Kami tambahkan balasan itu baginya. Siapa yang menghendaki balasan di dunia, Kami berikan kepadanya sebagian darinya (balasan dunia), tetapi dia tidak akan mendapat bagian sedikit pun di akhirat.",
    "no_footnote": null,
    "footnotes": null,
    "surah": {
        "id": 42,
        "arabic": "\u0627\u0644\u0634\u0651\u0648\u0631\u0670\u0649",
        "latin": "Asy-Sy\u016br\u0101",
        "transliteration": "Asy-Syura",
        "translation": "Musyawarah",
        "num_ayah": 53,
        "page": 483,
        "location": "Makkiyah"
    },
    "tafsir": {
        "wajiz": "Pada ayat yang lalu, Allah menggambarkan orang-orang yang membantah terjadinya Kiamat, sedangkan dalam ayat ini Allah menggambarkan keuntungan di akhirat bagi orang-orang yang beriman. Barang siapa menghendaki keuntungan di akhirat melalui amal-amal yang dilakukannya di dunia ini dengan niat yang ikhlas, akan Kami tambahkan keuntungan itu baginya dengan melipatgandakan keuntungannya, dan barang siapa menghendaki keuntungan di dunia melalui usaha dan kegiatan yang hanya semata-semata ingin mendapatkan keuntungan dunia, Kami berikan kepadanya sebagian dari hasil usaha-Nya itu berupa keuntungan dunia sesuai dengan kehendak Kami, tetapi dia tidak akan mendapat bagian di akhirat kelak.",
        "tahlili": "Dalam ayat ini dijelaskan bahwa barang siapa menghendaki pahala dengan amal dan usahanya, Allah akan memudahkan baginya untuk beramal saleh, kemudian Dia mengganjar amalnya itu, satu kebaikan dengan sepuluh kebaikan sampai berlipatganda menurut kehendak Allah. Begitu pula sebaliknya, barang siapa mengharapkan dari amal usahanya kemewahan dunia dengan segala bentuknya dan tidak sedikit pun mengharapkan amalan dan pahala akhirat, maka Allah akan memberikan sebanyak apa yang telah ditentukan baginya, tetapi ia tidak akan memperoleh sedikit pun pahala akhirat karena amal itu sesuai dengan niatnya, dan bagi setiap orang balasan amalnya sesuai dengan niatnya, sebagaimana sabda Nabi saw:\n\ufe87\u0650\u0646\u0651\u064e\u0645\u064e\u0627 \u0627\u0652\u0644\u0627\u064e\u0639\u0652\u0645\u064e\u0627\u0644\u064f \u0628\u0650\u0627\u0644\u0646\u0651\u0650\u064a\u0651\u064e\u0627\u062a\u0650 \u0648\u064e\u0627\u0650\u0646\u0651\u064e\u0645\u064e\u0627 \u0644\u0650\u0643\u064f\u0644\u0651\u0650 \u0627\u0645\u0652\u0631\u0650\u0626\u064d \u0645\u064e\u0627 \u0646\u064e\u0648\u064e\u064a. (\u0631\u0648\u0627\u0647 \u0627\u0644\u0628\u062e\u0627\u0631\u064a \u0648\u0645\u0633\u0644\u0645)\nBahwasanya amal itu menurut niatnya, dan bahwasanya bagi setiap orang mendapat balasan sesuai dengan apa yang diniatkannya. (Riwayat al-Bukh\u0101r\u012b dan Muslim)\n\nQat\u0101dah berkata, \u201cSesungguhnya Allah memberikan pahala kepada orang-orang yang amalnya diniatkan untuk akhirat selain untuk kesenangan dunia menurut kehendaknya. Allah tidak memberikan pahala di akhirat kepada orang yang beramal dengan niat memperoleh kenikmatan dunia saja.\u201d Hal ini sejalan dengan firman Allah:\n\u0645\u064e\u0646\u0652 \u0643\u064e\u0627\u0646\u064e \u064a\u064f\u0631\u0650\u064a\u0652\u062f\u064f \u0627\u0644\u0652\u0639\u064e\u0627\u062c\u0650\u0644\u064e\u0629\u064e \u0639\u064e\u062c\u0651\u064e\u0644\u0652\u0646\u064e\u0627 \u0644\u064e\u0647\u0657 \u0641\u0650\u064a\u0652\u0647\u064e\u0627 \u0645\u064e\u0627 \u0646\u064e\u0634\u064e\u0627\u06e4\u0621\u064f \u0644\u0650\u0645\u064e\u0646\u0652 \u0646\u0651\u064f\u0631\u0650\u064a\u0652\u062f\u064f \u062b\u064f\u0645\u0651\u064e \u062c\u064e\u0639\u064e\u0644\u0652\u0646\u064e\u0627 \u0644\u064e\u0647\u0657 \u062c\u064e\u0647\u064e\u0646\u0651\u064e\u0645\u064e\u06da \u064a\u064e\u0635\u0652\u0644\u0670\u0649\u0647\u064e\u0627 \u0645\u064e\u0630\u0652\u0645\u064f\u0648\u0652\u0645\u064b\u0627 \u0645\u0651\u064e\u062f\u0652\u062d\u064f\u0648\u0652\u0631\u064b\u0627 \u0661\u0668 \u0648\u064e\u0645\u064e\u0646\u0652 \u0627\u064e\u0631\u064e\u0627\u062f\u064e \u0627\u0644\u0652\u0627\u0670\u062e\u0650\u0631\u064e\u0629\u064e \u0648\u064e\u0633\u064e\u0639\u0670\u0649 \u0644\u064e\u0647\u064e\u0627 \u0633\u064e\u0639\u0652\u064a\u064e\u0647\u064e\u0627 \u0648\u064e\u0647\u064f\u0648\u064e \u0645\u064f\u0624\u0652\u0645\u0650\u0646\u064c \u0641\u064e\u0627\u064f\u0648\u0644\u0670\u06e4\u0649\u0655\u0650\u0643\u064e \u0643\u064e\u0627\u0646\u064e \u0633\u064e\u0639\u0652\u064a\u064f\u0647\u064f\u0645\u0652 \u0645\u0651\u064e\u0634\u0652\u0643\u064f\u0648\u0652\u0631\u064b\u0627 \u0661\u0669\nBarang siapa menghendaki kehidupan sekarang (duniawi), maka Kami segerakan baginya di (dunia) ini apa yang Kami kehendaki bagi orang yang Kami kehendaki. Kemudian Kami sediakan baginya (di akhirat) neraka Jahanam; dia akan memasukinya dalam keadaan tercela dan terusir.Dan barangsiapa menghendaki kehidupan akhirat dan berusaha ke arah itu dengan sungguh-sungguh, sedangkan dia beriman, maka mereka itulah orang yang usahanya dibalas dengan baik. (al-Isr\u0101'/17: 18-19)",
        "intro_surah": "Surah asy-Sy\u016br\u0101 terdiri atas 53 ayat, termasuk kelompok surah Makkiyyah, diturunkan sesudah Surah Fu\u1e63\u1e63ilat. Dinamai asy-Sy\u016br\u0101 (musyawarah) diambil dari kata sy\u016br\u0101 yang terdapat pada ayat 38 surah ini. Dalam ayat tersebut diletakkan salah satu dari dasar pemerintahan Islam yaitu musyawarah. Dinamai juga \u1e24\u0101 M\u012bm \u2018A\u012bn S\u012bn Q\u0101f karena surah ini dimulai dengan huruf-huruf hijaiah tersebut. \n\nPOKOK-POKOK ISINYA:\n1. \tKeimanan:\nDalil-dalil tentang kekuasaan Allah Yang Maha Esa dengan menerangkan kejadian langit dan bumi, turunnya hujan, berlayarnya kapal di lautan dengan aman dan sebagainya; Allah memberikan rezeki kepada hamba-Nya dengan ukuran tertentu sesuai dengan kemaslahatan mereka dan sesuai pula dengan hikmah dan ilmu-Nya; Allah memberikan anak laki-laki atau anak perempuan kepada siapa yang dikehendaki-Nya, atau tidak memberi anak seorang pun; cara-cara Allah menyampaikan firman-Nya kepada manusia; dan pokok-pokok agama yang dibawa para rasul adalah sama.\n2. \tHukum:\nTidak ada dalil untuk menuntut hukum kisas terhadap orang yang mempertahankan diri.\n3. \tLain-lain:\nKeterangan bagaimana keadaan orang kafir dan orang mukmin nanti di akhirat; memberi ampun lebih baik daripada membalas yang tidak sampai melampaui batas; orang-orang kafir mendesak Nabi Muhammad saw agar hari Kiamat disegerakan datangnya; serta kewajiban Rasul hanya menyampaikan risalahnya.",
        "outro_surah": null,
        "munasabah_prev_surah": "HUBUNGAN SURAH FU\u1e62\u1e62ILAT DENGAN\nSURAH ASY-SY\u016aR\u0100\n\nKedua surah ini sama-sama menerangkan kebenaran Al-Qur\u2019an sebagai wahyu Allah yang disampaikan kepada Muhammad saw, menolak celaan dan kecaman orang-orang kafir terhadapnya; menghibur Nabi Muhammad saw agar tidak bersedih hati terhadap sikap, celaan dan ancaman mereka karena sudah sewajarnya musuh-musuh agama itu berusaha menghancurkan agama Allah yang disampaikan kepada mereka. Hal yang seperti itu telah dialami pula oleh para rasul yang diutus Allah sebelumnya.",
        "munasabah_prev_theme": "Pada ayat-ayat yang lalu dijelaskan bahwa Allah telah menurunkan Kitab yang memuat petunjuk-petunjuk yang akan menuntun mereka pada kebahagiaan, sedang orang-orang yang bertikai mempertentangkan agama akan mendapat azab yang pedih. Dalam ayat-ayat berikut ini Allah menjelaskan bahwa Dia Mahalembut terhadap hamba-Nya, membiarkan (tidak menghukum) mereka dalam kesesatan, dan menunda balasan siksaan terhadap mereka serta memberi kesempatan untuk sadar dan insaf dari kesesatan mereka. Allah menjelaskan bahwa orang-orang yang beramal saleh untuk akhirat dan mengharapkan pahala akan dilipatgandakan balasannya sampai tujuh ratus kali, sedangkan orang-orang yang menghendaki kemewahan dunia akan dipenuhi-Nya keinginan mereka, tetapi di akhirat kelak mereka tidak lagi akan mendapat nikmat.",
        "theme_group": "\nALLAH MEMBERIKAN REZEKI DAN MENGABULKAN\nPERMOHONAN HAMBANYA",
        "kosakata": ". La\u1e6d\u012bf   \u0644\u064e\u0637\u0650\u064a\u0652\u0641\u064c  (asy-Sy\u016br\u0101/42: 19)\nSecara kebahasaan, la\u1e6d\u012bf yang berakar dari kata la\u1e6dafa berarti lemah lembut, halus, atau ramah. Dalam Surah asy-Sy\u016br\u0101 ayat 19 di atas, la\u1e6d\u012bf disebut sebagai sifat Allah swt, yaitu bahwa Allah swt adalah zat yang Maha Lemah-lembut, Maharamah, dan atau Mahahalus.\n2. Rau\u1e0d\u0101tul-jann\u0101t  \u0631\u064e\u0648\u0652\u0636\u064e\u0627\u062a\u064f \u0627\u0644\u062c\u064e\u0646\u0651\u0627\u062a (asy-Sy\u016br\u0101/42: 22)\nKalimat rau\u1e0d\u0101tul-jann\u0101t dalam Surah asy-Sy\u016br\u0101 ayat 22 di atas terdiri dari dua kata, rau\u1e0d\u0101t yang merupakan bentuk jamak (plural) dari kata rau\u1e0dah dan jann\u0101t yang merupakan bentuk jamak dari jannah. Rau\u1e0dah sendiri bermakna taman dan jannah bermakna surga. Dengan demikian, rau\u1e0d\u0101tul jann\u0101t bermakna taman-taman surga. Dalam konteks ayat di atas, rau\u1e0d\u0101tul-jann\u0101t dimaksudkan sebagai imbalan atau balasan bagi orang-orang yang beriman dan beramal saleh. Di dalamnya mereka akan memperoleh apa-apa yang mereka kehendaki. Itulah karunia yang teramat besar.\n",
        "sabab_nuzul": null,
        "conclusion": null
    }
}