{
    "id": 4313,
    "surah_id": 42,
    "ayah": 41,
    "page": 487,
    "quarter_hizb": 49.5,
    "juz": 25,
    "manzil": 6,
    "arabic": "\u0648\u064e\u0644\u064e\u0645\u064e\u0646\u0650 \u0627\u0646\u0652\u062a\u064e\u0635\u064e\u0631\u064e \u0628\u064e\u0639\u0652\u062f\u064e \u0638\u064f\u0644\u0652\u0645\u0650\u0647\u0656 \u0641\u064e\u0627\u064f\u0648\u0644\u0670\u06e4\u0649\u0650\u0655\u0643\u064e \u0645\u064e\u0627 \u0639\u064e\u0644\u064e\u064a\u0652\u0647\u0650\u0645\u0652 \u0645\u0651\u0650\u0646\u0652 \u0633\u064e\u0628\u0650\u064a\u0652\u0644\u064d\u06d7 ",
    "latin": "Wa lamaninta\u1e63ara ba\u2018da \u1e93ulmih\u012b fa ul\u0101'ika m\u0101 \u2018alaihim min sab\u012bl(in).",
    "translation": "Akan tetapi, sungguh siapa yang membela diri setelah teraniaya, tidak ada satu alasan pun (untuk menyalahkan) mereka.",
    "no_footnote": null,
    "footnotes": null,
    "surah": {
        "id": 42,
        "arabic": "\u0627\u0644\u0634\u0651\u0648\u0631\u0670\u0649",
        "latin": "Asy-Sy\u016br\u0101",
        "transliteration": "Asy-Syura",
        "translation": "Musyawarah",
        "num_ayah": 53,
        "page": 483,
        "location": "Makkiyah"
    },
    "tafsir": {
        "wajiz": "Tetapi orang-orang yang telah berusaha membela diri mereka setelah di zalimi, tidak ada alasan untuk menyalahkan dan mengecam mereka.",
        "tahlili": "Dalam ayat ini Allah menerangkan bahwa orang yang berbuat sesuatu karena membela diri dari satu penganiayaan atau suatu kejahatan yang menimpanya, tidak ada jalan untuk menuntutnya dari sisi hukum dan ia tidak berdosa karena dia melakukannya berdasarkan hak. Tetapi orang-orang yang berbuat zalim, berbuat kejahatan di bumi dan melampaui batas dalam memberikan pembalasan, mereka itulah yang dapat dituntut dan akan mendapat azab dan siksa yang pedih di akhirat kelak.",
        "intro_surah": "Surah asy-Sy\u016br\u0101 terdiri atas 53 ayat, termasuk kelompok surah Makkiyyah, diturunkan sesudah Surah Fu\u1e63\u1e63ilat. Dinamai asy-Sy\u016br\u0101 (musyawarah) diambil dari kata sy\u016br\u0101 yang terdapat pada ayat 38 surah ini. Dalam ayat tersebut diletakkan salah satu dari dasar pemerintahan Islam yaitu musyawarah. Dinamai juga \u1e24\u0101 M\u012bm \u2018A\u012bn S\u012bn Q\u0101f karena surah ini dimulai dengan huruf-huruf hijaiah tersebut. \n\nPOKOK-POKOK ISINYA:\n1. \tKeimanan:\nDalil-dalil tentang kekuasaan Allah Yang Maha Esa dengan menerangkan kejadian langit dan bumi, turunnya hujan, berlayarnya kapal di lautan dengan aman dan sebagainya; Allah memberikan rezeki kepada hamba-Nya dengan ukuran tertentu sesuai dengan kemaslahatan mereka dan sesuai pula dengan hikmah dan ilmu-Nya; Allah memberikan anak laki-laki atau anak perempuan kepada siapa yang dikehendaki-Nya, atau tidak memberi anak seorang pun; cara-cara Allah menyampaikan firman-Nya kepada manusia; dan pokok-pokok agama yang dibawa para rasul adalah sama.\n2. \tHukum:\nTidak ada dalil untuk menuntut hukum kisas terhadap orang yang mempertahankan diri.\n3. \tLain-lain:\nKeterangan bagaimana keadaan orang kafir dan orang mukmin nanti di akhirat; memberi ampun lebih baik daripada membalas yang tidak sampai melampaui batas; orang-orang kafir mendesak Nabi Muhammad saw agar hari Kiamat disegerakan datangnya; serta kewajiban Rasul hanya menyampaikan risalahnya.",
        "outro_surah": null,
        "munasabah_prev_surah": "HUBUNGAN SURAH FU\u1e62\u1e62ILAT DENGAN\nSURAH ASY-SY\u016aR\u0100\n\nKedua surah ini sama-sama menerangkan kebenaran Al-Qur\u2019an sebagai wahyu Allah yang disampaikan kepada Muhammad saw, menolak celaan dan kecaman orang-orang kafir terhadapnya; menghibur Nabi Muhammad saw agar tidak bersedih hati terhadap sikap, celaan dan ancaman mereka karena sudah sewajarnya musuh-musuh agama itu berusaha menghancurkan agama Allah yang disampaikan kepada mereka. Hal yang seperti itu telah dialami pula oleh para rasul yang diutus Allah sebelumnya.",
        "munasabah_prev_theme": "Pada ayat-ayat yang lalu Allah memuji orang-orang yang membela dirinya karena dianiaya. Pada ayat-ayat berikut ini Allah menerangkan bahwa pembelaan diri itu haruslah seimbang dengan berat atau ringannya penganiayaan tersebut.\n",
        "theme_group": "BERSABAR DAN MEMBERI MAAF LEBIH BAIK\nDARIPADA BALAS DENDAM ",
        "kosakata": "Kosakata: \u2018Azmil-Um\u016br \u0639\u064e\u0632\u0652\u0645\u0650 \u0627\u0652\u0644\u0623\u064f\u0645\u064f\u0648\u0652\u0631\u0650 (asy-Sy\u016br\u0101/42: 43)\n\u2018Azmil-um\u016br adalah tark\u012bb i\u1e0d\u0101fi yaitu susunan kata majemuk. Fi\u2018il \u2018azama-ya\u2018zimu-\u2018azman-\u2018azamatan/\u2018az\u012bmatan artinya berniat, bermaksud, berketetapan hati. Um\u016br adalah bentuk jamak dari amr artinya urusan atau persoalan. \u2018Azmil-um\u016br artinya: Urusan atau persoalan atau hal-hal yang telah diniatkan, dikehendaki dengan ketetapan hati yang mantap. Pada ayat 43 Allah menegaskan bahwa siapa yang sabar dan mau memaafkan sungguh termasuk sikap yang baik dan hal-hal yang diutamakan, termasuk perbuatan yang mulia. Di antara 25 nabi dan rasul terdapat lima nabi dan rasul yang sangat mulia karena sabar, teguh pendirian, tabah menghadapi berbagai kesulitan, dan gigih dalam perjuangan sehingga mencapai hasil yang gemilang, yaitu Nabi Nuh, Nabi Ibrahin, Nabi Musa, Nabi Isa dan Nabi Muhammad saw, sehingga kelima nabi ini diberi gelar ulul-\u2018azmi, artinya memiliki kemantapan dan kemuliaan.",
        "sabab_nuzul": null,
        "conclusion": null
    }
}