{
    "id": 4318,
    "surah_id": 42,
    "ayah": 46,
    "page": 488,
    "quarter_hizb": 49.5,
    "juz": 25,
    "manzil": 6,
    "arabic": "\u0648\u064e\u0645\u064e\u0627 \u0643\u064e\u0627\u0646\u064e \u0644\u064e\u0647\u064f\u0645\u0652 \u0645\u0651\u0650\u0646\u0652 \u0627\u064e\u0648\u0652\u0644\u0650\u064a\u064e\u0627\u06e4\u0621\u064e \u064a\u064e\u0646\u0652\u0635\u064f\u0631\u064f\u0648\u0652\u0646\u064e\u0647\u064f\u0645\u0652 \u0645\u0651\u0650\u0646\u0652 \u062f\u064f\u0648\u0652\u0646\u0650 \u0627\u0644\u0644\u0651\u0670\u0647\u0650 \u06d7\u0648\u064e\u0645\u064e\u0646\u0652 \u064a\u0651\u064f\u0636\u0652\u0644\u0650\u0644\u0650 \u0627\u0644\u0644\u0651\u0670\u0647\u064f \u0641\u064e\u0645\u064e\u0627 \u0644\u064e\u0647\u0657 \u0645\u0650\u0646\u0652 \u0633\u064e\u0628\u0650\u064a\u0652\u0644\u064d \u06d7 ",
    "latin": "Wa m\u0101 k\u0101na lahum min auliy\u0101'a yan\u1e63ur\u016bnahum min d\u016bnill\u0101h(i), wa may yu\u1e0dlilill\u0101hu fam\u0101 lah\u016b min sab\u012bl(in).",
    "translation": "Mereka tidak akan mempunyai pelindung yang dapat menolong mereka selain Allah. Siapa pun yang disesatkan oleh Allah (berdasarkan kecenderungan dan pilihannya sendiri) tidak akan ada jalan baginya (untuk mendapat petunjuk).",
    "no_footnote": null,
    "footnotes": null,
    "surah": {
        "id": 42,
        "arabic": "\u0627\u0644\u0634\u0651\u0648\u0631\u0670\u0649",
        "latin": "Asy-Sy\u016br\u0101",
        "transliteration": "Asy-Syura",
        "translation": "Musyawarah",
        "num_ayah": 53,
        "page": 483,
        "location": "Makkiyah"
    },
    "tafsir": {
        "wajiz": "Dan mereka, orang-orang yang merugi dan zalim itu, tidak akan mempunyai pelindung yang dapat menolong dan menyelamatkan mereka dari azab di akhirat nanti selain Allah Yang Mahakuasa. Barang siapa dibiarkan sesat oleh Allah  akibat kesesatannya, tidak aka nada jalan keluar baginya untuk mendapat petunjuk.",
        "tahlili": "Dalam ayat ini dijelaskan bahwa seseorang tidak akan mendapat pertolongan dari siapa pun untuk menyelamatkan mereka dari siksa yang menimpa mereka. Berhala-berhala yang pernah disembah mereka di dunia tidak dapat sama sekali memberi pertolongan, bahkan mustahil akan dapat membela mereka dan melepaskan mereka dari azab yang sedang menimpa mereka. Ayat 46 ini ditutup dengan satu ketegasan bahwa orang yang dibiarkan Allah sesat itu telah menjadi watak dan tabiat mereka akan selalu berbuat kejahatan, kerusakan dan pelanggaran-pelanggaran terhadap larangan agama; mereka tidak akan dapat lagi diperbaiki, tidak akan dapat lagi melakukan hal-hal yang hak dan benar di dunia ini, dan tidak akan dapat memasuki surga Jannatun-Na\u2018\u012bm di akhirat.\n",
        "intro_surah": "Surah asy-Sy\u016br\u0101 terdiri atas 53 ayat, termasuk kelompok surah Makkiyyah, diturunkan sesudah Surah Fu\u1e63\u1e63ilat. Dinamai asy-Sy\u016br\u0101 (musyawarah) diambil dari kata sy\u016br\u0101 yang terdapat pada ayat 38 surah ini. Dalam ayat tersebut diletakkan salah satu dari dasar pemerintahan Islam yaitu musyawarah. Dinamai juga \u1e24\u0101 M\u012bm \u2018A\u012bn S\u012bn Q\u0101f karena surah ini dimulai dengan huruf-huruf hijaiah tersebut. \n\nPOKOK-POKOK ISINYA:\n1. \tKeimanan:\nDalil-dalil tentang kekuasaan Allah Yang Maha Esa dengan menerangkan kejadian langit dan bumi, turunnya hujan, berlayarnya kapal di lautan dengan aman dan sebagainya; Allah memberikan rezeki kepada hamba-Nya dengan ukuran tertentu sesuai dengan kemaslahatan mereka dan sesuai pula dengan hikmah dan ilmu-Nya; Allah memberikan anak laki-laki atau anak perempuan kepada siapa yang dikehendaki-Nya, atau tidak memberi anak seorang pun; cara-cara Allah menyampaikan firman-Nya kepada manusia; dan pokok-pokok agama yang dibawa para rasul adalah sama.\n2. \tHukum:\nTidak ada dalil untuk menuntut hukum kisas terhadap orang yang mempertahankan diri.\n3. \tLain-lain:\nKeterangan bagaimana keadaan orang kafir dan orang mukmin nanti di akhirat; memberi ampun lebih baik daripada membalas yang tidak sampai melampaui batas; orang-orang kafir mendesak Nabi Muhammad saw agar hari Kiamat disegerakan datangnya; serta kewajiban Rasul hanya menyampaikan risalahnya.",
        "outro_surah": null,
        "munasabah_prev_surah": "HUBUNGAN SURAH FU\u1e62\u1e62ILAT DENGAN\nSURAH ASY-SY\u016aR\u0100\n\nKedua surah ini sama-sama menerangkan kebenaran Al-Qur\u2019an sebagai wahyu Allah yang disampaikan kepada Muhammad saw, menolak celaan dan kecaman orang-orang kafir terhadapnya; menghibur Nabi Muhammad saw agar tidak bersedih hati terhadap sikap, celaan dan ancaman mereka karena sudah sewajarnya musuh-musuh agama itu berusaha menghancurkan agama Allah yang disampaikan kepada mereka. Hal yang seperti itu telah dialami pula oleh para rasul yang diutus Allah sebelumnya.",
        "munasabah_prev_theme": "Pada ayat-ayat yang lalu dijelaskan bahwa orang-orang yang berbuat aniaya kepada manusia dan berlaku zalim di muka bumi, mereka itu akan diazab dengan azab yang pedih. Maka dalam ayat-ayat berikut ini Allah menerangkan siapa yang dibiarkan sesat oleh Allah tidak ada seorang pemimpin pun yang akan memberi petunjuk baginya dan mereka akan dimasukkan ke neraka dalam keadaan hina.",
        "theme_group": "ORANG YANG DIBIARKAN SESAT \nTIDAK AKAN MENDAPAT PETUNJUK ",
        "kosakata": "1.\tMaraddin \u0645\u064e\u0631\u064e\u062f\u064d\u0651 (asy-Sy\u016br\u0101/42: 44)\nMaraddin adalah bentuk ma\u1e63dar dari fi\u2018il \u0631\u064e\u062f\u0651\u064e \u064a\u064e\u0631\u064f\u062f\u0651\u064f \u0631\u064e\u062f\u0651\u064b\u0627 \u0623\u064e\u0648\u0652 \u0645\u064e\u0631\u064e\u062f\u0651\u064b\u0627 artinya: mengembalikan, menolak, menempatkan kembali. Ayat 44 diakhiri dengan ungkapan pertanyaan \u0644\u064e\u0645\u0651\u064e\u0627 \u0631\u064e\u0623\u064e\u0648\u064f\u0648\u0627 \u0627\u0652\u0644\u0639\u064e\u0630\u064e\u0627\u0628\u064e \u064a\u064e\u0642\u064f\u0648\u0652\u0644\u064f\u0648\u0652\u0646\u064e \u0647\u064e\u0644\u0652 \u0625\u0650\u0644\u064e\u0649 \u0645\u064e\u0631\u064e\u062f\u064d\u0651 \u0645\u0650\u0646\u0652 \u0633\u064e\u0628\u0650\u064a\u0652\u0644\u064d artinya, \u201dKetika mereka (orang-orang zalim) melihat azab, mereka berkata, \u2019Adakah kiranya jalan untuk kembali (ke dunia)\u2019?\u201d Maksudnya, mereka menolak azab itu dan mengharapkan untuk dapat kembali hidup di dunia supaya dapat berbuat baik sehingga tidak diazab. Setelah memasuki alam akhirat maka tidak ada lagi kesempatan untuk kembali hidup di dunia. Masa beramal sudah habis karena kehidupan dunia sudah berakhir, kemudian semua manusia harus menghadapi masa pembalasan di alam akhirat, oleh karena itu harapan mereka sia-sia belaka. Sesal dahulu pendapatan dan sesal kemudian tak berguna, begitulah peribahasa telah mengingatkan kita semua.\n2.\t\u1e6carfun khafiyyun  \u0637\u064e\u0631\u0652\u0641\u064c \u062e\u064e\u0641\u0650\u0649\u0651\u064c (asy-Sy\u016br\u0101/42: 45)\n\u1e6carf adalah bentuk tark\u012bb wasfi rangkaian susunan kata sifat. \u1e6carf artinya ujung atau sudut. Khafiyy artinya lemah, tidak keras atau lesu. \u1e6carfun khafiyyun artinya sudut pandang yang lemah, lesu dan minta dikasihani. Ayat 45 menggambarkan tentang orang-orang kafir dan sesat ketika mereka dihadapkan pada pelaksanaan azab dan siksa neraka, mereka tertunduk lesu dan merasa lemah dan hina, sebagaimana dilukiskan dengan ungkapan: \u064a\u064e\u0646\u0652\u0638\u064f\u0631\u064f\u0648\u0652\u0646\u064e \u0645\u0650\u0646\u0652 \u0637\u064e\u0631\u0652\u0641\u064d \u062e\u064e\u0641\u0650\u0649\u064d\u0651 artinya: mereka melihat dengan pandangan yang lemah dan lesu, seperti minta dikasihani. Demikianlah digambarkan dalam Al-Qur\u2019an untuk menjadi pelajaran bagi kita semua tentang keadaan orang-orang yang ketika hidup mereka di dunia mengingkari petunjuk agama dan berperilaku bermewah-mewah memperturutkan hawa nafsu tanpa kendali agama maupun akal. ",
        "sabab_nuzul": null,
        "conclusion": "1. \tOrang-orang yang dibiarkan Allah sesat tak akan mendapat pemimpin yang menolongnya dan tidak akan mendapat petunjuk.\n2. \tOrang-orang zalim ketika melihat azab, mereka ingin kembali ke dunia; mereka merasa hina dan tunduk berlutut ketika dihadapkan ke neraka.\n3. \tOrang-orang mukmin berkata, bahwa orang-orang yang merugi ialah orang-orang yang kehilangan dirinya sendiri dan keluarga mereka di hari Kiamat.\n4. \tOrang-orang yang zalim berada dalam neraka yang kekal dan tidak mempunyai pelindung yang dapat menolong mereka.\n"
    }
}