{
    "id": 4307,
    "surah_id": 42,
    "ayah": 35,
    "page": 487,
    "quarter_hizb": 49.5,
    "juz": 25,
    "manzil": 6,
    "arabic": "\u0648\u0651\u064e\u064a\u064e\u0639\u0652\u0644\u064e\u0645\u064e \u0627\u0644\u0651\u064e\u0630\u0650\u064a\u0652\u0646\u064e \u064a\u064f\u062c\u064e\u0627\u062f\u0650\u0644\u064f\u0648\u0652\u0646\u064e \u0641\u0650\u064a\u0652\u0653 \u0627\u0670\u064a\u0670\u062a\u0650\u0646\u064e\u0627\u06d7 \u0645\u064e\u0627 \u0644\u064e\u0647\u064f\u0645\u0652 \u0645\u0651\u0650\u0646\u0652 \u0645\u0651\u064e\u062d\u0650\u064a\u0652\u0635\u064d ",
    "latin": "Wa ya\u2018lamal-la\u017c\u012bna yuj\u0101dil\u016bna f\u012b \u0101y\u0101tin\u0101, m\u0101 lahum mim ma\u1e25\u012b\u1e63(in).",
    "translation": "(Yang demikian itu) agar orang-orang yang membantah tanda-tanda (kekuasaan) Kami mengetahui bahwa mereka tidak akan memperoleh jalan keluar (dari siksaan).",
    "no_footnote": null,
    "footnotes": null,
    "surah": {
        "id": 42,
        "arabic": "\u0627\u0644\u0634\u0651\u0648\u0631\u0670\u0649",
        "latin": "Asy-Sy\u016br\u0101",
        "transliteration": "Asy-Syura",
        "translation": "Musyawarah",
        "num_ayah": 53,
        "page": 483,
        "location": "Makkiyah"
    },
    "tafsir": {
        "wajiz": "\u201cSemua kebesaran dan kekuasaan Kami itu,\u201d kata Allah, \u201cDitunjukkan kepada mereka agar orang-orang yang selalu membantah tanda-tanda kekuasaan Kami mengetahui dan menyadari bahwa mereka berada di bawah kekuasaan Kami dan tidak akan memperoleh jalan keluar dan menghindarkan diri dari siksaan Kami.\u201d",
        "tahlili": "Dalam ayat ini Allah menerangkan bahwa hal-hal yang telah digambarkan di atas menunjukkan kekuasaan dan keperkasaan-Nya; kiranya orang-orang yang selalu membantah dan tidak mau mengakui kekuasaan Allah dapat menyadari bahwa yang dapat memberikan manfaat dan mendatangkan mudarat tidak lain hanyalah Allah dan kalau Dia menghendaki, maka tidak seorang pun yang dapat menghindar atau luput dari azab yang telah ditetapkannya itu.",
        "intro_surah": "Surah asy-Sy\u016br\u0101 terdiri atas 53 ayat, termasuk kelompok surah Makkiyyah, diturunkan sesudah Surah Fu\u1e63\u1e63ilat. Dinamai asy-Sy\u016br\u0101 (musyawarah) diambil dari kata sy\u016br\u0101 yang terdapat pada ayat 38 surah ini. Dalam ayat tersebut diletakkan salah satu dari dasar pemerintahan Islam yaitu musyawarah. Dinamai juga \u1e24\u0101 M\u012bm \u2018A\u012bn S\u012bn Q\u0101f karena surah ini dimulai dengan huruf-huruf hijaiah tersebut. \n\nPOKOK-POKOK ISINYA:\n1. \tKeimanan:\nDalil-dalil tentang kekuasaan Allah Yang Maha Esa dengan menerangkan kejadian langit dan bumi, turunnya hujan, berlayarnya kapal di lautan dengan aman dan sebagainya; Allah memberikan rezeki kepada hamba-Nya dengan ukuran tertentu sesuai dengan kemaslahatan mereka dan sesuai pula dengan hikmah dan ilmu-Nya; Allah memberikan anak laki-laki atau anak perempuan kepada siapa yang dikehendaki-Nya, atau tidak memberi anak seorang pun; cara-cara Allah menyampaikan firman-Nya kepada manusia; dan pokok-pokok agama yang dibawa para rasul adalah sama.\n2. \tHukum:\nTidak ada dalil untuk menuntut hukum kisas terhadap orang yang mempertahankan diri.\n3. \tLain-lain:\nKeterangan bagaimana keadaan orang kafir dan orang mukmin nanti di akhirat; memberi ampun lebih baik daripada membalas yang tidak sampai melampaui batas; orang-orang kafir mendesak Nabi Muhammad saw agar hari Kiamat disegerakan datangnya; serta kewajiban Rasul hanya menyampaikan risalahnya.",
        "outro_surah": null,
        "munasabah_prev_surah": "HUBUNGAN SURAH FU\u1e62\u1e62ILAT DENGAN\nSURAH ASY-SY\u016aR\u0100\n\nKedua surah ini sama-sama menerangkan kebenaran Al-Qur\u2019an sebagai wahyu Allah yang disampaikan kepada Muhammad saw, menolak celaan dan kecaman orang-orang kafir terhadapnya; menghibur Nabi Muhammad saw agar tidak bersedih hati terhadap sikap, celaan dan ancaman mereka karena sudah sewajarnya musuh-musuh agama itu berusaha menghancurkan agama Allah yang disampaikan kepada mereka. Hal yang seperti itu telah dialami pula oleh para rasul yang diutus Allah sebelumnya.",
        "munasabah_prev_theme": "Pada ayat-ayat yang lalu Allah swt menerangkan bahwa Dia akan mengabulkan doa orang-orang mukmin, mengampuni dosa-dosa mereka jika mereka itu bertobat dan menyerahkan diri kepada-Nya. Dalam ayat-ayat berikut ini Allah menerangkan bahwa Dia tidak akan memberikan rezeki sepenuhnya kepada manusia kecuali sesuai dengan maslahat mereka dan dengan kebijaksanaan-Nya. Dia Maha Mengetahui maslahat hamba-Nya.",
        "theme_group": "KEBIJAKSANAAN DAN KEKUASAAN ALLAH \nTERHADAP HAMBA-NYA",
        "kosakata": "Kosakata: Qana\u1e6d\u016b  \u0642\u064e\u0646\u064e\u0637\u064f\u0648\u0652\u0627 (asy-Sy\u016br\u0101/42: 28)\nSecara kebahasaan, qana\u1e6d\u016b yang berasal dari kata qana\u1e6da bermakna putus asa atau putus harapan. Dalam konteks ayat di atas, Allah swt menjelaskan bahwa ada sebagian manusia yang putus asa atau putus harapan karena hujan tidak turun. Namun setelah pupusnya harapan mereka, Allah swt lalu menurunkan hujan dan menyebarkan rahmat-Nya. Ini menunjukkan bahwa terkadang Allah swt tidak langsung memberikan rahmat-Nya sebelum Dia menguji hamba-Nya terlebih dahulu.\n",
        "sabab_nuzul": null,
        "conclusion": "1. \tManusia pada umumnya apabila diberi rezeki berlebihan menjadi takabur, karena itu Allah memberikan kepada hamba-Nya rezeki sesuai dengan kebijaksanaan dan kemaslahatan hamba-Nya, karena Dia Maha Mengetahui.\n2. \tDi antara tanda-tanda kebesaran Allah ialah diciptakan-Nya langit dan bumi beserta isinya seperti binatang dengan segala bentuk corak dan namanya. Apabila Allah menghendaki, Dia kuasa mengumpulkan semua manusia di akhirat nanti.\n3. \tMusibah yang menimpa manusia adalah akibat perbuatannya sendiri, dan Allah mengampuni sebagian besar dosa-dosa mereka dengan tidak melimpahkan bencana pada semua umat manusia.\n4. \tTidak seorang pun yang luput dari siksaan Allah karena yang dapat memberikan pertolongan hanyalah Allah.\n5. \tSebagian dari tanda-tanda kekuasaan Allah ialah ditundukkan air sehingga kapal dapat berlayar di atasnya dengan bebas; Allah juga kuasa menahan angin sehingga kapal tidak dapat berlayar atau Allah menghancurkan kapal itu dengan mengirim angin topan sehingga kapal itu tenggelam.\n6. \tOrang-orang yang tetap membangkang dan tidak mau mengakui kekuasaan Allah tidak akan menemukan jalan keluar sehingga luput dari siksa Allah.\n7. \tKetika mendapatkan musibah manusia harus bersabar, dan ketika mendapatkan nikmat manusia harus bersyukur.\n"
    }
}