{
    "id": 4324,
    "surah_id": 42,
    "ayah": 52,
    "page": 489,
    "quarter_hizb": 49.75,
    "juz": 25,
    "manzil": 6,
    "arabic": "\u0648\u064e\u0643\u064e\u0630\u0670\u0644\u0650\u0643\u064e \u0627\u064e\u0648\u0652\u062d\u064e\u064a\u0652\u0646\u064e\u0627\u0653 \u0627\u0650\u0644\u064e\u064a\u0652\u0643\u064e \u0631\u064f\u0648\u0652\u062d\u064b\u0627 \u0645\u0651\u0650\u0646\u0652 \u0627\u064e\u0645\u0652\u0631\u0650\u0646\u064e\u0627 \u06d7\u0645\u064e\u0627 \u0643\u064f\u0646\u0652\u062a\u064e \u062a\u064e\u062f\u0652\u0631\u0650\u064a\u0652 \u0645\u064e\u0627 \u0627\u0644\u0652\u0643\u0650\u062a\u0670\u0628\u064f \u0648\u064e\u0644\u064e\u0627 \u0627\u0644\u0652\u0627\u0650\u064a\u0652\u0645\u064e\u0627\u0646\u064f \u0648\u064e\u0644\u0670\u0643\u0650\u0646\u0652 \u062c\u064e\u0639\u064e\u0644\u0652\u0646\u0670\u0647\u064f \u0646\u064f\u0648\u0652\u0631\u064b\u0627 \u0646\u0651\u064e\u0647\u0652\u062f\u0650\u064a\u0652 \u0628\u0650\u0647\u0656 \u0645\u064e\u0646\u0652 \u0646\u0651\u064e\u0634\u064e\u0627\u06e4\u0621\u064f \u0645\u0650\u0646\u0652 \u0639\u0650\u0628\u064e\u0627\u062f\u0650\u0646\u064e\u0627 \u06d7\u0648\u064e\u0627\u0650\u0646\u0651\u064e\u0643\u064e \u0644\u064e\u062a\u064e\u0647\u0652\u062f\u0650\u064a\u0652\u0653 \u0627\u0650\u0644\u0670\u0649 \u0635\u0650\u0631\u064e\u0627\u0637\u064d \u0645\u0651\u064f\u0633\u0652\u062a\u064e\u0642\u0650\u064a\u0652\u0645\u064d\u06d9 ",
    "latin": "Wa ka\u017c\u0101lika au\u1e25ain\u0101 ilaika r\u016b\u1e25am min amrin\u0101, m\u0101 kunta tadr\u012b mal-kit\u0101bu wa lal-\u012bm\u0101nu wa l\u0101kin ja\u2018aln\u0101hu n\u016bran nahd\u012b bih\u012b man nasy\u0101'u min \u2018ib\u0101din\u0101, wa innaka latahd\u012b il\u0101 \u1e63ir\u0101\u1e6dim mustaq\u012bm(in).",
    "translation": "Demikianlah Kami mewahyukan kepadamu (Nabi Muhammad) r\u016bh (Al-Qur\u2019an) dengan perintah Kami. Sebelumnya engkau tidaklah mengetahui apakah Kitab (Al-Qur\u2019an) dan apakah iman itu, tetapi Kami menjadikannya (Al-Qur\u2019an) cahaya yang dengannya Kami memberi petunjuk siapa yang Kami kehendaki di antara hamba-hamba Kami. Sesungguhnya engkau benar-benar membimbing (manusia) ke jalan yang lurus,",
    "no_footnote": null,
    "footnotes": null,
    "surah": {
        "id": 42,
        "arabic": "\u0627\u0644\u0634\u0651\u0648\u0631\u0670\u0649",
        "latin": "Asy-Sy\u016br\u0101",
        "transliteration": "Asy-Syura",
        "translation": "Musyawarah",
        "num_ayah": 53,
        "page": 483,
        "location": "Makkiyah"
    },
    "tafsir": {
        "wajiz": "Dan demikianlah Kami wahyukan kepadamu, wahai Nabi Muhammad, ruh, yaitu Al-Qur\u2019an yang di turunkan dengan perantaraan Jibril dengan perintah Kami. Sebelumnya, yaitu sebelum Al-Qur\u2019an itu di turunkan kepadamu, engkau tidaklah mengetahui apakah al-Kitab itu, yaitu Al-Qur\u2019an dan apakah pula iman itu. Akan tetapi, Kami menjadikannya, yaitu Al-Qur\u2019an itu, cahaya yang dapat menerangi dan menunjukkan jalan yang benar kepadamu. Dengan Al-Qur\u2019an itu pula Kami memberi petunjuk siapa yang Kami kehendaki untuk mendapat petunjuk di antara hamba-hamba Kami. Dan sungguh, engkau, wahai Nabi Muhammad, benar-benar membimbing manusia kepada jalan yang lurus, jalan yang Kami ridai.",
        "tahlili": "Allah menerangkan bahwa sebagaimana Dia menurunkan wahyu kepada rasul-rasul terdahulu Dia juga menurunkan wahyu kepada Nabi Muhammad saw berupa Al-Qur\u2019an sebagai rahmat-Nya. Selanjutnya Allah menjelaskan bahwa Muhamamad saw sebelum mencapai umur empat puluh tahun dan berada di tengah-tengah kaumnya, belum tahu apa Al-Qur\u2019an itu dan apa iman itu, dan begitu juga belum tahu apa syariat itu secara terperinci dan pengertian tentang hal-hal yang mengenai wahyu yang diturunkan-Nya, tetapi Allah menjadikan Al-Qur\u2019an itu cahaya terang benderang yang dengannya Allah memberi petunjuk kepada hamba-hamba yang dikehendaki-Nya dan membandingkan kepada agama yang benar yaitu agama Islam. Sebagaimana firman Allah:\n\u0648\u064e\u0645\u064e\u0627 \u0643\u064f\u0646\u0652\u062a\u064e \u062a\u064e\u0631\u0652\u062c\u064f\u0648\u0652\u0653\u0627 \u0627\u064e\u0646\u0652 \u064a\u0651\u064f\u0644\u0652\u0642\u0670\u0653\u0649 \u0627\u0650\u0644\u064e\u064a\u0652\u0643\u064e \u0627\u0644\u0652\u0643\u0650\u062a\u0670\u0628\u064f \u0627\u0650\u0644\u0651\u064e\u0627 \u0631\u064e\u062d\u0652\u0645\u064e\u0629\u064b \u0645\u0651\u0650\u0646\u0652 \u0631\u0651\u064e\u0628\u0651\u0650\u0643\u064e \u0641\u064e\u0644\u064e\u0627 \u062a\u064e\u0643\u064f\u0648\u0652\u0646\u064e\u0646\u0651\u064e \u0638\u064e\u0647\u0650\u064a\u0652\u0631\u064b\u0627 \u0644\u0650\u0651\u0644\u0652\u0643\u0670\u0641\u0650\u0631\u0650\u064a\u0652\u0646\u064e \u06d6 \u0668\u0666\nDan engkau (Muhammad) tidak pernah mengharap agar Kitab (Al-Qur\u2019an) itu diturunkan kepadamu, tetapi ia (diturunkan) sebagai rahmat dari Tuhanmu, sebab itu janganlah sekali-kali engkau menjadi penolong bagi orang-orang kafir. (al-Qa\u1e63a\u1e63/28: 86)\n\nDan firman-Nya:\n\u0642\u064f\u0644\u0652 \u0647\u064f\u0648\u064e \u0644\u0650\u0644\u0651\u064e\u0630\u0650\u064a\u0652\u0646\u064e \u0627\u0670\u0645\u064e\u0646\u064f\u0648\u0652\u0627 \u0647\u064f\u062f\u064b\u0649 \u0648\u0651\u064e\u0634\u0650\u0641\u064e\u0627\u06e4\u0621\u064c \u06d7\u0648\u064e\u0627\u0644\u0651\u064e\u0630\u0650\u064a\u0652\u0646\u064e \u0644\u064e\u0627 \u064a\u064f\u0624\u0652\u0645\u0650\u0646\u064f\u0648\u0652\u0646\u064e \u0641\u0650\u064a\u0652\u0653 \u0627\u0670\u0630\u064e\u0627\u0646\u0650\u0647\u0650\u0645\u0652 \u0648\u064e\u0642\u0652\u0631\u064c \u0648\u0651\u064e\u0647\u064f\u0648\u064e \u0639\u064e\u0644\u064e\u064a\u0652\u0647\u0650\u0645\u0652 \u0639\u064e\u0645\u064b\u0649\nKatakanlah, \u201cAl-Qur\u2019an adalah petunjuk dan penyembuh bagi orang-orang yang beriman. Dan orang-orang yang tidak beriman pada telinga mereka ada sumbatan, dan (Al-Qur\u2019an) itu merupakan kegelapan bagi mereka. (Fu\u1e63\u1e63ilat/41: 44)\n\nFirman Allah:\n\u0627\u0650\u0646\u0651\u064e \u0647\u0670\u0630\u064e\u0627 \u0627\u0644\u0652\u0642\u064f\u0631\u0652\u0627\u0670\u0646\u064e \u064a\u064e\u0647\u0652\u062f\u0650\u064a\u0652 \u0644\u0650\u0644\u0651\u064e\u062a\u0650\u064a\u0652 \u0647\u0650\u064a\u064e \u0627\u064e\u0642\u0652\u0648\u064e\u0645\u064f\nSungguh, Al-Qur\u2019an ini memberi petunjuk ke (jalan) yang paling lurus.     (al-Isr\u0101'/17: 9)\n\nDengan cahaya Al-Qur\u2019an itulah, Allah memberikan petunjuk kepada jalan yang lurus yaitu agama yang benar.",
        "intro_surah": "Surah asy-Sy\u016br\u0101 terdiri atas 53 ayat, termasuk kelompok surah Makkiyyah, diturunkan sesudah Surah Fu\u1e63\u1e63ilat. Dinamai asy-Sy\u016br\u0101 (musyawarah) diambil dari kata sy\u016br\u0101 yang terdapat pada ayat 38 surah ini. Dalam ayat tersebut diletakkan salah satu dari dasar pemerintahan Islam yaitu musyawarah. Dinamai juga \u1e24\u0101 M\u012bm \u2018A\u012bn S\u012bn Q\u0101f karena surah ini dimulai dengan huruf-huruf hijaiah tersebut. \n\nPOKOK-POKOK ISINYA:\n1. \tKeimanan:\nDalil-dalil tentang kekuasaan Allah Yang Maha Esa dengan menerangkan kejadian langit dan bumi, turunnya hujan, berlayarnya kapal di lautan dengan aman dan sebagainya; Allah memberikan rezeki kepada hamba-Nya dengan ukuran tertentu sesuai dengan kemaslahatan mereka dan sesuai pula dengan hikmah dan ilmu-Nya; Allah memberikan anak laki-laki atau anak perempuan kepada siapa yang dikehendaki-Nya, atau tidak memberi anak seorang pun; cara-cara Allah menyampaikan firman-Nya kepada manusia; dan pokok-pokok agama yang dibawa para rasul adalah sama.\n2. \tHukum:\nTidak ada dalil untuk menuntut hukum kisas terhadap orang yang mempertahankan diri.\n3. \tLain-lain:\nKeterangan bagaimana keadaan orang kafir dan orang mukmin nanti di akhirat; memberi ampun lebih baik daripada membalas yang tidak sampai melampaui batas; orang-orang kafir mendesak Nabi Muhammad saw agar hari Kiamat disegerakan datangnya; serta kewajiban Rasul hanya menyampaikan risalahnya.",
        "outro_surah": null,
        "munasabah_prev_surah": "HUBUNGAN SURAH FU\u1e62\u1e62ILAT DENGAN\nSURAH ASY-SY\u016aR\u0100\n\nKedua surah ini sama-sama menerangkan kebenaran Al-Qur\u2019an sebagai wahyu Allah yang disampaikan kepada Muhammad saw, menolak celaan dan kecaman orang-orang kafir terhadapnya; menghibur Nabi Muhammad saw agar tidak bersedih hati terhadap sikap, celaan dan ancaman mereka karena sudah sewajarnya musuh-musuh agama itu berusaha menghancurkan agama Allah yang disampaikan kepada mereka. Hal yang seperti itu telah dialami pula oleh para rasul yang diutus Allah sebelumnya.",
        "munasabah_prev_theme": "Pada ayat-ayat yang lalu Allah swt menjelaskan bermacam-macam nikmat yang nyata yang dikaruniakan kepada hamba-hamba-Nya. Pada ayat-ayat berikut ini Allah menerangkan tentang berbagai macam nikmat yang tidak nyata, yang sifatnya abstrak. Dijelaskan bahwa manusia itu terhijab dari Tuhan, karena mereka berada di alam kebendaan, sedangkan Tuhan Mahasuci dari yang demikian. Sekalipun terdapat dinding antara mereka dan Tuhan, namun jika mereka beribadah dengan ikhlas, mereka mengadakan hubungan dengan alam yang tinggi dan bermunajat dengan Tuhan.\n",
        "theme_group": "CARA TURUNNYA WAHYU",
        "kosakata": "Kosakata: Wa\u1e25yan  \u0648\u064e\u062d\u0652\u064a\u0627\u064b (asy-Sy\u016br\u0101/42: 51)\nWa\u1e25yun (wahyu) secara harfiyah berarti isyarat yang cepat, tersembunyi. Isyarat maksudnya pemberian informasi melalui lambang-lambang. \u201cCepat\u201d berarti informasi itu mudah disampaikan oleh Allah dan mudah pula diterima oleh nabi. \u201cTersembunyi\u201d berarti hanya diberikan kepada seorang nabi, dan orang biasa tidak mungkin menerima wahyu.\nWahyu dari segi terminologis adalah firman (kal\u0101m) Allah yang diturunkan kepada seorang nabi dari nabi-nabi-Nya. Kalam maksudnya firman yang ada suaranya berasal dari Allah, bukan isyarat, ilham, atau instink. Dan firman itu hanya disampaikan kepada nabi-Nya. \nKata wahyu terdapat dalam Surah asy-Sy\u016br\u0101/42:51. Wahyu di dalam ayat itu adalah salah satu dari tiga bentuk pewahyuan kepada seorang nabi. Pewahyuan ini yaitu penyampaian pesan (firman) yang dipahami secara langsung, cepat, dan khusus kepada nabi-Nya. Al-Qur\u2019an tidak ada yang disampaikan dalam bentuk langsung seperti ini. Wahyu dalam bentuk ini kepada Nabi Muhammad adalah hadis, yaitu makna dari Allah sedangkan perumusannya dalam bentuk teks oleh Nabi sendiri. ",
        "sabab_nuzul": null,
        "conclusion": null
    }
}