{
    "id": 4402,
    "surah_id": 43,
    "ayah": 77,
    "page": 495,
    "quarter_hizb": 50.25,
    "juz": 25,
    "manzil": 6,
    "arabic": "\u0648\u064e\u0646\u064e\u0627\u062f\u064e\u0648\u0652\u0627 \u064a\u0670\u0645\u0670\u0644\u0650\u0643\u064f \u0644\u0650\u064a\u064e\u0642\u0652\u0636\u0650 \u0639\u064e\u0644\u064e\u064a\u0652\u0646\u064e\u0627 \u0631\u064e\u0628\u0651\u064f\u0643\u064e\u06d7 \u0642\u064e\u0627\u0644\u064e \u0627\u0650\u0646\u0651\u064e\u0643\u064f\u0645\u0652 \u0645\u0651\u0670\u0643\u0650\u062b\u064f\u0648\u0652\u0646\u064e",
    "latin": "Wa n\u0101dau y\u0101 m\u0101liku liyaq\u1e0di \u2018alain\u0101 rabbuk(a), q\u0101la innakum m\u0101ki\u1e61\u016bn(a).",
    "translation": "Mereka menyeru, \u201cWahai (Malaikat) Malik, hendaklah Tuhanmu mematikan kami saja.\u201d Dia menjawab, \u201cSesungguhnya kamu akan tetap tinggal (di neraka ini).\u201d",
    "no_footnote": null,
    "footnotes": null,
    "surah": {
        "id": 43,
        "arabic": "\u0627\u0644\u0632\u0651\u062e\u0631\u0641",
        "latin": "Az-Zukhruf",
        "transliteration": "Az-Zukhruf",
        "translation": "Perhiasan dari Emas",
        "num_ayah": 89,
        "page": 489,
        "location": "Makkiyah"
    },
    "tafsir": {
        "wajiz": "Dan ketika para pendosa itu mendapatkan siksaan yang amat pedih di dalam neraka, mereka berseru kepada Malaikat Malik yang memimpin penjaga neraka dengan berkata, \u201cWahai malaikat Malik! Biarlah Tuhanmu, yaitu dengan memohon kepada-Nya agar Dia mematikan kami saja karena kalau kami sudah di matikan, kami tidak akan merasakan lagi siksaan yang amat pedih ini.\u201d Dia, yakni malaikat Malik, menjawab, \u201cSungguh, kamu tidak akan dimatikan oleh Allah, dan kamu akan tetap tinggal di neraka ini untuk merasakan siksaan yang amat pedih ini.\u201d",
        "tahlili": "Karena beratnya siksaan yang diderita, mereka memanggil malaikat Malik, penjaga neraka, agar malaikat itu meminta kepada Allah agar mereka dimatikan saja, sehingga mereka terbebas dari siksaan itu, mereka mengatakan, \u201cHai malaikat Malik, mohonkanlah kepada Allah agar Dia mencabut saja nyawa kami, sehingga kami terlepas atau tidak merasakan lagi siksaan ini.\u201d Malaikat itu menjawab, \u201cTidak ada satu jalan pun bagimu untuk keluar dari neraka ini karena Allah telah memutuskan, bahwa kamu tinggal di dalam neraka selama-lamanya.\u201d\nAllah berfirman:\n\u0648\u064e\u0627\u0644\u0651\u064e\u0630\u0650\u064a\u0652\u0646\u064e \u0643\u064e\u0641\u064e\u0631\u064f\u0648\u0652\u0627 \u0644\u064e\u0647\u064f\u0645\u0652 \u0646\u064e\u0627\u0631\u064f \u062c\u064e\u0647\u064e\u0646\u0651\u064e\u0645\u064e\u06da \u0644\u064e\u0627 \u064a\u064f\u0642\u0652\u0636\u0670\u0649 \u0639\u064e\u0644\u064e\u064a\u0652\u0647\u0650\u0645\u0652 \u0641\u064e\u064a\u064e\u0645\u064f\u0648\u0652\u062a\u064f\u0648\u0652\u0627 \u0648\u064e\u0644\u064e\u0627 \u064a\u064f\u062e\u064e\u0641\u0651\u064e\u0641\u064f \u0639\u064e\u0646\u0652\u0647\u064f\u0645\u0652 \u0645\u0651\u0650\u0646\u0652 \u0639\u064e\u0630\u064e\u0627\u0628\u0650\u0647\u064e\u0627\u06d7 \u0643\u064e\u0630\u0670\u0644\u0650\u0643\u064e \u0646\u064e\u062c\u0652\u0632\u0650\u064a\u0652 \u0643\u064f\u0644\u0651\u064e \u0643\u064e\u0641\u064f\u0648\u0652\u0631\u064d \u06da \u0663\u0666\nDan orang-orang yang kafir, bagi mereka neraka Jahanam. Mereka tidak dibinasakan hingga mereka mati, dan tidak diringankan dari mereka azabnya. Demikianlah Kami membalas setiap orang yang sangat kafir. (F\u0101\u1e6dir/35: 36)\n\nDalam ayat lain:\n\u0648\u064e\u064a\u064e\u062a\u064e\u062c\u064e\u0646\u0651\u064e\u0628\u064f\u0647\u064e\u0627 \u0627\u0644\u0652\u0627\u064e\u0634\u0652\u0642\u064e\u0649\u06d9 \u0661\u0661 \u0627\u0644\u0651\u064e\u0630\u0650\u064a\u0652 \u064a\u064e\u0635\u0652\u0644\u064e\u0649 \u0627\u0644\u0646\u0651\u064e\u0627\u0631\u064e \u0627\u0644\u0652\u0643\u064f\u0628\u0652\u0631\u0670\u0649\u06da \u0661\u0662 \u062b\u064f\u0645\u0651\u064e \u0644\u064e\u0627 \u064a\u064e\u0645\u064f\u0648\u0652\u062a\u064f \u0641\u0650\u064a\u0652\u0647\u064e\u0627 \u0648\u064e\u0644\u064e\u0627 \u064a\u064e\u062d\u0652\u064a\u0670\u0649\u06d7 \u0661\u0663\nDan orang-orang yang celaka (kafir) akan menjauhinya,\t(yaitu) orang yang akan memasuki api yang besar (neraka), selanjutnya dia di sana tidak mati dan tidak (pula) hidup. (al-A\u2018l\u0101/87: 11-13)",
        "intro_surah": "Surah az-Zukhruf terdiri dari 89 ayat, termasuk kelompok surah Makkiyyah, diturunkan sesudah Surah asy-Sy\u016br\u0101.\nDinamai az-Zukhruf (perhiasan) diambil dari kata az-zukhruf yang terdapat pada ayat 35 surah ini. Orang-orang musyrik mengukur tinggi atau rendahnya derajat seseorang bergantung kepada perhiasan dan harta benda yang ia punyai. Karena Muhammad saw adalah seorang anak yatim lagi miskin ia tidak pantas diangkat Allah sebagai seorang rasul dan nabi. Menurut mereka, pangkat rasul dan nabi itu harus diberikan kepada orang yang kaya. Ayat ini menegaskan bahwa harta tidak dapat dijadikan dasar untuk mengukur tinggi atau rendahnya derajat seseorang karena harta itu merupakan hiasan kehidupan duniawi, bukan berarti kesenangan akhirat.\n\nPOKOK-POKOK ISINYA:\n1. \tKeimanan:\nAl-Qur\u2019an berasal dari Lau\u1e25 Ma\u1e25f\u016b\u1e93; Nabi Isa tidak lain hanyalah seorang hamba Allah; pengakuan Nabi Isa bahwasanya Allah-lah Tuhan yang sebenarnya; menyifatkan bagaimana kesenangan di dalam surga dan hebatnya penderitaan orang kafir di dalam neraka sehingga mereka ingin mati saja, agar terlepas dari siksa itu; Tuhan tidak mempunyai anak.\n2. \tHukum-hukum:\nPeringatan Tuhan kepada Nabi Muhammad ialah agar menjauhi orang-orang yang tidak beriman.\n3. \tKisah-kisah:\nKisah Nabi Ibrahim; Musa dan Isa sebagai perbandingan bagi Nabi Muhammad dan sebagai penawar sewaktu menghadapi kesulitan dalam melakukan dakwah.\n4. \tLain-lain:\nPengakuan orang musyrik Mekah bahwa hanya Allah yang menciptakan langit dan bumi, tetapi mereka tetap menyembah berhala; kepercayaan mereka bahwa malaikat adalah anak Allah dan penolakan atas kepercayaan yang salah itu; Nabi Muhammad saw sebagai rasul mendapat ejekan dan celaan dari kaumnya, dan hal ini adalah biasa, karena rasul-rasul yang dahulu pun demikian pula halnya; orang musyrik sangat kuat berpegangan kepada tradisi dan adat istiadat nenek moyang mereka dalam beragama, sehingga tertutup hati mereka untuk menerima kebenaran.",
        "outro_surah": null,
        "munasabah_prev_surah": "HUBUNGAN SURAH ASY SY\u016aR\u0100 DENGAN\nSURAH AZ-ZUKHRUF\n\n1. \tKedua surah ini sama-sama dimulai dengan pembicaraan mengenai Al-Qur\u2019an yang diturunkan dari Tuhan Yang Mahaperkasa lagi Mahabijaksana.\n2. \tKedua surah ini sama-sama mengutarakan bagaimana sikap orang-orang kafir terhadap Al-Qur\u2019an dan mengemukakan dalil-dalil atas keesaan dan kekuasaan Allah.\n",
        "munasabah_prev_theme": "Pada ayat-ayat yang lalu diterangkan kenikmatan yang akan diperoleh oleh orang-orang yang percaya dan mengamalkan ayat-ayat Allah serta tunduk dan patuh kepada-Nya. Dalam ayat-ayat berikut ini diterangkan balasan yang akan diperoleh oleh orang-orang kafir yang mengingkari ayat-ayat Allah. Mereka akan dimasukkan ke dalam neraka dengan azab yang sangat pedih sebagai balasan dari perbuatan ingkar dan jahat yang telah mereka kerjakan. Apa pun permintaan mereka tidak diperkenankan di dalam neraka itu, sekalipun permintaan itu berupa kematian agar mereka tidak lagi mengalami siksaan yang pedih itu.\n",
        "theme_group": "BALASAN BAGI ORANG YANG BERDOSA",
        "kosakata": "Kosakata: Mublis\u016bn \u0645\u064f\u0628\u0652\u0644\u0650\u0633\u064f\u0648\u0652\u0646\u064e (az-Zukhruf/43: 75)\nKata mublis\u016bn adalah isim fa\u2018il dalam bentuk jamak dari mublis, dari fi\u2018il (kata kerja) ablasa yang berarti duka cita, putus asa dan bingung. Kata mublis\u016bn dan yang seakar dengannya disebutkan 5 kali dalam Al-Qur\u2019an, yaitu dalam Surah ar-R\u016bm/30: 12, 49, al-An\u2018\u0101m/6: 44, al-Mu'min\u016bn/23: 77 dan az-Zukhruf/43: 75.\nSurah az-Zukhruf/43: 75 tersebut berbicara dalam konteks siksaan terhadap para pendurhaka yang mantap kedurhakaannya ketika mereka berada dalam wadah siksaan neraka Jahanam yang meliputi seluruh totalitasnya dan yang akan mereka alami selama-lamanya, tidak akan dihentikan atau diringankan siksa itu dari mereka dan akhirnya mereka didalamnya lunglai tidak mampu melakukan apa pun, karena mereka semua telah berputus asa.\n",
        "sabab_nuzul": null,
        "conclusion": null
    }
}