{
    "id": 4386,
    "surah_id": 43,
    "ayah": 61,
    "page": 494,
    "quarter_hizb": 50.25,
    "juz": 25,
    "manzil": 6,
    "arabic": "\u0648\u064e\u0627\u0650\u0646\u0651\u064e\u0647\u0657 \u0644\u064e\u0639\u0650\u0644\u0652\u0645\u064c \u0644\u0651\u0650\u0644\u0633\u0651\u064e\u0627\u0639\u064e\u0629\u0650 \u0641\u064e\u0644\u064e\u0627 \u062a\u064e\u0645\u0652\u062a\u064e\u0631\u064f\u0646\u0651\u064e \u0628\u0650\u0647\u064e\u0627 \u0648\u064e\u0627\u062a\u0651\u064e\u0628\u0650\u0639\u064f\u0648\u0652\u0646\u0650\u06d7 \u0647\u0670\u0630\u064e\u0627 \u0635\u0650\u0631\u064e\u0627\u0637\u064c \u0645\u0651\u064f\u0633\u0652\u062a\u064e\u0642\u0650\u064a\u0652\u0645\u064c ",
    "latin": "Wa innah\u016b la\u2018ilmul lis-s\u0101\u2018ati fal\u0101 tamtarunna bih\u0101 wattabi\u2018\u016bn(i), h\u0101\u017c\u0101 \u1e63ir\u0101\u1e6dum mustaq\u012bm(un).",
    "translation": "Sesungguhnya dia (Isa) itu benar-benar menjadi pertanda akan datangnya hari Kiamat. Oleh karena itu, janganlah sekali-kali kamu ragu tentang (kiamat) itu dan ikutilah (petunjuk)-Ku. Ini adalah jalan yang lurus.",
    "no_footnote": null,
    "footnotes": null,
    "surah": {
        "id": 43,
        "arabic": "\u0627\u0644\u0632\u0651\u062e\u0631\u0641",
        "latin": "Az-Zukhruf",
        "transliteration": "Az-Zukhruf",
        "translation": "Perhiasan dari Emas",
        "num_ayah": 89,
        "page": 489,
        "location": "Makkiyah"
    },
    "tafsir": {
        "wajiz": "Dan sungguh dia, yakni Nabi Isa yang mengagumkan itu yang lahir tanpa ayah, dan dianugerahi kemampuan menghidupkan orang mati serta menyembuhkan berbagai macam penyakit, benar-benar menjadi pertanda akan datangnya hari Kiamat. Karena itu, janganlah kamu ragu-ragu sedikit pun tentang kepastian datangnya hari Kiamat itu dan ikutilah Aku dengan mengikuti ajaran-ajaran yang disampaikan oleh rasul-Ku. Inilah jalan yang lurus yang dapat menyelamatkan kamu dari siksaan-Ku di dunia dan di akhirat.",
        "tahlili": "Allah menerangkan lebih lanjut tentang kelebihan yang diberikan kepada Nabi Isa yang akan menjadi bukti tentang adanya hari Kiamat. Hal itu karena Nabi Isa memiliki mukjizat-mukjizat besar, seperti menghidupkan orang mati, menyembuhkan kebutaan, dan sebagainya. Mukjizat-mukjizat itu merupakan bukti bahwa Allah yang memberikannya mampu menciptakan hari Kiamat. \nDi samping itu hadis-hadis sahih menginformasikan akan datangnya Nabi Isa menjelang hari Kiamat. Hadis itu diriwayatkan dari berbagai sumber, di antaranya Ab\u016b Hurairah, Ibn \u2018Abbas, \u2018Ikrimah, al-\u1e24asan, Qat\u0101dah, dan a\u1e0d-ahh\u0101k, sehingga dipandang mutawatir oleh sebagian ulama. Hadis itu di antaranya adalah: \n\u0642\u064e\u0627\u0644\u064e \u0631\u064e\u0633\u064f\u0648\u0652\u0644\u064f \u0627\u0644\u0644\u0651\u0670\u0647\u0650 \u0635\u064e\u0644\u0651\u064e\u0649 \u0627\u0644\u0644\u0651\u0670\u0647\u064f \u0639\u064e\u0644\u064e\u064a\u0652\u0647\u0650 \u0648\u064e\u0633\u064e\u0644\u0651\u064e\u0645\u064e: \u0648\u064e\u0627\u0644\u0651\u064e\u0630\u0650\u064a \u0646\u064e\u0641\u0652\u0633\u0650\u064a \u0628\u0650\u064a\u064e\u062f\u0650\u0647\u0650 \u0644\u064e\u064a\u064f\u0648\u0652\u0634\u0650\u0643\u064e\u0646\u0651\u064e \u0623\u064e\u0646\u0652 \u064a\u064e\u0646\u0652\u0632\u0650\u0644\u064e \u0641\u0650\u064a\u0652\u0643\u064f\u0645\u0652 \u0627\u0628\u0652\u0646\u064f \u0645\u064e\u0631\u0652\u064a\u064e\u0645\u064e \u062d\u064e\u0643\u064e\u0645\u0627\u064b \u0639\u064e\u062f\u0652\u0644\u064b\u0627. (\u0631\u0648\u0627\u0647 \u0627\u0644\u0628\u062e\u0627\u0631\u064a \u0648\u0645\u0633\u0644\u0645)\nNabi saw bersabda, \u201cDemi (Allah) yang menguasai jiwaku, hampir saja turun kepada kalian Isa bin Maryam sebagai hakim yang adil. (Riwayat al-Bukh\u0101r\u012b dan Muslim)\nDengan demikian maksud ayat ini adalah bahwa munculnya Nabi Isa menjelang hari Kiamat merupakan tanda bahwa Kiamat akan datang.\nSelanjutnya Allah meminta manusia agar tidak meragukan datangnya hari Kiamat. Karena itu mereka harus mempersiapkan diri dengan cara beriman dan berbuat baik, agar dapat memetik buah iman dan amalnya nanti di akhirat. Dengan begitu manusia akan hidup bahagia selamanya di hari akhirat nanti.\nAllah meminta Bani Israil agar mengikuti ajaran-ajaran yang telah disampaikan kepada Nabi Isa mengenai adanya hari Kiamat. Ajaran tentang adanya kiamat meminta manusia agar berbuat baik sebagai persiapan untuk menghadapinya. Ajaran itu merupakan jalan yang lurus yang mutlak benar dan pasti dapat mengantarkan manusia ke kehidupan yang bahagia di akhirat. Jalan yang lurus itulah yang diajarkan Islam, yang merupakan agama yang dibawa semua nabi, termasuk nabi terakhir yaitu Muhammad saw.",
        "intro_surah": "Surah az-Zukhruf terdiri dari 89 ayat, termasuk kelompok surah Makkiyyah, diturunkan sesudah Surah asy-Sy\u016br\u0101.\nDinamai az-Zukhruf (perhiasan) diambil dari kata az-zukhruf yang terdapat pada ayat 35 surah ini. Orang-orang musyrik mengukur tinggi atau rendahnya derajat seseorang bergantung kepada perhiasan dan harta benda yang ia punyai. Karena Muhammad saw adalah seorang anak yatim lagi miskin ia tidak pantas diangkat Allah sebagai seorang rasul dan nabi. Menurut mereka, pangkat rasul dan nabi itu harus diberikan kepada orang yang kaya. Ayat ini menegaskan bahwa harta tidak dapat dijadikan dasar untuk mengukur tinggi atau rendahnya derajat seseorang karena harta itu merupakan hiasan kehidupan duniawi, bukan berarti kesenangan akhirat.\n\nPOKOK-POKOK ISINYA:\n1. \tKeimanan:\nAl-Qur\u2019an berasal dari Lau\u1e25 Ma\u1e25f\u016b\u1e93; Nabi Isa tidak lain hanyalah seorang hamba Allah; pengakuan Nabi Isa bahwasanya Allah-lah Tuhan yang sebenarnya; menyifatkan bagaimana kesenangan di dalam surga dan hebatnya penderitaan orang kafir di dalam neraka sehingga mereka ingin mati saja, agar terlepas dari siksa itu; Tuhan tidak mempunyai anak.\n2. \tHukum-hukum:\nPeringatan Tuhan kepada Nabi Muhammad ialah agar menjauhi orang-orang yang tidak beriman.\n3. \tKisah-kisah:\nKisah Nabi Ibrahim; Musa dan Isa sebagai perbandingan bagi Nabi Muhammad dan sebagai penawar sewaktu menghadapi kesulitan dalam melakukan dakwah.\n4. \tLain-lain:\nPengakuan orang musyrik Mekah bahwa hanya Allah yang menciptakan langit dan bumi, tetapi mereka tetap menyembah berhala; kepercayaan mereka bahwa malaikat adalah anak Allah dan penolakan atas kepercayaan yang salah itu; Nabi Muhammad saw sebagai rasul mendapat ejekan dan celaan dari kaumnya, dan hal ini adalah biasa, karena rasul-rasul yang dahulu pun demikian pula halnya; orang musyrik sangat kuat berpegangan kepada tradisi dan adat istiadat nenek moyang mereka dalam beragama, sehingga tertutup hati mereka untuk menerima kebenaran.",
        "outro_surah": null,
        "munasabah_prev_surah": "HUBUNGAN SURAH ASY SY\u016aR\u0100 DENGAN\nSURAH AZ-ZUKHRUF\n\n1. \tKedua surah ini sama-sama dimulai dengan pembicaraan mengenai Al-Qur\u2019an yang diturunkan dari Tuhan Yang Mahaperkasa lagi Mahabijaksana.\n2. \tKedua surah ini sama-sama mengutarakan bagaimana sikap orang-orang kafir terhadap Al-Qur\u2019an dan mengemukakan dalil-dalil atas keesaan dan kekuasaan Allah.\n",
        "munasabah_prev_theme": "Pada ayat-ayat yang lalu dijelaskan bagaimana Nabi Musa diutus Allah sebagai rasul kepada Fir\u2018aun dan rakyatnya, dan Nabi Musa membawa mukjizat-mukjizat sebagai bukti kerasulannya. Namun dakwahnya selalu ditentang oleh Fir\u2018aun dan kaumnya karena kesombongan dan keingkaran mereka. \nDalam ayat-ayat berikut ini dikisahkan mengenai Nabi Isa. Ia lahir tanpa ayah, hal tersebut menjadi penyebab sebagian manusia menjadikannya sebagai tuhan. Wafatnya Nabi Isa juga membuat sebagian kaum kafir Mekah juga salah memahaminya, hal itu menjadi penyebab mereka menentang dakwah Nabi Muhammad saw. Hal itu juga menjadi pelajaran bagi Nabi Muhammad saw bahwa seorang nabi memang selalu ditentang oleh kaumnya. Oleh karena itu beliau tidak boleh patah semangat dalam berdakwah.",
        "theme_group": "NABI ISA DAN PERSELISIHAN MANUSIA TENTANGNYA",
        "kosakata": "1.\tYa\u1e63idd\u016bn \u064a\u064e\u0635\u0650\u062f\u0651\u064f\u0648\u0652\u0646\u064e (az-Zukhruf/43: 57)\nKalimat ya\u1e63idd\u016bn merupakan fi\u2018il mu\u1e0d\u0101ri\u2018 yang berasal dari akar kata \u1e63adda-ya\u1e63uddu-\u1e63addan yang berarti berpaling dari sesuatu. Arti awalnya adalah tali yang melingkari sesuatu. Dari kata ini kemudian muncul makna penolakan, pencegahan atau menghalang-halangi. \u1e62addahu \u2018anil-amr, berarti ia mencegah dan menghalang-halangi untuk melakukan sesuatu. Penolakan juga bisa diungkapkan dengan memalingkan muka karena merasa enggan bertemu (fa anta lah\u016b ta\u1e63add\u0101). Kata \u1e63adda-ya\u1e63iddu berarti tertawa karena merasa aneh bercampur dengan rasa kaget. Kalimat \u1e63adda-ya\u1e63iddu ini mengandung arti meremehkan. I\u017c\u0101 qaumuka minhu ya\u1e63iddun berarti ketika kaummu bersorak, merasa kaget dan heran. Kalimat ini juga mengandung arti bertepuk tangan, al-Anf\u0101l/8: 35 (ill\u0101 muk\u0101an wa ta\u1e63diyah), karena telapak tangan satu sama lainnya saling menghalangi sehingga menimbulkan suara. A\u1e63-\u1e63ad\u012bd artinya air nanah yang terdapat antara daging dan kulit yang bercampur dengan darah. Dalam Ibr\u0101h\u012bm/14: 16, dijelaskan bahwa penghuni neraka akan meminum air nanah yang bau. A\u1e63-\u1e63add juga berarti gunung, karena gunung bisa menghalangi pandangan mata. \nPada ayat ini Allah menjelaskan sikap kaum Quraisy ketika putera Maryam yaitu Isa dijadikan perumpamaan. Ketika Rasulullah membacakan di hadapan kaum Quraisy Surah al-Anbiy\u0101\u2019/21: 98 yang artinya, \u201cSungguh, kamu (orang kafir) dan apa yang kamu sembah selain Allah, adalah bahan bakar Jahanam. Kamu (pasti) masuk ke dalamnya.\u201d Tiba-tiba seorang Quraisy bernama Abdullah ibn Za\u2018bari menanyakan kepada Rasulullah, seandainya begitu berarti Isa yang disembah kaum Nasrani juga menjadi kayu bakar Jahanam. Seketika Nabi terdiam dan mereka pun menertawakan beliau. Apa yang mereka pertanyakan sebetulnya hanyalah untuk mencari-cari perselisihan dengan Nabi Muhammad. \n2.\tKha\u1e63im\u016bn \u062e\u064e\u0635\u0650\u0645\u064f\u0648\u0652\u0646\u064e (az-Zukhruf/43: 58)\nKata ini adalah bentuk jamak dari kata kha\u1e63im yang berasal dari akar kata kha\u1e63ama-yakh\u1e63imu-kha\u1e63man yang berarti bermusuhan, berbantah-bantahan dan pertengkaran. Kata kha\u1e63im bisa digunakan untuk bentuk mufrad, mu\u1e61anna atau jama\u2018. Kata ini mengandung arti pertentangan dan upaya untuk saling mengalahkan. Kh\u0101\u1e63ama melibatkan dua pihak yang bermusuhan. Rajul kha\u1e63imun artinya seseorang yang suka bertentangan. Al-Khi\u1e63m (dengan kasrah) menandakan permusuhan itu sudah mengakar. Khu\u1e63mu berarti sisi atau sudut, bentuk jamaknya adalah akh\u1e63\u0101m. Kata khasim adalah kata kerja yang tidak membutuhkan obyek. Berbeda dengan kha\u1e63\u012bm, khasim adalah yang mengetahui permusuhan walaupun dia tidak memusuhi. Sedangkan kha\u1e63\u012bm (dengan m\u0101d) adalah yang memusuhi orang lain. Kha\u1e63ama juga berarti memberikan potongan harga, seakan-akan pembeli memotong harga yang ditawarkan penjual. \nKata kha\u1e63im (tanpa alif) menandakan bahwa merekalah yang memulai permusuhan dan pertengkaran. Maksud dari ayat ini sebagaimana dijelaskan pada ayat sebelumnya bahwa kaum Quraisy selain bertanya mengenai posisi Nabi Isa juga menanyakan tentang perbandingan antara Tuhan yang mereka sembah dengan Nabi Isa. Mana yang lebih baik antara keduanya? Tuhan mereka atau Isa. Tentunya apa yang dipertanyakan ini hanyalah akal-akalan mereka untuk membantah ajaran Muhammad. Padahal mereka juga tahu bahwa Isa tidak mengetahui bahwa dia dijadikan sembahan kaum Na\u1e63rani, dan tidak pula rela dijadikan sembahan. Posisi Nabi Isa seperti yang dijelaskan Al-Qur\u2019an hanyalah seorang hamba yang diberikan anugerah kenabian oleh Allah swt, tidak lebih dari itu. Adapun beliau lahir tanpa seorang bapak merupakan bukti kekuasaan Allah untuk Bani Israil. ",
        "sabab_nuzul": null,
        "conclusion": null
    }
}