{
    "id": 4357,
    "surah_id": 43,
    "ayah": 32,
    "page": 491,
    "quarter_hizb": 50,
    "juz": 25,
    "manzil": 6,
    "arabic": "\u0627\u064e\u0647\u064f\u0645\u0652 \u064a\u064e\u0642\u0652\u0633\u0650\u0645\u064f\u0648\u0652\u0646\u064e \u0631\u064e\u062d\u0652\u0645\u064e\u062a\u064e \u0631\u064e\u0628\u0651\u0650\u0643\u064e\u06d7 \u0646\u064e\u062d\u0652\u0646\u064f \u0642\u064e\u0633\u064e\u0645\u0652\u0646\u064e\u0627 \u0628\u064e\u064a\u0652\u0646\u064e\u0647\u064f\u0645\u0652 \u0645\u0651\u064e\u0639\u0650\u064a\u0652\u0634\u064e\u062a\u064e\u0647\u064f\u0645\u0652 \u0641\u0650\u0649 \u0627\u0644\u0652\u062d\u064e\u064a\u0670\u0648\u0629\u0650 \u0627\u0644\u062f\u0651\u064f\u0646\u0652\u064a\u064e\u0627\u06d9 \u0648\u064e\u0631\u064e\u0641\u064e\u0639\u0652\u0646\u064e\u0627 \u0628\u064e\u0639\u0652\u0636\u064e\u0647\u064f\u0645\u0652 \u0641\u064e\u0648\u0652\u0642\u064e \u0628\u064e\u0639\u0652\u0636\u064d \u062f\u064e\u0631\u064e\u062c\u0670\u062a\u064d \u0644\u0651\u0650\u064a\u064e\u062a\u0651\u064e\u062e\u0650\u0630\u064e \u0628\u064e\u0639\u0652\u0636\u064f\u0647\u064f\u0645\u0652 \u0628\u064e\u0639\u0652\u0636\u064b\u0627 \u0633\u064f\u062e\u0652\u0631\u0650\u064a\u0651\u064b\u0627 \u06d7\u0648\u064e\u0631\u064e\u062d\u0652\u0645\u064e\u062a\u064f \u0631\u064e\u0628\u0651\u0650\u0643\u064e \u062e\u064e\u064a\u0652\u0631\u064c \u0645\u0651\u0650\u0645\u0651\u064e\u0627 \u064a\u064e\u062c\u0652\u0645\u064e\u0639\u064f\u0648\u0652\u0646\u064e ",
    "latin": "Ahum yaqsim\u016bna ra\u1e25mata rabbik(a), na\u1e25nu qasamn\u0101 bainahum ma\u2018\u012bsyatahum fil-\u1e25ay\u0101tid-dun-y\u0101, wa rafa\u2018n\u0101 ba\u2018\u1e0dahum fauqa ba\u2018\u1e0din daraj\u0101til liyattakhi\u017ca ba\u2018\u1e0duhum ba\u2018\u1e0dan sukhriyy\u0101(n), wa ra\u1e25matu rabbika khairum mimm\u0101 yajma\u2018\u016bn(a).",
    "translation": "Apakah mereka yang membagi-bagi rahmat Tuhanmu? Kamilah yang menentukan penghidupan mereka dalam kehidupan dunia dan Kami telah meninggikan sebagian mereka atas sebagian yang lain beberapa derajat, agar sebagian mereka dapat memanfaatkan sebagian yang lain. Rahmat Tuhanmu lebih baik dari apa yang mereka kumpulkan.",
    "no_footnote": null,
    "footnotes": null,
    "surah": {
        "id": 43,
        "arabic": "\u0627\u0644\u0632\u0651\u062e\u0631\u0641",
        "latin": "Az-Zukhruf",
        "transliteration": "Az-Zukhruf",
        "translation": "Perhiasan dari Emas",
        "num_ayah": 89,
        "page": 489,
        "location": "Makkiyah"
    },
    "tafsir": {
        "wajiz": "Atas sikap pengingkaran mereka terhadap Al-Qur\u2019an dan kerasulan Nabi Muhammad itu, Allah lalu bertanya kepada Nabi Muhammad, \u201cApakah mereka, yang ingkar, durhaka, dan menyekutukan Tuhan itu, yang membagi-bagi rahmat Tuhan, Pencipta, Pemelihara, dan Pelimpah rahmat kepada-mu, wahai Nabi Muhammad? Sama sekali tidak. Mereka tidak dapat melakukan itu. Kamilah yang membagikan rahmat di antara mereka dan Kami pula-lah yang menentukan penghidupan mereka dalam kehidupan dunia sesuai dengan ketentuan dan hukum-hukum yang telah Kami tetapkan. Dan Kami telah meninggikan sebagian mereka dalam kedudukan, harta, ilmu, dan jabatan mereka atas sebagian yang lain beberapa derajat, agar sebagian mereka dapat memanfaatkan sebagian yang lain sehingga mereka dapat saling membantu dan menolong dalam pemenuhan kebutuhan hidup. Dan rahmat Tuhan yang dilimpahkan kepada-mu berupa kenabian dan kerasulan lebih baik dari apa yang mereka kumpulkan, baik berupa kekayaan yang melimpah dan kekuasaan yang sangat tinggi.\u201d",
        "tahlili": "Ayat ini menunjukkan penolakan terhadap keinginan orang-orang musyrik yang tak mau menerima pengangkatan Muhammad saw sebagai rasul; seakan-akan merekalah yang paling berhak dan berwenang membagi-bagi dan menentukan siapa yang pantas menerima rahmat Tuhan. Allah menyatakan, \u201cSekali-kali tidaklah demikian halnya, Kami-lah yang berhak dan berwenang mengatur dan menentukan penghidupan hamba dalam kehidupan dunia. Kami-lah yang melebihkan sebagian hamba atas sebagian yang lain; ada yang kaya dan ada yang lemah, ada yang pandai dan ada yang bodoh, ada yang maju dan ada yang terbelakang, karena apabila Kami menyamakan di antara hamba di dalam hal-hal tersebut di atas, maka akan terjadi persaingan di antara mereka, atau tidak terjadi situasi saling bantu-membantu antara satu dengan yang lain, dan tidak akan terjadi saling memanfaatkan antara satu dengan yang lain, sebaliknya mereka saling mengejek. Semuanya itu akan membawa kepada kehancuran dan kerusakan dunia. Kalau mereka tidak mampu berbuat seperti tersebut di atas mengenai urusan keduniaan, mengapa mereka berani menentang berbagai kebijaksanaan Allah dalam menentukan siapa yang pantas diserahi tugas kerasulan itu. \nAyat ini ditutup dengan penegasan bahwa rahmat Allah dan keutamaan yang diberikan kepada orang yang telah ditakdirkan memangku jabatan kenabian dan mengikuti petujuk wahyu dalam Al-Qur\u2019an yang telah diturunkan, jauh lebih baik dan mulia daripada kemewahan dan kekayaan dunia yang ditimbun mereka. Demikian dikarenakan dunia dengan segala kekayaannya itu berada di tepi jurang yang akan runtuh dan akan lenyap tidak berbekas sedikit pun.",
        "intro_surah": "Surah az-Zukhruf terdiri dari 89 ayat, termasuk kelompok surah Makkiyyah, diturunkan sesudah Surah asy-Sy\u016br\u0101.\nDinamai az-Zukhruf (perhiasan) diambil dari kata az-zukhruf yang terdapat pada ayat 35 surah ini. Orang-orang musyrik mengukur tinggi atau rendahnya derajat seseorang bergantung kepada perhiasan dan harta benda yang ia punyai. Karena Muhammad saw adalah seorang anak yatim lagi miskin ia tidak pantas diangkat Allah sebagai seorang rasul dan nabi. Menurut mereka, pangkat rasul dan nabi itu harus diberikan kepada orang yang kaya. Ayat ini menegaskan bahwa harta tidak dapat dijadikan dasar untuk mengukur tinggi atau rendahnya derajat seseorang karena harta itu merupakan hiasan kehidupan duniawi, bukan berarti kesenangan akhirat.\n\nPOKOK-POKOK ISINYA:\n1. \tKeimanan:\nAl-Qur\u2019an berasal dari Lau\u1e25 Ma\u1e25f\u016b\u1e93; Nabi Isa tidak lain hanyalah seorang hamba Allah; pengakuan Nabi Isa bahwasanya Allah-lah Tuhan yang sebenarnya; menyifatkan bagaimana kesenangan di dalam surga dan hebatnya penderitaan orang kafir di dalam neraka sehingga mereka ingin mati saja, agar terlepas dari siksa itu; Tuhan tidak mempunyai anak.\n2. \tHukum-hukum:\nPeringatan Tuhan kepada Nabi Muhammad ialah agar menjauhi orang-orang yang tidak beriman.\n3. \tKisah-kisah:\nKisah Nabi Ibrahim; Musa dan Isa sebagai perbandingan bagi Nabi Muhammad dan sebagai penawar sewaktu menghadapi kesulitan dalam melakukan dakwah.\n4. \tLain-lain:\nPengakuan orang musyrik Mekah bahwa hanya Allah yang menciptakan langit dan bumi, tetapi mereka tetap menyembah berhala; kepercayaan mereka bahwa malaikat adalah anak Allah dan penolakan atas kepercayaan yang salah itu; Nabi Muhammad saw sebagai rasul mendapat ejekan dan celaan dari kaumnya, dan hal ini adalah biasa, karena rasul-rasul yang dahulu pun demikian pula halnya; orang musyrik sangat kuat berpegangan kepada tradisi dan adat istiadat nenek moyang mereka dalam beragama, sehingga tertutup hati mereka untuk menerima kebenaran.",
        "outro_surah": null,
        "munasabah_prev_surah": "HUBUNGAN SURAH ASY SY\u016aR\u0100 DENGAN\nSURAH AZ-ZUKHRUF\n\n1. \tKedua surah ini sama-sama dimulai dengan pembicaraan mengenai Al-Qur\u2019an yang diturunkan dari Tuhan Yang Mahaperkasa lagi Mahabijaksana.\n2. \tKedua surah ini sama-sama mengutarakan bagaimana sikap orang-orang kafir terhadap Al-Qur\u2019an dan mengemukakan dalil-dalil atas keesaan dan kekuasaan Allah.\n",
        "munasabah_prev_theme": "Pada ayat-ayat yang lalu Allah menerangkan bahwa yang menyebabkan orang kafir itu memegang teguh pendirian dan akidah mereka semata-mata hanya taklid buta kepada nenek moyang mereka; padahal jalan yang mereka tempuh batil dan rusak. Semestinya mereka kembali ke jalan yang benar, daripada ikut-ikutan saja. Dalam ayat-ayat berikut ini dinyatakan bahwa nenek moyang mereka yang paling mulia, Ibrahim telah meninggalkan agama nenek moyangnya, dan telah memutuskan untuk mengikuti petunjuk-petunjuk yang benar. Jika mereka mengaku pengikut Nabi Ibrahim, tentulah mereka tidak mengikuti kebiasaan nenek moyang mereka yang sesat.\nSetelah Ibrahim melepaskan agama nenek moyangnya, agama yang dianutnya itu dijadikan Allah agama yang menjadi panutan manusia seluruhnya sampai hari Kiamat.",
        "theme_group": "NABI IBRAHIM MENENTANG TRADISI SYIRIK",
        "kosakata": "1.\tKalimatan B\u0101qiyatan \u0643\u064e\u0644\u0650\u0645\u064e\u0629\u064b \u0628\u064e\u0627\u0642\u0650\u064a\u064e\u0629\u064b (az-Zukhruf/43: 28)\nIstilah kalimah b\u0101qiyah merupakan ungkapan yang terdiri dari dua kata, yaitu kalimah dan b\u0101qiyah. Yang pertama, yaitu kalimah, artinya kata atau ungkapan. Yang kedua, yaitu b\u0101qiyah, berasal dari kata kerja baqiya-yabq\u0101 yang artinya kekal, dan b\u0101qiyah diartikan sebagai yang kekal. Dengan demikian kalimah b\u0101qiyah maknanya adalah kalimat atau ungkapan yang kekal.\nPada ayat ini, kata kalimah b\u0101qiyah merupakan ungkapan yang maknanya adalah kalimat yang kekal, yaitu istilah yang tidak akan hilang karena selalu diungkapkan manusia sepanjang zaman. Maksud kalimah b\u0101qiyah adalah kalimat tauhid, yaitu ungkapan yang menyatakan keesaan Allah. Kalimat yang diungkapkan oleh Nabi Ibrahim ini akan selalu kekal, karena selalu diimani oleh manusia. Dari keturunan Nabi ini senantiasa akan ada yang beribadah kepada Allah yang Maha Esa.\n2.\t\u2018Aqibihi \u0639\u064e\u0642\u0650\u0628\u0650\u0647\u0650 (az-Zukhruf/43: 28)\nKata \u2018aqibihi berasal dari kata \u2018aqibun yang mendapat tambahan \u1e0dam\u012br hi. Kata \u2018aqib berasal dari kata kerja \u2018aqaba-ya\u2018qabu yang artinya yang datang sesudahnya. Sedang \u2018aqibun sendiri dapat diartikan sebagai sesuatu yang datang sesudahnya, atau anak dan anaknya anak (keturunan). Pada ayat ini kata tersebut digunakan untuk menyebut keturunan, yaitu keturunan dari Nabi Ibrahim. Dengan demikian, keturunan Nabi ini akan selalu memelihara kalimah b\u0101qiyah dengan cara senantiasa melaksanakan ajaran tauhid dan melaksanakan ajaran-ajaran sesuai dengan syariat masing-masing. \n3.\tSukhriyyan \u0633\u064f\u062e\u0652\u0631\u0650\u064a\u0651\u064b\u0627 (az-Zukhruf/43: 32)\nKata sukhriyyan berasal dari kata kerja sakhara-yaskharu, artinya membebani seseorang dengan pekerjaan tanpa upah, menindas dan menghinakan. Dengan demikian sebagai bentuk ma\u1e63dar (kata benda) sukhriyyan diartikan sebagai pemberian pekerjaan tanpa upah atau penindasan dan membuat terhina. Pada ayat ini, kata tersebut dipergunakan untuk menyatakan pemanfaatan atau penggunaan sebagian kelompok atas kelompok manusia lain. Hal ini mengisyaratkan bahwa status dan keadaan manusia itu memang tidak akan pernah sama. Sebab bila demikian, niscaya tidak akan ada yang mau dipekerjakan oleh yang lain. Karena itu, perbedaan status itu dimaksudkan agar manusia dapat saling melengkapi antara satu dengan yang lain. Dengan cara ini, mereka akan dapat saling mengambil manfaat dari lainnya.\n4.\tZukhrufan \u0632\u064f\u062e\u0652\u0631\u064f\u0641\u064b\u0627 (az-Zukhruf/43: 35)\nKata zukhruf berasal dari kata kerja zakhrafa-yuzakhrifu, artinya membuat baik atau menghiasi. Dengan demikian zukhruf dapat diartikan sebagai memperbaiki atau perhiasan. Pada ayat ini kata ini ditujukan untuk mengungkapkan tentang perhiasan yang sangat digemari oleh manusia. Secara khusus ungkapan ini untuk menyatakan bahwa kesenangan orang kafir pada segala macam perhiasan itu merupakan hal yang tidak abadi. Sedang bagi orang mukmin akan disediakan perhiasan yang lebih abadi, yaitu yang ada di akhirat kelak. Karena itu, perhiasan yang terbaik adalah yang disediakan Allah bagi umat manusia yang selalu taat pada tuntunan-tuntunan-Nya, patuh pada ajaran-ajaran-Nya, dan selalu melaksanakan syariat-Nya.\n",
        "sabab_nuzul": null,
        "conclusion": null
    }
}