{
    "id": 4365,
    "surah_id": 43,
    "ayah": 40,
    "page": 492,
    "quarter_hizb": 50,
    "juz": 25,
    "manzil": 6,
    "arabic": "\u0627\u064e\u0641\u064e\u0627\u064e\u0646\u0652\u062a\u064e \u062a\u064f\u0633\u0652\u0645\u0650\u0639\u064f \u0627\u0644\u0635\u0651\u064f\u0645\u0651\u064e \u0627\u064e\u0648\u0652 \u062a\u064e\u0647\u0652\u062f\u0650\u0649 \u0627\u0644\u0652\u0639\u064f\u0645\u0652\u064a\u064e \u0648\u064e\u0645\u064e\u0646\u0652 \u0643\u064e\u0627\u0646\u064e \u0641\u0650\u064a\u0652 \u0636\u064e\u0644\u0670\u0644\u064d \u0645\u0651\u064f\u0628\u0650\u064a\u0652\u0646\u064d ",
    "latin": "Afa anta tusmi\u2018u\u1e63-\u1e63umma au tahdil-\u2018umya  wa man k\u0101na f\u012b \u1e0dal\u0101lim mub\u012bn(in).",
    "translation": "Maka, apakah engkau (Nabi Muhammad) dapat menjadikan orang-orang yang tuli bisa mendengar (kebenaran) atau (dapatkah) engkau memberi petunjuk kepada orang-orang yang buta (hatinya) dan kepada orang yang tetap dalam kesesatan yang nyata?",
    "no_footnote": null,
    "footnotes": null,
    "surah": {
        "id": 43,
        "arabic": "\u0627\u0644\u0632\u0651\u062e\u0631\u0641",
        "latin": "Az-Zukhruf",
        "transliteration": "Az-Zukhruf",
        "translation": "Perhiasan dari Emas",
        "num_ayah": 89,
        "page": 489,
        "location": "Makkiyah"
    },
    "tafsir": {
        "wajiz": "Maka apakah engkau, wahai Nabi Muhammad, dapat menjadikan orang yang tuli, yaitu yang enggan mendengar ajakan kepada kebaikan, bisa mendengar ajakan itu, atau dapatkah engkau memberi petunjuk kepada orang yang buta hatinya untuk berpikir dan memahami petunjuk yang disampaikan kepada mereka dan kepada orang yang tetap dalam kesesatan yang nyata?",
        "tahlili": "Pada ayat ini Allah bertanya kepada Nabi Muhammad saw yang selalu ingin agar orang-orang kafir itu beriman, apakah ia mampu membuat orang yang tuli mendengar ajakan untuk beriman dan berbuat baik, dan apakah ia mampu membuka hati orang yang telah tertutup mata hatinya. Tentu saja Nabi saw. tidak akan mampu, karena yang mampu melakukannya hanyalah Allah, sedangkan Allah tidak akan mengembalikan mereka yang sesat itu bila mereka sendiri tidak bersedia kembali kepada jalan yang benar. \nPertanyaan Allah swt kepada Nabi Muhammad saw itu bukanlah untuk maksud bertanya, tetapi justru untuk menegaskan bahwa telinga dan mata batin mereka sebenarnya sudah tuli dan buta, karena itu kebenaran apa pun yang disampaikan kepada mereka tidak akan mereka terima. Oleh karena itu tugas beliau sebagai seorang rasul hanya menyampaikan. Dalam menyampaikan firman-firman Allah kepada kaum kafir Mekah itu, Nabi saw telah melaksanakannya dengan segenap tenaga dan upaya, namun sebagian mereka menentangnya. Nabi saw dan umatnya diboikot, bahkan diancam akan dibunuh. Untuk menyelamatkan diri Nabi saw memerintahkan pengikut-pengikutnya untuk berhijrah, pertama ke Abessinia, dan kedua ke Medinah. Penentangan dan ancaman itu kadang-kadang membuat hati Nabi saw. kecewa dan hampir-hampir putus asa. Namun dengan turunnya ayat-ayat seperti ayat ini, hati beliau terhibur kembali. Beliau sadar bahwa ia tidak bersalah, tetapi merekalah yang tertutup hatinya. Yang mampu membukanya hanyalah Allah, karena itu beliau tidak lagi berputus asa, tetapi terus berdakwah, dengan harapan pada suatu saat Allah akan menurunkan hidayah-Nya kepada mereka.\nDi dalam ayat lain Allah berfirman mengenai pemberian hidayah yang merupakan wewenang Allah itu:\n\u0644\u064e\u064a\u0652\u0633\u064e \u0639\u064e\u0644\u064e\u064a\u0652\u0643\u064e \u0647\u064f\u062f\u0670\u0649\u0647\u064f\u0645\u0652 \u0648\u064e\u0644\u0670\u0643\u0650\u0646\u0651\u064e \u0627\u0644\u0644\u0651\u0670\u0647\u064e \u064a\u064e\u0647\u0652\u062f\u0650\u064a\u0652 \u0645\u064e\u0646\u0652 \u064a\u0651\u064e\u0634\u064e\u0627\u06e4\u0621\u064f\nBukanlah kewajibanmu (Muhammad) menjadikan mereka mendapat petunjuk, tetapi Allah-lah yang memberi petunjuk kepada siapa yang Dia kehendaki. (al-Baqarah/2: 272) ",
        "intro_surah": "Surah az-Zukhruf terdiri dari 89 ayat, termasuk kelompok surah Makkiyyah, diturunkan sesudah Surah asy-Sy\u016br\u0101.\nDinamai az-Zukhruf (perhiasan) diambil dari kata az-zukhruf yang terdapat pada ayat 35 surah ini. Orang-orang musyrik mengukur tinggi atau rendahnya derajat seseorang bergantung kepada perhiasan dan harta benda yang ia punyai. Karena Muhammad saw adalah seorang anak yatim lagi miskin ia tidak pantas diangkat Allah sebagai seorang rasul dan nabi. Menurut mereka, pangkat rasul dan nabi itu harus diberikan kepada orang yang kaya. Ayat ini menegaskan bahwa harta tidak dapat dijadikan dasar untuk mengukur tinggi atau rendahnya derajat seseorang karena harta itu merupakan hiasan kehidupan duniawi, bukan berarti kesenangan akhirat.\n\nPOKOK-POKOK ISINYA:\n1. \tKeimanan:\nAl-Qur\u2019an berasal dari Lau\u1e25 Ma\u1e25f\u016b\u1e93; Nabi Isa tidak lain hanyalah seorang hamba Allah; pengakuan Nabi Isa bahwasanya Allah-lah Tuhan yang sebenarnya; menyifatkan bagaimana kesenangan di dalam surga dan hebatnya penderitaan orang kafir di dalam neraka sehingga mereka ingin mati saja, agar terlepas dari siksa itu; Tuhan tidak mempunyai anak.\n2. \tHukum-hukum:\nPeringatan Tuhan kepada Nabi Muhammad ialah agar menjauhi orang-orang yang tidak beriman.\n3. \tKisah-kisah:\nKisah Nabi Ibrahim; Musa dan Isa sebagai perbandingan bagi Nabi Muhammad dan sebagai penawar sewaktu menghadapi kesulitan dalam melakukan dakwah.\n4. \tLain-lain:\nPengakuan orang musyrik Mekah bahwa hanya Allah yang menciptakan langit dan bumi, tetapi mereka tetap menyembah berhala; kepercayaan mereka bahwa malaikat adalah anak Allah dan penolakan atas kepercayaan yang salah itu; Nabi Muhammad saw sebagai rasul mendapat ejekan dan celaan dari kaumnya, dan hal ini adalah biasa, karena rasul-rasul yang dahulu pun demikian pula halnya; orang musyrik sangat kuat berpegangan kepada tradisi dan adat istiadat nenek moyang mereka dalam beragama, sehingga tertutup hati mereka untuk menerima kebenaran.",
        "outro_surah": null,
        "munasabah_prev_surah": "HUBUNGAN SURAH ASY SY\u016aR\u0100 DENGAN\nSURAH AZ-ZUKHRUF\n\n1. \tKedua surah ini sama-sama dimulai dengan pembicaraan mengenai Al-Qur\u2019an yang diturunkan dari Tuhan Yang Mahaperkasa lagi Mahabijaksana.\n2. \tKedua surah ini sama-sama mengutarakan bagaimana sikap orang-orang kafir terhadap Al-Qur\u2019an dan mengemukakan dalil-dalil atas keesaan dan kekuasaan Allah.\n",
        "munasabah_prev_theme": "Pada ayat-ayat yang lalu diterangkan bahwa akibat orang-orang yang membutakan hati mereka dari petunjuk-petunjuk Al-Qur\u2019an akan ditemani oleh setan yang akan menjerumuskan mereka. Dalam ayat-ayat berikut diterangkan bahwa mereka lebih jauh lagi menulikan telinga dan membutakan mata batin mereka dari ajaran-ajaran Allah yang terdapat dalam Al-Qur\u2019an. Tetapi Nabi Muhammad saw tidak boleh berputus asa, dan harus tetap menyampaikan dakwah.\n",
        "theme_group": "TUGAS NABI SAW HANYALAH MENYAMPAIKAN \nAGAMA ALLAH ",
        "kosakata": "1.\tMuntaqim\u016bn \u0645\u064f\u0646\u0652\u062a\u064e\u0642\u0650\u0645\u064f\u0648\u0652\u0646\u064e (az-Zukhruf/43: 41)\nKata muntaqim\u016bn adalah jama\u2018 mu\u017cakkar s\u0101lim dari kata muntaqim. Ia terbentuk dari kata intaqama-yantaqimu-intiq\u0101man. Kata dasarnya adalah naqama-yanqimu-naqman/naqmatan. Kata naqman berarti balasan hukuman. Kata naqama juga berarti mengingkari atau memandang salah, sebagaimana dalam firman Allah, \u201cKatakanlah, \u2018Hai Ahli kitab, apakah kamu memandang kami salah, hanya lantaran kami beriman kepada Allah, kepada apa yang diturunkan kepada kami dan kepada apa yang diturunkan sebelumnya, sedang kebanyakan di antara kamu benar-benar orang-orang yang fasik?\u201d (al-M\u0101\u2019idah/5: 59) Kata naqman juga berarti kufur nikmat, sebagaimana yang terdapat dalam hadis tentang zakat: \n\u0645\u064e\u0627 \u064a\u064e\u0646\u0652\u0642\u0650\u0645\u064f \u0627\u0628\u0652\u0646\u064f \u062c\u064e\u0645\u0650\u064a\u0652\u0644\u064d \u0625\u0650\u0644\u0627\u0651\u064e \u0623\u064e\u0646\u0651\u064e\u0647\u064f \u0643\u064e\u0627\u0646\u064e \u0641\u064e\u0642\u0650\u064a\u0652\u0631\u064b\u0627 \u0641\u064e\u0623\u064e\u063a\u0652\u0646\u064e\u0627\u0647\u064f \u0627\u0644\u0644\u0651\u0670\u0647\u064f. (\u0631\u0648\u0627\u0647 \u0627\u0644\u0628\u062e\u0627\u0631\u064a \u0648\u0645\u0633\u0644\u0645)\n\u201cIbnu Jamil tidak ingkar nikmat (enggan zakat) kecuali karena dahulunya ia fakir lalu Allah memberinya kekayaan.\u201d (Riwayat al-Bukh\u0101r\u012b dan Muslim)\n\nMaksudnya, seolah-olah kekayaannya itu mendorongnya untuk kufur nikmat. Kata naqama juga berarti membenci. Dan yang dimaksud dengan kata muntaqim\u016bn di sini adalah menyiksa orang-orang kafir itu di akhirat. \n2.\tMuqtadir\u016bn \u0645\u064f\u0642\u0652\u062a\u064e\u062f\u0650\u0631\u064f\u0648\u0652\u0646\u064e (az-Zukhruf/43: 42)\nKata muqtadir\u016bn adalah jama\u2018 mu\u017cakkar s\u0101lim dari kata muqtadir, isim f\u0101\u2018il dari kata iqtadara-yaqtadiru-iqtid\u0101ran. Kata dasarnya adalah qadara- yaqdiru-qudratan/qadaran yang berarti mampu. Kata al-Muqtadir itu sendiri merupakan salah satu dari al-Asm\u0101'ul \u1e24usn\u0101. Al-Asm\u0101'ul \u1e24usna lain yang memiliki akar yang sama adalah al-Qad\u012br dan al-Q\u0101dir. Nama al-Q\u0101dir adalah isim f\u0101\u2018il dari kata qadara; kata al-Qad\u012br adalah bentuk mub\u0101lagah (hiperbola/melebih-lebihkan) dari kata al-Q\u0101dir. Sementara kata al-Muqtadir itu lebih hiperbolik daripada kata al-Q\u0101dir. Di dalam Al-Qur\u2019an, kata muqtadir disebut sebanyak empat kali, yaitu pada al-Kahf ayat 45, al-Qamar ayat 42 dan 55, dan pada ayat yang sedang ditafsirkan ini. Dan keseluruhannya menunjuk kepada makna Mahakuasa, salah satu dari al-Asm\u0101'ul-\u1e24usna.",
        "sabab_nuzul": null,
        "conclusion": null
    }
}