{
    "id": 4348,
    "surah_id": 43,
    "ayah": 23,
    "page": 491,
    "quarter_hizb": 49.75,
    "juz": 25,
    "manzil": 6,
    "arabic": "\u0648\u064e\u0643\u064e\u0630\u0670\u0644\u0650\u0643\u064e \u0645\u064e\u0627\u0653 \u0627\u064e\u0631\u0652\u0633\u064e\u0644\u0652\u0646\u064e\u0627 \u0645\u0650\u0646\u0652 \u0642\u064e\u0628\u0652\u0644\u0650\u0643\u064e \u0641\u0650\u064a\u0652 \u0642\u064e\u0631\u0652\u064a\u064e\u0629\u064d \u0645\u0651\u0650\u0646\u0652 \u0646\u0651\u064e\u0630\u0650\u064a\u0652\u0631\u064d\u06d9 \u0627\u0650\u0644\u0651\u064e\u0627 \u0642\u064e\u0627\u0644\u064e \u0645\u064f\u062a\u0652\u0631\u064e\u0641\u064f\u0648\u0652\u0647\u064e\u0627\u0653  \u06d9\u0627\u0650\u0646\u0651\u064e\u0627 \u0648\u064e\u062c\u064e\u062f\u0652\u0646\u064e\u0627\u0653 \u0627\u0670\u0628\u064e\u0627\u06e4\u0621\u064e\u0646\u064e\u0627 \u0639\u064e\u0644\u0670\u0653\u0649 \u0627\u064f\u0645\u0651\u064e\u0629\u064d \u0648\u0651\u064e\u0627\u0650\u0646\u0651\u064e\u0627 \u0639\u064e\u0644\u0670\u0653\u0649 \u0627\u0670\u062b\u0670\u0631\u0650\u0647\u0650\u0645\u0652 \u0645\u0651\u064f\u0642\u0652\u062a\u064e\u062f\u064f\u0648\u0652\u0646\u064e",
    "latin": "Wa ka\u017c\u0101lika m\u0101 arsaln\u0101 min qablika f\u012b qaryatim min na\u017c\u012br(in), ill\u0101 q\u0101la mutraf\u016bh\u0101, inn\u0101 wajadn\u0101 \u0101b\u0101'an\u0101 \u2018al\u0101 ummatiw wa inn\u0101 \u2018al\u0101 \u0101\u1e61\u0101rihim muqtad\u016bn(a).",
    "translation": "Demikian juga ketika Kami mengutus seorang pemberi peringatan sebelum engkau (Nabi Muhammad) ke suatu negeri. Orang-orang yang hidup mewah (di negeri itu) selalu berkata, \u201cSesungguhnya kami mendapati nenek moyang kami menganut suatu (agama) dan kami hanya mencontoh jejak mereka.\u201d",
    "no_footnote": null,
    "footnotes": null,
    "surah": {
        "id": 43,
        "arabic": "\u0627\u0644\u0632\u0651\u062e\u0631\u0641",
        "latin": "Az-Zukhruf",
        "transliteration": "Az-Zukhruf",
        "translation": "Perhiasan dari Emas",
        "num_ayah": 89,
        "page": 489,
        "location": "Makkiyah"
    },
    "tafsir": {
        "wajiz": "Dan apa yang dikatakan oleh kaum musyrik Mekah kepadamu sekarang, wahai Nabi Muhammad, demikian juga yang dikatakan oleh umat-umat terdahulu ketika Kami mengutus seorang pemberi peringatan, yaitu nabi atau rasul sebelum engkau diutus, dalam suatu negeri di lokasi mana pun di bumi ini, orang-orang yang hidup mewah secara durhaka di masing-masing negeri itu selalu berkata, \u201cSesungguhnya kami mendapati nenek moyang kami yang juga orang-orang terkemuka dan paham menganut suatu agama, yakni kepercayaan yang mereka yakini benar dan sesungguhnya kami tidak lain, kecuali sekadar pengikut-pengikut yang mengikuti jejak-jejak mereka.\u201d",
        "tahlili": "Pada ayat ini Allah menghibur Nabi Muhammad saw bahwa tidak seorang rasul pun yang diutus ke suatu negeri sebelum Muhammad saw mendapat sambutan dengan kata-kata yang menyenangkan hati. Mereka semua mendapat jawaban yang tidak enak didengar dan sangat menjengkelkan hati. Sikap yang demikian berasal dari orang-orang yang terbiasa hidup mewah, sombong dan angkuh. Mereka berkata, \u201cSesungguhnya kami mendapatkan nenek moyang kami menganut suatu agama dan sesungguhnya kami adalah pengikut jejak mereka.\u201d Jadi, kalau Muhammad saw mendapat jawaban seperti itu tidak perlu gusar dan merasa sesak dada. Apa yang dikatakan kepada Muhammad saw telah dikatakan pula kepada rasul-rasul sebelumnya, sebagaimana firman Allah:\n\u0645\u064e\u0627 \u064a\u064f\u0642\u064e\u0627\u0644\u064f \u0644\u064e\u0643\u064e \u0627\u0650\u0644\u0651\u064e\u0627 \u0645\u064e\u0627 \u0642\u064e\u062f\u0652 \u0642\u0650\u064a\u0652\u0644\u064e \u0644\u0650\u0644\u0631\u0651\u064f\u0633\u064f\u0644\u0650 \u0645\u0650\u0646\u0652 \u0642\u064e\u0628\u0652\u0644\u0650\u0643\u064e\nApa yang dikatakan (oleh orang-orang kafir) kepadamu tidak lain adalah apa yang telah dikatakan kepada rasul-rasul sebelummu. (Fu\u1e63\u1e63ilat/41: 43)\n\nBegitu pula kalau dikatakan bahwa Nabi Muhammad saw tukang sihir, atau gila oleh kaumnya, itu pun karena rasul-rasul sebelumnya telah dituduh seperti itu juga oleh kaumnya, firman Allah:\n\u0643\u064e\u0630\u0670\u0644\u0650\u0643\u064e \u0645\u064e\u0627\u0653 \u0627\u064e\u062a\u064e\u0649 \u0627\u0644\u0651\u064e\u0630\u0650\u064a\u0652\u0646\u064e \u0645\u0650\u0646\u0652 \u0642\u064e\u0628\u0652\u0644\u0650\u0647\u0650\u0645\u0652 \u0645\u0651\u0650\u0646\u0652 \u0631\u0651\u064e\u0633\u064f\u0648\u0652\u0644\u064d \u0627\u0650\u0644\u0651\u064e\u0627 \u0642\u064e\u0627\u0644\u064f\u0648\u0652\u0627 \u0633\u064e\u0627\u062d\u0650\u0631\u064c \u0627\u064e\u0648\u0652 \u0645\u064e\u062c\u0652\u0646\u064f\u0648\u0652\u0646\u064c \u0665\u0662\nDemikianlah setiap kali seorang rasul yang datang kepada orang-orang yang sebelum mereka, mereka (kaumnya) pasti mengatakan, \u201cDia itu pesihir atau orang gila.\u201d (a\u017c-\u017b\u0101riy\u0101t/51: 52)",
        "intro_surah": "Surah az-Zukhruf terdiri dari 89 ayat, termasuk kelompok surah Makkiyyah, diturunkan sesudah Surah asy-Sy\u016br\u0101.\nDinamai az-Zukhruf (perhiasan) diambil dari kata az-zukhruf yang terdapat pada ayat 35 surah ini. Orang-orang musyrik mengukur tinggi atau rendahnya derajat seseorang bergantung kepada perhiasan dan harta benda yang ia punyai. Karena Muhammad saw adalah seorang anak yatim lagi miskin ia tidak pantas diangkat Allah sebagai seorang rasul dan nabi. Menurut mereka, pangkat rasul dan nabi itu harus diberikan kepada orang yang kaya. Ayat ini menegaskan bahwa harta tidak dapat dijadikan dasar untuk mengukur tinggi atau rendahnya derajat seseorang karena harta itu merupakan hiasan kehidupan duniawi, bukan berarti kesenangan akhirat.\n\nPOKOK-POKOK ISINYA:\n1. \tKeimanan:\nAl-Qur\u2019an berasal dari Lau\u1e25 Ma\u1e25f\u016b\u1e93; Nabi Isa tidak lain hanyalah seorang hamba Allah; pengakuan Nabi Isa bahwasanya Allah-lah Tuhan yang sebenarnya; menyifatkan bagaimana kesenangan di dalam surga dan hebatnya penderitaan orang kafir di dalam neraka sehingga mereka ingin mati saja, agar terlepas dari siksa itu; Tuhan tidak mempunyai anak.\n2. \tHukum-hukum:\nPeringatan Tuhan kepada Nabi Muhammad ialah agar menjauhi orang-orang yang tidak beriman.\n3. \tKisah-kisah:\nKisah Nabi Ibrahim; Musa dan Isa sebagai perbandingan bagi Nabi Muhammad dan sebagai penawar sewaktu menghadapi kesulitan dalam melakukan dakwah.\n4. \tLain-lain:\nPengakuan orang musyrik Mekah bahwa hanya Allah yang menciptakan langit dan bumi, tetapi mereka tetap menyembah berhala; kepercayaan mereka bahwa malaikat adalah anak Allah dan penolakan atas kepercayaan yang salah itu; Nabi Muhammad saw sebagai rasul mendapat ejekan dan celaan dari kaumnya, dan hal ini adalah biasa, karena rasul-rasul yang dahulu pun demikian pula halnya; orang musyrik sangat kuat berpegangan kepada tradisi dan adat istiadat nenek moyang mereka dalam beragama, sehingga tertutup hati mereka untuk menerima kebenaran.",
        "outro_surah": null,
        "munasabah_prev_surah": "HUBUNGAN SURAH ASY SY\u016aR\u0100 DENGAN\nSURAH AZ-ZUKHRUF\n\n1. \tKedua surah ini sama-sama dimulai dengan pembicaraan mengenai Al-Qur\u2019an yang diturunkan dari Tuhan Yang Mahaperkasa lagi Mahabijaksana.\n2. \tKedua surah ini sama-sama mengutarakan bagaimana sikap orang-orang kafir terhadap Al-Qur\u2019an dan mengemukakan dalil-dalil atas keesaan dan kekuasaan Allah.\n",
        "munasabah_prev_theme": "Pada ayat-ayat yang lalu diterangkan bahwa orang musyrik itu mengakui ketuhanan Allah dan Dialah yang menciptakan langit dan bumi, maka dalam ayat-ayat berikut ini Allah swt menerangkan bahwa mereka menyatakan hal-hal yang bertentangan dengan pengakuan mereka sendiri. Mereka mengakui bahwa Allah yang menciptakan langit dan bumi, tetapi mereka pun menyifatkan Allah dengan sifat-sifat makhluk yang sama sekali tidak layak ditujukan kepada Allah sebagai pencipta alam semesta. Mereka itu menganggap bahwa malaikat adalah anak perempuan Allah, sedangkan anak laki-laki khusus untuk mereka.",
        "theme_group": "BERBAGAI MACAM DUSTA KAUM MUSYRIK",
        "kosakata": "Kosakata: Al-\u1e24ilyah \u0627\u0644\u0652\u062d\u0650\u0644\u0652\u064a\u064e\u0629\u064f (az-Zukhruf/43: 18)\nKata al-\u1e25ilyah berasal dari kata kerja \u1e25al\u0101-ya\u1e25li, yang artinya menghiasi. \u1e24alyan yang merupakan bentuk ma\u1e63dar (kata benda) dapat diartikan sebagai perhiasan. Dari kata ini muncul kata al-\u1e25ilyatu yang artinya perhiasan yang dipakai perempuan yang terbuat dari logam (emas, perak, platina, dan lainnya) atau bebatuan, seperti permata, berlian, safir, dan lainnya. Kata al-\u1e25ilyatu juga dapat diartikan sebagai sesuatu yang ditampakkan dari segi warna, bentuk luarnya, atau geraknya. \nPada ayat ini, al-\u1e25ilyah diartikan sebagai perhiasan yang tujuannya untuk mengungkapkan bahwa jenis manusia yang senang berhias, yaitu kaum perempuan, tidak layak untuk dikatakan sebagai anak Allah. Apalagi kebanyakan kaum ini lebih sering mengikuti penilaian perasaan ketimbang akal mereka. Keadaan ini tentu kadang-kadang berujung pada pertimbangan yang tidak akurat. Lebih dari itu, baik lelaki maupun perempuan dari jenis makhluk memang bukan anak Allah swt. Karena Dia adalah zat yang tidak beranak dan tidak diperanakkan.",
        "sabab_nuzul": null,
        "conclusion": null
    }
}