{
    "id": 4413,
    "surah_id": 43,
    "ayah": 88,
    "page": 495,
    "quarter_hizb": 50.25,
    "juz": 25,
    "manzil": 6,
    "arabic": "\u0648\u064e\u0642\u0650\u064a\u0652\u0644\u0650\u0647\u0656 \u064a\u0670\u0631\u064e\u0628\u0651\u0650 \u0627\u0650\u0646\u0651\u064e \u0647\u0670\u0653\u0624\u064f\u0644\u064e\u0627\u06e4\u0621\u0650 \u0642\u064e\u0648\u0652\u0645\u064c \u0644\u0651\u064e\u0627 \u064a\u064f\u0624\u0652\u0645\u0650\u0646\u064f\u0648\u0652\u0646\u064e\u06d8",
    "latin": "Wa q\u012blih\u012b y\u0101 rabbi inna h\u0101'ul\u0101'i qaumul l\u0101 yu'min\u016bn(a).",
    "translation": "Demi (kebenaran) ucapannya (Nabi Muhammad), \u201cYa Tuhanku, sesungguhnya mereka itu adalah kaum yang tidak beriman.\u201d",
    "no_footnote": null,
    "footnotes": null,
    "surah": {
        "id": 43,
        "arabic": "\u0627\u0644\u0632\u0651\u062e\u0631\u0641",
        "latin": "Az-Zukhruf",
        "transliteration": "Az-Zukhruf",
        "translation": "Perhiasan dari Emas",
        "num_ayah": 89,
        "page": 489,
        "location": "Makkiyah"
    },
    "tafsir": {
        "wajiz": "ucapannya, yakni ucapan Nabi Muhammad ketika mengadu kepada Allah dengan mengatakan, \u201cYa Tuhanku, sesungguhnya mereka itu adalah kaum yang tidak beriman kepada-Mu dan kepada apa yang diturunkan untuk mereka.\u201d",
        "tahlili": "Muhammad saw berkata, \u201cWahai Tuhanku, sesungguhnya orang-orang yang aku seru untuk mengikuti ajaranmu sesuai dengan perintahmu adalah orang-orang yang telah terkunci mati hatinya sehingga mereka tidak mau beriman.\u201d Firman Allah:\n\u0627\u0650\u0646\u0651\u064e \u0627\u0644\u0651\u064e\u0630\u0650\u064a\u0652\u0646\u064e \u0643\u064e\u0641\u064e\u0631\u064f\u0648\u0652\u0627 \u0633\u064e\u0648\u064e\u0627\u06e4\u0621\u064c \u0639\u064e\u0644\u064e\u064a\u0652\u0647\u0650\u0645\u0652 \u0621\u064e\u0627\u064e\u0646\u0652\u0630\u064e\u0631\u0652\u062a\u064e\u0647\u064f\u0645\u0652 \u0627\u064e\u0645\u0652 \u0644\u064e\u0645\u0652 \u062a\u064f\u0646\u0652\u0630\u0650\u0631\u0652\u0647\u064f\u0645\u0652 \u0644\u064e\u0627 \u064a\u064f\u0624\u0652\u0645\u0650\u0646\u064f\u0648\u0652\u0646\u064e \u0666\nSesungguhnya orang-orang kafir, sama saja bagi mereka, engkau (Muhammad) beri peringatan atau tidak engkau beri peringatan, mereka tidak akan beriman. (al-Baqarah/2: 6)",
        "intro_surah": "Surah az-Zukhruf terdiri dari 89 ayat, termasuk kelompok surah Makkiyyah, diturunkan sesudah Surah asy-Sy\u016br\u0101.\nDinamai az-Zukhruf (perhiasan) diambil dari kata az-zukhruf yang terdapat pada ayat 35 surah ini. Orang-orang musyrik mengukur tinggi atau rendahnya derajat seseorang bergantung kepada perhiasan dan harta benda yang ia punyai. Karena Muhammad saw adalah seorang anak yatim lagi miskin ia tidak pantas diangkat Allah sebagai seorang rasul dan nabi. Menurut mereka, pangkat rasul dan nabi itu harus diberikan kepada orang yang kaya. Ayat ini menegaskan bahwa harta tidak dapat dijadikan dasar untuk mengukur tinggi atau rendahnya derajat seseorang karena harta itu merupakan hiasan kehidupan duniawi, bukan berarti kesenangan akhirat.\n\nPOKOK-POKOK ISINYA:\n1. \tKeimanan:\nAl-Qur\u2019an berasal dari Lau\u1e25 Ma\u1e25f\u016b\u1e93; Nabi Isa tidak lain hanyalah seorang hamba Allah; pengakuan Nabi Isa bahwasanya Allah-lah Tuhan yang sebenarnya; menyifatkan bagaimana kesenangan di dalam surga dan hebatnya penderitaan orang kafir di dalam neraka sehingga mereka ingin mati saja, agar terlepas dari siksa itu; Tuhan tidak mempunyai anak.\n2. \tHukum-hukum:\nPeringatan Tuhan kepada Nabi Muhammad ialah agar menjauhi orang-orang yang tidak beriman.\n3. \tKisah-kisah:\nKisah Nabi Ibrahim; Musa dan Isa sebagai perbandingan bagi Nabi Muhammad dan sebagai penawar sewaktu menghadapi kesulitan dalam melakukan dakwah.\n4. \tLain-lain:\nPengakuan orang musyrik Mekah bahwa hanya Allah yang menciptakan langit dan bumi, tetapi mereka tetap menyembah berhala; kepercayaan mereka bahwa malaikat adalah anak Allah dan penolakan atas kepercayaan yang salah itu; Nabi Muhammad saw sebagai rasul mendapat ejekan dan celaan dari kaumnya, dan hal ini adalah biasa, karena rasul-rasul yang dahulu pun demikian pula halnya; orang musyrik sangat kuat berpegangan kepada tradisi dan adat istiadat nenek moyang mereka dalam beragama, sehingga tertutup hati mereka untuk menerima kebenaran.",
        "outro_surah": null,
        "munasabah_prev_surah": "HUBUNGAN SURAH ASY SY\u016aR\u0100 DENGAN\nSURAH AZ-ZUKHRUF\n\n1. \tKedua surah ini sama-sama dimulai dengan pembicaraan mengenai Al-Qur\u2019an yang diturunkan dari Tuhan Yang Mahaperkasa lagi Mahabijaksana.\n2. \tKedua surah ini sama-sama mengutarakan bagaimana sikap orang-orang kafir terhadap Al-Qur\u2019an dan mengemukakan dalil-dalil atas keesaan dan kekuasaan Allah.\n",
        "munasabah_prev_theme": "Pada ayat-ayat yang lalu diterangkan sikap orang-orang musyrik terhadap Rasulullah saw, dan risalah yang disampaikannya. Orang-orang tidak saja menentang dan mengingkari rasul, tetapi mereka selalu berusaha untuk membinasakan Rasulullah dan kaum Muslimin. Karena itu, mereka kelak dimasukkan ke dalam neraka Jahanam. Dalam ayat ini diterangkan bahwa Rasulullah saw tidak mengikuti ajakan orang-orang musyrik itu bukan karena benci kepada mereka, melainkan karena mereka menganut akidah yang sesat yang bertentangan dengan risalah yang disampaikannya, di antara kepercayaan mereka adalah mempercayai Tuhan mempunyai anak.",
        "theme_group": "MAHASUCI ALLAH DARI PUNYA ANAK",
        "kosakata": "1.\tAwwalul \u2018\u0100bid\u012bn \u0627\u064e\u0648\u0651\u064e\u0644\u064f \u0627\u0644\u0652\u0639\u064e\u0627\u0628\u0650\u062f\u0650\u064a\u0652\u0646\u064e (az-Zukhruf/43: 81)\nDua rangkaian kata dalam ayat ini, awwal dan \u2018\u0101bid\u012bn, yang pertama dari akar kata awwalu, jamak aw\u0101'ilu, awwal\u016bn, feminin \u016bl\u0101, jamak uw\u0101l, \u016bliy\u0101t yang berarti \u2018awal,\u2019 \u2018pertama,\u2019 \u2018mula-mula. \u201cYang kedua, \u2018\u0101bid\u00efn, dari kata kerja (verb) \u2018abada, ya\u2018budu, \u2018abdan, harfiah berarti \u2018menyembah,\u2019 \u2018beribadah,\u2019 dalam arti teknis \u2018tunduk kepada Allah dan kehendak-Nya.\u2019 Ayat di atas berarti \u2018akulah yang pertama akan menyembahnya.\u2019 \nPerintah dalam ayat ini ditujukan kepada Rasulullah agar menegaskan kepada kaum musyrik Mekah, bahwa jika anggapan mereka, bahwa Allah punya anak dapat dibuktikan dengan alasan-alasan yang kuat, maka akulah orang pertama yang akan mengakui dan menyembah anak itu. Tetapi semuanya mustahil, karena memang sangat bertentangan dengan tauhid, akidah yang dibawanya sebagai risalah. Ungkapan ini menekankan pada suatu kemustahilan Allah akan punya anak, dan penekanan ini diperkuat oleh ayat-ayat lain (al-Ikhl\u0101\u1e63/112: 3, az-Zumar/39: 4, al-Anbiy\u0101\u2019/21: 22 dan sekian lagi ayat-ayat senada).\n2.\tYakh\u016b\u1e0d\u016b \u064a\u064e\u062e\u064f\u0648\u0652\u0636\u064f\u0648\u0627 (az-Zukhruf/43: 83)\nKata Yakh\u016b\u1e0d\u016b adalah fi\u2018il mu\u1e0d\u0101ri\u2018 \u1e0damir jama\u2018 yang dibuang n\u016bn dibelakangnya, yaitu dari kh\u0101\u1e0da-yakh\u016b\u1e0du-khau\u1e0dan yang berarti menyelam, tenggelam, masuk ke dalam air. \nSeseorang yang masuk ke air yang dalam, kakinya tidak menyentuh dasar laut atau sungai tempat ia tercebur, sehingga ia tidak dapat berjalan karena ia tidak memiliki pijakan, akhirnya ia tenggelam. Demikianlah keadaan orang musyrik yang melecehkan agama yang disebutkan dalam Surah az-Zukhruf ayat 83, ia berbicara dan bersikap tanpa dasar. Karena itu kata yakh\u016b\u1e0d\u016b pada umumnya tidak digunakan kecuali untuk makna pembicaraan dan sikap yang tidak berdasar.\nPenggunaan kata yakh\u016b\u1e0d\u016b dalam menggambarkan sikap orang-orang musyrik itu mengisyaratkan bahwa kebanyakan pembicaraan mereka tidak berdasar, karena mereka jauh dari ketentuan dan tuntunan agama.",
        "sabab_nuzul": null,
        "conclusion": null
    }
}