{
    "id": 4340,
    "surah_id": 43,
    "ayah": 15,
    "page": 490,
    "quarter_hizb": 49.75,
    "juz": 25,
    "manzil": 6,
    "arabic": "\u0648\u064e\u062c\u064e\u0639\u064e\u0644\u064f\u0648\u0652\u0627 \u0644\u064e\u0647\u0657 \u0645\u0650\u0646\u0652 \u0639\u0650\u0628\u064e\u0627\u062f\u0650\u0647\u0656 \u062c\u064f\u0632\u0652\u0621\u064b\u0627 \u06d7\u0627\u0650\u0646\u0651\u064e \u0627\u0644\u0652\u0627\u0650\u0646\u0652\u0633\u064e\u0627\u0646\u064e \u0644\u064e\u0643\u064e\u0641\u064f\u0648\u0652\u0631\u064c \u0645\u0651\u064f\u0628\u0650\u064a\u0652\u0646\u064c \u06d7 \u08d6 ",
    "latin": "Wa ja\u2018al\u016b lah\u016b min \u2018ib\u0101dih\u012b juz'\u0101(n), innal-ins\u0101na lakaf\u016brum mub\u012bn(un).",
    "translation": "Mereka menjadikan sebagian dari hamba-hamba-Nya sebagai bagian dari-Nya.676) Sesungguhnya manusia itu benar-benar pengingkar (nikmat Tuhan) yang nyata.",
    "no_footnote": "676",
    "footnotes": "676) Orang-orang musyrik mengatakan bahwa malaikat adalah anak perempuan Allah. Padahal, malaikat itu sebagian dari makhluk dan ciptaan-Nya.",
    "surah": {
        "id": 43,
        "arabic": "\u0627\u0644\u0632\u0651\u062e\u0631\u0641",
        "latin": "Az-Zukhruf",
        "transliteration": "Az-Zukhruf",
        "translation": "Perhiasan dari Emas",
        "num_ayah": 89,
        "page": 489,
        "location": "Makkiyah"
    },
    "tafsir": {
        "wajiz": "Walaupun Allah telah menerangkan kekuasaan-Nya dalam menciptakan langit dan bumi serta menundukkan hewan ternak untuk manusia, sebagian manusia masih saja mempersekutukan Allah dengan makhluk-Nya. Dan mereka, yakni orang-orang musyrik, menjadikan sebagian dari hamba-hamba-Nya, yang merupakan ciptaan-Nya sebagai bagian dari-Nya, dengan menganggap bahwa malaikat adalah anak-anak Tuhan. Sesungguhnya, manusia yang mempercayai dan mengatakan demikian itu benar-benar pengingkar nikmat Tuhan, yang melampaui batas dalam kekafirannya, lagi yang nyata kesyirikan dan keingkarannya.",
        "tahlili": "Allah menerangkan bahwa sekalipun orang musyrik mengakui bahwa Allah yang menciptakan langit dan bumi, namun di samping itu mereka pun menetapkan bahwa Allah mempunyai anak, dan malaikat merupakan anak perempuan-Nya.\nMereka mengatakan, Allah tidak azali seperti makhluk, sama-sama mempuyai anak, malah merendahkan-Nya karena Allah dikatakan mempunyai anak perempuan, sedang mereka mempunyai anak laki-laki. Orang-orang Arab pada waktu itu menganggap bahwa orang yang mempunyai anak perempuan itu hina. Jadi, tidak heran kalau ayat itu ditutup dengan satu ketegasan bahwa manusia benar-benar pengingkar nikmat Tuhan, yang telah dikaruniakan kepada mereka.",
        "intro_surah": "Surah az-Zukhruf terdiri dari 89 ayat, termasuk kelompok surah Makkiyyah, diturunkan sesudah Surah asy-Sy\u016br\u0101.\nDinamai az-Zukhruf (perhiasan) diambil dari kata az-zukhruf yang terdapat pada ayat 35 surah ini. Orang-orang musyrik mengukur tinggi atau rendahnya derajat seseorang bergantung kepada perhiasan dan harta benda yang ia punyai. Karena Muhammad saw adalah seorang anak yatim lagi miskin ia tidak pantas diangkat Allah sebagai seorang rasul dan nabi. Menurut mereka, pangkat rasul dan nabi itu harus diberikan kepada orang yang kaya. Ayat ini menegaskan bahwa harta tidak dapat dijadikan dasar untuk mengukur tinggi atau rendahnya derajat seseorang karena harta itu merupakan hiasan kehidupan duniawi, bukan berarti kesenangan akhirat.\n\nPOKOK-POKOK ISINYA:\n1. \tKeimanan:\nAl-Qur\u2019an berasal dari Lau\u1e25 Ma\u1e25f\u016b\u1e93; Nabi Isa tidak lain hanyalah seorang hamba Allah; pengakuan Nabi Isa bahwasanya Allah-lah Tuhan yang sebenarnya; menyifatkan bagaimana kesenangan di dalam surga dan hebatnya penderitaan orang kafir di dalam neraka sehingga mereka ingin mati saja, agar terlepas dari siksa itu; Tuhan tidak mempunyai anak.\n2. \tHukum-hukum:\nPeringatan Tuhan kepada Nabi Muhammad ialah agar menjauhi orang-orang yang tidak beriman.\n3. \tKisah-kisah:\nKisah Nabi Ibrahim; Musa dan Isa sebagai perbandingan bagi Nabi Muhammad dan sebagai penawar sewaktu menghadapi kesulitan dalam melakukan dakwah.\n4. \tLain-lain:\nPengakuan orang musyrik Mekah bahwa hanya Allah yang menciptakan langit dan bumi, tetapi mereka tetap menyembah berhala; kepercayaan mereka bahwa malaikat adalah anak Allah dan penolakan atas kepercayaan yang salah itu; Nabi Muhammad saw sebagai rasul mendapat ejekan dan celaan dari kaumnya, dan hal ini adalah biasa, karena rasul-rasul yang dahulu pun demikian pula halnya; orang musyrik sangat kuat berpegangan kepada tradisi dan adat istiadat nenek moyang mereka dalam beragama, sehingga tertutup hati mereka untuk menerima kebenaran.",
        "outro_surah": null,
        "munasabah_prev_surah": "HUBUNGAN SURAH ASY SY\u016aR\u0100 DENGAN\nSURAH AZ-ZUKHRUF\n\n1. \tKedua surah ini sama-sama dimulai dengan pembicaraan mengenai Al-Qur\u2019an yang diturunkan dari Tuhan Yang Mahaperkasa lagi Mahabijaksana.\n2. \tKedua surah ini sama-sama mengutarakan bagaimana sikap orang-orang kafir terhadap Al-Qur\u2019an dan mengemukakan dalil-dalil atas keesaan dan kekuasaan Allah.\n",
        "munasabah_prev_theme": "Pada ayat-ayat yang lalu diterangkan bahwa orang musyrik itu mengakui ketuhanan Allah dan Dialah yang menciptakan langit dan bumi, maka dalam ayat-ayat berikut ini Allah swt menerangkan bahwa mereka menyatakan hal-hal yang bertentangan dengan pengakuan mereka sendiri. Mereka mengakui bahwa Allah yang menciptakan langit dan bumi, tetapi mereka pun menyifatkan Allah dengan sifat-sifat makhluk yang sama sekali tidak layak ditujukan kepada Allah sebagai pencipta alam semesta. Mereka itu menganggap bahwa malaikat adalah anak perempuan Allah, sedangkan anak laki-laki khusus untuk mereka.",
        "theme_group": "BERBAGAI MACAM DUSTA KAUM MUSYRIK",
        "kosakata": "Kosakata: Al-\u1e24ilyah \u0627\u0644\u0652\u062d\u0650\u0644\u0652\u064a\u064e\u0629\u064f (az-Zukhruf/43: 18)\nKata al-\u1e25ilyah berasal dari kata kerja \u1e25al\u0101-ya\u1e25li, yang artinya menghiasi. \u1e24alyan yang merupakan bentuk ma\u1e63dar (kata benda) dapat diartikan sebagai perhiasan. Dari kata ini muncul kata al-\u1e25ilyatu yang artinya perhiasan yang dipakai perempuan yang terbuat dari logam (emas, perak, platina, dan lainnya) atau bebatuan, seperti permata, berlian, safir, dan lainnya. Kata al-\u1e25ilyatu juga dapat diartikan sebagai sesuatu yang ditampakkan dari segi warna, bentuk luarnya, atau geraknya. \nPada ayat ini, al-\u1e25ilyah diartikan sebagai perhiasan yang tujuannya untuk mengungkapkan bahwa jenis manusia yang senang berhias, yaitu kaum perempuan, tidak layak untuk dikatakan sebagai anak Allah. Apalagi kebanyakan kaum ini lebih sering mengikuti penilaian perasaan ketimbang akal mereka. Keadaan ini tentu kadang-kadang berujung pada pertimbangan yang tidak akurat. Lebih dari itu, baik lelaki maupun perempuan dari jenis makhluk memang bukan anak Allah swt. Karena Dia adalah zat yang tidak beranak dan tidak diperanakkan.",
        "sabab_nuzul": null,
        "conclusion": null
    }
}