{
    "id": 4371,
    "surah_id": 43,
    "ayah": 46,
    "page": 492,
    "quarter_hizb": 50,
    "juz": 25,
    "manzil": 6,
    "arabic": "\u0648\u064e\u0644\u064e\u0642\u064e\u062f\u0652 \u0627\u064e\u0631\u0652\u0633\u064e\u0644\u0652\u0646\u064e\u0627 \u0645\u064f\u0648\u0652\u0633\u0670\u0649 \u0628\u0650\u0627\u0670\u064a\u0670\u062a\u0650\u0646\u064e\u0627\u0653 \u0627\u0650\u0644\u0670\u0649 \u0641\u0650\u0631\u0652\u0639\u064e\u0648\u0652\u0646\u064e \u0648\u064e\u0645\u064e\u0644\u064e\u0627\u06df\u0649\u0655\u0650\u0647\u0656 \u0641\u064e\u0642\u064e\u0627\u0644\u064e \u0627\u0650\u0646\u0651\u0650\u064a\u0652 \u0631\u064e\u0633\u064f\u0648\u0652\u0644\u064f \u0631\u064e\u0628\u0651\u0650 \u0627\u0644\u0652\u0639\u0670\u0644\u064e\u0645\u0650\u064a\u0652\u0646\u064e ",
    "latin": "Wa laqad arsaln\u0101 m\u016bs\u0101 bi'\u0101y\u0101tin\u0101 il\u0101 fir\u2018auna wa mala'ih\u012b fa q\u0101la inn\u012b ras\u016blu rabbil-\u2018\u0101lam\u012bn(a). ",
    "translation": "Sungguh, Kami benar-benar telah mengutus Musa dengan membawa ayat-ayat (mukjizat) Kami kepada Fir\u2018aun dan para pemuka (kaum)-nya. Dia (Musa) berkata, \u201cSesungguhnya aku adalah utusan dari Tuhan semesta alam.\u201d",
    "no_footnote": null,
    "footnotes": null,
    "surah": {
        "id": 43,
        "arabic": "\u0627\u0644\u0632\u0651\u062e\u0631\u0641",
        "latin": "Az-Zukhruf",
        "transliteration": "Az-Zukhruf",
        "translation": "Perhiasan dari Emas",
        "num_ayah": 89,
        "page": 489,
        "location": "Makkiyah"
    },
    "tafsir": {
        "wajiz": "Ayat yang lalu berbicara tentang rasul-rasul Allah yang telah diutus sebelum Nabi Muhammad. Ayat ini berbicara tentang Nabi Musa, salah satu dari rasul-rasul itu. Dan sungguh, Kami telah mengutus Musa dengan membawa mukjizat-mukjizat, yakni bukti-bukti kenabian dan kerasulannya serta bukti-bukti kekuasaan Kami, kepada Fir\u2019aun, yang mengaku dirinya sebagai Tuhan, dan pemuka-pemuka kaumnya yang mendukung dan mempertahankan pengakuannya itu. Maka dia, yakni Nabi Musa, berkata, \u201cSesungguhnya aku adalah utusan dari Tuhan yang telah menciptakan kalian, dan memiliki seluruh alam.\u201d",
        "tahlili": "Dalam ayat ini diterangkan bahwa Allah telah mengutus Nabi Musa kepada Fir\u2018aun dan rakyatnya untuk menyampaikan ajaran-ajaran Allah. Nabi Musa diutus kepada Fir\u2018aun dengan dilengkapi beberapa mukjizat, misalnya tongkat menjadi ular, tangan yang bercahaya, dan sebagainya. Inti seruan Nabi Musa kepada Fir\u2018aun adalah agar Fir\u2018aun mengakui Allah sebagai Tuhan yang menciptakan dan memelihara seluruh alam ini, dan mengakuinya sebagai utusan-Nya.\nPenegasan berkenaan dengan Nabi Musa itu mengandung pula penegasan mengenai Nabi Muhammad saw. Kaum kafir Mekah hendaknya juga mengimani Allah swt sebagai Tuhan Yang Maha Esa, mengimani Muhammad saw sebagai Rasul-Nya dan mengimani mukjizatnya yang utama yaitu Al-Qur\u2019an. Selanjutnya penegasan itu mengandung arti bahwa agama yang diserukan Nabi Muhammad sama dengan yang diserukan Nabi Musa dan seluruh nabi, yaitu Islam. Allah berfirman: \n\u0627\u0650\u0646\u0651\u064e \u0627\u0644\u062f\u0651\u0650\u064a\u0652\u0646\u064e \u0639\u0650\u0646\u0652\u062f\u064e \u0627\u0644\u0644\u0651\u0670\u0647\u0650 \u0627\u0644\u0652\u0627\u0650\u0633\u0652\u0644\u064e\u0627\u0645\u064f\nSesungguhnya agama di sisi Allah ialah Islam. (\u0100li \u2018Imr\u0101n/3:19)",
        "intro_surah": "Surah az-Zukhruf terdiri dari 89 ayat, termasuk kelompok surah Makkiyyah, diturunkan sesudah Surah asy-Sy\u016br\u0101.\nDinamai az-Zukhruf (perhiasan) diambil dari kata az-zukhruf yang terdapat pada ayat 35 surah ini. Orang-orang musyrik mengukur tinggi atau rendahnya derajat seseorang bergantung kepada perhiasan dan harta benda yang ia punyai. Karena Muhammad saw adalah seorang anak yatim lagi miskin ia tidak pantas diangkat Allah sebagai seorang rasul dan nabi. Menurut mereka, pangkat rasul dan nabi itu harus diberikan kepada orang yang kaya. Ayat ini menegaskan bahwa harta tidak dapat dijadikan dasar untuk mengukur tinggi atau rendahnya derajat seseorang karena harta itu merupakan hiasan kehidupan duniawi, bukan berarti kesenangan akhirat.\n\nPOKOK-POKOK ISINYA:\n1. \tKeimanan:\nAl-Qur\u2019an berasal dari Lau\u1e25 Ma\u1e25f\u016b\u1e93; Nabi Isa tidak lain hanyalah seorang hamba Allah; pengakuan Nabi Isa bahwasanya Allah-lah Tuhan yang sebenarnya; menyifatkan bagaimana kesenangan di dalam surga dan hebatnya penderitaan orang kafir di dalam neraka sehingga mereka ingin mati saja, agar terlepas dari siksa itu; Tuhan tidak mempunyai anak.\n2. \tHukum-hukum:\nPeringatan Tuhan kepada Nabi Muhammad ialah agar menjauhi orang-orang yang tidak beriman.\n3. \tKisah-kisah:\nKisah Nabi Ibrahim; Musa dan Isa sebagai perbandingan bagi Nabi Muhammad dan sebagai penawar sewaktu menghadapi kesulitan dalam melakukan dakwah.\n4. \tLain-lain:\nPengakuan orang musyrik Mekah bahwa hanya Allah yang menciptakan langit dan bumi, tetapi mereka tetap menyembah berhala; kepercayaan mereka bahwa malaikat adalah anak Allah dan penolakan atas kepercayaan yang salah itu; Nabi Muhammad saw sebagai rasul mendapat ejekan dan celaan dari kaumnya, dan hal ini adalah biasa, karena rasul-rasul yang dahulu pun demikian pula halnya; orang musyrik sangat kuat berpegangan kepada tradisi dan adat istiadat nenek moyang mereka dalam beragama, sehingga tertutup hati mereka untuk menerima kebenaran.",
        "outro_surah": null,
        "munasabah_prev_surah": "HUBUNGAN SURAH ASY SY\u016aR\u0100 DENGAN\nSURAH AZ-ZUKHRUF\n\n1. \tKedua surah ini sama-sama dimulai dengan pembicaraan mengenai Al-Qur\u2019an yang diturunkan dari Tuhan Yang Mahaperkasa lagi Mahabijaksana.\n2. \tKedua surah ini sama-sama mengutarakan bagaimana sikap orang-orang kafir terhadap Al-Qur\u2019an dan mengemukakan dalil-dalil atas keesaan dan kekuasaan Allah.\n",
        "munasabah_prev_theme": "Dalam ayat-ayat yang lalu diterangkan bahwa Allah tidak pernah mengajarkan kepada nabi-nabi terdahulu bahwa ada tuhan selain Allah, dan mereka yang membangkang diancam akan mendapat hukuman dari Allah di dunia ini juga dengan disaksikan oleh Nabi Muhammad, atau di akhirat. Dalam ayat-ayat berikut dikisahkan tentang Fir\u2018aun yang didakwahi Nabi Musa. Fir\u2018aun dan pengikutnya tidak mau beriman dan membangkang. Akhirnya mereka dibinasakan oleh Allah di dalam Laut Merah disaksikan oleh Nabi Musa dan kaumnya. Itulah salah satu bukti bahwa ancaman Allah pasti terlaksana untuk memperingatkan mereka yang kafir agar beriman.",
        "theme_group": "KEHANCURAN FIR\u2018AUN DAN KAUMNYA HENDAKNYA \nDIJADIKAN PELAJARAN OLEH UMAT YANG DATANG KEMUDIAN ",
        "kosakata": "1.\tYanku\u1e61\u016bn \u064a\u064e\u0646\u0652\u0643\u064f\u062b\u064f\u0648\u0652\u0646\u064e (az-Zukhruf/43: 50)\nKata yanku\u1e61\u016bn adalah fi\u2018il mu\u1e0d\u0101ri\u2018 dari kata naka\u1e61a-yanku\u1e61u-nak\u1e61an. Kata ini memiliki akar makna melepas apa yang telah diikat, sebagaimana dalam firman Allah Ta\u2018\u0101la, \u201cDan janganlah kamu seperti seorang perempuan yang menguraikan benangnya yang sudah dipintal dengan kuat, menjadi cerai berai kembali, kamu menjadikan sumpah (perjanjian) mu sebagai alat penipu di antaramu.\u201d (an-Na\u1e25l/16: 92). Kata naka\u1e61a berikut derivasinya di dalam Al-Qur\u2019an disebutkan sebanyak tujuh kali. Keseluruhan maknanya kembali ke akar ini, namun lebih banyak digunakan untuk arti melanggar janji. \n2.\tIstakhaffa \u0627\u0650\u0633\u0652\u062a\u064e\u062e\u064e\u0641\u0651\u064e (az-Zukhruf/43: 54)\nKata istakhaffa adalah fi\u2018il m\u0101\u1e0di. Asalnya dari kata khaffa yang kemudian ditambahi partikel hamzah wa\u1e63al, s\u012bn, dan t\u0101'. Kata khaffa itu sendiri berarti ringan, dan ia digunakan untuk mendeskripsikan fisik (materi), akal, dan perbuatan. Tambahan partikel tersebut pada kata khaffa mengimplikasikan beberapa makna. Di antaranya adalah menganggap ringan, sebagaimana dalam firman Allah, \u201cDan Allah menjadikan rumah-rumah bagimu sebagai tempat tinggal dan Dia menjadikan bagimu rumah-rumah (kemah-kemah) dari kulit hewan ternak yang kamu merasa ringan (membawa)nya pada waktu kamu bepergian dan pada waktu kamu bermukim..\u201d (an-Na\u1e25l/16: 80) Selain itu, ia juga mengimplikasikan makna menjadikan ringan akal orang lain, maksudnya membodohi. Dan inilah yang dimaksud dengan kata istakhaffa pada ayat ini, yaitu Fir\u2018aun membodoh-bodohi kaumnya lalu menggiring mereka untuk mengikuti kesesatannya. \n3.\t\u0100saf\u016bn\u0101 \u0627\u0670\u0633\u064e\u0641\u064f\u0648\u0652\u0646\u064e\u0627 (az-Zukhruf/43: 55)\nKata \u0101saf\u016bn\u0101 terambil dari kata \u0101saf yang fi\u2018il-nya adalah asifa-ya'safu-asafan, yang berarti berduka cita atau sedih, atau mengeluh, murka dan penyesalan.\nKata \u0101saf dan berbagai turunannya disebutkan 5 kali dalam Al-Qur\u2019an, yaitu dalam Surah az-Zukhruf/43: 55, al-Kahf/18: 6, al-A\u2018r\u0101f/7: 150, \u1e6c\u0101h\u0101/20: 86, dan Y\u016bsuf/12: 84.\nKata \u0101saf dalam Surah az-Zukhruf ayat 55 berarti kemarahan yang disertai dengan rasa penyesalan dan kekeruhan hati. Jadi \u0101saf\u016bn\u0101 berarti mereka yakni Fir\u2018aun dan kaumnya membuat Kami (Allah) sangat murka.",
        "sabab_nuzul": null,
        "conclusion": null
    }
}