{
    "id": 4403,
    "surah_id": 43,
    "ayah": 78,
    "page": 495,
    "quarter_hizb": 50.25,
    "juz": 25,
    "manzil": 6,
    "arabic": "\u0644\u064e\u0642\u064e\u062f\u0652 \u062c\u0650\u0626\u0652\u0646\u0670\u0643\u064f\u0645\u0652 \u0628\u0650\u0627\u0644\u0652\u062d\u064e\u0642\u0651\u0650 \u0648\u064e\u0644\u0670\u0643\u0650\u0646\u0651\u064e \u0627\u064e\u0643\u0652\u062b\u064e\u0631\u064e\u0643\u064f\u0645\u0652 \u0644\u0650\u0644\u0652\u062d\u064e\u0642\u0651\u0650 \u0643\u0670\u0631\u0650\u0647\u064f\u0648\u0652\u0646\u064e",
    "latin": "Laqad ji'n\u0101kum bil-\u1e25aqqi wa l\u0101kinna ak\u1e61arakum lil-\u1e25aqqi k\u0101rih\u016bn(a).",
    "translation": "Sungguh, Kami benar-benar telah datang kepada kamu dengan (membawa) kebenaran, tetapi kebanyakan kamu benci kepada kebenaran itu.",
    "no_footnote": null,
    "footnotes": null,
    "surah": {
        "id": 43,
        "arabic": "\u0627\u0644\u0632\u0651\u062e\u0631\u0641",
        "latin": "Az-Zukhruf",
        "transliteration": "Az-Zukhruf",
        "translation": "Perhiasan dari Emas",
        "num_ayah": 89,
        "page": 489,
        "location": "Makkiyah"
    },
    "tafsir": {
        "wajiz": "Ayat-ayat yang lalu menggambarkan siksaan yang amat pedih yang di rasakan di dalam neraka oleh orang-orang yang kafir terhadap wahyu-wahyu Allah. Ayat berikut menggambarkan pengingkaran orang-orang Mekah terhadap kebenaran yang dibawa oleh Rasulullah. Allah berfirman, \u201cSesungguhnya Kami melalui rasul yang telah Kami utus dan wahyu-wahyu yang Kami turunkan benar-benar telah membawa kebenaran yang amat sempurna kepada kamu yang bersumber dari Kami, tetapi kebanyakan di antara kamu benar-benar benci pada kebenaran itu sehingga kamu tidak mau mempercayainya.",
        "tahlili": "Kepada orang-orang yang sedang diazab dalam neraka itu dikatakan, \u201cHai orang-orang kafir, sesungguhnya Kami telah menerangkan semua yang benar dan jalan yang lurus dengan perantaraan rasul-rasul dan kitab-kitab Kami pada waktu kamu di dunia dahulu. Akan tetapi kamu tidak menerima kebenaran itu, bahkan kamu membenci kebenaran itu serta orang-orang yang mengikuti kebenaran itu. Karena itu, celakalah dirimu sekarang dan sesalilah sendiri, pada saat semua penyesalan tidak berguna lagi dan tobat telah pula tertutup.",
        "intro_surah": "Surah az-Zukhruf terdiri dari 89 ayat, termasuk kelompok surah Makkiyyah, diturunkan sesudah Surah asy-Sy\u016br\u0101.\nDinamai az-Zukhruf (perhiasan) diambil dari kata az-zukhruf yang terdapat pada ayat 35 surah ini. Orang-orang musyrik mengukur tinggi atau rendahnya derajat seseorang bergantung kepada perhiasan dan harta benda yang ia punyai. Karena Muhammad saw adalah seorang anak yatim lagi miskin ia tidak pantas diangkat Allah sebagai seorang rasul dan nabi. Menurut mereka, pangkat rasul dan nabi itu harus diberikan kepada orang yang kaya. Ayat ini menegaskan bahwa harta tidak dapat dijadikan dasar untuk mengukur tinggi atau rendahnya derajat seseorang karena harta itu merupakan hiasan kehidupan duniawi, bukan berarti kesenangan akhirat.\n\nPOKOK-POKOK ISINYA:\n1. \tKeimanan:\nAl-Qur\u2019an berasal dari Lau\u1e25 Ma\u1e25f\u016b\u1e93; Nabi Isa tidak lain hanyalah seorang hamba Allah; pengakuan Nabi Isa bahwasanya Allah-lah Tuhan yang sebenarnya; menyifatkan bagaimana kesenangan di dalam surga dan hebatnya penderitaan orang kafir di dalam neraka sehingga mereka ingin mati saja, agar terlepas dari siksa itu; Tuhan tidak mempunyai anak.\n2. \tHukum-hukum:\nPeringatan Tuhan kepada Nabi Muhammad ialah agar menjauhi orang-orang yang tidak beriman.\n3. \tKisah-kisah:\nKisah Nabi Ibrahim; Musa dan Isa sebagai perbandingan bagi Nabi Muhammad dan sebagai penawar sewaktu menghadapi kesulitan dalam melakukan dakwah.\n4. \tLain-lain:\nPengakuan orang musyrik Mekah bahwa hanya Allah yang menciptakan langit dan bumi, tetapi mereka tetap menyembah berhala; kepercayaan mereka bahwa malaikat adalah anak Allah dan penolakan atas kepercayaan yang salah itu; Nabi Muhammad saw sebagai rasul mendapat ejekan dan celaan dari kaumnya, dan hal ini adalah biasa, karena rasul-rasul yang dahulu pun demikian pula halnya; orang musyrik sangat kuat berpegangan kepada tradisi dan adat istiadat nenek moyang mereka dalam beragama, sehingga tertutup hati mereka untuk menerima kebenaran.",
        "outro_surah": null,
        "munasabah_prev_surah": "HUBUNGAN SURAH ASY SY\u016aR\u0100 DENGAN\nSURAH AZ-ZUKHRUF\n\n1. \tKedua surah ini sama-sama dimulai dengan pembicaraan mengenai Al-Qur\u2019an yang diturunkan dari Tuhan Yang Mahaperkasa lagi Mahabijaksana.\n2. \tKedua surah ini sama-sama mengutarakan bagaimana sikap orang-orang kafir terhadap Al-Qur\u2019an dan mengemukakan dalil-dalil atas keesaan dan kekuasaan Allah.\n",
        "munasabah_prev_theme": "Pada ayat-ayat yang lalu diterangkan kenikmatan yang akan diperoleh oleh orang-orang yang percaya dan mengamalkan ayat-ayat Allah serta tunduk dan patuh kepada-Nya. Dalam ayat-ayat berikut ini diterangkan balasan yang akan diperoleh oleh orang-orang kafir yang mengingkari ayat-ayat Allah. Mereka akan dimasukkan ke dalam neraka dengan azab yang sangat pedih sebagai balasan dari perbuatan ingkar dan jahat yang telah mereka kerjakan. Apa pun permintaan mereka tidak diperkenankan di dalam neraka itu, sekalipun permintaan itu berupa kematian agar mereka tidak lagi mengalami siksaan yang pedih itu.\n",
        "theme_group": "BALASAN BAGI ORANG YANG BERDOSA",
        "kosakata": "Kosakata: Mublis\u016bn \u0645\u064f\u0628\u0652\u0644\u0650\u0633\u064f\u0648\u0652\u0646\u064e (az-Zukhruf/43: 75)\nKata mublis\u016bn adalah isim fa\u2018il dalam bentuk jamak dari mublis, dari fi\u2018il (kata kerja) ablasa yang berarti duka cita, putus asa dan bingung. Kata mublis\u016bn dan yang seakar dengannya disebutkan 5 kali dalam Al-Qur\u2019an, yaitu dalam Surah ar-R\u016bm/30: 12, 49, al-An\u2018\u0101m/6: 44, al-Mu'min\u016bn/23: 77 dan az-Zukhruf/43: 75.\nSurah az-Zukhruf/43: 75 tersebut berbicara dalam konteks siksaan terhadap para pendurhaka yang mantap kedurhakaannya ketika mereka berada dalam wadah siksaan neraka Jahanam yang meliputi seluruh totalitasnya dan yang akan mereka alami selama-lamanya, tidak akan dihentikan atau diringankan siksa itu dari mereka dan akhirnya mereka didalamnya lunglai tidak mampu melakukan apa pun, karena mereka semua telah berputus asa.\n",
        "sabab_nuzul": null,
        "conclusion": null
    }
}