{
    "id": 4329,
    "surah_id": 43,
    "ayah": 4,
    "page": 489,
    "quarter_hizb": 49.75,
    "juz": 25,
    "manzil": 6,
    "arabic": "\u0648\u064e\u0627\u0650\u0646\u0651\u064e\u0647\u0657 \u0641\u0650\u064a\u0652\u0653 \u0627\u064f\u0645\u0651\u0650 \u0627\u0644\u0652\u0643\u0650\u062a\u0670\u0628\u0650 \u0644\u064e\u062f\u064e\u064a\u0652\u0646\u064e\u0627 \u0644\u064e\u0639\u064e\u0644\u0650\u064a\u0651\u064c \u062d\u064e\u0643\u0650\u064a\u0652\u0645\u064c \u06d7 ",
    "latin": "Wa innah\u016b f\u012b ummil-kit\u0101bi ladain\u0101 la\u2018aliyyun \u1e25ak\u012bm(un).",
    "translation": "dan sesungguhnya (Al-Qur\u2019an) itu berada di dalam Ummul Kit\u0101b (Lauhulmahfuz) di sisi Kami, benar-benar (bernilai) tinggi, dan penuh hikmah.",
    "no_footnote": null,
    "footnotes": null,
    "surah": {
        "id": 43,
        "arabic": "\u0627\u0644\u0632\u0651\u062e\u0631\u0641",
        "latin": "Az-Zukhruf",
        "transliteration": "Az-Zukhruf",
        "translation": "Perhiasan dari Emas",
        "num_ayah": 89,
        "page": 489,
        "location": "Makkiyah"
    },
    "tafsir": {
        "wajiz": "Dan sesungguhnya dia, yaitu Al-Qur\u2019an itu, di dalam Ummul-Kitab, yaitu kitab induk atau Lauh Mahfuz, yang berada di sisi Kami dan ia benar-benar bernilai tinggi dan penuh hikmah di dalamnya.\u201d",
        "tahlili": "Allah menerangkan bahwa Dia telah menjadikan Al-Qur\u2019an dalam bahasa Arab bukan dalam bahasa \u2018Ajam (bahasa-bahasa asing) karena yang akan diberi peringatan pertama kali adalah orang-orang Arab agar mereka mudah memahami pelajaran dan nasihat-nasihat yang terkandung di dalamnya, dan dengan mudah mereka dapat memikirkan arti dan maknanya. Dia tidak menurunkan Al-Qur\u2019an dalam bahasa \u2018Ajam agar tidak ada alasan bagi mereka untuk mengatakan bagaimana mereka dapat memahami isi Al-Qur\u2019an karena bahasanya bukan bahasa Arab, bahasa kami, sebagaimana firman Allah:\n\u0648\u064e\u0644\u064e\u0648\u0652 \u062c\u064e\u0639\u064e\u0644\u0652\u0646\u0670\u0647\u064f \u0642\u064f\u0631\u0652\u0627\u0670\u0646\u064b\u0627 \u0627\u064e\u0639\u0652\u062c\u064e\u0645\u0650\u064a\u0651\u064b\u0627 \u0644\u0651\u064e\u0642\u064e\u0627\u0644\u064f\u0648\u0652\u0627 \u0644\u064e\u0648\u0652\u0644\u064e\u0627 \u0641\u064f\u0635\u0651\u0650\u0644\u064e\u062a\u0652 \u0627\u0670\u064a\u0670\u062a\u064f\u0647\u0657 \u06d7 \u0621\u064e\u0627\u064e\u06ec\u0639\u0652\u062c\u064e\u0645\u0650\u064a\u0651\u064c \u0648\u0651\u064e\u0639\u064e\u0631\u064e\u0628\u0650\u064a\u0651\u064c \u06d7 \u0642\u064f\u0644\u0652 \u0647\u064f\u0648\u064e \u0644\u0650\u0644\u0651\u064e\u0630\u0650\u064a\u0652\u0646\u064e \u0627\u0670\u0645\u064e\u0646\u064f\u0648\u0652\u0627 \u0647\u064f\u062f\u064b\u0649 \u0648\u0651\u064e\u0634\u0650\u0641\u064e\u0627\u06e4\u0621\u064c \nDan sekiranya Al-Qur\u2019an Kami jadikan sebagai bacaan dalam bahasa selain bahasa Arab niscaya mereka mengatakan, \u201cMengapa tidak dijelaskan ayat-ayatnya?\u201d Apakah patut (Al-Qur\u2019an) dalam bahasa selain bahasa Arab sedang (rasul), orang Arab? Katakanlah, \u201cAl-Qur\u2019an adalah petunjuk dan penyembuh bagi orang-orang yang beriman. (Fu\u1e63\u1e63ilat/41: 44)",
        "intro_surah": "Surah az-Zukhruf terdiri dari 89 ayat, termasuk kelompok surah Makkiyyah, diturunkan sesudah Surah asy-Sy\u016br\u0101.\nDinamai az-Zukhruf (perhiasan) diambil dari kata az-zukhruf yang terdapat pada ayat 35 surah ini. Orang-orang musyrik mengukur tinggi atau rendahnya derajat seseorang bergantung kepada perhiasan dan harta benda yang ia punyai. Karena Muhammad saw adalah seorang anak yatim lagi miskin ia tidak pantas diangkat Allah sebagai seorang rasul dan nabi. Menurut mereka, pangkat rasul dan nabi itu harus diberikan kepada orang yang kaya. Ayat ini menegaskan bahwa harta tidak dapat dijadikan dasar untuk mengukur tinggi atau rendahnya derajat seseorang karena harta itu merupakan hiasan kehidupan duniawi, bukan berarti kesenangan akhirat.\n\nPOKOK-POKOK ISINYA:\n1. \tKeimanan:\nAl-Qur\u2019an berasal dari Lau\u1e25 Ma\u1e25f\u016b\u1e93; Nabi Isa tidak lain hanyalah seorang hamba Allah; pengakuan Nabi Isa bahwasanya Allah-lah Tuhan yang sebenarnya; menyifatkan bagaimana kesenangan di dalam surga dan hebatnya penderitaan orang kafir di dalam neraka sehingga mereka ingin mati saja, agar terlepas dari siksa itu; Tuhan tidak mempunyai anak.\n2. \tHukum-hukum:\nPeringatan Tuhan kepada Nabi Muhammad ialah agar menjauhi orang-orang yang tidak beriman.\n3. \tKisah-kisah:\nKisah Nabi Ibrahim; Musa dan Isa sebagai perbandingan bagi Nabi Muhammad dan sebagai penawar sewaktu menghadapi kesulitan dalam melakukan dakwah.\n4. \tLain-lain:\nPengakuan orang musyrik Mekah bahwa hanya Allah yang menciptakan langit dan bumi, tetapi mereka tetap menyembah berhala; kepercayaan mereka bahwa malaikat adalah anak Allah dan penolakan atas kepercayaan yang salah itu; Nabi Muhammad saw sebagai rasul mendapat ejekan dan celaan dari kaumnya, dan hal ini adalah biasa, karena rasul-rasul yang dahulu pun demikian pula halnya; orang musyrik sangat kuat berpegangan kepada tradisi dan adat istiadat nenek moyang mereka dalam beragama, sehingga tertutup hati mereka untuk menerima kebenaran.",
        "outro_surah": null,
        "munasabah_prev_surah": "HUBUNGAN SURAH ASY SY\u016aR\u0100 DENGAN\nSURAH AZ-ZUKHRUF\n\n1. \tKedua surah ini sama-sama dimulai dengan pembicaraan mengenai Al-Qur\u2019an yang diturunkan dari Tuhan Yang Mahaperkasa lagi Mahabijaksana.\n2. \tKedua surah ini sama-sama mengutarakan bagaimana sikap orang-orang kafir terhadap Al-Qur\u2019an dan mengemukakan dalil-dalil atas keesaan dan kekuasaan Allah.\n",
        "munasabah_prev_theme": "Pada ayat-ayat yang lalu (akhir Surah asy-Sy\u016br\u0101) Allah menerangkan bahwa Dia telah mewahyukan Al-Qur\u2019an kepada Nabi Muhammad di mana sebelumnya ia tidak mengetahui apa itu kitab dan apa itu iman. Maka pada ayat-ayat berikut ini Allah menjelaskan bahwa kitab tersebut diturunkan dengan bahasa Arab agar dapat dipahami dan dimengerti oleh Nabi Muhammad saw.",
        "theme_group": "SIKAP ORANG MUSYRIK TERHADAP AL-QUR\u2019AN ",
        "kosakata": "Kosakata: Ba\u1e6dsyan \u0628\u064e\u0637\u0652\u0634\u0627\u064b (az-Zukhruf/43: 8)\nBa\u1e6dsyan artinya \u201cmemperlakukan dengan keras\u201d, yang diterjemahkan dengan \u201cmemukul\u201d, \u201cmenyiksa\u201d, seperti dalam ayat: wa i\u017c\u0101 ba\u1e6dasytum ba\u1e6dasytum jabb\u0101r\u012bn yang artinya, \u201cDan apabila kamu menyiksa, maka kamu menyiksa bagai orang-orang kejam dan bengis.\u201d Kata ini juga terdapat antara lain dalam Surah az-Zukhruf/43:8.\nMaka telah kami binasakan orang-orang yang lebih besar kekuatannya dari mereka itu (musyrikin Mekah) dan telah berlalu perumpamaan umat-umat masa dahulu. Ayat ini memperingatkan kaum kafir Mekah bahwa mereka dapat saja dihancurkan oleh Allah sebagaimana Dia telah menghancurkan beberapa umat terdahulu, padahal mereka lebih kuat.",
        "sabab_nuzul": null,
        "conclusion": null
    }
}