{
    "id": 4466,
    "surah_id": 44,
    "ayah": 52,
    "page": 498,
    "quarter_hizb": 50.5,
    "juz": 25,
    "manzil": 6,
    "arabic": "\u0641\u0650\u064a\u0652 \u062c\u064e\u0646\u0651\u0670\u062a\u064d \u0648\u0651\u064e\u0639\u064f\u064a\u064f\u0648\u0652\u0646\u064d \u06d9",
    "latin": "F\u012b jann\u0101tiw wa \u2018uy\u016bn(in).",
    "translation": "(yaitu) di dalam taman-taman dan mata-mata air.",
    "no_footnote": null,
    "footnotes": null,
    "surah": {
        "id": 44,
        "arabic": "\u0627\u0644\u062f\u0651\u062e\u0627\u0646",
        "latin": "Ad-Dukh\u0101n",
        "transliteration": "Ad-Dukhan",
        "translation": "Kabut Asap",
        "num_ayah": 59,
        "page": 496,
        "location": "Makkiyah"
    },
    "tafsir": {
        "wajiz": "damai, dam indah yang tidak dapat dilukiskan oleh manusia, yaitu di dalam taman-taman yang sangat indah dan mata air-mata air yang jernih mengalir,",
        "tahlili": "Sebagai perbandingan antara pahala yang diperoleh orang-orang yang beriman dengan azab yang diterima oleh orang-orang kafir, maka dalam ayat-ayat berikut digambarkan kenikmatan dan kebahagiaan yang diperoleh oleh orang-orang yang beriman. Kenikmatan dan kebahagiaan yang mereka peroleh antara lain ialah:\n1. \tMereka mendapat tempat kembali yang baik di sisi Tuhan mereka. Di tempat itu mereka aman dari segala macam gangguan baik berupa gangguan keamanan diri mereka maupun dari gangguan keamanan jiwa mereka. Mereka berada dalam perlindungan Allah, tidak ada sesuatu pun yang dapat menggoyahkan perlindungan Allah. Tidak ada kata-kata yang menyakitkan hati, tidak ada sikap orang lain yang dapat mengguncangkan perasaan, semuanya enak didengar, indah dilihat, menyejukkan hati dan menentramkan perasaan, tempatnya yang indah, udaranya yang nyaman, mata air yang jernih memancarkan air yang mengasyikkan orang yang tinggal di dalamnya.\n2. \tDi dalam surga itu, orang-orang yang beriman diberi pakaian yang terbuat dari sutera, baik sutera yang halus lagi lembut, memuaskan hati orang yang memakainya, maupun sutera tebal yang beraneka warna dan menghangatkan badan.\n3. \tMereka duduk berbincang-bincang, berhadap-hadapan di tempat-tempat duduk yang menyenangkan. Dari wajah-wajah mereka, yang terpancar hanyalah rasa kebahagiaan yang tiada taranya dan rasa kepuasan terhadap pahala yang diberikan Allah kepada mereka.\n4. \tMereka dianugerahi teman hidup yang mendampingi mereka, berupa jodoh atau pasangan yang serasi dan sesuai dengan keinginan mereka. Jodoh mereka itu tidak ada cacat celanya dan belum pernah hatinya tertambat kepada orang lain.\n5. \tMereka disuguhi buah-buahan yang beraneka ragam macamnya dan makanan yang enak, tidak habis-habisnya dan tidak pernah membosankan.\nDemikian kesenangan dan kebahagiaan yang akan diperoleh ahli surga nanti. Sebenarnya kebahagiaan dan kesenangan itu tidak dapat dibayangkan manusia karena tidak ada bandingannya dalam kehidupan ini.",
        "intro_surah": "Surah ad-Dukh\u0101n terdiri dari 59 ayat, termasuk kelompok surah Makkiyyah, diturunkan sesudah Surah az-Zukhruf. Nama ad-Dukh\u0101n (kabut) diambil dari perkataan dukh\u0101n yang terdapat pada ayat 10 surah ini.\nMenurut riwayat al-Bukh\u0101r\u012b, secara ringkas dapat diterangkan sebagai berikut: Perbuatan orang-orang kafir Mekah dalam menghalang-halangi agama Islam dan menyakiti serta mendurhakai Nabi Muhammad saw sudah melewati batas, karena itu Nabi berdoa kepada Allah agar diturunkan azab, sebagaimana yang telah diturunkan kepada orang-orang yang durhaka kepada Nabi Yusuf yaitu kemarau yang panjang. Doa Nabi saw itu dikabulkan Allah sampai orang-orang kafir memakan tulang dan bangkai karena kelaparan. Mereka selalu menengadah ke langit mengharap pertolongan Allah, tetapi tidak satu pun yang mereka lihat kecuali kabut yang menutupi pandangan mereka.\nAkhirnya mereka datang kepada Nabi Muhammad saw agar Nabi memohon kepada Allah, agar diturunkan hujan. Setelah Allah mengabulkan doa Nabi dan hujan diturunkan, mereka kembali kafir seperti semula, karena itu, Allah menyatakan bahwa mereka nanti akan diazab dengan azab yang pedih.\n\nPOKOK-POKOK ISINYA:\n1. \tKeimanan:\nDalil-dalil atas kenabian Muhammad saw; huru-hara dan kehebatan hari Kiamat; pada hari Kiamat hanya amalan baik seseorang yang dapat menolong orang itu; azab dan penderitaan yang ditemui oleh orang-orang kafir di akhirat, serta nikmat dan kemenangan yang diterima orang-orang mukmin.\n2. \tKisah-kisah:\nKisah Musa dengan Fir\u2018aun dan kaumnya.\n3. \tLain-lain:\nPermulaan turunnya Al-Qur\u2019an pada malam Lailatul Qadar; orang-orang kafir hanya beriman kalau mereka ditimpa bahaya; kalau bahaya telah hilang mereka kembali menjadi kafir; dalam penciptaan langit dan bumi itu terdapat hikmah yang besar.\n",
        "outro_surah": null,
        "munasabah_prev_surah": "HUBUNGAN SURAH AZ-ZUKHRUF DENGAN\nSURAH AD-DUKH\u0100N\n\n1. \tKedua surah itu sama-sama dimulai dengan menyebut sifat-sifat Al-Qur\u2019an.\n2. \tPada akhir Surah az-Zukhruf disebutkan ancaman kepada orang-orang kafir dan pada permulaan Surah ad-Dukh\u0101n terdapat pula peringatan dan ancaman itu.\n3. \tPada surah itu terdapat kesamaan sikap antara Nabi Muhammad saw dan Nabi Musa. Pada Surah az-Zukhruf, Nabi Muhammad saw mengadu kepada Tuhannya bahwa kaumnya adalah orang-orang yang tidak mau beriman, sedangkan pada Surah ad-Dukh\u0101n Nabi Musa mengadu kepada Tuhannya bahwa kaumnya adalah orang yang durhaka dan banyak dosa.\n",
        "munasabah_prev_theme": "Pada ayat-ayat yang lalu dijelaskan bahwa semua makhluk diciptakan Allah menurut hukum-hukum dan ketentuan-ketentuan yang telah ditetapkan-Nya sampai kepada waktu yang telah ditentukan. Bila telah sampai waktu yang ditentukan itu semua makhluk akan binasa dan hancur. Di akhirat nanti akan diterima pembalasan yang adil dari Allah. Pada ayat-ayat berikut ini, Allah menjelaskan siksaan neraka yang akan ditimpakan kepada orang-orang kafir dan kenikmatan hidup di surga yang akan dinikmati oleh orang-orang yang beriman.",
        "theme_group": "PERBUATAN BURUK DAN AMAL SALEH AKAN\nMENERIMA BALASAN YANG SETIMPAL",
        "kosakata": "1.\tSyajarataz-Zaqq\u016bm \u0634\u064e\u062c\u064e\u0631\u064e\u062a\u064e \u0627\u0644\u0632\u0651\u064e\u0642\u0651\u064f\u0648\u0652\u0645\u0650 (ad-Dukh\u0101n/44: 43)\nSyajarataz-zaqq\u016bm artinya \u2018pohon Zaqqum\u2019. Terdiri atas dua kata: syajarah dan az-zaqq\u016bm. Syajarah artinya \u2018pohon\u2019 yang berdahan. Kata kerjanya syajara artinya \u2018bertengkar\u2019, karena dalam bertengkar keluar kata-kata yang bercabang-cabang seperti pohon. Contohnya dalam Surah an-Nis\u0101\u2019/4: 65. Az-Zaqq\u016bm adalah nama pohon yang buahnya merupakan makanan yang sangat menyiksa di dalam neraka. Terambil dari kata kerja zaqama yaitu \u2018menelan makanan yang sangat tidak menyenangkan.\u2019\n2.\t\u1e6ca\u2018\u0101mul-\u2018A\u1e61\u012bm \u0637\u064e\u0639\u064e\u0627\u0645\u064f \u0627\u0644\u0627\u062b\u0650\u064a\u0652\u0645\u0650 (ad-Dukh\u0101n/44: 44)\n\u1e6ca\u2018\u0101mul-\u2018a\u1e61\u012bm artinya \u201cmakanan orang yang bergelimang dosa.\u201d Terdiri atas dua kata \u1e6ca\u2018\u0101m dan al-\u2018a\u1e61\u012bm. \u1e6ca\u2018\u0101m artinya \u2018makanan\u2019, kata kerjanya: \u1e6ca\u2018ima artinya \u2018memakan\u2019. Al-'a\u1e61\u012bm adalah \u2018orang yang bergelimang berdosa.\u2019 A\u1e61\u012bma adalah \u2018orang yang berdosa\u2019, tetapi dosanya tidak sebanyak dosa al-'a\u1e61\u012bm.",
        "sabab_nuzul": null,
        "conclusion": null
    }
}