{
    "id": 4430,
    "surah_id": 44,
    "ayah": 16,
    "page": 496,
    "quarter_hizb": 50.25,
    "juz": 25,
    "manzil": 6,
    "arabic": "\u064a\u064e\u0648\u0652\u0645\u064e \u0646\u064e\u0628\u0652\u0637\u0650\u0634\u064f \u0627\u0644\u0652\u0628\u064e\u0637\u0652\u0634\u064e\u0629\u064e \u0627\u0644\u0652\u0643\u064f\u0628\u0652\u0631\u0670\u0649\u06da \u0627\u0650\u0646\u0651\u064e\u0627 \u0645\u064f\u0646\u0652\u062a\u064e\u0642\u0650\u0645\u064f\u0648\u0652\u0646\u064e",
    "latin": "Yauma nab\u1e6disyul ba\u1e6dsyatal kubr\u0101, inn\u0101 muntaqim\u016bn(a).",
    "translation": "(Ingatlah) pada hari (ketika) Kami menghantam mereka dengan hantaman yang besar.685) Sesungguhnya Kami adalah pemberi balasan.",
    "no_footnote": "685",
    "footnotes": "685) Hantaman yang besar itu terjadi pada Perang Badar ketika orang-orang musyrik dipukul mundur sehingga menderita kekalahan dan banyak di antara pemimpin mereka yang tewas.",
    "surah": {
        "id": 44,
        "arabic": "\u0627\u0644\u062f\u0651\u062e\u0627\u0646",
        "latin": "Ad-Dukh\u0101n",
        "transliteration": "Ad-Dukhan",
        "translation": "Kabut Asap",
        "num_ayah": 59,
        "page": 496,
        "location": "Makkiyah"
    },
    "tafsir": {
        "wajiz": "Ingatlah pada hari ketika terjadi peperangan Badr, Kami menghantam mereka dengan hantaman yang keras dan sehebat-hebatnya sehingga mereka mengalami kekalahan yang besar dan banyak pemimpin-pemimpin mereka yang tewas. Kami adalah pemberi balasan terhadap mereka yang durhaka dan berdosa.\u201d",
        "tahlili": "Pada ayat ini Allah menerangkan bahwa pada hari Kiamat nanti Dia akan memberikan balasan siksa yang amat pedih kepada orang kafir Mekah. Pada hari itu mereka tidak akan mendapat pembela, penolong dan penyelamat yang akan dapat menghalangi siksaan Allah yang dijatuhkan kepada mereka, dan pada waktu itu timbullah penyesalan mereka yang sangat. Firman Allah:\n\u0648\u064e\u0627\u064e\u0633\u064e\u0631\u0651\u064f\u0648\u0627 \u0627\u0644\u0646\u0651\u064e\u062f\u064e\u0627\u0645\u064e\u0629\u064e \u0644\u064e\u0645\u0651\u064e\u0627 \u0631\u064e\u0627\u064e\u0648\u064f\u0627 \u0627\u0644\u0652\u0639\u064e\u0630\u064e\u0627\u0628\u064e\u06d7 \u0648\u064e\u062c\u064e\u0639\u064e\u0644\u0652\u0646\u064e\u0627 \u0627\u0644\u0652\u0627\u064e\u063a\u0652\u0644\u0670\u0644\u064e \u0641\u0650\u064a\u0652\u0653 \u0627\u064e\u0639\u0652\u0646\u064e\u0627\u0642\u0650 \u0627\u0644\u0651\u064e\u0630\u0650\u064a\u0652\u0646\u064e \u0643\u064e\u0641\u064e\u0631\u064f\u0648\u0652\u0627\u06d7 \u0647\u064e\u0644\u0652 \u064a\u064f\u062c\u0652\u0632\u064e\u0648\u0652\u0646\u064e \u0627\u0650\u0644\u0651\u064e\u0627 \u0645\u064e\u0627 \u0643\u064e\u0627\u0646\u064f\u0648\u0652\u0627 \u064a\u064e\u0639\u0652\u0645\u064e\u0644\u064f\u0648\u0652\u0646\u064e \n\nMereka menyatakan penyesalan ketika mereka melihat azab. Dan Kami pasangkan belenggu di leher orang-orang yang kafir. Mereka tidak dibalas melainkan sesuai dengan apa yang telah mereka kerjakan. (Saba'/34: 33)",
        "intro_surah": "Surah ad-Dukh\u0101n terdiri dari 59 ayat, termasuk kelompok surah Makkiyyah, diturunkan sesudah Surah az-Zukhruf. Nama ad-Dukh\u0101n (kabut) diambil dari perkataan dukh\u0101n yang terdapat pada ayat 10 surah ini.\nMenurut riwayat al-Bukh\u0101r\u012b, secara ringkas dapat diterangkan sebagai berikut: Perbuatan orang-orang kafir Mekah dalam menghalang-halangi agama Islam dan menyakiti serta mendurhakai Nabi Muhammad saw sudah melewati batas, karena itu Nabi berdoa kepada Allah agar diturunkan azab, sebagaimana yang telah diturunkan kepada orang-orang yang durhaka kepada Nabi Yusuf yaitu kemarau yang panjang. Doa Nabi saw itu dikabulkan Allah sampai orang-orang kafir memakan tulang dan bangkai karena kelaparan. Mereka selalu menengadah ke langit mengharap pertolongan Allah, tetapi tidak satu pun yang mereka lihat kecuali kabut yang menutupi pandangan mereka.\nAkhirnya mereka datang kepada Nabi Muhammad saw agar Nabi memohon kepada Allah, agar diturunkan hujan. Setelah Allah mengabulkan doa Nabi dan hujan diturunkan, mereka kembali kafir seperti semula, karena itu, Allah menyatakan bahwa mereka nanti akan diazab dengan azab yang pedih.\n\nPOKOK-POKOK ISINYA:\n1. \tKeimanan:\nDalil-dalil atas kenabian Muhammad saw; huru-hara dan kehebatan hari Kiamat; pada hari Kiamat hanya amalan baik seseorang yang dapat menolong orang itu; azab dan penderitaan yang ditemui oleh orang-orang kafir di akhirat, serta nikmat dan kemenangan yang diterima orang-orang mukmin.\n2. \tKisah-kisah:\nKisah Musa dengan Fir\u2018aun dan kaumnya.\n3. \tLain-lain:\nPermulaan turunnya Al-Qur\u2019an pada malam Lailatul Qadar; orang-orang kafir hanya beriman kalau mereka ditimpa bahaya; kalau bahaya telah hilang mereka kembali menjadi kafir; dalam penciptaan langit dan bumi itu terdapat hikmah yang besar.\n",
        "outro_surah": null,
        "munasabah_prev_surah": "HUBUNGAN SURAH AZ-ZUKHRUF DENGAN\nSURAH AD-DUKH\u0100N\n\n1. \tKedua surah itu sama-sama dimulai dengan menyebut sifat-sifat Al-Qur\u2019an.\n2. \tPada akhir Surah az-Zukhruf disebutkan ancaman kepada orang-orang kafir dan pada permulaan Surah ad-Dukh\u0101n terdapat pula peringatan dan ancaman itu.\n3. \tPada surah itu terdapat kesamaan sikap antara Nabi Muhammad saw dan Nabi Musa. Pada Surah az-Zukhruf, Nabi Muhammad saw mengadu kepada Tuhannya bahwa kaumnya adalah orang-orang yang tidak mau beriman, sedangkan pada Surah ad-Dukh\u0101n Nabi Musa mengadu kepada Tuhannya bahwa kaumnya adalah orang yang durhaka dan banyak dosa.\n",
        "munasabah_prev_theme": "Pada ayat-ayat yang lalu Allah swt menerangkan keadaan orang-orang kafir Mekah yang menyambut rahmat Allah dengan kekafiran dan tidak mau memanfaatkan ajaran-ajaran yang ada dalam Al-Qur\u2019an dan tidak mau menaati rasul yang diutus kepada mereka. Maka dalam ayat-ayat berikut ini Allah menerangkan bahwa Dia memerintahkan Nabi Muhammad saw agar bersabar sampai Allah menimpakan kepada mereka hal-hal yang menunjukkan kekuasaan-Nya, karena mereka itu memang seharusnya diazab dan tidak diberi maaf.",
        "theme_group": "AZAB ALLAH TERHADAP KAUM MUSYRIKIN",
        "kosakata": "Kosakata: Dukh\u0101n \u062f\u064f\u062e\u064e\u0627\u0646\u064c (ad-Dukh\u0101n/44: 10)\nKata ini berasal dari kata dakhana yang artinya adalah mengeluarkan asap atau kabut. Bentuk jamaknya adalah adkhinah, daw\u0101khin. Dakhanat an-n\u0101r artinya mengepulkan asap. Merokok disebut dengan tadkh\u012bn karena dia mengeluarkan asap dari mulutnya. Dakhana asy-syai\u2032 artinya sesuatu itu berwarna seperti asap. Dukh\u0101n juga berarti debu yang beterbangan dari tanah akibat kekeringan yang berkepanjangan. Dakhn berarti sesuatu yang berwarna hitam dan gelap, lailat dakhn\u0101nah malam yang sangat panas dan pekat. \nPengertian ayat ini: Langit membawa kabut karena langit adalah sesuatu yang berada di atas kita dan menjadi tempat debu berkumpul. Rasulullah pernah mendoakan kaum musyrikin yang terus membangkang agar terjadi paceklik sebagaimana yang dialami kaum Nabi Yusuf. Karena kesulitan dan kelaparan yang mereka derita, sehingga langit nampak oleh kaum musyrikin bagaikan dipenuhi oleh asap atau kabut. Ulama lain berpendapat dukh\u0101n di sini adalah debu-debu yang berterbangan ke atas akibat banyaknya kuda-kuda yang berlari dalam Perang Badar. Menurut Sayyid Qutub kabut ini akan menutupi angkasa selama 40 hari. Masa paceklik seperti yang dikatakan pendapat pertama itu terjadi beberapa saat setelah Nabi Muhammad melakukan hijrah. Ketika hal itu terjadi kaum musyrikin mengutus Abu Sufyan kepada Nabi memohon agar bencana itu segera diangkat.",
        "sabab_nuzul": null,
        "conclusion": "1. \tKaum Quraisy ditimpa bencana kelaparan karena menentang Nabi Muhammad saw.\n2. \tKabut yang meliputi mereka adalah satu azab yang pedih.\n3. \tMereka berjanji akan beriman apabila azab yang menimpa mereka dilenyapkan.\n4. \tJika azab mereka dilenyapkan, mereka tetap tidak akan beriman, meskipun telah diutus seorang rasul yang memberi penjelasan kepada mereka, tetapi tidak juga mereka taati.\n5. \tMereka menuduh bahwa Muhammad saw adalah seorang yang gila dan ajaran yang disebarkannya itu diterimanya dari seorang bangsa Romawi bernama Addaz yang beragama Kristen.\n6. \tSeandainya Allah melenyapkan azab yang menimpa mereka, mereka akan tetap juga ingkar.\n7. \tPada hari Kiamat, mereka akan dibalas oleh Allah dengan balasan yang amat keras dan pedih."
    }
}