{
    "id": 4421,
    "surah_id": 44,
    "ayah": 7,
    "page": 496,
    "quarter_hizb": 50.25,
    "juz": 25,
    "manzil": 6,
    "arabic": "\u0631\u064e\u0628\u0651\u0650 \u0627\u0644\u0633\u0651\u064e\u0645\u0670\u0648\u0670\u062a\u0650 \u0648\u064e\u0627\u0644\u0652\u0627\u064e\u0631\u0652\u0636\u0650 \u0648\u064e\u0645\u064e\u0627 \u0628\u064e\u064a\u0652\u0646\u064e\u0647\u064f\u0645\u064e\u0627\u06d8 \u0627\u0650\u0646\u0652 \u0643\u064f\u0646\u0652\u062a\u064f\u0645\u0652 \u0645\u0651\u064f\u0648\u0652\u0642\u0650\u0646\u0650\u064a\u0652\u0646\u064e",
    "latin": "Rabbis-sam\u0101w\u0101ti wal-ar\u1e0di wa m\u0101 bainahum\u0101, in kuntum m\u016bqin\u012bn(a).",
    "translation": "yaitu Tuhan langit dan bumi serta apa yang ada di antara keduanya jika kamu orang-orang yang yakin.",
    "no_footnote": null,
    "footnotes": null,
    "surah": {
        "id": 44,
        "arabic": "\u0627\u0644\u062f\u0651\u062e\u0627\u0646",
        "latin": "Ad-Dukh\u0101n",
        "transliteration": "Ad-Dukhan",
        "translation": "Kabut Asap",
        "num_ayah": 59,
        "page": 496,
        "location": "Makkiyah"
    },
    "tafsir": {
        "wajiz": "Tuhan, Pencipta, Pemelihara, dan Pengatur semua langit dan bumi dan apa yang ada di antara keduanya, baik yang tampak bagi kamu maupun yang tidak tampak; jika kamu orang-orang yang meyakini kebesaran dan kemahakuasaan-Nya.",
        "tahlili": "Allah menerangkan bahwa Dia Maha Mendengar dan Maha Mengetahui hal ihwal hamba-Nya karena Dia yang memelihara, mengatur dan memiliki langit dan bumi serta apa yang ada di antara keduanya. Demikianlah hendaknya hal ini menjadi pendirian bagi orang yang ingin mengetahui dan meyakininya tanpa ada keraguan sedikit pun.",
        "intro_surah": "Surah ad-Dukh\u0101n terdiri dari 59 ayat, termasuk kelompok surah Makkiyyah, diturunkan sesudah Surah az-Zukhruf. Nama ad-Dukh\u0101n (kabut) diambil dari perkataan dukh\u0101n yang terdapat pada ayat 10 surah ini.\nMenurut riwayat al-Bukh\u0101r\u012b, secara ringkas dapat diterangkan sebagai berikut: Perbuatan orang-orang kafir Mekah dalam menghalang-halangi agama Islam dan menyakiti serta mendurhakai Nabi Muhammad saw sudah melewati batas, karena itu Nabi berdoa kepada Allah agar diturunkan azab, sebagaimana yang telah diturunkan kepada orang-orang yang durhaka kepada Nabi Yusuf yaitu kemarau yang panjang. Doa Nabi saw itu dikabulkan Allah sampai orang-orang kafir memakan tulang dan bangkai karena kelaparan. Mereka selalu menengadah ke langit mengharap pertolongan Allah, tetapi tidak satu pun yang mereka lihat kecuali kabut yang menutupi pandangan mereka.\nAkhirnya mereka datang kepada Nabi Muhammad saw agar Nabi memohon kepada Allah, agar diturunkan hujan. Setelah Allah mengabulkan doa Nabi dan hujan diturunkan, mereka kembali kafir seperti semula, karena itu, Allah menyatakan bahwa mereka nanti akan diazab dengan azab yang pedih.\n\nPOKOK-POKOK ISINYA:\n1. \tKeimanan:\nDalil-dalil atas kenabian Muhammad saw; huru-hara dan kehebatan hari Kiamat; pada hari Kiamat hanya amalan baik seseorang yang dapat menolong orang itu; azab dan penderitaan yang ditemui oleh orang-orang kafir di akhirat, serta nikmat dan kemenangan yang diterima orang-orang mukmin.\n2. \tKisah-kisah:\nKisah Musa dengan Fir\u2018aun dan kaumnya.\n3. \tLain-lain:\nPermulaan turunnya Al-Qur\u2019an pada malam Lailatul Qadar; orang-orang kafir hanya beriman kalau mereka ditimpa bahaya; kalau bahaya telah hilang mereka kembali menjadi kafir; dalam penciptaan langit dan bumi itu terdapat hikmah yang besar.\n",
        "outro_surah": null,
        "munasabah_prev_surah": "HUBUNGAN SURAH AZ-ZUKHRUF DENGAN\nSURAH AD-DUKH\u0100N\n\n1. \tKedua surah itu sama-sama dimulai dengan menyebut sifat-sifat Al-Qur\u2019an.\n2. \tPada akhir Surah az-Zukhruf disebutkan ancaman kepada orang-orang kafir dan pada permulaan Surah ad-Dukh\u0101n terdapat pula peringatan dan ancaman itu.\n3. \tPada surah itu terdapat kesamaan sikap antara Nabi Muhammad saw dan Nabi Musa. Pada Surah az-Zukhruf, Nabi Muhammad saw mengadu kepada Tuhannya bahwa kaumnya adalah orang-orang yang tidak mau beriman, sedangkan pada Surah ad-Dukh\u0101n Nabi Musa mengadu kepada Tuhannya bahwa kaumnya adalah orang yang durhaka dan banyak dosa.\n",
        "munasabah_prev_theme": "Pada ayat-ayat yang lalu (akhir Surah az-Zukhruf), Allah memerintahkan kepada Nabi Muhammad agar berpaling dan meninggalkan orang-orang kafir, sehingga kemenangan akan berpihak kepadanya. Maka pada ayat-ayat berikut ini diterangkan bahwa kemenangan dan kegembiraan itu nyata dan terealisasi setelah diturunkannya Al-Qur\u2019an yang mengandung petunjuk dan hikmah.\n",
        "theme_group": "TURUNNYA KITAB SUCI AL-QUR\u2019AN",
        "kosakata": "Kosakata: Lailah Mub\u0101rakah \u0644\u064e\u064a\u0652\u0644\u064e\u0629 \u0645\u064f\u0628\u064e\u0627\u0631\u064e\u0643\u064e\u0629 (ad-Dukh\u0101n/44: 3)\nKalimat lailah mub\u0101rakah terdiri dari dua kata yaitu lailah dan mub\u0101rakah. Kata lailah bermakna malam hari yang dimulai dari terbenamnya matahari sampai terbit kembali. Kata ini merupakan antonim dari kata nah\u0101r. Keduanya tidak akan pernah bersatu. Lail aly\u0101l malam yang sangat pekat dan gelap. Lail\u0101 juga nama untuk kerudung hitam. Orang Arab menggunakan kata ini untuk sesuatu yang lemah, oleh karena itu lailah adalah nama untuk perempuan. Laki-laki yang lemah dan dungu disebutnya dengan Ab\u016b Laila. Mua\u2018wiyah bin Yazid mendapatkan gelar ini karena pemerintahannya hanya bertahan tiga bulan saja. \nSedangkan kata mub\u0101rakah berasal dari kata b\u0101raka-yub\u0101riku-mub\u0101rakatan yang berarti tumbuh dan bertambah. Di dalamnya ada makna keberkahan, kebahagiaan dan kenikmatan. At-tabr\u012bk adalah doa seseorang kepada orang lain agar mendapatkan keberkahan. B\u0101rakall\u0101h \u2018alaik semoga Allah memberikan keberkahan kepadamu. Tab\u0101rakallah artinya Mahasuci Allah. B\u0101raka juga berarti pada sekumpulan unta yang sedang mendekam. Diartikan juga dengan bagian dada. Pengertian pertama lebih banyak digunakan dan populer dalam arti keberkahan.\nKata lailah mub\u0101rakah dipahami oleh mayoritas ulama dan mufasir dalam arti malam lailatul qadar yang terjadi pada bulan Ramadan sebagaimana yang dinyatakan dalam Surah al-Qadr/97: 1. Tetapi meskipun para ulama berbeda pendapat dalam penentuan malam ini, ayat di atas merupakan penegasan dari Surah al-Qadr bahwa Al-Qur\u2019an diturunkan pada malam yang penuh berkah, kebahagiaan dan kenikmatan. Sebagian ulama memahami lailah mub\u0101rakah di sini dengan malam ni\u1e63fu Sya\u2018ban atau tanggal 15 Sya\u2018ban berdasarkan sebuah hadis bahwa Nabi saw bersabda: \u201cKalau malam pertengahan Sya\u2018ban tiba, maka salatlah pada malam harinya dan berpuasalah di siang harinya, karena Allah turun pada saat terbenamnya matahari ke langit dunia dan berfirman \u201cAdakah yang memohon ampun sehingga Ku ampuni, adakah yang menerima cobaan sehingga Ku anugerahi perlindungan, adakah yang memohon rezeki sehingga Ku beri rezeki.\u201d Imam Nawawi secara tegas menolak pendapat ini dan berpendapat bahwa lailah mub\u0101rakah adalah malam bulan Ramadan bukan ni\u1e63fu Sya\u2018b\u0101n. \n",
        "sabab_nuzul": null,
        "conclusion": null
    }
}