{
    "id": 4416,
    "surah_id": 44,
    "ayah": 2,
    "page": 496,
    "quarter_hizb": 50.25,
    "juz": 25,
    "manzil": 6,
    "arabic": "\u0648\u064e\u0627\u0644\u0652\u0643\u0650\u062a\u0670\u0628\u0650 \u0627\u0644\u0652\u0645\u064f\u0628\u0650\u064a\u0652\u0646\u0650\u06d9 ",
    "latin": "Wal-kit\u0101bil-mub\u012bn(i).",
    "translation": "Demi Kitab (Al-Qur\u2019an) yang jelas.",
    "no_footnote": null,
    "footnotes": null,
    "surah": {
        "id": 44,
        "arabic": "\u0627\u0644\u062f\u0651\u062e\u0627\u0646",
        "latin": "Ad-Dukh\u0101n",
        "transliteration": "Ad-Dukhan",
        "translation": "Kabut Asap",
        "num_ayah": 59,
        "page": 496,
        "location": "Makkiyah"
    },
    "tafsir": {
        "wajiz": "Allah bersumpah dalam ayat ini dengan kitab suci Al-Qur'an mengatakan, \u201cDemi Kitab, yaitu Al-Qur\u2019an yang menjelaskan petunjuk-petunjuk Allah untuk manusia agar senantiasa berada pada jalan yang benar.",
        "tahlili": "Allah menerangkan bahwa Dia telah menurunkan Al-Qur\u2019an pada malam penuh berkah yang dikenal dengan malam \u201cLailah Mub\u0101rakah\u201d untuk memperingatkan hamba-Nya dan agar mereka takut kepada siksa-Nya, dan pada malam itu Dia telah memerinci semua hal yang bermanfaat bagi hamba-Nya di dunia dan di akhirat. Dia adalah Tuhan semesta alam yang mengatur langit dan bumi dan yang ada di antara keduanya.\nTidak ada yang tersembunyi bagi Allah tentang hal ihwal hamba-Nya, hidup dan mati mereka adalah di tangan-Nya. Dialah Tuhan mereka dan Tuhan nenek moyang mereka, tetapi mereka masih juga ragu setelah kebenaran itu nyata dan jelas. Firman Allah:\n\u0627\u0650\u0646\u0651\u064e\u0627\u0653 \u0627\u064e\u0646\u0652\u0632\u064e\u0644\u0652\u0646\u0670\u0647\u064f \u0641\u0650\u064a\u0652 \u0644\u064e\u064a\u0652\u0644\u064e\u0629\u0650 \u0627\u0644\u0652\u0642\u064e\u062f\u0652\u0631\u0650 \u0661 \u0648\u064e\u0645\u064e\u0627\u0653 \u0627\u064e\u062f\u0652\u0631\u0670\u0649\u0643\u064e \u0645\u064e\u0627 \u0644\u064e\u064a\u0652\u0644\u064e\u0629\u064f \u0627\u0644\u0652\u0642\u064e\u062f\u0652\u0631\u0650\u06d7 \u0662 \u0644\u064e\u064a\u0652\u0644\u064e\u0629\u064f \u0627\u0644\u0652\u0642\u064e\u062f\u0652\u0631\u0650 \u06d5\u06d9 \u062e\u064e\u064a\u0652\u0631\u064c \u0645\u0650\u0651\u0646\u0652 \u0627\u064e\u0644\u0652\u0641\u0650 \u0634\u064e\u0647\u0652\u0631\u064d\u06d7 \u0663\nSesungguhnya Kami telah menurunkannya (Al-Qur\u2019an) pada malam qadar. Dan tahukah kamu apakah malam kemuliaan itu?Malam kemuliaan itu lebih baik daripada seribu bulan. (al-Qadr/97: 1-3)\n\nPeristiwa turunnya Al-Qur\u2019an itu terjadi pada bulan Ramadan sebagaimana firman Allah:\n\u0634\u064e\u0647\u0652\u0631\u064f \u0631\u064e\u0645\u064e\u0636\u064e\u0627\u0646\u064e \u0627\u0644\u0651\u064e\u0630\u0650\u064a\u0653\u0652 \u0627\u064f\u0646\u0652\u0632\u0650\u0644\u064e \u0641\u0650\u064a\u0652\u0647\u0650 \u0627\u0644\u0652\u0642\u064f\u0631\u0652\u0627\u0670\u0646\u064f \n\nBulan Ramadan adalah (bulan) yang di dalamnya diturunkan Al-Qur\u2019an, (al-Baqarah/2: 185)\n\nDari hadis Nabi:\n\u0639\u064e\u0646\u0652 \u0648\u064e\u0627\u062b\u0650\u0644\u064e\u0629\u064e \u0628\u0646 \u0627\u0644\u0623\u064e\u0633\u0652\u0642\u064e\u0639\u0650\u060c \u0639\u064e\u0646\u0650 \u0627\u0644\u0646\u0651\u064e\u0628\u0650\u0649\u0651\u0650 \u0635\u064e\u0644\u0651\u064e\u0649 \u0627\u0644\u0644\u0651\u0670\u0647\u064f \u0639\u064e\u0644\u064e\u064a\u0652\u0647\u0650 \u0648\u064e\u0633\u064e\u0644\u0651\u064e\u0645\u064e\u060c \u0642\u064e\u0627\u0644\u064e: \u0623\u064f\u0646\u0652\u0632\u0650\u0644\u064e\u062a\u0652 \u0635\u064f\u062d\u064f\u0641\u064f \u0627\u0650\u0628\u0652\u0631\u064e\u0627\u0647\u0650\u064a\u0652\u0645\u064e \u0623\u064e\u0648\u0651\u064e\u0644\u064e \u0644\u064e\u064a\u0652\u0644\u064e\u0629\u064d \u0645\u0650\u0646\u0652 \u0631\u064e\u0645\u064e\u0636\u064e\u0627\u0646\u064e\u060c \u0648\u064e\u0623\u064f\u0646\u0652\u0632\u0650\u0644\u064e\u062a\u0650 \u0627\u0644\u062a\u0651\u064e\u0648\u0652\u0631\u064e\u0627\u0629\u064f \u0644\u0650\u0633\u0650\u062a\u0651\u064d \u0645\u064e\u0636\u064e\u064a\u0652\u0646\u064e \u0645\u0650\u0646\u0652 \u0631\u064e\u0645\u064e\u0636\u064e\u0627\u0646\u064e\u060c \u0648\u064e\u0623\u064f\u0646\u0652\u0632\u0650\u0644\u064e \u0627\u0644\u0632\u0651\u064e\u0628\u064f\u0648\u0652\u0631\u064f \u0644\u0627\u0650\u062b\u0652\u0646\u064e\u062a\u064e\u064a \u0639\u064e\u0634\u0652\u0631\u064e\u0629\u064e \u0645\u0650\u0646\u0652 \u0631\u064e\u0645\u064e\u0636\u064e\u0627\u0646\u064e\u060c \u0648\u064e\u0623\u064f\u0646\u0652\u0632\u0650\u0644\u064e \u0627\u0644\u0627\u0650\u0646\u0652\u062c\u0650\u064a\u0652\u0644\u064f \u0644\u0650\u062b\u064e\u0645\u064e\u0627\u0646\u0650 \u0639\u064e\u0634\u0652\u0631\u064e\u0629\u064e \u062e\u064e\u0644\u064e\u062a\u0652 \u0645\u0650\u0646\u0652 \u0631\u064e\u0645\u064e\u0636\u064e\u0627\u0646\u064e \u0648\u064e\u0623\u064f\u0646\u0652\u0632\u0650\u0644\u064e \u0627\u0652\u0644\u0642\u064f\u0631\u0652\u0627\u064e\u0646\u064f \u0644\u0650\u0623\u064e\u0631\u0652\u0628\u064e\u0639\u064d \u0648\u064e\u0639\u0650\u0634\u0652\u0631\u0650\u064a\u0652\u0646\u064e \u0645\u064e\u0636\u064e\u062a\u0652 \u0645\u0650\u0646\u0652 \u0631\u064e\u0645\u064e\u0636\u064e\u0627\u0646\u064e. (\u0631\u0648\u0627\u0647 \u0623\u062d\u0645\u062f \u0648\u0627\u0644\u0637\u0628\u0631\u0627\u0646\u064a \u0648\u0627\u0644\u0628\u064a\u0647\u0642\u064a)\nDari W\u0101\u1e61ilah bin al-Asqa\u2018 bahwa Rasulullah saw bersabda: \u1e62u\u1e25uf Ibrahim diurunkan pada malam pertama bulan Ramadan, Taurat diturunkan pada tanggal 6 Ramadan, Zabur pada malam 12 Ramadan, Injil pada malam 18 Ramadan dan Al-Qur\u2019an diturunkan pada malam 24 Ramadan. (Riwayat A\u1e25mad, a\u1e6c-\u1e6cabr\u0101n\u012b, dan al-Baihaqi)\n\nAllah menurunkan Al-Qur\u2019an untuk memberitahukan kepada manusia tentang hal-hal yang bermanfaat untuk diamalkan dan hal-hal yang akan mencelakakan mereka, agar mereka menjauhinya, untuk menjadi hujah bagi Allah atas hamba-Nya.",
        "intro_surah": "Surah ad-Dukh\u0101n terdiri dari 59 ayat, termasuk kelompok surah Makkiyyah, diturunkan sesudah Surah az-Zukhruf. Nama ad-Dukh\u0101n (kabut) diambil dari perkataan dukh\u0101n yang terdapat pada ayat 10 surah ini.\nMenurut riwayat al-Bukh\u0101r\u012b, secara ringkas dapat diterangkan sebagai berikut: Perbuatan orang-orang kafir Mekah dalam menghalang-halangi agama Islam dan menyakiti serta mendurhakai Nabi Muhammad saw sudah melewati batas, karena itu Nabi berdoa kepada Allah agar diturunkan azab, sebagaimana yang telah diturunkan kepada orang-orang yang durhaka kepada Nabi Yusuf yaitu kemarau yang panjang. Doa Nabi saw itu dikabulkan Allah sampai orang-orang kafir memakan tulang dan bangkai karena kelaparan. Mereka selalu menengadah ke langit mengharap pertolongan Allah, tetapi tidak satu pun yang mereka lihat kecuali kabut yang menutupi pandangan mereka.\nAkhirnya mereka datang kepada Nabi Muhammad saw agar Nabi memohon kepada Allah, agar diturunkan hujan. Setelah Allah mengabulkan doa Nabi dan hujan diturunkan, mereka kembali kafir seperti semula, karena itu, Allah menyatakan bahwa mereka nanti akan diazab dengan azab yang pedih.\n\nPOKOK-POKOK ISINYA:\n1. \tKeimanan:\nDalil-dalil atas kenabian Muhammad saw; huru-hara dan kehebatan hari Kiamat; pada hari Kiamat hanya amalan baik seseorang yang dapat menolong orang itu; azab dan penderitaan yang ditemui oleh orang-orang kafir di akhirat, serta nikmat dan kemenangan yang diterima orang-orang mukmin.\n2. \tKisah-kisah:\nKisah Musa dengan Fir\u2018aun dan kaumnya.\n3. \tLain-lain:\nPermulaan turunnya Al-Qur\u2019an pada malam Lailatul Qadar; orang-orang kafir hanya beriman kalau mereka ditimpa bahaya; kalau bahaya telah hilang mereka kembali menjadi kafir; dalam penciptaan langit dan bumi itu terdapat hikmah yang besar.\n",
        "outro_surah": null,
        "munasabah_prev_surah": "HUBUNGAN SURAH AZ-ZUKHRUF DENGAN\nSURAH AD-DUKH\u0100N\n\n1. \tKedua surah itu sama-sama dimulai dengan menyebut sifat-sifat Al-Qur\u2019an.\n2. \tPada akhir Surah az-Zukhruf disebutkan ancaman kepada orang-orang kafir dan pada permulaan Surah ad-Dukh\u0101n terdapat pula peringatan dan ancaman itu.\n3. \tPada surah itu terdapat kesamaan sikap antara Nabi Muhammad saw dan Nabi Musa. Pada Surah az-Zukhruf, Nabi Muhammad saw mengadu kepada Tuhannya bahwa kaumnya adalah orang-orang yang tidak mau beriman, sedangkan pada Surah ad-Dukh\u0101n Nabi Musa mengadu kepada Tuhannya bahwa kaumnya adalah orang yang durhaka dan banyak dosa.\n",
        "munasabah_prev_theme": "Pada ayat-ayat yang lalu (akhir Surah az-Zukhruf), Allah memerintahkan kepada Nabi Muhammad agar berpaling dan meninggalkan orang-orang kafir, sehingga kemenangan akan berpihak kepadanya. Maka pada ayat-ayat berikut ini diterangkan bahwa kemenangan dan kegembiraan itu nyata dan terealisasi setelah diturunkannya Al-Qur\u2019an yang mengandung petunjuk dan hikmah.\n",
        "theme_group": "TURUNNYA KITAB SUCI AL-QUR\u2019AN",
        "kosakata": "Kosakata: Lailah Mub\u0101rakah \u0644\u064e\u064a\u0652\u0644\u064e\u0629 \u0645\u064f\u0628\u064e\u0627\u0631\u064e\u0643\u064e\u0629 (ad-Dukh\u0101n/44: 3)\nKalimat lailah mub\u0101rakah terdiri dari dua kata yaitu lailah dan mub\u0101rakah. Kata lailah bermakna malam hari yang dimulai dari terbenamnya matahari sampai terbit kembali. Kata ini merupakan antonim dari kata nah\u0101r. Keduanya tidak akan pernah bersatu. Lail aly\u0101l malam yang sangat pekat dan gelap. Lail\u0101 juga nama untuk kerudung hitam. Orang Arab menggunakan kata ini untuk sesuatu yang lemah, oleh karena itu lailah adalah nama untuk perempuan. Laki-laki yang lemah dan dungu disebutnya dengan Ab\u016b Laila. Mua\u2018wiyah bin Yazid mendapatkan gelar ini karena pemerintahannya hanya bertahan tiga bulan saja. \nSedangkan kata mub\u0101rakah berasal dari kata b\u0101raka-yub\u0101riku-mub\u0101rakatan yang berarti tumbuh dan bertambah. Di dalamnya ada makna keberkahan, kebahagiaan dan kenikmatan. At-tabr\u012bk adalah doa seseorang kepada orang lain agar mendapatkan keberkahan. B\u0101rakall\u0101h \u2018alaik semoga Allah memberikan keberkahan kepadamu. Tab\u0101rakallah artinya Mahasuci Allah. B\u0101raka juga berarti pada sekumpulan unta yang sedang mendekam. Diartikan juga dengan bagian dada. Pengertian pertama lebih banyak digunakan dan populer dalam arti keberkahan.\nKata lailah mub\u0101rakah dipahami oleh mayoritas ulama dan mufasir dalam arti malam lailatul qadar yang terjadi pada bulan Ramadan sebagaimana yang dinyatakan dalam Surah al-Qadr/97: 1. Tetapi meskipun para ulama berbeda pendapat dalam penentuan malam ini, ayat di atas merupakan penegasan dari Surah al-Qadr bahwa Al-Qur\u2019an diturunkan pada malam yang penuh berkah, kebahagiaan dan kenikmatan. Sebagian ulama memahami lailah mub\u0101rakah di sini dengan malam ni\u1e63fu Sya\u2018ban atau tanggal 15 Sya\u2018ban berdasarkan sebuah hadis bahwa Nabi saw bersabda: \u201cKalau malam pertengahan Sya\u2018ban tiba, maka salatlah pada malam harinya dan berpuasalah di siang harinya, karena Allah turun pada saat terbenamnya matahari ke langit dunia dan berfirman \u201cAdakah yang memohon ampun sehingga Ku ampuni, adakah yang menerima cobaan sehingga Ku anugerahi perlindungan, adakah yang memohon rezeki sehingga Ku beri rezeki.\u201d Imam Nawawi secara tegas menolak pendapat ini dan berpendapat bahwa lailah mub\u0101rakah adalah malam bulan Ramadan bukan ni\u1e63fu Sya\u2018b\u0101n. \n",
        "sabab_nuzul": null,
        "conclusion": null
    }
}