{
    "id": 4472,
    "surah_id": 44,
    "ayah": 58,
    "page": 498,
    "quarter_hizb": 50.5,
    "juz": 25,
    "manzil": 6,
    "arabic": "\u0641\u064e\u0627\u0650\u0646\u0651\u064e\u0645\u064e\u0627 \u064a\u064e\u0633\u0651\u064e\u0631\u0652\u0646\u0670\u0647\u064f \u0628\u0650\u0644\u0650\u0633\u064e\u0627\u0646\u0650\u0643\u064e \u0644\u064e\u0639\u064e\u0644\u0651\u064e\u0647\u064f\u0645\u0652 \u064a\u064e\u062a\u064e\u0630\u064e\u0643\u0651\u064e\u0631\u064f\u0648\u0652\u0646\u064e",
    "latin": "Fa innam\u0101 yassarn\u0101hu bilis\u0101nika la\u2018allahum yata\u017cakkar\u016bn(a).",
    "translation": "Sesungguhnya Kami telah memudahkannya (Al-Qur\u2019an) dengan bahasamu (Arab) supaya mereka mendapat pelajaran.",
    "no_footnote": null,
    "footnotes": null,
    "surah": {
        "id": 44,
        "arabic": "\u0627\u0644\u062f\u0651\u062e\u0627\u0646",
        "latin": "Ad-Dukh\u0101n",
        "transliteration": "Ad-Dukhan",
        "translation": "Kabut Asap",
        "num_ayah": 59,
        "page": 496,
        "location": "Makkiyah"
    },
    "tafsir": {
        "wajiz": "Setelah menjelaskan berbagai nikmat yang diperoleh oleh orang-orang yang bertakwa di akhirat nanti, Allah lalu menggambarkan bahwa Al-Qur\u2019an adalah tuntunan untuk mendapatkan kebahagiaan akhirat itu. Allah berfirman, \u201cSungguh, Kami memudahkannya, yakni memudahkan penyampaian pesan-pesan Al-Qur\u2019an itu dengan bahasamu, yaitu bahasa Arab dengan harapan agar mereka mendapat pelajaran mengenai hari Kiamat, siksaan, dan nikmat yang di peroleh di akhirat kelak.",
        "tahlili": "Allah menjelaskan petunjuk dan peringatan yang telah disampaikan kepada orang-orang musyrik Mekah yang disampaikan oleh Rasul-Nya, Muhammad saw, berupa wahyu-Nya yang diturunkan dengan bahasa yang sudah mereka pahami yaitu bahasa mereka sendiri, bahasa Arab. Hal itu dimaksudkan agar kaum musyrik Mekah dapat dengan mudah mengambil petunjuk dan pelajaran dari pokok-pokok agama Islam, tamsil ibarat dan kisah-kisah umat yang dahulu yang terdapat di dalam Al-Qur\u2019an wahyu yang telah diturunkan itu. Dengan membaca Al-Qur\u2019an mereka akan merenungkan ayat-ayat yang menyuruh agar manusia memperhatikan tanda-tanda kekuasaan dan kebesaran Allah yang terdapat dalam kejadian langit dan bumi beserta apa yang ada antara keduanya, demikian pula bukti-bukti adanya hari kebangkitan.\nDengan bimbingan dan peringatan itu, diharapkan mereka mau bertobat, kembali ke jalan yang benar, mau mengakui dan mencari kebenaran yang hakiki dengan meninggalkan kebiasaan-kebiasaan nenek moyang mereka yang telah nyata kesesatannya. Akan tetapi lantaran kebekuan hati mereka karena kesombongan dan keangkuhan mereka, maka petunjuk dan kebenaran yang dikemukakan Al-Qur\u2019an kepada mereka tidak dapat mereka terima, sehingga mereka tetap dalam kegelapan dan kesesatan.",
        "intro_surah": "Surah ad-Dukh\u0101n terdiri dari 59 ayat, termasuk kelompok surah Makkiyyah, diturunkan sesudah Surah az-Zukhruf. Nama ad-Dukh\u0101n (kabut) diambil dari perkataan dukh\u0101n yang terdapat pada ayat 10 surah ini.\nMenurut riwayat al-Bukh\u0101r\u012b, secara ringkas dapat diterangkan sebagai berikut: Perbuatan orang-orang kafir Mekah dalam menghalang-halangi agama Islam dan menyakiti serta mendurhakai Nabi Muhammad saw sudah melewati batas, karena itu Nabi berdoa kepada Allah agar diturunkan azab, sebagaimana yang telah diturunkan kepada orang-orang yang durhaka kepada Nabi Yusuf yaitu kemarau yang panjang. Doa Nabi saw itu dikabulkan Allah sampai orang-orang kafir memakan tulang dan bangkai karena kelaparan. Mereka selalu menengadah ke langit mengharap pertolongan Allah, tetapi tidak satu pun yang mereka lihat kecuali kabut yang menutupi pandangan mereka.\nAkhirnya mereka datang kepada Nabi Muhammad saw agar Nabi memohon kepada Allah, agar diturunkan hujan. Setelah Allah mengabulkan doa Nabi dan hujan diturunkan, mereka kembali kafir seperti semula, karena itu, Allah menyatakan bahwa mereka nanti akan diazab dengan azab yang pedih.\n\nPOKOK-POKOK ISINYA:\n1. \tKeimanan:\nDalil-dalil atas kenabian Muhammad saw; huru-hara dan kehebatan hari Kiamat; pada hari Kiamat hanya amalan baik seseorang yang dapat menolong orang itu; azab dan penderitaan yang ditemui oleh orang-orang kafir di akhirat, serta nikmat dan kemenangan yang diterima orang-orang mukmin.\n2. \tKisah-kisah:\nKisah Musa dengan Fir\u2018aun dan kaumnya.\n3. \tLain-lain:\nPermulaan turunnya Al-Qur\u2019an pada malam Lailatul Qadar; orang-orang kafir hanya beriman kalau mereka ditimpa bahaya; kalau bahaya telah hilang mereka kembali menjadi kafir; dalam penciptaan langit dan bumi itu terdapat hikmah yang besar.\n",
        "outro_surah": null,
        "munasabah_prev_surah": "HUBUNGAN SURAH AZ-ZUKHRUF DENGAN\nSURAH AD-DUKH\u0100N\n\n1. \tKedua surah itu sama-sama dimulai dengan menyebut sifat-sifat Al-Qur\u2019an.\n2. \tPada akhir Surah az-Zukhruf disebutkan ancaman kepada orang-orang kafir dan pada permulaan Surah ad-Dukh\u0101n terdapat pula peringatan dan ancaman itu.\n3. \tPada surah itu terdapat kesamaan sikap antara Nabi Muhammad saw dan Nabi Musa. Pada Surah az-Zukhruf, Nabi Muhammad saw mengadu kepada Tuhannya bahwa kaumnya adalah orang-orang yang tidak mau beriman, sedangkan pada Surah ad-Dukh\u0101n Nabi Musa mengadu kepada Tuhannya bahwa kaumnya adalah orang yang durhaka dan banyak dosa.\n",
        "munasabah_prev_theme": "Pada ayat-ayat yang lalu dijelaskan bahwa semua makhluk diciptakan Allah menurut hukum-hukum dan ketentuan-ketentuan yang telah ditetapkan-Nya sampai kepada waktu yang telah ditentukan. Bila telah sampai waktu yang ditentukan itu semua makhluk akan binasa dan hancur. Di akhirat nanti akan diterima pembalasan yang adil dari Allah. Pada ayat-ayat berikut ini, Allah menjelaskan siksaan neraka yang akan ditimpakan kepada orang-orang kafir dan kenikmatan hidup di surga yang akan dinikmati oleh orang-orang yang beriman.",
        "theme_group": "PERBUATAN BURUK DAN AMAL SALEH AKAN\nMENERIMA BALASAN YANG SETIMPAL",
        "kosakata": "1.\tSyajarataz-Zaqq\u016bm \u0634\u064e\u062c\u064e\u0631\u064e\u062a\u064e \u0627\u0644\u0632\u0651\u064e\u0642\u0651\u064f\u0648\u0652\u0645\u0650 (ad-Dukh\u0101n/44: 43)\nSyajarataz-zaqq\u016bm artinya \u2018pohon Zaqqum\u2019. Terdiri atas dua kata: syajarah dan az-zaqq\u016bm. Syajarah artinya \u2018pohon\u2019 yang berdahan. Kata kerjanya syajara artinya \u2018bertengkar\u2019, karena dalam bertengkar keluar kata-kata yang bercabang-cabang seperti pohon. Contohnya dalam Surah an-Nis\u0101\u2019/4: 65. Az-Zaqq\u016bm adalah nama pohon yang buahnya merupakan makanan yang sangat menyiksa di dalam neraka. Terambil dari kata kerja zaqama yaitu \u2018menelan makanan yang sangat tidak menyenangkan.\u2019\n2.\t\u1e6ca\u2018\u0101mul-\u2018A\u1e61\u012bm \u0637\u064e\u0639\u064e\u0627\u0645\u064f \u0627\u0644\u0627\u062b\u0650\u064a\u0652\u0645\u0650 (ad-Dukh\u0101n/44: 44)\n\u1e6ca\u2018\u0101mul-\u2018a\u1e61\u012bm artinya \u201cmakanan orang yang bergelimang dosa.\u201d Terdiri atas dua kata \u1e6ca\u2018\u0101m dan al-\u2018a\u1e61\u012bm. \u1e6ca\u2018\u0101m artinya \u2018makanan\u2019, kata kerjanya: \u1e6ca\u2018ima artinya \u2018memakan\u2019. Al-'a\u1e61\u012bm adalah \u2018orang yang bergelimang berdosa.\u2019 A\u1e61\u012bma adalah \u2018orang yang berdosa\u2019, tetapi dosanya tidak sebanyak dosa al-'a\u1e61\u012bm.",
        "sabab_nuzul": null,
        "conclusion": null
    }
}