{
    "id": 4507,
    "surah_id": 45,
    "ayah": 34,
    "page": 502,
    "quarter_hizb": 50.75,
    "juz": 25,
    "manzil": 6,
    "arabic": "\u0648\u064e\u0642\u0650\u064a\u0652\u0644\u064e \u0627\u0644\u0652\u064a\u064e\u0648\u0652\u0645\u064e \u0646\u064e\u0646\u0652\u0633\u0670\u0649\u0643\u064f\u0645\u0652 \u0643\u064e\u0645\u064e\u0627 \u0646\u064e\u0633\u0650\u064a\u0652\u062a\u064f\u0645\u0652 \u0644\u0650\u0642\u064e\u0627\u06e4\u0621\u064e \u064a\u064e\u0648\u0652\u0645\u0650\u0643\u064f\u0645\u0652 \u0647\u0670\u0630\u064e\u0627\u06d9 \u0648\u064e\u0645\u064e\u0623\u0652\u0648\u0670\u0649\u0643\u064f\u0645\u064f \u0627\u0644\u0646\u0651\u064e\u0627\u0631\u064f \u0648\u064e\u0645\u064e\u0627 \u0644\u064e\u0643\u064f\u0645\u0652 \u0645\u0651\u0650\u0646\u0652 \u0646\u0651\u0670\u0635\u0650\u0631\u0650\u064a\u0652\u0646\u064e",
    "latin": "Wa q\u012blal-yauma nans\u0101kum kam\u0101 nas\u012btum liq\u0101'a yaumikum h\u0101\u017c\u0101, wa ma'w\u0101kumun n\u0101ru wa m\u0101 lakum min n\u0101\u1e63ir\u012bn(a).",
    "translation": "(Kepada mereka) dikatakan, \u201cPada hari ini Kami melupakan kamu sebagaimana kamu telah melupakan pertemuan (dengan) harimu ini. Tempat kembalimu hanyalah neraka dan sama sekali tidak ada penolong bagimu.",
    "no_footnote": null,
    "footnotes": null,
    "surah": {
        "id": 45,
        "arabic": " \u0627\u0644\u062c\u0627\u062b\u064a\u0629",
        "latin": "Al-J\u0101\u1e61iyah",
        "transliteration": "Al-Jasiyah",
        "translation": "Berlutut",
        "num_ayah": 37,
        "page": 499,
        "location": "Makkiyah"
    },
    "tafsir": {
        "wajiz": "Dan ketika itu kepada mereka di katakan, \u201cPada hari ini Kami memperlakukan kamu dengan perlakuan orang yang melupakan kamu sebagaimana kamu dahulu ketika di dunia telah melupakan pertemuanmu dengan harimu ini, yakni hari yang amat celaka bagimu; dan akibat dari perbuatan dosa yang kamu lakukan dahulu di dunia maka tempat kembalimu sekarang ialah neraka dan sekali-kali tidak akan ada penolong bagimu dalam menghadapi semua siksaan di neraka itu.",
        "tahlili": "Pada ayat ini, Allah menjelaskan cemoohan, penghinaan dan azab yang mereka tanggungkan pada hari Kiamat itu. Pada hari itu, Allah tidak akan menghiraukan jerit dan tangis mereka, ratapan dan penyesalan mereka karena semua yang mereka alami itu benar-benar sebagai pembalasan yang seimbang dengan perbuatan mereka di dunia dahulu.\nDi dunia mereka menganiaya dan memfitnah orang yang tidak bersalah, menghalalkan yang haram untuk kepentingan pribadi dan kelompok mereka; Allah akan memberikan balasan yang setimpal dengan amal mereka semua di akhirat nanti.\nJika Allah bersikap tidak mengacuhkan mereka karena sikap angkuh dan sombong yang telah mereka lakukan, serta sikap yang tidak berperikemanusiaan yang telah mereka lakukan. Maka sikap yang demikian itu adalah balasan yang wajar sesuai dengan keadilan-Nya.",
        "intro_surah": "Surah al-J\u0101\u1e61iyah terdiri dari 37 ayat, termasuk kelompok surah Makkiyyah, diturunkan sesudah Surah ad-Dukh\u0101n.\nSebutan al-J\u0101\u1e61iyah (yang berlutut) diambil dari kata j\u0101\u1e61iyah yang terdapat pada ayat 28 surah ini.\nAyat tersebut menerangkan keadaan manusia pada hari Kiamat, pada waktu mereka dikumpulkan di hadapan mahkamah Allah Yang Mahatinggi lagi Mahaperkasa untuk memberi keputusan terhadap perbuatan-perbuatan yang telah mereka lakukan selama hidup di dunia. Pada hari itu, manusia berlutut di hadapan Allah, tunduk dan berserah diri menunggu keputusan yang akan ditetapkan-Nya.\nDinamakan juga Asy-Syar\u012b\u2018ah (peraturan agama) diambil dari perkataan syar\u012b\u2018ah yang terdapat pada ayat 18 surah ini. Dalam ayat tersebut Allah memerintahkan agar manusia bertindak dan berbuat sesuai dengan yang digariskan oleh syariat Allah yang telah disampaikan-Nya dengan perantaraan Rasul-Nya.\n\nPOKOK-POKOK ISINYA:\n1. \tKeimanan:\nKeterangan atau dalil yang membuktikan adanya Allah Maha Pencipta langit dan bumi; keburukan dan kebaikan yang dikerjakan manusia serta akibatnya bagi diri mereka sendiri; Allah Pelindung orang-orang yang bertakwa; kebesaran dan keagungan hanyalah hak Allah semata; kepastian bahwa Allah-lah yang menghidupkan, mematikan, dan membangkitkan manusia pada hari Kiamat; keterangan tentang huru-hara di hari Kiamat dan tiap-tiap orang menerima perhitungan perbuatannya; persaksian orang-orang kafir di hari Kiamat atas segala perbuatan buruk yang telah dilakukannya selama hidup di dunia; azab yang diterima orang-orang kafir.\n2. \tHukum-hukum:\nPerintah Allah kepada Rasulullah saw agar jangan mengikuti orang-orang yang tidak menggunakan akalnya dan jangan menuruti kemauan mereka.\n3. \tKisah-kisah:\nKisah Bani Israil yang telah diberi nikmat Allah, tetapi mereka berpaling dan menyimpang dari ajaran agama sehingga timbul perselisihan hebat di antara mereka.\n\n4. \tLain-lain:\nAncaman kepada orang-orang musyrik yang mendustakan ayat-ayat Allah serta berlaku sombong; batalnya pendapat kaum Dahriyah (atheisme, skeptisisme) dan keingkaran mereka terhadap hari Kiamat.\n",
        "outro_surah": null,
        "munasabah_prev_surah": "HUBUNGAN SURAH AD-DUKH\u0100N DENGAN\nSURAH AL-J\u0100\u1e60IYAH\n\nKedua surah ini hampir sama isi dan maksudnya yaitu sama-sama menjelaskan adanya Allah, keesaan dan kekuasaan-Nya, sama-sama pula menerangkan sikap orang-orang kafir terhadap seruan Nabi Muhammad, ancaman kepada orang-orang kafir, dan siksaan yang hebat yang akan mereka derita pada hari Kiamat.\n ",
        "munasabah_prev_theme": "Pada ayat-ayat yang lalu, Allah menjelaskan bahwa Dia berkuasa untuk menghidupkan kembali semua makhluk yang telah mati sebagaimana Dia berkuasa menciptakan kehidupan pertama. Dalam ayat-ayat berikut, Allah menjelaskan bahwa Dialah yang berkuasa pada hari kebangkitan. Pada hari itu, semua manusia berlutut di hadapan-Nya menunggu keputusan terakhir mengenai balasan amal perbuatannya. Tiap-tiap orang akan menerima catatan amalnya. Catatan amal perbuatan itu dibuat demikian teliti sehingga tidak ada sesuatu pun yang tidak tercatat di dalamnya.\n",
        "theme_group": "\nBERBAGAI PERISTIWA PADA HARI KIAMAT ",
        "kosakata": "1.\tJ\u0101\u1e61iyah \u062c\u064e\u0627\u062b\u0650\u064a\u064e\u0629\u064c (al-J\u0101\u1e61iyah/45: 28)\nBentuk isim f\u0101\u2018il dari kata ja\u1e61\u1e61a. Akar katanya bisa terambil dari (j\u012bm-\u1e61\u0101'-w\u0101w) berarti: ja\u1e61\u0101-yaj\u1e61\u016b-ju\u1e61uwwan atau (j\u012bm-\u1e61\u0101'-y\u0101') berarti ja\u1e61\u0101-yaj\u1e61\u012b-ju\u1e61iyyan, ji\u1e61iyyan. Artinya duduk di atas kedua lututnya atau sering disebut dengan bertekuk lutut. Sebuah pemandangan seorang yang tunduk, pasrah terhadap hukuman yang akan dia dapatkan. Ungkapan j\u0101\u1e61iyah adalah sifat semua umat manusia pada hari Kiamat yang tidak berdaya menghadapi nasib yang akan mereka dapatkan. \n2.\tMustaiqin\u012bn \u0645\u064f\u0633\u0652\u062a\u064e\u064a\u0652\u0642\u0650\u0646\u0650\u064a\u0652\u0646\u064e (al-J\u0101\u1e61iyah/45: 32)\nBentuk isim f\u0101\u2018il dari kata kerja istaiqana-yastaiqinu. Akar katanya dari (y\u0101'-q\u0101f-n\u016bn) atau yaq\u012bn. Ada tambahan huruf m\u012bm, s\u012bn dan t\u0101'. Adanya tambahan huruf s\u012bn dan t\u0101' menunjukkan adanya arti mencari dengan sungguh-sungguh. Ungkapan wam\u0101 na\u1e25nu bimustaiqin\u012bn artinya, kami sekali-kali tidak meyakininya. Yakin artinya tetap dan jelas. Keyakinan adalah sebuah pengetahuan yang tidak lagi ada keraguan apapun terhadapnya. Kematian disebut juga yaq\u012bn karena semua orang akan mempercayainya. \n",
        "sabab_nuzul": null,
        "conclusion": null
    }
}