{
    "id": 4477,
    "surah_id": 45,
    "ayah": 4,
    "page": 499,
    "quarter_hizb": 50.5,
    "juz": 25,
    "manzil": 6,
    "arabic": "\u0648\u064e\u0641\u0650\u064a\u0652 \u062e\u064e\u0644\u0652\u0642\u0650\u0643\u064f\u0645\u0652 \u0648\u064e\u0645\u064e\u0627 \u064a\u064e\u0628\u064f\u062b\u0651\u064f \u0645\u0650\u0646\u0652 \u062f\u064e\u0627\u06e4\u0628\u0651\u064e\u0629\u064d \u0627\u0670\u064a\u0670\u062a\u064c \u0644\u0651\u0650\u0642\u064e\u0648\u0652\u0645\u064d \u064a\u0651\u064f\u0648\u0652\u0642\u0650\u0646\u064f\u0648\u0652\u0646\u064e\u06d9",
    "latin": "Wa f\u012b khalqikum wa m\u0101 yabu\u1e61\u1e61u min d\u0101bbatin \u0101y\u0101tul liqaumiy y\u016bqin\u016bn(a).",
    "translation": "Pada penciptaan kamu dan makhluk bergerak yang ditebarkan-Nya terdapat tanda-tanda (kebesaran Allah) bagi kaum yang meyakini.",
    "no_footnote": null,
    "footnotes": null,
    "surah": {
        "id": 45,
        "arabic": " \u0627\u0644\u062c\u0627\u062b\u064a\u0629",
        "latin": "Al-J\u0101\u1e61iyah",
        "transliteration": "Al-Jasiyah",
        "translation": "Berlutut",
        "num_ayah": 37,
        "page": 499,
        "location": "Makkiyah"
    },
    "tafsir": {
        "wajiz": "Dan juga pada penciptaan dirimu, wahai manusia, dengan bentuk yang fungsi yang sempurna dan pada apa yang di tebarkan-Nya di permukaan bumi dari aneka jenis binatang melata, terdapat tanda-tanda keesaan, kekuasaan, dan kebesaran Allah untuk kaum yang meyakini,",
        "tahlili": "Allah menunjukkan tanda-tanda kekuasaan dan kebesaran-Nya pada kejadian manusia sendiri dan pada penciptaan binatang yang beraneka ragam jenis dan bentuknya.\nManusia diciptakan Allah dari unsur-unsur yang terdapat di dalam tanah. Berbagai zat yang terdiri dari karbohidrat, protein, zat lemak, zat gula, berbagai macam garam, berbagai macam vitamin, zat besi, dan sebagainya terkumpul dalam tubuh manusia, melalui makanan dan minuman yang berasal dari tumbuh-tumbuhan dan hewan. Tumbuh-tumbuhan dan hewan itu semua berasal dari tanah. Allah berfirman:\n\u0648\u064e\u0645\u0650\u0646\u0652 \u0627\u0670\u064a\u0670\u062a\u0650\u0647\u0656\u0653 \u0627\u064e\u0646\u0652 \u062e\u064e\u0644\u064e\u0642\u064e\u0643\u064f\u0645\u0652 \u0645\u0650\u0651\u0646\u0652 \u062a\u064f\u0631\u064e\u0627\u0628\u064d \u062b\u064f\u0645\u0651\u064e \u0627\u0650\u0630\u064e\u0627\u0653 \u0627\u064e\u0646\u0652\u062a\u064f\u0645\u0652 \u0628\u064e\u0634\u064e\u0631\u064c \u062a\u064e\u0646\u0652\u062a\u064e\u0634\u0650\u0631\u064f\u0648\u0652\u0646\u064e \u0662\u0660\nDan di antara tanda-tanda (kebesaran)-Nya ialah Dia menciptakan kamu dari tanah, kemudian tiba-tiba kamu (menjadi) manusia yang berkembang biak. (ar-R\u016bm/30: 20)\nSebagian dari zat yang dimakan manusia itu ada yang menjadi spermatozoa pada diri laki-laki dan ovum pada diri perempuan. Sperma dan ovum itu bertemu, pada saat terjadinya senggama antara laki-laki dan perempuan. Dengan demikian terjadilah pembuahan. Benih itu makin lama makin besar. Empat puluh hari kemudian, terbentuklah jaringan-jaringan yang dipenuhi pembuluh-pembuluh darah. Empat puluh hari kemudian, terlihatlah calon janin yang berbentuk seperti darah yang mengental. Kemudian setelah empat puluh hari berikutnya terbentuklah janin yang melekat pada dinding rahim. Pada saat itulah, mulai terlihat tanda-tanda kehidupan dan jantung bayi itu mulai berdenyut. Denyut jantung bayi itu telah dapat didengar apabila orang menempelkan telinganya ke bagian perut ibu yang sedang mengandung. Sejak terjadinya pembuahan dalam kandungan ibu sampai kepada terlihatnya tanda-tanda kehidupan, diperlukan waktu empat bulan. Lima bulan sepuluh hari setelah itu, lahirlah janin dari kandungan. Sejak itulah bayi itu bernapas dengan paru-parunya yang telah mulai bekerja, dan sejak itu pula ia berangsur-angsur melepaskan diri dari ketergantungannya kepada orang tuanya, terutama kepada ibunya. Dia telah diberi akal, perasaan dan kemampuan bekerja sehingga dengan kemampuan yang diberikan itu, ia telah dapat melaksanakan tugas hidupnya sebagai khalifah Allah di muka bumi. Akhirnya ia menjadi tua dan meninggal dunia.\nPenciptaan manusia, Allah jelaskan dalam firman-Nya:\n\u0647\u064f\u0648\u064e \u0627\u0644\u0651\u064e\u0630\u0650\u064a\u0652 \u062e\u064e\u0644\u064e\u0642\u064e\u0643\u064f\u0645\u0652 \u0645\u0651\u0650\u0646\u0652 \u062a\u064f\u0631\u064e\u0627\u0628\u064d \u062b\u064f\u0645\u0651\u064e \u0645\u0650\u0646\u0652 \u0646\u0651\u064f\u0637\u0652\u0641\u064e\u0629\u064d \u062b\u064f\u0645\u0651\u064e \u0645\u0650\u0646\u0652 \u0639\u064e\u0644\u064e\u0642\u064e\u0629\u064d \u062b\u064f\u0645\u0651\u064e \u064a\u064f\u062e\u0652\u0631\u0650\u062c\u064f\u0643\u064f\u0645\u0652 \u0637\u0650\u0641\u0652\u0644\u064b\u0627 \u062b\u064f\u0645\u0651\u064e \u0644\u0650\u062a\u064e\u0628\u0652\u0644\u064f\u063a\u064f\u0648\u0652\u0653\u0627 \u0627\u064e\u0634\u064f\u062f\u0651\u064e\u0643\u064f\u0645\u0652 \u062b\u064f\u0645\u0651\u064e \u0644\u0650\u062a\u064e\u0643\u064f\u0648\u0652\u0646\u064f\u0648\u0652\u0627 \u0634\u064f\u064a\u064f\u0648\u0652\u062e\u064b\u0627 \u06da\u0648\u064e\u0645\u0650\u0646\u0652\u0643\u064f\u0645\u0652 \u0645\u0651\u064e\u0646\u0652 \u064a\u0651\u064f\u062a\u064e\u0648\u064e\u0641\u0651\u0670\u0649 \u0645\u0650\u0646\u0652 \u0642\u064e\u0628\u0652\u0644\u064f \u0648\u064e\u0644\u0650\u062a\u064e\u0628\u0652\u0644\u064f\u063a\u064f\u0648\u0652\u0653\u0627 \u0627\u064e\u062c\u064e\u0644\u064b\u0627 \u0645\u0651\u064f\u0633\u064e\u0645\u0651\u064b\u0649 \u0648\u0651\u064e\u0644\u064e\u0639\u064e\u0644\u0651\u064e\u0643\u064f\u0645\u0652 \u062a\u064e\u0639\u0652\u0642\u0650\u0644\u064f\u0648\u0652\u0646\u064e \u0666\u0667\nDialah yang menciptakanmu dari tanah, kemudian dari setetes mani, lalu dari segumpal darah, kemudian kamu dilahirkan sebagai seorang anak, kemudian dibiarkan kamu sampai dewasa, lalu menjadi tua. Tetapi di antara kamu ada yang dimatikan sebelum itu. (Kami perbuat demikian) agar kamu sampai kepada kurun waktu yang ditentukan, agar kamu mengerti. (G\u0101fir/40: 67)\nDengan memperhatikan proses penciptaan manusia, bagaimana sulit dan ruwetnya hukum-hukum yang berlaku dalam penciptaan itu, orang yang sadar akan mengakui kekuasaan dan keagungan Allah, Tuhan Yang Maha Esa.\nAllah menunjukkan juga tanda-tanda kekuasaan dan keagungan-Nya yang terdapat pada kejadian dan kehidupan binatang melata yang beraneka ragam, jenis, macamnya, dan cara-cara kehidupannya. Dengan memperhatikan bentuknya, orang dapat membedakan binatang. Ada binatang yang beruas tulang belakang yang dalam Ilmu Hayat disebut \u201cvertebrata\u201d, ada yang tidak beruas tulang belakang (invertebrata). Binatang yang beruas tulang belakang dibagi atas beberapa bagian seperti mamalia (binatang menyusui), jenis burung (aves), jenis binatang melata (reptilia), jenis binatang yang hidup di darat dan di air (amphibia), jenis ikan (pisces).\nBinatang yang tidak beruas tulang belakang dibeda-bedakan lagi menjadi beberapa bagian seperti binatang berkutu (insektifora), binatang lunak (mollusca), hingga binatang yang bersel satu (protozoa). Tiap-tiap jenis dan macam binatang itu mempunyai hukum-hukum dan ketentuan-ketentuan sendiri-sendiri yang disusun dengan rapi seperti cara hidup, makanannya, cara berkembang biak, cara mempertahankan hidup, sampai kepada keagungan dan faidahnya. Dan hal-hal yang diterangkan itu akan menjadi iktibar dan pelajaran bagi orang-orang yang mau berpikir dan ingin mengetahui betapa Maha Tingginya Ilmu penciptanya; dengan demikian, akan memperkuat iman di hatinya.",
        "intro_surah": "Surah al-J\u0101\u1e61iyah terdiri dari 37 ayat, termasuk kelompok surah Makkiyyah, diturunkan sesudah Surah ad-Dukh\u0101n.\nSebutan al-J\u0101\u1e61iyah (yang berlutut) diambil dari kata j\u0101\u1e61iyah yang terdapat pada ayat 28 surah ini.\nAyat tersebut menerangkan keadaan manusia pada hari Kiamat, pada waktu mereka dikumpulkan di hadapan mahkamah Allah Yang Mahatinggi lagi Mahaperkasa untuk memberi keputusan terhadap perbuatan-perbuatan yang telah mereka lakukan selama hidup di dunia. Pada hari itu, manusia berlutut di hadapan Allah, tunduk dan berserah diri menunggu keputusan yang akan ditetapkan-Nya.\nDinamakan juga Asy-Syar\u012b\u2018ah (peraturan agama) diambil dari perkataan syar\u012b\u2018ah yang terdapat pada ayat 18 surah ini. Dalam ayat tersebut Allah memerintahkan agar manusia bertindak dan berbuat sesuai dengan yang digariskan oleh syariat Allah yang telah disampaikan-Nya dengan perantaraan Rasul-Nya.\n\nPOKOK-POKOK ISINYA:\n1. \tKeimanan:\nKeterangan atau dalil yang membuktikan adanya Allah Maha Pencipta langit dan bumi; keburukan dan kebaikan yang dikerjakan manusia serta akibatnya bagi diri mereka sendiri; Allah Pelindung orang-orang yang bertakwa; kebesaran dan keagungan hanyalah hak Allah semata; kepastian bahwa Allah-lah yang menghidupkan, mematikan, dan membangkitkan manusia pada hari Kiamat; keterangan tentang huru-hara di hari Kiamat dan tiap-tiap orang menerima perhitungan perbuatannya; persaksian orang-orang kafir di hari Kiamat atas segala perbuatan buruk yang telah dilakukannya selama hidup di dunia; azab yang diterima orang-orang kafir.\n2. \tHukum-hukum:\nPerintah Allah kepada Rasulullah saw agar jangan mengikuti orang-orang yang tidak menggunakan akalnya dan jangan menuruti kemauan mereka.\n3. \tKisah-kisah:\nKisah Bani Israil yang telah diberi nikmat Allah, tetapi mereka berpaling dan menyimpang dari ajaran agama sehingga timbul perselisihan hebat di antara mereka.\n\n4. \tLain-lain:\nAncaman kepada orang-orang musyrik yang mendustakan ayat-ayat Allah serta berlaku sombong; batalnya pendapat kaum Dahriyah (atheisme, skeptisisme) dan keingkaran mereka terhadap hari Kiamat.\n",
        "outro_surah": null,
        "munasabah_prev_surah": "HUBUNGAN SURAH AD-DUKH\u0100N DENGAN\nSURAH AL-J\u0100\u1e60IYAH\n\nKedua surah ini hampir sama isi dan maksudnya yaitu sama-sama menjelaskan adanya Allah, keesaan dan kekuasaan-Nya, sama-sama pula menerangkan sikap orang-orang kafir terhadap seruan Nabi Muhammad, ancaman kepada orang-orang kafir, dan siksaan yang hebat yang akan mereka derita pada hari Kiamat.\n ",
        "munasabah_prev_theme": "Pada akhir surah yang lalu, Allah memberikan penjelasan tentang keingkaran orang-orang musyrik Mekah terhadap hari kebangkitan. Allah swt menjelaskan bahwa pada hari pembalasan nanti, setiap amal perbuatan manusia akan diperhitungkan dan akan mendapat pembalasan yang setimpal. Maka pada ayat-ayat berikut ini ditegaskan bahwa Al-Qur\u2019an yang diturunkan kepada Muhammad saw benar-benar berasal dari Allah Yang Mahaperkasa lagi Mahabijaksana. Untuk membuktikan bahwa Allah Mahaperkasa lagi Mahabijaksana itu, renungkanlah dan perhatikanlah kejadian langit dan bumi, kejadian dirimu sendiri, kejadian binatang melata dan sebagainya. Segala sesuatu yang tunduk dan patuh kepada hukum-hukum dan ketentuan-ketentuan yang telah ditetapkan-Nya.",
        "theme_group": "TANDA-TANDA KEKUASAAN ALLAH\nPADA ALAM SEMESTA",
        "kosakata": "1.\tYabu\u1e61\u1e61u \u064a\u064e\u0628\u064f\u062b\u0651\u064f (al-J\u0101\u1e61iyah/45: 4)\nYabu\u1e61\u1e61u merupakan bentuk mu\u1e0d\u0101ri\u2018 dari fi\u2018il m\u0101\u1e0d\u012b ba\u1e61\u1e61a artinya menebarkan. Dalam konteks ayat ini diceritakan bahwa Allah telah menebarkan hewan-hewan yang bergerak, baik dengan perutnya atau dengan kedua kaki atau keempat kakinya.\n2.\tAr-Riy\u0101\u1e25 \u0627\u0644\u0631\u0651\u0650\u064a\u064e\u0627\u062d (al-J\u0101\u1e61iyah/45: 5)\nAr-riy\u0101\u1e25 adalah bentuk jamak dari r\u012b\u1e25 artinya \u201cangin.\u201d Tetapi dalam Al-Qur\u2019an, r\u012b\u1e25 biasanya digunakan untuk azab, misalnya dalam Surah Fu\u1e63\u1e63ilat/41: 16, fa arsaln\u0101 \u2018alaihim r\u012b\u1e25an \u1e63ar\u1e63aran f\u012b ayy\u0101min\u2026, yang artinya, \u201cMaka kami tiupkan angin yang menderu-deru kepada mereka dalam beberapa hari\u2026.\u201d. Sedangkan kata riy\u0101\u1e25 digunakan untuk nikmat, seperti dalam Surah al-\u1e24ijr/15: 22, wa arsalnar-riy\u0101\u1e25a law\u0101qi\u1e25.",
        "sabab_nuzul": null,
        "conclusion": null
    }
}