{
    "id": 4487,
    "surah_id": 45,
    "ayah": 14,
    "page": 500,
    "quarter_hizb": 50.75,
    "juz": 25,
    "manzil": 6,
    "arabic": "\u0642\u064f\u0644\u0652 \u0644\u0651\u0650\u0644\u0651\u064e\u0630\u0650\u064a\u0652\u0646\u064e \u0627\u0670\u0645\u064e\u0646\u064f\u0648\u0652\u0627 \u064a\u064e\u063a\u0652\u0641\u0650\u0631\u064f\u0648\u0652\u0627 \u0644\u0650\u0644\u0651\u064e\u0630\u0650\u064a\u0652\u0646\u064e \u0644\u064e\u0627 \u064a\u064e\u0631\u0652\u062c\u064f\u0648\u0652\u0646\u064e \u0627\u064e\u064a\u0651\u064e\u0627\u0645\u064e \u0627\u0644\u0644\u0651\u0670\u0647\u0650 \u0644\u0650\u064a\u064e\u062c\u0652\u0632\u0650\u064a\u064e \u0642\u064e\u0648\u0652\u0645\u064b\u0627 \u06e2\u0628\u0650\u0645\u064e\u0627 \u0643\u064e\u0627\u0646\u064f\u0648\u0652\u0627 \u064a\u064e\u0643\u0652\u0633\u0650\u0628\u064f\u0648\u0652\u0646\u064e ",
    "latin": "Qul lil-la\u017c\u012bna \u0101man\u016b yagfir\u016b lil-la\u017c\u012bna l\u0101 yarj\u016bna ayy\u0101mall\u0101hi liyajziya qaumam bim\u0101 k\u0101n\u016b yaksib\u016bn(a).",
    "translation": "Katakanlah (Nabi Muhammad) kepada orang-orang yang beriman, hendaklah mereka memaafkan orang-orang yang tidak mengharapkan akan hari-hari (pembalasan) Allah karena Dia akan memberi ganjaran kepada suatu kaum atas apa yang telah mereka usahakan.",
    "no_footnote": null,
    "footnotes": null,
    "surah": {
        "id": 45,
        "arabic": " \u0627\u0644\u062c\u0627\u062b\u064a\u0629",
        "latin": "Al-J\u0101\u1e61iyah",
        "transliteration": "Al-Jasiyah",
        "translation": "Berlutut",
        "num_ayah": 37,
        "page": 499,
        "location": "Makkiyah"
    },
    "tafsir": {
        "wajiz": "Katakanlah, wahai Nabi Muhammad, kepada orang-orang yang beriman kepada Allah dan rasul-Nya, hendaklah mereka memaafkan orang-orang yang melakukan perbuatan jahat yang tidak takut akan hari-hari di mana Allah menimpakan siksaan kepada mereka karena Dia akan membalas suatu kaum di akhirat nanti sesuai dengan apa yang telah mereka kerjakan di dunia ini.",
        "tahlili": "Al-W\u0101\u1e25idi dan Al-Qusyairi meriwayatkan dari Ibnu \u2018Abbas bahwa ayat ini turun berhubungan dengan persoalan yang terjadi antara \u2018Umar bin Kha\u1e6d\u1e6dab dan Abdullah bin Ubay dalam peperangan Bani Mus\u1e6dalik. Mereka singgah di sebuah sumur yang disebut Al-Muraisi\u2019, kemudian Abdullah mengutus seorang anak muda mengambil air, tetapi pemuda itu lama sekali kembali, Abdullah bin Ubay bertanya kepada pemuda itu mengapa begitu lama ia baru kembali. Pemuda itu menjawab bahwa Umar duduk di pinggir sumur. Ia tidak membiarkan seorang pun mengambil air sebelum ia mengisi girb\u0101h (tempat air dari kulit) Nabi Muhammad saw, girb\u0101h Abu Bakar, dan girb\u0101i bekas budak Umar, lalu Abdullah bin Ubay berkata, \u201cKami dan mereka tidak ubahnya seperti perumpamaan: Gemukkan anjingmu, maka ia akan memakan engkau.\u201d Kemudian kata-kata Abdullah itu sampai kepada Umar. Beliau menjadi marah, lalu menghunus pedangnya untuk membunuh Abdullah bin Ubay, maka turunlah ayat ini yang melunakkan hati Umar.\nSelanjutnya Allah memerintahkan kepada Rasulullah saw dan para pengikutnya agar berlapang dada dalam menghadapi sikap kaum musyrikin dan memaafkan tindakan mereka yang memperolok-olokkan ayat-ayat Allah. Mereka adalah orang yang menentang Allah dan tidak takut kepada ancaman-Nya.\nDari ayat ini dipahami nilai budi pekerti yang tinggi yang diajarkan agama Islam kepada penganutnya yaitu berlapang dada dan memaafkan orang-orang yang pernah bertindak tidak baik terhadap dirinya atau berusaha menghancurkan agamanya. Memaafkan kesalahan keluarga, teman sejawat, tetangga dan kenalan dapat dengan mudah dilakukan seseorang, tetapi berlapang dada dan memaafkan perbuatan orang yang selalu ingin merusak diri dan agamanya pada setiap kesempatan memerlukan kebesaran jiwa.\nAyat ini mengajarkan dan mendidik kaum Muslimin agar dapat berlapang dada, suka memaafkan, dan berjiwa besar dalam menghadapi segala sesuatu dalam hidupnya.\nPada akhir ayat ini Allah menerangkan mengapa Rasulullah saw dan pengikut-pengikutnya harus berlapang dada dan memaafkan tindakan orang Quraisy yang memperolok-olok ayat-ayat Allah itu. Sebabnya ialah karena Allah yang akan memberikan pembalasan yang setimpal kepada mereka sesuai dengan perbuatannya.",
        "intro_surah": "Surah al-J\u0101\u1e61iyah terdiri dari 37 ayat, termasuk kelompok surah Makkiyyah, diturunkan sesudah Surah ad-Dukh\u0101n.\nSebutan al-J\u0101\u1e61iyah (yang berlutut) diambil dari kata j\u0101\u1e61iyah yang terdapat pada ayat 28 surah ini.\nAyat tersebut menerangkan keadaan manusia pada hari Kiamat, pada waktu mereka dikumpulkan di hadapan mahkamah Allah Yang Mahatinggi lagi Mahaperkasa untuk memberi keputusan terhadap perbuatan-perbuatan yang telah mereka lakukan selama hidup di dunia. Pada hari itu, manusia berlutut di hadapan Allah, tunduk dan berserah diri menunggu keputusan yang akan ditetapkan-Nya.\nDinamakan juga Asy-Syar\u012b\u2018ah (peraturan agama) diambil dari perkataan syar\u012b\u2018ah yang terdapat pada ayat 18 surah ini. Dalam ayat tersebut Allah memerintahkan agar manusia bertindak dan berbuat sesuai dengan yang digariskan oleh syariat Allah yang telah disampaikan-Nya dengan perantaraan Rasul-Nya.\n\nPOKOK-POKOK ISINYA:\n1. \tKeimanan:\nKeterangan atau dalil yang membuktikan adanya Allah Maha Pencipta langit dan bumi; keburukan dan kebaikan yang dikerjakan manusia serta akibatnya bagi diri mereka sendiri; Allah Pelindung orang-orang yang bertakwa; kebesaran dan keagungan hanyalah hak Allah semata; kepastian bahwa Allah-lah yang menghidupkan, mematikan, dan membangkitkan manusia pada hari Kiamat; keterangan tentang huru-hara di hari Kiamat dan tiap-tiap orang menerima perhitungan perbuatannya; persaksian orang-orang kafir di hari Kiamat atas segala perbuatan buruk yang telah dilakukannya selama hidup di dunia; azab yang diterima orang-orang kafir.\n2. \tHukum-hukum:\nPerintah Allah kepada Rasulullah saw agar jangan mengikuti orang-orang yang tidak menggunakan akalnya dan jangan menuruti kemauan mereka.\n3. \tKisah-kisah:\nKisah Bani Israil yang telah diberi nikmat Allah, tetapi mereka berpaling dan menyimpang dari ajaran agama sehingga timbul perselisihan hebat di antara mereka.\n\n4. \tLain-lain:\nAncaman kepada orang-orang musyrik yang mendustakan ayat-ayat Allah serta berlaku sombong; batalnya pendapat kaum Dahriyah (atheisme, skeptisisme) dan keingkaran mereka terhadap hari Kiamat.\n",
        "outro_surah": null,
        "munasabah_prev_surah": "HUBUNGAN SURAH AD-DUKH\u0100N DENGAN\nSURAH AL-J\u0100\u1e60IYAH\n\nKedua surah ini hampir sama isi dan maksudnya yaitu sama-sama menjelaskan adanya Allah, keesaan dan kekuasaan-Nya, sama-sama pula menerangkan sikap orang-orang kafir terhadap seruan Nabi Muhammad, ancaman kepada orang-orang kafir, dan siksaan yang hebat yang akan mereka derita pada hari Kiamat.\n ",
        "munasabah_prev_theme": "Pada ayat-ayat yang lalu, Allah swt menjelaskan bahwa orang-orang musyrik Mekah mendustakan ayat-ayat Allah, bukan karena tidak mendengarkan keterangan dan tidak mengerti melainkan karena keangkuhan dan kesombongannya. Kemudian, dalam ayat-ayat berikut ini, disebutkan ayat-ayat yang mengandung keterangan tentang manfaat yang diperoleh dari ciptaan Allah agar mereka mensyukuri nikmat-Nya dan memanfaatkannya untuk keperluan hidup dan kemaslahatan mereka. ",
        "theme_group": "ALAM SEMESTA DIPERUNTUKKAN BAGI MANUSIA ",
        "kosakata": "Kosakata: Sakhkhara \u0633\u064e\u062e\u0651\u064e\u0631\u064e (al-J\u0101\u1e61iyah/45: 13)\nSakhkhara terambil dari kata dasar sakhara yang artinya \u201cmengejek\u201d. Contohnya pada Surah H\u016bd/11: 38, yang artinya: Dia (Nuh) berkata, \u201cJika kamu mengejek kami, maka kami (pun) akan mengejekmu sebagaimana kamu mengejek (kami). Sakhkhara maksudnya adalah \u201cmenggiring ke tujuan yang telah ditentukan secara paksa\u201d, seakan-akan sesuatu itu terejek. Diterjemahkan dengan \u201cmenundukkan\u201d. Seperti dalam Surah al-J\u0101\u1e61iyah/45: 13. Dari kata itu terambil kata sukhriyyun , yaitu \u201cyang tertundukkan\u201d, yakni yang dipekerjakan sesuai kemauan yang memperkerjakan. Dalam Surah az-Zukhruf/43:32: wa rafa\u2018n\u0101 ba\u2018\u1e0dahum fauqa ba\u2018\u1e0din daraj\u0101tin liyattakhi\u017ca ba\u2018\u1e0duhum ba\u2018\u1e0dan sukhriyyan. Artinya: \u201cdan Kami telah meninggikan sebagian mereka atas sebagian yang lain beberapa derajat, agar sebagian mereka dapat memanfaatkan sebagian yang lain.\u201d",
        "sabab_nuzul": null,
        "conclusion": null
    }
}