{
    "id": 4526,
    "surah_id": 46,
    "ayah": 16,
    "page": 504,
    "quarter_hizb": 51,
    "juz": 26,
    "manzil": 6,
    "arabic": "\u0627\u064f\u0648\u0644\u0670\u06e4\u0649\u0655\u0650\u0643\u064e \u0627\u0644\u0651\u064e\u0630\u0650\u064a\u0652\u0646\u064e \u0646\u064e\u062a\u064e\u0642\u064e\u0628\u0651\u064e\u0644\u064f \u0639\u064e\u0646\u0652\u0647\u064f\u0645\u0652 \u0627\u064e\u062d\u0652\u0633\u064e\u0646\u064e \u0645\u064e\u0627 \u0639\u064e\u0645\u0650\u0644\u064f\u0648\u0652\u0627 \u0648\u064e\u0646\u064e\u062a\u064e\u062c\u064e\u0627\u0648\u064e\u0632\u064f \u0639\u064e\u0646\u0652 \u0633\u064e\u064a\u0651\u0650\u0627\u0670\u062a\u0650\u0647\u0650\u0645\u0652 \u0641\u0650\u064a\u0652\u0653 \u0627\u064e\u0635\u0652\u062d\u0670\u0628\u0650 \u0627\u0644\u0652\u062c\u064e\u0646\u0651\u064e\u0629\u0650\u06d7 \u0648\u064e\u0639\u0652\u062f\u064e \u0627\u0644\u0635\u0651\u0650\u062f\u0652\u0642\u0650 \u0627\u0644\u0651\u064e\u0630\u0650\u064a\u0652 \u0643\u064e\u0627\u0646\u064f\u0648\u0652\u0627 \u064a\u064f\u0648\u0652\u0639\u064e\u062f\u064f\u0648\u0652\u0646\u064e ",
    "latin": "Ul\u0101'ikal-la\u017c\u012bna nataqabbalu \u2018anhum a\u1e25sana m\u0101 \u2018amil\u016b wa nataj\u0101wazu \u2018an sayyi'atihim f\u012b a\u1e63\u1e25\u0101bil-jannah(ti), wa\u2018da\u1e63-\u1e63idqil-la\u017c\u012b k\u0101n\u016b y\u016b\u2018ad\u016bn(a).",
    "translation": "Mereka itulah orang-orang yang Kami terima amal terbaiknya yang telah mereka kerjakan, Kami maafkan kesalahan-kesalahannya, (dan mereka) termasuk para penghuni surga. Itu merupakan janji yang benar yang dahulu dijanjikan kepada mereka.",
    "no_footnote": null,
    "footnotes": null,
    "surah": {
        "id": 46,
        "arabic": " \u0627\u0644\u0627\u062d\u0642\u0627\u0641",
        "latin": "Al-A\u1e25q\u0101f",
        "transliteration": "Al-Ahqaf",
        "translation": "Ahqaf",
        "num_ayah": 35,
        "page": 502,
        "location": "Makkiyah"
    },
    "tafsir": {
        "wajiz": "Allah memuji orang-orang yang berbuat baik kepada orang tua dengan menyatakan bahwa mereka itulah orang-orang yang mensyukuri nikmat dan berbuat kebaikan yang Kami terima amal baiknya yang telah mereka kerjakan dan kepada mereka kami anugerahkan pahala yang besar sebagai balasan atas amalnya dan mereka itulah orang-orang yang Kami maafkan kesalahan-kesalahannya, maka Kami tidak menimpakan azab atasnya. Kelak di akhirat, mereka akan menjadi penghuni-penghuni surga. Itu janji yang benar dari Allah yang telah dijanjikan melalui para utusan-Nya kepada mereka.",
        "tahlili": "Dalam ayat ini diterangkan balasan yang akan diterima oleh orang saleh yang memiliki sifat sebagai anak yang saleh sebagaimana disebutkan pada ayat sebelumnya. Orang-orang yang semacam itu adalah orang-orang yang mempunyai amal yang paling baik selama ia hidup di dunia menurut pandangan Allah karena keikhlasan, kepatuhan, dan ketaatan mereka melaksanakan agama-Nya. Orang-orang yang seperti itu akan dimaafkan segala kesalahannya karena selalu bertobat kepada-Nya dengan tobat yang sebenarnya. Ia memperoleh surga yang penuh kenikmatan di akhirat.\nPada akhir ayat ini, Allah menegaskan bahwa balasan yang disebutkan itu adalah datang dari Allah, dan semua yang pernah dijanjikan-Nya, baik janji akan memberi pahala kepada orang-orang yang beriman maupun peringatan akan mengazab orang-orang kafir pasti ditepatinya; tidak satu pun yang akan dipungkiri-Nya.",
        "intro_surah": "Surah al-A\u1e25q\u0101f terdiri dari 35 ayat, termasuk kelompok surah Makkiyyah, diturunkan sesudah Surah al-J\u0101\u1e61iyah. Dinamai al-A\u1e25q\u0101f (bukit-bukit pasir) karena ada hubungannya dengan perkataan al-a\u1e25q\u0101f yang terdapat pada ayat 21 surah ini.\nDalam ayat tersebut dan ayat-ayat sesudahnya, diterangkan kisah Nabi Hud yang telah menyampaikan agama Allah kepada kaumnya yang bertempat tinggal di al-A\u1e25q\u0101f yang sekarang terkenal dengan ar-Rab\u2018 al-Kh\u0101li. Kaum Hud itu tetap mengingkari seruan Nabi Hud sekalipun mereka juga telah diberi peringatan dan pengertian oleh rasul-rasul sebelumnya yang telah diutus kepada mereka. Akhirnya mereka dihancurkan Allah dengan tiupan angin yang amat dingin dan kencang. Hal ini sebagai isyarat dari Allah kepada kaum musyrik Mekah bahwa mereka akan dihancurkan sebagaimana kaum Hud jika mereka tidak mengindahkan seruan Nabi Muhammad.\n\nPokok-pokok Isinya:\n1.\tKeimanan:\nBukti-bukti kekuasaan dan keesaan Allah; para penyembah berhala adalah orang yang percaya pada yang sesat; orang-orang mukmin akan mendapat kebahagiaan yang abadi, sedangkan orang-orang kafir akan diazab di akhirat; risalah Nabi Muhammad tidak hanya terbatas kepada manusia saja, tetapi juga ditujukan kepada jin.\n2.\tHukum-hukum:\nPerintah untuk taat kepada ibu-bapak, memuliakannya, tidak menyakiti hatinya, dan melaksanakan perintah-perintah Allah yang berhubungan dengan ibu-bapak.\n3.\tKisah:\nKisah Nabi Hud dan kaumnya.\n4.\tLain-lain:\nOrang yang mementingkan kenikmatan hidup duniawi saja akan merugi di akhirat, orang yang beriman kepada Allah dan istiqamah dalam kehidupannya tidak ada kekhawatiran dalam diri mereka dan mereka tidak akan bersedih hati.",
        "outro_surah": null,
        "munasabah_prev_surah": "HUBUNGAN SURAH AL-J\u0100\u1e60IYAH \nDENGAN SURAH AL-A\u1e24Q\u0100F\n\n1.\tSurah al-J\u0101\u1e61iyah ditutup dengan ketauhidan, keagungan dan kebesaran Allah, sedangkan Surah al-A\u1e25q\u0101f dimulai dengan ketauhidan, yaitu menerangkan bahwa berhala yang disembah orang musyrik itu tidak dapat menciptakan suatu apa pun.\n2.\tSurah al-J\u0101\u1e61iyah memuat ancaman terhadap kaum musyrik, sedangkan pada Surah al-A\u1e25q\u0101f, ancaman itu lebih dipertegas dengan mengingatkan azab yang telah menimpa kaum \u2018Ad.",
        "munasabah_prev_theme": "Pada ayat-ayat yang lalu diterangkan bahwa orang-orang yang beriman kepada Allah, lalu istikamah dalam beriman dan melaksanakan ibadah, akan memperoleh kebahagiaan surga di akhirat dan kekal di dalamnya sebagai balasan atas amal mereka di dunia. Pada ayat-ayat ini diterangkan perintah Allah kepada manusia agar berbuat baik kepada ibu-bapaknya yang telah membesarkan dan memeliharanya dengan susah payah. Seorang anak yang baik dan saleh ialah di samping ia beribadah kepada Allah, juga selalu berbakti kepada ibu-bapaknya dan berdoa kepada Allah agar keduanya selalu mendapat rahmat dan karunia-Nya. Anak yang demikian termasuk calon penghuni surga.",
        "theme_group": "KEWAJIBAN BERBUAT BAIK KEPADA IBU-BAPAK",
        "kosakata": "Kosakata: Kurhan \u0643\u064f\u0631\u0652\u0647\u064b\u0627(al-A\u1e25q\u0101f/49: 15)\nKata kurhan merupakan bentuk ma\u1e63dar dari derivasi kata kariha-yakrahu yang berarti susah payah, benci dan beban berat. Pada dasarnya, kata kariha-yakrahu dalam berderivasi ke bentuk ma\u1e63dar mempunyai dua bentuk kata, yaitu kata kurhan dan kata karhan. Kata yang di-\u1e0dammah kaf-nya (kurh) berarti bentuk kesusahpayahan yang menimpa dirinya, sedangkan kata yang di-fat\u1e25ah kaf-nya (karh) berarti bentuk kesusahpayahan yang menimpa selain dirinya. Dengan demikian, dalam konteks ayat ini kata kurh bermakna, \"Ibunya telah mengandungnya dengan susah payah, dan melahirkannya dengan susah payah (pula).\" Dalam ayat ini, Allah swt memerintahkan umat manusia untuk senantiasa menghormati, memuliakan dan berbuat baik kepada kedua orang tua. Kemudian Allah swt dengan jelas mendeskripsikan bagaimana kesusahpayahan seorang ibu ketika mengandung dan melahirkan anak.\n",
        "sabab_nuzul": null,
        "conclusion": "1. \tAllah memerintahkan kepada seluruh manusia agar berbuat baik kepada orang tuanya.\n2. \tBerbuat baik kepada ibu lebih diutamakan karena ibu yang mengandung dalam keadaan susah payah, menyusui dan mendidik anaknya.\n3. \tSeorang anak yang baik ialah anak yang ketika dewasa dan dalam masa jayanya selalu beribadah kepada Allah, berdoa untuk orang tuanya dan keturunannya agar mereka tetap beribadah kepada-Nya, dan ia juga mau bertobat kepada Allah penciptanya.\n4. \tAnak yang demikian akan diampuni Allah segala kesalahannya dan akan dibalas semua amalnya dengan surga yang penuh kenikmatan."
    }
}