{
    "id": 4543,
    "surah_id": 46,
    "ayah": 33,
    "page": 506,
    "quarter_hizb": 51.25,
    "juz": 26,
    "manzil": 6,
    "arabic": "\u0627\u064e\u0648\u064e\u0644\u064e\u0645\u0652 \u064a\u064e\u0631\u064e\u0648\u0652\u0627 \u0627\u064e\u0646\u0651\u064e \u0627\u0644\u0644\u0651\u0670\u0647\u064e \u0627\u0644\u0651\u064e\u0630\u0650\u064a\u0652 \u062e\u064e\u0644\u064e\u0642\u064e \u0627\u0644\u0633\u0651\u064e\u0645\u0670\u0648\u0670\u062a\u0650 \u0648\u064e\u0627\u0644\u0652\u0627\u064e\u0631\u0652\u0636\u064e \u0648\u064e\u0644\u064e\u0645\u0652 \u064a\u064e\u0639\u0652\u064a\u064e \u0628\u0650\u062e\u064e\u0644\u0652\u0642\u0650\u0647\u0650\u0646\u0651\u064e \u0628\u0650\u0642\u0670\u062f\u0650\u0631\u064d \u0639\u064e\u0644\u0670\u0653\u0649 \u0627\u064e\u0646\u0652 \u064a\u0651\u064f\u062d\u0652\u064a\u0650 \u06e7\u064e \u0627\u0644\u0652\u0645\u064e\u0648\u0652\u062a\u0670\u0649  \u06d7\u0628\u064e\u0644\u0670\u0653\u0649 \u0627\u0650\u0646\u0651\u064e\u0647\u0657 \u0639\u064e\u0644\u0670\u0649 \u0643\u064f\u0644\u0651\u0650 \u0634\u064e\u064a\u0652\u0621\u064d \u0642\u064e\u062f\u0650\u064a\u0652\u0631\u064c ",
    "latin": "Awalam yarau annall\u0101hal-la\u017c\u012b khalaqas-sam\u0101w\u0101ti wal-ar\u1e0da wa lam ya\u2018ya bikhalqihinna biq\u0101dirin \u2018al\u0101 ay yu\u1e25yiyal-maut\u0101, bal\u0101 innah\u016b \u2018al\u0101 kulli syai'in qad\u012br(un).",
    "translation": "Tidakkah mereka memperhatikan bahwa sesungguhnya Allah yang menciptakan langit dan bumi serta tidak merasa lelah karena menciptakannya, Dia kuasa untuk menghidupkan yang mati? Tentu demikian. Sesungguhnya Dia Maha Kuasa atas segala sesuatu.",
    "no_footnote": null,
    "footnotes": null,
    "surah": {
        "id": 46,
        "arabic": " \u0627\u0644\u0627\u062d\u0642\u0627\u0641",
        "latin": "Al-A\u1e25q\u0101f",
        "transliteration": "Al-Ahqaf",
        "translation": "Ahqaf",
        "num_ayah": 35,
        "page": 502,
        "location": "Makkiyah"
    },
    "tafsir": {
        "wajiz": "Dan tidakkah mereka memperhatikan bahwa sesungguhnya Allah yang menciptakan langit dan bumi dan segala sesuatu yang ada di dalamnya dan Dia tidak merasa payah karena menciptakannya dan mengaturnya sepanjang waktu, dan Dia kuasa menghidupkan makhluk yang mati? Begitulah; sungguh, yang demikian itu adalah mudah bagi Allah, sebab Dia Mahakuasa atas segala sesuatu.",
        "tahlili": "Ayat ini merupakan teguran keras kepada orang-orang kafir yang mengingkari hari kebangkitan, dan adanya hidup setelah mati untuk menghisab perbuatan yang telah dilakukan manusia. Allah mencela orang-orang kafir yang lalai dan tidak pernah merenungkan kejadian alam semesta ini sehingga tidak mengetahui bahwa Allah yang telah menciptakan langit dan bumi tidak pernah merasa letih dalam penciptaan itu. Allah juga berkuasa menghidupkan yang telah mati.\nDari ayat ini dipahami bahwa orang kafir tidak pernah menggunakan pikirannya untuk merenungkan kejadian alam semesta dalam arti yang sebenarnya. Mereka tidak mau memikirkan siapa pencipta alam yang amat teratur dan dilengkapi dengan hukum-hukum yang sangat rapi dan kokoh. Mereka juga tidak mau memikirkan siapa yang menciptakan dirinya sendiri dan menjaga kelangsungan hidupnya. Seandainya mereka mau memikirkan dengan tujuan ingin mencari kebenaran, mereka akan sampai kepada kesimpulan bahwa pencipta semua itu adalah Allah yang Mahabijaksana lagi Mahakuasa. Jika Allah Mahakuasa, tentulah Dia sanggup melaksanakan segala sesuatu yang Dia kehendaki, tanpa mengenal lelah. Zat yang bersifat demikian tentu mudah bagi-Nya menghidupkan kembali orang-orang yang telah dimatikan-Nya, karena menciptakan langit dan bumi itu jauh lebih sukar daripada menciptakan manusia serta mematikan dan menghidupkan kembali.\nAllah berfirman:\n\u0644\u064e\u062e\u064e\u0644\u0652\u0642\u064f \u0627\u0644\u0633\u0651\u064e\u0645\u0670\u0648\u0670\u062a\u0650 \u0648\u064e\u0627\u0644\u0652\u0627\u064e\u0631\u0652\u0636\u0650 \u0627\u064e\u0643\u0652\u0628\u064e\u0631\u064f \u0645\u0650\u0646\u0652 \u062e\u064e\u0644\u0652\u0642\u0650 \u0627\u0644\u0646\u0651\u064e\u0627\u0633\u0650 \u0648\u064e\u0644\u0670\u0643\u0650\u0646\u0651\u064e \u0627\u064e\u0643\u0652\u062b\u064e\u0631\u064e \u0627\u0644\u0646\u0651\u064e\u0627\u0633\u0650 \u0644\u064e\u0627 \u064a\u064e\u0639\u0652\u0644\u064e\u0645\u064f\u0648\u0652\u0646\u064e \u0665\u0667\n\tSungguh, penciptaan langit dan bumi itu lebih besar daripada penciptaan manusia, akan tetapi kebanyakan manusia tidak mengetahui. (G\u0101fir/40: 57)\n\nSelain itu, biasanya membuat kembali sesuatu lebih mudah dari menciptakan pertama kalinya. Allah berfirman:\n\u0648\u064e\u0647\u064f\u0648\u064e \u0627\u0644\u0651\u064e\u0630\u0650\u064a\u0652 \u064a\u064e\u0628\u0652\u062f\u064e\u0624\u064f\u0627 \u0627\u0644\u0652\u062e\u064e\u0644\u0652\u0642\u064e \u062b\u064f\u0645\u0651\u064e \u064a\u064f\u0639\u0650\u064a\u0652\u062f\u064f\u0647\u0657 \u0648\u064e\u0647\u064f\u0648\u064e \u0627\u064e\u0647\u0652\u0648\u064e\u0646\u064f \u0639\u064e\u0644\u064e\u064a\u0652\u0647\u0650\u06d7 \u0648\u064e\u0644\u064e\u0647\u064f \u0627\u0644\u0652\u0645\u064e\u062b\u064e\u0644\u064f \u0627\u0644\u0652\u0627\u064e\u0639\u0652\u0644\u0670\u0649 \u0641\u0650\u0649 \u0627\u0644\u0633\u0651\u064e\u0645\u0670\u0648\u0670\u062a\u0650 \u0648\u064e\u0627\u0644\u0652\u0627\u064e\u0631\u0652\u0636\u0650\u06da \u0648\u064e\u0647\u064f\u0648\u064e \u0627\u0644\u0652\u0639\u064e\u0632\u0650\u064a\u0652\u0632\u064f \u0627\u0644\u0652\u062d\u064e\u0643\u0650\u064a\u0652\u0645\u064f \u08d6 \u0662\u0667\nDan Dialah yang memulai penciptaan, kemudian mengulanginya kembali, dan itu lebih mudah bagi-Nya. Dia memiliki sifat yang Mahatinggi di langit dan di bumi. Dan Dialah Yang Mahaperkasa, Mahabijaksana. (ar-R\u016bm/30: 27)\n\nPada akhir ayat ini ditegaskan bahwa yang Maha Pencipta segala sesuatu lagi Mahaperkasa itu adalah Allah Yang Mahakuasa. Dia dapat melakukan segala yang dikehendaki-Nya, tanpa seorang pun dapat menghalangi dan menentang-Nya.",
        "intro_surah": "Surah al-A\u1e25q\u0101f terdiri dari 35 ayat, termasuk kelompok surah Makkiyyah, diturunkan sesudah Surah al-J\u0101\u1e61iyah. Dinamai al-A\u1e25q\u0101f (bukit-bukit pasir) karena ada hubungannya dengan perkataan al-a\u1e25q\u0101f yang terdapat pada ayat 21 surah ini.\nDalam ayat tersebut dan ayat-ayat sesudahnya, diterangkan kisah Nabi Hud yang telah menyampaikan agama Allah kepada kaumnya yang bertempat tinggal di al-A\u1e25q\u0101f yang sekarang terkenal dengan ar-Rab\u2018 al-Kh\u0101li. Kaum Hud itu tetap mengingkari seruan Nabi Hud sekalipun mereka juga telah diberi peringatan dan pengertian oleh rasul-rasul sebelumnya yang telah diutus kepada mereka. Akhirnya mereka dihancurkan Allah dengan tiupan angin yang amat dingin dan kencang. Hal ini sebagai isyarat dari Allah kepada kaum musyrik Mekah bahwa mereka akan dihancurkan sebagaimana kaum Hud jika mereka tidak mengindahkan seruan Nabi Muhammad.\n\nPokok-pokok Isinya:\n1.\tKeimanan:\nBukti-bukti kekuasaan dan keesaan Allah; para penyembah berhala adalah orang yang percaya pada yang sesat; orang-orang mukmin akan mendapat kebahagiaan yang abadi, sedangkan orang-orang kafir akan diazab di akhirat; risalah Nabi Muhammad tidak hanya terbatas kepada manusia saja, tetapi juga ditujukan kepada jin.\n2.\tHukum-hukum:\nPerintah untuk taat kepada ibu-bapak, memuliakannya, tidak menyakiti hatinya, dan melaksanakan perintah-perintah Allah yang berhubungan dengan ibu-bapak.\n3.\tKisah:\nKisah Nabi Hud dan kaumnya.\n4.\tLain-lain:\nOrang yang mementingkan kenikmatan hidup duniawi saja akan merugi di akhirat, orang yang beriman kepada Allah dan istiqamah dalam kehidupannya tidak ada kekhawatiran dalam diri mereka dan mereka tidak akan bersedih hati.",
        "outro_surah": null,
        "munasabah_prev_surah": "HUBUNGAN SURAH AL-J\u0100\u1e60IYAH \nDENGAN SURAH AL-A\u1e24Q\u0100F\n\n1.\tSurah al-J\u0101\u1e61iyah ditutup dengan ketauhidan, keagungan dan kebesaran Allah, sedangkan Surah al-A\u1e25q\u0101f dimulai dengan ketauhidan, yaitu menerangkan bahwa berhala yang disembah orang musyrik itu tidak dapat menciptakan suatu apa pun.\n2.\tSurah al-J\u0101\u1e61iyah memuat ancaman terhadap kaum musyrik, sedangkan pada Surah al-A\u1e25q\u0101f, ancaman itu lebih dipertegas dengan mengingatkan azab yang telah menimpa kaum \u2018Ad.",
        "munasabah_prev_theme": "Pada ayat-ayat yang lalu diterangkan bahwa Allah adalah Tuhan Yang Mahakuasa dan Mahabijaksana yang berhak disembah. Juga dikemukakan dalil-dalil yang membuktikan batalnya syirik dan penyembahan patung yang tidak dapat mengabulkan doa. Dalam ayat-ayat itu juga diterangkan bukti-bukti kerasulan Muhammad saw. Pada ayat-ayat berikut ini dikemukakan bukti-bukti hari kebangkitan dan nasihat kepada Nabi Muhammad agar tetap bersabar atas segala sikap dan tingkah laku kaumnya, sebagaimana telah dilakukan oleh para rasul dahulu yang berkemauan keras dalam menyampaikan risalah yang ditugaskan kepada mereka. Oleh karena itu, Nabi Muhammad dilarang oleh Allah untuk memohon agar ditimpakan azab kepada orang-orang musyrik itu karena mereka pasti akan ditimpa azab yang sangat berat di akhirat.\n",
        "theme_group": "TANDA-TANDA HARI KEBANGKITAN",
        "kosakata": "1.\tLam Ya\u2018ya \u0644\u0645\u064e \u0652\u064a\u064e\u0639\u0652\u064a\u064e (al-A\u1e25q\u0101f/46: 33).\nLam ya\u2018ya artinya tidak merasa lelah. Berasal dari fi\u2018il \u2018ayiya-ya\u2018ya-\u2018ayyan artinya lelah, lemah, sakit. Didahului huruf nafi sehingga artinya tidak lelah, tidak lemah. Pada ayat 33, Allah menerangkan bahwa sungguh Allah yang menciptakan langit dan bumi tidak merasa lelah dengan penciptaan itu semua. Selanjutnya dikatakan bahwa Allah berkuasa menghidupkan orang-orang yang mati. Jadi tidak benar anggapan orang Nasrani yang mengatakan bahwa setelah Allah menciptakan langit dan bumi kemudian karena lelah lalu harus beristirahat di surga, sehingga untuk mengatur alam selanjutnya diserahkan kepada tuhan putra, yaitu Isa al-Masih. Pendapat ini mengandung tidak kurang dari tiga kesalahan besar, yaitu Allah lelah, Allah berputra, dan Isa al-Masih adalah putra-Nya. Allah Mahakuasa, kuasa menciptakan langit, bumi dan seisinya, kuasa memelihara dan mengatur alam ciptaan-Nya, dan kuasa pula menghidupkan orang-orang yang mati.\n2. An-N\u0101r \u0627\u0644\u0646\u0651\u064e\u0627\u0631 (al-A\u1e25q\u0101f/46: 34)\nAn-N\u0101r artinya api. Dalam ayat 34 sebagaimana pada ayat-ayat lain yang dimaksud an-n\u0101r adalah neraka, karena azab neraka memang penuh dengan kobaran api yang sangat panas. Dalam Al-Qur\u2019an banyak diterangkan tentang azab atau siksa neraka bagi orang-orang kafir, dan orang musyrik yang menyekutukan Allah akan dihukum kekal di neraka. Ada tujuh macam neraka yaitu:\n1)\tNeraka wail (yang paling ringan siksaannya), Surah al-Humazah/104: 1\n2)\tNeraka \u1e25\u0101miyah (yang sangat dalam), Surah al-Q\u0101ri\u2018ah/101: 8-11.\n3)\tNeraka la\u1e93\u0101 (yang bergejolak apinya dan dapat mengelupaskan kulit kepala), Surah al-Ma\u2018\u0101rij/70: 15-18.\n4)\tNeraka sa\u2018\u012br (yang menyala-nyala dan menyediakan alat pelempar setan), Surah al-Mulk/67: 5.\n5)\tNeraka saqar (yang membakar manusia dan mengoyak-ngoyak kulitnya, tetapi kemudian diganti lagi, demikian terus berulang-ulang), Surah al-Mudda\u1e61\u1e61ir/74: 26-30.\n6)\tNeraka hu\u1e6damah (yang membakar manusia sampai ke ulu hatinya), Surah al-Humazah/104: 4.\n7)\tNeraka ja\u1e25\u012bm atau jahanam (yang paling berat siksaannya), Surah       al-\u2018Ar\u0101f/ 7: 179 dan Surah Q\u0101f/50: 30.",
        "sabab_nuzul": null,
        "conclusion": null
    }
}