{
    "id": 4514,
    "surah_id": 46,
    "ayah": 4,
    "page": 502,
    "quarter_hizb": 51,
    "juz": 26,
    "manzil": 6,
    "arabic": "\u0642\u064f\u0644\u0652 \u0627\u064e\u0631\u064e\u0621\u064e\u064a\u0652\u062a\u064f\u0645\u0652 \u0645\u0651\u064e\u0627 \u062a\u064e\u062f\u0652\u0639\u064f\u0648\u0652\u0646\u064e \u0645\u0650\u0646\u0652 \u062f\u064f\u0648\u0652\u0646\u0650 \u0627\u0644\u0644\u0651\u0670\u0647\u0650 \u0627\u064e\u0631\u064f\u0648\u0652\u0646\u0650\u064a\u0652 \u0645\u064e\u0627\u0630\u064e\u0627 \u062e\u064e\u0644\u064e\u0642\u064f\u0648\u0652\u0627 \u0645\u0650\u0646\u064e \u0627\u0644\u0652\u0627\u064e\u0631\u0652\u0636\u0650 \u0627\u064e\u0645\u0652 \u0644\u064e\u0647\u064f\u0645\u0652 \u0634\u0650\u0631\u0652\u0643\u064c \u0641\u0650\u0649 \u0627\u0644\u0633\u0651\u064e\u0645\u0670\u0648\u0670\u062a\u0650 \u06d6\u0627\u0626\u0652\u062a\u064f\u0648\u0652\u0646\u0650\u064a\u0652 \u0628\u0650\u0643\u0650\u062a\u0670\u0628\u064d \u0645\u0651\u0650\u0646\u0652 \u0642\u064e\u0628\u0652\u0644\u0650 \u0647\u0670\u0630\u064e\u0627\u0653 \u0627\u064e\u0648\u0652 \u0627\u064e\u062b\u0670\u0631\u064e\u0629\u064d \u0645\u0651\u0650\u0646\u0652 \u0639\u0650\u0644\u0652\u0645\u064d \u0627\u0650\u0646\u0652 \u0643\u064f\u0646\u0652\u062a\u064f\u0645\u0652 \u0635\u0670\u062f\u0650\u0642\u0650\u064a\u0652\u0646\u064e ",
    "latin": "Qul ara'aitum m\u0101 tad\u2018\u016bna min d\u016bnill\u0101hi ar\u016bn\u012b m\u0101\u017c\u0101 khalaq\u016b minal-ar\u1e0di am lahum syirkun fis-sam\u0101w\u0101t(i), i't\u016bn\u012b bikit\u0101bim min qabli h\u0101\u017c\u0101 au a\u1e61\u0101ratim min \u2018ilmin in kuntum \u1e63\u0101diq\u012bn(a).",
    "translation": " Katakanlah (Nabi Muhammad), \u201cTerangkanlah kepadaku tentang apa yang kamu sembah selain Allah! Perlihatkanlah kepadaku (bagian) manakah dari bumi ini yang telah mereka ciptakan ataukah mereka memiliki peran serta dalam (penciptaan) langit! Datangkanlah kepadaku kitab yang sebelum ini (Al-Qur\u2019an) atau peninggalan dari pengetahuan (generasi terdahulu) jika kamu adalah orang-orang benar.\u201d",
    "no_footnote": null,
    "footnotes": null,
    "surah": {
        "id": 46,
        "arabic": " \u0627\u0644\u0627\u062d\u0642\u0627\u0641",
        "latin": "Al-A\u1e25q\u0101f",
        "transliteration": "Al-Ahqaf",
        "translation": "Ahqaf",
        "num_ayah": 35,
        "page": 502,
        "location": "Makkiyah"
    },
    "tafsir": {
        "wajiz": "Katakanlah, wahai Nabi Muhammad, \u201cTerangkanlah kepadaku wahai orang-orang musy-rik, tentang berhala-berhala atau apa saja yang kamu sembah selain Allah; perlihatkan kepadaku apa yang telah mereka ciptakan dari apa yang ada bumi ini atau adakah peran serta mereka dalam penciptaan langit dan benda-benda angkasa dengan sistemnya yang sangat teratur itu? Bawalah kepadaku kitab yang diturunkan sebelum Al-Qur\u2019an ini atau apa pun tulisan-tulisan yang merupakan peninggalan dari pengetahuan orang-orang dahulu yang mendukung perbuatan dan sesembahan kamu, jika kamu orang yang benar.\u201d Sungguh kamu sekalian wahai orang-orang musyrikin, tidak mempunyai alasan sedikit pun tentang apa yang kamu perbuat itu.",
        "tahlili": "Setelah menegaskan bahwa Dialah yang berhak disembah, Dialah Tuhan yang Maha Pengasih, Maha Penyayang lagi Mahaadil, dan setelah menegaskan tentang adanya hari pembalasan, Allah menunjukkan kesalahan akidah orang-orang musyrik yang menyembah sembahan selain Allah. Dia memerintahkan kepada Nabi Muhammad agar mengatakan kepada orang-orang yang menyembah sembahan selain Allah sebagai berikut, \u201cHai orang-orang musyrik, terangkanlah kepadaku tentang berhala-berhala yang kamu sembah, setelah kamu memperhatikan kejadian langit dan bumi serta yang ada di dalamnya, setelah memperhatikan hukum-hukum yang berlaku pada benda-benda angkasa, alam semesta sejak dari yang sekecil-kecilnya sampai kepada yang paling besar, sejak dari yang tampak sampai kepada yang tidak tampak, sejak dari yang halus sampai kepada yang kasar, juga setelah kamu memperhatikan kejadian hewan, tumbuh-tumbuhan, sampai kepada kejadian diri kamu sendiri, yang semuanya itu diciptakan dengan rapi, indah, berfaedah dan penuh hikmah. Apakah ada di bumi ini benda yang telah diciptakan oleh berhala sehingga ia layak dan berhak disembah? Atau apakah ia telah menciptakan sesuatu yang ada di langit bersama-sama dengan Allah?\u201d\nDari ayat ini dapat dipahami bahwa orang-orang musyrik tidak sanggup membuktikan dengan dalil-dalil yang masuk akal bahwa berhala itu berhak disembah di samping Allah karena mereka tidak dapat menunjukkan walaupun hanya satu benda kecil di antara benda-benda yang ada di bumi ini sebagai ciptaan berhala itu. Bahkan yang terbukti ialah berhala itu sendiri adalah hasil buatan mereka sendiri.\nAkhir ayat ini menegaskan bahwa di dalam kitab-kitab suci yang pernah diturunkan Allah kepada para rasul-Nya tidak terdapat satu keterangan pun yang menerangkan bahwa berhala itu harus disembah di samping Allah. Begitu juga dalam ilmu yang diwariskan oleh orang-orang dahulu pun tidak terdapat keterangan yang dijadikan dasar bagi penyembahan terhadap berhala. Hal ini diperintahkan Allah untuk disampaikan kepada orang-orang musyrik, \u201cHai kaum musyrik, seandainya kepercayaan menyembah berhala itu benar, cobalah kemukakan satu ayat saja dari ayat-ayat yang terdapat dalam kitab-kitab suci yang diturunkan sebelum Al-Qur\u2019an yang membenarkan kepercayaanmu itu, atau pengetahuan-pengetahuan orang-orang terdahulu yang ada pada kamu yang membenarkan kepercayaan syirik itu.\u201d",
        "intro_surah": "Surah al-A\u1e25q\u0101f terdiri dari 35 ayat, termasuk kelompok surah Makkiyyah, diturunkan sesudah Surah al-J\u0101\u1e61iyah. Dinamai al-A\u1e25q\u0101f (bukit-bukit pasir) karena ada hubungannya dengan perkataan al-a\u1e25q\u0101f yang terdapat pada ayat 21 surah ini.\nDalam ayat tersebut dan ayat-ayat sesudahnya, diterangkan kisah Nabi Hud yang telah menyampaikan agama Allah kepada kaumnya yang bertempat tinggal di al-A\u1e25q\u0101f yang sekarang terkenal dengan ar-Rab\u2018 al-Kh\u0101li. Kaum Hud itu tetap mengingkari seruan Nabi Hud sekalipun mereka juga telah diberi peringatan dan pengertian oleh rasul-rasul sebelumnya yang telah diutus kepada mereka. Akhirnya mereka dihancurkan Allah dengan tiupan angin yang amat dingin dan kencang. Hal ini sebagai isyarat dari Allah kepada kaum musyrik Mekah bahwa mereka akan dihancurkan sebagaimana kaum Hud jika mereka tidak mengindahkan seruan Nabi Muhammad.\n\nPokok-pokok Isinya:\n1.\tKeimanan:\nBukti-bukti kekuasaan dan keesaan Allah; para penyembah berhala adalah orang yang percaya pada yang sesat; orang-orang mukmin akan mendapat kebahagiaan yang abadi, sedangkan orang-orang kafir akan diazab di akhirat; risalah Nabi Muhammad tidak hanya terbatas kepada manusia saja, tetapi juga ditujukan kepada jin.\n2.\tHukum-hukum:\nPerintah untuk taat kepada ibu-bapak, memuliakannya, tidak menyakiti hatinya, dan melaksanakan perintah-perintah Allah yang berhubungan dengan ibu-bapak.\n3.\tKisah:\nKisah Nabi Hud dan kaumnya.\n4.\tLain-lain:\nOrang yang mementingkan kenikmatan hidup duniawi saja akan merugi di akhirat, orang yang beriman kepada Allah dan istiqamah dalam kehidupannya tidak ada kekhawatiran dalam diri mereka dan mereka tidak akan bersedih hati.",
        "outro_surah": null,
        "munasabah_prev_surah": "HUBUNGAN SURAH AL-J\u0100\u1e60IYAH \nDENGAN SURAH AL-A\u1e24Q\u0100F\n\n1.\tSurah al-J\u0101\u1e61iyah ditutup dengan ketauhidan, keagungan dan kebesaran Allah, sedangkan Surah al-A\u1e25q\u0101f dimulai dengan ketauhidan, yaitu menerangkan bahwa berhala yang disembah orang musyrik itu tidak dapat menciptakan suatu apa pun.\n2.\tSurah al-J\u0101\u1e61iyah memuat ancaman terhadap kaum musyrik, sedangkan pada Surah al-A\u1e25q\u0101f, ancaman itu lebih dipertegas dengan mengingatkan azab yang telah menimpa kaum \u2018Ad.",
        "munasabah_prev_theme": "Pada akhir Surah al-J\u0101\u1e61iyah yang lalu, Allah menyatakan bahwa segala kebesaran di langit dan bumi adalah kepunyaan-Nya, bahwa Dia Yang Mahaperkasa dan Mahabijaksana. Pada awal Surah al-A\u1e25q\u0101f ini, Allah menyatakan bahwa Kitab Al-Qur\u2019an yang diingkari kaum musyrik Mekah, diturunkan dari Allah yang Mahaperkasa dan Mahabijaksana. Kewenangan menurunkan Al-Qur\u2019an ada di tangan Allah, bukan pada yang lain.",
        "theme_group": "BUKTI-BUKTI KEBATILAN SYIRIK",
        "kosakata": "1.\tSyirk \u0634\u0650\u0631\u0652\u0643\u064c (al-A\u1e25q\u0101f/46: 4)\nSecara kebahasaan syirk berarti bagian, dan keyakinan adanya banyak tuhan. Dalam konteks ayat ini, kata syirk berarti peran serta atau ambil bagian. Kata tersebut dalam ayat ini bermakna, \"Atau adakah peran serta mereka dalam (penciptaan) langit?\" Di sini Allah menegaskan bahwa dalam menciptakan dunia seisinya, Dia tidak memerlukan bantuan dalam bentuk apa pun dari hambanya.\nKata syirk dalam terminologi Islam yang lebih luas mempunyai dua ranah pokok, yaitu syirk dalam ranah aqidah (keyakinan) dan syirk dalam ranah ibadah. Syirk dalam ranah aqidah, sebagaimana diterangkan dalam hadis Nabi saw:\n\u0648\u064e\u0627\u0644\u0634\u0651\u0650\u0631\u0652\u0643\u064f \u0623\u064e\u0646\u0652 \u062a\u064e\u062c\u0652\u0639\u064e\u0644\u064e \u0650\u0644\u0644\u0647\u0650 \u0646\u0650\u062f\u0651\u0627\u064b \u0648\u064e\u0647\u064f\u0648\u064e \u062e\u064e\u0644\u064e\u0642\u064e\u0643\u064e. (\u0631\u0648\u0627\u0647 \u0645\u0633\u0644\u0645 \u0648\u063a\u064a\u0631\u0647 \u0639\u0646 \u0639\u0628\u062f \u0627\u0644\u0644\u0647 \u0628\u0646 \u0645\u0633\u0639\u0648\u062f)\nSyirik adalah kamu menjadikan tandingan bagi Allah padahal Allah yang menciptakanmu. (Riwayat Muslim dan yang lainnya dari \u2018Abdull\u0101h bin Mas\u2018\u016bd)\n\nSedangkan syirk dalam ranah ibadah berarti menjalankan ibadah kepada selain Allah. Sebagaimana kata ulama, syirik adalah memalingkan ibadah untuk selain Allah. Hal ini didasarkan pada hadis:\n\u0625\u0650\u0646\u0651\u064e \u0623\u064e\u062e\u0652\u0648\u064e\u0641\u064e \u0645\u0627\u064e \u0623\u064e\u062e\u0627\u064e\u0641\u064f \u0639\u064e\u0644\u064e\u064a\u0652\u0643\u064f\u0645\u0652 \u0627\u0644\u0634\u0651\u0650\u0631\u0652\u0643\u064f \u0627\u0644\u0623\u064e\u0635\u0652\u063a\u064e\u0631\u064f. \u0642\u0627\u064e\u0644\u064f\u0648\u0627: \u0648\u064e\u0645\u064e\u0627 \u0627\u0644\u0634\u0651\u0650\u0631\u0652\u0643\u064f \u0627\u0644\u0623\u064e\u0635\u0652\u063a\u064e\u0631\u064f \u064a\u064e\u0627\u0631\u064e\u0633\u064f\u0648\u0652\u0644\u064e \u0627\u0644\u0644\u0651\u0670\u0647\u0650\u061f \u0642\u0627\u064e\u0644\u064e: \u0627\u0644\u0640\u0631\u0651\u0650\u064a\u064e\u0627\u0621\u064f. (\u0631\u0648\u0627\u0647 \u0623\u062d\u0645\u062f \u0639\u0646 \u0645\u062d\u0645\u0648\u062f \u0628\u0646 \u0644\u0628\u064a\u062f) \nSesungguhnya sesuatu yang paling aku takuti atas kalian adalah syirik kecil. Sahabat pun bertanya, \u201cApa (yang dimaksud dengan) syirik kecil, wahai Rasulullah?\u201d Nabi saw menjawab, \u201c(Yaitu) ria (mengerjakan amalan untuk selain Allah).\u201d (Riwayat A\u1e25mad dari Ma\u1e25m\u016bd bin Lab\u012bd) \n2.\tA\u1e61\u0101rah \u0627\u064e\u062b\u064e\u0627\u0631\u064e\u0629 (al-A\u1e25q\u0101f/46: 4)\nSecara kebahasaan kata a\u1e61\u0101rah merupakan bentuk ma\u1e63dar yang berderivasi dari akar kata a\u1e61ar yang berarti sisa, bekas, dan peninggalan dari orang-orang terdahulu. Kata tersebut dalam ayat ini bermakna peninggalan dari ilmu pengetahuan orang-orang terdahulu. Di samping itu, kata tersebut dapat juga diartikan sebagai peninggalan orang-orang terdahulu yang berupa buku, ajaran, atau petuah dari para nabi terdahulu. ",
        "sabab_nuzul": null,
        "conclusion": null
    }
}