{
    "id": 4530,
    "surah_id": 46,
    "ayah": 20,
    "page": 504,
    "quarter_hizb": 51,
    "juz": 26,
    "manzil": 6,
    "arabic": "\u0648\u064e\u064a\u064e\u0648\u0652\u0645\u064e \u064a\u064f\u0639\u0652\u0631\u064e\u0636\u064f \u0627\u0644\u0651\u064e\u0630\u0650\u064a\u0652\u0646\u064e \u0643\u064e\u0641\u064e\u0631\u064f\u0648\u0652\u0627 \u0639\u064e\u0644\u064e\u0649 \u0627\u0644\u0646\u0651\u064e\u0627\u0631\u0650\u06d7  \u0627\u064e\u0630\u0652\u0647\u064e\u0628\u0652\u062a\u064f\u0645\u0652 \u0637\u064e\u064a\u0651\u0650\u0628\u0670\u062a\u0650\u0643\u064f\u0645\u0652 \u0641\u0650\u064a\u0652 \u062d\u064e\u064a\u064e\u0627\u062a\u0650\u0643\u064f\u0645\u064f \u0627\u0644\u062f\u0651\u064f\u0646\u0652\u064a\u064e\u0627 \u0648\u064e\u0627\u0633\u0652\u062a\u064e\u0645\u0652\u062a\u064e\u0639\u0652\u062a\u064f\u0645\u0652 \u0628\u0650\u0647\u064e\u0627\u06da \u0641\u064e\u0627\u0644\u0652\u064a\u064e\u0648\u0652\u0645\u064e \u062a\u064f\u062c\u0652\u0632\u064e\u0648\u0652\u0646\u064e \u0639\u064e\u0630\u064e\u0627\u0628\u064e \u0627\u0644\u0652\u0647\u064f\u0648\u0652\u0646\u0650 \u0628\u0650\u0645\u064e\u0627 \u0643\u064f\u0646\u0652\u062a\u064f\u0645\u0652 \u062a\u064e\u0633\u0652\u062a\u064e\u0643\u0652\u0628\u0650\u0631\u064f\u0648\u0652\u0646\u064e \u0641\u0650\u0649 \u0627\u0644\u0652\u0627\u064e\u0631\u0652\u0636\u0650 \u0628\u0650\u063a\u064e\u064a\u0652\u0631\u0650 \u0627\u0644\u0652\u062d\u064e\u0642\u0651\u0650 \u0648\u064e\u0628\u0650\u0645\u064e\u0627 \u0643\u064f\u0646\u0652\u062a\u064f\u0645\u0652 \u062a\u064e\u0641\u0652\u0633\u064f\u0642\u064f\u0648\u0652\u0646\u064e \u08d6 ",
    "latin": "Wa yauma yu\u2018ra\u1e0dul-la\u017c\u012bna kafar\u016b \u2018alan-n\u0101r(i), a\u017chabtum \u1e6dayyib\u0101tikum f\u012b \u1e25ay\u0101tikumud-dun-y\u0101 wastamta\u2018tum bih\u0101, fal-yauma tujzauna \u2018a\u017c\u0101bal-h\u016bni bim\u0101 kuntum tastakbir\u016bna fil-ar\u1e0di bigairil-\u1e25aqqi wa bim\u0101 kuntum tafsuq\u016bn(a).",
    "translation": " Pada hari (ketika) orang-orang yang kufur dihadapkan pada neraka, (dikatakan kepada mereka,) \u201cKamu telah menghabiskan (rezeki) yang baik dalam kehidupan duniamu dan bersenang-senang dengannya. Pada hari ini kamu dibalas dengan azab yang menghinakan karena kamu takabur di bumi, padahal tidak berhak (untuk sombong), dan  (juga) karena kamu selalu durhaka.\u201d",
    "no_footnote": null,
    "footnotes": null,
    "surah": {
        "id": 46,
        "arabic": " \u0627\u0644\u0627\u062d\u0642\u0627\u0641",
        "latin": "Al-A\u1e25q\u0101f",
        "transliteration": "Al-Ahqaf",
        "translation": "Ahqaf",
        "num_ayah": 35,
        "page": 502,
        "location": "Makkiyah"
    },
    "tafsir": {
        "wajiz": "Dan ingatlah apa yang akan dihadapi pada hari kemudian yaitu pada hari ketika orang-orang kafir dihadapkan ke neraka sehingga mereka menyaksikan kobaran api neraka dan merasakan panasnya, ketika itu dikatakan kepada mereka \u201cKamu telah menghabiskan rezeki yang baik untuk kehidupan duniamu dan kamu telah bersenang-senang menikmatinya; maka pada hari ini kamu dibalas dengan azab yang menghinakan karena kamu telah berlaku sombong di muka bumi tanpa alasan yang benar, mengindahkan kebenaran, dan karena kamu terus menerus melakukan kefasikan dan berbuat durhaka kepada Allah.",
        "tahlili": "Setelah menerangkan bahwa setiap jin dan manusia akan memperoleh balasan yang adil dari Allah, Dia menerangkan keadaan orang-orang kafir pada saat mereka dihadapkan ke neraka. Allah memerintahkan kepada Rasulullah saw agar menyampaikan kepada orang-orang kafir keadaan mereka ketika dibawa ke dalam neraka. Kepada mereka dikatakan bahwa segala macam kebahagiaan dan kenikmatan yang diperuntukkan bagi mereka telah lengkap dan sempurna mereka terima semasa hidup di dunia. Tidak ada satu pun bagian yang akan mereka nikmati lagi di akhirat. Yang tinggal hanyalah kehinaan, kerendahan, azab pedih yang akan mereka alami sebagai pembalasan atas kesombongan, kefasikan, kezaliman, kemaksiatan, dan kekafiran yang mereka lakukan selama hidup di dunia.\nAyat ini memperingatkan manusia agar meninggalkan hidup mewah yang berlebih-lebihan, meninggalkan perbuatan mubazir, maksiat, dan menganjurkan agar kaum Muslimin hidup sederhana, tidak berlebih-lebihan menggunakan sesuatu sesuai dengan keperluan dan keadaan, dan disesuaikan dengan tujuan hidup seorang Muslim. Seandainya ada kelebihan harta, hendaklah diberikan kepada orang-orang miskin, orang-orang terlantar, dan anak yatim yang tidak ada yang pertanggung jawabnya, dan gunakanlah harta itu untuk keperluan meninggikan kalimat Allah.\nDiriwayatkan oleh al-Baihaq\u012b dan lain-lain dari Ibnu \u2018Umar bahwa \u2018Umar melihat uang dirham di tangan J\u0101bir bin \u2018Abdull\u0101h, maka beliau berkata, \u201cUang dirham apakah itu?\u201d J\u0101bir menjawab, \u201cAku bermaksud membeli sepotong daging yang sudah lama diidamkan oleh keluargaku.\u201d \u2018Umar berkata, \u201cApakah setiap kamu menginginkan sesuatu, lalu kamu beli? Bagaimana pendapatmu tentang ayat ini? Kamu telah menghabiskan rezekimu yang baik dalam kehidupan duniamu saja, dan kamu telah bersenang-senang dengannya?\u201d \nDari riwayat di atas dapat kita tarik pelajaran bahwa \u2018Umar bin Kha\u1e6d\u1e6d\u0101b menasihati J\u0101bir bin \u2018Abdull\u0101h dengan ayat ini agar tidak terlalu menuruti keinginannya dan mengingatkan bahwa kesenangan dan kebahagiaan di dunia ini hanya bersifat sementara, sedangkan kebahagiaan yang abadi ada di akhirat. Oleh karena itu, kita harus menggunakan segala rezeki yang telah dianugerahkan Allah dengan sebaik-baiknya, sesuai dengan ketentuan yang digariskan agama.\nTentang hidup sederhana ini tergambar dalam kehidupan keluarga Rasulullah saw sebagaimana disebutkan dalam hadis:\n\u0639\u064e\u0646\u0652 \u062b\u064e\u0648\u0652\u0628\u064e\u0627\u0646\u064e \u0631\u064e\u0636\u0650\u064a\u064e \u0627\u0644\u0644\u0651\u0670\u0647\u064f \u0639\u064e\u0646\u0652\u0647\u064f \u0642\u064e\u0627\u0644\u064e: \u0643\u064e\u0627\u0646\u064e \u0631\u064e\u0633\u064f\u0648\u0652\u0644\u064f \u0627\u0644\u0644\u0651\u0670\u0647\u0650 \u0635\u064e\u0644\u0651\u064e\u0649 \u0627\u0644\u0644\u0651\u0670\u0647\u064f \u0639\u064e\u0644\u064e\u064a\u0652\u0647\u0650 \u0648\u064e\u0633\u064e\u0644\u0651\u064e\u0645\u064e \u0625\u0650\u0630\u064e\u0627 \u0633\u064e\u0627\u0641\u064e\u0631\u064e \u0643\u064e\u0627\u0646\u064e \u0627\u064e\u062e\u0650\u0631\u064e \u0639\u064e\u0647\u0652\u062f\u0650\u0647\u0650 \u0645\u0650\u0646\u0652 \u0627\u064e\u0647\u0652\u0644\u0650\u0647\u0650 \u0628\u0650\u0641\u064e\u0627\u0637\u0650\u0645\u064e\u0629\u064e. \u0648\u064e\u0627\u064e\u0648\u0651\u064e\u0644\u064f \u0645\u064e\u0646\u0652 \u064a\u064e\u062f\u0652\u062e\u064f\u0644\u064f \u0639\u064e\u0644\u064e\u064a\u0652\u0647\u0650 \u0645\u0650\u0646\u0652\u0647\u064f\u0645\u0652 \u0641\u064e\u0627\u0637\u0650\u0645\u064e\u0629\u064f \u0631\u064e\u0636\u0650\u064a\u064e \u0627\u0644\u0644\u0651\u0670\u0647\u064f \u0639\u064e\u0646\u0652\u0647\u064e\u0627 \u0641\u064e\u0642\u064e\u062f\u0650\u0645\u064e \u0645\u0650\u0646\u0652 \u063a\u064e\u0632\u064e\u0627\u0629\u064d \u0641\u064e\u0627\u064e\u062a\u064e\u0627\u0647\u064e\u0627 \u0641\u064e\u0625\u0650\u0630\u064e\u0627 \u064a\u064e\u0645\u0652\u0633\u064e\u062d\u064f \u0639\u064e\u0644\u064e\u0649 \u0628\u064e\u0627\u0628\u0650\u0647\u064e\u0627 \u0648\u064e\u0631\u064e\u0623\u064e\u0649 \u0639\u064e\u0644\u064e\u0649 \u0627\u0644\u0652\u062d\u064e\u0633\u064e\u0646\u0650 \u0648\u064e\u0627\u0644\u0652\u062d\u064f\u0633\u064e\u064a\u0652\u0646\u0650 \u0642\u064f\u0644\u0652\u0628\u064e\u064a\u0652\u0646\u0650 \u0645\u0650\u0646\u0652 \u0641\u0650\u0636\u0651\u064e\u0629\u064d \u0641\u064e\u0631\u064e\u062c\u064e\u0639\u064e \u0648\u064e\u0644\u064e\u0645\u0652 \u064a\u064e\u062f\u0652\u062e\u064f\u0644\u0652 \u0639\u064e\u0644\u064e\u064a\u0652\u0647\u064e\u0627 \u0641\u064e\u0644\u064e\u0645\u0651\u064e\u0627 \u0631\u064e\u0627\u064e\u062a\u0652 \u0630\u0670\u0644\u0650\u0643\u064e \u0638\u064e\u0646\u0651\u064e\u062a\u0652 \u0627\u064e\u0646\u0651\u064e\u0647\u064f \u0644\u064e\u0645\u0652 \u064a\u064e\u062f\u0652\u062e\u064f\u0644\u0652 \u0645\u0650\u0646\u0652 \u0623\u064e\u062c\u0652\u0644\u0650 \u0645\u064e\u0627\u0631\u064e\u0627\u064e\u0649 \u0641\u064e\u0647\u064e\u062a\u064e\u0643\u064e\u062a\u0650 \u0627\u0644\u0633\u0651\u0650\u062a\u0652\u0631\u064e \u0648\u064e\u0646\u064e\u0632\u064e\u0639\u064e\u062a\u0652 \u0642\u064f\u0644\u0652\u0628\u064e\u064a\u0652\u0646\u0650 \u0645\u0650\u0646\u064e \u0627\u0644\u0635\u0651\u064e\u0628\u0650\u064a\u0651\u064e\u064a\u0652\u0646\u0650 \u0641\u064e\u0642\u064e\u0637\u064e\u0639\u064e\u062a\u0652\u0647\u064f\u0645\u064e\u0627 \u0641\u064e\u0628\u064e\u0643\u0650\u064a\u064e\u0627 \u0641\u064e\u0642\u064e\u0633\u064e\u0645\u064e\u062a\u0652 \u0630\u0670\u0644\u0650\u0643\u064e \u0628\u064e\u064a\u0652\u0646\u064e\u0647\u064f\u0645\u064e\u0627 \u0641\u064e\u0627\u0646\u0652\u0637\u064e\u0644\u064e\u0642\u064e\u0627 \u0625\u0650\u0644\u0649\u064e \u0631\u064e\u0633\u064f\u0648\u0652\u0644\u0650 \u0627\u0644\u0644\u0651\u0670\u0647\u0650 \u0648\u064e\u0647\u064f\u0645\u064e\u0627 \u064a\u064e\u0628\u0652\u0643\u0650\u064a\u064e\u0627\u0646\u0650 \u0641\u064e\u0623\u064e\u062e\u064e\u0630\u064e \u0630\u0670\u0644\u0650\u0643\u064e \u0631\u064e\u0633\u064f\u0648\u0652\u0644\u064f \u0627\u0644\u0644\u0651\u0670\u0647\u0650 \u0645\u0650\u0646\u0652\u0647\u064f\u0645\u064e\u0627 \u0648\u064e\u0642\u064e\u0627\u0644\u064e \u064a\u064e\u0627 \u062b\u064e\u0648\u0652\u0628\u064e\u0627\u0646\u064f \u0627\u0650\u0630\u0652\u0647\u064e\u0628\u0652 \u0628\u0650\u0647\u0670\u0630\u064e\u0627 \u0627\u0650\u0644\u064e\u0649 \u0628\u064e\u0646\u0650\u0649 \u0641\u064f\u0644\u064e\u0627\u0646\u064d \u0648\u064e\u0627\u0634\u0652\u062a\u064e\u0631\u0650 \u0644\u0650\u0641\u064e\u0627\u0637\u0650\u0645\u064e\u0629\u064e \u0642\u0650\u0644\u064e\u0627\u062f\u064e\u0629\u064b \u0645\u0650\u0646\u0652 \u0639\u064e\u0635\u064e\u0628\u064d \u0648\u064e\u0633\u0650\u0648\u064e\u0627\u0631\u064e\u064a\u0652\u0646\u0650 \u0645\u0650\u0646\u0652 \u0639\u064e\u0627\u062c\u064d \u0641\u064e\u0625\u0650\u0646\u0651\u064e \u0647\u0670\u0624\u064f\u0644\u064e\u0627\u0621\u0650 \u0645\u0650\u0646\u0652 \u0627\u064e\u0647\u0652\u0644\u0650 \u0628\u064e\u064a\u0652\u062a\u0650\u064a\u0652 \u0648\u064e\u0644\u064e\u0627 \u0627\u064f\u062d\u0650\u0628\u0651\u064f \u0627\u064e\u0646\u0652 \u064a\u064e\u0623\u0652\u0643\u064f\u0644\u064f\u0648\u0652\u0627 \u0637\u064e\u064a\u0651\u0650\u0628\u064e\u0627\u062a\u0650\u0647\u0650\u0645\u0652 \u0641\u0650\u064a \u062d\u064e\u064a\u064e\u0627\u062a\u0650\u0647\u0650\u0645\u064f \u0627\u0644\u062f\u0651\u064f\u0646\u0652\u064a\u064e\u0627. (\u0631\u0648\u0627\u0647 \u0623\u062d\u0645\u062f \u0648\u0627\u0644\u0628\u064a\u0647\u0642\u064a) \nDiriwayatkan dari \u1e60aub\u0101n, ia berkata, \u201cRasulullah saw apabila akan bepergian, keluarga terakhir yang dikunjunginya adalah Fatimah. Dan keluarganya yang lebih dahulu didatanginya apabila ia kembali dari perjalanan ialah Fatimah. Beliau kembali dari Gazah (peperangan), lalu beliau datang ke rumah Fatimah, dan beliau mengusap pintu rumah dan melihat gelang perak di tangan Hasan dan Husain, beliau kembali dan tidak masuk. Tatkala Fatimah melihat yang demikian, ia berpendapat bahwa Rasulullah saw tidak masuk ke rumahnya itu karena beliau melihat barang-barang itu. Maka Fatimah menyobek-nyobek kain pintu itu dan mencabut gelang-gelang dari tangan kedua anaknya dan memotong-motongnya, lalu kedua anaknya menangis, maka ia membagi-bagikannya kepada kedua anak itu. Maka keduanya pergi menemui Rasulullah saw dalam keadaan menangis, lalu Rasulullah saw mengambil barang-barang itu dari keduanya seraya berkata, \u2018Hai \u1e60aub\u0101n, pergilah membawa barang-barang itu kepada Bani Fulan dan belikanlah untuk Fatimah kalung dari kulit lokan dan dua gelang dari gading, maka sesungguhnya mereka adalah keluargaku, dan aku tidak ingin mereka menghabiskan rezeki mereka yang baik sewaktu hidup di dunia ini\u2019.\u201d (Riwayat A\u1e25mad dan al-Baihaq\u012b)\n\nHadis ini maksudnya bukan melarang kaum Muslimin memakai perhiasan, suka kepada keindahan, menikmati rezeki yang telah dianugerahkan Allah, melainkan untuk menganjurkan agar orang hidup sesuai dengan kemampuan diri sendiri, tidak berlebih-lebihan, selalu menenggang rasa dalam hidup bertetangga dan dalam berteman. Jangan sampai harta yang dimiliki dengan halal itu menjadi sumber iri hati dan rasa dengki tetangga dan sahabat. Jangan pula hidup boros, dan berbelanja melebihi kemampuan. Ingatlah selalu bahwa banyak orang lain yang memerlukan bantuan, masih banyak biaya yang diperlukan untuk meninggikan kalimat Allah. Rasulullah saw selalu merasa cukup bila memperoleh sesuatu dan bersabar bila sedang tidak punya; memakan kue jika ada kesanggupan membelinya, meminum madu bila kebetulan ada, dan memakan daging bila mungkin mendapatkannya. Hal yang demikian itu menjadi pegangan dan kebiasaan hidup beliau. Beliau selalu bersyukur kepada Allah setiap menerima nikmat-Nya.\nYang dilarang ialah memakai perhiasan secara berlebih-lebihan, bersenang-senang tanpa mengingat adanya kehidupan abadi di akhirat nanti. Memakai perhiasan dengan tidak berlebih-lebihan dan tidak menimbulkan iri hati orang lain dibolehkan. Allah berfirman:\n\u0642\u064f\u0644\u0652 \u0645\u064e\u0646\u0652 \u062d\u064e\u0631\u0651\u064e\u0645\u064e \u0632\u0650\u064a\u0652\u0646\u064e\u0629\u064e \u0627\u0644\u0644\u0651\u0670\u0647\u0650 \u0627\u0644\u0651\u064e\u062a\u0650\u064a\u0652\u0653 \u0627\u064e\u062e\u0652\u0631\u064e\u062c\u064e \u0644\u0650\u0639\u0650\u0628\u064e\u0627\u062f\u0650\u0647\u0656 \u0648\u064e\u0627\u0644\u0637\u0651\u064e\u064a\u0651\u0650\u0628\u0670\u062a\u0650 \u0645\u0650\u0646\u064e \u0627\u0644\u0631\u0651\u0650\u0632\u0652\u0642\u0650\u06d7 \u0642\u064f\u0644\u0652 \u0647\u0650\u064a\u064e \u0644\u0650\u0644\u0651\u064e\u0630\u0650\u064a\u0652\u0646\u064e \u0627\u0670\u0645\u064e\u0646\u064f\u0648\u0652\u0627 \u0641\u0650\u0649 \u0627\u0644\u0652\u062d\u064e\u064a\u0670\u0648\u0629\u0650 \u0627\u0644\u062f\u0651\u064f\u0646\u0652\u064a\u064e\u0627 \u062e\u064e\u0627\u0644\u0650\u0635\u064e\u0629\u064b \u064a\u0651\u064e\u0648\u0652\u0645\u064e \u0627\u0644\u0652\u0642\u0650\u064a\u0670\u0645\u064e\u0629\u0650\u06d7 \u0643\u064e\u0630\u0670\u0644\u0650\u0643\u064e \u0646\u064f\u0641\u064e\u0635\u0651\u0650\u0644\u064f \u0627\u0644\u0652\u0627\u0670\u064a\u0670\u062a\u0650 \u0644\u0650\u0642\u064e\u0648\u0652\u0645\u064d \u064a\u0651\u064e\u0639\u0652\u0644\u064e\u0645\u064f\u0648\u0652\u0646\u064e \u0663\u0662\nKatakanlah (Muhammad), \u201cSiapakah yang mengharamkan perhiasan dari Allah yang telah disediakan untuk hamba-hamba-Nya dan rezeki yang baik- baik? Katakanlah, \u2018Semua itu untuk orang-orang yang beriman dalam kehidupan dunia, dan khusus (untuk mereka saja) pada hari Kiamat.\u2019 Demikianlah Kami menjelaskan ayat-ayat itu untuk orang-orang yang mengetahui.\u201d (al-A\u2018r\u0101f/7: 32) ",
        "intro_surah": "Surah al-A\u1e25q\u0101f terdiri dari 35 ayat, termasuk kelompok surah Makkiyyah, diturunkan sesudah Surah al-J\u0101\u1e61iyah. Dinamai al-A\u1e25q\u0101f (bukit-bukit pasir) karena ada hubungannya dengan perkataan al-a\u1e25q\u0101f yang terdapat pada ayat 21 surah ini.\nDalam ayat tersebut dan ayat-ayat sesudahnya, diterangkan kisah Nabi Hud yang telah menyampaikan agama Allah kepada kaumnya yang bertempat tinggal di al-A\u1e25q\u0101f yang sekarang terkenal dengan ar-Rab\u2018 al-Kh\u0101li. Kaum Hud itu tetap mengingkari seruan Nabi Hud sekalipun mereka juga telah diberi peringatan dan pengertian oleh rasul-rasul sebelumnya yang telah diutus kepada mereka. Akhirnya mereka dihancurkan Allah dengan tiupan angin yang amat dingin dan kencang. Hal ini sebagai isyarat dari Allah kepada kaum musyrik Mekah bahwa mereka akan dihancurkan sebagaimana kaum Hud jika mereka tidak mengindahkan seruan Nabi Muhammad.\n\nPokok-pokok Isinya:\n1.\tKeimanan:\nBukti-bukti kekuasaan dan keesaan Allah; para penyembah berhala adalah orang yang percaya pada yang sesat; orang-orang mukmin akan mendapat kebahagiaan yang abadi, sedangkan orang-orang kafir akan diazab di akhirat; risalah Nabi Muhammad tidak hanya terbatas kepada manusia saja, tetapi juga ditujukan kepada jin.\n2.\tHukum-hukum:\nPerintah untuk taat kepada ibu-bapak, memuliakannya, tidak menyakiti hatinya, dan melaksanakan perintah-perintah Allah yang berhubungan dengan ibu-bapak.\n3.\tKisah:\nKisah Nabi Hud dan kaumnya.\n4.\tLain-lain:\nOrang yang mementingkan kenikmatan hidup duniawi saja akan merugi di akhirat, orang yang beriman kepada Allah dan istiqamah dalam kehidupannya tidak ada kekhawatiran dalam diri mereka dan mereka tidak akan bersedih hati.",
        "outro_surah": null,
        "munasabah_prev_surah": "HUBUNGAN SURAH AL-J\u0100\u1e60IYAH \nDENGAN SURAH AL-A\u1e24Q\u0100F\n\n1.\tSurah al-J\u0101\u1e61iyah ditutup dengan ketauhidan, keagungan dan kebesaran Allah, sedangkan Surah al-A\u1e25q\u0101f dimulai dengan ketauhidan, yaitu menerangkan bahwa berhala yang disembah orang musyrik itu tidak dapat menciptakan suatu apa pun.\n2.\tSurah al-J\u0101\u1e61iyah memuat ancaman terhadap kaum musyrik, sedangkan pada Surah al-A\u1e25q\u0101f, ancaman itu lebih dipertegas dengan mengingatkan azab yang telah menimpa kaum \u2018Ad.",
        "munasabah_prev_theme": "Pada ayat yang lalu diterangkan sikap dan budi pekerti seorang anak yang baik terhadap kedua orang tuanya dan diterangkan pula apa sebab Allah memerintahkan agar manusia berbuat baik kepada orang tuanya. Orang yang melaksanakan perintah Allah yang berhubungan dengan kedua orang tuanya dan selalu bertobat kepada-Nya akan dibalas dengan surga di akhirat. Pada ayat berikut diterangkan ancaman Allah kepada orang-orang yang durhaka terhadap orang tuanya karena menolak ajakan keduanya untuk beriman kepada Allah, dan adanya hari Kiamat. Mereka akan dihisab di akhirat setimpal dengan keingkaran mereka.",
        "theme_group": "AKIBAT DURHAKA KEPADA IBU-BAPAK ",
        "kosakata": "Kosakata: Uffin \u0623\u064f\u0641\u0651\u064d (al-A\u1e25q\u0101f/49: 17).\nKata ini pada mulanya digunakan untuk ungkapan terhadap segala sesuatu yang menjijikkan seperti kotoran, bekas potongan kuku, dan lainnya, lalu digunakan untuk sesuatu yang dianggap enteng karena jijik terhadapnya. Jika kata ini (uff) dikatakan kepada berhala yang disembah dan orang yang menyembahnya sebagaimana perkataan Nabi Ibrahim (lihat Surah al-Anbiy\u0101'/21: 67), maka maksudnya adalah bahwa Nabi Ibrahim memandang jijik terhadap berhala-berhala dan orang yang menyembahnya. Jika perkataan ini ditujukan kepada orang tua maka maksudnya juga demikian, yaitu rasa kesal, jengkel, sebal terhadap orang tua, karena sifat-sifatnya yang mulai kekanak-kanakan atau keberatan memikul beban biayanya dan lainnya. Perkataan ini merupakan perbuatan yang sangat tercela jika dikatakan oleh seorang anak kepada orang tuanya, karena tidak menghargai keduanya yang telah memeliharanya dari sewaktu masih dalam kandungan sampai dewasa. \n",
        "sabab_nuzul": null,
        "conclusion": "1. \tAllah melarang dengan tegas menyakiti hati kedua ibu-bapak, apalagi sakit hati yang ditimbulkan oleh sikap anak yang tidak mengindahkan ajakan orang tuanya agar beriman kepada Allah dan rasul-Nya.\n2. \tAnak yang menyakiti hati kedua orang tuanya dengan tidak mengindah-kan ajakannya beriman kepada Allah, akan ditimpa azab yang pedih.\n3. \tPerintah beriman kepada Allah dan Rasulullah saw tidak saja ditujukan kepada manusia, tetapi juga ditujukan kepada jin. Oleh karena itu, jin akan memperoleh pahala dari keimanannya dan dosa dari kekafirannya sebagaimana yang berlaku bagi manusia.\n4. \tOrang-orang yang beriman mempunyai beberapa tingkatan derajat, sesuai dengan kekuatan imannya dan banyak atau sedikitnya amal yang dilakukan. Demikian pula, orang kafir mempunyai beberapa tingkatan derajat, sesuai dengan kekafiran dan banyak atau sedikitnya kejahatan yang telah dilakukannya. Semuanya itu akan diberi Allah balasan yang seadil-adilnya.\n5. \tOrang kafir yang hidup dengan kesombongan dan kefasikan serta mencurahkan perhatiannya untuk kehidupan dunia saja, akan dimasuk-kan ke dalam neraka di akhirat. Mereka sedikit pun tidak mempunyai kebahagiaan di akhirat karena semua kebahagiaan itu telah dinikmatinya selama hidup di dunia.\n"
    }
}