{
    "id": 4559,
    "surah_id": 47,
    "ayah": 14,
    "page": 508,
    "quarter_hizb": 51.5,
    "juz": 26,
    "manzil": 6,
    "arabic": "\u0627\u064e\u0641\u064e\u0645\u064e\u0646\u0652 \u0643\u064e\u0627\u0646\u064e \u0639\u064e\u0644\u0670\u0649 \u0628\u064e\u064a\u0651\u0650\u0646\u064e\u0629\u064d \u0645\u0651\u0650\u0646\u0652 \u0631\u0651\u064e\u0628\u0651\u0650\u0647\u0656 \u0643\u064e\u0645\u064e\u0646\u0652 \u0632\u064f\u064a\u0651\u0650\u0646\u064e \u0644\u064e\u0647\u0657 \u0633\u064f\u0648\u0652\u06e4\u0621\u064f \u0639\u064e\u0645\u064e\u0644\u0650\u0647\u0656 \u0648\u064e\u0627\u062a\u0651\u064e\u0628\u064e\u0639\u064f\u0648\u0652\u0653\u0627 \u0627\u064e\u0647\u0652\u0648\u064e\u0627\u06e4\u0621\u064e\u0647\u064f\u0645\u0652 ",
    "latin": "Afaman k\u0101na \u2018al\u0101 bayyinatim mir rabbih\u012b kaman zuyyina lah\u016b s\u016b'u \u2018amalih\u012b wattaba\u2018\u016b ahw\u0101'ahum.",
    "translation": " Apakah orang yang berpegang teguh pada keterangan yang datang dari Tuhannya sama dengan orang yang perbuatan buruknya dijadikan terasa indah baginya dan mengikuti hawa nafsunya?",
    "no_footnote": null,
    "footnotes": null,
    "surah": {
        "id": 47,
        "arabic": " \u0645\u062d\u0645\u0651\u062f",
        "latin": "Mu\u1e25ammad ",
        "transliteration": "Muhammad",
        "translation": "Nabi Muhammad",
        "num_ayah": 38,
        "page": 507,
        "location": "Madaniyah"
    },
    "tafsir": {
        "wajiz": "Maka apakah orang yang berpegang pada keterangan yang datang dari Tuhannya, ia melihat yang baik dan melakukannya dan memandang yang buruk kemudian meninggalkannya. Apakah orang yang demikian sifatnya itu sama dengan orang yang dijadikan oleh setan terasa indah baginya perbuatan buruknya itu dan sebaliknya tampak buruk baginya perbuatan yang baik dan oleh karena itu mereka senantiasa mengikuti keinginannya yang sesat dalam melakukan atau tidak melakukan perbuatan? Pasti, tidak sama.",
        "tahlili": "Ayat ini menjelaskan perbandingan antara orang-orang yang beriman dengan orang kafir dengan mengatakan, \u201cApakah sama orang yang mau berpikir sehingga ia mempunyai pengertian, pemahaman, dan keyakinan terhadap agama Allah dan Al-Qur\u2019an yang diturunkan kepada Muhammad saw dengan orang-orang yang tidak mau menggunakan pikirannya, sehingga ia tidak percaya bahwa Allah akan memberi balasan yang setimpal kepada orang-orang yang menuruti hawa nafsunya dan godaan setan? Tentu saja kedua macam orang itu tidak sama, bahkan perbedaan keduanya sangat besar.\nPada ayat yang lain Allah berfirman:\n\u0627\u064e\u0641\u064e\u0645\u064e\u0646\u0652 \u064a\u0651\u064e\u0639\u0652\u0644\u064e\u0645\u064f \u0627\u064e\u0646\u0651\u064e\u0645\u064e\u0627\u0653 \u0627\u064f\u0646\u0652\u0632\u0650\u0644\u064e \u0627\u0650\u0644\u064e\u064a\u0652\u0643\u064e \u0645\u0650\u0646\u0652 \u0631\u0651\u064e\u0628\u0651\u0650\u0643\u064e \u0627\u0644\u0652\u062d\u064e\u0642\u0651\u064f \u0643\u064e\u0645\u064e\u0646\u0652 \u0647\u064f\u0648\u064e \u0627\u064e\u0639\u0652\u0645\u0670\u0649\u06d7 \u0627\u0650\u0646\u0651\u064e\u0645\u064e\u0627 \u064a\u064e\u062a\u064e\u0630\u064e\u0643\u0651\u064e\u0631\u064f \u0627\u064f\u0648\u0644\u064f\u0648\u0627 \u0627\u0644\u0652\u0627\u064e\u0644\u0652\u0628\u064e\u0627\u0628\u0650 \u0661\u0669\nMaka apakah orang yang mengetahui bahwa apa yang diturunkan Tuhan kepadamu adalah kebenaran, sama dengan orang yang buta? Hanya orang berakal saja yang dapat mengambil pelajaran. (ar-Ra\u2018d/13: 19)\n\nDan firman Allah:\n\u0644\u064e\u0627 \u064a\u064e\u0633\u0652\u062a\u064e\u0648\u0650\u064a\u0652\u0653 \u0627\u064e\u0635\u0652\u062d\u0670\u0628\u064f \u0627\u0644\u0646\u0651\u064e\u0627\u0631\u0650 \u0648\u064e\u0627\u064e\u0635\u0652\u062d\u0670\u0628\u064f \u0627\u0644\u0652\u062c\u064e\u0646\u0651\u064e\u0629\u0650\u06d7 \u0627\u064e\u0635\u0652\u062d\u0670\u0628\u064f \u0627\u0644\u0652\u062c\u064e\u0646\u0651\u064e\u0629\u0650 \u0647\u064f\u0645\u064f \u0627\u0644\u0652\u0641\u064e\u0627\u06e4\u0649\u0655\u0650\u0632\u064f\u0648\u0652\u0646\u064e \u0662\u0660\nTidak sama para penghuni neraka dengan para penghuni surga; para penghuni surga itulah orang-orang yang memperoleh kemenangan. (al-\u1e24asyr/59: 20) ",
        "intro_surah": "Surah Mu\u1e25ammad terdiri dari 38 ayat, termasuk kelompok surah Madaniyyah, diturunkan sesudah Surah al-\u1e24ad\u012bd. Mu\u1e25ammad sebagai nama surah ini diambil dari kata Mu\u1e25ammad yang terdapat pada ayat 2 surah ini.\nPada ayat 1-3 surah ini, Allah membandingkan antara hasil yang diperoleh dari orang-orang yang percaya akan apa yang diturunkan kepada Nabi Muhammad dan hasil yang diperoleh oleh orang-orang yang tidak percaya kepadanya. Orang-orang yang percaya kepada risalah yang dibawa Nabi Muhammad, merekalah orang-orang yang beriman dan melaksanakan yang hak, diterima semua amalnya, diampuni segala kesalahannya. Adapun orang-orang yang tidak percaya kepada Muhammad saw adalah orang-orang yang mengikuti kebatilan, amalnya tidak diterima, dosa mereka tidak diampuni, dan mereka akan ditimpa azab di dunia dan di akhirat.\n\nPokok-pokok Isinya:\n1. \tKeimanan:\nOrang-orang yang mati syahid akan masuk surga, balasan yang disediakan di akhirat bagi orang-orang yang bertakwa dan orang-orang yang durhaka, dan tentang keesaan Allah.\n2. \tHukum-hukum:\nMenumpas musuh dalam peperangan sebelum tampak gejala kemenangan, menawan mereka kalau tampak gejala kemenangan, membebaskan mereka dengan menerima tebusan atau tidak, larangan mengajak damai bila telah nyata kemenangan berada di tangan.\n3. \tLain-lain:\nAllah selalu memberi cobaan kepada orang-orang yang beriman untuk mengetahui siapa yang berjihad dan siapa yang sabar menghadapi cobaan, kehidupan di dunia adalah permainan belaka, dan hanya iman dan takwalah yang menghasilkan pahala, Allah akan menolong orang-orang yang menolong agamanya.",
        "outro_surah": null,
        "munasabah_prev_surah": "HUBUNGAN SURAH AL-A\u1e24Q\u0100F \nDENGAN SURAH MU\u1e24AMMAD\n\nPada akhir Surah al-A\u1e25q\u0101f Allah mengancam orang-orang kafir dengan kebinasaan, dan pada permulaan Surah Mu\u1e25ammad disebutkan bahwa Allah membinasakan semua amal orang kafir dan Allah swt memerintahkan Nabi Muhammad memerangi mereka.",
        "munasabah_prev_theme": "Pada ayat-ayat yang lalu, Allah mencela dan menerangkan bahwa perbuatan orang-orang kafir tidak mempunyai arti di sisi-Nya, dan tempat mereka di akhirat adalah neraka. Pada ayat-ayat berikut ini, Allah menyatakan bahwa banyak yang dapat dijadikan pelajaran (i\u2018tibar) oleh manusia agar mereka sampai kepada kebenaran seperti nasib buruk yang dialami umat-umat yang dahulu yang mendustakan agama yang dibawa para rasul yang diutus kepada mereka. Jika mereka memperhatikan peristiwa demi peristiwa yang telah berlalu, mereka tentu akan sampai kepada kesimpulan bahwa Allah pasti akan mengazab mereka jika berbuat dan bertindak seperti orang-orang yang dahulu. Sebaliknya, Allah akan menolong orang-orang yang mengikuti seruan pada rasul-Nya.\n",
        "theme_group": "AKIBAT KUFUR DAN FAEDAH IMAN",
        "kosakata": "Kosakata: Dammarall\u0101h \u062f\u064e\u0645\u0651\u064e\u0631\u064e \u0627\u0644\u0644\u0651\u0670\u0647\u064f (Mu\u1e25ammad/47: 10)\nKata dammarall\u0101h merupakan ungkapan yang terdiri dari dua kata, yaitu dammara dan All\u0101h. Yang pertama, yaitu dammara, merupakan kata kerja dalam bentuk m\u0101\u1e0d\u012b (lampau) yang artinya menghancurkan. Sedang yang kedua, yaitu Allah, artinya Tuhan satu-satunya yang menjadi tujuan ibadah, pencipta alam, dan pengatur segala makhluk-Nya. \nKata ini merupakan jumlah fi\u2018liyyah (kalimat verbal), yaitu kalimat yang menunjukkan keaktifan kata kerja. Dengan demikian, Allah merupakan subjek, dan dammara merupakan predikatnya. Sedang yang dihancurkan adalah umat-umat masa lalu yang ingkar kepada seruan rasul. Kaum-kaum yang dihancurkan itu antara lain kaum \u2018Ad, Samud, kaum Nuh, kaum Lut, dan lain sebagainya. Penyebutan kata tersebut ditujukan untuk mengingatkan kaum kafir Mekah yang selalu menyaksikan peninggalan umat-umat tersebut. Dengan melihat bekas-bekas mereka, diharapkan orang kafir Mekah dapat menyadari akibat yang akan diterima bila mereka mendustakan rasul yang diutus kepada mereka. Selanjutnya dengan memahaminya, mereka diharapkan akan dapat menyadari kekeliruan itu dan mau mengikuti petunjuk yang dibawa Rasulullah saw.",
        "sabab_nuzul": null,
        "conclusion": "1. \tSeandainya orang musyrik Mekah mau mencari kebenaran, banyak bukti yang dapat mereka gunakan, misalnya peninggalan umat yang dahulu yang telah dihancurkan akibat mengingkari seruan rasul yang diutus kepada mereka.\n2. \tPelindung orang yang beriman adalah Allah, sedangkan kaum yang kafir tidak mempunyai seorang pelindung pun.\n3. \tOrang beriman dan beramal saleh diberi pahala surga.\n4. \tTidak sukar bagi Allah membinasakan orang-orang berdosa karena Ia Mahakuasa berbuat menurut yang Ia kehendaki.\n5. \tOrang yang beriman dengan orang yang kafir tidak sama di sisi Allah. Orang kafir akan diazab karena kekafirannya, sedangkan orang yang beriman akan diberi pahala yang berlipat ganda."
    }
}