{
    "id": 4570,
    "surah_id": 47,
    "ayah": 25,
    "page": 509,
    "quarter_hizb": 51.5,
    "juz": 26,
    "manzil": 6,
    "arabic": "\u0627\u0650\u0646\u0651\u064e \u0627\u0644\u0651\u064e\u0630\u0650\u064a\u0652\u0646\u064e \u0627\u0631\u0652\u062a\u064e\u062f\u0651\u064f\u0648\u0652\u0627 \u0639\u064e\u0644\u0670\u0653\u0649 \u0627\u064e\u062f\u0652\u0628\u064e\u0627\u0631\u0650\u0647\u0650\u0645\u0652 \u0645\u0651\u0650\u0646\u0652\u06e2 \u0628\u064e\u0639\u0652\u062f\u0650 \u0645\u064e\u0627 \u062a\u064e\u0628\u064e\u064a\u0651\u064e\u0646\u064e \u0644\u064e\u0647\u064f\u0645\u064f \u0627\u0644\u0652\u0647\u064f\u062f\u064e\u0649 \u0627\u0644\u0634\u0651\u064e\u064a\u0652\u0637\u0670\u0646\u064f \u0633\u064e\u0648\u0651\u064e\u0644\u064e \u0644\u064e\u0647\u064f\u0645\u0652\u06d7 \u0648\u064e\u0627\u064e\u0645\u0652\u0644\u0670\u0649 \u0644\u064e\u0647\u064f\u0645\u0652 ",
    "latin": "Innal-la\u017c\u012bnartadd\u016b \u2018al\u0101 adb\u0101rihim mim ba\u2018di m\u0101 tabayyana lahumul-hudasy-syai\u1e6d\u0101nu sawwala lahum, wa aml\u0101 lahum.",
    "translation": " Sesungguhnya (bagi) orang-orang yang berbalik (pada kekufuran) setelah petunjuk itu jelas bagi mereka, setan menggoda mereka dan memanjangkan (angan-angan) mereka.",
    "no_footnote": null,
    "footnotes": null,
    "surah": {
        "id": 47,
        "arabic": " \u0645\u062d\u0645\u0651\u062f",
        "latin": "Mu\u1e25ammad ",
        "transliteration": "Muhammad",
        "translation": "Nabi Muhammad",
        "num_ayah": 38,
        "page": 507,
        "location": "Madaniyah"
    },
    "tafsir": {
        "wajiz": "Sesungguhnya orang-orang yang berbalik kepada kekafiran, setelah petunjuk itu yang disampaikan Allah melalui Rasul-Nya jelas bagi mereka, maka setanlah yang merayu mereka untuk berbuat dosa dan memanjangkan angan-angan mereka. Mereka terbuai oleh angan-angan palsu, sesuai dengan dorongan hawa nafsu, sehinggga terasa indah keburukan yang mereka lakukan.",
        "tahlili": "Dalam ayat ini dijelaskan bahwa orang-orang yang kembali kafir setelah nyata bagi mereka jalan yang lurus yang harus ditempuh dengan mengerjakan perbuatan dosa dan sesat adalah orang yang telah termakan dan terpengaruh oleh tipu daya setan. Setan menjadikan perbuatan dosa dan kesesatan yang mereka kerjakan sebagai perbuatan baik dalam pandangan mereka, sehingga mereka hidup dengan bergelimang dosa dan kesesatan. Di samping itu, mereka dibuai oleh angan-angan yang palsu, sesuai dengan dorongan hawa nafsu mereka. Dengan demikian, hawa nafsu itu menjadi ukuran baik atau buruknya suatu perbuatan. Apa yang dianggap baik oleh hawa nafsu mereka, itulah yang mereka anggap baik. Hal-hal inilah yang memunculkan kemunafikan dalam diri mereka.",
        "intro_surah": "Surah Mu\u1e25ammad terdiri dari 38 ayat, termasuk kelompok surah Madaniyyah, diturunkan sesudah Surah al-\u1e24ad\u012bd. Mu\u1e25ammad sebagai nama surah ini diambil dari kata Mu\u1e25ammad yang terdapat pada ayat 2 surah ini.\nPada ayat 1-3 surah ini, Allah membandingkan antara hasil yang diperoleh dari orang-orang yang percaya akan apa yang diturunkan kepada Nabi Muhammad dan hasil yang diperoleh oleh orang-orang yang tidak percaya kepadanya. Orang-orang yang percaya kepada risalah yang dibawa Nabi Muhammad, merekalah orang-orang yang beriman dan melaksanakan yang hak, diterima semua amalnya, diampuni segala kesalahannya. Adapun orang-orang yang tidak percaya kepada Muhammad saw adalah orang-orang yang mengikuti kebatilan, amalnya tidak diterima, dosa mereka tidak diampuni, dan mereka akan ditimpa azab di dunia dan di akhirat.\n\nPokok-pokok Isinya:\n1. \tKeimanan:\nOrang-orang yang mati syahid akan masuk surga, balasan yang disediakan di akhirat bagi orang-orang yang bertakwa dan orang-orang yang durhaka, dan tentang keesaan Allah.\n2. \tHukum-hukum:\nMenumpas musuh dalam peperangan sebelum tampak gejala kemenangan, menawan mereka kalau tampak gejala kemenangan, membebaskan mereka dengan menerima tebusan atau tidak, larangan mengajak damai bila telah nyata kemenangan berada di tangan.\n3. \tLain-lain:\nAllah selalu memberi cobaan kepada orang-orang yang beriman untuk mengetahui siapa yang berjihad dan siapa yang sabar menghadapi cobaan, kehidupan di dunia adalah permainan belaka, dan hanya iman dan takwalah yang menghasilkan pahala, Allah akan menolong orang-orang yang menolong agamanya.",
        "outro_surah": null,
        "munasabah_prev_surah": "HUBUNGAN SURAH AL-A\u1e24Q\u0100F \nDENGAN SURAH MU\u1e24AMMAD\n\nPada akhir Surah al-A\u1e25q\u0101f Allah mengancam orang-orang kafir dengan kebinasaan, dan pada permulaan Surah Mu\u1e25ammad disebutkan bahwa Allah membinasakan semua amal orang kafir dan Allah swt memerintahkan Nabi Muhammad memerangi mereka.",
        "munasabah_prev_theme": "Pada ayat-ayat yang lalu diterangkan bahwa Allah menjauhkan perbuatan yang baik dari orang-orang munafik. Mereka ditulikan sehingga tidak dapat mengambil faedah dari pendengarannya. Pada ayat-ayat berikut ini diterangkan dua macam keadaan mereka. Adakalanya mereka mau memperhatikan ayat-ayat Al-Qur\u2019an apabila sampai kepada mereka, tetapi arti dan maknanya tidak sampai meresap ke hati mereka karena telah terkunci. Kemudian diterangkan bahwa mereka kembali menjadi kafir setelah dikemukakan kepada mereka petunjuk Allah, bukti yang kuat, dan mukjizat yang nyata. Mereka telah termakan oleh tipu daya setan untuk mengerjakan perbuatan batil dan terlarang. Diterangkan pula akibat yang akan mereka terima karena kemunafikan.\n",
        "theme_group": "SIKAP ORANG MUNAFIK TERHADAP AL-QUR\u2019AN",
        "kosakata": "1.\tAqf\u0101luh\u0101 \u0623\u064e\u0642\u0652\u0641\u064e\u0627\u0644\u064f\u0647\u064e\u0627 (Mu\u1e25ammad/47: 24)\nKata aqf\u0101l adalah jamak dari kata qufl yang berarti kunci. Ia terambil dari kata qafala-yaqfulu-quflan. Dari akar kata yang sama, kata quful berarti pulang dari bepergian, atau pulangnya pasukan dari kancah perang. Darinya terambil kata q\u0101filah yang berarti kafilah, sebuah penamaan yang mengandung pengharapan agar mereka kembali dari perjalanan mereka. Lalu darinya terambil dari kata quflun yang berarti penutup. Bila kita cermati, ada korelasi makna \u2018penutup\u2019 dengan \u2018kembali dari perjalanan\u2019, yaitu sama-sama menutup. Kata aqf\u0101l di dalam Al-Qur\u2019an hanya terdapat pada ayat yang sedang ditafsirkan ini. Menurut Imam a\u1e6d-\u1e6cabar\u012b, orang-orang munafik itu ditutup hatinya oleh Allah sehingga tidak memahami pelajaran dan nasihat yang ada di dalamnya. \n2.\tA\u1e0dg\u0101nahum \u0623\u064e\u0636\u0652\u063a\u064e\u0627\u0646\u064e\u0647\u064f\u0645\u0652 (Mu\u1e25ammad/47: 29)\nKata a\u1e0dg\u0101n adalah jamak dari kata \u1e0dag\u012bnah, yang berarti kedengkian, permusuhan, dan kebencian. Ia terbentuk dari kata \u1e0dagana-ya\u1e0dganu-\u1e0dignan-\u1e0dag\u012bnatan. Dalam sebuah a\u1e61ar dari \u2018Umar disebutkan:\n\u0623\u064e\u064a\u0651\u064f\u0645\u064e\u0627 \u0642\u064e\u0648\u0652\u0645\u064d \u0634\u064e\u0647\u0650\u062f\u064f\u0648\u0652\u0627 \u0639\u064e\u0644\u064e\u0649 \u0631\u064e\u062c\u064f\u0644\u064d \u0628\u0650\u062d\u064e\u062f\u064d\u0651 \u0648\u064e\u0644\u064e\u0645\u0652 \u064a\u064e\u0643\u064f\u0646\u0652 \u0628\u0650\u062d\u064e\u0636\u0652\u0631\u064e\u0629\u0650 \u0635\u0627\u064e\u062d\u0650\u0628\u0650 \u0627\u0644\u0652\u062d\u064e\u062f\u0650\u0651 \u0641\u064e\u0625\u0650\u0646\u0651\u064e\u0645\u064e\u0627 \u0634\u064e\u0647\u0650\u062f\u064f\u0648\u0652\u0627 \u0639\u064e\u0646\u0652 \u0636\u0650\u063a\u0652\u0646\u064d (\u0631\u0648\u0627\u0647 \u0639\u0628\u062f \u0627\u0644\u0631\u0632\u0627\u0642)\nJika ada satu kaum yang bersaksi terhadap seseorang yang bisa terkena hukuman had sedangkan kesaksian itu tidak berada di depan pelaku, maka sesungguhnya mereka bersaksi atas dasar kedengkian. (Riwayat \u2018Abd ar-Raz\u0101q)\n\nKata ini terulang dua kali di dalam Al-Qur\u2019an di surah yang sama, yaitu Surah Mu\u1e25ammad ayat 29 dan 37. \n3.\tLa\u1e25nil Qaul \u0644\u064e\u062d\u0652\u0646\u0650 \u0627\u0644\u0652\u0642\u064e\u0648\u0652\u0644 (Mu\u1e25ammad/47: 30)\n Kata qaul adalah kata jadian (ma\u1e63dar) dari kata q\u0101la-yaq\u016blu-qaulan yang berarti berkata. Sedangkan kata la\u1e25n adalah kata jadian dari kata la\u1e25ana-yal\u1e25anu-la\u1e25nan. Akar maknanya adalah bernyanyi. Kalimat la\u1e25\u1e25ana fi qir\u0101'atihi berarti ia membaca dengan berirama. Darinya diambil kata la\u1e25an yang berarti bahasa. Kata la\u1e25ana juga berarti kesalahan dalam berbicara, terutama dalam hal gramatika. Akan tetapi, yang dimaksud dalam ayat ini adalah yang tampak dari ucapan mereka, yang menunjukkan tujuan mereka, atau dialek, sebagaimana yang dikatakan oleh Amirul Mukminin \u2018U\u1e61m\u0101n bin \u2018Aff\u0101n, \u201cSeseorang tidak menyembunyikan suatu rahasia kecuali Allah menampakkannya pada raut wajahnya atau pada kegagapan lisannya.\u201d ",
        "sabab_nuzul": null,
        "conclusion": null
    }
}