{
    "id": 4566,
    "surah_id": 47,
    "ayah": 21,
    "page": 509,
    "quarter_hizb": 51.5,
    "juz": 26,
    "manzil": 6,
    "arabic": "\u0637\u064e\u0627\u0639\u064e\u0629\u064c \u0648\u0651\u064e\u0642\u064e\u0648\u0652\u0644\u064c \u0645\u0651\u064e\u0639\u0652\u0631\u064f\u0648\u0652\u0641\u064c\u06d7 \u0641\u064e\u0627\u0650\u0630\u064e\u0627 \u0639\u064e\u0632\u064e\u0645\u064e \u0627\u0644\u0652\u0627\u064e\u0645\u0652\u0631\u064f\u06d7 \u0641\u064e\u0644\u064e\u0648\u0652 \u0635\u064e\u062f\u064e\u0642\u064f\u0648\u0627 \u0627\u0644\u0644\u0651\u0670\u0647\u064e \u0644\u064e\u0643\u064e\u0627\u0646\u064e \u062e\u064e\u064a\u0652\u0631\u064b\u0627 \u0644\u0651\u064e\u0647\u064f\u0645\u0652\u06da",
    "latin": "\u1e6c\u0101\u2018atuw wa qaulum ma\u2018r\u016bf(un), fa'i\u017c\u0101 \u2018azamal-amr(u), falau \u1e63adaqull\u0101ha lak\u0101na khairal lahum.",
    "translation": " (Seharusnya, mereka memilih) ketaatan (kepada Allah) dan tutur kata yang baik. Apabila perintah (perang) ditetapkan, (mereka tidak menyukainya). Padahal, jika mereka benar (beriman dan taat) kepada Allah, niscaya yang demikian itu lebih baik bagi mereka.",
    "no_footnote": null,
    "footnotes": null,
    "surah": {
        "id": 47,
        "arabic": " \u0645\u062d\u0645\u0651\u062f",
        "latin": "Mu\u1e25ammad ",
        "transliteration": "Muhammad",
        "translation": "Nabi Muhammad",
        "num_ayah": 38,
        "page": 507,
        "location": "Madaniyah"
    },
    "tafsir": {
        "wajiz": "Sesungguhnya yang lebih baik bagi orang yang beriman adalah taat kepada Allah dengan melaksanakan perintah-Nya dan bertutur kata yang baik sebagai bukti dari keimanan mereka. Sebab apabila perintah perang ditetapkan mereka tidak menyukainya. Padahal jika benar-benar beriman kepada Allah, pastilah mereka ikut berperang di jalan Allah, dan niscaya yang demikian itu lebih baik bagi mereka.",
        "tahlili": "Ayat ini menjelaskan sikap yang seharusnya dimiliki oleh orang-orang munafik, yaitu taat kepada Allah, dan mengucapkan perkataan yang makruf, bukannya takut, dan gentar menghadapi musuh. Hal itu karena kesenangan hidup di dunia telah membuat mereka terpesona dan lupa diri. Mereka takut kehilangan kesenangan. Padahal jika mereka mengetahui bahwa kesenangan hidup di dunia adalah kesenangan yang semu dan sementara, sedangkan kesenangan hidup di akhirat adalah kesenangan yang sebenarnya, tentu mereka akan mengubah sikap.\nSelanjutnya diterangkan bahwa kaum munafik itu apabila datang perintah berperang, timbullah kebencian dalam hati mereka sehingga mereka enggan ikut berperang. Seandainya mereka mempunyai iman yang kuat di dalam dada mereka, benar-benar taat kepada Allah dan mengikuti Rasul, pasti mereka ikut berperang bersama Rasul. Hal itu lebih baik bagi mereka karena dengan demikian mereka dekat kepada Allah.",
        "intro_surah": "Surah Mu\u1e25ammad terdiri dari 38 ayat, termasuk kelompok surah Madaniyyah, diturunkan sesudah Surah al-\u1e24ad\u012bd. Mu\u1e25ammad sebagai nama surah ini diambil dari kata Mu\u1e25ammad yang terdapat pada ayat 2 surah ini.\nPada ayat 1-3 surah ini, Allah membandingkan antara hasil yang diperoleh dari orang-orang yang percaya akan apa yang diturunkan kepada Nabi Muhammad dan hasil yang diperoleh oleh orang-orang yang tidak percaya kepadanya. Orang-orang yang percaya kepada risalah yang dibawa Nabi Muhammad, merekalah orang-orang yang beriman dan melaksanakan yang hak, diterima semua amalnya, diampuni segala kesalahannya. Adapun orang-orang yang tidak percaya kepada Muhammad saw adalah orang-orang yang mengikuti kebatilan, amalnya tidak diterima, dosa mereka tidak diampuni, dan mereka akan ditimpa azab di dunia dan di akhirat.\n\nPokok-pokok Isinya:\n1. \tKeimanan:\nOrang-orang yang mati syahid akan masuk surga, balasan yang disediakan di akhirat bagi orang-orang yang bertakwa dan orang-orang yang durhaka, dan tentang keesaan Allah.\n2. \tHukum-hukum:\nMenumpas musuh dalam peperangan sebelum tampak gejala kemenangan, menawan mereka kalau tampak gejala kemenangan, membebaskan mereka dengan menerima tebusan atau tidak, larangan mengajak damai bila telah nyata kemenangan berada di tangan.\n3. \tLain-lain:\nAllah selalu memberi cobaan kepada orang-orang yang beriman untuk mengetahui siapa yang berjihad dan siapa yang sabar menghadapi cobaan, kehidupan di dunia adalah permainan belaka, dan hanya iman dan takwalah yang menghasilkan pahala, Allah akan menolong orang-orang yang menolong agamanya.",
        "outro_surah": null,
        "munasabah_prev_surah": "HUBUNGAN SURAH AL-A\u1e24Q\u0100F \nDENGAN SURAH MU\u1e24AMMAD\n\nPada akhir Surah al-A\u1e25q\u0101f Allah mengancam orang-orang kafir dengan kebinasaan, dan pada permulaan Surah Mu\u1e25ammad disebutkan bahwa Allah membinasakan semua amal orang kafir dan Allah swt memerintahkan Nabi Muhammad memerangi mereka.",
        "munasabah_prev_theme": "Pada ayat-ayat yang lalu disebutkan sikap orang munafik, orang kafir, dan orang yang beriman ketika mendengar ayat-ayat Al-Qur\u2019an tentang akidah, seperti ketauhidan, hari kebangkitan, dan sebagainya. Pada ayat-ayat berikut disebutkan sikap mereka pada waktu mendengar ayat-ayat Allah tentang perintah untuk berjihad di jalan Allah. Orang-orang beriman selalu menunggu-nunggu perintah berjihad, bahkan mereka ingin perintah itu dinyatakan dengan tegas. Sedangkan orang-orang munafik bila diturunkan ayat yang mewajibkan mereka berjihad, mereka melihat dengan pandangan ingkar dan penuh rasa takut, seakan-akan mereka orang yang sedang menghadapi sakaratul maut.",
        "theme_group": "SIKAP ORANG BERIMAN \nTERHADAP PERINTAH BERPERANG",
        "kosakata": "Kosakata: al-Magsyiyyu \u0627\u0644\u0652\u0645\u064e\u063a\u0652\u0634\u0650\u064a\u0651\u064f (Mu\u1e25ammad/47: 20)\nKata al-magsyiyyu adalah isim maf\u2018\u016bl (kata benda objek) dari kata gasyiya-tagsya-gasywah yang berarti menutupi, sebagaimana dalam firman Allah, \u201cDemi malam apabila menutupi (cahaya siang).\u201d (al-Lail/92: 1) Kata gisy\u0101wah berarti penutup yang mengunci hati, sebagaimana dalam firman Allah, \u201cDan penglihatan mereka ditutup.\u201d (al-Baqarah/2: 7). Kiamat disebut al-g\u0101syiyah karena huru-haranya menutupi seluruh makhluk. Secara keseluruhan, penggunaan kata gasyiya dan semua derivasinya berkisar pada \u2018menutupi\u2019. Akan tetapi, bila kata gasyiya ditransitifkan dengan bantuan kata \u2018al\u0101, maka ia berarti \u2018pingsan\u2019, seperti penggunaan kata gasyiya pada ayat yang sedang ditafsirkan ini, dan di dalam firman Allah Ta\u2018ala, \u201cMereka kikir terhadapmu apabila datang ketakutan (bahaya), kamu lihat mereka itu memandang kepadamu dengan mata yang terbalik-balik seperti orang yang pingsan karena akan mati\u2026\u201d (al-A\u1e25z\u0101b/33: 19) \n",
        "sabab_nuzul": null,
        "conclusion": null
    }
}