{
    "id": 4564,
    "surah_id": 47,
    "ayah": 19,
    "page": 508,
    "quarter_hizb": 51.5,
    "juz": 26,
    "manzil": 6,
    "arabic": "\u0641\u064e\u0627\u0639\u0652\u0644\u064e\u0645\u0652 \u0627\u064e\u0646\u0651\u064e\u0647\u0657 \u0644\u064e\u0627\u0653 \u0627\u0650\u0644\u0670\u0647\u064e \u0627\u0650\u0644\u0651\u064e\u0627 \u0627\u0644\u0644\u0651\u0670\u0647\u064f \u0648\u064e\u0627\u0633\u0652\u062a\u064e\u063a\u0652\u0641\u0650\u0631\u0652 \u0644\u0650\u0630\u064e\u0646\u0652\u06e2\u0628\u0650\u0643\u064e \u0648\u064e\u0644\u0650\u0644\u0652\u0645\u064f\u0624\u0652\u0645\u0650\u0646\u0650\u064a\u0652\u0646\u064e \u0648\u064e\u0627\u0644\u0652\u0645\u064f\u0624\u0652\u0645\u0650\u0646\u0670\u062a\u0650\u06da \u0648\u064e\u0627\u0644\u0644\u0651\u0670\u0647\u064f \u064a\u064e\u0639\u0652\u0644\u064e\u0645\u064f \u0645\u064f\u062a\u064e\u0642\u064e\u0644\u0651\u064e\u0628\u064e\u0643\u064f\u0645\u0652 \u0648\u064e\u0645\u064e\u062b\u0652\u0648\u0670\u0649\u0643\u064f\u0645\u0652 \u08d6",
    "latin": "Fa\u2018lam annah\u016b l\u0101 il\u0101ha illall\u0101hu wastagfir li\u017cambika wa lil-u'min\u012bna wal-u'min\u0101t(i), wall\u0101hu ya\u2018lamu mutaqallabakum wa ma\u1e61w\u0101kum.",
    "translation": "Ketahuilah (Nabi Muhammad) bahwa tidak ada Tuhan (yang patut disembah) selain Allah serta mohonlah ampunan atas dosamu dan (dosa) orang-orang mukmin laki-laki dan perempuan. Allah mengetahui tempat kegiatan dan tempat istirahatmu.",
    "no_footnote": null,
    "footnotes": null,
    "surah": {
        "id": 47,
        "arabic": " \u0645\u062d\u0645\u0651\u062f",
        "latin": "Mu\u1e25ammad ",
        "transliteration": "Muhammad",
        "translation": "Nabi Muhammad",
        "num_ayah": 38,
        "page": 507,
        "location": "Madaniyah"
    },
    "tafsir": {
        "wajiz": "Maka ketahuilah, bahwa tidak ada tuhan (yang patut disembah) selain Allah dan mohonlah ampunan atas dosamu dan atas dosa orang-orang mukmin, laki-laki dan perempuan. Dan Allah mengetahui tempat usaha kamu mencari bermacam-macam keperluan hidupmu di dunia dan mengetahui tempat tinggalmu untuk beristirahat setelah engkau bekerja sepanjang hari.",
        "tahlili": "Dalam ayat ini, Allah memerintahkan Nabi Muhammad, apabila ia telah yakin dan mengetahui pahala yang akan diperoleh orang-orang yang beriman, serta azab yang akan diperoleh orang-orang kafir di akhirat, untuk berpegang teguh kepada agama Allah yang dapat mendatangkan kebahagiaan hidup di dunia dan di akhirat. Beliau juga diperintahkan untuk memohon kepada Allah agar mengampuni dosa-dosanya dan dosa-dosa orang beriman, selalu berdoa dan berzikir kepada-Nya, dan tidaklah sekali-kali memberi kesempatan kepada setan untuk melaksanakan maksud buruknya kepada beliau.\nSebuah hadis sahih mengatakan, Rasulullah saw selalu berdoa:\n\u0627\u0644\u0644\u0651\u0670\u0647\u064f\u0645\u0651\u064e \u0627\u063a\u0652\u0641\u0650\u0631\u0652\u0644\u0650\u064a\u0652 \u062e\u064e\u0637\u0650\u064a\u0652\u0626\u064e\u062a\u0650\u064a\u0652 \u0648\u064e\u062c\u064e\u0647\u0652\u0644\u0650\u064a\u0652 \u0648\u064e\u0625\u0650\u0633\u0652\u0631\u064e\u0627\u0641\u0650\u064a\u0652 \u0641\u0650\u064a\u0652 \u0623\u064e\u0645\u0652\u0631\u0650\u064a\u0652 \u0648\u064e\u0645\u064e\u0627 \u0627\u064e\u0646\u0652\u062a\u064e \u0623\u064e\u0639\u0652\u0644\u064e\u0645\u064f \u0628\u0650\u0647\u0650 \u0645\u0650\u0646\u0651\u0650\u064a\u0652 \u0627\u0644\u0644\u0651\u0670\u0647\u064f\u0645\u0651\u064e \u0627\u063a\u0652\u0641\u0650\u0631\u0652 \u0644\u0650\u064a\u0652 \u0647\u064e\u0632\u0652\u0644\u0650\u064a\u0652 \u0648\u064e\u062c\u0650\u062f\u0651\u0650\u064a\u0652 \u0648\u064e\u062e\u064e\u0637\u064e\u0627\u064a\u064e\u0627\u064a\u064e \u0648\u064e\u0639\u064e\u0645\u0652\u062f\u0650\u064a\u0652 \u0648\u064e\u0643\u064f\u0644\u0651\u064e \u0630\u0670\u0644\u0650\u0643\u064e \u0639\u0650\u0646\u0652\u062f\u0650\u064a\u0652. (\u0631\u0648\u0627\u0647 \u0627\u0644\u0628\u062e\u0627\u0631\u064a \u0639\u0646 \u0623\u0628\u064a \u0645\u0648\u0633\u0649 \u0627\u0644\u0623\u0634\u0639\u0631\u064a) \nWahai Allah, ampunilah kesalahanku, kebodohanku, dan perbuatanku yang berlebih-lebihan, dan dosaku yang lebih Engkau ketahui daripadaku. Wahai Allah, ampunilah dosa perkataanku yang tidak serius dan perkataanku yang sungguh-sungguh, kesalahanku, kesengajaanku, dan semua yang ada padaku.\u201d (Riwayat al-Bukh\u0101r\u012b dari Ab\u016b M\u016bs\u0101 al-Asy\u2018ar\u012b) \n\nRasulullah sering berdoa pada akhir salatnya, sebelum mengucapkan salam:\n\u0627\u0644\u0644\u0651\u0670\u0647\u064f\u0645\u0651\u064e \u0627\u063a\u0652\u0641\u0650\u0631\u0652\u0644\u0650\u064a\u0652 \u0645\u064e\u0627 \u0642\u064e\u062f\u0651\u064e\u0645\u0652\u062a\u064f \u0648\u064e\u0645\u064e\u0627 \u0623\u064e\u062e\u0651\u064e\u0631\u0652\u062a\u064f \u0648\u064e\u0645\u064e\u0627 \u0623\u064e\u0633\u0652\u0631\u064e\u0631\u0652\u062a\u064f \u0648\u064e\u0645\u064e\u0627 \u0623\u064e\u0639\u0652\u0644\u064e\u0646\u0652\u062a\u064f \u0648\u064e\u0645\u064e\u0627 \u0623\u064e\u0633\u0652\u0631\u064e\u0641\u0652\u062a\u064f \u0648\u064e\u0645\u064e\u0627 \u0627\u064e\u0646\u0652\u062a\u064e \u0623\u064e\u0639\u0652\u0644\u064e\u0645\u064f \u0628\u0650\u0647\u0650 \u0645\u0650\u0646\u0651\u0650\u064a\u0652 \u0623\u064e\u0646\u0652\u062a\u064e \u0625\u0650\u0644\u0670\u0647\u0650\u064a\u0652 \u0644\u064e\u0627 \u0627\u0650\u0644\u0670\u0647\u064e \u0627\u0650\u0644\u0651\u064e\u0627 \u0627\u064e\u0646\u0652\u062a\u064e. (\u0631\u0648\u0627\u0647 \u0627\u0644\u0628\u062e\u0627\u0631\u064a \u0648\u0645\u0633\u0644\u0645 \u0639\u0646 \u0627\u0628\u0646 \u0639\u0628\u0627\u0633)\nYa Allah, ampunilah dosaku yang terdahulu dan yang kemudian, yang tersembunyi dan yang tampak, serta perbuatanku yang berlebihan dan dosaku yang Engkau lebih mengetahui daripadaku, Engkau Tuhanku, tak ada tuhan selain Engkau.\u201d (Riwayat al-Bukh\u0101r\u012b dan Muslim dari Ibnu \u2018Abb\u0101s)\n\u064a\u064e\u0627\u0627\u064e\u064a\u0651\u064f\u0647\u064e\u0627 \u0627\u0644\u0646\u0651\u064e\u0627\u0633\u064f \u062a\u064f\u0648\u0652\u0628\u064f\u0648\u0652\u0627 \u0625\u0650\u0644\u064e\u0649 \u0631\u064e\u0628\u0651\u0650\u0643\u064f\u0645\u0652 \u0641\u064e\u0625\u0650\u0646\u0651\u0650\u064a\u0652 \u0623\u064e\u0633\u0652\u062a\u064e\u063a\u0652\u0641\u0650\u0631\u064f \u0627\u0644\u0644\u0647\u064e \u0648\u064e\u0623\u064e\u062a\u064f\u0648\u0652\u0628\u064f \u0625\u0650\u0644\u064e\u064a\u0652\u0647\u0650 \u0641\u0650\u0649 \u0627\u0644\u0652\u064a\u064e\u0648\u0652\u0645\u0650 \u0623\u064e\u0643\u0652\u062b\u064e\u0631\u064e \u0645\u0650\u0646\u0652 \u0633\u064e\u0628\u0652\u0639\u0650\u064a\u0652\u0646\u064e \u0645\u064e\u0631\u0651\u064e\u0629\u064b (\u0631\u0648\u0627\u0647 \u0645\u0633\u0644\u0645)\nHai manusia, bertobatlah kamu kepada Tuhanmu maka sesungguhnya aku pun mohon ampun kepada Allah dan bertobat kepada-Nya setiap hari lebih dari tujuh puluh kali. (Riwayat Muslim)\n\nAbu Bakar a\u1e63-\u1e62idd\u012bq berkata, \u201cHendaklah kamu membaca, \u2018L\u0101 il\u0101ha illall\u0101h dan istigfar\u2019.\u201d Bacalah keduanya berulang kali, maka sesungguhnya Iblis berkata, \u201cAku membinasakan manusia dengan perbuatan dosanya, dan mereka membinasakanku dengan membaca L\u0101 il\u0101ha illall\u0101h dan istigfar, maka ketika aku mengetahui yang demikian, mereka aku hancurkan dengan hawa nafsunya, mereka mengira mendapat petunjuk\u2019.\u201d (Riwayat Ab\u016b Ya\u2018l\u0101).\nDalam satu a\u1e61ar diterangkan perkataan Iblis, \u201cDemi keperkasaan dan keagungan-Mu, wahai Tuhan, aku senantiasa memperdaya mereka selama nyawa mereka dikandung badan.\u201d Lalu Allah berfirman, \u201cDemi keperkasaan dan keagungan-Ku, Aku senantiasa mengampuni dosa mereka, selama mereka tetap memohon ampunan kepada-Ku.\u201d\nSelanjutnya Allah mendorong manusia melaksanakan perintah-Nya, menjauhi larangan-Nya, dan agar selalu berusaha untuk mencari rezeki dan kebahagiaan hidupnya. Allah berfirman, \u201cDia mengetahui segala usaha, perilaku, dan tindak-tanduk mereka di siang hari, begitu pula tempat mereka berada di malam hari. Oleh karena itu, bertakwalah dan meminta ampun kepada-Nya.\u201d Dalam ayat lain, Allah berfirman:\n\u0648\u064e\u0645\u064e\u0627 \u0645\u0650\u0646\u0652 \u062f\u064e\u0627\u06e4\u0628\u0651\u064e\u0629\u064d \u0641\u0650\u0649 \u0627\u0644\u0652\u0627\u064e\u0631\u0652\u0636\u0650 \u0627\u0650\u0644\u0651\u064e\u0627 \u0639\u064e\u0644\u064e\u0649 \u0627\u0644\u0644\u0651\u0670\u0647\u0650 \u0631\u0650\u0632\u0652\u0642\u064f\u0647\u064e\u0627 \u0648\u064e\u064a\u064e\u0639\u0652\u0644\u064e\u0645\u064f \u0645\u064f\u0633\u0652\u062a\u064e\u0642\u064e\u0631\u0651\u064e\u0647\u064e\u0627 \u0648\u064e\u0645\u064f\u0633\u0652\u062a\u064e\u0648\u0652\u062f\u064e\u0639\u064e\u0647\u064e\u0627 \u06d7 \u0643\u064f\u0644\u0651\u064c \u0641\u0650\u064a\u0652 \u0643\u0650\u062a\u0670\u0628\u064d \u0645\u0651\u064f\u0628\u0650\u064a\u0652\u0646\u064d \u0666\nDan tidak satu pun makhluk bergerak (bernyawa) di bumi melainkan semuanya dijamin Allah rezekinya. Dia mengetahui tempat kediamannya dan tempat penyimpanannya.) Semua (tertulis) dalam Kitab yang nyata (Lau\u1e25 Ma\u1e25f\u016b\u1e93). (H\u016bd/11: 6)\n\u0648\u064e\u0647\u064f\u0648\u064e \u0627\u0644\u0651\u064e\u0630\u0650\u064a\u0652 \u064a\u064e\u062a\u064e\u0648\u064e\u0641\u0651\u0670\u0649\u0643\u064f\u0645\u0652 \u0628\u0650\u0627\u0644\u0651\u064e\u064a\u0652\u0644\u0650 \u0648\u064e\u064a\u064e\u0639\u0652\u0644\u064e\u0645\u064f \u0645\u064e\u0627 \u062c\u064e\u0631\u064e\u062d\u0652\u062a\u064f\u0645\u0652 \u0628\u0650\u0627\u0644\u0646\u0651\u064e\u0647\u064e\u0627\u0631\u0650 \u062b\u064f\u0645\u0651\u064e \u064a\u064e\u0628\u0652\u0639\u064e\u062b\u064f\u0643\u064f\u0645\u0652 \u0641\u0650\u064a\u0652\u0647\u0650 \u0644\u0650\u064a\u064f\u0642\u0652\u0636\u0670\u0653\u0649 \u0627\u064e\u062c\u064e\u0644\u064c \u0645\u0651\u064f\u0633\u064e\u0645\u0651\u064b\u0649\u06da \u062b\u064f\u0645\u0651\u064e \u0627\u0650\u0644\u064e\u064a\u0652\u0647\u0650 \u0645\u064e\u0631\u0652\u062c\u0650\u0639\u064f\u0643\u064f\u0645\u0652 \u062b\u064f\u0645\u0651\u064e \u064a\u064f\u0646\u064e\u0628\u0651\u0650\u0626\u064f\u0643\u064f\u0645\u0652 \u0628\u0650\u0645\u064e\u0627 \u0643\u064f\u0646\u0652\u062a\u064f\u0645\u0652 \u062a\u064e\u0639\u0652\u0645\u064e\u0644\u064f\u0648\u0652\u0646\u064e \u08d6 \u0666\u0660\n\tDan Dialah yang menidurkan kamu pada malam hari dan Dia mengetahui apa yang kamu kerjakan pada siang hari. Kemudian Dia membangunkan kamu pada siang hari untuk disempurnakan umurmu yang telah ditetapkan. Kemudian kepada-Nya tempat kamu kembali, lalu Dia memberitahukan kepadamu apa yang telah kamu kerjakan. (al-An\u2018\u0101m/6: 60) ",
        "intro_surah": "Surah Mu\u1e25ammad terdiri dari 38 ayat, termasuk kelompok surah Madaniyyah, diturunkan sesudah Surah al-\u1e24ad\u012bd. Mu\u1e25ammad sebagai nama surah ini diambil dari kata Mu\u1e25ammad yang terdapat pada ayat 2 surah ini.\nPada ayat 1-3 surah ini, Allah membandingkan antara hasil yang diperoleh dari orang-orang yang percaya akan apa yang diturunkan kepada Nabi Muhammad dan hasil yang diperoleh oleh orang-orang yang tidak percaya kepadanya. Orang-orang yang percaya kepada risalah yang dibawa Nabi Muhammad, merekalah orang-orang yang beriman dan melaksanakan yang hak, diterima semua amalnya, diampuni segala kesalahannya. Adapun orang-orang yang tidak percaya kepada Muhammad saw adalah orang-orang yang mengikuti kebatilan, amalnya tidak diterima, dosa mereka tidak diampuni, dan mereka akan ditimpa azab di dunia dan di akhirat.\n\nPokok-pokok Isinya:\n1. \tKeimanan:\nOrang-orang yang mati syahid akan masuk surga, balasan yang disediakan di akhirat bagi orang-orang yang bertakwa dan orang-orang yang durhaka, dan tentang keesaan Allah.\n2. \tHukum-hukum:\nMenumpas musuh dalam peperangan sebelum tampak gejala kemenangan, menawan mereka kalau tampak gejala kemenangan, membebaskan mereka dengan menerima tebusan atau tidak, larangan mengajak damai bila telah nyata kemenangan berada di tangan.\n3. \tLain-lain:\nAllah selalu memberi cobaan kepada orang-orang yang beriman untuk mengetahui siapa yang berjihad dan siapa yang sabar menghadapi cobaan, kehidupan di dunia adalah permainan belaka, dan hanya iman dan takwalah yang menghasilkan pahala, Allah akan menolong orang-orang yang menolong agamanya.",
        "outro_surah": null,
        "munasabah_prev_surah": "HUBUNGAN SURAH AL-A\u1e24Q\u0100F \nDENGAN SURAH MU\u1e24AMMAD\n\nPada akhir Surah al-A\u1e25q\u0101f Allah mengancam orang-orang kafir dengan kebinasaan, dan pada permulaan Surah Mu\u1e25ammad disebutkan bahwa Allah membinasakan semua amal orang kafir dan Allah swt memerintahkan Nabi Muhammad memerangi mereka.",
        "munasabah_prev_theme": "Pada ayat-ayat yang lalu, Allah menerangkan keadaan orang-orang musyrik, sikap dan tindakan mereka terhadap Nabi Muhammad, serta akibat yang akan mereka alami nanti karena tindakan mereka. Pada ayat-ayat berikut ini, Allah menerangkan sikap dan tindakan orang munafik yang hadir pada suatu pertemuan dengan Rasulullah saw. Ketika mendengar perkataan Rasul, mereka memperolok-olok perkataan beliau karena hati mereka telah terkunci mati sehingga tidak dapat memahami kebenaran lagi. Kemudian diterangkan sikap dan keadaan orang-orang beriman yang mau mengikuti petunjuk yang disampaikan Rasulullah kepada mereka. Mereka memperoleh pahala yang berlipat ganda dari Allah.\n",
        "theme_group": "SIKAP ORANG MUNAFIK TERHADAP\nNABI MUHAMMAD SAW",
        "kosakata": "1.\t\u0100nifan \u0627\u0670\u0646\u0650\u0641\u064b\u0627 (Mu\u1e25ammad/47: 16(\nKata \u0101nifan artinya waktu terdekat yang telah lalu, atau biasanya disebut tadi. Pada ayat ini, kata tersebut disebutkan dalam rangka mengolok-olok atau melecehkan apa yang diucapkan Rasulullah saw. Pada suatu saat, beliau mengajak masyarakat yang belum beriman untuk segera berakidah tauhid dan meninggalkan sesembahan mereka yang berupa berhala-berhala. Ajakan yang diungkapkan dengan santun tetapi tegas ini diolok-olok, seolah-olah mereka tidak tahu atau melecehkannya.\n2.\tMutaqallabakum \u0645\u064f\u062a\u064e\u0642\u064e\u0644\u0651\u064e\u0628\u064e\u0643\u064f\u0645\u0652 (Mu\u1e25ammad/47: 19)\nKata mutaqallab adalah isim makan (kata benda tempat) dari kata taqallaba-yataqallabu-taqalluban. Kata taqallab itu sendiri terbentuk dari kata qalaba-yaqlibu-qalban yang berarti membalik. Kata qallaba berarti membalik satu sisi ke sisi lain, sebagaimana dalam firman Allah, \u201cAllah mempergantikan malam dan siang. Sesungguhnya pada yang demikian itu, terdapat pelajaran yang besar bagi orang-orang yang mempunyai penglihatan.\u201d (an-N\u016br/24: 44). Kata qalb berarti hati, dan ia disebut demikian karena hati tidak bisa berada dalam satu kondisi, selalu berbolak-balik. Makna kata taqallaba dan derivasinya di dalam Al-Qur\u2019an berkisar pada \u201cberbolak-balik dari satu kondisi ke kondisi lain, dan dari satu tempat ke tempat lain\u201d. Sebagaimana di dalam firman Allah, \u201cKami melihat wajahmu (Muhammad) sering menengadah ke langit, maka akan Kami palingkan engkau ke kiblat yang engkau senangi.\u201d (al-Baqarah/2: 144). Maksud kata mutaqallab pada ayat ini adalah berbagai aktivitas yang dilakukan manusia di siang hari. Makna ini digunakan di kebanyakan kitab-kitab tafsir, meskipun ada sedikit perbedaan redaksi. ",
        "sabab_nuzul": null,
        "conclusion": "1. \tOrang munafik yang telah dikunci Allah hatinya dan mengikuti hawa nafsunya selalu memperolok-olok perkataan Rasulullah.\n2. \tOrang yang telah mendapat petunjuk dimudahkan Allah baginya untuk menambah petunjuk dan ketakwaan dari yang telah mereka miliki.\n3. \tHidup bagi orang munafik yang menuruti hawa nafsunya sudah tidak berguna lagi selain hanya menunggu datangnya kematian dan hari Kiamat yang datang dengan tiba-tiba.\n4. \tKaum Muslimin diperintahkan untuk selalu mengucapkan L\u0101 il\u0101ha illall\u0101h dan memohon ampun kepada-Nya sehingga tidak ada lagi celah tempat setan masuk menggoda mereka."
    }
}