{
    "id": 4591,
    "surah_id": 48,
    "ayah": 8,
    "page": 511,
    "quarter_hizb": 51.75,
    "juz": 26,
    "manzil": 6,
    "arabic": "\u0627\u0650\u0646\u0651\u064e\u0627\u0653 \u0627\u064e\u0631\u0652\u0633\u064e\u0644\u0652\u0646\u0670\u0643\u064e \u0634\u064e\u0627\u0647\u0650\u062f\u064b\u0627 \u0648\u0651\u064e\u0645\u064f\u0628\u064e\u0634\u0651\u0650\u0631\u064b\u0627 \u0648\u0651\u064e\u0646\u064e\u0630\u0650\u064a\u0652\u0631\u064b\u0627\u06d9",
    "latin": "Inn\u0101 arsaln\u0101ka sy\u0101hidaw wa mubasysyiraw wa na\u017c\u012br\u0101(n).",
    "translation": " Sesungguhnya Kami mengutus engkau (Nabi Muhammad) sebagai saksi, pembawa berita gembira, dan pemberi peringatan",
    "no_footnote": null,
    "footnotes": null,
    "surah": {
        "id": 48,
        "arabic": " \u0627\u0644\u0641\u062a\u062d",
        "latin": "Al-Fat\u1e25",
        "transliteration": "Al-Fath",
        "translation": "Kemenangan",
        "num_ayah": 29,
        "page": 511,
        "location": "Madaniyah"
    },
    "tafsir": {
        "wajiz": "Sungguh Kami mengutus engkau wahai Nabi Muhammad sebagai saksi atas kebenaran, pembawa berita gembira bahwa mereka akan memperoleh surga apabila mereka beriman dan pemberi peringatan bahwa mereka akan disiksa apabila mereka membangkang.",
        "tahlili": "Allah menyatakan bahwa sesungguhnya Dia mengutus Muhammad sebagai saksi atas umatnya mengenai kebenaran Islam dan keberhasilan dakwah yang beliau kerjakan. Nabi bertugas menyampaikan agama Allah kepada semua manusia, serta menyampaikan kabar gembira kepada orang- orang yang mau mengikuti agama yang disampaikannya. Mereka yang mengikuti ajakan Rasul akan diberi pahala yang berlipat ganda berupa surga di akhirat. Nabi juga bertugas memberikan peringatan kepada orang-orang yang mengingkari seruannya untuk mengikuti agama Allah bahwa mereka akan dimasukkan ke dalam neraka sebagai akibat dari keingkaran itu.",
        "intro_surah": "Surah al-Fat\u1e25 terdiri dari 29 ayat, termasuk kelompok surah Madaniyyah, diturunkan sesudah Surah al-Jumu\u2018ah.\nNama al-Fat\u1e25 (kemenangan) diambil dari kata fata\u1e25a yang terdapat pada ayat pertama surah ini. Sebagian besar dari ayat-ayat surah ini menerangkan hal-hal yang berhubungan dengan kemenangan yang dicapai Nabi Muhammad dalam peperangan.\nNabi Muhammad sangat gembira dengan turunnya ayat pertama ini. Kegembiraan beliau dinyatakan dalam sabda beliau yang diriwayatkan al-Bukh\u0101r\u012b. Beliau berkata, \u201cSesungguhnya telah diturunkan kepadaku suatu surah yang benar-benar lebih aku cintai daripada seluruh apa yang disinari matahari.\u201d Kegembiraan Nabi Muhammad itu ialah karena ayat-ayatnya menerangkan tentang kemenangan yang akan diperoleh Nabi Muhammad dalam perjuangannya dan tentang kesempurnaan nikmat Allah kepadanya.\n\nPokok-pokok Isinya:\n1. \tKeimanan:\nAllah memiliki tentara di langit dan di bumi; janji Allah kepada orang-orang mukmin ialah bahwa mereka akan mendapat ampunan dan pahala-Nya yang besar; Allah mengutus Nabi Muhammad sebagai saksi, pembawa berita gembira, dan pemberi peringatan; agama Islam akan memperoleh kemenangan dan mengungguli agama-agama lain.\n2. \tHukum-hukum:\nOrang yang pincang dan orang yang sakit dibebaskan dari kewajiban berperang.\n3. \tKisah-kisah:\nKejadian-kejadian sekitar Bai\u2018atur-Ri\u1e0dw\u0101n dan Perdamaian Hudaibiyyah.\n4. \tLain-lain:\nBerita gembira kepada Nabi Muhammad bahwa ia bersama-sama orang mukmin akan memasuki kota Mekah dengan kemenangan yang akan terlaksana setahun kemudian; sikap orang mukmin terhadap sesama mukmin dan orang kafir; sifat-sifat Nabi Muhammad dan para sahabatnya disebutkan dalam Taurat dan Injil; janji Allah bahwa orang Islam akan menguasai daerah-daerah yang belum dikuasai semasa hidup Rasulullah saw.",
        "outro_surah": null,
        "munasabah_prev_surah": "HUBUNGAN SURAH MU\u1e24AMMAD\nDENGAN SURAH AL-FAT\u1e24\n\n1. \tDalam kedua surah ini terdapat berbagai penjelasan mengenai orang- orang mukmin yang ikhlas, orang munafik, dan musyrik.\n2. \tDalam Surah Mu\u1e25ammad terdapat perintah agar manusia beriman dan menaati perintah Allah dan Rasul-Nya, sedangkan dalam Surah al-Fat\u1e25 diterangkan bahwa orang-orang mukmin yang taat itu akan memperoleh kemenangan di dunia.\n3. \tDalam Surah Mu\u1e25ammad disinggung tentang orang-orang munafik yang tidak mau berjuang dan berinfak. Dalam Surah al-Fat\u1e25 diterangkan lebih jelas tentang sikap dan sifat orang munafik.",
        "munasabah_prev_theme": "Pada ayat-ayat yang lalu diterangkan kemenangan secara keseluruhan yang dicapai oleh Rasulullah saw dan orang-orang yang beriman sebagai hasil perjuangan dan kesabaran mereka. Pada ayat-ayat berikut ini diterangkan bahwa Rasulullah saw diutus untuk menjadi saksi atas umatnya, dan untuk memberi kabar gembira serta memberi peringatan kepada kaum kafir. Juga dijelaskan bahwa orang-orang mukmin yang melakukan baiat kepada Nabi berarti juga melakukan baiat kepada Allah untuk membela agama-Nya.",
        "theme_group": "PERISTIWA BAI\u2018ATUR-RI\u1e0cW\u0100N",
        "kosakata": "1.\tYub\u0101yi\u2018\u016bnaka \u064a\u064f\u0628\u064e\u0627\u064a\u0650\u0639\u064f\u0648\u0652\u0646\u064e\u0643\u064e (al-Fat\u1e25/48: 10)\nKata yub\u0101yi\u2018\u016bnaka adalah fi\u2018il mu\u1e0d\u0101ri\u2018 dalam bentuk jamak dari kata bai\u2018 yang dapat dipakai dalam arti \u201ctukar-menukar atau transfer keuangan,\u201d atau dalam arti \u201cperjanjian, kesepakatan\u201d. Dalam bentuk kata kerja b\u0101ya\u2018a, berarti \u201cberikrar, menyatakan ikrar setia.\u201d Dalam ayat ini dipakai arti yang kedua, \u201cberikrar, menyatakan ikrar setia.\u201d Baiat dalam bahasa Indonesia mengalami sedikit pergeseran makna, yakni pengakuan dan pengucapan setia kepada organisasi dan pemimpinnya. Dalam Kamus Besar Bahasa Indonesia (KBBI) baiat diartikan \u201cpengucapan sumpah setia kepada imam (pemimpin).\u201d \n2.\t\u2018Alaihu \u0639\u064e\u0644\u064e\u064a\u0652\u0647\u064f (al-Fat\u1e25/48: 10)\nPada kalimat ini, Imam Haf\u1e63 perawi Imam \u2018\u0100\u1e63im, yaitu salah seorang Imam Qira\u2018at Tujuh yang masyhur, membaca ha'-nya dengan \u1e0dammah, sementara perawi Imam \u2018A\u1e63im lainnya yaitu Syu\u2018bah, begitu juga Imam lainnya dari Imam Tujuh atau Imam Sepuluh dari Imam Qira'at yang termasyhur membacanya dengan kasrah. Alasannya membaca ha' dengan \u1e0dammah karena dari segi ketatabahasaan dan ilmu a\u1e63wat (bunyi), huruf ha' adalah huruf yang lemah dari segi sifat atau karakteristiknya. Oleh karena itu, perlu diperkuat dengan harakat \u1e0dammah yang relatif lebih kuat daripada harakat kasrah.\n",
        "sabab_nuzul": null,
        "conclusion": null
    }
}