{
    "id": 4612,
    "surah_id": 48,
    "ayah": 29,
    "page": 515,
    "quarter_hizb": 52,
    "juz": 26,
    "manzil": 6,
    "arabic": "\u0645\u064f\u062d\u064e\u0645\u0651\u064e\u062f\u064c \u0631\u0651\u064e\u0633\u064f\u0648\u0652\u0644\u064f \u0627\u0644\u0644\u0651\u0670\u0647\u0650 \u06d7\u0648\u064e\u0627\u0644\u0651\u064e\u0630\u0650\u064a\u0652\u0646\u064e \u0645\u064e\u0639\u064e\u0647\u0657\u0653 \u0627\u064e\u0634\u0650\u062f\u0651\u064e\u0627\u06e4\u0621\u064f \u0639\u064e\u0644\u064e\u0649 \u0627\u0644\u0652\u0643\u064f\u0641\u0651\u064e\u0627\u0631\u0650 \u0631\u064f\u062d\u064e\u0645\u064e\u0627\u06e4\u0621\u064f \u0628\u064e\u064a\u0652\u0646\u064e\u0647\u064f\u0645\u0652 \u062a\u064e\u0631\u0670\u0649\u0647\u064f\u0645\u0652 \u0631\u064f\u0643\u0651\u064e\u0639\u064b\u0627 \u0633\u064f\u062c\u0651\u064e\u062f\u064b\u0627 \u064a\u0651\u064e\u0628\u0652\u062a\u064e\u063a\u064f\u0648\u0652\u0646\u064e \u0641\u064e\u0636\u0652\u0644\u064b\u0627 \u0645\u0651\u0650\u0646\u064e \u0627\u0644\u0644\u0651\u0670\u0647\u0650 \u0648\u064e\u0631\u0650\u0636\u0652\u0648\u064e\u0627\u0646\u064b\u0627 \u06d6 \u0633\u0650\u064a\u0652\u0645\u064e\u0627\u0647\u064f\u0645\u0652 \u0641\u0650\u064a\u0652 \u0648\u064f\u062c\u064f\u0648\u0652\u0647\u0650\u0647\u0650\u0645\u0652 \u0645\u0651\u0650\u0646\u0652 \u0627\u064e\u062b\u064e\u0631\u0650 \u0627\u0644\u0633\u0651\u064f\u062c\u064f\u0648\u0652\u062f\u0650 \u06d7\u0630\u0670\u0644\u0650\u0643\u064e \u0645\u064e\u062b\u064e\u0644\u064f\u0647\u064f\u0645\u0652 \u0641\u0650\u0649 \u0627\u0644\u062a\u0651\u064e\u0648\u0652\u0631\u0670\u0649\u0629\u0650  \u06d6\u0648\u064e\u0645\u064e\u062b\u064e\u0644\u064f\u0647\u064f\u0645\u0652 \u0641\u0650\u0649 \u0627\u0644\u0652\u0627\u0650\u0646\u0652\u062c\u0650\u064a\u0652\u0644\u0650\u06da  \u0643\u064e\u0632\u064e\u0631\u0652\u0639\u064d \u0627\u064e\u062e\u0652\u0631\u064e\u062c\u064e \u0634\u064e\u0637\u0652\u0640\u0654\u064e\u0647\u0657 \u0641\u064e\u0627\u0670\u0632\u064e\u0631\u064e\u0647\u0657 \u0641\u064e\u0627\u0633\u0652\u062a\u064e\u063a\u0652\u0644\u064e\u0638\u064e \u0641\u064e\u0627\u0633\u0652\u062a\u064e\u0648\u0670\u0649 \u0639\u064e\u0644\u0670\u0649 \u0633\u064f\u0648\u0652\u0642\u0650\u0647\u0656 \u064a\u064f\u0639\u0652\u062c\u0650\u0628\u064f \u0627\u0644\u0632\u0651\u064f\u0631\u0651\u064e\u0627\u0639\u064e \u0644\u0650\u064a\u064e\u063a\u0650\u064a\u0652\u0638\u064e \u0628\u0650\u0647\u0650\u0645\u064f \u0627\u0644\u0652\u0643\u064f\u0641\u0651\u064e\u0627\u0631\u064e \u06d7\u0648\u064e\u0639\u064e\u062f\u064e \u0627\u0644\u0644\u0651\u0670\u0647\u064f \u0627\u0644\u0651\u064e\u0630\u0650\u064a\u0652\u0646\u064e \u0627\u0670\u0645\u064e\u0646\u064f\u0648\u0652\u0627 \u0648\u064e\u0639\u064e\u0645\u0650\u0644\u064f\u0648\u0627 \u0627\u0644\u0635\u0651\u0670\u0644\u0650\u062d\u0670\u062a\u0650 \u0645\u0650\u0646\u0652\u0647\u064f\u0645\u0652 \u0645\u0651\u064e\u063a\u0652\u0641\u0650\u0631\u064e\u0629\u064b \u0648\u0651\u064e\u0627\u064e\u062c\u0652\u0631\u064b\u0627 \u0639\u064e\u0638\u0650\u064a\u0652\u0645\u064b\u0627 \u08d6 ",
    "latin": "Mu\u1e25ammadur ras\u016blull\u0101h(i), wal-la\u017c\u012bna ma\u2018ah\u016b asyidd\u0101'u \u2018alal-kuff\u0101ri ru\u1e25am\u0101'u bainahum tar\u0101hum rukka\u2018an sujjaday yabtag\u016bna fa\u1e0dlam minall\u0101hi wa ri\u1e0dw\u0101n\u0101(n), s\u012bm\u0101hum f\u012b wuj\u016bhihim min a\u1e61aris-suj\u016bd(i), \u017c\u0101lika ma\u1e61aluhum fit-taur\u0101h(ti), wa ma\u1e61aluhum fil-inj\u012bl(i), kazar\u2018in akhraja sya\u1e6d'ah\u016b fa \u0101zarah\u016b fastagla\u1e93a fastaw\u0101 \u2018al\u0101 s\u016bqih\u012b yu\u2018jibuz-zurr\u0101\u2018a liyag\u012b\u1e93a bihimul-kuff\u0101r(a), wa\u2018adall\u0101hul-la\u017c\u012bna \u0101man\u016b wa \u2018amilu\u1e63-\u1e63\u0101li\u1e25\u0101ti minhum magfirataw wa ajran \u2018a\u1e93\u012bm\u0101(n).",
    "translation": " Nabi Muhammad adalah utusan Allah dan orang-orang yang bersama dengannya bersikap keras terhadap orang-orang kafir (yang bersikap memusuhi), tetapi berkasih sayang sesama mereka. Kamu melihat mereka rukuk dan sujud mencari karunia Allah dan keridaan-Nya. Pada wajah mereka tampak tanda-tanda bekas sujud (bercahaya). Itu adalah sifat-sifat mereka (yang diungkapkan) dalam Taurat dan Injil, yaitu seperti benih yang mengeluarkan tunasnya, kemudian tunas itu makin kuat, lalu menjadi besar dan tumbuh di atas batangnya. Tanaman itu menyenangkan hati orang yang menanamnya. (Keadaan mereka diumpamakan seperti itu) karena Allah hendak membuat marah orang-orang kafir. Allah menjanjikan kepada orang-orang yang beriman dan mengerjakan kebajikan di antara mereka ampunan dan pahala yang besar. ",
    "no_footnote": null,
    "footnotes": null,
    "surah": {
        "id": 48,
        "arabic": " \u0627\u0644\u0641\u062a\u062d",
        "latin": "Al-Fat\u1e25",
        "transliteration": "Al-Fath",
        "translation": "Kemenangan",
        "num_ayah": 29,
        "page": 511,
        "location": "Madaniyah"
    },
    "tafsir": {
        "wajiz": "Nabi Muhammad adalah utusan Allah yang membawa rahmat bagi seluruh alam, dan orang-orang yang bersama dengan dia yakni sahabat-sahabat-Nya bersikap keras dan tegas terhadap orang-orang kafir yang menentang agama-Nya, tetapi berkasih sayang dan saling mencintai sesama mereka yang beriman. Kamu senantiasa melihat mereka rukuk dan sujud dan itu dilakukan semata-mata untuk mencari karunia Allah dan keridaan-Nya. Engkau saksikan pada wajah mereka tampak tanda-tanda bekas sujud berupa cahaya yang menunjukkan ketakwaan dan kesalehannya. Demikianlah sifat-sifat mereka yang sangat agung yang diungkapkan dalam Taurat yang diturunkan kepada Nabi Musa. Dan sifat-sifat me-reka yang diungkapkan dalam Injil, yaitu seperti benih yang mengeluarkan tunasnya, kemudian tunas itu semakin kuat lalu menjadi besar dan tegak lurus di atas batangnya. Demikian perumpamaan orang-orang mukmin pengikut Nabi Muhammad. Sesungguhnya mereka itu mula-mula sedikit saja, kemudian ia bertambah semakin banyak, bagaikan tunas yang menumbuhkan tanaman yang subur dan banyak buahnya. Tanaman itu menyenangkan hati penanam-penanamnya. Sifat-sifat yang luhur dan mulia dinyatakan karena Allah hendak menjengkelkan hati orang-orang kafir dengan menunjukkan semakin banyaknya jumlah orang-orang mukmin dan semakin besarnya kekuatan mereka dari masa ke masa. Demikianlah akhir Surah al-Fath ini ditutup dengan janji Allah bahwa Allah menjanjikan kepada orang-orang yang beriman dan mengerjakan kebajikan di antara mereka, ampunan atas dosa dan kesalahan mereka dan pahala yang besar yaitu surga. Semoga kami termasuk orang-orang yang memperoleh anugerah yang agung itu.",
        "tahlili": "Ayat ini menerangkan bahwa Muhammad saw adalah rasul Allah yang diutus kepada seluruh umat. Para sahabat dan pengikut Rasul bersikap keras terhadap orang-orang kafir, tetapi lemah lembut terhadap sesama mereka. Firman Allah: \n\u064a\u0670\u0653\u0627\u064e\u064a\u0651\u064f\u0647\u064e\u0627 \u0627\u0644\u0651\u064e\u0630\u0650\u064a\u0652\u0646\u064e \u0627\u0670\u0645\u064e\u0646\u064f\u0648\u0652\u0627 \u0645\u064e\u0646\u0652 \u064a\u0651\u064e\u0631\u0652\u062a\u064e\u062f\u0651\u064e \u0645\u0650\u0646\u0652\u0643\u064f\u0645\u0652 \u0639\u064e\u0646\u0652 \u062f\u0650\u064a\u0652\u0646\u0650\u0647\u0656 \u0641\u064e\u0633\u064e\u0648\u0652\u0641\u064e \u064a\u064e\u0623\u0652\u062a\u0650\u0649 \u0627\u0644\u0644\u0651\u0670\u0647\u064f \u0628\u0650\u0642\u064e\u0648\u0652\u0645\u064d \u064a\u0651\u064f\u062d\u0650\u0628\u0651\u064f\u0647\u064f\u0645\u0652 \u0648\u064e\u064a\u064f\u062d\u0650\u0628\u0651\u064f\u0648\u0652\u0646\u064e\u0647\u0657\u0653  \u06d9\u0627\u064e\u0630\u0650\u0644\u0651\u064e\u0629\u064d \u0639\u064e\u0644\u064e\u0649 \u0627\u0644\u0652\u0645\u064f\u0624\u0652\u0645\u0650\u0646\u0650\u064a\u0652\u0646\u064e \u0627\u064e\u0639\u0650\u0632\u0651\u064e\u0629\u064d \u0639\u064e\u0644\u064e\u0649 \u0627\u0644\u0652\u0643\u0670\u0641\u0650\u0631\u0650\u064a\u0652\u0646\u064e\u06d6 \u064a\u064f\u062c\u064e\u0627\u0647\u0650\u062f\u064f\u0648\u0652\u0646\u064e \u0641\u0650\u064a\u0652 \u0633\u064e\u0628\u0650\u064a\u0652\u0644\u0650 \u0627\u0644\u0644\u0651\u0670\u0647\u0650 \nWahai orang-orang yang beriman! Barang siapa di antara kamu yang murtad (keluar) dari agamanya, maka kelak Allah akan mendatangkan suatu kaum, Dia mencintai mereka dan mereka pun mencintai-Nya, dan bersikap lemah lembut terhadap orang-orang yang beriman, tetapi bersikap keras terhadap orang-orang kafir, yang berjihad di jalan Allah. (al-M\u0101\u2019idah/5: 54)\nRasulullah bersabda:\n\u0645\u064e\u062b\u064e\u0644\u064f \u0627\u0652\u0644\u0645\u064f\u0624\u0652\u0645\u0650\u0646\u0650\u064a\u0652\u0646\u064e \u0641\u0650\u064a\u0652 \u062a\u064e\u0648\u064e\u0627\u062f\u0650\u0651\u0647\u0650\u0645\u0652 \u0648\u064e\u062a\u064e\u0631\u064e\u0627\u062d\u064f\u0645\u0650\u0647\u0650\u0645\u0652 \u0648\u064e\u062a\u064e\u0639\u064e\u0627\u0637\u064f\u0641\u0650\u0647\u0650\u0645\u0652 \u0643\u064e\u0645\u064e\u062b\u064e\u0644\u0650 \u0627\u0644\u0652\u062c\u064e\u0633\u064e\u062f\u0650 \u0627\u0650\u0630\u064e\u0627 \u0627\u0634\u0652\u062a\u064e\u0643\u064e\u0649 \u0645\u0650\u0646\u0652\u0647\u064f \u0639\u064f\u0636\u0652\u0648\u064c \u062a\u064e\u062f\u064e\u0627\u0639\u064e\u0649 \u0644\u064e\u0647\u064f \u0633\u064e\u0627\u0626\u0650\u0631\u064f \u0627\u0644\u0652\u062c\u064e\u0633\u064e\u062f\u0650 \u0628\u0650\u0627\u0644\u0652\u062d\u064f\u0645\u0651\u064e\u0649 \u0648\u064e\u0627\u0644\u0633\u0651\u064e\u0647\u064e\u0631\u0650. (\u0631\u0648\u0627\u0647 \u0645\u0633\u0644\u0645 \u0648\u0623\u062d\u0645\u062f \u0639\u0646 \u0627\u0644\u0646\u0639\u0645\u0627\u0646 \u0628\u0646 \u0628\u0634\u064a\u0631)\nPerumpamaan orang-orang mukmin dalam kasih-mengasihi dan sayang-menyayangi antara mereka seperti tubuh yang satu; bila salah satu anggota badannya sakit demam, maka badan yang lain merasa demam dan terganggu pula. (Riwayat Muslim dan A\u1e25mad dari an-Nu\u2018m\u0101n bin Basy\u012br)\n\nOrang-orang yang beriman selalu mengerjakan salat dengan khusyuk, tunduk, dan ikhlas, mencari pahala, karunia, dan keridaan Allah. Tampak di wajah mereka bekas sujud. Maksudnya ialah air muka yang cemerlang, tidak ada gambaran kedengkian dan niat buruk kepada orang lain, penuh ketundukan dan kepatuhan kepada Allah, bersikap dan berbudi pekerti yang halus sebagai gambaran keimanan mereka.\nMengenai cahaya muka orang yang beriman, \u2018U\u1e61m\u0101n berkata, \u201cAdapun rahasia yang terpendam dalam hati seseorang; niscaya Allah menyatakannya pada raut mukanya dan lidahnya.\u201d Sifat-sifat yang demikian itu dilukiskan dalam Taurat dan Injil.\nPara sahabat dan pengikut Nabi semula sedikit dan lemah, kemudian bertambah dan berkembang dalam waktu singkat seperti biji yang tumbuh, mengeluarkan batangnya, lalu batang bercabang dan beranting, kemudian menjadi besar dan berbuah sehingga menakjubkan orang yang menanamnya, karena kuat dan indahnya, sehingga menambah panas hati orang-orang kafir. \nKemudian kepada pengikut Rasulullah saw itu, baik yang dahulu maupun yang sekarang, Allah menjanjikan pengampunan dosa-dosa mereka, memberi mereka pahala yang banyak, dan menyediakan surga sebagai tempat yang abadi bagi mereka. Janji Allah yang demikian pasti ditepati.",
        "intro_surah": "Surah al-Fat\u1e25 terdiri dari 29 ayat, termasuk kelompok surah Madaniyyah, diturunkan sesudah Surah al-Jumu\u2018ah.\nNama al-Fat\u1e25 (kemenangan) diambil dari kata fata\u1e25a yang terdapat pada ayat pertama surah ini. Sebagian besar dari ayat-ayat surah ini menerangkan hal-hal yang berhubungan dengan kemenangan yang dicapai Nabi Muhammad dalam peperangan.\nNabi Muhammad sangat gembira dengan turunnya ayat pertama ini. Kegembiraan beliau dinyatakan dalam sabda beliau yang diriwayatkan al-Bukh\u0101r\u012b. Beliau berkata, \u201cSesungguhnya telah diturunkan kepadaku suatu surah yang benar-benar lebih aku cintai daripada seluruh apa yang disinari matahari.\u201d Kegembiraan Nabi Muhammad itu ialah karena ayat-ayatnya menerangkan tentang kemenangan yang akan diperoleh Nabi Muhammad dalam perjuangannya dan tentang kesempurnaan nikmat Allah kepadanya.\n\nPokok-pokok Isinya:\n1. \tKeimanan:\nAllah memiliki tentara di langit dan di bumi; janji Allah kepada orang-orang mukmin ialah bahwa mereka akan mendapat ampunan dan pahala-Nya yang besar; Allah mengutus Nabi Muhammad sebagai saksi, pembawa berita gembira, dan pemberi peringatan; agama Islam akan memperoleh kemenangan dan mengungguli agama-agama lain.\n2. \tHukum-hukum:\nOrang yang pincang dan orang yang sakit dibebaskan dari kewajiban berperang.\n3. \tKisah-kisah:\nKejadian-kejadian sekitar Bai\u2018atur-Ri\u1e0dw\u0101n dan Perdamaian Hudaibiyyah.\n4. \tLain-lain:\nBerita gembira kepada Nabi Muhammad bahwa ia bersama-sama orang mukmin akan memasuki kota Mekah dengan kemenangan yang akan terlaksana setahun kemudian; sikap orang mukmin terhadap sesama mukmin dan orang kafir; sifat-sifat Nabi Muhammad dan para sahabatnya disebutkan dalam Taurat dan Injil; janji Allah bahwa orang Islam akan menguasai daerah-daerah yang belum dikuasai semasa hidup Rasulullah saw.",
        "outro_surah": "Surah al-Fat\u1e25 menerangkan peristiwa-peristiwa yang berhubungan dengan Perdamaian Hudaibiyyah dan janji Allah akan kemenangan kaum Muslimin. Surah ini ditutup dengan menerangkan sifat-sifat Rasulullah saw dan para sahabatnya.",
        "munasabah_prev_surah": "HUBUNGAN SURAH MU\u1e24AMMAD\nDENGAN SURAH AL-FAT\u1e24\n\n1. \tDalam kedua surah ini terdapat berbagai penjelasan mengenai orang- orang mukmin yang ikhlas, orang munafik, dan musyrik.\n2. \tDalam Surah Mu\u1e25ammad terdapat perintah agar manusia beriman dan menaati perintah Allah dan Rasul-Nya, sedangkan dalam Surah al-Fat\u1e25 diterangkan bahwa orang-orang mukmin yang taat itu akan memperoleh kemenangan di dunia.\n3. \tDalam Surah Mu\u1e25ammad disinggung tentang orang-orang munafik yang tidak mau berjuang dan berinfak. Dalam Surah al-Fat\u1e25 diterangkan lebih jelas tentang sikap dan sifat orang munafik.",
        "munasabah_prev_theme": "Pada ayat-ayat yang lalu, diterangkan bahwa Allah telah mengutus Muhammad saw yang membawa petunjuk dan agama Islam untuk semua manusia. Pada ayat berikut ini, diterangkan sifat-sifat rasul yang diutus dan para pengikutnya dalam kitab Taurat dan Injil.",
        "theme_group": "\nSIFAT NABI MUHAMMAD DAN\nSAHABAT-SAHABATNYA DALAM TAURAT DAN INJIL \n",
        "kosakata": "1. Sya\u1e6d'ahu \u0634\u064e\u0637\u0652\u0627\u064e\u0647\u064f (al-Fat\u1e25/48: 29)\nAsy-Sya\u1e6d' jamaknya al-asy\u1e6d\u0101' artinya tunas. Pada mulanya kata asy-sya\u1e6d' berarti pinggir, sebagaimana pada ungkapan sya\u1e6di'ul-w\u0101di artinya pinggir lembah. Jika ada tumbuhan lalu muncul di kiri-kanan tumbuhan tersebut tunas-tunas baru, maka dinamakan sya\u1e6d'u\u017c-\u017car\u2018i. Al-Qur\u2019an memberikan perumpamaan para sahabat Nabi yang tadinya sedikit menjadi banyak, yang tadinya lemah menjadi kuat, sebagaimana tumbuhan yang tadinya sedikit lalu muncul tunas-tunas baru yang menjadikan tumbuhan itu menjadi banyak dan kuat.\n2.\tA\u1e61ar as-Suj\u016bd \u0627\u064e\u062b\u064e\u0631\u0650 \u0627\u0644\u0633\u0651\u064f\u062c\u064f\u0648\u0652\u062f\u0650 (al-Fat\u1e25/48: 29) \nA\u1e61ar as-suj\u016bd artinya \u201cbekas sujud\u201d artinya muka mereka tampak bersinar dan bercahaya, karena kecintaan mereka kepada Allah menimbulkan kedamaian pada hati mereka. Kenikmatan beribadah karena banyak beribadah kepada Allah baik siang maupun malam hari membawa dampak pada muka mereka, jadilah muka mereka menjadi bersinar, bercahaya, teduh, tenang, dan tenteram. Ada juga yang berpendapat bahwa yang dimaksud dengan a\u1e61ar as-suj\u016bd adalah tanda bekas sujud yang ada pada dahi. Ada juga yang berpendapat bahwa bekas sujud ini akan jelas kelihatan pada saat mereka di akhirat nanti.\n3.\tAt-Taur\u0101h \u0627\u0644\u062a\u0651\u064e\u0648\u0652\u0631\u064e\u0627\u0629 (al-Fat\u1e25/48: 29) \nKitab Taurat disebutkan di dalam Al-Qur\u2019an sering bersama-sama dengan Kitab Injil. Dari 18 kata Taurat, separuh di antaranya disebut bersama-sama dengan kata Injil. Kedua kitab ini sebagai petunjuk dan cahaya, yang ditafsirkan mengenai \u201ctingkah laku dan pengertian yang dalam tentang kehidupan rohani yang lebih tinggi.\u201d\nPada dasarnya Al-Qur\u2019an mengakui dan menghormati kedua kitab suci itu. Ini menandakan bahwa Islam tidak eksklusif. Taurat diberikan kepada Musa melalui wahyu (al-M\u0101\u2019idah/5: 44, 46), begitu juga Injil, diberikan kepada Isa al-Masih melalui wahyu dari Allah, yang disebutkan sebagai penerus Taurat (al-M\u0101\u2019idah/5: 46), tidak berbeda dengan Al-Qur\u2019an (\u0100li \u2018Imr\u0101n/3: 3). Menurut penjelasan dan keterangan tentang Alkitab\u2014Perjanjian Lama dan Perjanjian Baru\u2014disebutkan, bahwa kitab-kitab itu ditulis oleh tokohnya masing-masing, dilengkapi dengan waktu penulisan, seperti Torah (5 kitab) ditulis oleh Musa, dan Injil ditulis oleh sebagian murid-murid Yesus, seperti yang akan kita coba ringkaskan nanti. Di sini sudah terlihat adanya perbedaan mendasar antara Al-Qur\u2019an dengan Alkitab (Bibel).\nKata Taur\u0101h, dalam bahasa Arab, berasal dari kata bahasa Ibrani Torah, yang berarti pengetahuan, hukum, instruksi, dan sebagainya. Dalam terjemahan Inggris, versi King James, law, \u201chukum;\u201d dalam terjemahan bahasa Indonesia \u201cTaurat\u201d. Sebagai wahyu dari Allah, dalam keadaan yang masih murni Taurat sangat dihormati. Pengertian Torah dalam kehidupan beragama orang Yahudi sering meliputi Talmud dan semua kepustakaan agama Yahudi. Torah dalam Perjanjian Lama dibatasi pada lima kitab, \u201cyang juga disebut Pentateuch, mengacu kepada Musa sebagai penerima wahyu asli dari Tuhan di Gunung Sinai,\u201d demikian Encyclopedia Britannica.\n4.\tAl-Inj\u012bl \u0627\u0644\u0652\u0625\u0650\u0646\u0652\u062c\u0650\u064a\u0652\u0644 (al-Fat\u1e25/48: 29) \nSeperti sudah disebutkan dalam artikel \u201cTaurat\u201d bahwa \u201cKitab Taurat disebutkan di dalam Al-Qur\u2019an sering bersama-sama dengan Kitab Injil, sudah tentu dengan sendirinya Injil juga demikian, dan disebutkan, bahwa kedua kitab ini sebagai petunjuk dan cahaya, yang ditafsirkan mengenai \u201ctingkah laku dan pengertian yang dalam tentang kehidupan rohani yang lebih tinggi.\u201d Taurat diwahyukan kepada Musa dan Injil diwahyukan kepada Isa al-Masih. Yang dimaksud ialah kedua kitab suci yang asli berupa wahyu dari Allah. Taurat diberikan kepada Musa melalui wahyu (M\u0101\u2019idah/5: 44, 46), begitu juga Injil, diberikan kepada Isa al-Masih melalui wahyu dari Allah, \u201cyang disebutkan sebagai penerus Taurat (M\u0101\u2019idah/5: 46), tidak berbeda dengan Al-Qur\u2019an (\u0100li \u2018Imr\u0101n/3: 3). \nPengertian kata Inj\u012bl dalam Al-Qur\u2019an dan dalam Alkitab berbeda. Injil dalam Al-Qur\u2019an ialah sebuah kitab berisi wahyu Allah yang disampaikan kepada Isa al-Masih, sama dengan Taurat dan Al-Qur\u2019an, masing-masing disampaikan kepada Musa dan Muhammad, dengan cara yang berbeda. Dalam Alkitab, Injil merupakan bagian-bagian tertentu dalam Perjanjian Baru. Seperti juga disebutkan dalam Encyclopedia Britannica, Injil merupakan satu dari empat cerita Bibel yang mencakup kehidupan dan kematian Yesus Kristus. Secara tradisi biasanya disebutkan bahwa Injil itu masing-masing ditulis oleh Matius, Markus, Lukas, dan Yohanes, yakni empat orang penginjil, yang menempati bagian permulaan dan menempati sekitar separuh Perjanjian Baru. Dalam bahasa Inggris Injil disebut gospel, dari kata bahasa Anglo Saxon god-spell, \u201ccerita yang bagus, diambil dari kata bahasa Latin evangelium, dari bahasa Yunani lama euagelion, yakni \u201ckabar baik, atau berita gembira,\u201d yang dalam bahasa Arab berubah menjadi inj\u012bl, jamak an\u0101j\u012bl. \nKalangan gereja sendiri memang membedakan Perjanjian Baru (New Testament) dengan Injil (Gospel). Sejak akhir abad ke-18, tiga pertama Perjanjian Baru disebut Synoptic Gospels, yang berarti tiga Injil pertama dalam \u201cpersamaan pandangan, isi atau susunannya,\u201d karena teks yang disusun berdampingan memperlihatkan persamaan berita tentang kehidupan dan kematian Yesus Kristus. Injil Synoptic ialah Injil-Injil Matius, Markus dan Lukas\u2013tidak termasuk Yohanes\u2013karena mereka menyajikan sebuah sinopsis atau pandangan secara umum mengenai serangkaian peristiwa yang sama, sementara yang keempat, yaitu Injil Yohanes cerita dan ungkapannya berbeda.\nDiatessaron, ialah empat Injil dalam Perjanjian Baru, yang dihimpun oleh Tatian sekitar tahun 150 M menjadi satu bentuk cerita berkesinambungan, dalam bentuk bahasa Suryani dan dipakai sebagai kitab kebaktian selama beberapa abad oleh Gereja Timur di Suria. Sampai sekitar tahun 400 M ia merupakan teks Injil yang baku di Suria, Timur Tengah, yang kemudian digantikan oleh empat Injil yang terpisah-pisah itu. Kutipan-kutipan dari Diatessaron muncul dalam literatur Suryani (bahasa Aram kuno di Suria), tetapi naskah Suryani kuno itu sekarang sudah tidak ada lagi. Pada tahun 1933 sebuah potongan papirus Yunani abad ketiga ditemukan di Doura-Europus, barat laut Bagdad, Irak. Tulisan aslinya yang dalam bahasa Yunani atau bahasa Suryani tidak diketahui. Juga ada naskah-naskah dalam bahasa Arab dan bahasa Persia dan terjemahan-terjemahan dalam beberapa bahasa Eropa yang dibuat selama abad-abad Pertengahan. Tatian sendiri lahir tahun 120 dan meninggal 173 M di Suria. Diatessaron versi Yunani dan Latin besar pengaruhnya terhadap teks Injil. Demikian Encyclopedia Britannica.\nMenurut penjelasan dan keterangan atas Alkitab\u2013Perjanjian Lama (Torah) dan Perjanjian Baru\u2013disebutkan, bahwa kitab-kitab itu ditulis oleh tokohnya masing-masing, dilengkapi dengan waktu penulisan, seperti Torah (5 kitab) ditulis oleh Musa, dan Injil ditulis oleh sebagian murid Yesus. Di sini sudah terlihat adanya perbedaan mendasar antara Al-Qur\u2019an dengan Alkitab. (Lihat \u201cTaurat\u201d di atas). Taurat dan Injil yang disebutkan di dalam Al-Qur\u2019an tentu tidak sama dengan Perjanjian Lama dan Perjanjian Baru seperti yang ada sekarang. Dalam Perjanjian Lama, Torah terbatas pada lima kitab, yang juga disebut Pentateuch, terdiri atas lima kitab pertama, ditulis oleh Musa. Selebihnya ditulis oleh sekian banyak penulis lain. Demikian juga Injil tentu bukan Perjanjian Baru, yang didahului oleh beberapa Injil (Gospel) seperti yang sekarang berlaku dalam lingkungan gereja Kristen, melainkan Injil asli yang diajarkan oleh Nabi Isa, atau Taurat seperti yang dibawa oleh Nabi Musa dan Al-Qur\u2019an oleh Nabi Muhammad saw. \nInjil, yang disebutkan di dalam Al-Qur\u2019an adalah kitab suci yang diturunkan kepada Isa al-Masih, dan tidak identik dengan empat Injil yang ditulis oleh murid-murid Yesus: Matius, Markus, Lukas, dan Yohanes, seperti yang terdapat dalam permulaan Perjanjian Baru yang dikenal sekarang. Dalam pengertian Kristiani, sebagai kitab suci Injil bukan wahyu atau firman Tuhan yang disampaikan kepada Isa al-Masih, melainkan merupakan kisah-kisah yang ditulis oleh murid-murid Yesus tersebut. Keempat Injil ini dipandang otentik dan dinyatakan sebagai kitab suci, karena telah dibimbing oleh Roh Kudus, ditulis dan disusun oleh manusia dengan tuntunan tangan Tuhan, dan karenanya berlaku sebagai firman-Nya. Dalam keterangan Alkitab disebutkan bahwa kedatangan Yesus Kristus dan mulainya pemerintahan Allah di dunia ini merupakan inti Injil yang harus diberitakan ke mana-mana. \nPada abad-abad pertama Masehi ada sekian banyak macam Injil yang beredar dengan versi yang tidak sama. Tetapi pada abad ke-4 hanya ada empat Injil Kanonis (sesuai dengan hukum gereja) yang kemudian dapat diselamatkan dan diterima oleh gereja, yakni Matius, Markus, Lukas, dan Yohanes, di samping beberapa lagi yang lain. Selebihnya ditulis oleh Paulus, yang terbanyak, Yakobus, dan yang lain. \u201cKemudian tulisan rasul-rasul yang membukukan kesaksian tentang diri Yesus Kristus disebut juga kitab-kitab Injil,\u201d seperti disebutkan dalam Kamus Alkitab. Dalam penjelasannya lebih jauh disebutkan juga tahun penulisan dan temanya, dan beberapa tulisan lain. Seperti Perjanjian Lama, sebagai contoh, begitu juga kitab-kitab dalam Perjanjian Baru dilengkapi dengan tahun penulisan dan temanya, terutama pada keempat Injil pertama-Matius, tahun penulisan 60-an, tema: \u201cYesus, Raja Mesianis;\u201d Markus, tahun penulisan 55-65 M, tema: \u201cYesus, Sang Putra-Hamba;\u201d Lukas, tahun penulisan 60-63 M, tema: \u201cYesus, Juruselamat yang Ilahi dan Manusiawi;\u201d Yohanes, tahun penulisan 80-95, tema: \u201cYesus, Putra Allah.\u201d\n Begitu juga pada Paulus, tahun penulisan sekitar tahun 57, tema: \u201cKebenaran Allah telah Dinyatakan,\u201d dan beberapa lagi penulis lain. Banyak juga surat-surat yang ditulis oleh Santo Paulus ditujukan kepada gereja-gereja dan kepada pribadi-pribadi, seperti surat kepada Jemaat di Korintus, surat kepada Jemaat di Galatia, surat kepada Jemaat di Efesus, di Filipi, di Kolose, dan di Tesalonika, surat yang ditulis kepada Timotius, kepada Titus, kepada orang Ibrani dan lain-lain, di samping Kisah Para Rasul. Surat-surat Petrus, Yohanes, dan Yudas, dan yang terakhir Wahyu kepada Yohanes. Kitab Wahyu atau Apocalyps ini ditulis oleh Yohanes, berisi pandangan pandangan mistik serta nubuatan atau ramalan ramalan. \nAda lagi Injil Petrus (The Gospel of Peter), Injil Barnabas (The Gospel of Barnabas) dan lain-lain, yang oleh gereja dianggap tidak kanonis dan tidak otentik. Tetapi rasanya semua ini tidak begitu perlu dibicarakan di sini. Hanya untuk melengkapi catatan, pada akhir abad ke-18 muncul pula apa yang disebut Synoptic Gospels, yang hanya menerima tiga bagian pertama Perjanjian Baru, yakni Injil Matius, Markus, dan Lukas\u2013tidak termasuk Yohanes, seperti sudah disebutkan di atas. \nInjil pada mulanya diberikan kepada Isa al-Masih dengan tujuan memberi peringatan kepada orang-orang Yahudi supaya mereka menjalankan ketentuan agama secara benar, dan jangan mengubah-ubah kitab suci mereka. Pada gilirannya kemudian yang demikian terjadi pada umat Kristen sendiri. Ayat di dalam Al-Qur\u2019an yang ditujukan kepada mereka ini mungkin erat hubungannya dengan peristiwa itu, \u201cWahai Ahli Kitab! Sungguh, Rasul Kami telah datang kepadamu, menjelaskan kepadamu banyak hal dari (isi) kitab yang kamu sembunyikan, dan banyak (pula) yang dibiarkannya. Sungguh, telah datang kepadamu cahaya dari Allah, dan Kitab) yang menjelaskan.\u201d (al-M\u0101\u2019idah/5: 15).\nDalam pengertian Alkitab, Perjanjian Baru merupakan bagian yang lebih kecil daripada Perjanjian Lama. Mereka menganggap Perjanjian Baru sebagai pemenuhan janji Perjanjian Lama. Ia bertalian dan menafsirkan perjanjian yang baru,\u2013dilambangkan dalam kehidupan dan kematian Yesus\u2013antara Tuhan dengan pengikut-pengikut Kristus. Seperti Perjanjian Lama, Perjanjian Baru juga berisi berbagai macam tulisan oleh beberapa penulis. Di antara ke-27 kitab yang ada merupakan ingatan yang dipilih mengenai kehidupan, perbuatan, dan perkataan Yesus dalam keempat Injil itu; sebuah cerita perjalanan bersejarah tahun pertama Gereja Kristen dalam Kisah Para Rasul; Surat-surat berisi nasihat, perintah, peringatan dan larangan kepada jemaat Kristiani setempat\u201314 dikaitkan kepada Paulus, satu (Orang Ibrani) barangkali suatu kesalahan, tujuh oleh penulis-penulis lain; dan sebuah deskripsi apokalips (dari kata Yunani, wahyu, biasanya dialamatkan kepada Kitab Wahyu oleh Yohanes yang masih diragukan kebenarannya) mengenai adanya campur tangan Tuhan dalam sejarah, dan Kitab Wahyu. \nKitab-kitab itu dalam Perjanjian Baru tidak disusun secara kronologis. Misalnya Surat-surat Paulus, yang berisi masalah-masalah yang mendesak mengenai gereja-gereja lokal tak lama setelah kematian Yesus, dipandang sebagai teks tertua. Sebaliknya, kitab-kitab itu disusun dalam cerita yang lebih logis, Injil-Injil itu menceritakan kehidupan Yesus dan ajaran-ajarannya; Kisah Para Rasul menguraikan secara terinci usaha pengikut-pengikut Kristus dalam menyebarkan kepercayaan Kristiani; Surat-surat itu mengajarkan makna dan pengertian kepercayaan; dan Kitab Wahyu meramalkan peristiwa-peristiwa masa depan dan puncak tujuan beragama. Kedudukan Perjanjian Baru di tengah-tengah masyarakat Kristiani adalah suatu faktor yang membuat biografi Yesus atau sejarah gereja abad pertama itu jadi sulit dan mustahil. Kitab-kitab dalam Perjanjian Baru disusun bukan untuk mengetahui sejarah mengenai peristiwa-peristiwa yang mereka ceritakan, tetapi untuk menjadi saksi atas kepercayaan akan adanya tangan Tuhan dalam segala peristiwa itu. Sejarah Perjanjian Baru menjadi sulit karena rentang waktu yang relatif pendek yang tercakup dalam kitab-kitab itu dibandingkan dengan seribu tahun atau lebih sejarah seperti yang diuraikan dalam Perjanjian Lama. Informasi sejarah yang terdapat dalam Perjanjian Baru lebih sedikit daripada yang ada dalam Perjanjian Lama, dan banyak fakta sejarah mengenai gereja pada abad pertama itu yang harus dicapai dengan kesimpulan dari pernyataan-pernyataan dalam salah satu kitab Injil atau Surat-surat. Demikian Encyclopedia Britannica.",
        "sabab_nuzul": null,
        "conclusion": "1.\tSifat-sifat para sahabat Rasul yang digambarkan dalam Taurat dan Injil adalah: pertama, keras dan tegas terhadap orang kafir dan lemah-lembut terhadap sesama mereka; dan kedua, di wajah mereka tergambar tanda-tanda ketakwaan, kekhusukan dan keikhlasan.\n2.\tSifat mereka bagaikan sebuah biji yang tumbuh dan berkembang menjadi pohon yang rindang dan kukuh dalam waktu yang sangat singkat.\n3.\tAllah menyediakan pahala dan surga bagi orang-orang yang beriman.\n4.\tHendaklah kaum Muslimin menjadi umat yang kuat yang disegani umat yang lain."
    }
}