{
    "id": 4605,
    "surah_id": 48,
    "ayah": 22,
    "page": 513,
    "quarter_hizb": 52,
    "juz": 26,
    "manzil": 6,
    "arabic": "\u0648\u064e\u0644\u064e\u0648\u0652 \u0642\u064e\u0627\u062a\u064e\u0644\u064e\u0643\u064f\u0645\u064f \u0627\u0644\u0651\u064e\u0630\u0650\u064a\u0652\u0646\u064e \u0643\u064e\u0641\u064e\u0631\u064f\u0648\u0652\u0627 \u0644\u064e\u0648\u064e\u0644\u0651\u064e\u0648\u064f\u0627 \u0627\u0644\u0652\u0627\u064e\u062f\u0652\u0628\u064e\u0627\u0631\u064e \u062b\u064f\u0645\u0651\u064e \u0644\u064e\u0627 \u064a\u064e\u062c\u0650\u062f\u064f\u0648\u0652\u0646\u064e \u0648\u064e\u0644\u0650\u064a\u0651\u064b\u0627 \u0648\u0651\u064e\u0644\u064e\u0627 \u0646\u064e\u0635\u0650\u064a\u0652\u0631\u064b\u0627 ",
    "latin": "Wa lau q\u0101talakumul-la\u017c\u012bna kafar\u016b lawallawul-adb\u0101ra \u1e61umma l\u0101 yajid\u016bna waliyyaw wa l\u0101 na\u1e63\u012br\u0101(n).",
    "translation": " Sekiranya orang-orang yang kufur itu memerangi kamu, pastilah mereka akan berbalik melarikan diri (kalah), kemudian mereka tidak akan mendapatkan pelindung dan penolong. ",
    "no_footnote": null,
    "footnotes": null,
    "surah": {
        "id": 48,
        "arabic": " \u0627\u0644\u0641\u062a\u062d",
        "latin": "Al-Fat\u1e25",
        "transliteration": "Al-Fath",
        "translation": "Kemenangan",
        "num_ayah": 29,
        "page": 511,
        "location": "Madaniyah"
    },
    "tafsir": {
        "wajiz": "Dan sekiranya orang-orang yang kafir itu yakni kaum musyrik Mekah yang telah menandatangani perjanjian Hudaibiyah memerangi kamu, pastilah mereka akan berbalik melarikan diri karena takut kepadamu dan mereka tidak akan mendapatkan pelindung yang melindungi mereka dari kebinasaan dan penolong dapat menolong mereka dari kekalahan.",
        "tahlili": "Dalam ayat ini, Allah memberikan kabar gembira kepada kaum Muslimin bahwa sekiranya orang-orang Quraisy menyerang kaum Muslimin di Hudaibiyyah, pasti Ia akan menolong mereka, dan menghancurkan pasukan musyrikin. Allah juga menyatakan bahwa kaum Muslimin akan dapat menaklukkan Mekah dalam waktu yang dekat. Hal itu tergambar dalam firman-Nya, \u201cHai kaum Muslimin, sekiranya orang-orang Mekah memerangimu dan tidak mau menerima Perjanjian Hudaibiyyah, pastilah Kami dapat mengalahkan mereka dan mereka akan mundur dan lari tunggang-langgang, karena tidak mempunyai pembantu dan pelindung yang akan membela mereka mempertahankan diri. Tetapi kamu, hai kaum Muslimin, mempunyai pembantu dan pelindung untuk memperoleh kemenangan.\u201d",
        "intro_surah": "Surah al-Fat\u1e25 terdiri dari 29 ayat, termasuk kelompok surah Madaniyyah, diturunkan sesudah Surah al-Jumu\u2018ah.\nNama al-Fat\u1e25 (kemenangan) diambil dari kata fata\u1e25a yang terdapat pada ayat pertama surah ini. Sebagian besar dari ayat-ayat surah ini menerangkan hal-hal yang berhubungan dengan kemenangan yang dicapai Nabi Muhammad dalam peperangan.\nNabi Muhammad sangat gembira dengan turunnya ayat pertama ini. Kegembiraan beliau dinyatakan dalam sabda beliau yang diriwayatkan al-Bukh\u0101r\u012b. Beliau berkata, \u201cSesungguhnya telah diturunkan kepadaku suatu surah yang benar-benar lebih aku cintai daripada seluruh apa yang disinari matahari.\u201d Kegembiraan Nabi Muhammad itu ialah karena ayat-ayatnya menerangkan tentang kemenangan yang akan diperoleh Nabi Muhammad dalam perjuangannya dan tentang kesempurnaan nikmat Allah kepadanya.\n\nPokok-pokok Isinya:\n1. \tKeimanan:\nAllah memiliki tentara di langit dan di bumi; janji Allah kepada orang-orang mukmin ialah bahwa mereka akan mendapat ampunan dan pahala-Nya yang besar; Allah mengutus Nabi Muhammad sebagai saksi, pembawa berita gembira, dan pemberi peringatan; agama Islam akan memperoleh kemenangan dan mengungguli agama-agama lain.\n2. \tHukum-hukum:\nOrang yang pincang dan orang yang sakit dibebaskan dari kewajiban berperang.\n3. \tKisah-kisah:\nKejadian-kejadian sekitar Bai\u2018atur-Ri\u1e0dw\u0101n dan Perdamaian Hudaibiyyah.\n4. \tLain-lain:\nBerita gembira kepada Nabi Muhammad bahwa ia bersama-sama orang mukmin akan memasuki kota Mekah dengan kemenangan yang akan terlaksana setahun kemudian; sikap orang mukmin terhadap sesama mukmin dan orang kafir; sifat-sifat Nabi Muhammad dan para sahabatnya disebutkan dalam Taurat dan Injil; janji Allah bahwa orang Islam akan menguasai daerah-daerah yang belum dikuasai semasa hidup Rasulullah saw.",
        "outro_surah": null,
        "munasabah_prev_surah": "HUBUNGAN SURAH MU\u1e24AMMAD\nDENGAN SURAH AL-FAT\u1e24\n\n1. \tDalam kedua surah ini terdapat berbagai penjelasan mengenai orang- orang mukmin yang ikhlas, orang munafik, dan musyrik.\n2. \tDalam Surah Mu\u1e25ammad terdapat perintah agar manusia beriman dan menaati perintah Allah dan Rasul-Nya, sedangkan dalam Surah al-Fat\u1e25 diterangkan bahwa orang-orang mukmin yang taat itu akan memperoleh kemenangan di dunia.\n3. \tDalam Surah Mu\u1e25ammad disinggung tentang orang-orang munafik yang tidak mau berjuang dan berinfak. Dalam Surah al-Fat\u1e25 diterangkan lebih jelas tentang sikap dan sifat orang munafik.",
        "munasabah_prev_theme": "Pada ayat-ayat yang lalu diterangkan bahwa Allah telah meridai orang-orang yang ikut baiat, karena mereka melakukannya dengan iman yang kuat dan penuh keikhlasan. Maka Allah memberikan kesabaran pada hati mereka dan ketenteraman. Pada ayat-ayat berikut ini, Allah menerangkan bahwa kemenangan dan harta rampasan itu adalah bukti kebenaran Nabi Muhammad sebagai rasul Allah. Kemudian diterangkan bahwa seandainya orang-orang musyrik Mekah tidak mau menerima Perjanjian Hudaibiyyah, niscaya Allah akan membinasakan mereka. ",
        "theme_group": "JAMINAN MEMPEROLEH KEMENANGAN\nBAGI MUSLIMIN PADA MASA YANG AKAN DATANG\n",
        "kosakata": "1.\tBa\u1e6dni Makkah \u0628\u064e\u0637\u0652\u0646\u0650 \u0645\u064e\u0643\u0651\u064e\u0629\u064e (al-Fat\u1e25/48: 24)\nBa\u1e6dni (jamak: bu\u1e6d\u016bn) untuk manusia dan hewan berarti perut, lambung, dan berarti dataran rendah atau lembah untuk tempat dan daerah. Sepotong ayat, bi ba\u1e6dni Makkata berarti \u201cdi dataran rendah pusat kota Mekah.\u201d Mekah adalah kota suci bagi semua orang Arab, jauh sejak sebelum Islam, dan di kota ini terletak Ka\u2018bah. Bagian yang menjadi pusat kota dikelilingi oleh dataran tinggi atau perbukitan di sekitarnya. \n\n2.\tA\u1e93farakum \u0627\u064e\u0638\u0652\u0641\u064e\u0631\u064e\u0643\u064f\u0645\u0652 (al-Fat\u1e25/48: 24)\nUngkapan a\u1e93farakum artinya: Ia (Allah) telah memberikan kemenangan kepada kamu. Ungkapan lengkapnya ba\u2018da an a\u1e93farakum \u2018alaihim, artinya \u201csetelah Allah memenangkan kamu atas mereka.\u201d Ungkapan tersebut berhubungan dengan kemenangan kaum mukmin yang memenangkan beberapa kali peperangan sebelum Perdamaian Hudaibiyyah. Kaum kafir Mekah telah menyerang kota Medinah sebanyak tiga kali, masing-masing dengan pasukan yang kuat untuk menghancurkan Islam, tetapi setiap serangan dipukul mundur oleh kaum mukmin dengan kekalahan besar di pihak musuh. Hal tersebut diungkapkan dalam kalimat ba\u2018da an a\u1e93farakum \u2018alaihim (setelah Allah memenangkan kamu atas mereka). Namun mereka menyodorkan kalimat-kalimat perjanjian yang merendahkan martabat kaum Muslimin, walaupun itu diterima oleh Nabi demi menghindari pertumpahan darah dan kecintaan beliau kepada perdamaian. Beberapa hadis sahih menerangkan bahwa Sayyidina \u2018Umar bin Kha\u1e6d\u1e6d\u0101b secara terbuka mengemukakan sakitnya perasaan beliau waktu itu.",
        "sabab_nuzul": null,
        "conclusion": null
    }
}