{
    "id": 4621,
    "surah_id": 49,
    "ayah": 9,
    "page": 516,
    "quarter_hizb": 52.25,
    "juz": 26,
    "manzil": 6,
    "arabic": "\u0648\u064e\u0627\u0650\u0646\u0652 \u0637\u064e\u0627\u06e4\u0649\u0655\u0650\u0641\u064e\u062a\u0670\u0646\u0650 \u0645\u0650\u0646\u064e \u0627\u0644\u0652\u0645\u064f\u0624\u0652\u0645\u0650\u0646\u0650\u064a\u0652\u0646\u064e \u0627\u0642\u0652\u062a\u064e\u062a\u064e\u0644\u064f\u0648\u0652\u0627 \u0641\u064e\u0627\u064e\u0635\u0652\u0644\u0650\u062d\u064f\u0648\u0652\u0627 \u0628\u064e\u064a\u0652\u0646\u064e\u0647\u064f\u0645\u064e\u0627\u06da \u0641\u064e\u0627\u0650\u0646\u0652\u06e2 \u0628\u064e\u063a\u064e\u062a\u0652 \u0627\u0650\u062d\u0652\u062f\u0670\u0649\u0647\u064f\u0645\u064e\u0627 \u0639\u064e\u0644\u064e\u0649 \u0627\u0644\u0652\u0627\u064f\u062e\u0652\u0631\u0670\u0649 \u0641\u064e\u0642\u064e\u0627\u062a\u0650\u0644\u064f\u0648\u0627 \u0627\u0644\u0651\u064e\u062a\u0650\u064a\u0652 \u062a\u064e\u0628\u0652\u063a\u0650\u064a\u0652 \u062d\u064e\u062a\u0651\u0670\u0649 \u062a\u064e\u0641\u0650\u064a\u0652\u06e4\u0621\u064e \u0627\u0650\u0644\u0670\u0653\u0649 \u0627\u064e\u0645\u0652\u0631\u0650 \u0627\u0644\u0644\u0651\u0670\u0647\u0650 \u06d6\u0641\u064e\u0627\u0650\u0646\u0652 \u0641\u064e\u0627\u06e4\u0621\u064e\u062a\u0652 \u0641\u064e\u0627\u064e\u0635\u0652\u0644\u0650\u062d\u064f\u0648\u0652\u0627 \u0628\u064e\u064a\u0652\u0646\u064e\u0647\u064f\u0645\u064e\u0627 \u0628\u0650\u0627\u0644\u0652\u0639\u064e\u062f\u0652\u0644\u0650 \u0648\u064e\u0627\u064e\u0642\u0652\u0633\u0650\u0637\u064f\u0648\u0652\u0627 \u06d7\u0627\u0650\u0646\u0651\u064e \u0627\u0644\u0644\u0651\u0670\u0647\u064e \u064a\u064f\u062d\u0650\u0628\u0651\u064f \u0627\u0644\u0652\u0645\u064f\u0642\u0652\u0633\u0650\u0637\u0650\u064a\u0652\u0646\u064e ",
    "latin": "Wa in \u1e6d\u0101'ifat\u0101ni minal-mu'min\u012bnaqtatal\u016b fa a\u1e63li\u1e25\u016b bainahum\u0101, fa im bagat i\u1e25d\u0101hum\u0101 \u2018alal-ukhr\u0101 fa q\u0101tilul-lat\u012b tabg\u012b \u1e25att\u0101 taf\u012b'a il\u0101 amrill\u0101h(i), fa in f\u0101'at fa a\u1e63li\u1e25\u016b bainahum\u0101 bil-\u2018adli wa aqsi\u1e6d\u016b, innall\u0101ha yu\u1e25ibbul-muqsi\u1e6d\u012bn(a).",
    "translation": "Jika ada dua golongan orang-orang mukmin bertikai, damaikanlah keduanya. Jika salah satu dari keduanya berbuat aniaya terhadap (golongan) yang lain, perangilah (golongan) yang berbuat aniaya itu, sehingga golongan itu kembali kepada perintah Allah. Jika golongan itu telah kembali (kepada perintah Allah), damaikanlah keduanya dengan adil. Bersikaplah adil! Sesungguhnya Allah mencintai orang-orang yang bersikap adil.",
    "no_footnote": null,
    "footnotes": null,
    "surah": {
        "id": 49,
        "arabic": " \u0627\u0644\u062d\u062c\u0631\u0670\u062a",
        "latin": "Al-\u1e24ujur\u0101t",
        "transliteration": "Al-Hujurat",
        "translation": "Kamar-Kamar",
        "num_ayah": 18,
        "page": 515,
        "location": "Madaniyah"
    },
    "tafsir": {
        "wajiz": "Setelah Allah memperingatkan kepada orang mukmin supaya berhati-hati dalam menerima berita yang disampaikan orang fasik, maka Allah menerangkan pada ayat ini tentang apa yang bisa terjadi akibat berita itu. Misalnya pertikaian antara dua kelompok yang kadang-kadang menyebabkan peperangan. Dan apabila ada dua golongan orang-orang mukmin berperang atau bertikai satu sama lain maka damaikanlah antara keduanya dengan memberi petunjuk dan nasihat ke jalan yang benar. Jika salah satu dari keduanya, yakni golongan yang bermusuhan itu terus menerus berbuat zalim terhadap golongan yang lain, maka pera-ngilah golongan yang berbuat zalim itu, yang enggan menerima kebenar-an, sehingga golongan itu kembali kepada perintah Allah. Jika golongan itu telah kembali kepada perintah Allah, yakni menerima kebenaran maka damaikanlah antara keduanya dengan adil, sehingga terjadi hubungan baik antara keduanya, dan berlakulah adil dalam segala urusan agar putusan kamu diterima oleh semua golongan. Sungguh, Allah mencintai orang-orang yang berlaku adil dalam perbuatan mereka dan memberi balasan kepada mereka dengan balasan yang sebaik-baiknya.",
        "tahlili": "Allah menerangkan bahwa jika ada dua golongan orang mukmin berperang, maka harus diusahakan perdamaian antara kedua pihak yang bermusuhan itu dengan jalan berdamai sesuai ketentuan hukum Allah berdasarkan keadilan untuk kemaslahatan mereka yang bersangkutan. Jika setelah diusahakan perdamaian itu masih ada yang membangkang dan tetap juga berbuat aniaya terhadap golongan yang lain, maka golongan yang agresif yang berbuat aniaya itu harus diperangi sehingga mereka kembali untuk menerima hukum Allah.\nJika golongan yang membangkang itu telah tunduk dan kembali ke-pada perintah Allah, maka kedua golongan yang tadinya bermusuhan itu harus diperlakukan dengan adil dan bijaksana, penuh kesadaran sehingga tidak terulang lagi permusuhan seperti itu di masa yang akan datang. Allah memerintahkan supaya mereka tetap melakukan keadilan dalam segala urusan mereka, karena Allah menyukainya dan akan memberi pahala kepada orang-orang yang berlaku adil dalam segala urusan.",
        "intro_surah": "Surah al-\u1e24ujur\u0101t terdiri dari 18 ayat, termasuk kelompok surah Madaniyyah, diturunkan sesudah surah al-Muj\u0101dalah. Nama al-\u1e24uju-r\u0101t (kamar-kamar) diambil dari kata al-\u1e25ujur\u0101t yang terdapat pada a-yat 4 surah ini. Ayat tersebut mencela para sahabat yang memanggil Nabi Muhammad yang sedang berada di dalam kamar rumahnya ber-sama istrinya. Memanggil Nabi Muhammad dengan cara dan dalam ke-adaan yang demikian menunjukkan sifat yang kurang hormat kepada beliau dan mengganggu ketenteraman beliau.\n\nPokok-pokok Isinya:\n1. \tKeimanan:\nMasuk Islam harus disempurnakan dengan iman yang sebenar- benarnya.\n2. \tHukum-hukum:\nLarangan mengambil keputusan yang menyimpang dari ketetapan Allah dan rasul-Nya; keharusan meneliti suatu kabar yang disam-paikan oleh orang fasik; kewajiban mengadakan i\u1e63l\u0101h (damai) antara orang muslim yang bersengketa karena orang-orang Islam itu bersaudara; kewajiban mengambil tindakan terhadap golongan kaum muslim yang bertindak merugikan kepada kaum muslim yang lain; larangan mencaci, menghina, dan sebagainya; larangan berburuk sangka, bergunjing, memfitnah, dan lain-lain.\n3. \tLain-lain:\nAdab sopan santun berbicara dengan Rasulullah saw. Allah men-ciptakan manusia bersuku-suku dan berbangsa-bangsa agar satu sama lain saling mengenal; setiap manusia sama pada sisi Allah, kelebihan hanya ada pada orang-orang yang bertakwa, sifat-sifat orang-orang yang benar-benar beriman.",
        "outro_surah": null,
        "munasabah_prev_surah": "HUBUNGAN SURAH AL-FAT\u1e24 \nDENGAN SURAH AL-\u1e24UJUR\u0100T\n\nDalam surah al-Fat\u1e25 diterangkan perintah memerangi orang-orang kafir yang berniat memadamkan agama Islam dan menghancurkan kaum muslim, sedangkan dalam surah al-\u1e24ujur\u0101t disebutkan perintah mengadakan perdamaian antara dua golongan dari kaum muslim yang bersengketa, dan perintah memerangi kaum muslim yang berbuat aniaya kepada kaum muslim yang lain sampai dapat terpelihara persatuan dan kesatuan di antara kaum muslim.\nSurah al-Fat\u1e25 ditutup dengan keterangan mengenai sifat-sifat Rasulullah saw dan sahabat-sahabatnya, sedangkan surah al-\u1e24ujur\u0101t dimulai dengan bagaimana seharusnya para sahabat bergaul dengan Nabi Muhammad.",
        "munasabah_prev_theme": "Pada ayat-ayat yang lalu, Allah memberikan peringatan agar ja-ngan mudah menerima berita dari orang fasik tanpa mengecek kebenarannya lebih dahulu karena hal ini bisa menimbulkan korban dan penyesalan. Pada ayat-ayat berikut, Allah kembali menerangkan bahwa berita-berita itu mungkin membawa akibat yang buruk atau menyebabkan perpecahan dan permusuhan di antara dua golongan kaum muslim, bahkan dapat pula berakibat sampai menimbulkan pepe-rangan. \n",
        "theme_group": "CARA MENYELESAIKAN PEPERANGAN\nYANG TIMBUL DI ANTARA KAUM MUSLIM",
        "kosakata": "1.\tTaf\u012b'a il\u0101 amrill\u0101h \u062a\u064e\u0641\u0650\u064a\u0652\u0621\u064e \u0625\u0650\u0644\u064e\u0649 \u0627\u064e\u0645\u0652\u0631\u0650 \u0627\u0644\u0644\u0647\u0650   (al-\u1e24ujur\u0101t/49: 9)\nTaf\u012b'a il\u0101 amrill\u0101h artinya sehingga golongan itu telah kembali kepada perintah Allah. Kata taf\u012b'a bentuk mu\u1e0d\u0101ri\u2018 dari f\u0101'a, kata jadiannya al-fay'. Kalimat yang akar katanya ini berkisar pada arti \u201ckembali\u201d. Bayangan sesuatu pada sore hari disebut juga al-fay' karena bayangan tersebut kembali dari arah barat menuju ke arah timur. Ar-R\u0101gib al-A\u1e63fah\u0101n\u012b menjelaskan bahwa kata al-fay' ditujukan kepada arti kembali kepada sesuatu yang terpuji sebagaimana pada surah al-\u1e24ujur\u0101t ini. Harta rampasan perang tanpa ada perlawanan dari musuh disebut juga al-fay' karena harta adalah laksana bayang-bayang yang tidak abadi. Bisa juga karena Allah mengembalikan harta tersebut kepada kaum muslim. \n2.\tIkhwah \u0625\u0650\u062e\u0652\u0648\u064e\u0629 (al-\u1e24ujur\u0101t/49: 10)\nIkhwah artinya saudara, bentuk jamak dari akhun. Kata jadiannya ukhuwwah atau persaudaraan. Al-Akh adalah seorang yang menyertai orang lain dalam kelahiran, baik dari dua pihak yaitu ayah ibu, atau salah satu pihak saja atau dari hal persusuan. Istilah ini (persaudaraan) bisa untuk keluarga atau satu kabilah atau satu pekerjaan (profesi) atau lainnya. Pada ayat ini dijelaskan bahwa semua kaum mukmin adalah saudara bagi yang lainnya yang mestinya saling menyayangi dan saling membantu. Jika mereka sampai bertikai pun harus ada upaya mendamaikan mereka, karena pada dasarnya mereka adalah satu keyakinan dalam beragama. Hal itu lebih kokoh daripada persaudaraan karena keturunan. Sebab hubungan seseorang dengan orang lain jika berlandaskan  agama akan terbawa sampai ke akhirat. Sementara hubungan karena keturunan bisa terhenti sampai di dunia saja, jika keduanya mempunyai keyakinan agama yang berbeda, sebagaimana antara Nabi Muhammad dan pamannya sendiri yang bernama Ab\u016b Lahab yang kafir itu.",
        "sabab_nuzul": "Diriwayatkan oleh Qat\u0101dah bahwa ayat ini diturunkan berhubungan dengan peristiwa dua orang dari sahabat An\u1e63ar yang bersengketa tentang suatu urusan hak milik. Salah seorang dari mereka berkata bahwa ia akan mengambil haknya dari yang lain dengan paksaan. Ia mengancam demikian karena banyak pengikutnya, sedangkan yang satu lagi mengajak dia supaya minta keputusan Nabi saw. Ia tetap menolak sehingga perkaranya hampir-hampir menimbulkan perkelahian dengan tangan dan terompah, meskipun tidak sampai mempergunakan senjata tajam.",
        "conclusion": null
    }
}