{
    "id": 4641,
    "surah_id": 50,
    "ayah": 11,
    "page": 518,
    "quarter_hizb": 52.5,
    "juz": 26,
    "manzil": 7,
    "arabic": "\u0631\u0651\u0650\u0632\u0652\u0642\u064b\u0627 \u0644\u0651\u0650\u0644\u0652\u0639\u0650\u0628\u064e\u0627\u062f\u0650\u06d9 \u0648\u064e\u0627\u064e\u062d\u0652\u064a\u064e\u064a\u0652\u0646\u064e\u0627 \u0628\u0650\u0647\u0656 \u0628\u064e\u0644\u0652\u062f\u064e\u0629\u064b \u0645\u0651\u064e\u064a\u0652\u062a\u064b\u0627\u06d7  \u0643\u064e\u0630\u0670\u0644\u0650\u0643\u064e \u0627\u0644\u0652\u062e\u064f\u0631\u064f\u0648\u0652\u062c\u064f  ",
    "latin": "Rizqal lil-\u2018ib\u0101d(i), wa a\u1e25yain\u0101 bih\u012b baldatam mait\u0101(n), ka\u017c\u0101likal-khur\u016bj(u).",
    "translation": " sebagai rezeki bagi hamba-hamba (Kami). Kami hidupkan pula dengan (air) itu negeri yang mati (tandus). Seperti itulah terjadinya kebangkitan (dari kubur). ",
    "no_footnote": null,
    "footnotes": null,
    "surah": {
        "id": 50,
        "arabic": "\u0642\u06e4",
        "latin": "Q\u0101f",
        "transliteration": "Qaf",
        "translation": "Qaf",
        "num_ayah": 45,
        "page": 518,
        "location": "Makkiyah"
    },
    "tafsir": {
        "wajiz": "Itu semua Kami ciptakan sebagai rezeki bagi hamba-hamba Kami, dan Kami ingatkan bahwa Kami hidupkan dengan air itu negeri yang mati, yakni Kami hidupkan tanah yang tandus yang tidak terdapat padanya tumbuh-tumbuhan sehingga menjadi tanah yang subur dan dapat menumbuhkan bermacam-macam tanaman yang indah. Seperti itulah, kekuasaan Allah menghidupkan sesuatu yang mati, terjadinya kebangkitan manusia dari kuburnya.",
        "tahlili": "Allah menumbuhkan pohon kurma yang tinggi-tinggi yang mempunyai mayang yang bersusun-susun sebagai rezeki bagi hamba-hamba-Nya.\nDalam ayat ini Allah tidak menyebutkan bahwa rezeki itu bagi hamba-hamba-Nya yang suka mengingat Allah seperti diuraikan-Nya pada ayat kedelapan, sebab rezeki itu lebih umum. Seorang yang kembali mengingat Allah memakan rezeki itu sambil mensyukuri nikmat Allah, sedangkan yang lain memakannya seperti binatang saja, tidak ingat kepada pemberi nikmat tersebut. Allah menghidupkan bumi yang kering dan tandus setelah turun hujan dengan berbagai tanaman yang beraneka ragam. Dan seperti itu pula terjadinya kebangkitan pada hari Kiamat. Setiap petani yang selalu mengolah ladang dan sawahnya harus selalu ingat dan bersiap-siap untuk menghadapi hari kebangkitan dengan ketakwaan dan amal kebajikan.\nSurah Q\u0101f ayat 9 s.d. 11 merupakan suatu kesatuan yang menyatakan manfaat air. Banyaknya manfaat air dapat dirasakan langsung oleh manusia, mulai dari kebutuhan pokok sebagai air minum, memasak, mencuci, pertanian, pemanfatannya untuk industri dan pengolahan bahan-bahan, sampai pada sarana transportasi. Pada ayat tersebut di atas dinyatakan bahwa dengan kehendak Allah lah air turun ke permukaan bumi dalam bentuk hujan. Contoh manfaat ditekankan pada peran air pada pertumbuhan tanaman. Semua tumbuhan, termasuk sumber pangan manusia, baik tumbuhan rendah seperti biji-bijian (bisa dimasukkan ke dalamnya perdu, rerumputan, jamur, lumut, ganggang dan bahkan bakteri) maupun pohon-pohonan yang besar seperti halnya kurma, memerlukan air untuk pertumbuhannya. Ayat-ayat tersebut di atas seolah mengatakan bahwa melalui daur air, Allah memberikan rezeki bagi makhluk ciptaan-Nya. Hanya dengan keberadaan air, tanah akan dapat menjadi media tumbuh bagi tanaman di atasnya. Maka tanah yang tandus pun apabila diberikan air akan dapat ditumbuhi. Proses pertumbuhan tanaman pada tanah tandus yang mendapatkan air sering dipakai untuk menggambarkan kejadian kebangkitan manusia di alam akhirat (lihat: Y\u016bnus/10: 24, Fu\u1e61\u1e61ilat/41: 39, az-Zukhruf/43: 11) \n",
        "intro_surah": "Surah Q\u0101f terdiri dari 45 ayat, termasuk kelompok surah Makkiyyah, diturunkan sesudah Surah al-Mursal\u0101t. Dinamai Q\u0101f karena surah ini dimulai dengan huruf Q\u0101f.\nDiterangkan dalam hadis yang diriwayatkan Imam Muslim, bahwa Rasulullah saw senang membaca surah ini pada rakaat pertama salat Subuh dan pada salat hari raya, sedangkan menurut Ab\u016b D\u0101wud, al-Baihaq\u012b, dan Ibnu M\u0101jah, Rasulullah membaca surah ini tiap-tiap membacakan khotbah pada hari Jumat.\nKedua riwayat ini menunjukkan bahwa surah Q\u0101f sering dibaca Nabi Mu-hammad di tempat-tempat umum untuk memperingatkan manusia tentang kejadian mereka dan nikmat-nikmat yang diberikan kepadanya. Begitu pula tentang hari kebangkitan, hari perhitungan, surga, neraka, pahala, dosa dan sebagainya.\nSurah ini juga dinamai al-B\u0101siq\u0101t, diambil dari kata al-b\u0101siq\u0101t yang terdapat pada ayat 10 surah ini.\n\nPokok-pokok Isinya:\n1.\tKeimanan:\nSetiap manusia pada hari Kiamat akan hadir di Padang Mahsyar diiringi oleh dua orang malaikat, yang seorang sebagai pengiringnya dan seorang lagi sebagai saksi atas segala perbuatannya di dunia; kebangkitan manusia dari kubur digambarkan sebagai tanah yang kering setelah disirami hujan hidup kembali; Allah lebih dekat kepada manusia daripada urat lehernya sendiri; tiap-tiap manusia didampingi oleh malaikat Raq\u012bb dan \u2018At\u012bd di kanan-kirinya yang selalu mencatat segala perbuatannya; Allah menciptakan langit dan bumi dan apa yang ada di antara keduanya dalam enam masa.\n2.\tHukum-hukum:\nAnjuran bertasbih dan bertahmid kepada Tuhan pada waktu-waktu malam sebelum terbit dan terbenam matahari dan sesudah mengerjakan salat. Perintah Allah kepada rasul-Nya agar memberikan peringatan dengan ayat-ayat Al-Qur\u2019an kepada orang yang beriman; anjuran memperhatikan kejadian langit dan bumi.\n3.\tLain-lain:\nKeingkaran orang-orang musyrik terhadap kenabian dan hari kebangkit-an, bujukan kepada Nabi Muhammad agar tidak berputus asa dalam menghadapi keingkaran orang-orang kafir Mekah karena para rasul dahulu juga menghadapi keingkaran kaumnya masing-masing. Al-Qur\u2019an adalah sebagai peringatan bagi orang-orang yang takut kepada ancaman Allah.",
        "outro_surah": null,
        "munasabah_prev_surah": "HUBUNGAN SURAH AL-\u1e24UJUR\u0100T\nDENGAN SURAH Q\u0100F\n\n1. \tPada akhir surah al-\u1e24ujur\u0101t disebutkan bagaimana keimanan orang-orang Badui, yang sebenarnya mereka belum beriman. Hal ini dapat membawa kepada mereka bertambahnya iman mereka dan dapat pula menjadikan mereka orang yang mengingkari kenabian dan hari kebang-kitan, sedang pada awal surah Q\u0101f disebutkan beberapa sifat orang kafir yang mengingkari kenabian dan hari kebangkitan.\n2. \tSurah al-\u1e24ujur\u0101t telah banyak menguraikan soal-soal duniawi, sedang surah Q\u0101f lebih banyak menguraikan masalah akhirat.",
        "munasabah_prev_theme": "Pada ayat-ayat yang lalu, Allah menerangkan keingkaran orang-orang kafir terhadap adanya hari kebangkitan. Pada ayat-ayat berikut ini, Allah mengemukakan dalil-dalil yang nyata yang tidak dapat dibantah lagi oleh mereka, yaitu kejadian alam yang menunjukkan kebenaran adanya hari Kiamat.\n",
        "theme_group": "BERBAGAI KEJADIAN ALAM PERTANDA\nKEBENARAN HARI KEBANGKITAN\n",
        "kosakata": "Kosakata: \u2018Abdun Mun\u012bb \u0639\u064e\u0628\u0652\u062f\u064c \u0645\u064f\u0646\u0650\u064a\u0652\u0628 (Q\u0100f/50: 8)\nSecara kebahasaan kata \u2018abdun mun\u012bb terdiri dari dua kata, yaitu kata \u2018abd dan mun\u012bb. Kata \u2018abd secara etimologi berarti seorang hamba atau pengabdi. Sedangkan kata mun\u012bb merupakan isim f\u0101\u2018il (subjek) dari derivasi kata an\u0101ba-yun\u012bbu yang berarti yang kembali. Dengan demikian, kata \u2018abdun mun\u012bb yang berada pada surah Q\u0101f ayat 8 tersebut bermakna, \u201cSeorang hamba yang kembali (tunduk dan berpikir akan kekuasaan Allah).\u201d Maksudnya, kejadian-kejadian di dunia ini dapat menjadi bukti nyata akan kebenaran datangnya hari kebangkitan, dan bukti-bukti nyata tersebut akan dimengerti hanya oleh orang-orang yang kembali mengingat Allah dan mempunyai kesadaran berpikir yang tinggi akan kekuasaan Allah. ",
        "sabab_nuzul": null,
        "conclusion": "1.\tAllah memerintahkan kepada manusia agar sering melihat ke langit untuk dijadikan bahan pemikiran tentang kekuasaan Allah dan adanya hari kebangkitan.\n2.\tBumi dengan segala isinya yang indah harus dijadikan pelajaran dan peringatan bagi tiap-tiap hamba yang kembali mengingat Allah.\n3.\tAllah menghidupkan bumi yang kering dengan air hujan sehingga bumi penuh dengan tanaman dan buah-buahan sebagai rezeki bagi manusia dan seperti itu pula nanti akan terjadinya hari kebangkitan.\n4.\tOrang yang kembali dan bertobat kepada Allah mempunyai keutamaan dalam pandangan Allah."
    }
}