{
    "id": 4665,
    "surah_id": 50,
    "ayah": 35,
    "page": 519,
    "quarter_hizb": 52.75,
    "juz": 26,
    "manzil": 7,
    "arabic": "\u0644\u064e\u0647\u064f\u0645\u0652 \u0645\u0651\u064e\u0627 \u064a\u064e\u0634\u064e\u0627\u06e4\u0621\u064f\u0648\u0652\u0646\u064e \u0641\u0650\u064a\u0652\u0647\u064e\u0627 \u0648\u064e\u0644\u064e\u062f\u064e\u064a\u0652\u0646\u064e\u0627 \u0645\u064e\u0632\u0650\u064a\u0652\u062f\u064c ",
    "latin": "Lahum m\u0101 yasy\u0101'\u016bna f\u012bh\u0101 wa ladain\u0101 maz\u012bd(un).",
    "translation": "Mereka di dalamnya memperoleh apa yang mereka kehendaki dan pada Kami masih ada lagi tambahan (nikmat).",
    "no_footnote": null,
    "footnotes": null,
    "surah": {
        "id": 50,
        "arabic": "\u0642\u06e4",
        "latin": "Q\u0101f",
        "transliteration": "Qaf",
        "translation": "Qaf",
        "num_ayah": 45,
        "page": 518,
        "location": "Makkiyah"
    },
    "tafsir": {
        "wajiz": "Mereka di dalamnya, yakni di dalam surga, memperoleh apa yang me-reka kehendaki, berupa segala macam kenikmatan dan pada Kami ada tambahannya, kenikmatan yang tidak ada taranya yang tidak pernah terlintas oleh pikiran.",
        "tahlili": "Ayat ini mengungkapkan bahwa bagi mereka di dalam surga itu disediakan kenikmatan apa saja yang mereka ingini, kenikmatan yang belum pernah mereka lihat dengan mata, belum pernah mereka dengar dengan telinga dan belum pernah mereka bayangkan dalam hati, dan di samping kenikmatan yang tidak terkira itu, ada lagi tambahan dari Allah yaitu dapat melihat wajah Allah yang merupakan puncak dari segala kenikmatan seperti dalam firman-Nya:\n\u0644\u0650\u0644\u0651\u064e\u0630\u0650\u064a\u0652\u0646\u064e \u0627\u064e\u062d\u0652\u0633\u064e\u0646\u064f\u0648\u0627 \u0627\u0644\u0652\u062d\u064f\u0633\u0652\u0646\u0670\u0649 \u0648\u064e\u0632\u0650\u064a\u064e\u0627\u062f\u064e\u0629\u064c\nBagi orang-orang yang berbuat baik, ada pahala yang terbaik (surga) dan tambahannya (kenikmatan melihat Allah). (Y\u016bnus/10: 26)\n",
        "intro_surah": "Surah Q\u0101f terdiri dari 45 ayat, termasuk kelompok surah Makkiyyah, diturunkan sesudah Surah al-Mursal\u0101t. Dinamai Q\u0101f karena surah ini dimulai dengan huruf Q\u0101f.\nDiterangkan dalam hadis yang diriwayatkan Imam Muslim, bahwa Rasulullah saw senang membaca surah ini pada rakaat pertama salat Subuh dan pada salat hari raya, sedangkan menurut Ab\u016b D\u0101wud, al-Baihaq\u012b, dan Ibnu M\u0101jah, Rasulullah membaca surah ini tiap-tiap membacakan khotbah pada hari Jumat.\nKedua riwayat ini menunjukkan bahwa surah Q\u0101f sering dibaca Nabi Mu-hammad di tempat-tempat umum untuk memperingatkan manusia tentang kejadian mereka dan nikmat-nikmat yang diberikan kepadanya. Begitu pula tentang hari kebangkitan, hari perhitungan, surga, neraka, pahala, dosa dan sebagainya.\nSurah ini juga dinamai al-B\u0101siq\u0101t, diambil dari kata al-b\u0101siq\u0101t yang terdapat pada ayat 10 surah ini.\n\nPokok-pokok Isinya:\n1.\tKeimanan:\nSetiap manusia pada hari Kiamat akan hadir di Padang Mahsyar diiringi oleh dua orang malaikat, yang seorang sebagai pengiringnya dan seorang lagi sebagai saksi atas segala perbuatannya di dunia; kebangkitan manusia dari kubur digambarkan sebagai tanah yang kering setelah disirami hujan hidup kembali; Allah lebih dekat kepada manusia daripada urat lehernya sendiri; tiap-tiap manusia didampingi oleh malaikat Raq\u012bb dan \u2018At\u012bd di kanan-kirinya yang selalu mencatat segala perbuatannya; Allah menciptakan langit dan bumi dan apa yang ada di antara keduanya dalam enam masa.\n2.\tHukum-hukum:\nAnjuran bertasbih dan bertahmid kepada Tuhan pada waktu-waktu malam sebelum terbit dan terbenam matahari dan sesudah mengerjakan salat. Perintah Allah kepada rasul-Nya agar memberikan peringatan dengan ayat-ayat Al-Qur\u2019an kepada orang yang beriman; anjuran memperhatikan kejadian langit dan bumi.\n3.\tLain-lain:\nKeingkaran orang-orang musyrik terhadap kenabian dan hari kebangkit-an, bujukan kepada Nabi Muhammad agar tidak berputus asa dalam menghadapi keingkaran orang-orang kafir Mekah karena para rasul dahulu juga menghadapi keingkaran kaumnya masing-masing. Al-Qur\u2019an adalah sebagai peringatan bagi orang-orang yang takut kepada ancaman Allah.",
        "outro_surah": null,
        "munasabah_prev_surah": "HUBUNGAN SURAH AL-\u1e24UJUR\u0100T\nDENGAN SURAH Q\u0100F\n\n1. \tPada akhir surah al-\u1e24ujur\u0101t disebutkan bagaimana keimanan orang-orang Badui, yang sebenarnya mereka belum beriman. Hal ini dapat membawa kepada mereka bertambahnya iman mereka dan dapat pula menjadikan mereka orang yang mengingkari kenabian dan hari kebang-kitan, sedang pada awal surah Q\u0101f disebutkan beberapa sifat orang kafir yang mengingkari kenabian dan hari kebangkitan.\n2. \tSurah al-\u1e24ujur\u0101t telah banyak menguraikan soal-soal duniawi, sedang surah Q\u0101f lebih banyak menguraikan masalah akhirat.",
        "munasabah_prev_theme": "Pada ayat-ayat yang lalu, Allah menerangkan pertengkaran antara setan dan orang yang disesatkannya, Allah swt melarang mereka melakukan per-tengkaran itu karena sama sekali tidak ada faedahnya sebab mereka di dunia telah cukup diberi peringatan. Pada ayat-ayat berikut ini, Allah men-jelaskan hal ihwal kaum mukminin yang bertakwa, sesuai dengan sunat-ullah dan sunah para rasul dan dalam menyampaikan seruan agama itu selalu mempergunakan dua cara, yaitu targ\u012bb dan tarh\u012bb, kabar gembira dan peringatan yang menakutkan atau sebaliknya.",
        "theme_group": "BALASAN TERHADAP AMAL BAIK ",
        "kosakata": "1.\tWa Uzlifat \u0648\u064e\u0623\u064f\u0632\u0652\u0644\u0650\u0641\u064e\u062a\u0652 (Q\u0101f/50: 31)\nKata uzlifat adalah fi\u2018il m\u0101\u1e0d\u012b (kata kerja lampau) yang mengikuti pola majh\u016bl (pasif). Pola aktifnya adalah azlafa-yuzlifu. Kata azlafa terbentuk dari kata zalafa yang berarti maju dan mendekat. Lalu kata ini ditambah hamzah qa\u1e6d\u2018i di awal menjadi azlafa. Penambahan ini mengubahnya dari intransitif menjadi transitif (membutuhkan objek), dan artinya adalah mendekatkan. Darinya diambil kata zulfah yang berarti kedudukan. Darinya diambil kata zulafan yang berarti bagian permulaan, sebagaimana dalam firman Allah, \u201cDan dirikanlah salat itu pada kedua tepi siang (pagi dan petang) dan pada bagian permulaan malam.\u201d (H\u016bd/11: 114) Maksud kata uzlifat di sini adalah didekatkan. \n2.\tBi-qalbin Mun\u012bbin \u0628\u0650\u0642\u064e\u0644\u0652\u0628\u064d \u0645\u064f\u0646\u0650\u064a\u0652\u0628\u064d (Q\u0101f/50: 33)\nKata qalb berarti hati, sedangkan kata mun\u012bb adalah isim f\u0101\u2018il dari kata an\u0101ba-yun\u012bbu-in\u0101batan. Kata dasarnya adalah n\u0101ba-yan\u016bbu-nauban yang memiliki beberapa akar makna, yaitu turun atau terjadi, kembali, dan menggantikan. Kata naibah berarti berbagai kebutuhan dan kejadian yang terjadi pada manusia. Hujan yang lebat disebut al-mun\u012bb. Lebah juga disebut an-n\u016bbu karena ia selalu kembali ke sarangnya. Kalimat n\u0101ban\u012b ful\u0101n berarti fulan menggantikan kedudukanku. Dan yang menjadi akar makna dari kata mun\u012bb di sini adalah kembali. Di dalam Al-Qur\u2019an kata an\u0101ba dengan berbagai bentuk derivasinya disebut sebanyak delapan belas kali, dan keseluruhannya bermakna \u2018kembali kepada Allah dengan bertobat\u2019. ",
        "sabab_nuzul": null,
        "conclusion": "1.\tDi Padang Mahsyar surga didekatkan kepada orang-orang yang bertakwa sehingga mereka dapat melihatnya.\n2.\tMereka mendapat sambutan yang penuh penghormatan dari para malaikat.\n3.\tSifat-sifat orang yang akan masuk surga itu ialah selalu bertobat kepada Allah, memelihara batas-batas peraturan agama-Nya, takut kepada Allah yang tidak terlihat oleh mata, menghadap kepada-Nya dengan hati yang tunduk dan bertobat.\n4.\tPara malaikat mempersilakan mereka masuk surga untuk menjadi tem-pat kediaman yang kekal abadi, penuh dengan kenikmatan yang mereka inginkan dan kenikmatan tambahan yaitu melihat Allah."
    }
}