{
    "id": 4730,
    "surah_id": 51,
    "ayah": 55,
    "page": 523,
    "quarter_hizb": 53,
    "juz": 27,
    "manzil": 7,
    "arabic": "\u0648\u064e\u0630\u064e\u0643\u0651\u0650\u0631\u0652 \u0641\u064e\u0627\u0650\u0646\u0651\u064e \u0627\u0644\u0630\u0651\u0650\u0643\u0652\u0631\u0670\u0649 \u062a\u064e\u0646\u0652\u0641\u064e\u0639\u064f \u0627\u0644\u0652\u0645\u064f\u0624\u0652\u0645\u0650\u0646\u0650\u064a\u0652\u0646\u064e ",
    "latin": "Wa \u017cakkir fa inna\u017c-\u017cikra  tanfa\u2018ul-mu'min\u012bn(a).",
    "translation": "Teruslah memberi peringatan karena sesungguhnya peringatan itu bermanfaat bagi orang-orang mukmin.",
    "no_footnote": null,
    "footnotes": null,
    "surah": {
        "id": 51,
        "arabic": " \u0627\u0644\u0630\u0651\u0670\u0631\u064a\u0670\u062a",
        "latin": "A\u017c-\u017b\u0101riy\u0101t",
        "transliteration": "Az-Zariyat",
        "translation": "Yang Menerbangkan",
        "num_ayah": 60,
        "page": 520,
        "location": "Makkiyah"
    },
    "tafsir": {
        "wajiz": "Wahai Nabi Muhammad, dengan anugerah Allah, istikamahlah dalam dakwahmu dan tetaplah memberi peringatan kepada umatmu. Kalau orang-orang kafir itu tidak memperoleh faedah dari dakwahmu akibat penolakan mereka, jangan berputus asa karena sesungguhnya peringatan itu bermanfaat bagi orang-orang mukmin dan hal itu akan selalu menambah keyakinan mereka.",
        "tahlili": "Ayat ini memerintahkan kepada Muhammad saw agar tetap memberikan peringatan dan nasihat, karena peringatan dan nasihat itu akan bermanfaat bagi orang yang hatinya siap menerima petunjuk.\nDiriwayatkan oleh Ibnu Jar\u012br, Ibnu Ab\u012b \u1e24\u0101tim, dan Baihaqi bahwa 'Ali bin Ab\u012b \u1e6c\u0101lib berkata, \u201cSetelah diturunkan ayat 54 tersebut yaitu tatkala Allah memerintahkan kepada Nabi Muhammad saw untuk memalingkan diri, maka setiap orang menyangka akan datang malapetaka yang akan menimpa. Maka turunlah ayat 55 ini, dan legalah perasaan dan lapanglah dada kami.",
        "intro_surah": "Surah a\u017c-\u017b\u0101riy\u0101t terdiri dari 60 ayat, termasuk kelompok surah Makkiyyah, diturunkan sesudah Surah al-A\u1e25q\u0101f.\nNama a\u017c-\u017b\u0101riy\u0101t diambil dari kata a\u017c-\u017c\u0101riy\u0101t yang terdapat pada ayat pertama surah ini. Allah bersumpah dengan angin, mega, bahtera, dan malaikat, yang menjadi sumber kesejahteraan dan pembawa kemakmuran. Hal ini mengisyaratkan inayah Allah kepada hamba-hamba-Nya.\n\nPokok-pokok Isinya:\n1.\tKeimanan:\nBagaimana keadaan orang-orang yang beriman di dalam surga sebagai balasan atas ketaatan dan ketakwaan mereka; manusia dan jin diciptakan Allah untuk beribadah kepada-Nya; Allah sebagai Maha Pemberi rezeki; neraka sebagai balasan bagi orang-orang kafir.\n2.\tHukum-hukum:\nLarangan mempersekutukan Allah dengan suatu apa pun; perintah berpaling dari orang-orang musyrik yang berkepala batu dan memberi-kan peringatan dan pelajaran kepada orang-orang mukmin; pada harta kekayaan seseorang terdapat hak orang miskin.\n3.\tKisah-kisah:\nIbrahim dengan malaikat yang datang ke rumahnya; Musa dengan Fir\u2018aun; kaum \u2018Ad dan Samud; Nuh dengan kaumnya.\n4.\tLain-lain:\nSegala sesuatu diciptakan Allah berpasang-pasangan; pada diri manusia sendiri terdapat tanda-tanda kebesaran Allah.",
        "outro_surah": null,
        "munasabah_prev_surah": "1. \tDalam Surah Q\u0101f disebutkan hal-hal mengenai hari kebangkitan, pem-balasan, surga dan neraka, sedangkan Surah a\u017c-\u017b\u0101riy\u0101t dimulai dengan menerangkan bahwa semua itu adalah benar dan pembalasan pada hari Kiamat itu benar-benar akan terlaksana.\n2. \tDalam Surah Q\u0101f disebutkan secara sepintas lalu tentang pembinasaan umat-umat dahulu yang mendustakan rasul-rasul, sedangkan dalam Surah a\u017c-\u017b\u0101riy\u0101t diterangkan juga kepada mereka, tetapi dengan agak terperinci.",
        "munasabah_prev_theme": "Dalam ayat yang lalu Allah swt menerangkan bahwa orang-orang yang mempersekutukan Tuhan, mereka saling berselisih, terpecah-pecah, serta tidak sependapat antara yang satu dengan yang lainnya, ketika mereka berkata bahwa pencipta langit dan bumi adalah Allah swt, akan tetapi nyatanya mereka menyembah patung dan berhala. Sebagian lagi dari mereka berkata bahwa Muhamamad saw itu seorang tukang sihir. Pada ayat berikut ini Allah swt mengungkapkan bahwa perbuatan orang kafir Mekah itu bukanlah suatu yang baru. Umat-umat sebelum mereka juga telah mendustakan nabi-nabi yang diutus kepada mereka. Maka sepantasnyalah mereka itu mendapat azab Tuhan seperti kaum Nuh, kaum Syuaib dan kaum Saleh. ",
        "theme_group": "SIKAP UMAT DAHULU KEPADA PARA RASUL",
        "kosakata": "Kosakata:\n1.\tBimal\u016bmin  \u0628\u0650\u0645\u064e\u0644\u064f\u0648\u0652\u0645\u064d (a\u017c-\u017b\u0101riy\u0101t/51: 54)\nBimal\u016bm terbentuk dari dua kata yaitu bi sebagai \u1e25arful-jarr dan mal\u016bm yang berasal dari kata l\u0101ma-yal\u016bmu-laum yang berarti mencela manusia dengan menyebutkan sesuatu yang menyakitkan. Sebagian mengartikan dengan perasaan bersalah yang menghinggapi diri seseorang. Nafsul Laww\u0101mah diartikan dengan jiwa manusia yang memiliki keutamaan, disebut laww\u0101mah karena dia akan merasa bersalah jika melakukan sesuatu yang dibenci. Jadi kalimat laum digunakan pada sesuatu yang tercela atau merasa tercela. \nDalam konteks ayat ini, Allah menjelaskan kepada Nabi Muhammad agar berpaling dari kaum kafir Mekah karena sesungguhnya beliau tidak tercela atau bersalah. Sesudah kaum kafir menyatakan penolakan terhadap dakwah Muhammad saw dan bahkan mengatakan bahwa Muhammad adalah seorang pesihir atau seorang yang gila. Apakah orang-orang kafir generasi lalu bersama orang kafir Mekah saling berpesan tentang apa yang dikatakan itu menyangkut rasul yang diutus Allah kepada mereka? Tidak, sekali-kali mereka tidak saling berpesan, tetapi sebenarnya mereka adalah kaum yang melampui batas. Untuk itu, berpalinglah wahai Muhammad dari mereka dan jangan hiraukan ucapan dan perangai mereka yang buruk, tetapi lanjutkan dakwahmu karena sedikit pun engkau tidak bersalah se-hingga tidak tercela karena penolakan mereka. \n2.\t\u017ban\u016bban \u0630\u064e\u0646\u064f\u0648\u0652\u0628\u064b\u0627 (a\u017c-\u017b\u0101riyat/51: 59).\n\u017ban\u016bban dalam Al-Qur\u2019an disebutkan dua kali, yaitu dalam ayat ini. Ia merupakan isim mufrad (tunggal). Jamaknya \u017can\u0101'ib bisa juga a\u017cnibah. Kalau a\u017c-\u017cun\u016bb dengan timbangan (wazan) fu\u2018\u016bl, artinya dosa-dosa. Kata \u017can\u016bban dengan wazan fa\u2018\u016bl, artinya al-ha\u1e93\u1e93 atau an-na\u1e63\u012bb (bagian yang harus diterima). Yang dimaksud disini ialah na\u1e63\u012bban minal-\u2018a\u017c\u0101b (bagian dari azab). Dalam penuturan orang Arab, menurut Al-Farr\u0101', a\u017c-\u017can\u016bb artinya ad-dalwul-\u2018a\u1e93\u012bm (kejadian atau malapetaka yang besar). Maka dalam tafsir dike-mukakan, \u201cBagi orang-orang zalim benar-benar akan ada bagian siksa yang besar sebagaimana hal itu diberikan kepada orang-orang sebelum mereka).\u201d Hal itu seperti pernah terjadi pada kaum Nabi Nuh dan lain-lain.",
        "sabab_nuzul": null,
        "conclusion": null
    }
}