{
    "id": 4696,
    "surah_id": 51,
    "ayah": 21,
    "page": 521,
    "quarter_hizb": 52.75,
    "juz": 26,
    "manzil": 7,
    "arabic": "\u0648\u064e\u0641\u0650\u064a\u0652\u0653 \u0627\u064e\u0646\u0652\u0641\u064f\u0633\u0650\u0643\u064f\u0645\u0652 \u06d7 \u0627\u064e\u0641\u064e\u0644\u064e\u0627 \u062a\u064f\u0628\u0652\u0635\u0650\u0631\u064f\u0648\u0652\u0646\u064e ",
    "latin": "Wa f\u012b anfusikum, afal\u0101 tub\u1e63ir\u016bn(a).",
    "translation": " (Begitu juga ada tanda-tanda kebesaran-Nya) pada dirimu sendiri. Maka, apakah kamu tidak memperhatikan?",
    "no_footnote": null,
    "footnotes": null,
    "surah": {
        "id": 51,
        "arabic": " \u0627\u0644\u0630\u0651\u0670\u0631\u064a\u0670\u062a",
        "latin": "A\u017c-\u017b\u0101riy\u0101t",
        "transliteration": "Az-Zariyat",
        "translation": "Yang Menerbangkan",
        "num_ayah": 60,
        "page": 520,
        "location": "Makkiyah"
    },
    "tafsir": {
        "wajiz": "dan di samping itu, sesungguhnya keagungan Allah juga banyak ditemukan pada dirimu sendiri. Sesudah dipahami semua tanda-tanda itu, maka apakah kamu tetap lalai dan tidak memperhatikan semua yang dapat disaksikan itu?",
        "tahlili": "Ayat ini mengisyaratkan kepada manusia bahwa pada diri manusia terdapat bukti-bukti kekuasaan dan kebesaran Allah seperti perbedaan kemampuan, perbedaan bahasa, kecerdasan dan banyak macamnya anggota tubuh yang masing-masing mempunyai fungsi sendiri-sendiri.",
        "intro_surah": "Surah a\u017c-\u017b\u0101riy\u0101t terdiri dari 60 ayat, termasuk kelompok surah Makkiyyah, diturunkan sesudah Surah al-A\u1e25q\u0101f.\nNama a\u017c-\u017b\u0101riy\u0101t diambil dari kata a\u017c-\u017c\u0101riy\u0101t yang terdapat pada ayat pertama surah ini. Allah bersumpah dengan angin, mega, bahtera, dan malaikat, yang menjadi sumber kesejahteraan dan pembawa kemakmuran. Hal ini mengisyaratkan inayah Allah kepada hamba-hamba-Nya.\n\nPokok-pokok Isinya:\n1.\tKeimanan:\nBagaimana keadaan orang-orang yang beriman di dalam surga sebagai balasan atas ketaatan dan ketakwaan mereka; manusia dan jin diciptakan Allah untuk beribadah kepada-Nya; Allah sebagai Maha Pemberi rezeki; neraka sebagai balasan bagi orang-orang kafir.\n2.\tHukum-hukum:\nLarangan mempersekutukan Allah dengan suatu apa pun; perintah berpaling dari orang-orang musyrik yang berkepala batu dan memberi-kan peringatan dan pelajaran kepada orang-orang mukmin; pada harta kekayaan seseorang terdapat hak orang miskin.\n3.\tKisah-kisah:\nIbrahim dengan malaikat yang datang ke rumahnya; Musa dengan Fir\u2018aun; kaum \u2018Ad dan Samud; Nuh dengan kaumnya.\n4.\tLain-lain:\nSegala sesuatu diciptakan Allah berpasang-pasangan; pada diri manusia sendiri terdapat tanda-tanda kebesaran Allah.",
        "outro_surah": null,
        "munasabah_prev_surah": "1. \tDalam Surah Q\u0101f disebutkan hal-hal mengenai hari kebangkitan, pem-balasan, surga dan neraka, sedangkan Surah a\u017c-\u017b\u0101riy\u0101t dimulai dengan menerangkan bahwa semua itu adalah benar dan pembalasan pada hari Kiamat itu benar-benar akan terlaksana.\n2. \tDalam Surah Q\u0101f disebutkan secara sepintas lalu tentang pembinasaan umat-umat dahulu yang mendustakan rasul-rasul, sedangkan dalam Surah a\u017c-\u017b\u0101riy\u0101t diterangkan juga kepada mereka, tetapi dengan agak terperinci.",
        "munasabah_prev_theme": "Pada ayat-ayat yang lalu Allah swt menjelaskan keadaan orang kafir yang mengingkari hari kebangkitan, kerasulan Muhammad saw. Dalam ayat-ayat berikut ini, Allah swt menerangkan hal ihwal orang-orang yang bertakwa dan berbagai kenikmatan yang mereka jumpai dalam surga sebagai imbalan dan pahala dari Allah swt atas kebajikan dan amal saleh mereka ketika di dunia, ketekunan mereka mengerjakan salat Tahajud pada malam hari, mohon ampunan pada waktu sahur, pemberian harta sebagai sumbangan atau zakat kepada fakir miskin, tafakur mereka tentang kosmos yang menjadi tanda-tanda kekuasaan dan kesempurnaan Allah, penciptanya.",
        "theme_group": "BALASAN BAGI ORANG YANG BERTAKWA",
        "kosakata": "Kosakata:\n1.\tYahja\u2018\u016bn \u064a\u064e\u0647\u0652\u062c\u064e\u0639\u064f\u0648\u0652\u0646 (a\u017c-\u017b\u0101riy\u0101t/51: 17) \nAkar kata yang terdiri dari ha'-jim-\u2018ain menunjukkan arti \u201ctidur pada malam hari.\u201d Ayat ini menjelaskan tentang sifat orang yang bertakwa, yaitu mereka yang sedikit tidur di malam hari. Selebihnya untuk beribadah kepada Allah. Sebagian mufasir mengartikan ayat ini bahwa mereka (muttaq\u012bn) selalu menyisihkan waktu malam untuk melaksanakan salat, baik di awal malam atau di pertengahannya. \n2.\tAl-Ma\u1e25r\u016bm \u0627\u0644\u0652\u0645\u064e\u062d\u0652\u0631\u064f\u0648\u0652\u0645 (a\u017c-\u017b\u0101riy\u0101t/51: 19) \nAkar katanya \u1e25a'-ra'-mim maknanya berkisar pada arti al-man\u2018 atau tercegah, terhalangi dan lain sebagainya. Makanan yang haram adalah makanan yang dicegah untuk dimakan. Tanah Mekah disebut tanah haram karena di tanah ini tidak diberbolehkan melakukan tindakan yang bertentangan dengan kesuciannya. Ma\u1e25ram adalah orang yang tidak boleh dinikahi. Kata al-ma\u1e25r\u016bm pada ayat ini adalah orang yang tidak diberi keluasan rezeki. Sebagian ahli tafsir mengartikannya sebagai orang yang menjaga diri dari meminta-minta, padahal dirinya dalam kekurangan. Sebagian lagi mengartikannya dengan orang yang terkena malapetaka terhadap tanamannya atau hewannya.",
        "sabab_nuzul": null,
        "conclusion": null
    }
}