{
    "id": 4714,
    "surah_id": 51,
    "ayah": 39,
    "page": 522,
    "quarter_hizb": 53,
    "juz": 27,
    "manzil": 7,
    "arabic": "\u0641\u064e\u062a\u064e\u0648\u064e\u0644\u0651\u0670\u0649 \u0628\u0650\u0631\u064f\u0643\u0652\u0646\u0650\u0647\u0656 \u0648\u064e\u0642\u064e\u0627\u0644\u064e \u0633\u0670\u062d\u0650\u0631\u064c \u0627\u064e\u0648\u0652 \u0645\u064e\u062c\u0652\u0646\u064f\u0648\u0652\u0646\u064c",
    "latin": "Fa tawall\u0101 biruknih\u012b wa q\u0101la s\u0101\u1e25irun au majn\u016bn(un).",
    "translation": "Kemudian, dia (Fir\u2018aun) bersama bala tentaranya berpaling dan (Fir\u2018aun) berkata, \u201c(Dia adalah) seorang penyihir atau orang gila.\u201d",
    "no_footnote": null,
    "footnotes": null,
    "surah": {
        "id": 51,
        "arabic": " \u0627\u0644\u0630\u0651\u0670\u0631\u064a\u0670\u062a",
        "latin": "A\u017c-\u017b\u0101riy\u0101t",
        "transliteration": "Az-Zariyat",
        "translation": "Yang Menerbangkan",
        "num_ayah": 60,
        "page": 520,
        "location": "Makkiyah"
    },
    "tafsir": {
        "wajiz": "Fir\u2019aun melihat mukjizat itu, tetapi dia bersama bala tentaranya berpaling dan dengan angkuh menolak ajakan Nabi Musa karena merasa dirinya berkuasa dan memiliki harta berlimpah. Dia berpaling dan berkata, \u201cDia, yaitu Nabi Musa, adalah seorang pesihir yang tidak mengenal kemampuan orang lain atau orang gila yang berbuat sesuatu tanpa berpikir terlebih dahulu.\u201d",
        "tahlili": "Namun, Fir\u2018aun menolak ajaran Musa dan membangkang seraya mengatakan bahwa apa yang dibawa oleh Musa itu adalah kebohongan belaka. Penolakan Fir\u2018aun dilakukannya dengan berbangga atas bala tentaranya, pengawalnya, menteri-menterinya, kekuatan dan kekuasaannya sambil berkata, \u201cSesungguhnya Musa itu tukang sihir yang ahli atau orang gila.\u201d Ucapan Fir\u2018aun seperti itu diungkapkan dalam Al-Qur\u2019an:\n\u0627\u0650\u0646\u0651\u064e \u0631\u064e\u0633\u064f\u0648\u0652\u0644\u064e\u0643\u064f\u0645\u064f \u0627\u0644\u0651\u064e\u0630\u0650\u064a\u0652\u0653 \u0627\u064f\u0631\u0652\u0633\u0650\u0644\u064e \u0627\u0650\u0644\u064e\u064a\u0652\u0643\u064f\u0645\u0652 \u0644\u064e\u0645\u064e\u062c\u0652\u0646\u064f\u0648\u0652\u0646\u064c\nDia (Fir\u2018aun) berkata, \u201cSungguh, rasulmu yang diutus kepada kamu benar-benar orang gila.\u201d (asy-Syu\u2018ar\u0101\u2019/26: 27)\n\nFir\u2018aun bermaksud agar kaumnya menolak seruan Musa, sehingga mereka tidak memperhatikan serta memikirkan apa yang telah diserukan. Hal ini disebabkan Fir\u2018aun takut kehilangan pengaruhnya, dan keruntuhan kekuasaannya, serta takut akan kehilangan kekayaan, wibawa dan kedudukannya.",
        "intro_surah": "Surah a\u017c-\u017b\u0101riy\u0101t terdiri dari 60 ayat, termasuk kelompok surah Makkiyyah, diturunkan sesudah Surah al-A\u1e25q\u0101f.\nNama a\u017c-\u017b\u0101riy\u0101t diambil dari kata a\u017c-\u017c\u0101riy\u0101t yang terdapat pada ayat pertama surah ini. Allah bersumpah dengan angin, mega, bahtera, dan malaikat, yang menjadi sumber kesejahteraan dan pembawa kemakmuran. Hal ini mengisyaratkan inayah Allah kepada hamba-hamba-Nya.\n\nPokok-pokok Isinya:\n1.\tKeimanan:\nBagaimana keadaan orang-orang yang beriman di dalam surga sebagai balasan atas ketaatan dan ketakwaan mereka; manusia dan jin diciptakan Allah untuk beribadah kepada-Nya; Allah sebagai Maha Pemberi rezeki; neraka sebagai balasan bagi orang-orang kafir.\n2.\tHukum-hukum:\nLarangan mempersekutukan Allah dengan suatu apa pun; perintah berpaling dari orang-orang musyrik yang berkepala batu dan memberi-kan peringatan dan pelajaran kepada orang-orang mukmin; pada harta kekayaan seseorang terdapat hak orang miskin.\n3.\tKisah-kisah:\nIbrahim dengan malaikat yang datang ke rumahnya; Musa dengan Fir\u2018aun; kaum \u2018Ad dan Samud; Nuh dengan kaumnya.\n4.\tLain-lain:\nSegala sesuatu diciptakan Allah berpasang-pasangan; pada diri manusia sendiri terdapat tanda-tanda kebesaran Allah.",
        "outro_surah": null,
        "munasabah_prev_surah": "1. \tDalam Surah Q\u0101f disebutkan hal-hal mengenai hari kebangkitan, pem-balasan, surga dan neraka, sedangkan Surah a\u017c-\u017b\u0101riy\u0101t dimulai dengan menerangkan bahwa semua itu adalah benar dan pembalasan pada hari Kiamat itu benar-benar akan terlaksana.\n2. \tDalam Surah Q\u0101f disebutkan secara sepintas lalu tentang pembinasaan umat-umat dahulu yang mendustakan rasul-rasul, sedangkan dalam Surah a\u017c-\u017b\u0101riy\u0101t diterangkan juga kepada mereka, tetapi dengan agak terperinci.",
        "munasabah_prev_theme": "Ayat-ayat yang lalu menerangkan tentang kefasikan dan kejahatan, yaitu perbuatan-perbuatan maksiat kaum Nabi Lu\u1e6d, dan tentang kehancuran yang telah menimpa mereka sebagai balasan terhadap perilaku jahat mereka. Hal-hal yang demikian itu merupakan hiburan bagi Nabi Muhammad yang sedang mengalami rintangan-rintangan dan perbuatan-perbuatan jahat dari kaumnya.\nDalam ayat-ayat berikut ini Allah menggabungkan pula kisah nabi-nabi yang lain yang mengalami kesulitan-kesulitan dari kaum mereka seperti yang dialami oleh Nabi Muhammad saw. Kepada kaum-kaum yang durhaka itu, Allah menurunkan azab agar dijadikan iktibar dan cermin bagi kaum yang lain. Kemudian dijelaskan pula Nabi Musa yang diutus kepada Fir\u2018aun untuk memberitahukan kabar gembira dan kabar peringatan.",
        "theme_group": "KISAH UMAT DAHULU YANG MENDUSTAKAN PARA NABI ",
        "kosakata": "Kosakata:\n1.\tBiruknihi  \u0628\u0650\u0631\u064f\u0643\u0652\u0646\u0650\u0647\u0650 (a\u017c-\u017b\u0101riy\u0101t/51: 39)\nKata di atas terambil dari kata rakina-yarkanu atau rakana-yarkunu yang berarti sudut atau tepi yang dijadikan sebagai tempat bersandar atau tinggal. Rukun menjadi istilah untuk sisi-sisi yang harus dilengkapi dalam sebuah ibadah. Ibarat sebuah bangunan, rukun adalah tiang penyangga yang dengannya bangunan akan kokoh dan kuat. Tanpa tiang penyangga, maka bangunan tersebut akan roboh atau hancur. Seseorang yang mening-galkan rukun ibadah, maka ibadah tersebut akan hancur atau batal. Untuk itu, lafal ini juga diartikan dengan kekuatan yang menjadikannya sebagai tempat bersandar. \nPada ayat ini Allah menjelaskan tentang kisah Musa dengan Fira\u2018un. Nabi Musa diutus oleh Allah untuk mengajak Fira\u2018un menyembah Allah swt dengan berbagai mukjizat yang nyata yang diberikan Allah, Musa menun-jukkan bahwa dia memang benar-benar utusan Allah yang Mahaperkasa. Akan tetapi, Fira\u2018un menolak ajakan tersebut dengan alasan bahwa ia telah memiliki kekuatan (rukn) yang tidak ada tandingannya. Kekuatan disini diartikan dengan kekayaan harta yang berlimpah ruah, kekuasaan yang sangat kuat, pengetahuan yang luas dan kepemilikan bala tentara yang setiap saat patuh dan tunduk padanya. Atas dasar inilah kemudian Fira\u2018un menolak dengan angkuh ajakan Musa bahkan ia mengaku sebagai tuhan yang mahatinggi. Karena kesombongannya, Allah membinasakan Fira\u2018un dengan menenggelamkan beserta pengikutnya ke lautan. \n2. \tAl-\u2018Aq\u012bm  \u0627\u064e\u0644\u0652\u0639\u064e\u0642\u0650\u064a\u0652\u0645\u064f (a\u017c-\u017b\u0101riy\u0101t/51: 41)\nAl-\u2018Aq\u012bm adalah isim f\u0101\u2018il dari kata \u2018aqama yang berarti suatu keadaan yang tidak bisa menerima a\u1e61ar atau tidak berpengaruh. \u017b\u0101 \u2018uq\u0101m artinya penyakit yang tidak bisa menerima kesembuhan. Al-\u2018Aq\u012bm juga diartikan sebutan untuk wanita yang sel telurnya tidak bisa menerima pembuahan sperma laki-laki atau dalam istilah lain disebut dengan mandul. R\u012b\u1e25un \u2018aq\u012bm adalah angin yang tidak bisa menerbangkan awan atau menggerakkan pohon. \nDalam konteks ayat ini, r\u012b\u1e25un-\u2018aq\u012bm adalah angin yang tidak bisa membawa kebaikan. Kalimat ini merupakan penjelasan dari Allah tentang azab yang ditimpakan kepada kaum Nabi Hud yaitu kaum \u2018\u0100d. Atas pembangkangan dan kedurhakaan kaum \u2018\u0100d, maka Allah swt mengirimkan angin hitam yang mandul yaitu angin yang tidak mengandung kebaikan bahkan membinasakan mereka. Angin yang pada awalnya berfungsi memberikan kesejukan dan kedamaian bagi yang merasakan hembusannya. Tetapi kemudian Allah mengubahnya dengan menimpakan angin yang sangat dingin menyengat menusuk tulang atau angin yang sangat panas menggerahkan dan membakar kulit. Angin tersebut menghancurkan seluruhnya dan tidak membiarkan sesuatu pun yang dilandanya hidup. Ayat ini mengindikasikan bahwa angin berada dalam perintah dan kendali Allah. Pengendalian-Nya ini dapat berupa sistem yang telah ditetapkan-Nya dalam penciptaan dan penghembusan angin yang membawa manfaat bagi makhluk-Nya, tetapi Dia juga dapat mengendalikan angin tersebut menjadi membinasakan dan menghancurkan sesuatu yang dilandanya. \n3.\tAr-Ram\u012bm \u0627\u0644\u0631\u0651\u064e\u0645\u0650\u064a\u0652\u0645\u064f (a\u017c-\u017b\u0101riy\u0101t/51/51 : 42)\nKata ar-ram\u012bm merupakan bentukan dari kata ramma yang berarti mengembalikan sesuatu yang telah hancur, ar-ramma\u1e25 lebih dikhususkan pada tulang belulang yang telah hancur luluh (Y\u0101s\u012bn/36: 78). Ar-rummah dinisbahkan pada tali yang terburai, dan kata ar-ramm digunakan pada serbuk kayu. Al-Irm\u0101m berarti diam. Taramrama, menggerakkan mulut untuk berbicara tanpa teriakan. \nPada ayat ini Allah menjelaskan tentang kondisi Kaum \u2018\u0100d setelah ditimpa bencana angin yang membinasakan, yaitu bahwa apa yang dilanda oleh angin tersebut termasuk kaum \u2018\u0100d yang durhaka menjadi hancur seperti serbuk atau tulang belulang yang hancur.",
        "sabab_nuzul": null,
        "conclusion": null
    }
}