{
    "id": 4768,
    "surah_id": 52,
    "ayah": 33,
    "page": 525,
    "quarter_hizb": 53.25,
    "juz": 27,
    "manzil": 7,
    "arabic": "\u0627\u064e\u0645\u0652 \u064a\u064e\u0642\u064f\u0648\u0652\u0644\u064f\u0648\u0652\u0646\u064e \u062a\u064e\u0642\u064e\u0648\u0651\u064e\u0644\u064e\u0647\u0657\u06da \u0628\u064e\u0644\u0652 \u0644\u0651\u064e\u0627 \u064a\u064f\u0624\u0652\u0645\u0650\u0646\u064f\u0648\u0652\u0646\u064e\u06da ",
    "latin": "Am yaq\u016bl\u016bna taqawwalah(\u016b), bal l\u0101 yu'min\u016bn(a).",
    "translation": "Bahkan, apakah mereka (juga) berkata, \u201cDia (Nabi Muhammad) mereka-rekanya?\u201d Tidak! Merekalah yang tidak beriman.",
    "no_footnote": null,
    "footnotes": null,
    "surah": {
        "id": 52,
        "arabic": "\u0627\u0644\u0637\u0651\u0648\u0631",
        "latin": "A\u1e6d-\u1e6c\u016br",
        "transliteration": "At-Tur",
        "translation": "Gunung",
        "num_ayah": 49,
        "page": 523,
        "location": "Makkiyah"
    },
    "tafsir": {
        "wajiz": "Ataukah mereka juga menuduhnya menggubah Al-Qur\u2019an, dengan berkata, \u201cDia telah mereka-rekanya dengan pikirannya sendiri dan mengklaimnya sebagai wahyu Allah.\u201d Tidak! Semua yang mereka katakan itu tidaklah benar! Sesungguhnya merekalah yang tidak beriman kepada ajaran Allah.",
        "tahlili": "Pada ayat ini dengan menggunakan bentuk kalimat pertanyaan, Allah menerangkan tuduhan orang-orang kafir bahwa Nabi dianggap mengada-ada, menyatakan sesuatu yang dikarang-karang sendiri oleh Nabi Muhammad saw. Bentuk pertanyaan ini, merupakan suatu dorongan agar mereka berpikir untuk mencari jawaban dengan menggunakan akal sehat.\nAyat-ayat Al-Qur\u2019an memang memesona mereka, baik rangkaian bahasa-nya maupun isi kandungannya, sehingga mereka mengatakan Muhammad adalah penyair atau tukang tenung bahkan mereka anggap sebagai orang gila, sebetulnya mereka terkagum-kagum pada ayat Al-Qur\u2019an, tetapi karena mereka tidak beriman, mereka menolak dan mengingkari firman-firman Allah dan kenabian Nabi Muhammad maka mereka asal tuduh saja. Memang mereka menghadapi dilema dengan kehebatan Al-Qur\u2019an tetapi juga benci kepada Nabi Muhammad saw.\nDemikianlah jika seseorang tidak mendapat hidayah dari Allah swt, menderita batin di dunia, dan menderita lahir batin di akhirat nanti.",
        "intro_surah": "Surah a\u1e6d-\u1e6c\u016br diturunkan di Makkah, jumlah ayatnya 49. Diturunkan setelah surah as-Sajdah.\nDari Ummu Salamah:\n\n\u0627\u064e\u0646\u0651\u064e\u0647\u064e\u0627 \u0633\u064e\u0645\u0650\u0639\u064e\u062a\u0652 \u0631\u064e\u0633\u064f\u0648\u0652\u0644\u064e \u0627\u0644\u0644\u0651\u0670\u0647\u0650 \u0635\u064e\u0644\u0651\u064e\u0649 \u0627\u0644\u0644\u0651\u0670\u0647\u064f \u0639\u064e\u0644\u064e\u064a\u0652\u0647\u0650 \u0648\u064e\u0633\u064e\u0644\u064e\u0651\u0645\u064e \u064a\u064f\u0635\u064e\u0644\u0651\u0650\u0649 \u0627\u0650\u0644\u064e\u0649 \u062c\u064e\u0646\u0652\u0628\u0650 \u0627\u0652\u0644\u0628\u064e\u064a\u0652\u062a\u0650 \u064a\u064e\u0642\u0652\u0631\u064e\u0623\u064f \u0648\u064e\u0627\u0644\u0637\u0651\u064f\u0648\u0652\u0631\u0650 \u0648\u064e\u0643\u0650\u062a\u064e\u0627\u0628\u064d \u0645\u064e\u0633\u0652\u0637\u064f\u0648\u0652\u0631.\u064d (\u0631\u0648\u0627\u0647 \u0627\u0644\u0628\u062e\u0627\u0631\u064a)\n\u201cBahwa ia mendengar Rasulullah saw sedang salat menghadap Baitullah membaca surah a\u1e6d-\u1e6c\u016br\u201d (Riwayat al-Bukh\u0101r\u012b)\n\nPersamaan surah ini dengan surah sebelumnya adalah sebagai berikut:\n1. \tBahwa permulaan surahnya masing-masing menggambarkan sifat orang-orang takwa. \n2. \tBahwa setiap akhir surahnya berisi ancaman terhadap orang-orang kafir.\n3. \tBahwa masing-masing surah tersebut dimulai dengan sumpah dengan ayat-ayat yang menerangkan tentang keadaan alam yang berkenaan dengan soal-soal penghidupan atau tempat kembali. Dalam surah pertama Allah swt bersumpah demi angin yang membinasakan dan yang bermanfaat bagi kehidupan manusia. Dalam surah ini Allah swt bersumpah demi bukit \u1e6c\u016br tempat diturunkannya kitab Taurat yang bermanfaat bagi manusia dalam kehidupan mereka.\n4. \tDalam setiap surah tersebut terdapat perintah kepada Nabi Muhammad saw untuk memberikan peringatan kepada orang-orang yang ingkar dan melayani mereka.\n5. \tMasing-masing surah itu mengandung argumentasi tauhid, hari ke-bangkitan dan lain-lain dari berbagai arti yang ada persamaannya dalam kedua surah itu.\n\nPokok-pokok Isinya:\n1. \tKeimanan:\nKeadaan orang-orang kafir dalam neraka dan keadaan orang-orang beriman di dalam surga; bukti kekuasaan dan keesaan Allah swt; setiap orang bertanggung jawab terhadap perbuatannya masing-masing, sekalipun demikian bapak dan anak akan dikumpulkan Allah swt dalam surga apabila kedua-duanya sama-sama beriman.\n2. \tHukum-hukum:\nKewajiban untuk tetap berdakwah dan anjuran melakukan zikir dan tasbih pada waktu siang dan malam.\n3. \tLain-lainnya:\nOrang-orang zalim pasti mendapat siksaan Allah swt terutama di akhirat; Allah tetap akan menjaga dan melindungi Nabi Muhammad saw.",
        "outro_surah": null,
        "munasabah_prev_surah": "1.\tSurah a\u017c-\u017b\u0101riy\u0101t dimulai dengan ancaman kepada orang-orang kafir dan hikmah-hikmah yang diterima oleh orang-orang mukmin kelak. Surah a\u1e6d-\u1e6c\u016br dimulai dengan ancaman pula dan diiringi dengan menerangkan nikmat yang diterima oleh orang-orang mukmin. Akan tetapi ancaman dan nikmat itu dalam surah a\u1e6d-\u1e6c\u016br diterangkan secara lebih jelas.\n2.\tKedua surah sama-sama dimulai dengan sumpah Allah swt dengan menyebutkan ciptaan-ciptaan-Nya.\n3.\tKeduanya mengandung perintah kepada Rasulullah saw supaya berpaling dari orang-orang musyrik yang keras kepala dan sama-sama berisi alasan-alasan serta dalil-dalil keesaan Allah dan adanya hari kebangkitan.",
        "munasabah_prev_theme": "Pada ayat-ayat yang lalu Allah menerangkan kebahagiaan orang-orang di surga, dengan berbagai kenikmatan dan kelezatan makanan dan minuman ditambah lagi mereka dapat berkumpul dengan anak-anak dan cucu mereka yang beriman, serta berbagai kesenangan dan kegembiraan dibanding dengan kehidupan di dunia. Pada ayat-ayat ini Allah memberikan pengarahan kepada Nabi bagaimana bersikap terhadap mereka. Nabi Muhammad bukan peramal, bukan dukun dan bukan penyair yang gila seperti tuduhan orang-orang kafir, tetapi Muhammad telah berkata benar, memberi berita yang benar, dan memperingatkan manusia secara benar. Rasulullah Muhammad tidak mengada-ada, tetapi betul-betul membawa ajaran dari Allah, jika tidak, pasti orang lain dapat meniru mengarang-ngarang dan membuat seperti Al-Qur\u2019an. Tampak tidak ada seorang pun yang dapat membuat seperti Al-Qur\u2019an, jadi yang dibawa Muhammad betul-betul dari Allah yang Mahakuasa dan Mahaperkasa.",
        "theme_group": "BANTAHAN ALLAH TERHADAP OCEHAN-OCEHAN KAUM MUSYRIKIN",
        "kosakata": "Kosakata:\n1.\tRaibal-Man\u016bn  \u0631\u064e\u064a\u0652\u0628\u064e \u0627\u0644\u0652\u0645\u064e\u0646\u064f\u0648\u0652\u0646 (a\u1e6d-\u1e6c\u016br/52: 30).\nRaibal-man\u016bn dalam Al-Qur\u2019an disebut hanya sekali, dalam ayat ini, terdiri dari dua kata: raib dan al-man\u016bn. Maksudnya paling kurang terdapat dua macam maksud. Pertama, menurut Ibnu \u2018Abb\u0101s, maksudnya adalah kematian. Kedua, menurut Muj\u0101hid, maksudnya kejadian-kejadian atau segala musibah yang terjadi di sepanjang masa. Al-man\u016bn menurut Abu Su\u2018aib artinya masa (ad-dahr). Jadi, raibal-man\u016bn artinya semacam kecelakaan atau musibah yang diharapkan bisa menimpa Nabi Muhammad saw sewaktu-waktu sepanjang hidupnya. Kecelakaan itulah yang ditunggu-tunggu para musuh Nabi yang menuduh beliau sebagai penyair gila, padahal beliau seorang Rasulullah.\n2.  Taqawwalah  \u062a\u064e\u0642\u064e\u0648\u0651\u064e\u0644\u064e\u0647\u064f (a\u1e6d-\u1e6c\u016br/52: 33).\nTaqawwalah kata dasarnya qala-yaq\u016blu-qawl(an), artinya \u201cberkata\u201d atau \u201cperkataan.\u201d Dari \u1e61ula\u1e61i mujarrad qawala diubah menjadi taqawwala dengan wazan (timbangan) tafa\u2018\u2018ala, sehingga taqawwala artinya \u201cberkata dengan dibuat-buat dan perkataan itu mengandung kebohongan.\u201d \u201dPerkataan\u201d atau \u201cberkata\u201d yang mengandung kebohongan disebut dan diistilahkan \u201ctaqawwala.\u201d Orang kafir beranggapan bahwa Al-Qur\u2019an yang disampaikan Nabi Muhammad tak lebih hanya sebagai at-taqawwul (untaian kata yang dibuat-buat dan mengandung kebohongan). Hal tersebut mereka katakan semata-mata karena mereka tidak beriman pada apa yang disampaikan Nabi Muhammad saw. Anggapan mereka bahwa Al-Qur\u2019an sebagai al-taqawwul tidaklah benar.",
        "sabab_nuzul": null,
        "conclusion": null
    }
}