{
    "id": 4773,
    "surah_id": 52,
    "ayah": 38,
    "page": 525,
    "quarter_hizb": 53.25,
    "juz": 27,
    "manzil": 7,
    "arabic": "\u0627\u064e\u0645\u0652 \u0644\u064e\u0647\u064f\u0645\u0652 \u0633\u064f\u0644\u0651\u064e\u0645\u064c \u064a\u0651\u064e\u0633\u0652\u062a\u064e\u0645\u0650\u0639\u064f\u0648\u0652\u0646\u064e \u0641\u0650\u064a\u0652\u0647\u0650\u06da \u0641\u064e\u0644\u0652\u064a\u064e\u0623\u0652\u062a\u0650 \u0645\u064f\u0633\u0652\u062a\u064e\u0645\u0650\u0639\u064f\u0647\u064f\u0645\u0652 \u0628\u0650\u0633\u064f\u0644\u0652\u0637\u0670\u0646\u064d \u0645\u0651\u064f\u0628\u0650\u064a\u0652\u0646\u064d\u06d7  ",
    "latin": "Am lahum sullamuy yastami\u2018\u016bna f\u012bh(i), falya'ti mustami\u2018uhum bisul\u1e6d\u0101nim mub\u012bn(in).",
    "translation": " Apakah mereka mempunyai tangga (ke langit) untuk mendengarkan (hal-hal yang gaib)? Hendaklah orang yang mendengarkan di antara mereka itu datang membawa keterangan yang nyata.",
    "no_footnote": null,
    "footnotes": null,
    "surah": {
        "id": 52,
        "arabic": "\u0627\u0644\u0637\u0651\u0648\u0631",
        "latin": "A\u1e6d-\u1e6c\u016br",
        "transliteration": "At-Tur",
        "translation": "Gunung",
        "num_ayah": 49,
        "page": 523,
        "location": "Makkiyah"
    },
    "tafsir": {
        "wajiz": "Atau apakah mereka, yaitu orang-orang musyrik, mempunyai tangga menuju langit untuk mendengarkan hal-hal gaib? Bila demikian maka hendaklah orang yang mendengarkan berita gaib di antara mereka itu datang dengan membawa keterangan yang nyata yang didengarnya. Pasti tidak akan ada yang tampil untuk mengungkapkannya.",
        "tahlili": "Dalam ayat ini Allah swt menyatakan dengan nada pertanyaan, apakah mereka mempunyai tangga untuk naik ke langit, kemudian mereka dapat mendengarkan perkataan malaikat tentang masalah-masalah gaib yang diwahyukan Allah.\nSebenarnya mereka hanya berpegang kepada hawa nafsu saja. Mereka mengakui hal itu, maka cobalah mereka mengemukakan suatu bukti yang nyata, yang menerangkan kebenaran pengakuan mereka itu yang menolak risalah seperti pembuktian yang dibawa oleh Muhammad saw dari Tuhannya.",
        "intro_surah": "Surah a\u1e6d-\u1e6c\u016br diturunkan di Makkah, jumlah ayatnya 49. Diturunkan setelah surah as-Sajdah.\nDari Ummu Salamah:\n\n\u0627\u064e\u0646\u0651\u064e\u0647\u064e\u0627 \u0633\u064e\u0645\u0650\u0639\u064e\u062a\u0652 \u0631\u064e\u0633\u064f\u0648\u0652\u0644\u064e \u0627\u0644\u0644\u0651\u0670\u0647\u0650 \u0635\u064e\u0644\u0651\u064e\u0649 \u0627\u0644\u0644\u0651\u0670\u0647\u064f \u0639\u064e\u0644\u064e\u064a\u0652\u0647\u0650 \u0648\u064e\u0633\u064e\u0644\u064e\u0651\u0645\u064e \u064a\u064f\u0635\u064e\u0644\u0651\u0650\u0649 \u0627\u0650\u0644\u064e\u0649 \u062c\u064e\u0646\u0652\u0628\u0650 \u0627\u0652\u0644\u0628\u064e\u064a\u0652\u062a\u0650 \u064a\u064e\u0642\u0652\u0631\u064e\u0623\u064f \u0648\u064e\u0627\u0644\u0637\u0651\u064f\u0648\u0652\u0631\u0650 \u0648\u064e\u0643\u0650\u062a\u064e\u0627\u0628\u064d \u0645\u064e\u0633\u0652\u0637\u064f\u0648\u0652\u0631.\u064d (\u0631\u0648\u0627\u0647 \u0627\u0644\u0628\u062e\u0627\u0631\u064a)\n\u201cBahwa ia mendengar Rasulullah saw sedang salat menghadap Baitullah membaca surah a\u1e6d-\u1e6c\u016br\u201d (Riwayat al-Bukh\u0101r\u012b)\n\nPersamaan surah ini dengan surah sebelumnya adalah sebagai berikut:\n1. \tBahwa permulaan surahnya masing-masing menggambarkan sifat orang-orang takwa. \n2. \tBahwa setiap akhir surahnya berisi ancaman terhadap orang-orang kafir.\n3. \tBahwa masing-masing surah tersebut dimulai dengan sumpah dengan ayat-ayat yang menerangkan tentang keadaan alam yang berkenaan dengan soal-soal penghidupan atau tempat kembali. Dalam surah pertama Allah swt bersumpah demi angin yang membinasakan dan yang bermanfaat bagi kehidupan manusia. Dalam surah ini Allah swt bersumpah demi bukit \u1e6c\u016br tempat diturunkannya kitab Taurat yang bermanfaat bagi manusia dalam kehidupan mereka.\n4. \tDalam setiap surah tersebut terdapat perintah kepada Nabi Muhammad saw untuk memberikan peringatan kepada orang-orang yang ingkar dan melayani mereka.\n5. \tMasing-masing surah itu mengandung argumentasi tauhid, hari ke-bangkitan dan lain-lain dari berbagai arti yang ada persamaannya dalam kedua surah itu.\n\nPokok-pokok Isinya:\n1. \tKeimanan:\nKeadaan orang-orang kafir dalam neraka dan keadaan orang-orang beriman di dalam surga; bukti kekuasaan dan keesaan Allah swt; setiap orang bertanggung jawab terhadap perbuatannya masing-masing, sekalipun demikian bapak dan anak akan dikumpulkan Allah swt dalam surga apabila kedua-duanya sama-sama beriman.\n2. \tHukum-hukum:\nKewajiban untuk tetap berdakwah dan anjuran melakukan zikir dan tasbih pada waktu siang dan malam.\n3. \tLain-lainnya:\nOrang-orang zalim pasti mendapat siksaan Allah swt terutama di akhirat; Allah tetap akan menjaga dan melindungi Nabi Muhammad saw.",
        "outro_surah": null,
        "munasabah_prev_surah": "1.\tSurah a\u017c-\u017b\u0101riy\u0101t dimulai dengan ancaman kepada orang-orang kafir dan hikmah-hikmah yang diterima oleh orang-orang mukmin kelak. Surah a\u1e6d-\u1e6c\u016br dimulai dengan ancaman pula dan diiringi dengan menerangkan nikmat yang diterima oleh orang-orang mukmin. Akan tetapi ancaman dan nikmat itu dalam surah a\u1e6d-\u1e6c\u016br diterangkan secara lebih jelas.\n2.\tKedua surah sama-sama dimulai dengan sumpah Allah swt dengan menyebutkan ciptaan-ciptaan-Nya.\n3.\tKeduanya mengandung perintah kepada Rasulullah saw supaya berpaling dari orang-orang musyrik yang keras kepala dan sama-sama berisi alasan-alasan serta dalil-dalil keesaan Allah dan adanya hari kebangkitan.",
        "munasabah_prev_theme": "Pada ayat-ayat lalu Allah swt membuktikan kerasulan Muhammad saw dengan menolak tuduhan mereka yang mengatakan bahwa Muhammad saw itu tukang tenung atau seorang penyair atau seorang gila dan Allah memerintahkan Nabi Muhammad saw untuk tetap memberikan peringatan kepada manusia, memberikan kabar gembira. Pada ayat berikut ini Allah menegaskan kekuasaan dan keesaan-Nya melalui tahapan-tahapan dalam berbagai pertanyaan yang mematahkan segala tuduhan mereka.",
        "theme_group": "BANTAHAN TERHADAP KEPERCAYAAN ORANG MUSYRIK",
        "kosakata": "Kosakata:\n1. Al-Mu\u1e63ai\u1e6dir\u016bn  \u0627\u064e\u0644\u0652\u0645\u064f\u0635\u064e\u064a\u0652\u0637\u0650\u0631\u064f\u0648\u0652\u0646\u064e (a\u1e6d-\u1e6c\u016br/52: 37) \nAl-Mu\u1e63ai\u1e6dir\u016bn artinya \u201cyang berkuasa.\u201d Pada ayat ini bisa dibaca dengan \u201cs\u012bn\u201d al-Musai\u1e6dir\u016bn (\u0627\u0644\u0652\u0645\u064f\u0633\u064e\u064a\u0652\u0637\u0650\u0631\u064f\u0648\u0652\u0646\u064e) dan bisa dibaca dengan \u201c\u1e63\u0101d\u201d: al-Mu\u1e63ai\u1e6dir\u016bn \u0627\u0644\u0652\u0645\u064f\u0635\u064e\u064a\u0652\u0637\u0650\u0631\u064f\u0648\u0652\u0646\u064e)). Akar katanya adalah (s\u012bn-\u1e6d\u0101'-r\u0101') yang menunjukkan arti berbarisnya sesuatu seperti tulisan, pepohonan yang berjajar. Kata as-sa\u1e6dr artinya baris. Satu sa\u1e6dr artinya satu baris. Kata ma\u1e63\u1e6dur (lihat surah a\u1e6d-\u1e6c\u016br/52: 2) artinya ditulis, karena huruf-huruf dalam tulisan akan berbaris. Kata al-Mu\u1e63ai\u1e6dir diartikan dengan menguasai. Kaitan antara arti berbaris, berjajar dengan makna berkuasa, karena orang yang menguasai seakan-akan berdiri untuk mengatur orang yang dikuasai agar bisa berjajar dan bisa diatur. \n2.\t Magram \u0645\u064e\u063a\u0652\u0631\u064e\u0645 (a\u1e6d-\u1e6c\u016br/52 : 40). \nMagram adalah isim dari garama-yagramu-garman yang artinya \u201chutang,\u201d yang biasa membebani penyandangnya. Nabi saw sama sekali tidak meminta upah atau imbalan apa pun atas dakwah yang disampaikan-nya, sehingga dengan demikian beliau pun tidak membebankan suatu hutang kepada siapa pun. Ini mengandung arti bahwa seorang pendakwah kapan pun dan di mana pun tidak dibenarkan membebani masyarakat dengan honorarium tertentu sehingga mereka merasa terbebani hutang atau bayaran.",
        "sabab_nuzul": null,
        "conclusion": null
    }
}