{
    "id": 4750,
    "surah_id": 52,
    "ayah": 15,
    "page": 524,
    "quarter_hizb": 53,
    "juz": 27,
    "manzil": 7,
    "arabic": "\u0627\u064e\u0641\u064e\u0633\u0650\u062d\u0652\u0631\u064c \u0647\u0670\u0630\u064e\u0627\u0653 \u0627\u064e\u0645\u0652 \u0627\u064e\u0646\u0652\u062a\u064f\u0645\u0652 \u0644\u064e\u0627 \u062a\u064f\u0628\u0652\u0635\u0650\u0631\u064f\u0648\u0652\u0646\u064e ",
    "latin": "Afasi\u1e25run h\u0101\u017c\u0101 am antum l\u0101 tub\u1e63ir\u016bn(a).",
    "translation": "Apakah ini sihir? Ataukah kamu tidak melihat?",
    "no_footnote": null,
    "footnotes": null,
    "surah": {
        "id": 52,
        "arabic": "\u0627\u0644\u0637\u0651\u0648\u0631",
        "latin": "A\u1e6d-\u1e6c\u016br",
        "transliteration": "At-Tur",
        "translation": "Gunung",
        "num_ayah": 49,
        "page": 523,
        "location": "Makkiyah"
    },
    "tafsir": {
        "wajiz": "Begitu masuk neraka, para pengingkar itu mendapat ejekan dan kecaman. \u201cKamu sudah merasakan sendiri pedihnya azab neraka yang dauhlu kamu ingkari, maka dengan demikian, apakah neraka ini hanya merupakan sihir yang mengelabui mata ataukah kamu memang tidak melihat sehingga kamu akan terus mengingkari keberadaannya?",
        "tahlili": "Karena itu dalam ayat ini Allah mengejek mereka, yaitu orang-orang musyrik yang ketika di dunia menganggap Muhammad saw tukang sihir yang menyihir akal dan menutup mata mereka. Allah swt mengejek mereka ketika mereka diazab di akhirat. \u201cApakah yang mereka lihat dengan mata kepala mereka sekarang ini, seperti azab yang diberitahukan kepada mereka di dunia itu, ataukah mereka masih terlena oleh sihir seperti dahulu mereka menganggap Muhammad saw menyihir mereka di dunia, ataukah mata mereka tidak melihat apa-apa?\u201d Sungguh azab itu telah menjadi kenyataan, mata mereka tidak kena sihir dan tidak pula ditutupi.\nJelasnya apakah dalam penglihatan mereka ada keraguan ataukah mata mereka sedang sakit? Tidak, kedua-duanya tidak, yang mereka lihat itu adalah kenyataan yang sebenarnya.",
        "intro_surah": "Surah a\u1e6d-\u1e6c\u016br diturunkan di Makkah, jumlah ayatnya 49. Diturunkan setelah surah as-Sajdah.\nDari Ummu Salamah:\n\n\u0627\u064e\u0646\u0651\u064e\u0647\u064e\u0627 \u0633\u064e\u0645\u0650\u0639\u064e\u062a\u0652 \u0631\u064e\u0633\u064f\u0648\u0652\u0644\u064e \u0627\u0644\u0644\u0651\u0670\u0647\u0650 \u0635\u064e\u0644\u0651\u064e\u0649 \u0627\u0644\u0644\u0651\u0670\u0647\u064f \u0639\u064e\u0644\u064e\u064a\u0652\u0647\u0650 \u0648\u064e\u0633\u064e\u0644\u064e\u0651\u0645\u064e \u064a\u064f\u0635\u064e\u0644\u0651\u0650\u0649 \u0627\u0650\u0644\u064e\u0649 \u062c\u064e\u0646\u0652\u0628\u0650 \u0627\u0652\u0644\u0628\u064e\u064a\u0652\u062a\u0650 \u064a\u064e\u0642\u0652\u0631\u064e\u0623\u064f \u0648\u064e\u0627\u0644\u0637\u0651\u064f\u0648\u0652\u0631\u0650 \u0648\u064e\u0643\u0650\u062a\u064e\u0627\u0628\u064d \u0645\u064e\u0633\u0652\u0637\u064f\u0648\u0652\u0631.\u064d (\u0631\u0648\u0627\u0647 \u0627\u0644\u0628\u062e\u0627\u0631\u064a)\n\u201cBahwa ia mendengar Rasulullah saw sedang salat menghadap Baitullah membaca surah a\u1e6d-\u1e6c\u016br\u201d (Riwayat al-Bukh\u0101r\u012b)\n\nPersamaan surah ini dengan surah sebelumnya adalah sebagai berikut:\n1. \tBahwa permulaan surahnya masing-masing menggambarkan sifat orang-orang takwa. \n2. \tBahwa setiap akhir surahnya berisi ancaman terhadap orang-orang kafir.\n3. \tBahwa masing-masing surah tersebut dimulai dengan sumpah dengan ayat-ayat yang menerangkan tentang keadaan alam yang berkenaan dengan soal-soal penghidupan atau tempat kembali. Dalam surah pertama Allah swt bersumpah demi angin yang membinasakan dan yang bermanfaat bagi kehidupan manusia. Dalam surah ini Allah swt bersumpah demi bukit \u1e6c\u016br tempat diturunkannya kitab Taurat yang bermanfaat bagi manusia dalam kehidupan mereka.\n4. \tDalam setiap surah tersebut terdapat perintah kepada Nabi Muhammad saw untuk memberikan peringatan kepada orang-orang yang ingkar dan melayani mereka.\n5. \tMasing-masing surah itu mengandung argumentasi tauhid, hari ke-bangkitan dan lain-lain dari berbagai arti yang ada persamaannya dalam kedua surah itu.\n\nPokok-pokok Isinya:\n1. \tKeimanan:\nKeadaan orang-orang kafir dalam neraka dan keadaan orang-orang beriman di dalam surga; bukti kekuasaan dan keesaan Allah swt; setiap orang bertanggung jawab terhadap perbuatannya masing-masing, sekalipun demikian bapak dan anak akan dikumpulkan Allah swt dalam surga apabila kedua-duanya sama-sama beriman.\n2. \tHukum-hukum:\nKewajiban untuk tetap berdakwah dan anjuran melakukan zikir dan tasbih pada waktu siang dan malam.\n3. \tLain-lainnya:\nOrang-orang zalim pasti mendapat siksaan Allah swt terutama di akhirat; Allah tetap akan menjaga dan melindungi Nabi Muhammad saw.",
        "outro_surah": null,
        "munasabah_prev_surah": "1.\tSurah a\u017c-\u017b\u0101riy\u0101t dimulai dengan ancaman kepada orang-orang kafir dan hikmah-hikmah yang diterima oleh orang-orang mukmin kelak. Surah a\u1e6d-\u1e6c\u016br dimulai dengan ancaman pula dan diiringi dengan menerangkan nikmat yang diterima oleh orang-orang mukmin. Akan tetapi ancaman dan nikmat itu dalam surah a\u1e6d-\u1e6c\u016br diterangkan secara lebih jelas.\n2.\tKedua surah sama-sama dimulai dengan sumpah Allah swt dengan menyebutkan ciptaan-ciptaan-Nya.\n3.\tKeduanya mengandung perintah kepada Rasulullah saw supaya berpaling dari orang-orang musyrik yang keras kepala dan sama-sama berisi alasan-alasan serta dalil-dalil keesaan Allah dan adanya hari kebangkitan.",
        "munasabah_prev_theme": "Pada akhir ayat surah yang lalu, Allah swt menerangkan bahwa bagi orang zalim ada siksaan yang pedih seperti halnya yang menimpa teman-teman mereka, dan bahwa kecelakaan yang akan menimpa orang kafir pada hari yang diancamkan pasti terjadi. Pada bagian awal surah ini, setelah sumpah-Nya dengan beruntun, Allah menegaskan bahwa azab Tuhan itu pasti terjadi. Tak seorang pun yang dapat menolaknya.",
        "theme_group": "SUMPAH YANG MENANDAKAN BAHWA AZAB PASTI DATANG KEPADA ORANG-ORANG YANG MENDUSTAKAN",
        "kosakata": "Kosakata:\n1.\tA\u1e6d-\u1e6c\u016br \u0627\u064e\u0644\u0637\u0651\u064f\u0648\u0652\u0631 (a\u1e6d-\u1e6c\u016br/52: 1)\nArti kata a\u1e6d-\u1e6d\u016br sangat beragam di antaranya, sebagai kata benda, yang secara etimologi bukan dari bahasa Arab. Kata a\u1e6d-\u1e6d\u016br dari kata bahasa Suryani, yang berarti \u201cgunung,\u201d atau memang nama sebuah gunung di Syam. Dalam ayat ini berarti \u201cgunung\u201d secara umum, dengan catatan semua gunung yang ada tumbuhannya, dan secara tidak langsung berarti khusus Gunung Sinai di Madyan (sekarang negara Mesir)  tempat Nabi Musa menerima wahyu yang sangat menentukan. Dalam pembukaan surah ini dipakai sebagai sumpah, \u201cDemi Gunung\u201d seperti yang terdapat juga dalam surah at-T\u012bn, yang sekaligus menyebutkan empat nama sebagai simbol sumpah, tin, zaitun, Gunung Sinai dan kota Makkah. Dalam surah a\u1e6d-\u1e6c\u016br hanya disebut satu nama, sebagai isyarat betapa hebatnya ayat-ayat berikutnya sesudah ayat pembukaan itu.\n2.\tAl-Baitul-Ma\u2018m\u016br  \u0627\u0644\u0652\u0628\u064e\u064a\u0652\u062a\u064f \u0627\u0644\u0652\u0645\u064e\u0639\u0652\u0645\u064f\u0648\u0652\u0631\u064f (a\u1e6d-\u1e6c\u016br/52: 4)\nAl-Baitul-ma\u2018m\u016br, yang secara harfiah berarti rumah atau tempat ibadah yang ramai dikunjungi orang. Ayat ini dapat ditafsirkan, bahwa rumah ibadah yang dimaksud biasanya Ka\u2018bah yang banyak dikunjungi Muslimin setiap hari dalam melaksanakan salat dan umrah, terutama pada musim haji. Atau mungkin juga rumah ibadah lain secara umum yang digunakan beribadah kepada Allah Yang Maha Esa, rumah (kemah) ibadah orang Yahudi (tabernakel) di daerah gurun, tempat ibadah Nabi Sulaiman (Haikal Sulaiman), rumah tempat Nabi Isa beribadah. Umumnya para ulama mengaitkan ayat ini dengan Ka\u2018bah setelah dibersihkan oleh Nabi Muhammad dari segala macam berhala seperti disebutkan di atas. Menurut beberapa mufasir juga bermakna, \u201cjantung manusia, tempat segala hasrat dan keinginan yang membara untuk menemukan dan menyembah Allah.\u201d",
        "sabab_nuzul": null,
        "conclusion": null
    }
}