{
    "id": 4797,
    "surah_id": 53,
    "ayah": 13,
    "page": 526,
    "quarter_hizb": 53.25,
    "juz": 27,
    "manzil": 7,
    "arabic": "\u0648\u064e\u0644\u064e\u0642\u064e\u062f\u0652 \u0631\u064e\u0627\u0670\u0647\u064f \u0646\u064e\u0632\u0652\u0644\u064e\u0629\u064b \u0627\u064f\u062e\u0652\u0631\u0670\u0649\u06d9",
    "latin": "Wa laqad ra'\u0101hu nazlatan ukhr\u0101.",
    "translation": " Sungguh, dia (Nabi Muhammad) benar-benar telah melihatnya (dalam rupa yang asli) pada waktu yang lain,",
    "no_footnote": null,
    "footnotes": null,
    "surah": {
        "id": 53,
        "arabic": "\u0627\u0644\u0646\u0651\u062c\u0645",
        "latin": "An-Najm",
        "transliteration": "An-Najm",
        "translation": "Bintang",
        "num_ayah": 62,
        "page": 526,
        "location": "Makkiyah"
    },
    "tafsir": {
        "wajiz": "Dan sungguh, dia, yaitu Nabi Muhammad, telah melihatnya, yakni Jibril, dalam rupanya yang asli pada waktu yang lain,",
        "tahlili": "Selanjutnya dalam ayat-ayat ini Allah menerangkan bahwa sesungguhnya Muhammad saw pernah melihat Jibril (untuk kedua kalinya) dalam rupanya yang asli pada waktu melakukan mi\u2018raj ke Sidratul Muntaha yaitu suatu tempat yang merupakan batas alam yang dapat diketahui oleh para malaikat.\nAda yang berpendapat bahwa maksud ayat ini adalah seperti dalam firman Allah:\n\u0648\u064e\u0627\u064e\u0646\u0651\u064e \u0627\u0650\u0644\u0670\u0649 \u0631\u064e\u0628\u0651\u0650\u0643\u064e \u0627\u0644\u0652\u0645\u064f\u0646\u0652\u062a\u064e\u0647\u0670\u0649\u06d9 \u0664\u0662\nDan sesungguhnya kepada Tuhanmulah kesudahannya (segala sesuatu). (an- Najm/53: 42)\n\nSetiap Mukmin wajib mempercayai bahwa Sidratul Muntaha itu sebagaimana yang telah diterangkan oleh Allah dalam ayat-Nya. Tetapi ia tidak boleh menerangkan tempatnya dan sifat-sifatnya, dengan keterangan yang melebihi daripada apa yang telah diterangkan oleh Allah dalam Al-Qur\u2019an, kecuali bila keterangan itu kita dapat dari hadis Nabi Muhammad saw yang\n\nmenerangkan kepada kita dengan jelas dan pasti, karena hal itu termasuk dalam hal yang gaib yang belum diizinkan kita untuk mengetahuinya.\nMenurut hadis yang diriwayatkan oleh A\u1e25mad, Muslim, at-Tirm\u012bz\u012b, dan lain-lainnya bahwa Sidratul Muntaha itu ada di langit yang ketujuh.",
        "intro_surah": "Surah an-Najm terdiri dari 62 ayat, termasuk kelompok surah Makkiyyah, kecuali ayat 32 yang diturunkan di Medinah. Surah ini diturunkan sesudah Surah al-Ikhl\u0101\u1e63.\nNama an-Najm (Bintang), diambil dari kata an-najm yang terdapat pada ayat pertama dari surah ini. Allah swt bersumpah dengan an-najm (bintang) ialah karena bintang-bintang yang timbul dan tenggelam, sangat besar manfaatnya bagi manusia sebagai pedoman bagi mereka dalam melakukan pelayaran di lautan, dalam perjalanan di padang pasir, untuk menentukan peredaran musim, dan lain-lain sebagainya.\n\nPokok-pokok Isinya:\n1. \tKeimanan:\nAl-Qur\u2019an adalah wahyu Allah yang diturunkan kepada Nabi Muhammad saw dengan perantaraan Jibril, kebatilan penyembah berhala, tak ada seorang pun memberikan syafaat tanpa izin Allah swt; tiap-tiap orang hanya memikul dosanya sendiri.\n2. \tHukum-hukum:\nKewajiban menjauhi dosa-dosa besar; kewajiban bersujud dan menyem-bah Allah saja.\n3. \tLain-lain:\nNabi Muhammad saw melihat malaikat Jibril dua kali dalam bentuk aslinya, yaitu sekali waktu menerima wahyu pertama dan sekali lagi di Sidratul Muntaha; anjuran agar manusia jangan mengatakan dirinya suci karena Allah sendirilah yang mengetahui siapa yang takwa kepada-Nya; orang-orang musyrik selalu memperolok-olokkan Al-Qur\u2019an.",
        "outro_surah": null,
        "munasabah_prev_surah": "1. \tSurah sebelumnya ditutup dengan menyebut bintang-bintang, sedangkan surah ini juga dimulai dengan menyebut bintang.\n2. \tDalam surah sebelumnya disebutkan tuduhan orang kafir bahwa Al-Qur\u2019an dibuat oleh Nabi Muhammad saw, sedangkan dalam surah ini ditegaskan bahwa Al-Qur\u2019an dan sesuatu yang disampaikan oleh Muhammad saw benar-benar wahyu dari Allah.\n3. \tDalam surah sebelumnya diterangkan bahwa Nabi Muhammad saw selalu berada dalam inayah Allah swt, sedangkan surah ini diterangkan bagaimana kebesaran Allah swt dan kemuliaan Nabi Muhammad saw.\n4. \tDalam surah sebelumnya disebutkan bahwa anak cucu orang-orang Mukmin dimasukkan ke dalam surga mengikuti bapak-bapak mereka. Dalam surah ini disebutkan keturunan orang-orang Yahudi seperti dalam firman-Nya:\n\u0647\u064f\u0648\u064e \u0627\u064e\u0639\u0652\u0644\u064e\u0645\u064f \u0628\u0650\u0643\u064f\u0645\u0652 \u0627\u0650\u0630\u0652 \u0627\u064e\u0646\u0652\u0634\u064e\u0627\u064e\u0643\u064f\u0645\u0652 \u0645\u0651\u0650\u0646\u064e \u0627\u0644\u0652\u0627\u064e\u0631\u0652\u0636\u0650 \u0648\u064e\u0627\u0650\u0630\u0652 \u0627\u064e\u0646\u0652\u062a\u064f\u0645\u0652 \u0627\u064e\u062c\u0650\u0646\u0651\u064e\u0629\u064c \u0641\u0650\u064a\u0652 \u0628\u064f\u0637\u064f\u0648\u0652\u0646\u0650 \u0627\u064f\u0645\u0651\u064e\u0647\u0670\u062a\u0650\u0643\u064f\u0645\u0652\nDia mengetahui tentang kamu, sejak Dia menjadikan kamu dari tanah lalu ketika kamu masih janin dalam perut ibumu. (an-Najm/53: 32)\n5. \tDalam ayat sebelumnya Allah berfirman tentang orang-orang Mukmin.\n\u0627\u064e\u0644\u0652\u062d\u064e\u0642\u0652\u0646\u064e\u0627 \u0628\u0650\u0647\u0650\u0645\u0652 \u0630\u064f\u0631\u0651\u0650\u064a\u0651\u064e\u062a\u064e\u0647\u064f\u0645\u0652\n\tKami pertemukan mereka dengan anak cucu mereka (di dalam surga). (a\u1e6d-\u1e6c\u016br/52: 21)\n\t\nDalam surah ini Allah berfirman:\n\u0648\u064e\u0627\u064e\u0646\u0652 \u0644\u0651\u064e\u064a\u0652\u0633\u064e \u0644\u0650\u0644\u0652\u0627\u0650\u0646\u0652\u0633\u064e\u0627\u0646\u0650 \u0627\u0650\u0644\u0651\u064e\u0627 \u0645\u064e\u0627 \u0633\u064e\u0639\u0670\u0649\u06d9 \u0663\u0669\nDan bahwa manusia hanya memperoleh apa yang telah diusahakannya (an-Najm/53: 39)\n\nMenurut Ibnu Mardawaih dari Ibnu Mas\u2018\u016bd, Surah an-Najm ini adalah surah pertama yang dibaca oleh Nabi Muhammad saw di hadapan umum di Masjidil Haram dan didengar oleh orang-orang musyrik. Menurut al-Bukh\u0101r\u012b, Muslim, Ab\u016b D\u0101wud, dan Nas\u0101\u2019\u012b, surah ini adalah surah pertama yang diturunkan yang di dalamnya terdapat ayat as-Sajdah, kemudian Nabi Muhammad saw bersujud diikuti oleh semua orang, kecuali orang yang kelihatan sedang mengambil segenggam tanah, lalu ia sujud ke tanah itu. Akhirnya orang itu mati dibunuh dalam kekufuran, dia adalah Umayyah bin Khalaf.",
        "munasabah_prev_theme": "Di akhir Surah a\u1e6d-\u1e6c\u016br Allah swt memerintahkan Rasul saw untuk bersabar atas sikap keras kepala orang-orang kafir dan musyrik terhadap dakwahnya, jangan bersedih hati sebagaimana Allah berpesan kepada rasul untuk bertasbih memuji Tuhan baik di pagi hari maupun waktu malam. Di awal Surah an-Najm ini, Allah bersumpah dengan makhluk-Nya yaitu bintang, bahwa rasul adalah benar tidak melakukan kekeliruan dan Al-Qur\u2019an adalah wahyu Allah yang diturunkan melalui malaikat Jibril.",
        "theme_group": "ALLAH BERSUMPAH BAHWA WAHYU YANG DITURUNKAN\nKEPADA NABI MUHAMMAD SAW ADALAH BENAR",
        "kosakata": "Kosakata:\n1.\t\u017b\u016b Mirrah  \u0630\u064f\u0648\u0652 \u0645\u0650\u0631\u0651\u064e\u0629 (an-Najm/53: 6)\nKata \u017c\u016b mirrah merupakan sifat dari malaikat Jibril yang sebelumnya telah disebutkan \u2018allamah\u016b syad\u012bdul-quw\u0101 (yang telah diajarkan oleh Jibril yang sangat kuat) pada ayat sebelumnya. Yang dimaksud syad\u012bdul-quw\u0101 di situ adalah malaikat Jibril, yang selanjutnya disifati pula dengan \u017c\u016b mirrah yang dalam banyak kitab tafsir diberi pengertian \u017c\u016b quwwah (yang mempunyai kekuatan). Jibril itu memang kuat, kekuatannya ada pada dirinya. Jibril mempunyai kekuatan yang luar biasa. Bukti kekuatannya antara lain, seperti diterangkan para Mufasir, ia pernah mencopot dan mengangkat tanah kawasan kaum Nabi Lut, dipanggulnya di atas sayapnya dan kemudian membalikkannya menimpa kaum Lut, dan juga meneriakkan suaranya yang sangat dahsyat kepada kaum \u1e60am\u016bd, sehingga mereka musnah, teriakan dahsyat sebagai azab kepada kaum \u1e60am\u016bd.\n2.\tSidratul-Muntah\u0101 \u0633\u0650\u062f\u0652\u0631\u064e\u0629\u064f \ufe8d\u0644\u0652\u0645\u064f\u0646\u0652\u062a\u064e\u0647\u064e\u0649 (an-Najm/53: 14)\nSidratul-Muntah\u0101 merupakan terminologi yang sangat dikenal di kalangan kaum Muslimin, terutama dalam hubungan mi\u2018r\u0101j (naik) Nabi Muhammad saw ke langit beberapa waktu sebelum berhijrah ke Medinah al-Munawwarah. Di tanah Arab, pohon sidrah ialah pohon yang di bawahnya digunakan oleh orang-orang untuk berteduh dan beristirahat, atau yang di bawahnya dijadikan tempat beristirahat orang banyak. Kata sidrah dicantumkan pula di tempat lain dalam Al-Qur\u2019an untuk menggambarkan pohon di Surga (al-W\u0101qi\u2018ah/ 56:28). Adapun arti kata sidrah dalam ayat ini, ar-R\u0101gib al-Asfah\u0101n\u012b menerangkan, antara lain maksudnya adalah tempat di mana Nabi Muhammad saw terpilih untuk menerima karunia dan kenikmatan Tuhan yang besar. Kata sidrah yang disifati al-muntah\u0101 menunjukkan bahwa tempat itu tidak dapat dijangkau oleh pengetahuan manusia. Seperti dijelaskan oleh az-Zamakhsyar\u012b dalam Al-Kasysy\u0101f-nya, \u201cPengetahuan malaikat dan lain-lainnya berhenti di tempat ini, dan tak ada satu pun yang tahu apakah yang ada di tempat itu.\u201d Oleh karena itu, arti yang tersimpul dalam istilah itu ialah, bahwa ilmu Nabi Muhammad saw tentang perkara ketuhanan adalah yang paling tinggi yang dapat dicapai oleh manusia. Menurut sebagian Mufasir, kata sidratul-muntah\u0101 mempunyai arti yang sama seperti kata \u2018illiyy\u016bn dalam Surah al-Mu\u1e6daffif\u012bn/83:19.",
        "sabab_nuzul": null,
        "conclusion": null
    }
}