{
    "id": 4829,
    "surah_id": 53,
    "ayah": 45,
    "page": 528,
    "quarter_hizb": 53.5,
    "juz": 27,
    "manzil": 7,
    "arabic": "\u0648\u064e\u0627\u064e\u0646\u0651\u064e\u0647\u0657 \u062e\u064e\u0644\u064e\u0642\u064e \u0627\u0644\u0632\u0651\u064e\u0648\u0652\u062c\u064e\u064a\u0652\u0646\u0650 \u0627\u0644\u0630\u0651\u064e\u0643\u064e\u0631\u064e \u0648\u064e\u0627\u0644\u0652\u0627\u064f\u0646\u0652\u062b\u0670\u0649\u06d9 ",
    "latin": "Wa annah\u016b khalaqaz-zaujaini\u017c-\u017cakara wal-un\u1e61\u0101.",
    "translation": " bahwa sesungguhnya Dialah yang menciptakan pasangan laki-laki dan perempuan",
    "no_footnote": null,
    "footnotes": null,
    "surah": {
        "id": 53,
        "arabic": "\u0627\u0644\u0646\u0651\u062c\u0645",
        "latin": "An-Najm",
        "transliteration": "An-Najm",
        "translation": "Bintang",
        "num_ayah": 62,
        "page": 526,
        "location": "Makkiyah"
    },
    "tafsir": {
        "wajiz": "Dan disebutkan pula dalam suhuf Nabi Ibrahim dan Musa bahwa sesungguhnya Dialah yang menciptakan pasangan laki-laki dan perempuan, jantan dan betina,",
        "tahlili": "Allah yang menciptakan laki-laki dan perempuan dari \u201cair mani yang dipancarkan ke dalam rahim.\u201d Kemudian dihembuskannya ruh, sehingga dia hidup dan bergerak.\nAyat 45 kembali menjelaskan mengenai keberpasangan ciptaan. Uraiannya dapat dilihat pada beberapa ayat terdahulu, seperti: Y\u0101s\u012bn/36: 36; ar-Ra\u2018d/13: 3; as-Syu\u2018ar\u0101\u2019/26: 7; dan a\u017c-\u1e92\u0101riy\u0101t/51: 49.\nAyat 46 menjelaskan penciptaan manusia yang datangnya dari pasangan laki-laki dan perempuan, sebagai tercantum dalam beberapa ayat sebelumnya. Air mani sebagai salah satu komponen pembentuk kehidupan diuraikan secara sepintas saja. Penjelasannya dapat ditemui pada beberapa uraian dalam ayat-ayat, seperti, al-\u1e24ajj/22: 5; al-Mu\u2019min\u016bn/23: 13-14; dan F\u0101\u1e6dir/35: 11. Dalam ayat-ayat tersebut telah diuraikan secara rinci dalam tahapan proses perkembangan embrio manusia. Bahkan mengenai air mani sendiri, dijelaskan, antara lain, pada ayat-ayat as-Sajdah/32: 7-9. Penjelasan selanjutnya, yang sangat ilmiah, ditemukan pada penjelasan dari Surah a\u1e6d-\u1e6c\u0101riq/86: 6-7 dan al-Ins\u0101n/76: 2.",
        "intro_surah": "Surah an-Najm terdiri dari 62 ayat, termasuk kelompok surah Makkiyyah, kecuali ayat 32 yang diturunkan di Medinah. Surah ini diturunkan sesudah Surah al-Ikhl\u0101\u1e63.\nNama an-Najm (Bintang), diambil dari kata an-najm yang terdapat pada ayat pertama dari surah ini. Allah swt bersumpah dengan an-najm (bintang) ialah karena bintang-bintang yang timbul dan tenggelam, sangat besar manfaatnya bagi manusia sebagai pedoman bagi mereka dalam melakukan pelayaran di lautan, dalam perjalanan di padang pasir, untuk menentukan peredaran musim, dan lain-lain sebagainya.\n\nPokok-pokok Isinya:\n1. \tKeimanan:\nAl-Qur\u2019an adalah wahyu Allah yang diturunkan kepada Nabi Muhammad saw dengan perantaraan Jibril, kebatilan penyembah berhala, tak ada seorang pun memberikan syafaat tanpa izin Allah swt; tiap-tiap orang hanya memikul dosanya sendiri.\n2. \tHukum-hukum:\nKewajiban menjauhi dosa-dosa besar; kewajiban bersujud dan menyem-bah Allah saja.\n3. \tLain-lain:\nNabi Muhammad saw melihat malaikat Jibril dua kali dalam bentuk aslinya, yaitu sekali waktu menerima wahyu pertama dan sekali lagi di Sidratul Muntaha; anjuran agar manusia jangan mengatakan dirinya suci karena Allah sendirilah yang mengetahui siapa yang takwa kepada-Nya; orang-orang musyrik selalu memperolok-olokkan Al-Qur\u2019an.",
        "outro_surah": null,
        "munasabah_prev_surah": "1. \tSurah sebelumnya ditutup dengan menyebut bintang-bintang, sedangkan surah ini juga dimulai dengan menyebut bintang.\n2. \tDalam surah sebelumnya disebutkan tuduhan orang kafir bahwa Al-Qur\u2019an dibuat oleh Nabi Muhammad saw, sedangkan dalam surah ini ditegaskan bahwa Al-Qur\u2019an dan sesuatu yang disampaikan oleh Muhammad saw benar-benar wahyu dari Allah.\n3. \tDalam surah sebelumnya diterangkan bahwa Nabi Muhammad saw selalu berada dalam inayah Allah swt, sedangkan surah ini diterangkan bagaimana kebesaran Allah swt dan kemuliaan Nabi Muhammad saw.\n4. \tDalam surah sebelumnya disebutkan bahwa anak cucu orang-orang Mukmin dimasukkan ke dalam surga mengikuti bapak-bapak mereka. Dalam surah ini disebutkan keturunan orang-orang Yahudi seperti dalam firman-Nya:\n\u0647\u064f\u0648\u064e \u0627\u064e\u0639\u0652\u0644\u064e\u0645\u064f \u0628\u0650\u0643\u064f\u0645\u0652 \u0627\u0650\u0630\u0652 \u0627\u064e\u0646\u0652\u0634\u064e\u0627\u064e\u0643\u064f\u0645\u0652 \u0645\u0651\u0650\u0646\u064e \u0627\u0644\u0652\u0627\u064e\u0631\u0652\u0636\u0650 \u0648\u064e\u0627\u0650\u0630\u0652 \u0627\u064e\u0646\u0652\u062a\u064f\u0645\u0652 \u0627\u064e\u062c\u0650\u0646\u0651\u064e\u0629\u064c \u0641\u0650\u064a\u0652 \u0628\u064f\u0637\u064f\u0648\u0652\u0646\u0650 \u0627\u064f\u0645\u0651\u064e\u0647\u0670\u062a\u0650\u0643\u064f\u0645\u0652\nDia mengetahui tentang kamu, sejak Dia menjadikan kamu dari tanah lalu ketika kamu masih janin dalam perut ibumu. (an-Najm/53: 32)\n5. \tDalam ayat sebelumnya Allah berfirman tentang orang-orang Mukmin.\n\u0627\u064e\u0644\u0652\u062d\u064e\u0642\u0652\u0646\u064e\u0627 \u0628\u0650\u0647\u0650\u0645\u0652 \u0630\u064f\u0631\u0651\u0650\u064a\u0651\u064e\u062a\u064e\u0647\u064f\u0645\u0652\n\tKami pertemukan mereka dengan anak cucu mereka (di dalam surga). (a\u1e6d-\u1e6c\u016br/52: 21)\n\t\nDalam surah ini Allah berfirman:\n\u0648\u064e\u0627\u064e\u0646\u0652 \u0644\u0651\u064e\u064a\u0652\u0633\u064e \u0644\u0650\u0644\u0652\u0627\u0650\u0646\u0652\u0633\u064e\u0627\u0646\u0650 \u0627\u0650\u0644\u0651\u064e\u0627 \u0645\u064e\u0627 \u0633\u064e\u0639\u0670\u0649\u06d9 \u0663\u0669\nDan bahwa manusia hanya memperoleh apa yang telah diusahakannya (an-Najm/53: 39)\n\nMenurut Ibnu Mardawaih dari Ibnu Mas\u2018\u016bd, Surah an-Najm ini adalah surah pertama yang dibaca oleh Nabi Muhammad saw di hadapan umum di Masjidil Haram dan didengar oleh orang-orang musyrik. Menurut al-Bukh\u0101r\u012b, Muslim, Ab\u016b D\u0101wud, dan Nas\u0101\u2019\u012b, surah ini adalah surah pertama yang diturunkan yang di dalamnya terdapat ayat as-Sajdah, kemudian Nabi Muhammad saw bersujud diikuti oleh semua orang, kecuali orang yang kelihatan sedang mengambil segenggam tanah, lalu ia sujud ke tanah itu. Akhirnya orang itu mati dibunuh dalam kekufuran, dia adalah Umayyah bin Khalaf.",
        "munasabah_prev_theme": "Pada ayat-ayat yang lalu dinyatakan bahwa Allah swt memiliki semua yang ada di langit dan di bumi, membalas perbuatan-perbuatan jahat dengan azab dan membalas orang-orang yang berbuat baik dengan yang lebih baik, Dia menjadikan kita dari tanah dan mengetahui perkembangan bayi dalam kandungan ibunya. Dari itu tidak pantaslah kita menyatakan kesucian diri kita, karena Allah lebih mengetahui siapa yang bertakwa dari hamba-Nya. Maka ayat-ayat berikut ini menerangkan, bahwa sesungguhnya seseorang tidak akan memikul dosa orang lain dan baginya apa yang telah diusahakannya, dan kepada Allah kita akan kembali.",
        "theme_group": "KEHANCURAN PENDUSTAKEBENARAN DAN \nPERTANGGUNGJAWABAN MANUSIA ATAS PERBUATANNYA ",
        "kosakata": "Kosakata:\n1.\tAkd\u0101 \u0627\u064e\u0643\u0652\u062f\u064e\u064a (an-Najm/53: 34)\nAkd\u0101 berasal dari kata kerja kad\u0101-al-kudyatu artinya keras membatu. Akd\u0101 berarti kikir yang luar biasa bagaikan batu yang tidak ada yang menetes darinya.\n2.\tAl-Mu'tafikah  \u0627\u0644\u0652\u0645\u064f\u0624\u0652\u062a\u064e\u0641\u0650\u0643\u064e\u0629 (an-Najm/53: 53)\nAl-Mu'tafikah adalah kata jadian dari i'tafaka artinya membalikkan dari benar menjadi salah, dari baik menjadi buruk. Kata dasarnya al-ifku yaitu sesuatu yang berubah keadaannya dari baik menjadi buruk. Kata ini digunakan untuk negeri kaum Lut yang dijungkirbalikkan oleh Allah karena dosa homoseksual mereka.",
        "sabab_nuzul": null,
        "conclusion": null
    }
}