{
    "id": 4807,
    "surah_id": 53,
    "ayah": 23,
    "page": 526,
    "quarter_hizb": 53.25,
    "juz": 27,
    "manzil": 7,
    "arabic": "\u0627\u0650\u0646\u0652 \u0647\u0650\u064a\u064e \u0627\u0650\u0644\u0651\u064e\u0627\u0653 \u0627\u064e\u0633\u0652\u0645\u064e\u0627\u06e4\u0621\u064c \u0633\u064e\u0645\u0651\u064e\u064a\u0652\u062a\u064f\u0645\u064f\u0648\u0652\u0647\u064e\u0627\u0653 \u0627\u064e\u0646\u0652\u062a\u064f\u0645\u0652 \u0648\u064e\u0627\u0670\u0628\u064e\u0627\u06e4\u0624\u064f\u0643\u064f\u0645\u0652 \u0645\u0651\u064e\u0627\u0653 \u0627\u064e\u0646\u0652\u0632\u064e\u0644\u064e \u0627\u0644\u0644\u0651\u0670\u0647\u064f \u0628\u0650\u0647\u064e\u0627 \u0645\u0650\u0646\u0652 \u0633\u064f\u0644\u0652\u0637\u0670\u0646\u064d\u06d7 \u0627\u0650\u0646\u0652 \u064a\u0651\u064e\u062a\u0651\u064e\u0628\u0650\u0639\u064f\u0648\u0652\u0646\u064e \u0627\u0650\u0644\u0651\u064e\u0627 \u0627\u0644\u0638\u0651\u064e\u0646\u0651\u064e \u0648\u064e\u0645\u064e\u0627 \u062a\u064e\u0647\u0652\u0648\u064e\u0649 \u0627\u0644\u0652\u0627\u064e\u0646\u0652\u0641\u064f\u0633\u064f\u06da \u0648\u064e\u0644\u064e\u0642\u064e\u062f\u0652 \u062c\u064e\u0627\u06e4\u0621\u064e\u0647\u064f\u0645\u0652 \u0645\u0651\u0650\u0646\u0652 \u0631\u0651\u064e\u0628\u0651\u0650\u0647\u0650\u0645\u064f \u0627\u0644\u0652\u0647\u064f\u062f\u0670\u0649\u06d7",
    "latin": "In hiya  ill\u0101 asm\u0101'un sammaitum\u016bh\u0101 antum wa \u0101b\u0101'ukum m\u0101 anzalall\u0101hu bih\u0101 min sul\u1e6d\u0101n(in), iy yattabi\u2018\u016bna illa\u1e93-\u1e93anna wa m\u0101 tahwal-anfus(u), wa laqad j\u0101'ahum mir rabbihimul-hud\u0101.",
    "translation": " (Berhala-berhala) itu tidak lain hanyalah nama-nama yang kamu dan nenek moyangmu ada-adakan. Allah tidak menurunkan suatu keterangan apa pun untuk (menyembah)-nya. Mereka hanya mengikuti dugaan dan apa yang diinginkan oleh hawa nafsu. Padahal, sungguh, mereka benar-benar telah didatangi petunjuk dari Tuhan mereka.",
    "no_footnote": null,
    "footnotes": null,
    "surah": {
        "id": 53,
        "arabic": "\u0627\u0644\u0646\u0651\u062c\u0645",
        "latin": "An-Najm",
        "transliteration": "An-Najm",
        "translation": "Bintang",
        "num_ayah": 62,
        "page": 526,
        "location": "Makkiyah"
    },
    "tafsir": {
        "wajiz": "Wahai kaum musyrik, sesungguhnya berhala-berhala yang kamu sembah itu tidak lain hanyalah nama-nama belaka, yang tidak memiliki sifat ketuhanan dan karenanya tidak layak disembah. Kamulah pada masa ini dan nenek moyangmu pada masa lalu yang mengada-adakan nama mereka, sedang Allah tidak menurunkan suatu keterangan apa pun terkait ketuhanannya sehingga kamu tidak punya alasan untuk menyembah-nya. Sesungguhnya mereka, yaitu kaum musyrik, hanya mengikuti dugaan yang tidak berdasar dan apa yang diingini oleh keinginannya. Padahal sungguh, telah datang petunjuk yang benar dari Tuhan mereka. Andai saja mereka mau memahami dan menerimanya.",
        "tahlili": "Dalam ayat ini Allah menerangkan bahwa mereka menamakan berhala-berhala itu tuhan, padahal itu hanyalah nama-nama yang tidak mempunyai arti sama sekali. Mereka mengira dan berkeyakinan bahwa berhala-berhala itu mempunyai hak untuk di-iktikafi demi ibadat kepadanya dan sebagai tempat menyajikan binatang kurban. Mereka tidak mempunyai alasan atau mereka tidak dapat menjelaskan apa yang mereka katakan dan mereka lakukan. Mereka hanya meniru orang-orang yang terdahulu yang selanjutnya akan diikuti oleh anak cucu mereka.\nDalam ayat yang lain yang bersamaan artinya, Allah berfirman:\n\u0645\u064e\u0627 \u062a\u064e\u0639\u0652\u0628\u064f\u062f\u064f\u0648\u0652\u0646\u064e \u0645\u0650\u0646\u0652 \u062f\u064f\u0648\u0652\u0646\u0650\u0647\u0656\u0653 \u0627\u0650\u0644\u0651\u064e\u0627\u0653 \u0627\u064e\u0633\u0652\u0645\u064e\u0627\u06e4\u0621\u064b \u0633\u064e\u0645\u0651\u064e\u064a\u0652\u062a\u064f\u0645\u064f\u0648\u0652\u0647\u064e\u0627\u0653 \u0627\u064e\u0646\u0652\u062a\u064f\u0645\u0652 \u0648\u064e\u0627\u0670\u0628\u064e\u0627\u06e4\u0624\u064f\u0643\u064f\u0645\u0652\nApa yang kamu sembah selain Dia, hanyalah nama-nama yang kamu buat-buat baik oleh kamu sendiri maupun oleh nenek moyangmu. (Y\u016bsuf/12: 40)\n\nKemudian Allah swt menguatkan penjelasan-Nya dengan menerangkan bahwa mereka tidak mempunyai alasan kecuali karena berbaik sangka kepada bapak-bapaknya, yang berjalan pada jalan yang salah dan mempertahankan kedudukan mereka dalam masyarakat, atau karena hormat mereka terhadap bapak-bapaknya. Yang jelas mereka menyembah berhala-berhala itu hanyalah mengikuti sangkaan-sangkaan saja, bahwa bapak-bapak mereka dahulu itu berjalan pada jalan yang benar, padahal sebenarnya mereka mengikuti hawa nafsu mereka.\nSelanjutnya, Allah swt menerangkan bahwa seharusnya mereka tidak pantas untuk berbuat seperti itu karena telah datang peringatan, apa yang mereka lakukan saat itu adalah suatu kelalaian dan kesalahan.\nKemudian dalam ayat ini Allah menerangkan, bahwa mereka hanyalah mengikuti pendapat saja, sedangkan Allah telah mengutus rasul-Nya dengan kebenaran yang nyata dan dengan alasan yang jelas. Maka sudah seharusnyalah mereka menyadari kesalahannya. Akan tetapi, mereka masih tetap berpaling dari kebenaran. Diterangkan dalam firman Allah sebagai berikut:\n\u0643\u064e\u0627\u064e\u0646\u0651\u064e\u0647\u064f\u0645\u0652 \u062d\u064f\u0645\u064f\u0631\u064c \u0645\u0651\u064f\u0633\u0652\u062a\u064e\u0646\u0652\u0641\u0650\u0631\u064e\u0629\u064c\u06d9 \u0665\u0660 \u0641\u064e\u0631\u0651\u064e\u062a\u0652 \u0645\u0650\u0646\u0652 \u0642\u064e\u0633\u0652\u0648\u064e\u0631\u064e\u0629\u064d\u06d7 \u0665\u0661\nSeakan-akan mereka keledai liar yang lari terkejut, lari dari singa. (al-Mudda\u1e61\u1e61ir/74: 50-51)",
        "intro_surah": "Surah an-Najm terdiri dari 62 ayat, termasuk kelompok surah Makkiyyah, kecuali ayat 32 yang diturunkan di Medinah. Surah ini diturunkan sesudah Surah al-Ikhl\u0101\u1e63.\nNama an-Najm (Bintang), diambil dari kata an-najm yang terdapat pada ayat pertama dari surah ini. Allah swt bersumpah dengan an-najm (bintang) ialah karena bintang-bintang yang timbul dan tenggelam, sangat besar manfaatnya bagi manusia sebagai pedoman bagi mereka dalam melakukan pelayaran di lautan, dalam perjalanan di padang pasir, untuk menentukan peredaran musim, dan lain-lain sebagainya.\n\nPokok-pokok Isinya:\n1. \tKeimanan:\nAl-Qur\u2019an adalah wahyu Allah yang diturunkan kepada Nabi Muhammad saw dengan perantaraan Jibril, kebatilan penyembah berhala, tak ada seorang pun memberikan syafaat tanpa izin Allah swt; tiap-tiap orang hanya memikul dosanya sendiri.\n2. \tHukum-hukum:\nKewajiban menjauhi dosa-dosa besar; kewajiban bersujud dan menyem-bah Allah saja.\n3. \tLain-lain:\nNabi Muhammad saw melihat malaikat Jibril dua kali dalam bentuk aslinya, yaitu sekali waktu menerima wahyu pertama dan sekali lagi di Sidratul Muntaha; anjuran agar manusia jangan mengatakan dirinya suci karena Allah sendirilah yang mengetahui siapa yang takwa kepada-Nya; orang-orang musyrik selalu memperolok-olokkan Al-Qur\u2019an.",
        "outro_surah": null,
        "munasabah_prev_surah": "1. \tSurah sebelumnya ditutup dengan menyebut bintang-bintang, sedangkan surah ini juga dimulai dengan menyebut bintang.\n2. \tDalam surah sebelumnya disebutkan tuduhan orang kafir bahwa Al-Qur\u2019an dibuat oleh Nabi Muhammad saw, sedangkan dalam surah ini ditegaskan bahwa Al-Qur\u2019an dan sesuatu yang disampaikan oleh Muhammad saw benar-benar wahyu dari Allah.\n3. \tDalam surah sebelumnya diterangkan bahwa Nabi Muhammad saw selalu berada dalam inayah Allah swt, sedangkan surah ini diterangkan bagaimana kebesaran Allah swt dan kemuliaan Nabi Muhammad saw.\n4. \tDalam surah sebelumnya disebutkan bahwa anak cucu orang-orang Mukmin dimasukkan ke dalam surga mengikuti bapak-bapak mereka. Dalam surah ini disebutkan keturunan orang-orang Yahudi seperti dalam firman-Nya:\n\u0647\u064f\u0648\u064e \u0627\u064e\u0639\u0652\u0644\u064e\u0645\u064f \u0628\u0650\u0643\u064f\u0645\u0652 \u0627\u0650\u0630\u0652 \u0627\u064e\u0646\u0652\u0634\u064e\u0627\u064e\u0643\u064f\u0645\u0652 \u0645\u0651\u0650\u0646\u064e \u0627\u0644\u0652\u0627\u064e\u0631\u0652\u0636\u0650 \u0648\u064e\u0627\u0650\u0630\u0652 \u0627\u064e\u0646\u0652\u062a\u064f\u0645\u0652 \u0627\u064e\u062c\u0650\u0646\u0651\u064e\u0629\u064c \u0641\u0650\u064a\u0652 \u0628\u064f\u0637\u064f\u0648\u0652\u0646\u0650 \u0627\u064f\u0645\u0651\u064e\u0647\u0670\u062a\u0650\u0643\u064f\u0645\u0652\nDia mengetahui tentang kamu, sejak Dia menjadikan kamu dari tanah lalu ketika kamu masih janin dalam perut ibumu. (an-Najm/53: 32)\n5. \tDalam ayat sebelumnya Allah berfirman tentang orang-orang Mukmin.\n\u0627\u064e\u0644\u0652\u062d\u064e\u0642\u0652\u0646\u064e\u0627 \u0628\u0650\u0647\u0650\u0645\u0652 \u0630\u064f\u0631\u0651\u0650\u064a\u0651\u064e\u062a\u064e\u0647\u064f\u0645\u0652\n\tKami pertemukan mereka dengan anak cucu mereka (di dalam surga). (a\u1e6d-\u1e6c\u016br/52: 21)\n\t\nDalam surah ini Allah berfirman:\n\u0648\u064e\u0627\u064e\u0646\u0652 \u0644\u0651\u064e\u064a\u0652\u0633\u064e \u0644\u0650\u0644\u0652\u0627\u0650\u0646\u0652\u0633\u064e\u0627\u0646\u0650 \u0627\u0650\u0644\u0651\u064e\u0627 \u0645\u064e\u0627 \u0633\u064e\u0639\u0670\u0649\u06d9 \u0663\u0669\nDan bahwa manusia hanya memperoleh apa yang telah diusahakannya (an-Najm/53: 39)\n\nMenurut Ibnu Mardawaih dari Ibnu Mas\u2018\u016bd, Surah an-Najm ini adalah surah pertama yang dibaca oleh Nabi Muhammad saw di hadapan umum di Masjidil Haram dan didengar oleh orang-orang musyrik. Menurut al-Bukh\u0101r\u012b, Muslim, Ab\u016b D\u0101wud, dan Nas\u0101\u2019\u012b, surah ini adalah surah pertama yang diturunkan yang di dalamnya terdapat ayat as-Sajdah, kemudian Nabi Muhammad saw bersujud diikuti oleh semua orang, kecuali orang yang kelihatan sedang mengambil segenggam tanah, lalu ia sujud ke tanah itu. Akhirnya orang itu mati dibunuh dalam kekufuran, dia adalah Umayyah bin Khalaf.",
        "munasabah_prev_theme": "Pada ayat-ayat yang lalu Allah swt menerangkan apa yang dilihat oleh Nabi Muhammad saw berupa keajaiban-keajaiban di malam mi\u2018raj, ketika ia dimi\u2018rajkan. Maka pada ayat-ayat berikut ini Allah swt menanyakan kepada orang-orang musyrik tentang keadaan berhala-berhala yang mereka sembah dan keadaan mereka yang membatasi diri dengan alam materi dan dengan berhala-berhala itu.",
        "theme_group": "TUHAN-TUHAN ORANG KAFIR\nTIDAK BERMANFAAT BAGI MEREKA",
        "kosakata": "Kosakata:\n1.\tQismatun \u1e0c\u012bz\u0101  \u0642\u0650\u0633\u0652\u0645\u064e\u0629\u064c \u0636\u0650\u064a\u0652\u0632\u064e\u0649 (an-Najm/53: 22)\nQismatun artinya \u201cpembagian\u201d, kata itu adalah kata benda (ism) dari qasama \u2018membagi\u2019. \u1e0c\u012bz\u0101 adalah bentuk kata sifat mu\u2019anna\u1e61 (feminin) dari kata kerja \u1e0d\u0101za artinya \u2018mengurangi\u2019. Asalnya \u1e0duiza, karena dammah berat bagi y\u0101\u2019, maka dammah ditukar kasrah. Maksudnya adalah pembagian yang tidak adil. Yaitu mengenai kepercayaan kaum musyrikin Mekah bahwa malaikat itu adalah anak-anak perempuan Allah. Dengan demikian mereka hendak merendahkan Allah karena anak perempuan itu bagi mereka hina. Itu adalah pembagian yang tidak adil, karena bagi mereka anak laki-laki dan anak perempuan mereka peruntukkan bagi Allah.\n\n\n2.\tTamann\u0101 \u062a\u064e\u0645\u064e\u0646\u0651\u064e\u0649 (an-Najm/53: 24) \nTamann\u0101  \u201cmencita-citakan\u201d, \u201cmendambakan\u201d. Terambil dari kata man\u0101 artinya \u201cmenentukan\u201d. Tamann\u0101 berarti menentukan sendiri apa yang akan diperoleh pada masa yang akan datang yang tidak mungkin terjadi. Dari kata itu terbentuk kata umniyah artinya \u201cangan-angan\u201d, jamaknya am\u0101niyya, yang banyak terdapat dalam Al-Qur\u2019an. Kata maniyya sperma juga ada kaitannya dengan kata itu, karena sperma itu diharapkan darinya membuahkan anak. Orang Arab punya berhala namanya man\u0101t, yaitu yang mereka angan-angankan dapat memenuhi permintaan mereka.",
        "sabab_nuzul": null,
        "conclusion": null
    }
}