{
    "id": 4838,
    "surah_id": 53,
    "ayah": 54,
    "page": 528,
    "quarter_hizb": 53.5,
    "juz": 27,
    "manzil": 7,
    "arabic": "\u0641\u064e\u063a\u064e\u0634\u0651\u0670\u0649\u0647\u064e\u0627 \u0645\u064e\u0627 \u063a\u064e\u0634\u0651\u0670\u0649\u06da  ",
    "latin": "Fa gasysy\u0101h\u0101 m\u0101 gasysy\u0101.",
    "translation": " lalu Dia menimbuninyadengan apa yang menimpanya.",
    "no_footnote": null,
    "footnotes": null,
    "surah": {
        "id": 53,
        "arabic": "\u0627\u0644\u0646\u0651\u062c\u0645",
        "latin": "An-Najm",
        "transliteration": "An-Najm",
        "translation": "Bintang",
        "num_ayah": 62,
        "page": 526,
        "location": "Makkiyah"
    },
    "tafsir": {
        "wajiz": "lalu dengan angin tersebut Allah menimbuni negeri itu dengan puing-puing dan bebatuan yang menimpanya.",
        "tahlili": "Allah telah memusnahkan kaum Lut dengan menjungkir-balikkan negeri mereka dan menurunkan azab kepada mereka berupa hujan batu yang terbakar, sambil menghujani mereka dengan batu-batu dari tanah yang terbakar, bertubi-tubi. Dalam ayat lain yang sama maksudnya, Allah berfirman:\n\u0648\u064e\u0627\u064e\u0645\u0652\u0637\u064e\u0631\u0652\u0646\u064e\u0627 \u0639\u064e\u0644\u064e\u064a\u0652\u0647\u0650\u0645\u0652 \u0645\u0651\u064e\u0637\u064e\u0631\u064b\u0627\u06da \u0641\u064e\u0633\u064e\u0627\u06e4\u0621\u064e \u0645\u064e\u0637\u064e\u0631\u064f \u0627\u0644\u0652\u0645\u064f\u0646\u0652\u0630\u064e\u0631\u0650\u064a\u0652\u0646\u064e \u0661\u0667\u0663\nDan Kami hujani mereka (dengan hujan batu), maka betapa buruk hujan yang menimpa orang-orang yang telah diberi peringatan itu. (asy-Syu\u2018ar\u0101'/26: 173)\n\nInilah yang dikehendaki oleh Allah dengan firman-Nya, \u201cAllah menimpakan atas negeri mereka azab yang menimpanya.\u201d Pengungkapan keadaan dengan kata-kata tersebut menunjukkan kehebatan azab yang menimpa mereka karena Allah membalikkan-Nya, yang atas menjadi bawah dan bawah menjadi atas.\nKeterangan yang jelas dan nyata itu tak dapat meyakinkan mereka, bahkan membikin mereka ragu-ragu, mereka menertawakannya, walaupun Nabi Muhammad saw terus-menerus memperingatkan mereka. Sebenarnya mereka harus menangis atas kesalahan dan kelengahan mereka dan sembah sujud kepada Allah.",
        "intro_surah": "Surah an-Najm terdiri dari 62 ayat, termasuk kelompok surah Makkiyyah, kecuali ayat 32 yang diturunkan di Medinah. Surah ini diturunkan sesudah Surah al-Ikhl\u0101\u1e63.\nNama an-Najm (Bintang), diambil dari kata an-najm yang terdapat pada ayat pertama dari surah ini. Allah swt bersumpah dengan an-najm (bintang) ialah karena bintang-bintang yang timbul dan tenggelam, sangat besar manfaatnya bagi manusia sebagai pedoman bagi mereka dalam melakukan pelayaran di lautan, dalam perjalanan di padang pasir, untuk menentukan peredaran musim, dan lain-lain sebagainya.\n\nPokok-pokok Isinya:\n1. \tKeimanan:\nAl-Qur\u2019an adalah wahyu Allah yang diturunkan kepada Nabi Muhammad saw dengan perantaraan Jibril, kebatilan penyembah berhala, tak ada seorang pun memberikan syafaat tanpa izin Allah swt; tiap-tiap orang hanya memikul dosanya sendiri.\n2. \tHukum-hukum:\nKewajiban menjauhi dosa-dosa besar; kewajiban bersujud dan menyem-bah Allah saja.\n3. \tLain-lain:\nNabi Muhammad saw melihat malaikat Jibril dua kali dalam bentuk aslinya, yaitu sekali waktu menerima wahyu pertama dan sekali lagi di Sidratul Muntaha; anjuran agar manusia jangan mengatakan dirinya suci karena Allah sendirilah yang mengetahui siapa yang takwa kepada-Nya; orang-orang musyrik selalu memperolok-olokkan Al-Qur\u2019an.",
        "outro_surah": null,
        "munasabah_prev_surah": "1. \tSurah sebelumnya ditutup dengan menyebut bintang-bintang, sedangkan surah ini juga dimulai dengan menyebut bintang.\n2. \tDalam surah sebelumnya disebutkan tuduhan orang kafir bahwa Al-Qur\u2019an dibuat oleh Nabi Muhammad saw, sedangkan dalam surah ini ditegaskan bahwa Al-Qur\u2019an dan sesuatu yang disampaikan oleh Muhammad saw benar-benar wahyu dari Allah.\n3. \tDalam surah sebelumnya diterangkan bahwa Nabi Muhammad saw selalu berada dalam inayah Allah swt, sedangkan surah ini diterangkan bagaimana kebesaran Allah swt dan kemuliaan Nabi Muhammad saw.\n4. \tDalam surah sebelumnya disebutkan bahwa anak cucu orang-orang Mukmin dimasukkan ke dalam surga mengikuti bapak-bapak mereka. Dalam surah ini disebutkan keturunan orang-orang Yahudi seperti dalam firman-Nya:\n\u0647\u064f\u0648\u064e \u0627\u064e\u0639\u0652\u0644\u064e\u0645\u064f \u0628\u0650\u0643\u064f\u0645\u0652 \u0627\u0650\u0630\u0652 \u0627\u064e\u0646\u0652\u0634\u064e\u0627\u064e\u0643\u064f\u0645\u0652 \u0645\u0651\u0650\u0646\u064e \u0627\u0644\u0652\u0627\u064e\u0631\u0652\u0636\u0650 \u0648\u064e\u0627\u0650\u0630\u0652 \u0627\u064e\u0646\u0652\u062a\u064f\u0645\u0652 \u0627\u064e\u062c\u0650\u0646\u0651\u064e\u0629\u064c \u0641\u0650\u064a\u0652 \u0628\u064f\u0637\u064f\u0648\u0652\u0646\u0650 \u0627\u064f\u0645\u0651\u064e\u0647\u0670\u062a\u0650\u0643\u064f\u0645\u0652\nDia mengetahui tentang kamu, sejak Dia menjadikan kamu dari tanah lalu ketika kamu masih janin dalam perut ibumu. (an-Najm/53: 32)\n5. \tDalam ayat sebelumnya Allah berfirman tentang orang-orang Mukmin.\n\u0627\u064e\u0644\u0652\u062d\u064e\u0642\u0652\u0646\u064e\u0627 \u0628\u0650\u0647\u0650\u0645\u0652 \u0630\u064f\u0631\u0651\u0650\u064a\u0651\u064e\u062a\u064e\u0647\u064f\u0645\u0652\n\tKami pertemukan mereka dengan anak cucu mereka (di dalam surga). (a\u1e6d-\u1e6c\u016br/52: 21)\n\t\nDalam surah ini Allah berfirman:\n\u0648\u064e\u0627\u064e\u0646\u0652 \u0644\u0651\u064e\u064a\u0652\u0633\u064e \u0644\u0650\u0644\u0652\u0627\u0650\u0646\u0652\u0633\u064e\u0627\u0646\u0650 \u0627\u0650\u0644\u0651\u064e\u0627 \u0645\u064e\u0627 \u0633\u064e\u0639\u0670\u0649\u06d9 \u0663\u0669\nDan bahwa manusia hanya memperoleh apa yang telah diusahakannya (an-Najm/53: 39)\n\nMenurut Ibnu Mardawaih dari Ibnu Mas\u2018\u016bd, Surah an-Najm ini adalah surah pertama yang dibaca oleh Nabi Muhammad saw di hadapan umum di Masjidil Haram dan didengar oleh orang-orang musyrik. Menurut al-Bukh\u0101r\u012b, Muslim, Ab\u016b D\u0101wud, dan Nas\u0101\u2019\u012b, surah ini adalah surah pertama yang diturunkan yang di dalamnya terdapat ayat as-Sajdah, kemudian Nabi Muhammad saw bersujud diikuti oleh semua orang, kecuali orang yang kelihatan sedang mengambil segenggam tanah, lalu ia sujud ke tanah itu. Akhirnya orang itu mati dibunuh dalam kekufuran, dia adalah Umayyah bin Khalaf.",
        "munasabah_prev_theme": "Pada ayat-ayat yang lalu dinyatakan bahwa Allah swt memiliki semua yang ada di langit dan di bumi, membalas perbuatan-perbuatan jahat dengan azab dan membalas orang-orang yang berbuat baik dengan yang lebih baik, Dia menjadikan kita dari tanah dan mengetahui perkembangan bayi dalam kandungan ibunya. Dari itu tidak pantaslah kita menyatakan kesucian diri kita, karena Allah lebih mengetahui siapa yang bertakwa dari hamba-Nya. Maka ayat-ayat berikut ini menerangkan, bahwa sesungguhnya seseorang tidak akan memikul dosa orang lain dan baginya apa yang telah diusahakannya, dan kepada Allah kita akan kembali.",
        "theme_group": "KEHANCURAN PENDUSTAKEBENARAN DAN \nPERTANGGUNGJAWABAN MANUSIA ATAS PERBUATANNYA ",
        "kosakata": "Kosakata:\n1.\tAkd\u0101 \u0627\u064e\u0643\u0652\u062f\u064e\u064a (an-Najm/53: 34)\nAkd\u0101 berasal dari kata kerja kad\u0101-al-kudyatu artinya keras membatu. Akd\u0101 berarti kikir yang luar biasa bagaikan batu yang tidak ada yang menetes darinya.\n2.\tAl-Mu'tafikah  \u0627\u0644\u0652\u0645\u064f\u0624\u0652\u062a\u064e\u0641\u0650\u0643\u064e\u0629 (an-Najm/53: 53)\nAl-Mu'tafikah adalah kata jadian dari i'tafaka artinya membalikkan dari benar menjadi salah, dari baik menjadi buruk. Kata dasarnya al-ifku yaitu sesuatu yang berubah keadaannya dari baik menjadi buruk. Kata ini digunakan untuk negeri kaum Lut yang dijungkirbalikkan oleh Allah karena dosa homoseksual mereka.",
        "sabab_nuzul": null,
        "conclusion": "Lima macam peringatan yang diwahyukan kepada Nabi Muhammad saw terkandung juga dalam Kitab Taurat Nabi Musa dan kitab Nabi Ibrahim antara lain:\n1.\tJika sudah mendapat hidayah, iman jangan tergoda oleh orang yang akan menyesatkan, seperti halnya dengan al-Wal\u012bd bin Mug\u012brah. \n2.\tSeseorang itu tidak memikul dosa orang lain, seseorang diberi ganjaran sesuai dengan amal perbuatannya.\n3.\tHidup manusia tergantung pada usahanya.\n4.\tAllah menentukan kematian dan hidup sesudah mati.\n5.\tTujuan akhir segalanya hanya Allah."
    }
}