{
    "id": 4820,
    "surah_id": 53,
    "ayah": 36,
    "page": 527,
    "quarter_hizb": 53.5,
    "juz": 27,
    "manzil": 7,
    "arabic": "\u0627\u064e\u0645\u0652 \u0644\u064e\u0645\u0652 \u064a\u064f\u0646\u064e\u0628\u0651\u064e\u0623\u0652 \u0628\u0650\u0645\u064e\u0627 \u0641\u0650\u064a\u0652 \u0635\u064f\u062d\u064f\u0641\u0650 \u0645\u064f\u0648\u0652\u0633\u0670\u0649  ",
    "latin": "Am lam yunabba' bim\u0101 f\u012b \u1e63u\u1e25ufi m\u016bs\u0101.",
    "translation": " Apakah belum diberitakan kepadanya apa yang ada dalam lembaran-lembaran (kitab suci yang diturunkan kepada) Musa",
    "no_footnote": null,
    "footnotes": null,
    "surah": {
        "id": 53,
        "arabic": "\u0627\u0644\u0646\u0651\u062c\u0645",
        "latin": "An-Najm",
        "transliteration": "An-Najm",
        "translation": "Bintang",
        "num_ayah": 62,
        "page": 526,
        "location": "Makkiyah"
    },
    "tafsir": {
        "wajiz": "Ingkar dan kikir merupakan sifat tercela dan dia telah mendapat tuntunan untuk menghindarinya. Apakah dia memang ingkar ataukah belum diberitakan kepadanya apa yang ada dalam lembaran-lembaran kitab suci yang diwahyukan kepada Nabi Musa?",
        "tahlili": "Pada ayat ini dijelaskan tentang ketentuan-ketentuan syariat Ibrahim yang telah melaksanakan tugas-tugas yang diberikan kepadanya, telah menyampaikan risalahnya menurut semestinya, sebagaimana yang dimaksud oleh ayat:\n\u0648\u064e\u0627\u0650\u0630\u0650 \u0627\u0628\u0652\u062a\u064e\u0644\u0670\u0653\u0649 \u0627\u0650\u0628\u0652\u0631\u0670\u0647\u0656\u0645\u064e \u0631\u064e\u0628\u0651\u064f\u0647\u0657 \u0628\u0650\u0643\u064e\u0644\u0650\u0645\u0670\u062a\u064d \u0641\u064e\u0627\u064e\u062a\u064e\u0645\u0651\u064e\u0647\u064f\u0646\u0651\u064e \u06d7 \u0642\u064e\u0627\u0644\u064e \u0627\u0650\u0646\u0651\u0650\u064a\u0652 \u062c\u064e\u0627\u0639\u0650\u0644\u064f\u0643\u064e \u0644\u0650\u0644\u0646\u0651\u064e\u0627\u0633\u0650 \u0627\u0650\u0645\u064e\u0627\u0645\u064b\u0627\nDan (ingatlah), ketika Ibrahim diuji Tuhannya dengan beberapa kali-mat, lalu dia melaksanakannya dengan sempurna. Dia (Allah) berfirman, \u201cSesungguhnya Aku menjadikan engkau sebagai pemimpin bagi seluruh manusia.\u201d (al-Baqarah/2: 124) \n\nIbnu \u2018Abb\u0101s menyatakan, Ibrahim telah menjalankan semua gagasan Islam yang tigapuluh macam banyaknya yang tidak pernah dijalankan oleh nabi yang lain, yaitu sepuluh gagasan tersebut dalam Surah at-Taubah/9 ayat 111 dan 112. Dalam ayat pertama tersebut hanya satu macam gagasan, yaitu berperang pada jalan Allah lalu ia membunuh atau terbunuh, sedang pada ayat kedua disebutkan sembilan macam, yaitu orang yang bertobat, yang beribadah, yang memuji (Allah), yang mengembara (demi agama Islam), yang rukuk, yang sujud, yang menyuruh berbuat ma\u2018ruf dan mencegah berbuat mungkar dan yang memelihara hukum-hukum Allah. Sepuluh di Surah al-A\u1e25z\u0101b/33, pada ayat 35, yaitu laki-laki dan perempuan muslim, laki-laki dan perempuan yang mukmin, laki-laki dan perempuan yang khusyu\u2018, laki-laki dan perempuan yang bersedekah, laki-laki dan perempuan yang berpuasa, laki-laki dan perempuan yang memelihara kehormatannya, laki-laki dan perempuan yang banyak menyebut (nama) Allah. Enam macam dalam Surah al-Mu'min\u016bn/23 dari ayat 2 sampai dengan ayat 9, yaitu: orang yang khusyu\u2018 dalam salat, orang menjauhkan diri dari (perbuatan dan perkataan) yang tiada berguna, orang yang menunaikan zakat, orang yang menjaga kemaluannya, kecuali terhadap istri-istri mereka atau budak yang mereka miliki maka sesungguhnya mereka dalam hal ini tidak tercela. Barang siapa mencari yang di balik itu, mereka adalah orang yang melampaui batas, dan orang yang memelihara amanat (yang dipikulnya) dan janjinya, orang yang memelihara salatnya. Empat macam dalam Surah al-Ma\u2018\u0101rij/70, yaitu mulai dari ayat 26 sampai dengan ayat 33; orang yang mempercayai hari Pembalasan, orang yang takut terhadap azab Tuhannya, karena sesungguhnya azab Tuhan mereka tidak dapat orang merasa aman (dari kedatangannya), orang yang memelihara kemaluannya, kecuali kepada istri-istri mereka atau budak-budak yang mereka miliki, maka sesungguhnya mereka dalam hal ini tiada tercela.\nBarang siapa mencari yang di balik itu, maka mereka itulah orang-orang yang melampaui batas, orang-orang yang memelihara amanat-amanat (yang dipikulnya) dan janjinya dan orang-orang yang memberikan kesaksiannya.\nDikhususkan Ibrahim dengan sifat-sifat tersebut, karena beratnya cobaan yang telah dialaminya ketika terjadi perintah menyembelih putranya Ismail yang sudah jelas ceritanya.\nAdapun sebab menyebutkan syariat dua Nabi ini saja, karena orang musyrik mengaku bahwa mereka adalah pengikut Ibrahim, sedangkan Ahli Kitab mengaku bahwa mereka pengikut Taurat dan lembaran-lembarannya yang masih dekat masanya dengan mereka. Kemudian Allah menyatakan isi dari kedua syariat tersebut dalam ayat 38 dan 39 berikut.",
        "intro_surah": "Surah an-Najm terdiri dari 62 ayat, termasuk kelompok surah Makkiyyah, kecuali ayat 32 yang diturunkan di Medinah. Surah ini diturunkan sesudah Surah al-Ikhl\u0101\u1e63.\nNama an-Najm (Bintang), diambil dari kata an-najm yang terdapat pada ayat pertama dari surah ini. Allah swt bersumpah dengan an-najm (bintang) ialah karena bintang-bintang yang timbul dan tenggelam, sangat besar manfaatnya bagi manusia sebagai pedoman bagi mereka dalam melakukan pelayaran di lautan, dalam perjalanan di padang pasir, untuk menentukan peredaran musim, dan lain-lain sebagainya.\n\nPokok-pokok Isinya:\n1. \tKeimanan:\nAl-Qur\u2019an adalah wahyu Allah yang diturunkan kepada Nabi Muhammad saw dengan perantaraan Jibril, kebatilan penyembah berhala, tak ada seorang pun memberikan syafaat tanpa izin Allah swt; tiap-tiap orang hanya memikul dosanya sendiri.\n2. \tHukum-hukum:\nKewajiban menjauhi dosa-dosa besar; kewajiban bersujud dan menyem-bah Allah saja.\n3. \tLain-lain:\nNabi Muhammad saw melihat malaikat Jibril dua kali dalam bentuk aslinya, yaitu sekali waktu menerima wahyu pertama dan sekali lagi di Sidratul Muntaha; anjuran agar manusia jangan mengatakan dirinya suci karena Allah sendirilah yang mengetahui siapa yang takwa kepada-Nya; orang-orang musyrik selalu memperolok-olokkan Al-Qur\u2019an.",
        "outro_surah": null,
        "munasabah_prev_surah": "1. \tSurah sebelumnya ditutup dengan menyebut bintang-bintang, sedangkan surah ini juga dimulai dengan menyebut bintang.\n2. \tDalam surah sebelumnya disebutkan tuduhan orang kafir bahwa Al-Qur\u2019an dibuat oleh Nabi Muhammad saw, sedangkan dalam surah ini ditegaskan bahwa Al-Qur\u2019an dan sesuatu yang disampaikan oleh Muhammad saw benar-benar wahyu dari Allah.\n3. \tDalam surah sebelumnya diterangkan bahwa Nabi Muhammad saw selalu berada dalam inayah Allah swt, sedangkan surah ini diterangkan bagaimana kebesaran Allah swt dan kemuliaan Nabi Muhammad saw.\n4. \tDalam surah sebelumnya disebutkan bahwa anak cucu orang-orang Mukmin dimasukkan ke dalam surga mengikuti bapak-bapak mereka. Dalam surah ini disebutkan keturunan orang-orang Yahudi seperti dalam firman-Nya:\n\u0647\u064f\u0648\u064e \u0627\u064e\u0639\u0652\u0644\u064e\u0645\u064f \u0628\u0650\u0643\u064f\u0645\u0652 \u0627\u0650\u0630\u0652 \u0627\u064e\u0646\u0652\u0634\u064e\u0627\u064e\u0643\u064f\u0645\u0652 \u0645\u0651\u0650\u0646\u064e \u0627\u0644\u0652\u0627\u064e\u0631\u0652\u0636\u0650 \u0648\u064e\u0627\u0650\u0630\u0652 \u0627\u064e\u0646\u0652\u062a\u064f\u0645\u0652 \u0627\u064e\u062c\u0650\u0646\u0651\u064e\u0629\u064c \u0641\u0650\u064a\u0652 \u0628\u064f\u0637\u064f\u0648\u0652\u0646\u0650 \u0627\u064f\u0645\u0651\u064e\u0647\u0670\u062a\u0650\u0643\u064f\u0645\u0652\nDia mengetahui tentang kamu, sejak Dia menjadikan kamu dari tanah lalu ketika kamu masih janin dalam perut ibumu. (an-Najm/53: 32)\n5. \tDalam ayat sebelumnya Allah berfirman tentang orang-orang Mukmin.\n\u0627\u064e\u0644\u0652\u062d\u064e\u0642\u0652\u0646\u064e\u0627 \u0628\u0650\u0647\u0650\u0645\u0652 \u0630\u064f\u0631\u0651\u0650\u064a\u0651\u064e\u062a\u064e\u0647\u064f\u0645\u0652\n\tKami pertemukan mereka dengan anak cucu mereka (di dalam surga). (a\u1e6d-\u1e6c\u016br/52: 21)\n\t\nDalam surah ini Allah berfirman:\n\u0648\u064e\u0627\u064e\u0646\u0652 \u0644\u0651\u064e\u064a\u0652\u0633\u064e \u0644\u0650\u0644\u0652\u0627\u0650\u0646\u0652\u0633\u064e\u0627\u0646\u0650 \u0627\u0650\u0644\u0651\u064e\u0627 \u0645\u064e\u0627 \u0633\u064e\u0639\u0670\u0649\u06d9 \u0663\u0669\nDan bahwa manusia hanya memperoleh apa yang telah diusahakannya (an-Najm/53: 39)\n\nMenurut Ibnu Mardawaih dari Ibnu Mas\u2018\u016bd, Surah an-Najm ini adalah surah pertama yang dibaca oleh Nabi Muhammad saw di hadapan umum di Masjidil Haram dan didengar oleh orang-orang musyrik. Menurut al-Bukh\u0101r\u012b, Muslim, Ab\u016b D\u0101wud, dan Nas\u0101\u2019\u012b, surah ini adalah surah pertama yang diturunkan yang di dalamnya terdapat ayat as-Sajdah, kemudian Nabi Muhammad saw bersujud diikuti oleh semua orang, kecuali orang yang kelihatan sedang mengambil segenggam tanah, lalu ia sujud ke tanah itu. Akhirnya orang itu mati dibunuh dalam kekufuran, dia adalah Umayyah bin Khalaf.",
        "munasabah_prev_theme": "Pada ayat-ayat yang lalu dinyatakan bahwa Allah swt memiliki semua yang ada di langit dan di bumi, membalas perbuatan-perbuatan jahat dengan azab dan membalas orang-orang yang berbuat baik dengan yang lebih baik, Dia menjadikan kita dari tanah dan mengetahui perkembangan bayi dalam kandungan ibunya. Dari itu tidak pantaslah kita menyatakan kesucian diri kita, karena Allah lebih mengetahui siapa yang bertakwa dari hamba-Nya. Maka ayat-ayat berikut ini menerangkan, bahwa sesungguhnya seseorang tidak akan memikul dosa orang lain dan baginya apa yang telah diusahakannya, dan kepada Allah kita akan kembali.",
        "theme_group": "KEHANCURAN PENDUSTAKEBENARAN DAN \nPERTANGGUNGJAWABAN MANUSIA ATAS PERBUATANNYA ",
        "kosakata": "Kosakata:\n1.\tAkd\u0101 \u0627\u064e\u0643\u0652\u062f\u064e\u064a (an-Najm/53: 34)\nAkd\u0101 berasal dari kata kerja kad\u0101-al-kudyatu artinya keras membatu. Akd\u0101 berarti kikir yang luar biasa bagaikan batu yang tidak ada yang menetes darinya.\n2.\tAl-Mu'tafikah  \u0627\u0644\u0652\u0645\u064f\u0624\u0652\u062a\u064e\u0641\u0650\u0643\u064e\u0629 (an-Najm/53: 53)\nAl-Mu'tafikah adalah kata jadian dari i'tafaka artinya membalikkan dari benar menjadi salah, dari baik menjadi buruk. Kata dasarnya al-ifku yaitu sesuatu yang berubah keadaannya dari baik menjadi buruk. Kata ini digunakan untuk negeri kaum Lut yang dijungkirbalikkan oleh Allah karena dosa homoseksual mereka.",
        "sabab_nuzul": null,
        "conclusion": null
    }
}