{
    "id": 4841,
    "surah_id": 53,
    "ayah": 57,
    "page": 528,
    "quarter_hizb": 53.5,
    "juz": 27,
    "manzil": 7,
    "arabic": "\u0627\u064e\u0632\u0650\u0641\u064e\u062a\u0650 \u0627\u0644\u0652\u0627\u0670\u0632\u0650\u0641\u064e\u0629\u064f \u06da ",
    "latin": "Azifatil-\u0101zifah(tu).",
    "translation": " (Hari Kiamat) yang dekat makin mendekat. ",
    "no_footnote": null,
    "footnotes": null,
    "surah": {
        "id": 53,
        "arabic": "\u0627\u0644\u0646\u0651\u062c\u0645",
        "latin": "An-Najm",
        "transliteration": "An-Najm",
        "translation": "Bintang",
        "num_ayah": 62,
        "page": 526,
        "location": "Makkiyah"
    },
    "tafsir": {
        "wajiz": "Di antara peringatan Nabi Muhammad adalah kepastian akan datangnya hari kiamat yang semakin hari semakin dekat. Sesuatu yang dekat, yaitu hari kiamat, kedatangannya telah makin mendekat",
        "tahlili": "Ayat ini menerangkan, bahwa hari Kiamat sudah dekat masanya dan neraka telah tersedia, tiap manusia akan menerima balasan sesuai dengan perbuatannya, maka waspadalah, agar kamu tidak termasuk di antara orang yang binasa, yaitu pada suatu hari yang tidak berguna. Pada waktu itu harta dan anak tidak dapat memberi manfaat kepada anggota keluarga lainnya sedikit pun dan mereka tidak mendapat pertolongan apa pun, kecuali orang yang datang menghadapi Allah dengan hati yang bersih.\n\u0627\u0650\u0630\u064e\u0627 \u0648\u064e\u0642\u064e\u0639\u064e\u062a\u0650 \u0627\u0644\u0652\u0648\u064e\u0627\u0642\u0650\u0639\u064e\u0629\u064f\u06d9 \u0661 \u0644\u064e\u064a\u0652\u0633\u064e \u0644\u0650\u0648\u064e\u0642\u0652\u0639\u064e\u062a\u0650\u0647\u064e\u0627 \u0643\u064e\u0627\u0630\u0650\u0628\u064e\u0629\u064c \u06d8 \u0662\nApabila terjadi hari Kiamat, terjadinya tidak dapat didustakan (disangkal). (al-W\u0101qi\u2018ah/56: 1-2)\n\nDan tersebut dalam hadis:\n\u0645\u064e\u062b\u064e\u0644\u0650\u0649\u0652 \u0648\u064e \u0645\u064e\u062b\u064e\u0644\u064f \u0627\u0644\u0633\u0651\u064e\u0627\u0639\u064e\u0629\u0650 \u0643\u064e\u0647\u064e\u0627\u062a\u064e\u064a\u0652\u0646\u0650 \u0648\u064e\u0641\u064e\u0631\u0651\u064e\u0642\u064e \u0628\u064e\u064a\u0652\u0646\u064e \u0625\u0650\u0635\u0652\u0628\u064e\u0639\u064e\u064a\u0652\u0647\u0650 \u0627\u0644\u0648\u064f\u0633\u0652\u0637\u064e\u0649 \u0648\u064e\u0627\u0644\u0651\u064e\u062a\u0650\u064a\u0652 \u062a\u064e\u0644\u0650\u064a \u0627\u0644\u0627\u0650\u0628\u0652\u0647\u064e\u0627\u0645\u064e. (\u0631\u0648\u0627\u0647 \u0623\u062d\u0645\u062f)\nKerasulanku ini dibandingkan dengan hari Kiamat adalah seperti dua ini, dan beliau menceraikan antara dua anak jari-jari tengah dan telunjuk. (Riwayat A\u1e25mad)",
        "intro_surah": "Surah an-Najm terdiri dari 62 ayat, termasuk kelompok surah Makkiyyah, kecuali ayat 32 yang diturunkan di Medinah. Surah ini diturunkan sesudah Surah al-Ikhl\u0101\u1e63.\nNama an-Najm (Bintang), diambil dari kata an-najm yang terdapat pada ayat pertama dari surah ini. Allah swt bersumpah dengan an-najm (bintang) ialah karena bintang-bintang yang timbul dan tenggelam, sangat besar manfaatnya bagi manusia sebagai pedoman bagi mereka dalam melakukan pelayaran di lautan, dalam perjalanan di padang pasir, untuk menentukan peredaran musim, dan lain-lain sebagainya.\n\nPokok-pokok Isinya:\n1. \tKeimanan:\nAl-Qur\u2019an adalah wahyu Allah yang diturunkan kepada Nabi Muhammad saw dengan perantaraan Jibril, kebatilan penyembah berhala, tak ada seorang pun memberikan syafaat tanpa izin Allah swt; tiap-tiap orang hanya memikul dosanya sendiri.\n2. \tHukum-hukum:\nKewajiban menjauhi dosa-dosa besar; kewajiban bersujud dan menyem-bah Allah saja.\n3. \tLain-lain:\nNabi Muhammad saw melihat malaikat Jibril dua kali dalam bentuk aslinya, yaitu sekali waktu menerima wahyu pertama dan sekali lagi di Sidratul Muntaha; anjuran agar manusia jangan mengatakan dirinya suci karena Allah sendirilah yang mengetahui siapa yang takwa kepada-Nya; orang-orang musyrik selalu memperolok-olokkan Al-Qur\u2019an.",
        "outro_surah": null,
        "munasabah_prev_surah": "1. \tSurah sebelumnya ditutup dengan menyebut bintang-bintang, sedangkan surah ini juga dimulai dengan menyebut bintang.\n2. \tDalam surah sebelumnya disebutkan tuduhan orang kafir bahwa Al-Qur\u2019an dibuat oleh Nabi Muhammad saw, sedangkan dalam surah ini ditegaskan bahwa Al-Qur\u2019an dan sesuatu yang disampaikan oleh Muhammad saw benar-benar wahyu dari Allah.\n3. \tDalam surah sebelumnya diterangkan bahwa Nabi Muhammad saw selalu berada dalam inayah Allah swt, sedangkan surah ini diterangkan bagaimana kebesaran Allah swt dan kemuliaan Nabi Muhammad saw.\n4. \tDalam surah sebelumnya disebutkan bahwa anak cucu orang-orang Mukmin dimasukkan ke dalam surga mengikuti bapak-bapak mereka. Dalam surah ini disebutkan keturunan orang-orang Yahudi seperti dalam firman-Nya:\n\u0647\u064f\u0648\u064e \u0627\u064e\u0639\u0652\u0644\u064e\u0645\u064f \u0628\u0650\u0643\u064f\u0645\u0652 \u0627\u0650\u0630\u0652 \u0627\u064e\u0646\u0652\u0634\u064e\u0627\u064e\u0643\u064f\u0645\u0652 \u0645\u0651\u0650\u0646\u064e \u0627\u0644\u0652\u0627\u064e\u0631\u0652\u0636\u0650 \u0648\u064e\u0627\u0650\u0630\u0652 \u0627\u064e\u0646\u0652\u062a\u064f\u0645\u0652 \u0627\u064e\u062c\u0650\u0646\u0651\u064e\u0629\u064c \u0641\u0650\u064a\u0652 \u0628\u064f\u0637\u064f\u0648\u0652\u0646\u0650 \u0627\u064f\u0645\u0651\u064e\u0647\u0670\u062a\u0650\u0643\u064f\u0645\u0652\nDia mengetahui tentang kamu, sejak Dia menjadikan kamu dari tanah lalu ketika kamu masih janin dalam perut ibumu. (an-Najm/53: 32)\n5. \tDalam ayat sebelumnya Allah berfirman tentang orang-orang Mukmin.\n\u0627\u064e\u0644\u0652\u062d\u064e\u0642\u0652\u0646\u064e\u0627 \u0628\u0650\u0647\u0650\u0645\u0652 \u0630\u064f\u0631\u0651\u0650\u064a\u0651\u064e\u062a\u064e\u0647\u064f\u0645\u0652\n\tKami pertemukan mereka dengan anak cucu mereka (di dalam surga). (a\u1e6d-\u1e6c\u016br/52: 21)\n\t\nDalam surah ini Allah berfirman:\n\u0648\u064e\u0627\u064e\u0646\u0652 \u0644\u0651\u064e\u064a\u0652\u0633\u064e \u0644\u0650\u0644\u0652\u0627\u0650\u0646\u0652\u0633\u064e\u0627\u0646\u0650 \u0627\u0650\u0644\u0651\u064e\u0627 \u0645\u064e\u0627 \u0633\u064e\u0639\u0670\u0649\u06d9 \u0663\u0669\nDan bahwa manusia hanya memperoleh apa yang telah diusahakannya (an-Najm/53: 39)\n\nMenurut Ibnu Mardawaih dari Ibnu Mas\u2018\u016bd, Surah an-Najm ini adalah surah pertama yang dibaca oleh Nabi Muhammad saw di hadapan umum di Masjidil Haram dan didengar oleh orang-orang musyrik. Menurut al-Bukh\u0101r\u012b, Muslim, Ab\u016b D\u0101wud, dan Nas\u0101\u2019\u012b, surah ini adalah surah pertama yang diturunkan yang di dalamnya terdapat ayat as-Sajdah, kemudian Nabi Muhammad saw bersujud diikuti oleh semua orang, kecuali orang yang kelihatan sedang mengambil segenggam tanah, lalu ia sujud ke tanah itu. Akhirnya orang itu mati dibunuh dalam kekufuran, dia adalah Umayyah bin Khalaf.",
        "munasabah_prev_theme": "Dalam ayat-ayat yang lalu diungkapkan bagian-bagian yang terkandung dalam lembaran-lembaran Musa dan Ibrahim, yang juga diwahyukan kepada Nabi Muhammad, yaitu hidup dan mati berada di tangan-Nya. Dia mengatur dan memiliki alam semesta, menciptakan kekayaan dan kemiskinan bagi siapa yang dikehendaki-Nya. Urusan pada hari kebangkitan berada dalam genggaman-Nya dan manusia akan kembali kepada-Nya. Dia membinasakan sebagian umat-umat yang mendustakan rasul-rasul-Nya. Ayat-ayat berikut ini menyatakan keanehan sikap manusia, yang ragu-ragu menerima kebenaran-kebenaran tersebut.",
        "theme_group": "SIKAP MENGHADAPI HARI KIAMAT",
        "kosakata": "Kosakata:\n1. Tatam\u0101r\u0101 \u062a\u064e\u062a\u064e\u0645\u064e\u0627\u0631\u064e\u0649 (an-Najm/53: 55)\n Tatam\u0101r\u0101\tberasal dari kata al-miryah yaitu \u201cragu-ragu\u201d. Mir\u0101u\u2032 adalah \u201cbertengkar\u201d karena kedua pihak saling meragukan. Tatam\u0101r\u0101 berarti bertengkar dalam arti saling meragukan, dalam hal ini adalah nikmat Allah. Yang bertengkar karena saling meragukan itu adalah orang-orang kafir.\n2. S\u0101mid\u016bn \u0633\u064e\u0627\u0645\u0650\u062f\u064f\u0648\u0652\u0646 (an-Najm/53:61)\nS\u0101mid\u016bn kata dasarnya adalah sammada masdarnya as-sam\u016bdu artinya \u201clengah\u201d, \u201clalai\u201d seperti unta yang mengangkat kepalanya ke atas sambil berjalan sehingga ia tidak melihat jalan atau bahaya. S\u0101mid\u016bn adalah orang-orang yang lalai dan lengah akan kematiannya atau kiamat, dan asyik bergembira ria tanpa memikirkan hari esok.",
        "sabab_nuzul": null,
        "conclusion": null
    }
}