{
    "id": 4852,
    "surah_id": 54,
    "ayah": 6,
    "page": 528,
    "quarter_hizb": 53.5,
    "juz": 27,
    "manzil": 7,
    "arabic": "\u0641\u064e\u062a\u064e\u0648\u064e\u0644\u0651\u064e \u0639\u064e\u0646\u0652\u0647\u064f\u0645\u0652 \u06d8 \u064a\u064e\u0648\u0652\u0645\u064e \u064a\u064e\u062f\u0652\u0639\u064f \u0627\u0644\u062f\u0651\u064e\u0627\u0639\u0650 \u0627\u0650\u0644\u0670\u0649 \u0634\u064e\u064a\u0652\u0621\u064d \u0646\u0651\u064f\u0643\u064f\u0631\u064d\u06d9  ",
    "latin": "Fa tawalla \u2018anhum, yauma yad\u2018ud-d\u0101\u2018i il\u0101 syai'in nukur(in).",
    "translation": "Maka, berpalinglah (Nabi Muhammad) dari mereka. Pada hari (ketika) penyeru (malaikat) mengajak (mereka) pada sesuatu yang tidak menyenangkan (hari Pembalasan),",
    "no_footnote": null,
    "footnotes": null,
    "surah": {
        "id": 54,
        "arabic": " \u0627\u0644\u0642\u0645\u0631",
        "latin": "Al-Qamar",
        "transliteration": "Al-Qamar",
        "translation": "Bulan",
        "num_ayah": 55,
        "page": 528,
        "location": "Makkiyah"
    },
    "tafsir": {
        "wajiz": "Maka, berpalinglah engkau dari mereka! Orang musyrik itu akan menghadapi masa yang mengerikan, yaitu pada hari ketika penyeru, ketika malaikat atau utusan-Nya, mengajak mereka kepada sesuatu yang tidak menyenangkan, yaitu datangnya kiamat dan keharusan setiap orang mempertanggung jawabkan perbuatannya.",
        "tahlili": "Allah memerintahkan rasul-Nya agar tidak mengadakan perdebatan dengan kaum musyrik, karena tidak ada faedahnya. Sebab itu hendaklah berpaling dari mereka, pendusta-pendusta itu. Karena mereka sudah sampai ke tingkat tidak mau tunduk kepada bukti dan kebenaran, maka sudah pantas bagimu tidak memberi nasihat kepada mereka lagi. \nAllah mengetahui bahwa Rasulullah saw tidak bosan terhadap persoalan mereka dan jengkel karena kecongkakannya. Allah mengingatkan kepada manusia bahwa akan terjadi hari kebangkitan, yang hari itu malaikat akan memanggil manusia datang ke suatu tempat yang sangat berbahaya dan dibenci oleh kaum musyrik, yaitu Padang Mahsyar.",
        "intro_surah": "Surah al-Qamar terdiri dari 55 ayat, termasuk kelompok surah Makkiyyah, diturunkan sesudah Surah a\u1e6d-\u1e6c\u0101riq.\nNama al-Qamar (bulan) diambil dari kata al-Qamar (yang terdapat pada ayat yang pertama surah ini). Pada ayat ini diterangkan tentang terbelahnya bulan sebagai mukjizat.\n\nPokok-pokok Isinya:\n1. \tKeimanan:\nPemberitaan bahwa datangnya hari Kiamat sudah dekat, semua yang ada pada alam adalah dengan ketetapan Allah; kehendak Allah pasti berlaku, tiap-tiap pekerjaan manusia dicatat oleh malaikat.\n2. \tKisah-kisah:\nKisah kaum yang mendustakan rasul-rasul di masa dahulu seperti kaum Nuh, \u2018\u0100d, \u1e60am\u016bd dan Fir\u2018aun.\n3. \tLain-lain:\nOrang-orang kafir dikumpulkan di akhirat dalam keadaan hina dan akan menerima balasan yang setimpal; celaan terhadap orang-orang yang tidak memperhatikan ayat-ayat Al-Qur\u2019an.",
        "outro_surah": null,
        "munasabah_prev_surah": "1.\tPada akhir Surah an-Najm disebutkan hal yang mengenai hari Kiamat sedang pada awal Surah al-Qamar disebutkan pula hal itu.\n2.\tDalam Surah an-Najm disinggung secara sepintas keadaan umat-umat yang terdahulu, sedang pada Surah al-Qamar juga disebutkan keadaan umat-umat yang terdahulu, yang mendustakan rasul-rasul mereka.",
        "munasabah_prev_theme": "Pada ayat-ayat yang lalu (akhir Surah an-Najm) dijelaskan bahwa hari Kiamat telah dekat, oleh karena itu jangan kaget terhadap berita tersebut. Pada ayat-ayat berikut dijelaskan bahwa kiamat itu benar-benar telah dekat dan cirinya antara lain yaitu bulan akan pecah berkeping-keping karena menyimpang dari peredarannya.",
        "theme_group": "SIKAP KAUM MUSYRIKIN \nTERHADAP BERITA HARI KIAMAT ",
        "kosakata": "Kosakata:\n1. Muzdajar \u0645\u064f\u0632\u0652\u062f\u064e\u062c\u064e\u0631 (al-Qamar/54: 4)\nMuzdajar terambil dari kata zajara-az-zajra artinya \u201cmembentak\u201d \u201cmenghardik\u201d untuk mencegah terjadinya sesuatu. Muzdajar adalah tempat terjadinya hardikan sehingga terjadi pencegahan. Maksudnya adalah bahwa Allah telah menyampaikan peristiwa-peristiwa masa lalu, yaitu kehancuran sebagian umat terdahulu karena pembangkangan mereka. Peristiwa itu hendaknya dijadikan sebagai hardikan (peringatan) untuk mencegah manusia dari melakukan dosa yang sama. Dari kata itu terdapat kata az-z\u0101jir\u0101ti yaitu malaikat yang menghardik awan sehingga ia berarak dan menurunkan hujan, atau malaikat-malaikat yang membentak manusia dalam lubuk hatinya sehingga tidak jadi mengerjakan kejahatan yang ditiupkan setan. Uzdujir artinya \u201cdibentak\u201d, yaitu Nabi Nuh dibentak atau diancam kaumnya supaya tidak meneruskan dakwahnya kepada mereka.\n2. \u1e24ikmatun B\u0101ligah  \u062d\u0650\u0643\u0652\u0645\u064e\u0629\u064c \u0628\u064e\u0627\u0644\u0650\u063a\u064e\u0629\u064c (al-Qamar/54:5)\n\u1e24ikmah adalah kebenaran sejati yang diperoleh melalui ilmu dan akal. B\u0101ligah dari balaga yaitu sampai ke puncaknya. \u1e24ikmatun-b\u0101ligah berarti kebenaran yang sudah sampai ke puncaknya, kebenaran yang tak ada cacatnya. Maksudnya adalah ayat-ayat Al-Qur\u2019an.",
        "sabab_nuzul": null,
        "conclusion": null
    }
}