{
    "id": 4945,
    "surah_id": 55,
    "ayah": 44,
    "page": 533,
    "quarter_hizb": 54,
    "juz": 27,
    "manzil": 7,
    "arabic": "\u064a\u064e\u0637\u064f\u0648\u0652\u0641\u064f\u0648\u0652\u0646\u064e \u0628\u064e\u064a\u0652\u0646\u064e\u0647\u064e\u0627 \u0648\u064e\u0628\u064e\u064a\u0652\u0646\u064e \u062d\u064e\u0645\u0650\u064a\u0652\u0645\u064d \u0627\u0670\u0646\u064d\u06da  ",
    "latin": "Ya\u1e6d\u016bf\u016bna bainah\u0101 wa baina \u1e25am\u012bmin \u0101n(in).",
    "translation": "Mereka bolak-balik di antaranya (api neraka) dan air mendidih yang sangat panas.",
    "no_footnote": null,
    "footnotes": null,
    "surah": {
        "id": 55,
        "arabic": "\u0627\u0644\u0631\u0651\u062d\u0645\u0670\u0646",
        "latin": "Ar-Ra\u1e25m\u0101n",
        "transliteration": "Ar-Rahman",
        "translation": "Yang Maha Pengasih",
        "num_ayah": 78,
        "page": 531,
        "location": "Makkiyah"
    },
    "tafsir": {
        "wajiz": "Mereka ber-keliling berulang kali di sana, di antara neraka itu, dan di antara air yang mendidih karena panas api neraka.",
        "tahlili": "Allah membuktikan janji-janji-Nya kepada mereka yang berbuat jahat bahwa sekarang telah mereka saksikan dan telah mereka lihat dengan mata mereka sendiri azab Tuhan yang mereka tunggu-tunggu; agar mereka merasakan siksaan api neraka Jahanam dan meminum air yang mendidih, yang dapat menghancurkan usus dan isi perut siapa yang meminumnya. Mereka berkeliling di antara api dan air mendidih yang sangat panas. Tegasnya, apabila mereka minta tolong agar dikeluarkan dari api neraka, maka mereka dipindahkan ke suatu tempat minuman air yang lebih tinggi suhu panasnya. Seperti diungkapkan dalam firman Allah sebagai berikut:\n\u0627\u0650\u0630\u0650 \u0627\u0644\u0652\u0627\u064e\u063a\u0652\u0644\u0670\u0644\u064f \u0641\u0650\u064a\u0652\u0653 \u0627\u064e\u0639\u0652\u0646\u064e\u0627\u0642\u0650\u0647\u0650\u0645\u0652 \u0648\u064e\u0627\u0644\u0633\u0651\u064e\u0644\u0670\u0633\u0650\u0644\u064f\u06d7 \u064a\u064f\u0633\u0652\u062d\u064e\u0628\u064f\u0648\u0652\u0646\u064e\u06d9 \u0667\u0661 \u0641\u0650\u0649 \u0627\u0644\u0652\u062d\u064e\u0645\u0650\u064a\u0652\u0645\u0650 \u06d5\u06d9 \u062b\u064f\u0645\u0651\u064e \u0641\u0650\u0649 \u0627\u0644\u0646\u0651\u064e\u0627\u0631\u0650 \u064a\u064f\u0633\u0652\u062c\u064e\u0631\u064f\u0648\u0652\u0646\u064e\u06da \u0667\u0662\nKetika belenggu dan rantai dipasang di leher mereka, seraya mereka diseret, ke dalam air yang sangat panas, kemudian mereka dibakar dalam api (G\u0101fir/40: 71-72)",
        "intro_surah": "Surah ar-Ra\u1e25m\u0101n terdiri dari 78 ayat, termasuk kelompok surah Madaniyyah, diturunkan sesudah Surah ar-Ra\u2018d.\nDinamai ar-Ra\u1e25m\u0101n (Yang Maha Pemurah), diambil dari kata ar-ra\u1e25m\u0101n yang terdapat pada ayat pertama surah ini. Ar-Ra\u1e25m\u0101n adalah salah satu dari nama-nama Allah. Sebagian besar dari isi surah ini menerangkan kemurahan Allah kepada hamba-hamba-Nya, dengan memberikan nikmat-nikmat yang tidak terhingga kepada mereka baik di dunia maupun di akhirat nanti.\n\nPokok-pokok Isinya:\n1.\tKeimanan:\nAllah menciptakan manusia dan mengajar mereka berbicara; alam semesta tunduk kepada Allah; semua makhluk akan hancur kecuali Allah; Allah selalu sibuk bekerja mentadbirkan alam; seluruh alam merupakan nikmat Allah terhadap umat manusia; manusia diciptakan dari tanah dan jin dari api.\n2.\tHukum-hukum:\n\tKewajiban memenuhi ukuran, takaran, dan timbangan.\n3.\tLain-lain:\nManusia dan jin tidak akan mampu lari dari kekuasaan Allah, banyak umat manusia yang tidak mensyukuri nikmat Allah; memberitakan tentang keajaiban-keajaiban alam sebagai bukti kekuasaan Allah.",
        "outro_surah": null,
        "munasabah_prev_surah": "1. \tSurah al-Qamar menerangkan tentang adanya hari Kiamat dan apa yang akan dirasakan manusia yang baik di surga, dan manusia yang jahat di neraka. Surah ar-Ra\u1e25m\u0101n menerangkan secara lebih luas kenikmatan hidup di surga.\n2. \tSurah al-Qamar menerangkan azab yang ditimpakan kepada umat-umat terdahulu yang mendurhakai nabi-nabi mereka, Surah ar-Ra\u1e25m\u0101n menye-butkan berbagai nikmat Allah yang dilimpahkan-Nya kepada jin dan manusia sebagai hamba-hamba-Nya, agar mereka memilih beriman.",
        "munasabah_prev_theme": "Pada ayat-ayat yang lalu Allah swt menjelaskan bahwa pada hari Kiamat jin dan manusia masing-masing akan menerima balasan sesuai dengan perbuatan-perbuatannya dan mereka tidak dapat menyelamatkan dirinya. Pada ayat-ayat berikut ini Allah swt menerangkan bahwa apabila tiba hari Kiamat, rusaklah peraturan alam seluruhnya: langit akan terbelah-belah dan akan merah warnanya, tidak akan melekat satu bagian dengan yang lain seperti minyak dengan air. Ketika itu akan tampak tanda-tanda orang-orang yang jahat dan akan terlihat jelas perbedaannya dengan orang lain. ",
        "theme_group": "GAMBARAN HARI KIAMAT",
        "kosakata": "Kosakata:\n1.\tAn-Naw\u0101\u1e63\u012b  \u0627\u0644\u0646\u0651\u064e\u0648\u064e\u0627\u0635\u0650\u064a\u0652 (ar-Ra\u1e25m\u0101n/55: 41)\nKata an-naw\u0101\u1e63\u012b merupakan bentuk jamak dari an-n\u0101\u1e63iyah, yang artinya ubun-ubun, atau tempat tumbuhnya rambut pada bagian puncak kepala. Selain makna secara bahasa, seperti yang telah diungkapkan, ada pula yang memahami kata ini dengan mengartikannya sebagai rambut yang tumbuh di bagian ubun-ubun tersebut. Makna seperti ini terdapat dalam pemahaman dari Surah al-\u2018Alaq/96: 15, yaitu bahwa orang yang tidak berhenti dari kegiatannya dalam mengganggu akan ditarik ubun-ubunnya (atau yang lebih tepat rambut yang tumbuh di tempat tersebut, karena menarik rambut lebih mudah dipahami ketimbang menarik ubun-ubun yang menyatu dan merupakan bagian dari kepala). Namun demikian makna apa saja yang dimaksud, pemahaman yang disimpulkan dari ayat ini adalah untuk menyatakan bahwa para pendurhaka itu akan dapat dikuasai secara penuh dan mudah di akhirat, sebagai balasan dari perbuatan mereka.\n2.\tAl-Aqd\u0101m \u0627\u0644\u0652\u0623\u064e\u0642\u0652\u062f\u064e\u0627\u0645 (ar-Ra\u1e25m\u0101n/55: 41) \nKata al-aqd\u0101m merupakan bentuk jamak dari al-qadam, yang artinya bagian bawah dari kaki. Kata ini disebut dalam ayat yang digandengkan dengan an-naw\u0101\u1e63\u012b untuk mengungkapkan keadaan seseorang secara keseluruhan. Kalau an-naw\u0101\u1e63\u012b menunjuk bagian paling atas dari jasmani manusia, maka al-aqd\u0101m menunjuk bagian paling bawahnya. Dengan pengungkapan ini, ayat tersebut mengisyaratkan bahwa manusia yang berbuat durhaka akan dikuasai secara keseluruhan dari jasmaninya dalam rangka menerima balasan. Penguasaan itu terjadi dengan mudah, sebagai-mana yang ditunjukkan oleh bentuk pasif dari kata kerja sebelumnya, yaitu fayu\u2019kha\u017cu, yang artinya maka diambil atau dipegang.",
        "sabab_nuzul": null,
        "conclusion": null
    }
}