{
    "id": 4962,
    "surah_id": 55,
    "ayah": 61,
    "page": 533,
    "quarter_hizb": 54,
    "juz": 27,
    "manzil": 7,
    "arabic": "\u0641\u064e\u0628\u0650\u0627\u064e\u064a\u0651\u0650 \u0627\u0670\u0644\u064e\u0627\u06e4\u0621\u0650 \u0631\u064e\u0628\u0651\u0650\u0643\u064f\u0645\u064e\u0627 \u062a\u064f\u0643\u064e\u0630\u0651\u0650\u0628\u0670\u0646\u0650 ",
    "latin": "Fa bi'ayyi \u0101l\u0101'i rabbikum\u0101 tuka\u017c\u017cib\u0101n(i).",
    "translation": " Maka, nikmat Tuhanmu manakah yang kamu dustakan (wahai jin dan manusia)?",
    "no_footnote": null,
    "footnotes": null,
    "surah": {
        "id": 55,
        "arabic": "\u0627\u0644\u0631\u0651\u062d\u0645\u0670\u0646",
        "latin": "Ar-Ra\u1e25m\u0101n",
        "transliteration": "Ar-Rahman",
        "translation": "Yang Maha Pengasih",
        "num_ayah": 78,
        "page": 531,
        "location": "Makkiyah"
    },
    "tafsir": {
        "wajiz": "Maka, wahai manusia dan jin, nikmat Tuhanmu yang manakah yang kamu dustakan?",
        "tahlili": "Ayat ini menerangkan bahwa pada saat itu Allah bertanya tentang nikmat mana lagi yang kamu dustakan, terutama nikmat yang telah Allah berikan pada hari ini. Allah juga mengingatkan tentang kabar derita dan peringatan pedih yang telah disampaikan-Nya, yaitu agar manusia me-ninggalkan dan menjauhi perbuatan dosa.\n Maka nikmat Tuhan kamu yang manakah yang kamu dustakan, hai manusia dan jin? Masing-masing mendapat ganjaran sebagaimana yang diterangkan Allah. Bukankah itu nikmat yang besar bagi kamu sekalian.",
        "intro_surah": "Surah ar-Ra\u1e25m\u0101n terdiri dari 78 ayat, termasuk kelompok surah Madaniyyah, diturunkan sesudah Surah ar-Ra\u2018d.\nDinamai ar-Ra\u1e25m\u0101n (Yang Maha Pemurah), diambil dari kata ar-ra\u1e25m\u0101n yang terdapat pada ayat pertama surah ini. Ar-Ra\u1e25m\u0101n adalah salah satu dari nama-nama Allah. Sebagian besar dari isi surah ini menerangkan kemurahan Allah kepada hamba-hamba-Nya, dengan memberikan nikmat-nikmat yang tidak terhingga kepada mereka baik di dunia maupun di akhirat nanti.\n\nPokok-pokok Isinya:\n1.\tKeimanan:\nAllah menciptakan manusia dan mengajar mereka berbicara; alam semesta tunduk kepada Allah; semua makhluk akan hancur kecuali Allah; Allah selalu sibuk bekerja mentadbirkan alam; seluruh alam merupakan nikmat Allah terhadap umat manusia; manusia diciptakan dari tanah dan jin dari api.\n2.\tHukum-hukum:\n\tKewajiban memenuhi ukuran, takaran, dan timbangan.\n3.\tLain-lain:\nManusia dan jin tidak akan mampu lari dari kekuasaan Allah, banyak umat manusia yang tidak mensyukuri nikmat Allah; memberitakan tentang keajaiban-keajaiban alam sebagai bukti kekuasaan Allah.",
        "outro_surah": null,
        "munasabah_prev_surah": "1. \tSurah al-Qamar menerangkan tentang adanya hari Kiamat dan apa yang akan dirasakan manusia yang baik di surga, dan manusia yang jahat di neraka. Surah ar-Ra\u1e25m\u0101n menerangkan secara lebih luas kenikmatan hidup di surga.\n2. \tSurah al-Qamar menerangkan azab yang ditimpakan kepada umat-umat terdahulu yang mendurhakai nabi-nabi mereka, Surah ar-Ra\u1e25m\u0101n menye-butkan berbagai nikmat Allah yang dilimpahkan-Nya kepada jin dan manusia sebagai hamba-hamba-Nya, agar mereka memilih beriman.",
        "munasabah_prev_theme": "Dalam ayat yang lalu Allah swt menyebutkan perbuatan orang yang durhaka kepada pencipta-Nya, tidak mematuhi perintah-perintah-Nya, dan tidak menjauhkan diri dari larangan-larangan-Nya. Mereka mendapat siksaan yang maha dahsyat. Maka dalam ayat-ayat berikut ini, Allah menyebutkan nikmat-nikmat rohani dan jasmani yang disediakan-Nya bagi mereka yang takwa, takut kepada-Nya; yaitu surga yang mempunyai pohon-pohon dan buah-buahan yang berpasangan, yang dapat dipetik dari dekat dengan mudah. Di sana mereka akan bersandar di atas permadani yang bahannya terbuat dari sutra.",
        "theme_group": "GANJARAN BAGI ORANG YANG BERTAKWA",
        "kosakata": "Kosakata:\n1.\t\u017baw\u0101t\u0101 Afn\u0101n \u0630\u064e\u0648\u064e\u0627\u062a\u064e\u0627 \u0623\u064e\u0641\u0652\u0646\u064e\u0627\u0646 (ar-Ra\u1e25m\u0101n/55: 48)\nKata \u017caw\u0101t\u0101 afn\u0101n terdiri dari dua kata, yaitu \u017caw\u0101t\u0101 dan afn\u0101n. Yang pertama (\u017caw\u0101t) merupakan bentuk jamak dari \u017c\u0101t, yang artinya mempunyai. Sedang yang kedua (afn\u0101n) merupakan bentuk jamak dari fanan, yang artinya dahan yang lurus dan panjang. Istilah ini disebut pada ayat tersebut untuk menggambarkan bahwa pohon-pohon yang terdapat di surga adalah yang berdahan lurus dan panjang serta banyak daunnya, sehingga menjadikannya sebagai pepohonan yang rimbun dan rindang, serta enak dipandang. Penyebutan kata ini untuk menunjukkan keindahan dan banyaknya manfaat yang dapat ditemukan pada pohon-pohon surgawi itu.\n2.\tLam Ya\u1e6dmi\u1e61hunna \u0644\u064e\u0645\u0652 \u064a\u064e\u0637\u0652\u0645\u0650\u062b\u0652\u0647\u064f\u0646\u0651\u064e (ar-Ra\u1e25m\u0101n/55: 56)\nKata ya\u1e6dmi\u1e61 berakar kata a\u1e6d-\u1e6dam\u1e61. Akar kata yang terdiri dari (\u1e6d\u0101'-m\u012bm-\u1e61\u0101') mengandung arti sentuhan. Jika dikaitkan dengan hubungan antara lelaki dan perempuan maka artinya hubungan badan. Memecah keperawanan seorang perempuan yang akhirnya mengeluarkan darah juga disebut a\u1e6d-\u1e6dam\u1e61. Keluarnya darah haid juga disebut a\u1e6d-\u1e6dam\u1e61. Seorang perempuan yang haid disebut juga a\u1e6d-\u1e6d\u0101mi\u1e61. Dari seluruh rangkaian arti diatas bisa dirangkum pengertian bahwa perempuan surga adalah perempuan yang masih asli, masih perawan, yang belum pernah ada orang yang menyentuh dan menggauli mereka.",
        "sabab_nuzul": null,
        "conclusion": "1.\tOrang-orang yang takut terhadap Tuhannya dengan menaati dan menjauhkan diri dari larangan-larangan-Nya akan mendapat dua surga ialah: surga Rohani dan surga Jasmani.\n2.\tDi dalam surga itu terdapat pohon-pohon dan buah-buahan yang berpasa-ngan serta dua mata air yang mengalir.\n3.\tDemikian pula bidadari-bidadari yang cantik-cantik wajahnya dan baik budi pekertinya, bening seperti permata yakut dan putih seperti mutiara dan marjan; belum pernah di jamah manusia atau pun jin."
    }
}