{
    "id": 4920,
    "surah_id": 55,
    "ayah": 19,
    "page": 532,
    "quarter_hizb": 54,
    "juz": 27,
    "manzil": 7,
    "arabic": "\u0645\u064e\u0631\u064e\u062c\u064e \u0627\u0644\u0652\u0628\u064e\u062d\u0652\u0631\u064e\u064a\u0652\u0646\u0650 \u064a\u064e\u0644\u0652\u062a\u064e\u0642\u0650\u064a\u0670\u0646\u0650\u06d9",
    "latin": "Marajal-ba\u1e25raini yaltaqiy\u0101n(i).",
    "translation": " Dia membiarkan dua laut (tawar dan asin) bertemu.",
    "no_footnote": null,
    "footnotes": null,
    "surah": {
        "id": 55,
        "arabic": "\u0627\u0644\u0631\u0651\u062d\u0645\u0670\u0646",
        "latin": "Ar-Ra\u1e25m\u0101n",
        "transliteration": "Ar-Rahman",
        "translation": "Yang Maha Pengasih",
        "num_ayah": 78,
        "page": 531,
        "location": "Makkiyah"
    },
    "tafsir": {
        "wajiz": "Dia membiarkan bebas dua laut mengalir berdampingan yang kemudian keduanya bertemu pada permukaannya.",
        "tahlili": "Ayat-ayat ini menerangkan bahwa Allah mengalirkan air yang asin dari air yang tawar berdekatan yang kemudian berkumpul menjadi satu, masing-masing tidak mempengaruhi yang lain, yang asin tidak mempeng-aruhi yang tawar sehingga yang tawar menjadi asin dan yang asin menjadi tawar. Allah telah membatasi di antara keduanya dengan batas yang telah diciptakan dengan kekuasaan-Nya atau dibatasinya dengan batas yang berupa tanah. Firman Allah:\n\u0648\u064e\u0647\u064f\u0648\u064e \u0627\u0644\u0651\u064e\u0630\u0650\u064a\u0652 \u0645\u064e\u0631\u064e\u062c\u064e \u0627\u0644\u0652\u0628\u064e\u062d\u0652\u0631\u064e\u064a\u0652\u0646\u0650 \u0647\u0670\u0630\u064e\u0627 \u0639\u064e\u0630\u0652\u0628\u064c \u0641\u064f\u0631\u064e\u0627\u062a\u064c \u0648\u0651\u064e\u0647\u0670\u0630\u064e\u0627 \u0645\u0650\u0644\u0652\u062d\u064c \u0627\u064f\u062c\u064e\u0627\u062c\u064c\u06da \u0648\u064e\u062c\u064e\u0639\u064e\u0644\u064e \u0628\u064e\u064a\u0652\u0646\u064e\u0647\u064f\u0645\u064e\u0627 \u0628\u064e\u0631\u0652\u0632\u064e\u062e\u064b\u0627 \u0648\u0651\u064e\u062d\u0650\u062c\u0652\u0631\u064b\u0627 \u0645\u0651\u064e\u062d\u0652\u062c\u064f\u0648\u0652\u0631\u064b\u0627 \u0665\u0663\nDan Dialah yang membiarkan dua laut mengalir (berdampingan); yang ini tawar dan segar dan yang lain sangat asin lagi pahit; dan Dia jadikan antara keduanya dinding dan batas yang tidak tembus. (al-Furq\u0101n/25: 53) \n\nPeristiwa di atas dapat dilihat seperti sungai-sungai yang mengalir dari gunung-gunung yang akhirnya masuk ke dalam laut dan rasanya menjadi asin sedang air sungainya tetap tawar.\nMenurut kajian ilmiah, laut mempunyai sifat fisika dan kimia yang tidak homogen. Ketidakhomogenan ini yang menyebabkan laut bergerak dinamis. Proses yang memicu pergerakan ini sangat kompleks dan melibatkan tenaga dari luar seperti angin, rotasi bumi, topografi dasar laut maupun hubungan satu sama lain antar laut. Distribusi rapat massa yang tergantung pada tingkat kegaraman, temperatur dan tekanan udara juga mempunyai peranan penting. Aliran arus permukaan yang hangat dari kawasan tropis mengalir melintasi katulistiwa menuju Lautan Atlantik Utara dan Laut Norwegia, untuk kemudian mengalami pendinginan. Akibat pendinginan ini terjadi peningkatan rapat massa dan laut bergerak ke bawah sebagai aliran arus bawah dan bergerak menuju Lautan Atlantik Selatan, Lautan Hindia dan menuju Lautan Pasifik. Gerakan aliran arus bawah ini dikenal sebagai pola sirkulasi thermohalin yang gerakannya sering diidentikan dengan conveyor belt yang menggerakan air, temperatur dan sifat-sifat lainnya dan materi-materi di lautan.\nApa yang digambarkan di atas adalah gambaran global mengenai pergerakan arus laut. Dalam kenyataannya pergerakan arus laut adalah lebih kompleks. Sebagai contoh adalah apa yang digambarkan oleh Djamil (2004) yang menyebutkan bahwa di bawah garis khatulistiwa di Lautan Pasifik, Atlantik dan Lautan Hindia terdapat arus yang bergerak melawan arus permukaannya dan dikenal sebagai Pacific Equatorial Undercurrent atau disebut juga sebagai Cromwell Current. Arus ini bergerak ke timur, yang menentang arus Pacific South Equatorial Current yang bergerak ke barat. Arus yang mempunyai ketebalan 150 m dan panjang 402 km, dan batas atasnya antara 42-91 m, selalu bergerak di bawah khatulistiwa. Air laut yang bergerak dalam aliran arus Cromwell ini yang bergerak ke timur menentang aliran arus ke barat dan antar keduanya terdapat batas. Batas antara dua lautan ini tidak hanya sebatas wilayah yang disebutkan di atas tetapi juga di temui di Selat Gibraltar, maupun di sebelah timur Jepang.",
        "intro_surah": "Surah ar-Ra\u1e25m\u0101n terdiri dari 78 ayat, termasuk kelompok surah Madaniyyah, diturunkan sesudah Surah ar-Ra\u2018d.\nDinamai ar-Ra\u1e25m\u0101n (Yang Maha Pemurah), diambil dari kata ar-ra\u1e25m\u0101n yang terdapat pada ayat pertama surah ini. Ar-Ra\u1e25m\u0101n adalah salah satu dari nama-nama Allah. Sebagian besar dari isi surah ini menerangkan kemurahan Allah kepada hamba-hamba-Nya, dengan memberikan nikmat-nikmat yang tidak terhingga kepada mereka baik di dunia maupun di akhirat nanti.\n\nPokok-pokok Isinya:\n1.\tKeimanan:\nAllah menciptakan manusia dan mengajar mereka berbicara; alam semesta tunduk kepada Allah; semua makhluk akan hancur kecuali Allah; Allah selalu sibuk bekerja mentadbirkan alam; seluruh alam merupakan nikmat Allah terhadap umat manusia; manusia diciptakan dari tanah dan jin dari api.\n2.\tHukum-hukum:\n\tKewajiban memenuhi ukuran, takaran, dan timbangan.\n3.\tLain-lain:\nManusia dan jin tidak akan mampu lari dari kekuasaan Allah, banyak umat manusia yang tidak mensyukuri nikmat Allah; memberitakan tentang keajaiban-keajaiban alam sebagai bukti kekuasaan Allah.",
        "outro_surah": null,
        "munasabah_prev_surah": "1. \tSurah al-Qamar menerangkan tentang adanya hari Kiamat dan apa yang akan dirasakan manusia yang baik di surga, dan manusia yang jahat di neraka. Surah ar-Ra\u1e25m\u0101n menerangkan secara lebih luas kenikmatan hidup di surga.\n2. \tSurah al-Qamar menerangkan azab yang ditimpakan kepada umat-umat terdahulu yang mendurhakai nabi-nabi mereka, Surah ar-Ra\u1e25m\u0101n menye-butkan berbagai nikmat Allah yang dilimpahkan-Nya kepada jin dan manusia sebagai hamba-hamba-Nya, agar mereka memilih beriman.",
        "munasabah_prev_theme": "Pada ayat-ayat yang lalu Allah swt telah menerangkan tentang penciptaan manusia dan berbagai macam nikmat yang diperuntukkan baginya. Pada ayat-ayat berikut ini Allah menjelaskan tentang proses penciptaan manusia dan jin, bahwa manusia diciptakan dari tanah kering sedang jin diciptakan dari api.",
        "theme_group": "ASAL MULA KEJADIAN MANUSIA DAN JIN",
        "kosakata": "Kosakata:\n1.\t\u1e62al\u1e63\u0101l \u0635\u064e\u0644\u0652\u0635\u064e\u0627\u0644 (ar-Ra\u1e25m\u0101n/55:14)\nBerarti tanah liat yang dapat dibuat belanga (pot), diambil dari fi\u2018il \u1e63al\u1e63ala yang berarti berbunyi. \nKata \u1e63al\u1e63\u0101l dalam ayat 14 Surah ar-Ra\u1e25m\u0101n tersebut adalah berarti tanah kering yang bila diketuk akan terdengar berbunyi.\nAl-Qur\u2019an menyebut berbagai materi ciptaan manusia, antara lain adalah dengan kata \u1e63al\u1e63al berarti tanah kering. Kadang-kadang dinyatakan dari nu\u1e6dfah berarti sperma, pada kali lain dari tur\u0101b berarti tanah. Ada juga disebutkan dari m\u0101' berarti air, atau \u1e6d\u012bn bermakna tanah yang basah, atau dengan \u1e25ama'in masn\u016bn yang berarti lumpur hitam. Ayat-ayat tersebut tidak bertentangan antara satu dengan lainnya, karena masing-masing berbicara tentang salah satu periode dari proses penciptaan manusia. Dapat dikatakan penciptaan manusia bermula dari tanah, lalu tanah itu dicampur dengan air, sehingga menjadi tanah yang basah, lalu dibiarkan beberapa saat, sehingga menjadi lumpur hitam, lalu itu dibentuk sesuai yang dikehendaki dan dikeringkan, sehingga ia menjadi tanah kering seperti tembikar. Ini tentu yang dimaksudkan adalah proses keja-dian Nabi Adam kakek dari semua manusia. Sedangkan semua manusia setelah Nabi Adam adalah diciptakan dari sperma dan ovum yang kemudian menjadi nu\u1e6dfah dan seterusnya hingga menjadi janin yang akan lahir sebagai manusia. Kecuali Hawa istri Nabi Adam, Nenek dari semua manusia, ada perbedaan pendapat di kalangan ulama tentang asal penciptaannya. Jumhur ulama mengatakan, bahwa Hawa diciptakan dari tulang rusuk Adam. Sedangkan sebagian ulama mengatakan, bahwa Hawa diciptakan dari zat yang sama dengan zat penciptaan Nabi Adam.\n2.\tM\u0101rij \u0645\u064e\u0627\u0631\u0650\u062c\u064c (ar-Ra\u1e25m\u0101n/55: 15)\nKata m\u0101rij dan kata lain yang seasal dengannya disebut empat kali dalam Al-Qur\u2019an, yaitu pada Surah al-Furq\u0101n/25: 53, Surah Q\u0101f/50: 5 dan Surah ar-Ra\u1e25m\u0101n/55: 15 dan 19. Kata m\u0101rij pada dasarnya bermakna \"bercampur\" yakni sebuah siklus yang berjalan terus-menerus, datang dan pergi silih berganti. Misalnya ungkapan, marajal-kh\u0101tim f\u012bl-a\u1e63\u0101bi' yang berarti cincin itu menyatu pada jari-jari. Begitu pula ungkapan marajtud-d\u0101bbah yang berarti keadaan ternak yang saya lepas di padang rumput, mereka bercampur antara satu dengan yang lain dan sulit dibedakan. Al-Qur\u2019an menggunakan kata tersebut dalam dua arti:\na.\tDengan makna bercampur/membaur, seperti dalam Surah al-Furq\u0101n/25: 53 dan ar-Ra\u1e25m\u0101n/55: 19. Allah membicarakan siklus dua macam air laut yang bercampur dan mengalir berdampingan. Pada hakikatnya keduanya berbeda sifat dan keadaannya sehingga terpisah antara air yang tawar dan air yang asin, karena ada pembatasnya. Demikian juga keadaan yang dialami oleh orang-orang yang mendustakan kebenaran, merasakan kehidupan yang dihadapinya merupakan percampurbauran antara kebaikan dan kebatilan, sehingga kehidupannya kacau balau. Ini disebut dalam Surah Q\u0101f /50: 5.\nb.\tDengan makna campuran butiran-butiran bara api, seperti pada Surah ar-Ra\u1e25m\u0101n/55: 15, disebutkan bahwa Allah menciptakan jin dari nyala api mu-rni, yakni campuran butiran-butiran bara api.",
        "sabab_nuzul": null,
        "conclusion": null
    }
}