{
    "id": 4933,
    "surah_id": 55,
    "ayah": 32,
    "page": 532,
    "quarter_hizb": 54,
    "juz": 27,
    "manzil": 7,
    "arabic": "\u0641\u064e\u0628\u0650\u0627\u064e\u064a\u0651\u0650 \u0627\u0670\u0644\u064e\u0627\u06e4\u0621\u0650 \u0631\u064e\u0628\u0651\u0650\u0643\u064f\u0645\u064e\u0627 \u062a\u064f\u0643\u064e\u0630\u0651\u0650\u0628\u0670\u0646\u0650 ",
    "latin": "Fa bi'ayyi \u0101l\u0101'i rabbikum\u0101 tuka\u017c\u017cib\u0101n(i).",
    "translation": " Maka, nikmat Tuhanmu manakah yang kamu dustakan (wahai jin dan manusia)?",
    "no_footnote": null,
    "footnotes": null,
    "surah": {
        "id": 55,
        "arabic": "\u0627\u0644\u0631\u0651\u062d\u0645\u0670\u0646",
        "latin": "Ar-Ra\u1e25m\u0101n",
        "transliteration": "Ar-Rahman",
        "translation": "Yang Maha Pengasih",
        "num_ayah": 78,
        "page": 531,
        "location": "Makkiyah"
    },
    "tafsir": {
        "wajiz": "Maka, wahai manusia dan jin, nikmat Tuhanmu yang manakah yang kamu dustakan?",
        "tahlili": "Allah swt menantang jin dan manusia, agar meng\u00adungkapkan nikmat yang manakah yang mereka dustakan. Adakah yang me\u00adre\u00adka dustakan itu balasan-balasan yang akan mereka terima pada hari Kiamat nanti baik berupa pahala maupun berupa siksaan pada hari itu tidak ada ke\u00addus\u00adtaan.",
        "intro_surah": "Surah ar-Ra\u1e25m\u0101n terdiri dari 78 ayat, termasuk kelompok surah Madaniyyah, diturunkan sesudah Surah ar-Ra\u2018d.\nDinamai ar-Ra\u1e25m\u0101n (Yang Maha Pemurah), diambil dari kata ar-ra\u1e25m\u0101n yang terdapat pada ayat pertama surah ini. Ar-Ra\u1e25m\u0101n adalah salah satu dari nama-nama Allah. Sebagian besar dari isi surah ini menerangkan kemurahan Allah kepada hamba-hamba-Nya, dengan memberikan nikmat-nikmat yang tidak terhingga kepada mereka baik di dunia maupun di akhirat nanti.\n\nPokok-pokok Isinya:\n1.\tKeimanan:\nAllah menciptakan manusia dan mengajar mereka berbicara; alam semesta tunduk kepada Allah; semua makhluk akan hancur kecuali Allah; Allah selalu sibuk bekerja mentadbirkan alam; seluruh alam merupakan nikmat Allah terhadap umat manusia; manusia diciptakan dari tanah dan jin dari api.\n2.\tHukum-hukum:\n\tKewajiban memenuhi ukuran, takaran, dan timbangan.\n3.\tLain-lain:\nManusia dan jin tidak akan mampu lari dari kekuasaan Allah, banyak umat manusia yang tidak mensyukuri nikmat Allah; memberitakan tentang keajaiban-keajaiban alam sebagai bukti kekuasaan Allah.",
        "outro_surah": null,
        "munasabah_prev_surah": "1. \tSurah al-Qamar menerangkan tentang adanya hari Kiamat dan apa yang akan dirasakan manusia yang baik di surga, dan manusia yang jahat di neraka. Surah ar-Ra\u1e25m\u0101n menerangkan secara lebih luas kenikmatan hidup di surga.\n2. \tSurah al-Qamar menerangkan azab yang ditimpakan kepada umat-umat terdahulu yang mendurhakai nabi-nabi mereka, Surah ar-Ra\u1e25m\u0101n menye-butkan berbagai nikmat Allah yang dilimpahkan-Nya kepada jin dan manusia sebagai hamba-hamba-Nya, agar mereka memilih beriman.",
        "munasabah_prev_theme": "Pada ayat yang lalu Allah swt menjelaskan bahwa semua yang ada di dunia termasuk manusia akan punah dan binasa. Pada ayat-ayat berikut dijelaskan bahwa Allah akan menghisab dan meminta pertanggungjawaban terhadap segala apa yang telah diperbuatnya, dan mereka tidak akan dapat menghindar.",
        "theme_group": "ANCAMAN ALLAH TERHADAP PERBUATAN DURHAKA ",
        "kosakata": "Kosakata:\n1. A\u1e61-\u1e60aqal\u0101ni \u0627\u0644\u062b\u0651\u064e\u0642\u064e\u0644\u064e\u0627\u0646\u0650 (ar-Ra\u1e25m\u0101n/55: 31)\nKata a\u1e61-\u1e61aqal\u0101ni adalah bentuk dua (ma\u1e63na) dari fi\u2018il (kata kerja) \u1e61aqula-ya\u1e61qulu-\u1e61iq\u0101lan yang berarti berat. Manusia dan jin dinamai demikian dalam Surah ar-Ra\u1e25m\u0101n/55: 31 tersebut, karena mereka berpotensi memikul beban yang berat, baik berupa dosa maupun tanggung jawab. Menurut Fakhrudd\u012bn ar-R\u0101zi bahwa penamaan itu sebagai menunjuk kedudukan manusia dan jin yang sangat terhormat. Ini menurutnya serupa dengan sabda Nabi saw: Sesungguhnya aku meninggalkan buat kamu al-\u1e61aqalain yakni Kitab Allah dan keluargaku.\n2. Syuw\u0101\u1e93 \u0634\u064f\u0648\u064e\u0627\u0638 (ar-Ra\u1e25m\u0101n/55 : 35)\nKata syuw\u0101\u1e93 berarti nyala api tanpa asap, panas api/matahari. Kata syuw\u0101\u1e93 diambil dari kata kerja sy\u0101\u1e93a-yasy\u016b\u1e93u-syau\u1e93an, yang berarti berkobar-kobar.\nDengan demikian, maka makna syuw\u0101\u1e93 dalam ayat 35 Surah ar-Ra\u1e25m\u0101n tersebut adalah kobaran api tanpa asap. Keadaannya tanpa asap itu menunjukkan kesempurnaan nyalanya, maka dengan demikian terasa lebih pa-nas.",
        "sabab_nuzul": null,
        "conclusion": null
    }
}