{
    "id": 4926,
    "surah_id": 55,
    "ayah": 25,
    "page": 532,
    "quarter_hizb": 54,
    "juz": 27,
    "manzil": 7,
    "arabic": "\u0641\u064e\u0628\u0650\u0627\u064e\u064a\u0651\u0650 \u0627\u0670\u0644\u064e\u0627\u06e4\u0621\u0650 \u0631\u064e\u0628\u0651\u0650\u0643\u064f\u0645\u064e\u0627 \u062a\u064f\u0643\u064e\u0630\u0651\u0650\u0628\u0670\u0646\u0650 \u08d6 ",
    "latin": "Fa bi'ayyi \u0101l\u0101'i rabbikum\u0101 tuka\u017c\u017cib\u0101n(i).",
    "translation": " Maka, nikmat Tuhanmu manakah yang kamu dustakan (wahai jin dan manusia)?",
    "no_footnote": null,
    "footnotes": null,
    "surah": {
        "id": 55,
        "arabic": "\u0627\u0644\u0631\u0651\u062d\u0645\u0670\u0646",
        "latin": "Ar-Ra\u1e25m\u0101n",
        "transliteration": "Ar-Rahman",
        "translation": "Yang Maha Pengasih",
        "num_ayah": 78,
        "page": 531,
        "location": "Makkiyah"
    },
    "tafsir": {
        "wajiz": "Maka, wahai manusia dan jin, nikmat Tuhanmu yang manakah yang kamu dustakan?",
        "tahlili": "Ayat ini menantang jin dan manusia agar menerangkan nikmat yang mereka dustakan sebagai berikut: Siapakah yang menciptakan bahan-bahan pem\u00ad\u00adbuatan bahtera itu? Atau bagaimanakah membuatnya? Apakah mereka kira bahwa iman kepada Allah sudah cukup dengan hanya bersyukur atas nik\u00admat-nikmat yang telah diberikan-Nya kepada mereka? Apakah matahari, bulan dan bintang, pohon-pohonan, tumbuh-tumbuhan, dan biji-bijian, sungai-sungai dan lautan-lautan, mutiara dan marjan dijadikan-Nya untuk orang-orang yang tidak berakal? Atau dijadikan-Nya bagi orang-orang yang pandai bersyukur kepada-Nya atas nikmat-nikmat yang diberikan-Nya? Dan ba\u00adgai\u00adma\u00adnakah mereka akan bersyukur kepada-Nya bila mereka tidak mengetahuinya?",
        "intro_surah": "Surah ar-Ra\u1e25m\u0101n terdiri dari 78 ayat, termasuk kelompok surah Madaniyyah, diturunkan sesudah Surah ar-Ra\u2018d.\nDinamai ar-Ra\u1e25m\u0101n (Yang Maha Pemurah), diambil dari kata ar-ra\u1e25m\u0101n yang terdapat pada ayat pertama surah ini. Ar-Ra\u1e25m\u0101n adalah salah satu dari nama-nama Allah. Sebagian besar dari isi surah ini menerangkan kemurahan Allah kepada hamba-hamba-Nya, dengan memberikan nikmat-nikmat yang tidak terhingga kepada mereka baik di dunia maupun di akhirat nanti.\n\nPokok-pokok Isinya:\n1.\tKeimanan:\nAllah menciptakan manusia dan mengajar mereka berbicara; alam semesta tunduk kepada Allah; semua makhluk akan hancur kecuali Allah; Allah selalu sibuk bekerja mentadbirkan alam; seluruh alam merupakan nikmat Allah terhadap umat manusia; manusia diciptakan dari tanah dan jin dari api.\n2.\tHukum-hukum:\n\tKewajiban memenuhi ukuran, takaran, dan timbangan.\n3.\tLain-lain:\nManusia dan jin tidak akan mampu lari dari kekuasaan Allah, banyak umat manusia yang tidak mensyukuri nikmat Allah; memberitakan tentang keajaiban-keajaiban alam sebagai bukti kekuasaan Allah.",
        "outro_surah": null,
        "munasabah_prev_surah": "1. \tSurah al-Qamar menerangkan tentang adanya hari Kiamat dan apa yang akan dirasakan manusia yang baik di surga, dan manusia yang jahat di neraka. Surah ar-Ra\u1e25m\u0101n menerangkan secara lebih luas kenikmatan hidup di surga.\n2. \tSurah al-Qamar menerangkan azab yang ditimpakan kepada umat-umat terdahulu yang mendurhakai nabi-nabi mereka, Surah ar-Ra\u1e25m\u0101n menye-butkan berbagai nikmat Allah yang dilimpahkan-Nya kepada jin dan manusia sebagai hamba-hamba-Nya, agar mereka memilih beriman.",
        "munasabah_prev_theme": "Pada ayat-ayat yang lalu Allah swt telah menerangkan tentang penciptaan manusia dan berbagai macam nikmat yang diperuntukkan baginya. Pada ayat-ayat berikut ini Allah menjelaskan tentang proses penciptaan manusia dan jin, bahwa manusia diciptakan dari tanah kering sedang jin diciptakan dari api.",
        "theme_group": "ASAL MULA KEJADIAN MANUSIA DAN JIN",
        "kosakata": "Kosakata:\n1.\t\u1e62al\u1e63\u0101l \u0635\u064e\u0644\u0652\u0635\u064e\u0627\u0644 (ar-Ra\u1e25m\u0101n/55:14)\nBerarti tanah liat yang dapat dibuat belanga (pot), diambil dari fi\u2018il \u1e63al\u1e63ala yang berarti berbunyi. \nKata \u1e63al\u1e63\u0101l dalam ayat 14 Surah ar-Ra\u1e25m\u0101n tersebut adalah berarti tanah kering yang bila diketuk akan terdengar berbunyi.\nAl-Qur\u2019an menyebut berbagai materi ciptaan manusia, antara lain adalah dengan kata \u1e63al\u1e63al berarti tanah kering. Kadang-kadang dinyatakan dari nu\u1e6dfah berarti sperma, pada kali lain dari tur\u0101b berarti tanah. Ada juga disebutkan dari m\u0101' berarti air, atau \u1e6d\u012bn bermakna tanah yang basah, atau dengan \u1e25ama'in masn\u016bn yang berarti lumpur hitam. Ayat-ayat tersebut tidak bertentangan antara satu dengan lainnya, karena masing-masing berbicara tentang salah satu periode dari proses penciptaan manusia. Dapat dikatakan penciptaan manusia bermula dari tanah, lalu tanah itu dicampur dengan air, sehingga menjadi tanah yang basah, lalu dibiarkan beberapa saat, sehingga menjadi lumpur hitam, lalu itu dibentuk sesuai yang dikehendaki dan dikeringkan, sehingga ia menjadi tanah kering seperti tembikar. Ini tentu yang dimaksudkan adalah proses keja-dian Nabi Adam kakek dari semua manusia. Sedangkan semua manusia setelah Nabi Adam adalah diciptakan dari sperma dan ovum yang kemudian menjadi nu\u1e6dfah dan seterusnya hingga menjadi janin yang akan lahir sebagai manusia. Kecuali Hawa istri Nabi Adam, Nenek dari semua manusia, ada perbedaan pendapat di kalangan ulama tentang asal penciptaannya. Jumhur ulama mengatakan, bahwa Hawa diciptakan dari tulang rusuk Adam. Sedangkan sebagian ulama mengatakan, bahwa Hawa diciptakan dari zat yang sama dengan zat penciptaan Nabi Adam.\n2.\tM\u0101rij \u0645\u064e\u0627\u0631\u0650\u062c\u064c (ar-Ra\u1e25m\u0101n/55: 15)\nKata m\u0101rij dan kata lain yang seasal dengannya disebut empat kali dalam Al-Qur\u2019an, yaitu pada Surah al-Furq\u0101n/25: 53, Surah Q\u0101f/50: 5 dan Surah ar-Ra\u1e25m\u0101n/55: 15 dan 19. Kata m\u0101rij pada dasarnya bermakna \"bercampur\" yakni sebuah siklus yang berjalan terus-menerus, datang dan pergi silih berganti. Misalnya ungkapan, marajal-kh\u0101tim f\u012bl-a\u1e63\u0101bi' yang berarti cincin itu menyatu pada jari-jari. Begitu pula ungkapan marajtud-d\u0101bbah yang berarti keadaan ternak yang saya lepas di padang rumput, mereka bercampur antara satu dengan yang lain dan sulit dibedakan. Al-Qur\u2019an menggunakan kata tersebut dalam dua arti:\na.\tDengan makna bercampur/membaur, seperti dalam Surah al-Furq\u0101n/25: 53 dan ar-Ra\u1e25m\u0101n/55: 19. Allah membicarakan siklus dua macam air laut yang bercampur dan mengalir berdampingan. Pada hakikatnya keduanya berbeda sifat dan keadaannya sehingga terpisah antara air yang tawar dan air yang asin, karena ada pembatasnya. Demikian juga keadaan yang dialami oleh orang-orang yang mendustakan kebenaran, merasakan kehidupan yang dihadapinya merupakan percampurbauran antara kebaikan dan kebatilan, sehingga kehidupannya kacau balau. Ini disebut dalam Surah Q\u0101f /50: 5.\nb.\tDengan makna campuran butiran-butiran bara api, seperti pada Surah ar-Ra\u1e25m\u0101n/55: 15, disebutkan bahwa Allah menciptakan jin dari nyala api mu-rni, yakni campuran butiran-butiran bara api.",
        "sabab_nuzul": null,
        "conclusion": "1.\tManusia pertama ialah Adam, ia diciptakan Allah dari tanah kering seperti tembikar dan keras seperti tanah yang telah dimasak, sedangkan jin yang pertama dijadikan Allah dari nyala api .\n2.\tTuhan memelihara dua tempat terbit dan dua tempat terbenamnya matahari dan bulan pada musim panas dan musim dingin serta menciptakan peredaran matahari, dan bulan menurut perhitungan dan peraturan yang sempurna, yang sangat diperlukan manusia untuk bercocok tanam.\n3.\tTuhan mengalirkan air yang asin dan air yang tawar berdekatan, kemudian berkumpul menjadi satu dan masing-masing tidak mempeng-aruhi yang lain; air laut tetap asin dan air sungai tetap tawar. Di dalamnya terdapat barang-barang yang sangat berharga seperti mutiara dan marjan.\n4.\tAllah telah menciptakan bahtera-bahtera yang tinggi layarnya laksana gunung-gunung untuk memenuhi keperluan manusia.\n5.\tAllah mewajibkan hamba-hamba-Nya menuntut ilmu agar mengetahui dan pandai bersyukur atas nikmat yang dilimpahkan-Nya di darat, di laut, dan di angkasa luar, serta mengembangkannya menurut teknologi yang modern."
    }
}