{
    "id": 5073,
    "surah_id": 56,
    "ayah": 94,
    "page": 537,
    "quarter_hizb": 54.5,
    "juz": 27,
    "manzil": 7,
    "arabic": "\u0648\u0651\u064e\u062a\u064e\u0635\u0652\u0644\u0650\u064a\u064e\u0629\u064f \u062c\u064e\u062d\u0650\u064a\u0652\u0645\u064d ",
    "latin": "Wa ta\u1e63liyatu ja\u1e25\u012bm(in).",
    "translation": " dan dibakar oleh (neraka) Jahim.",
    "no_footnote": null,
    "footnotes": null,
    "surah": {
        "id": 56,
        "arabic": " \u0627\u0644\u0648\u0627\u0642\u0639\u0629",
        "latin": "Al-W\u0101qi\u2018ah",
        "transliteration": "Al-Waqi\u2018ah",
        "translation": "Hari Kiamat Yang Pasti Terjadi",
        "num_ayah": 96,
        "page": 534,
        "location": "Makkiyah"
    },
    "tafsir": {
        "wajiz": "92-94. Dan adapun jika dia yang meninggal itu termasuk golongan yang mendustakan ayat-ayat Allah lagi sesat akidah dan ibadahnya, maka dia akan mendapat hidangan air yang mendidih sebagai minumannya, dan dia akan mendapat hukuman yang pedih karena dibakar di dalam Jahanam.",
        "tahlili": "Dalam ayat ini dijelaskan keadaan manusia setelah meninggal dunia. Mereka itu terbagi atas 3 golongan yaitu:\n1. \tGolongan orang-orang yang selalu mendekatkan diri kepada Allah     (al-muqarrab\u012bn) dengan mengerjakan berbagai macam ibadah dan meninggalkan segala larangan-Nya. Mereka ini akan mendapat kemenangan dan kegembiraan serta memperoleh rezeki yang luas dan macam-macam nikmat, tempat kediaman mereka di surga, di mana mereka akan menikmati di dalamnya segala sesuatu yang belum pernah dipandang oleh mata, didengar oleh telinga, dan terlintas di hati.\n2. \tGolongan kanan yakni (al-Abr\u0101r atau A\u1e63\u1e25\u0101bul-yam\u012bn) yang akan menerima catatan amalnya dengan tangan kanannya. Mereka itu akan disambut dengan gembira oleh para malaikat sambil menyampaikan salam dari teman-teman mereka dari kalangan A\u1e63\u1e25\u0101bul-yam\u012bn.\nDalam ayat lain, Allah berfirman:\n\u0627\u0650\u0646\u0651\u064e \u0627\u0644\u0651\u064e\u0630\u0650\u064a\u0652\u0646\u064e \u0642\u064e\u0627\u0644\u064f\u0648\u0652\u0627 \u0631\u064e\u0628\u0651\u064f\u0646\u064e\u0627 \u0627\u0644\u0644\u0651\u0670\u0647\u064f \u062b\u064f\u0645\u0651\u064e \u0627\u0633\u0652\u062a\u064e\u0642\u064e\u0627\u0645\u064f\u0648\u0652\u0627 \u062a\u064e\u062a\u064e\u0646\u064e\u0632\u0651\u064e\u0644\u064f \u0639\u064e\u0644\u064e\u064a\u0652\u0647\u0650\u0645\u064f \u0627\u0644\u0652\u0645\u064e\u0644\u0670\u06e4\u0649\u0655\u0650\u0643\u064e\u0629\u064f \u0627\u064e\u0644\u0651\u064e\u0627 \u062a\u064e\u062e\u064e\u0627\u0641\u064f\u0648\u0652\u0627 \u0648\u064e\u0644\u064e\u0627 \u062a\u064e\u062d\u0652\u0632\u064e\u0646\u064f\u0648\u0652\u0627 \u0648\u064e\u0627\u064e\u0628\u0652\u0634\u0650\u0631\u064f\u0648\u0652\u0627 \u0628\u0650\u0627\u0644\u0652\u062c\u064e\u0646\u0651\u064e\u0629\u0650 \u0627\u0644\u0651\u064e\u062a\u0650\u064a\u0652 \u0643\u064f\u0646\u0652\u062a\u064f\u0645\u0652 \u062a\u064f\u0648\u0652\u0639\u064e\u062f\u064f\u0648\u0652\u0646\u064e \u0663\u0660 \u0646\u064e\u062d\u0652\u0646\u064f \u0627\u064e\u0648\u0652\u0644\u0650\u064a\u064e\u0627\u06e4\u0624\u064f\u0643\u064f\u0645\u0652 \u0641\u0650\u0649 \u0627\u0644\u0652\u062d\u064e\u064a\u0670\u0648\u0629\u0650 \u0627\u0644\u062f\u0651\u064f\u0646\u0652\u064a\u064e\u0627 \u0648\u064e\u0641\u0650\u0649 \u0627\u0644\u0652\u0627\u0670\u062e\u0650\u0631\u064e\u0629\u0650 \u06da\u0648\u064e\u0644\u064e\u0643\u064f\u0645\u0652 \u0641\u0650\u064a\u0652\u0647\u064e\u0627 \u0645\u064e\u0627 \u062a\u064e\u0634\u0652\u062a\u064e\u0647\u0650\u064a\u0652\u0653 \u0627\u064e\u0646\u0652\u0641\u064f\u0633\u064f\u0643\u064f\u0645\u0652 \u0648\u064e\u0644\u064e\u0643\u064f\u0645\u0652 \u0641\u0650\u064a\u0652\u0647\u064e\u0627 \u0645\u064e\u0627 \u062a\u064e\u062f\u0651\u064e\u0639\u064f\u0648\u0652\u0646\u064e \u06d7 \u0663\u0661 \u0646\u064f\u0632\u064f\u0644\u064b\u0627 \u0645\u0651\u0650\u0646\u0652 \u063a\u064e\u0641\u064f\u0648\u0652\u0631\u064d \u0631\u0651\u064e\u062d\u0650\u064a\u0652\u0645\u064d \u08d6 \u0663\u0662\nSesungguhnya orang-orang yang berkata, \u201cTuhan kami adalah Allah\u201d kemu-dian mereka meneguhkan pendirian mereka, maka malaikat-malaikat akan turun kepada mereka (dengan berkata), \u201cJanganlah kamu merasa takut dan janganlah kamu bersedih hati; dan bergembiralah kamu dengan (memperoleh) surga yang telah dijanjikan kepadamu.\u201d Kamilah pelindung-pelindungmu dalam kehidupan dunia dan akhirat; di dalamnya (surga) kamu memperoleh apa yang kamu inginkan dan memperoleh apa yang kamu minta. Sebagai penghormatan (bagimu) dari (Allah) Yang Maha Pengampun, Maha Penyayang. (Fu\u1e63\u1e63ilat/41: 30-32).\n3. \tGolongan orang-orang kafir (A\u1e63\u1e25\u0101busy-syim\u0101l) ialah yang mendustakan Allah dan Rasul-Nya, sehingga mereka tersesat dari jalan yang lurus dan akan menerima catatan amalnya dengan tangan kirinya. Mereka akan ditempatkan dalam api neraka yang berkobar-kobar nyalanya, diberi minum air yang sangat panas, dan makan buah zaqq\u016bm sehingga menghancurkan isi perut dan seluruh kulit badan mereka.",
        "intro_surah": "Surah al-W\u0101qi\u2018ah terdiri dari 96 ayat, termasuk kelompok surah Makkiyyah, diturunkan sesudah Surah \u1e6c\u0101h\u0101. Nama Al-W\u0101qi\u2018ah (hari Kiamat) diambil dari kata al-w\u0101qi\u2018ah yang terdapat pada ayat pertama surah ini.\n\nPokok-pokok Isinya:\n1. \tKeimanan:\nHuru-hara di waktu terjadinya hari Kiamat; manusia waktu dihisab ada tiga golongan yaitu golongan yang bersegera menjalankan kebaikan, golongan kanan, dan golongan yang celaka serta balasan yang diperoleh oleh masing-masing golongan; bantahan Allah terhadap keingkaran orang yang mengingkari adanya Tuhan, hari kebangkitan dan adanya hisab; Al-Qur\u2019an berasal dari Lau\u1e25 Ma\u1e25f\u016b\u1e93. \n2. \tLain-lain:\n Gambaran tentang surga dan neraka.",
        "outro_surah": null,
        "munasabah_prev_surah": "1. \tKedua surah ini sama-sama menerangkan keadaan, akhirat, surga, dan neraka.\n2. \tDalam Surah ar-Ra\u1e25m\u0101n diterangkan azab yang ditimpakan kepada orang-orang yang berdosa dan nikmat yang diterima orang-orang yang bertakwa: dijelaskan bahwa ada dua macam surga yang disediakan bagi orang-orang mukmin. Pada Surah al-W\u0101qi\u2018ah diterangkan pembagian manusia di akhirat kepada tiga golongan, yaitu golongan kiri, golongan kanan, dan golongan orang-orang yang lebih dahulu beriman serta diterangkan pula bagaimana nasib masing-masing golongan itu.\n3. \tTelah disebutkan pula di dalam Surah ar-Ra\u1e25m\u0101n terbelahnya langit dan diterangkan di sini tentang gempa, seolah-olah kedua surah ini berisikan pokok-pokok yang sama yang dapat disatukan karena sangat erat hubungan keduanya, hanya susunannya berbeda. Yaitu apa yang disebut permulaan di sini, disebut penghabisan di sana, dan apa yang disebut penghabisan di sini, disebut permulaan di sana.",
        "munasabah_prev_theme": "Pada ayat-ayat yang lalu diterangkan tentang keingkaran orang-orang kafir terhadap tanda-tanda adanya Allah swt, demikian juga keingkaran mereka terhadap rasul-rasul dan Kitab Suci Al-Qur\u2019an. Pada ayat-ayat berikut ini diterangkan kelemahan manusia ketika sakratulmaut dan tidak berdaya sama sekali.",
        "theme_group": "PERINGATAN TENTANG\nSAKRATULMAUT",
        "kosakata": "Kosakata:\n1.\tAl-\u1e24ulq\u016bm \u0627\u0644\u0652\u062d\u064f\u0644\u0652\u0642\u064f\u0648\u0652\u0645 \t(al-W\u0101qi\u2018ah/56: 83)\nKata al-\u1e25ulq\u016bm artinya kerongkongan, jalan nafas di leher. Huruf qalqalah ialah huruf yang pengucapannya keluar dari kerongkongan seperti \u1e25\u0101\u2019, f\u0101\u2019 dan \u2018\u0101. Pada ayat 83 Allah berfirman: falaul\u0101 i\u017c\u0101 balagatil-\u1e25ulq\u016bm artinya: maka mengapa (tidak mencegah) ketika (nyawa) yang telah sampai di kerongkongan? Gaya kalimat bertanya ini, dalam Ilmu Bal\u0101gah berarti lin-nafyi artinya untuk menafikan atau menunjukkan tidak mungkin terjadi. Jadi ayat 83 menjelaskan ketika nyawa seseorang sudah sampai di tenggorokan maka tidak ada seorang pun yang dapat mencegahnya, maksudnya tidak ada yang dapat menahan kematian seseorang. Pada saat seseorang sudah sampai pada kondisi atau keadaan sakratulmaut, nyawanya sudah sampai di kerongkongan, meskipun banyak saudara dan familinya duduk mengelilingi-nya, menyaksikan peristiwa sakratulmaut itu, tetapi tidak ada yang dapat menahan berpisahnya nyawa dari jasad orang tersebut, tidak ada yang dapat menghalang-halangi malaikat mencabut nyawanya.\n2.\tMad\u012bn\u012bn \u0645\u064e\u062f\u0650\u064a\u0652\u0646\u0650\u064a\u0652\u0646 (al-W\u0101qi\u2018ah/56: 86).\nKata mad\u012bn\u012bn adalah isim maf\u2018\u016bl dari kata d\u0101na-yad\u012bnu-dainan yang memiliki akar makna menghutangi. Darinya diambil kata dain yang berarti hutang. Agama disebut d\u012bn karena seseorang berkewajiban untuk menjalankan ajaran-ajarannya, sama seperti hutang yang harus dibayar. Hari Pembalasan juga disebut yaumudd\u012bn karena pada hari itu setiap orang harus memperoleh balasan amalnya di dunia, sama seperti hutang. Kata d\u0101na-yad\u012bnu juga bisa berarti menundukkan dan merendahkan, dan makna ini identik dengan makna menghutangi, karena biasanya orang yang berhutang itu biasanya tunduk kepada orang yang menghutangi. Kalimat d\u0101na asy-syai\u2019a berarti ia memiliki sesuatu, karena memiliki itu juga identik dengan menundukkan. Kata mad\u012bn\u012bn yang dimaksud di sini adalah terbentuk dari kata d\u0101na-yad\u012bnu dengan diberi balasan. Makna kebahasaan ini senada dengan makna yang diriwayatkan dari Ibnu \u2018Abb\u0101s, yaitu dihisab. Tafsiran serupa juga diriwayatkan dari Muj\u0101hid, \u2018Ikrimah, \u1e24asan, Qat\u0101dah, a\u1e0d-\u1e0ca\u1e25\u1e25\u0101k, as-Suddi, dan Abu Hazrah. Bentuk kata ini juga disebut di ayat lain dengan arti yang sama, yaitu firman Allah, \u201cApakah bila kita telah mati dan kita telah menjadi tanah dan tulang belulang, apakah sesungguhnya kita benar-benar (akan dibangkitkan) untuk diberi pembalasan?\u201d (a\u1e63-\u1e62\u0101ff\u0101t/37: 53) \n3.\tFarau\u1e25un wa Rai\u1e25\u0101n \u0641\u064e\u0631\u064e\u0648\u0652\u062d\u064c \u0648\u064e\u0631\u064e\u064a\u0652\u062d\u064e\u0627\u0646\u064c (al-W\u0101qi\u2018ah/56: 86)\nKata rau\u1e25 adalah kata jadian (isim ma\u1e63dar) dari kata r\u0101\u1e25a-yar\u016b\u1e25u-rau\u1e25an yang memiliki akar makna berjalan di sore hari, atau berangin. Darinya diambil kata r\u012b\u1e25 yang berarti angin. Dan darinya diambil kata raw\u0101\u1e25 yang berarti pergi atau datang di sore hari, sebagaimana firman Allah, \u201cDan kami (tundukkan) angin bagi Sulaiman, yang perjalanannya di waktu pagi sama dengan perjalanan sebulan dan perjalanannya di waktu sore sama dengan perjalanan sebulan (pula).\u201d (Saba\u2019/34: 12) Dari kata tersebut diambil kata rau\u1e25 yang berarti angin sepoi-sepoi, atau keadilan yang mele-gakan pengadunya, atau pertolongan, atau kegembiraan dan kesenangan. Meskipun berbeda-beda maknanya, tetapi seluruhnya memiliki satu kemiripan kondisi. Dan yang dimaksud dengan kata rau\u1e25 di dalam ayat ini, adalah kegembiraan dan kesenangan. Makna kebahasaan ini, senada dengan beberapa riwayat tafsir. Menurut Muj\u0101hid, kata rau\u1e25 di sini berarti perasaan rileks. Menurut Abu Hazrah, ia berarti istirahat dari kepenatan di dunia. Menurut Sa\u2018\u012bd bin Jubair dan as-Sudi, ia berarti kesenangan. \nSedangkan kata rai\u1e25\u0101n mengikuti pola fa\u2018l\u0101n yang juga terambil dari kata ini. Secara harfiah, kata rai\u1e25\u0101n berarti tumbuhan yang harum baunya, tetapi kata ini juga digunakan untuk arti penghidupan atau rezeki. Makna kebahasaan ini sama persis dengan penafsiran yang diriwayatkan Ibnu \u2018Abbas, Muj\u0101hid, dan Sa\u2018\u012bd bin Jubair. Orang yang hidup dalam keadaan taqarrub kepada Allah, maka ia memperoleh rahmat, ketenangan, ketentraman, kesenangan, kebaikan, dan rezeki yang baik. Malaikat menyampaikan kabar gembira ini kepada mereka saat mati, sebagaimana diriwayatkan dari al-Barra' bahwa para malaikat berkata, \u201cWahai ruh yang baik di dalam jasad yang baik, engkau telah memakmurkannya. Maka, keluarlah menuju rau\u1e25, rai\u1e25\u0101n, dan Tuhan yang tidak pemarah.\u201d ",
        "sabab_nuzul": null,
        "conclusion": null
    }
}