{
    "id": 5010,
    "surah_id": 56,
    "ayah": 31,
    "page": 535,
    "quarter_hizb": 54.25,
    "juz": 27,
    "manzil": 7,
    "arabic": "\u0648\u0651\u064e\u0645\u064e\u0627\u06e4\u0621\u064d \u0645\u0651\u064e\u0633\u0652\u0643\u064f\u0648\u0652\u0628\u064d\u06d9  ",
    "latin": "Wa m\u0101'im mask\u016bb(in).",
    "translation": " air yang tercurah,",
    "no_footnote": null,
    "footnotes": null,
    "surah": {
        "id": 56,
        "arabic": " \u0627\u0644\u0648\u0627\u0642\u0639\u0629",
        "latin": "Al-W\u0101qi\u2018ah",
        "transliteration": "Al-Waqi\u2018ah",
        "translation": "Hari Kiamat Yang Pasti Terjadi",
        "num_ayah": 96,
        "page": 534,
        "location": "Makkiyah"
    },
    "tafsir": {
        "wajiz": "menjadikannya terasa sejuk, dan selain itu terdapat pula air jernih yang tercurah di sana.",
        "tahlili": "Dalam ayat ini, secara terperinci diterangkan bahwa mereka golongan kanan, yang menerima catatan amalnya dengan tangan kanannya adalah penghuni surga yang akan bersenang-senang dan bergembira dalam ta\u00adman surga yang di antara pohon-pohonnya terdapat pohon bidara yang tidak berduri dan pohon pisang yang bersusun-susun buahnya. Mereka bersuka-ria di bawah naungan berbagai macam pohon yang rindang, di mana tercurah air yang mengalir dan pohon-pohon lain dengan buahnya yang lezat serta berbuah sepanjang masa tanpa mengenal musim, dengan kelezatan cita rasanya dan pohon-pohon bunga yang wangi lagi semerbak harum baunya yang dapat dinikmati kapan dan di mana pun mereka berada, tanpa ada yang melarang akan apa yang dikehendakinya.",
        "intro_surah": "Surah al-W\u0101qi\u2018ah terdiri dari 96 ayat, termasuk kelompok surah Makkiyyah, diturunkan sesudah Surah \u1e6c\u0101h\u0101. Nama Al-W\u0101qi\u2018ah (hari Kiamat) diambil dari kata al-w\u0101qi\u2018ah yang terdapat pada ayat pertama surah ini.\n\nPokok-pokok Isinya:\n1. \tKeimanan:\nHuru-hara di waktu terjadinya hari Kiamat; manusia waktu dihisab ada tiga golongan yaitu golongan yang bersegera menjalankan kebaikan, golongan kanan, dan golongan yang celaka serta balasan yang diperoleh oleh masing-masing golongan; bantahan Allah terhadap keingkaran orang yang mengingkari adanya Tuhan, hari kebangkitan dan adanya hisab; Al-Qur\u2019an berasal dari Lau\u1e25 Ma\u1e25f\u016b\u1e93. \n2. \tLain-lain:\n Gambaran tentang surga dan neraka.",
        "outro_surah": null,
        "munasabah_prev_surah": "1. \tKedua surah ini sama-sama menerangkan keadaan, akhirat, surga, dan neraka.\n2. \tDalam Surah ar-Ra\u1e25m\u0101n diterangkan azab yang ditimpakan kepada orang-orang yang berdosa dan nikmat yang diterima orang-orang yang bertakwa: dijelaskan bahwa ada dua macam surga yang disediakan bagi orang-orang mukmin. Pada Surah al-W\u0101qi\u2018ah diterangkan pembagian manusia di akhirat kepada tiga golongan, yaitu golongan kiri, golongan kanan, dan golongan orang-orang yang lebih dahulu beriman serta diterangkan pula bagaimana nasib masing-masing golongan itu.\n3. \tTelah disebutkan pula di dalam Surah ar-Ra\u1e25m\u0101n terbelahnya langit dan diterangkan di sini tentang gempa, seolah-olah kedua surah ini berisikan pokok-pokok yang sama yang dapat disatukan karena sangat erat hubungan keduanya, hanya susunannya berbeda. Yaitu apa yang disebut permulaan di sini, disebut penghabisan di sana, dan apa yang disebut penghabisan di sini, disebut permulaan di sana.",
        "munasabah_prev_theme": "Pada ayat-ayat yang lalu, Allah menjelaskan tentang nikmat dan kesenangan yang akan dirasakan oleh golongan yang paling dahulu beriman, yang disebut golongan \u201cas-S\u0101biq\u016bnass\u0101biq\u016bn\u201d, ialah para rasul, nabi, wali, dan para salihin yang terdahulu, yang telah berlomba-lomba dalam segala amal kebajikan. Pada ayat berikut ini, Allah menjelaskan kesenangan dan kebahagiaan yang akan dinikmati oleh golongan kanan, ialah para penghuni surga yang akan menerima buku catatan amal mereka dengan tangan kanan disertai kegembiraan yang tidak ada bandingannya.",
        "theme_group": "BALASAN BAGI GOLONGAN KANAN",
        "kosakata": "Kosakata:\n1.\tA\u1e63\u1e25\u0101bul-yam\u012bn \u0623\u064e\u0635\u0652\u062d\u064e\u0627\u0628\u064f \u0627\u0644\u0652\u064a\u064e\u0645\u0650\u064a\u0652\u0646 (al-W\u0101qi\u2018ah/56: 27) \nKata a\u1e63\u1e25\u0101bul-yam\u012bn terdiri dari dua kata, yaitu a\u1e63\u1e25\u0101b dan al-yam\u012bn. Yang pertama (a\u1e63\u1e25\u0101b) merupakan bentuk jamak dari \u1e63\u0101\u1e25ib, yang berarti teman atau kelompok. Sedang yang kedua (al-yam\u012bn) artinya kanan, yaitu yang mengisyaratkan pada kelompok baik. Kata ini disebut pada ayat tersebut untuk menunjuk kelompok kanan yang merupakan golongan kedua yang akan masuk surga. Kelompok pertama yang lebih tinggi dan mendapat kenikmatan istimewa adalah al-muqarrab\u016bn, yang telah disebut pada rangkaian ayat sebelumnya. Walaupun merupakan kelompok yang lebih rendah, kenikmatan yang didapatkan a\u1e63\u1e25\u0101bul-yam\u012bn bukan berarti tidak sempurna. Mereka juga menikmati anugerah yang luar biasa dari Allah sebagai ganjaran atas perilaku dan perbuatan mereka ketika di dunia.\n2.\tSidrin Makh\u1e0d\u016bdin \u0633\u0650\u062f\u0652\u0631\u064d \u0645\u064e\u062e\u0652\u0636\u064f\u0648\u0652\u062f\u064d (al-W\u0101qi\u2018ah/56: 28)\nSidrin makh\u1e0d\u016bdin adalah tark\u012bb wa\u1e63fi artinya susunan kata majemuk yang menunjukkan sifat. Seperti bahasa Indonesia yang menganut hukum DM yaitu diterangkan dan menerangkan, sehingga kata sifat terletak setelah kata benda. Tidak seperti bahasa Inggris atau bahasa-bahasa di Eropa yang mendahulukan kata sifat sebelum kata benda, seperti white house, good boy, dan lain-lain yang menganut hukum MD (menerangkan diterangkan). Sidr adalah sejenis pohon yang daunnya kecil-kecil dan buahnya seperti petai tetapi lebih kecil lagi. Ada yang menyebutnya petai Cina, atau bidara. Makh\u1e0d\u016bd artinya lemah, tidak berduri. Sidr makh\u1e0d\u016bd pada ayat 28 artinya pohon bidara yang tidak berduri. Hal ini menunjukkan penghuni surga berada di antara pohon-pohon yang rindang dan buahnya kecil-kecil, sehingga nyaman tidak berbahaya, yaitu pohon bidara yang tidak berduri. \n3.\t\u2018Uruban Atr\u0101b\u0101 \u0639\u064f\u0631\u064f\u0628\u064b\u0627 \u0627\u064e\u062a\u0652\u0631\u064e\u0627\u0628\u064b\u0627 (al-W\u0101qi\u2018ah/56: 37) \n\u2018Urub atr\u0101b adalah dua kata sifat dalam bentuk jamak, yaitu sebagai sifat-sifat kepada kata benda yang bentuknya juga jamak. Pada ayat sebelumnya yaitu abk\u0101r\u0101 artinya para gadis atau putri-putri perawan. Maksudnya perempuan-perempuan itu di surga semuanya diciptakan sebagai gadis-gadis yang masih perawan, cantik-cantik dan selalu berpenampilan penuh cinta, serta semuanya sebaya usia mereka. \u2018Arab adalah bentuk jamak dari \u2018ur\u016bb, berasal dari fi\u2018il \u2018iraba-ya\u2018ribu-\u2018ir\u0101ban artinya menerangkan, menganalisis dan memperindah, seperti kal\u0101muhu \u2018arab berarti a\u1e25sanah yaitu memperindah kalimatnya 'atr\u0101b adalah bentuk jamak dari taraba artinya sebaya atau semasa. Jadi atr\u0101b\u0101 \u2018uruban pada ayat 37 artinya mereka cantik-cantik dan penuh pesona cinta, serta usia mereka sebaya.",
        "sabab_nuzul": null,
        "conclusion": null
    }
}