{
    "id": 4991,
    "surah_id": 56,
    "ayah": 12,
    "page": 534,
    "quarter_hizb": 54.25,
    "juz": 27,
    "manzil": 7,
    "arabic": "\u0641\u0650\u064a\u0652 \u062c\u064e\u0646\u0651\u0670\u062a\u0650 \u0627\u0644\u0646\u0651\u064e\u0639\u0650\u064a\u0652\u0645\u0650 ",
    "latin": "F\u012b jann\u0101tin-na\u2018\u012bm(i).",
    "translation": " (Mereka) berada dalam surga (yang penuh) kenikmatan.",
    "no_footnote": null,
    "footnotes": null,
    "surah": {
        "id": 56,
        "arabic": " \u0627\u0644\u0648\u0627\u0642\u0639\u0629",
        "latin": "Al-W\u0101qi\u2018ah",
        "transliteration": "Al-Waqi\u2018ah",
        "translation": "Hari Kiamat Yang Pasti Terjadi",
        "num_ayah": 96,
        "page": 534,
        "location": "Makkiyah"
    },
    "tafsir": {
        "wajiz": "yaitu berada dalam surga yang penuh kenikmatan sebagaimana yang Dia janjikan.",
        "tahlili": "Ayat ini menerangkan bahwa mereka yang paling dahulu beriman itulah yang menerima ganjaran yang lebih dahulu dari Allah. Mereka adalah ahli surga yang dilimpahi nikmat-nikmat yang tidak pernah dilihat oleh mata dan didengar oleh telinga serta terpikirkan oleh siapa pun juga sebagaimana disebutkan dalam hadis Nabi saw.\n\u0641\u0650\u0649 \u0627\u0644\u0652\u062c\u064e\u0646\u0651\u064e\u0629\u0650 \u0645\u064e\u0627 \u0644\u064e\u0627 \u0639\u064e\u064a\u0652\u0646\u064c \u0631\u064e\u0623\u064e\u062a\u0652 \u0648\u064e \u0644\u064e\u0627 \u0623\u064f\u0630\u064f\u0646\u064c \u0633\u064e\u0645\u0650\u0639\u064e\u062a\u0652 \u0648\u064e \u0644\u064e\u0627 \u062e\u064e\u0637\u064e\u0631\u064e \u0639\u064e\u0644\u064e\u0649 \u0642\u064e\u0644\u0652\u0628\u0650 \u0628\u064e\u0634\u064e\u0631\u064d. (\u0631\u0648\u0627\u0647 \u0627\u0644\u0628\u0632\u0627\u0631 \u0639\u0646 \u0623\u0628\u064a \u0633\u0639\u064a\u062f)\nDi dalam surga terdapat nikmat dan kesenangan yang tidak pernah dilihat oleh mata dan didengar oleh telinga serta tidak pernah terlintas di hati manusia. (Riwayat al-Bazz\u0101r dari Ab\u012b Sa\u2018\u012bd)",
        "intro_surah": "Surah al-W\u0101qi\u2018ah terdiri dari 96 ayat, termasuk kelompok surah Makkiyyah, diturunkan sesudah Surah \u1e6c\u0101h\u0101. Nama Al-W\u0101qi\u2018ah (hari Kiamat) diambil dari kata al-w\u0101qi\u2018ah yang terdapat pada ayat pertama surah ini.\n\nPokok-pokok Isinya:\n1. \tKeimanan:\nHuru-hara di waktu terjadinya hari Kiamat; manusia waktu dihisab ada tiga golongan yaitu golongan yang bersegera menjalankan kebaikan, golongan kanan, dan golongan yang celaka serta balasan yang diperoleh oleh masing-masing golongan; bantahan Allah terhadap keingkaran orang yang mengingkari adanya Tuhan, hari kebangkitan dan adanya hisab; Al-Qur\u2019an berasal dari Lau\u1e25 Ma\u1e25f\u016b\u1e93. \n2. \tLain-lain:\n Gambaran tentang surga dan neraka.",
        "outro_surah": null,
        "munasabah_prev_surah": "1. \tKedua surah ini sama-sama menerangkan keadaan, akhirat, surga, dan neraka.\n2. \tDalam Surah ar-Ra\u1e25m\u0101n diterangkan azab yang ditimpakan kepada orang-orang yang berdosa dan nikmat yang diterima orang-orang yang bertakwa: dijelaskan bahwa ada dua macam surga yang disediakan bagi orang-orang mukmin. Pada Surah al-W\u0101qi\u2018ah diterangkan pembagian manusia di akhirat kepada tiga golongan, yaitu golongan kiri, golongan kanan, dan golongan orang-orang yang lebih dahulu beriman serta diterangkan pula bagaimana nasib masing-masing golongan itu.\n3. \tTelah disebutkan pula di dalam Surah ar-Ra\u1e25m\u0101n terbelahnya langit dan diterangkan di sini tentang gempa, seolah-olah kedua surah ini berisikan pokok-pokok yang sama yang dapat disatukan karena sangat erat hubungan keduanya, hanya susunannya berbeda. Yaitu apa yang disebut permulaan di sini, disebut penghabisan di sana, dan apa yang disebut penghabisan di sini, disebut permulaan di sana.",
        "munasabah_prev_theme": "Pada ayat-ayat yang lalu, Allah swt menerangkan bahwa manusia pada hari Kiamat terbagi atas tiga golongan, yaitu golongan orang-orang yang paling dahulu beriman, golongan kanan dan golongan kiri. Maka dalam ayat ini diungkapkan golongan-golongan itu kepada orang beriman.",
        "theme_group": "BALASAN YANG AKAN DITERIMA OLEH ORANG YANG BERIMAN DI AKHIRAT ",
        "kosakata": "Kosakata: \u1e60ullatun \u062b\u064f\u0644\u0651\u064e\u0629\u064c (al-W\u0101qi\u2018ah/56: 13) \nKata \u1e61ullatun diartikan sebagai sekelompok orang, baik yang jumlahnya banyak atau sedikit. Namun demikian, ada juga yang berpendapat bahwa kata ini untuk menunjuk kelompok manusia dalam jumlah banyak. Pada ayat ini, kata tersebut digunakan untuk mengisyaratkan bahwa yang akan masuk surga di akhirat kelak adalah kelompok dalam jumlah banyak, yaitu umat terdahulu yang bersama nabi mereka masing-masing. Selain itu, pada ayat berikutnya, ada pula kelompok kecil yang datang kemudian, yaitu umat Nabi Muhammad.",
        "sabab_nuzul": "Diriwayatkan oleh A\u1e25mad dari Ab\u016b Hurairah bahwa ketika turun ayat: \u1e61ullatum minal-awwal\u012bna wa qal\u012blum minal-\u0101khir\u012bn (al-W\u0101qi\u2018ah/56: 13-14), para sahabat merasa sedih, maka turunlah ayat: \u1e61ullatum min al-awwal\u012bn wa \u1e61ullatum minal-\u0101khir\u012bn (al-W\u0101qi\u2018ah/56: 39-40), lalu Nabi saw bersabda, \u201cSesungguhnya saya mengharapkan (jumlah) kamu itu seperempat penghuni surga, bahkan sepertiga, dan bahkan setengah atau seperdua penghuni surga, dan kalian saling mengambil bagian mereka separuh yang kedua.\u201d",
        "conclusion": null
    }
}