{
    "id": 4988,
    "surah_id": 56,
    "ayah": 9,
    "page": 534,
    "quarter_hizb": 54.25,
    "juz": 27,
    "manzil": 7,
    "arabic": "\u0648\u064e\u0627\u064e\u0635\u0652\u062d\u0670\u0628\u064f \u0627\u0644\u0652\u0645\u064e\u0634\u0652\u0640\u0654\u064e\u0645\u064e\u0629\u0650 \u06d5\u06d9 \u0645\u064e\u0627\u0653 \u0627\u064e\u0635\u0652\u062d\u0670\u0628\u064f \u0627\u0644\u0652\u0645\u064e\u0634\u0652\u0640\u0654\u064e\u0645\u064e\u0629\u0650 \u06d7",
    "latin": "Wa a\u1e63\u1e25\u0101bul-masy'amah(ti), m\u0101 a\u1e63\u1e25\u0101bul-masy'amah(ti).",
    "translation": " dan golongan kiri, alangkah sengsaranya golongan kiri itu.",
    "no_footnote": null,
    "footnotes": null,
    "surah": {
        "id": 56,
        "arabic": " \u0627\u0644\u0648\u0627\u0642\u0639\u0629",
        "latin": "Al-W\u0101qi\u2018ah",
        "transliteration": "Al-Waqi\u2018ah",
        "translation": "Hari Kiamat Yang Pasti Terjadi",
        "num_ayah": 96,
        "page": 534,
        "location": "Makkiyah"
    },
    "tafsir": {
        "wajiz": "Dan yang kedua adalah golongan kiri, yaitu mereka yang ingkar dan berbuat kemaksiatan. Alangkah sengsaranya golongan kiri itu karena mereka akan mendapat hukuman akibat kemungkarannya.",
        "tahlili": "Ayat ini menjelaskan bahwa \u201cgolongan kanan\u201d adalah orang-orang yang menerima buku catatan amal mereka dengan tangan kanan, yang menunjukkan bahwa mereka adalah penghuni surga. Tentulah keadaan mereka sangat baik dan sangat menyenangkan. \u201cGolongan kiri\u201d ialah orang-orang yang menerima buku catatan amal mereka dengan tangan kiri yang menunjukkan bahwa mereka adalah penghuni neraka dan akan mendapat siksaan serta hukuman yang sangat menyedihkan.\nBerkenaan dengan ayat ini Mu\u2018\u0101\u017c bin Jabal meriwayatkan:\n\u0627\u064e\u0646\u0651\u064e \u0631\u064e\u0633\u064f\u0648\u0652\u0644\u064e \u0627\u0644\u0644\u0651\u0670\u0647\u0650 \u0635\u064e\u0644\u0651\u064e\u0649 \u0627\u0644\u0644\u0651\u0670\u0647\u064f \u0639\u064e\u0644\u064e\u064a\u0652\u0647\u0650 \u0648\u064e\u0633\u064e\u0644\u0651\u064e\u0645 \u062a\u064e\u0644\u064e\u0627 \u0647\u0670\u0630\u0650\u0647\u0650 \u0627\u0652\u0644\u0622\u064a\u064e\u0629\u064e \u062b\u064f\u0645\u0651\u064e \u0642\u064e\u0628\u064e\u0636\u064e \u0628\u0650\u064a\u064e\u062f\u064e\u064a\u0652\u0647\u0650 \u0642\u064e\u0628\u0652\u0636\u064e\u062a\u064e\u064a\u0652\u0646\u0650. \u0641\u064e\u0642\u064e\u0627\u0644\u064e: \u0647\u0670\u0630\u0650\u0647\u0650 \u0641\u0650\u0649 \u0627\u0644\u062c\u064e\u0646\u0651\u064e\u0629\u0650 \u0648\u064e\u0644\u064e\u0627 \u0623\u064f\u0628\u064e\u0627\u0644\u0650\u064a\u0652 \u0648\u064e\u0647\u0670\u0630\u0650\u0647\u0650 \u0641\u0650\u0649 \u0627\u0644\u0646\u0651\u064e\u0627\u0631\u0650 \u0648\u064e\u0644\u064e\u0627 \u0623\u064f\u0628\u064e\u0627\u0644\u0650\u064a\u0652. (\u0631\u0648\u0627\u0647 \u0623\u062d\u0645\u062f \u0639\u0646 \u0645\u0639\u0627\u0630 \u0628\u0646 \u062c\u0628\u0644)\nNabi Muhammad saw tatkala membaca ayat di atas, beliau menggenggam tangannya seraya berkata, \u201cIni (yang digenggam dengan tangan kanan beliau) adalah ahli surga dan tidak perlu aku memperhatikan, dan (yang digenggam dengan tangan kiri beliau) ini adalah ahli neraka dan tidak perlu aku mempedulikannya.\u201d (Riwayat A\u1e25mad dari Mu\u2018\u0101\u017c bin Jabal)",
        "intro_surah": "Surah al-W\u0101qi\u2018ah terdiri dari 96 ayat, termasuk kelompok surah Makkiyyah, diturunkan sesudah Surah \u1e6c\u0101h\u0101. Nama Al-W\u0101qi\u2018ah (hari Kiamat) diambil dari kata al-w\u0101qi\u2018ah yang terdapat pada ayat pertama surah ini.\n\nPokok-pokok Isinya:\n1. \tKeimanan:\nHuru-hara di waktu terjadinya hari Kiamat; manusia waktu dihisab ada tiga golongan yaitu golongan yang bersegera menjalankan kebaikan, golongan kanan, dan golongan yang celaka serta balasan yang diperoleh oleh masing-masing golongan; bantahan Allah terhadap keingkaran orang yang mengingkari adanya Tuhan, hari kebangkitan dan adanya hisab; Al-Qur\u2019an berasal dari Lau\u1e25 Ma\u1e25f\u016b\u1e93. \n2. \tLain-lain:\n Gambaran tentang surga dan neraka.",
        "outro_surah": null,
        "munasabah_prev_surah": "1. \tKedua surah ini sama-sama menerangkan keadaan, akhirat, surga, dan neraka.\n2. \tDalam Surah ar-Ra\u1e25m\u0101n diterangkan azab yang ditimpakan kepada orang-orang yang berdosa dan nikmat yang diterima orang-orang yang bertakwa: dijelaskan bahwa ada dua macam surga yang disediakan bagi orang-orang mukmin. Pada Surah al-W\u0101qi\u2018ah diterangkan pembagian manusia di akhirat kepada tiga golongan, yaitu golongan kiri, golongan kanan, dan golongan orang-orang yang lebih dahulu beriman serta diterangkan pula bagaimana nasib masing-masing golongan itu.\n3. \tTelah disebutkan pula di dalam Surah ar-Ra\u1e25m\u0101n terbelahnya langit dan diterangkan di sini tentang gempa, seolah-olah kedua surah ini berisikan pokok-pokok yang sama yang dapat disatukan karena sangat erat hubungan keduanya, hanya susunannya berbeda. Yaitu apa yang disebut permulaan di sini, disebut penghabisan di sana, dan apa yang disebut penghabisan di sini, disebut permulaan di sana.",
        "munasabah_prev_theme": "Pada akhir Surah ar-Ra\u1e25m\u0101n disebutkan bahwa Allah mempunyai kebesaran dan karunia yang kekal. Maka pada awal Surah al-W\u0101qi\u2018ah disebutkan bahwa apabila telah terjadi kiamat, tidak ada seorang pun manusia yang mendusta-kannya. Semua makhluk akan binasa pada saat itu kecuali Allah yang Mahabesar dan Mahaagung.",
        "theme_group": "PERISTIWA BESAR PADA HARI KIAMAT",
        "kosakata": "Kosakata:\n1.\tAl-W\u0101qi\u2018ah \u0627\u0644\u0652\u0648\u064e\u0627\u0642\u0650\u0639\u064e\u0629 (al-W\u0101qi\u2018ah/56: 1)\nKata al-w\u0101qi\u2018ah terambil dari kata w\u0101qi\u2018 (isim f\u0101\u2018il) dari kata kerja waqa\u2018a-yaqa\u2018u, yang artinya terjadi. Dengan demikian w\u0101qi\u2018 artinya yang terjadi atau peristiwa. Kata ini mendapat imbuhan al (alif l\u0101m lit-ta\u2018r\u012bf) pada awalnya, yang fungsinya untuk menjadikannya sebagai sesuatu yang telah diketahui, dan t\u0101' marbu\u1e6dah pada akhirnya yang berfungsi untuk menyatakan mengisyaratkan betapa hebat dan sempurnanya peristiwa itu. Kata              al-w\u0101qi\u2018ah, karenanya, mesti diartikan sebagai suatu peristiwa hebat yang sempurna. Tidak ada satu peristiwa lain yang menyamainya. Kata ini disebutkan sebagai ma\u2018rifah pada awal ayat (peristiwa yang diketahui), yang tentunya tidak disebut sebelumnya. Penyebutan yang demikian untuk mengisyaratkan bahwa peristiwa itu sudah sangat jelas dan pasti akan terjadinya, sehingga walaupun tidak dijelaskan peristiwa apa itu, mestinya semua manusia telah mengetahuinya, dan yakin bahwa bila telah tiba saatnya, peristiwa ini pasti akan terjadi.\n2.\tAl-Muqarrab\u016bn \u0627\u0644\u0652\u0645\u064f\u0642\u064e\u0631\u0651\u064e\u0628\u064f\u0648\u0652\u0646 (al-W\u0101qi\u2018ah/56: 11)\nKata al-muqarrab\u016bn berasal dari kata qaruba-yaqrubu-qurb, artinya dekat. Muqarrab\u016bn sendiri merupakan bentuk jamak dari muqarrab, yaitu ism maf\u2018\u016bl dari qarraba-yuqarribu. Dengan demikian muqarrab\u016bn artinya adalah orang-orang yang didekatkan. Pada ayat ini tidak dijelaskan siapa yang mendekatkan mereka dan kapan serta dimana hal itu terjadi. Tampaknya makna dan pengertiannya dari konteks ayat sudah jelas, sehingga tidak perlu disebut lagi, yaitu mereka didekatkan Allah ke sisi-Nya pada setiap saat dan tempat, baik di dunia maupun di akhirat. Hal yang sedemikian ini, karena mereka selalu beribadah dan melakukan kegiatan hanya didasari motivasi untuk mendapatkan rida Allah. Seseorang yang selalu mendekatkan diri kepada Allah dengan melaksanakan seluruh kewajibannya dan menyempurnakan dengan perbuatan-perbuatan sunah, baik ibadah sunah kepada Allah atau kepada sesama makhluk, akan dicintai Allah sehingga didekatkan ke sisi-Nya. Bila Allah telah mencintai seorang manusia, maka jadilah pendengaran-Nya yang dia pergunakan untuk mendengar, begitu pula penglihatan, tangan, kaki-Nya. Demikian informasi Rasulullah saw dalam sebuah hadis qudsi yang diriwayatkan Imam al-Bukh\u0101r\u012b.",
        "sabab_nuzul": null,
        "conclusion": null
    }
}