{
    "id": 4998,
    "surah_id": 56,
    "ayah": 19,
    "page": 535,
    "quarter_hizb": 54.25,
    "juz": 27,
    "manzil": 7,
    "arabic": "\u0644\u0651\u064e\u0627 \u064a\u064f\u0635\u064e\u062f\u0651\u064e\u0639\u064f\u0648\u0652\u0646\u064e \u0639\u064e\u0646\u0652\u0647\u064e\u0627 \u0648\u064e\u0644\u064e\u0627 \u064a\u064f\u0646\u0652\u0632\u0650\u0641\u064f\u0648\u0652\u0646\u064e\u06d9  ",
    "latin": "L\u0101 yu\u1e63adda\u2018\u016bna \u2018anh\u0101 wa l\u0101 yunzif\u016bn(a).",
    "translation": " Mereka tidak pening karenanya dan tidak pula mabuk.",
    "no_footnote": null,
    "footnotes": null,
    "surah": {
        "id": 56,
        "arabic": " \u0627\u0644\u0648\u0627\u0642\u0639\u0629",
        "latin": "Al-W\u0101qi\u2018ah",
        "transliteration": "Al-Waqi\u2018ah",
        "translation": "Hari Kiamat Yang Pasti Terjadi",
        "num_ayah": 96,
        "page": 534,
        "location": "Makkiyah"
    },
    "tafsir": {
        "wajiz": "Mereka juga mendapat minuman anggur yang tidak memabukkan sehingga mereka tidak pening karenanya dan tidak pula mabuk.",
        "tahlili": "Ayat ini menjelaskan bahwa anak-anak muda tersebut melayani penghuni surga dengan membawa gelas, piala, cerek, dan minuman khamar yang diambil dari air yang mengalir dari mata airnya, tidak diperas, bening dan bersih yang tidak habis-habisnya. Mereka dapat mengambil dan minum semaunya dan hal itu tidak membuat mereka pening dan mabuk.",
        "intro_surah": "Surah al-W\u0101qi\u2018ah terdiri dari 96 ayat, termasuk kelompok surah Makkiyyah, diturunkan sesudah Surah \u1e6c\u0101h\u0101. Nama Al-W\u0101qi\u2018ah (hari Kiamat) diambil dari kata al-w\u0101qi\u2018ah yang terdapat pada ayat pertama surah ini.\n\nPokok-pokok Isinya:\n1. \tKeimanan:\nHuru-hara di waktu terjadinya hari Kiamat; manusia waktu dihisab ada tiga golongan yaitu golongan yang bersegera menjalankan kebaikan, golongan kanan, dan golongan yang celaka serta balasan yang diperoleh oleh masing-masing golongan; bantahan Allah terhadap keingkaran orang yang mengingkari adanya Tuhan, hari kebangkitan dan adanya hisab; Al-Qur\u2019an berasal dari Lau\u1e25 Ma\u1e25f\u016b\u1e93. \n2. \tLain-lain:\n Gambaran tentang surga dan neraka.",
        "outro_surah": null,
        "munasabah_prev_surah": "1. \tKedua surah ini sama-sama menerangkan keadaan, akhirat, surga, dan neraka.\n2. \tDalam Surah ar-Ra\u1e25m\u0101n diterangkan azab yang ditimpakan kepada orang-orang yang berdosa dan nikmat yang diterima orang-orang yang bertakwa: dijelaskan bahwa ada dua macam surga yang disediakan bagi orang-orang mukmin. Pada Surah al-W\u0101qi\u2018ah diterangkan pembagian manusia di akhirat kepada tiga golongan, yaitu golongan kiri, golongan kanan, dan golongan orang-orang yang lebih dahulu beriman serta diterangkan pula bagaimana nasib masing-masing golongan itu.\n3. \tTelah disebutkan pula di dalam Surah ar-Ra\u1e25m\u0101n terbelahnya langit dan diterangkan di sini tentang gempa, seolah-olah kedua surah ini berisikan pokok-pokok yang sama yang dapat disatukan karena sangat erat hubungan keduanya, hanya susunannya berbeda. Yaitu apa yang disebut permulaan di sini, disebut penghabisan di sana, dan apa yang disebut penghabisan di sini, disebut permulaan di sana.",
        "munasabah_prev_theme": "Pada ayat-ayat yang lalu, Allah swt menerangkan bahwa manusia pada hari Kiamat terbagi atas tiga golongan, yaitu golongan orang-orang yang paling dahulu beriman, golongan kanan dan golongan kiri. Maka dalam ayat ini diungkapkan golongan-golongan itu kepada orang beriman.",
        "theme_group": "BALASAN YANG AKAN DITERIMA OLEH ORANG YANG BERIMAN DI AKHIRAT ",
        "kosakata": "Kosakata: \u1e60ullatun \u062b\u064f\u0644\u0651\u064e\u0629\u064c (al-W\u0101qi\u2018ah/56: 13) \nKata \u1e61ullatun diartikan sebagai sekelompok orang, baik yang jumlahnya banyak atau sedikit. Namun demikian, ada juga yang berpendapat bahwa kata ini untuk menunjuk kelompok manusia dalam jumlah banyak. Pada ayat ini, kata tersebut digunakan untuk mengisyaratkan bahwa yang akan masuk surga di akhirat kelak adalah kelompok dalam jumlah banyak, yaitu umat terdahulu yang bersama nabi mereka masing-masing. Selain itu, pada ayat berikutnya, ada pula kelompok kecil yang datang kemudian, yaitu umat Nabi Muhammad.",
        "sabab_nuzul": null,
        "conclusion": null
    }
}