{
    "id": 5034,
    "surah_id": 56,
    "ayah": 55,
    "page": 536,
    "quarter_hizb": 54.25,
    "juz": 27,
    "manzil": 7,
    "arabic": "\u0641\u064e\u0634\u0670\u0631\u0650\u0628\u064f\u0648\u0652\u0646\u064e \u0634\u064f\u0631\u0652\u0628\u064e \u0627\u0644\u0652\u0647\u0650\u064a\u0652\u0645\u0650\u06d7  ",
    "latin": "Fa sy\u0101rib\u016bna syurbal-h\u012bm(i).",
    "translation": "Maka, kamu minum bagaikan unta yang sangat haus.",
    "no_footnote": null,
    "footnotes": null,
    "surah": {
        "id": 56,
        "arabic": " \u0627\u0644\u0648\u0627\u0642\u0639\u0629",
        "latin": "Al-W\u0101qi\u2018ah",
        "transliteration": "Al-Waqi\u2018ah",
        "translation": "Hari Kiamat Yang Pasti Terjadi",
        "num_ayah": 96,
        "page": 534,
        "location": "Makkiyah"
    },
    "tafsir": {
        "wajiz": "54-56. Wahai orang yang sesat, sesudah memenuhi perut dengan buah zaqqum yang sangat tidak enak itu, kamu akan meminum air yang sangat panas dan membakar lidah. Meski demikian, karena dahaga yang sangat mencekik maka kamu minum air panas itu seperti unta yang sangat haus minum. Itulah beragam hidangan menyakitkan yang Kami sediakan untuk mereka yang selalu ingkar dan berbuat maksiat, pada hari pembalasan\u201d.",
        "tahlili": "Kemudian Allah menjelaskan kepada mereka yang sesat, yang senantiasa mengerjakan dosa besar dengan mendustakan para rasul dan meng\u00adingkari hari kebangkitan dan hari pembalasan, bahwa mereka benar-benar akan memakan buah pohon zaqqum, dan karena perasaan lapar yang tak terhingga, bukan satu dua buah zaqqum yang dimakannya, melainkan mereka memakan sepenuh perutnya; dan karena perasaan haus dan dahaga yang tidak tertahankan lagi, maka mereka kembali minum air yang sangat panas bagaikan cairan timah dan tembaga yang mendidih, namun mereka tetap minum terus bagaikan minumnya unta yang sangat haus dan sangat dahaga.",
        "intro_surah": "Surah al-W\u0101qi\u2018ah terdiri dari 96 ayat, termasuk kelompok surah Makkiyyah, diturunkan sesudah Surah \u1e6c\u0101h\u0101. Nama Al-W\u0101qi\u2018ah (hari Kiamat) diambil dari kata al-w\u0101qi\u2018ah yang terdapat pada ayat pertama surah ini.\n\nPokok-pokok Isinya:\n1. \tKeimanan:\nHuru-hara di waktu terjadinya hari Kiamat; manusia waktu dihisab ada tiga golongan yaitu golongan yang bersegera menjalankan kebaikan, golongan kanan, dan golongan yang celaka serta balasan yang diperoleh oleh masing-masing golongan; bantahan Allah terhadap keingkaran orang yang mengingkari adanya Tuhan, hari kebangkitan dan adanya hisab; Al-Qur\u2019an berasal dari Lau\u1e25 Ma\u1e25f\u016b\u1e93. \n2. \tLain-lain:\n Gambaran tentang surga dan neraka.",
        "outro_surah": null,
        "munasabah_prev_surah": "1. \tKedua surah ini sama-sama menerangkan keadaan, akhirat, surga, dan neraka.\n2. \tDalam Surah ar-Ra\u1e25m\u0101n diterangkan azab yang ditimpakan kepada orang-orang yang berdosa dan nikmat yang diterima orang-orang yang bertakwa: dijelaskan bahwa ada dua macam surga yang disediakan bagi orang-orang mukmin. Pada Surah al-W\u0101qi\u2018ah diterangkan pembagian manusia di akhirat kepada tiga golongan, yaitu golongan kiri, golongan kanan, dan golongan orang-orang yang lebih dahulu beriman serta diterangkan pula bagaimana nasib masing-masing golongan itu.\n3. \tTelah disebutkan pula di dalam Surah ar-Ra\u1e25m\u0101n terbelahnya langit dan diterangkan di sini tentang gempa, seolah-olah kedua surah ini berisikan pokok-pokok yang sama yang dapat disatukan karena sangat erat hubungan keduanya, hanya susunannya berbeda. Yaitu apa yang disebut permulaan di sini, disebut penghabisan di sana, dan apa yang disebut penghabisan di sini, disebut permulaan di sana.",
        "munasabah_prev_theme": "Pada ayat-ayat yang lalu Allah swt menjelaskan kesenangan dan kenikmatan yang dirasakan oleh kedua golongan, yaitu golongan orang-orang yang paling da-hulu beriman (muqarrab\u012bn) dan golongan kanan (A\u1e63\u1e25\u0101bul-yam\u012bn, disebut juga al-Abr\u0101r). Dalam ayat-ayat berikut ini Allah menjelaskan azab yang akan ditimpakan golongan yang ketiga yaitu yang disebut golongan kiri (A\u1e63\u1e25\u0101busy-syim\u0101l).",
        "theme_group": "AZAB BAGI GOLONGAN KIRI",
        "kosakata": "Kosakata:\n1.\tA\u1e63\u1e25\u0101busy-Syim\u0101l \u0623\u064e\u0635\u0652\u062d\u064e\u0627\u0628\u064f \u0627\u0644\u0634\u0651\u0650\u0645\u064e\u0627\u0644 (al-W\u0101qi\u2018ah/56: 41)\nA\u1e63\u1e25\u0101busy-syim\u0101l artinya orang-orang golongan kiri. A\u1e63\u1e25\u0101b adalah bentuk jamak dari \u1e63\u0101\u1e25ib pemilik atau yang memiliki A\u1e63\u1e25\u0101busy-syim\u0101l artinya orang yang memiliki golongan kiri, atau berada pada kelompok kiri. Seperti \u1e63\u0101\u1e25ibul-bait artinya pemilik rumah, dan \u1e63\u0101\u1e25ibul-\u1e25\u0101jat orang yang mempunyai atau menyelenggarakan hajat (perhelatan). Jika a\u1e63\u1e25\u0101bul-yam\u012bn adalah orang-orang kelompok kanan yaitu orang-orang yang akan menjadi penghuni surga, maka a\u1e63\u1e25\u0101busy-syim\u0101l pada ayat 41 adalah orang-orang kelompok kiri yaitu yang akan menjadi penghuni neraka. Mereka akan menghadapi berbagai azab yang pedih dan menghinakan, sebagai akibat dari sikap dan perbuatan mereka di dunia yang mengingkari kebenaran agama dan melakukan banyak perbuatan dosa yang dilarang agama.\n2.\tSam\u016bm \u0633\u064e\u0645\u064f\u0648\u0652\u0645 (al-W\u0101qi\u2018ah/56: 42)\nSam\u016bm adalah bentuk \u1e63\u012bgah mub\u0101lagah artinya bentuk kata sifat yang sangat berlebih-lebihan, berasal dari fi\u2018il samma-yasummu-samman artinya meracun, membakar, menghanguskan. Ar-r\u012b\u1e25u sammat artinya angin itu menghanguskan, asy-syajaru sammat artinya pohon-pohon itu terbakar. F\u012b sam\u016bmi pada ayat 42 berarti dalam siksaan angin yang sangat panas, angin yang membakar dan menghanguskan segala yang disentuhnya. Begitulah yang ditemui oleh orang-orang a\u1e63\u1e25\u0101busy-syim\u0101l yaitu golongan kiri, pertama-tama mereka menghadapi siksaan angin yang panas sekali dan menghanguskan tubuh orang-orang yang di dunia menolak kebenaran agama dan banyak melakukan kerusakan dan dosa yang dilarang agama. Selanjutnya berbagai siksa akan dihadapi di akhirat yang sangat pedih sebagai balasan atas perbuatan jahatnya di dunia.",
        "sabab_nuzul": null,
        "conclusion": null
    }
}