{
    "id": 5084,
    "surah_id": 57,
    "ayah": 9,
    "page": 538,
    "quarter_hizb": 54.5,
    "juz": 27,
    "manzil": 7,
    "arabic": "\u0647\u064f\u0648\u064e \u0627\u0644\u0651\u064e\u0630\u0650\u064a\u0652 \u064a\u064f\u0646\u064e\u0632\u0651\u0650\u0644\u064f \u0639\u064e\u0644\u0670\u0649 \u0639\u064e\u0628\u0652\u062f\u0650\u0647\u0656\u0653 \u0627\u0670\u064a\u0670\u062a\u064d\u06e2 \u0628\u064e\u064a\u0651\u0650\u0646\u0670\u062a\u064d \u0644\u0651\u0650\u064a\u064f\u062e\u0652\u0631\u0650\u062c\u064e\u0643\u064f\u0645\u0652 \u0645\u0651\u0650\u0646\u064e \u0627\u0644\u0638\u0651\u064f\u0644\u064f\u0645\u0670\u062a\u0650 \u0627\u0650\u0644\u064e\u0649 \u0627\u0644\u0646\u0651\u064f\u0648\u0652\u0631\u0650\u06d7 \u0648\u064e\u0627\u0650\u0646\u0651\u064e \u0627\u0644\u0644\u0651\u0670\u0647\u064e \u0628\u0650\u0643\u064f\u0645\u0652 \u0644\u064e\u0631\u064e\u0621\u064f\u0648\u0652\u0641\u064c \u0631\u0651\u064e\u062d\u0650\u064a\u0652\u0645\u064c ",
    "latin": "Huwal-la\u017c\u012b yunazzilu \u2018al\u0101 \u2018abdih\u012b \u0101y\u0101tim bayyin\u0101til liyukhrijakum mina\u1e93-\u1e93ulum\u0101ti ilan-n\u016br(i), wa innall\u0101ha bikum lara'\u016bfur ra\u1e25\u012bm(un).",
    "translation": "Dialah yang menurunkan ayat-ayat yang terang (Al-Qur\u2019an) kepada hamba-Nya (Nabi Muhammad) untuk mengeluarkanmu dari kegelapan kepada cahaya. Sesungguhnya Allah benar-benar Maha Penyantun lagi Maha Penyayang kepadamu.",
    "no_footnote": null,
    "footnotes": null,
    "surah": {
        "id": 57,
        "arabic": " \u0627\u0644\u062d\u062f\u064a\u062f",
        "latin": "Al-\u1e24ad\u012bd",
        "transliteration": "Al-Hadid",
        "translation": "Besi",
        "num_ayah": 29,
        "page": 537,
        "location": "Madaniyah"
    },
    "tafsir": {
        "wajiz": "Sungguh, Dialah yang menurunkan ayat-ayat yang terang, yaitu Al-Qur\u2019an, yang diwahyukan kepada hamba-Nya untuk mengeluarkan kamu dari kegelapan, yaitu kekafiran dan kemungkaran, kepada cahaya petunjuk menuju keimanan dan kebajikan. Dan sungguh, terhadap kamu Allah benar-benar Maha Penyantun lagi Maha Penyayang, baik di dunia maupun akhirat.",
        "tahlili": "Ayat ini menerangkan mengapa orang kafir tidak beriman padahal Allah telah mengutus rasul-Nya dengan membawa bukti yang nyata agar dapat mengeluarkan mereka dari kegelapan, kekafiran kepada nur iman dan dari alam kesesatan kepada petunjuk. Dengan rahmat-Nya pula, maka manusia diajak memikirkan keajaiban ciptaan-Nya agar keimanan semakin sempurna. ",
        "intro_surah": "Surah al-\u1e24ad\u012bd terdiri dari 29 ayat, termasuk kelompok surah Makkiyyah, diturunkan sesudah Surah az-Zalzalah.\nDinamai al-\u1e25ad\u012bd (besi), diambil dari perkataan al-\u1e25ad\u012bd yang terdapat pada ayat 25 surah ini.\n\nPokok-pokok Isinya:\n1. \tKeimanan:\nHanya kepada Allah kembali semua urusan: beberapa sifat Allah dan beberapa Asm\u0101\u2019ul \u1e24usn\u0101 serta pernyataan kekuasaan Allah di langit dan di bumi.\n2. \tHukum-hukum:\nPerintah menafkahkan harta.\n3. \tLain-lain:\nKeadaan orang-orang munafik di hari Kiamat; hakikat kehidupan dunia dan kehidupan akhirat; tujuan penciptaan besi; tujuan diutus-Nya para rasul; kehidupan kerahiban dalam agama Nasrani bukan berasal dari ajaran Nabi Isa; celaan kepada orang-orang bakhil dan orang yang mengajak orang-orang lain berbuat bakhil.\n",
        "outro_surah": "Surah al-\u1e24ad\u012bd pada umumnya menerangkan hal-hal yang berhubungan dengan anjuran bernafkah dan membelanjakan harta di jalan Allah. Dan juga menerangkan bahwa Allah mengutus para nabi dengan membawa agama untuk kebahagiaan hidup manusia di samping itu menciptakan besi yang bermanfaat bagi manusia dalam kehidupannya dan untuk mempertahankan agama yang dibawa oleh rasul-rasul itu.",
        "munasabah_prev_surah": "HUBUNGAN SURAH AL-W\u0100QI\u2018AH DENGAN\nSURAH AL-\u1e24AD\u012aD\n\n1.\tSurah al-W\u0101qi\u2018ah diakhiri dengan perintah bertasbih dengan menyebut nama Tuhan. Maha Pencipta lagi Maha Pemelihara, sedangkan pada permulaan Surah al-\u1e24ad\u012bd disebut bahwa apa yang ada di langit dan apa yang ada di bumi bertasbih kepada Allah swt.\n2.\tDalam Surah al-W\u0101qi\u2018ah disebut orang-orang yang bersegera (as-S\u0101biq\u016bn) sedang pada Surah al-\u1e24ad\u012bd diterangkan ke mana orang-orang itu harus bersegera.\n3.\tSama-sama menerangkan kekuasaan Allah.\n",
        "munasabah_prev_theme": "Pada ayat-ayat yang telah lalu, Allah swt menyatakan bahwa Dia Mahakuasa, MahaEsa, Mahatahu, Mahabesar dan menyatakan bahwa, langit dan bumi serta seluruh isinya berada dalam genggaman-Nya. Dia mengatur segala sesuatu menurut hikmah kebijaksanaan-Nya, sejak dari yang besar sampai kepada yang sehalus-halusnya, semuanya agar diperhatikan dan dijadikan iktibar. Pada ayat ini, Allah swt menyatakan beberapa kewajiban agama serta memerintahkan agar setiap manusia mempunyai iman yang sempurna yang dapat menjauhkannya dari perbuatan maksiat dan membiasakan dirinya mengerjakan amal saleh, serta mengakui keesaan Allah dan kebenaran Rasul-Nya.\n",
        "theme_group": "KEUTAMAAN INFAK",
        "kosakata": "1.\tMustakhlaf\u012bn \u0645\u064f\u0633\u0652\u062a\u064e\u062e\u0652\u0644\u064e\u0641\u0650\u064a\u0652\u0646\u064e (al-\u1e24ad\u012bd/57: 7)\n Kata mustakhlaf\u012bn adalah jamak dari kata mustakhlaf, isim maf\u2018\u016bl dari kata istakhlafa-yastakhlifu-istikhl\u0101fan, yang berarti menjadikan khalifah (pengganti). Kata dasarnya adalah khalafa-yakhlifu-khalfan yang berarti menggantikan. Dari kata tersebut diambil kata khal\u012bfah yang berarti pengganti. Allah menciptakan manusia sebagai khal\u012bfah di muka bumi maksudnya sebagai makhluk terpilih untuk mengelola dan memakmurkan bumi, sebagaimana dalam firman Allah, \u201cSesungguhnya aku menciptakan khalifah di muka bumi..\u201d (al-Baqarah/2: 30). Makna inilah yang dimaksud dari kata mustakhlaf pada ayat yang sedang ditafsirkan ini. Allah memerintahkan kita untuk beriman kepada-Nya dan kepada rasul-Nya secara sempurna, serta memerintahkan kita untuk menginfakkan sebagian dari harta yang ada di tangan kita. Dahulu harta ini adalah milik orang-orang sebelum kita, lalu Allah menjadikannya sebagai pengganti mereka. Karena itu, Allah meme-rintahkan kita untuk menggunakannya dalam rangka ketaatan kepada Allah.\n2.\tM\u012br\u0101\u1e61 \u0645\u0650\u064a\u0652\u0631\u064e\u0627\u062b (al-\u1e24ad\u012bd/57: 10)\nKata m\u012br\u0101\u1e61 adalah isim ma\u1e63dar atau kata jadian dari kata wara\u1e61a-yari\u1e61u-m\u012br\u0101\u1e61un yang berarti warisan. Di dalam Al-Qur\u2019an, Allah memberitakan doa Nabi Zakariya, \u201cMaka anugerahilah aku dari sisi Engkau seorang putera, yang akan mewarisiku dan mewarisi sebagian keluarga Yakub.\u201d (Maryam/19: 5-6). Maksudnya, seorang putera yang mewarisi kenabiannya. Dari kata ini diambil kata al-w\u0101ri\u1e61, salah satu nama Allah \u2018Azza wa Jalla. Dialah yang Mahaabadi, yang mewarisi seluruh makhluk, dan yang abadi setelah mereka fana. Dialah yang abadi setelah segala sesuatu musnah, sehingga apa yang menjadi milik para hamba itu kembali kepada-Nya, tanpa ada sekutu bagi-Nya. Makna yang demikian itu, diungkapkan dengan kata \u2018mewarisi\u2019 agar mudah dipahami oleh manusia, karena mereka menyebut apa yang kembali kepada seseorang itu dengan kata warisan bila sesuatu itu menjadi miliknya. ",
        "sabab_nuzul": null,
        "conclusion": null
    }
}