{
    "id": 5088,
    "surah_id": 57,
    "ayah": 13,
    "page": 539,
    "quarter_hizb": 54.5,
    "juz": 27,
    "manzil": 7,
    "arabic": "\u064a\u064e\u0648\u0652\u0645\u064e \u064a\u064e\u0642\u064f\u0648\u0652\u0644\u064f \u0627\u0644\u0652\u0645\u064f\u0646\u0670\u0641\u0650\u0642\u064f\u0648\u0652\u0646\u064e \u0648\u064e\u0627\u0644\u0652\u0645\u064f\u0646\u0670\u0641\u0650\u0642\u0670\u062a\u064f \u0644\u0650\u0644\u0651\u064e\u0630\u0650\u064a\u0652\u0646\u064e \u0627\u0670\u0645\u064e\u0646\u064f\u0648\u0627 \u0627\u0646\u0652\u0638\u064f\u0631\u064f\u0648\u0652\u0646\u064e\u0627 \u0646\u064e\u0642\u0652\u062a\u064e\u0628\u0650\u0633\u0652 \u0645\u0650\u0646\u0652 \u0646\u0651\u064f\u0648\u0652\u0631\u0650\u0643\u064f\u0645\u0652\u06da \u0642\u0650\u064a\u0652\u0644\u064e \u0627\u0631\u0652\u062c\u0650\u0639\u064f\u0648\u0652\u0627 \u0648\u064e\u0631\u064e\u0627\u06e4\u0621\u064e\u0643\u064f\u0645\u0652 \u0641\u064e\u0627\u0644\u0652\u062a\u064e\u0645\u0650\u0633\u064f\u0648\u0652\u0627 \u0646\u064f\u0648\u0652\u0631\u064b\u0627\u06d7 \u0641\u064e\u0636\u064f\u0631\u0650\u0628\u064e \u0628\u064e\u064a\u0652\u0646\u064e\u0647\u064f\u0645\u0652 \u0628\u0650\u0633\u064f\u0648\u0652\u0631\u064d \u0644\u0651\u064e\u0647\u0657 \u0628\u064e\u0627\u0628\u06d7\u064c \u0628\u064e\u0627\u0637\u0650\u0646\u064f\u0647\u0657 \u0641\u0650\u064a\u0652\u0647\u0650 \u0627\u0644\u0631\u0651\u064e\u062d\u0652\u0645\u064e\u0629\u064f \u0648\u064e\u0638\u064e\u0627\u0647\u0650\u0631\u064f\u0647\u0657 \u0645\u0650\u0646\u0652 \u0642\u0650\u0628\u064e\u0644\u0650\u0647\u0650 \u0627\u0644\u0652\u0639\u064e\u0630\u064e\u0627\u0628\u064f\u06d7",
    "latin": "Yauma yaq\u016blul-mun\u0101fiq\u016bna wal-mun\u0101fiq\u0101tu lil-la\u017c\u012bna \u0101manun\u1e93ur\u016bn\u0101 naqtabis min n\u016brikum, q\u012blarji\u2018\u016b war\u0101'akum faltamis\u016b n\u016br\u0101(n), fa\u1e0duriba bainahum bis\u016bril lah\u016b b\u0101b(un), b\u0101\u1e6dinuh\u016b f\u012bhir-ra\u1e25matu wa \u1e93\u0101hiruh\u016b min qibalihil-\u2018a\u017c\u0101b(u).",
    "translation": " Pada hari (itu juga) orang-orang munafik laki-laki dan perempuan berkata kepada orang-orang yang beriman, \u201cTunggulah kami! Kami ingin mengambil cahayamu.\u201d (Kepada mereka) dikatakan, \u201cKembalilah kamu ke belakang dan carilah sendiri cahaya (untukmu).\u201d Lalu, di antara mereka dipasang dinding (pemisah) yang berpintu. Di sebelah dalamnya ada rahmat dan di luarnya ada azab.",
    "no_footnote": null,
    "footnotes": null,
    "surah": {
        "id": 57,
        "arabic": " \u0627\u0644\u062d\u062f\u064a\u062f",
        "latin": "Al-\u1e24ad\u012bd",
        "transliteration": "Al-Hadid",
        "translation": "Besi",
        "num_ayah": 29,
        "page": 537,
        "location": "Madaniyah"
    },
    "tafsir": {
        "wajiz": "Balasan bagi orang yang memberi Allah pinjaman yang baik juga akan terlihat pada hari ketika orang-orang munafik laki-laki dan perempuan berkata kepada orang-orang yang beriman, \u201cTunggulah dan jangan tinggalkan kami! Kami ingin mengambil cahayamu untuk menerangi kami.\u201d Dikatakan kepada mereka dengan nada mengejak, \u201cKembalilah kamu ke belakang dan carilah sendiri cahaya yang menyinari dirimu.\u201d Lalu di antara mereka dipasang dinding pemisah yang berpintu. Di sebelah dalam dinding itu ada rahmat dan anugerah bagi orang yang beriman dan beramal saleh, dan di luarnya hanya ada azab dan hukuman bagi orang munafik.",
        "tahlili": "Setelah Allah menyatakan keadaan orang-orang mukmin pada hari Kiamat. Pada ayat ini Allah mengungkapkan bahwa orang-orang munafik pada hari Kiamat itu berseru kepada orang-orang beriman yang mendapatkan kerida-an-Nya dan menjadi penghuni surga. \u201cTunggulah kami sehingga kita ber-sama menemui Allah serta biarkanlah mengambil sedikit dari cahaya kamu agar kami dapat keluar melalui sinar kamu dari azab yang pedih.\u201d\nLalu permintaan ini dijawab dengan jawaban yang memutuskan harapan mereka serta menimbulkan kesedihan dan kesesalan, yaitu, \u201cTetaplah kamu di mana kamu berada, carilah di sana cahaya dan jangan mengharapkan dari kami apa yang telah kami perbuat untuk diri kami dari amal saleh, karena tidak akan memberi manfaat bagi seseorang kecuali amal saleh sendiri.\u201d\nYang demikian itu adalah olokan terhadap mereka sebagaimana mereka memperolok-olokkan orang-orang mukmin semasa di dunia ketika mereka berkata: Kami beriman, padahal mereka tidak beriman. Inilah yang dikehendaki dengan firman-Nya;\n\u0627\u064e\u0644\u0644\u0651\u0670\u0647\u064f \u064a\u064e\u0633\u0652\u062a\u064e\u0647\u0652\u0632\u0650\u0626\u064f \u0628\u0650\u0647\u0650\u0645\u0652 \u0648\u064e\u064a\u064e\u0645\u064f\u062f\u0651\u064f\u0647\u064f\u0645\u0652 \u0641\u0650\u064a\u0652 \u0637\u064f\u063a\u0652\u064a\u064e\u0627\u0646\u0650\u0647\u0650\u0645\u0652 \u064a\u064e\u0639\u0652\u0645\u064e\u0647\u064f\u0648\u0652\u0646\u064e \u0661\u0665\nAllah akan memperolok-olokkan mereka dan membiarkan mereka terombang-ambing dalam kesesatan. (al-Baqarah/2: 15)\n \nMaka untuk memberi balasan semua perbuatan mereka, ditetapkanlah bagian yang membatasi tempat orang-orang mukmin dan orang-orang munafik. Bagian yang ditempati orang-orang mukmin adalah surga yang penuh dengan kenikmatan, sebaliknya bagian yang ditempati oleh orang-orang munafik adalah neraka yang dipenuhi siksa.",
        "intro_surah": "Surah al-\u1e24ad\u012bd terdiri dari 29 ayat, termasuk kelompok surah Makkiyyah, diturunkan sesudah Surah az-Zalzalah.\nDinamai al-\u1e25ad\u012bd (besi), diambil dari perkataan al-\u1e25ad\u012bd yang terdapat pada ayat 25 surah ini.\n\nPokok-pokok Isinya:\n1. \tKeimanan:\nHanya kepada Allah kembali semua urusan: beberapa sifat Allah dan beberapa Asm\u0101\u2019ul \u1e24usn\u0101 serta pernyataan kekuasaan Allah di langit dan di bumi.\n2. \tHukum-hukum:\nPerintah menafkahkan harta.\n3. \tLain-lain:\nKeadaan orang-orang munafik di hari Kiamat; hakikat kehidupan dunia dan kehidupan akhirat; tujuan penciptaan besi; tujuan diutus-Nya para rasul; kehidupan kerahiban dalam agama Nasrani bukan berasal dari ajaran Nabi Isa; celaan kepada orang-orang bakhil dan orang yang mengajak orang-orang lain berbuat bakhil.\n",
        "outro_surah": "Surah al-\u1e24ad\u012bd pada umumnya menerangkan hal-hal yang berhubungan dengan anjuran bernafkah dan membelanjakan harta di jalan Allah. Dan juga menerangkan bahwa Allah mengutus para nabi dengan membawa agama untuk kebahagiaan hidup manusia di samping itu menciptakan besi yang bermanfaat bagi manusia dalam kehidupannya dan untuk mempertahankan agama yang dibawa oleh rasul-rasul itu.",
        "munasabah_prev_surah": "HUBUNGAN SURAH AL-W\u0100QI\u2018AH DENGAN\nSURAH AL-\u1e24AD\u012aD\n\n1.\tSurah al-W\u0101qi\u2018ah diakhiri dengan perintah bertasbih dengan menyebut nama Tuhan. Maha Pencipta lagi Maha Pemelihara, sedangkan pada permulaan Surah al-\u1e24ad\u012bd disebut bahwa apa yang ada di langit dan apa yang ada di bumi bertasbih kepada Allah swt.\n2.\tDalam Surah al-W\u0101qi\u2018ah disebut orang-orang yang bersegera (as-S\u0101biq\u016bn) sedang pada Surah al-\u1e24ad\u012bd diterangkan ke mana orang-orang itu harus bersegera.\n3.\tSama-sama menerangkan kekuasaan Allah.\n",
        "munasabah_prev_theme": "Pada ayat-ayat lalu Allah swt menyatakan faedah beriman dan pahala berinfak pada jalan Allah, serta menganjurkan agar mereka melakukan yang demikian. Diterangkan pula pahala orang-orang yang beriman dan berinfak sesudahnya. Maka pada ayat-ayat berikut ini Allah mengungkapkan keadaan orang-orang mukmin yang berinfak pada hari Kiamat dan keadaan orang-orang munafik.",
        "theme_group": "PERBEDAAN KONDISI ORANG MUKMIN \nDAN MUNAFIK DI AKHIRAT ",
        "kosakata": "1.\tNaqtabis  \u0646\u064e\u0642\u0652\u062a\u064e\u0628\u0650\u0633\u0652 (al-\u1e24ad\u012bd/57: 13)\nKata naqtabis adalah fi\u2018il mu\u1e0d\u0101ri\u2018 dari kata iqtabasa, yang terbentuk dari kata qabasa. Kata qabasa berarti mengambil, sebagaimana dalam kalimat qabasa an-n\u0101r yang berarti ia mengambil api. Dari kata tersebut diambil kata al-qibs yang berarti pangkal atau dasar. Dan dari kata ini diambil dari kata qabas yang berarti api yang diambil dari ujung sebuah tongkat. Tampaknya, kedua kata qabasa dan kata iqtabasa yang mendapatkan tambahan dua huruf ini memiliki arti yang sama, yaitu mengambil api. Tetapi, dalam bahasa Arab, semakin banyak huruf yang digunakan, maka itu menunjukkan tekanan makna yang lebih dibanding kata yang kurang hurufnya, meskipun keduanya memiliki makna yang mirip. Ayat ini mengandung pemberitahuan dari Allah tentang kegoncangan hebat di hari Kiamat, dan tidak ada yang selamat darinya kecuali orang yang beriman kepada Allah dan Rasul-Nya. \n2.\tAl-Am\u0101n\u012b \u0627\u0644\u0623\u064e\u0645\u064e\u0627\u0646\u0650\u064a\u0652 (al-\u1e24ad\u012bd/57: 14)\nKata al-am\u0101n\u012b adalah jamak dari kata umniyyah, isim ma\u1e63dar atau kata jadian dari kata man\u0101-yamn\u012b-manyan yang memiliki akar makna menakdirkan. Kalimat man\u0101 Allahul-khaira lah\u016b berarti Allah menakdirkan kebaikan baginya. Kematian disebut al-man\u0101 dan al-maniyyah karena ia telah ditakdirkan waktunya. Kata umniyyah, jamaknya al-am\u0101ni, berarti bersitan dalam hati akan ditakdirkannya sesuatu yang disukainya. Kalimat tamann\u0101 al-Kitab berarti membaca Kitab Suci. Disebut demikian karena orang yang membaca Al-Qur\u2019an bila menjumpai ayat rahmat maka ia mengharapkannya, dan bila ia menjumpai ayat tentang azab maka ia berharap dijauhkan darinya. Kata al-am\u0101ni disebutkan di tempat lain dalam Al-Qur\u2019an dengan arti kebohongan, yaitu dalam firman Allah, \u201cDan di antara mereka ada yang buta huruf, tidak mengetahui al-Kitab (Taurat), kecuali bacaan-bacaan belaka..\u201d (al-Baqarah/2: 78). Yang demikian itu karena kalimat tamann\u0101 al-qaula berarti merekayasa suatu ucapan. Dan yang dimaksud dengan kata al-am\u0101ni di sini adalah angan-angan kosong. Maksudnya, mereka itu tertipu oleh angan-angan kosong bahwa Allah akan mengampuni dosa-dosa mereka.",
        "sabab_nuzul": null,
        "conclusion": null
    }
}