{
    "id": 5104,
    "surah_id": 57,
    "ayah": 29,
    "page": 541,
    "quarter_hizb": 54.75,
    "juz": 27,
    "manzil": 7,
    "arabic": "\u0644\u0651\u0650\u0626\u064e\u0644\u0651\u064e\u0627 \u064a\u064e\u0639\u0652\u0644\u064e\u0645\u064e \u0627\u064e\u0647\u0652\u0644\u064f \u0627\u0644\u0652\u0643\u0650\u062a\u0670\u0628\u0650 \u0627\u064e\u0644\u0651\u064e\u0627 \u064a\u064e\u0642\u0652\u062f\u0650\u0631\u064f\u0648\u0652\u0646\u064e \u0639\u064e\u0644\u0670\u0649 \u0634\u064e\u064a\u0652\u0621\u064d \u0645\u0651\u0650\u0646\u0652 \u0641\u064e\u0636\u0652\u0644\u0650 \u0627\u0644\u0644\u0651\u0670\u0647\u0650 \u0648\u064e\u0627\u064e\u0646\u0651\u064e \u0627\u0644\u0652\u0641\u064e\u0636\u0652\u0644\u064e \u0628\u0650\u064a\u064e\u062f\u0650 \u0627\u0644\u0644\u0651\u0670\u0647\u0650 \u064a\u064f\u0624\u0652\u062a\u0650\u064a\u0652\u0647\u0650 \u0645\u064e\u0646\u0652 \u064a\u0651\u064e\u0634\u064e\u0627\u06e4\u0621\u064f \u06d7\u0648\u064e\u0627\u0644\u0644\u0651\u0670\u0647\u064f \u0630\u064f\u0648 \u0627\u0644\u0652\u0641\u064e\u0636\u0652\u0644\u0650 \u0627\u0644\u0652\u0639\u064e\u0638\u0650\u064a\u0652\u0645\u0650 \u08d6   \u06d4",
    "latin": "Li'all\u0101 ya\u2018lama ahlul-kit\u0101bi all\u0101 yaqdir\u016bna \u2018al\u0101 syai'im min fa\u1e0dlill\u0101hi wa annal-fa\u1e0dla biyadill\u0101hi yu't\u012bhi may yasy\u0101'(u), wall\u0101hu \u017cul-fa\u1e0dlil-\u2018a\u1e93\u012bm(i).",
    "translation": " (Allah menganugerahkan itu) agar Ahlulkitab (yang tidak beriman kepada Nabi Muhammad) mengetahui bahwa mereka sedikit pun tidak akan mendapat karunia Allah dan bahwa karunia itu ada di tangan Allah. Dia menganugerahkannya kepada siapa yang dikehendaki-Nya. Allah Pemilik karunia yang agung.",
    "no_footnote": null,
    "footnotes": null,
    "surah": {
        "id": 57,
        "arabic": " \u0627\u0644\u062d\u062f\u064a\u062f",
        "latin": "Al-\u1e24ad\u012bd",
        "transliteration": "Al-Hadid",
        "translation": "Besi",
        "num_ayah": 29,
        "page": 537,
        "location": "Madaniyah"
    },
    "tafsir": {
        "wajiz": "Semua peringatan itu disampaikan agar Ahli Kitab mengetahui bahwa sedikit pun mereka tidak akan mendapat karunia Allah jika mereka tidak beriman kepada Nabi Muhammad dan mengikuti sunahnya, dan agar mereka mengetahui bahwa karunia itu ada di tangan Allah; Dia memberikannya kepada siapa yang Dia kehendaki, yaitu mereka yang beriman dan berbuat kebajikan. Dan Allah mempunyai karunia yang besar bagi siapa saja yang mematuhi ajaran-Nya.",
        "tahlili": "Pada ayat ini Allah menolak pendapat Bani Israil yang mengatakan bahwa rasul-rasul dan nabi-nabi itu hanyalah diangkat dari keturunan mereka saja. Allah mengangkat Nabi Muhammad saw bukan dari keturunan Bani Israil, agar mereka mengetahui bahwa hanya Dia yang menentukan segala sesuatu dan yang akan memperoleh pahala dua kali lipat itu hanyalah ahli kitab yang beriman kepada Muhammad saw saja, jika mereka tidak beriman kepada Nabi Muhammad saw mereka tidak akan mendapat pahala sedikit pun.\nPada akhir ayat ini Allah menerangkan bahwa Dia mempunyai karunia yang tidak terhingga banyaknya, yang akan dianugerahkan kepada orang-orang yang dikehendaki-Nya.",
        "intro_surah": "Surah al-\u1e24ad\u012bd terdiri dari 29 ayat, termasuk kelompok surah Makkiyyah, diturunkan sesudah Surah az-Zalzalah.\nDinamai al-\u1e25ad\u012bd (besi), diambil dari perkataan al-\u1e25ad\u012bd yang terdapat pada ayat 25 surah ini.\n\nPokok-pokok Isinya:\n1. \tKeimanan:\nHanya kepada Allah kembali semua urusan: beberapa sifat Allah dan beberapa Asm\u0101\u2019ul \u1e24usn\u0101 serta pernyataan kekuasaan Allah di langit dan di bumi.\n2. \tHukum-hukum:\nPerintah menafkahkan harta.\n3. \tLain-lain:\nKeadaan orang-orang munafik di hari Kiamat; hakikat kehidupan dunia dan kehidupan akhirat; tujuan penciptaan besi; tujuan diutus-Nya para rasul; kehidupan kerahiban dalam agama Nasrani bukan berasal dari ajaran Nabi Isa; celaan kepada orang-orang bakhil dan orang yang mengajak orang-orang lain berbuat bakhil.\n",
        "outro_surah": "Surah al-\u1e24ad\u012bd pada umumnya menerangkan hal-hal yang berhubungan dengan anjuran bernafkah dan membelanjakan harta di jalan Allah. Dan juga menerangkan bahwa Allah mengutus para nabi dengan membawa agama untuk kebahagiaan hidup manusia di samping itu menciptakan besi yang bermanfaat bagi manusia dalam kehidupannya dan untuk mempertahankan agama yang dibawa oleh rasul-rasul itu.",
        "munasabah_prev_surah": "HUBUNGAN SURAH AL-W\u0100QI\u2018AH DENGAN\nSURAH AL-\u1e24AD\u012aD\n\n1.\tSurah al-W\u0101qi\u2018ah diakhiri dengan perintah bertasbih dengan menyebut nama Tuhan. Maha Pencipta lagi Maha Pemelihara, sedangkan pada permulaan Surah al-\u1e24ad\u012bd disebut bahwa apa yang ada di langit dan apa yang ada di bumi bertasbih kepada Allah swt.\n2.\tDalam Surah al-W\u0101qi\u2018ah disebut orang-orang yang bersegera (as-S\u0101biq\u016bn) sedang pada Surah al-\u1e24ad\u012bd diterangkan ke mana orang-orang itu harus bersegera.\n3.\tSama-sama menerangkan kekuasaan Allah.\n",
        "munasabah_prev_theme": "Pada ayat-ayat yang lalu diterangkan bahwa Allah swt telah mengutus Isa bin Maryam kepada Bani Israil dengan membawa kitab Injil. Diterangkan pula sifat-sifat yang baik dan sifat-sifat yang tercela yang ada pada mereka. Pada ayat-ayat berikut dinyatakan bahwa Bani Israil yang beriman kepada Isa, tunduk dan patuh kepada Allah, kemudian setelah Allah swt mengutus Nabi Muhammad saw kepada mereka, mereka beriman pula kepadanya, maka mereka akan mendapat pahala dua kali lipat dari pahala yang diterima oleh orang-orang yang beriman kepada Nabi Muhammad saw saja. Diterang-kan bahwa kerasulan dan kenabian itu, termasuk rahmat Allah dan hanya Dialah yang menentukan dari bangsa dan kaum mana seorang rasul dan nabi itu diangkat, karena Dialah yang Mengetahui segala sesuatu.",
        "theme_group": "KEKURANGAN AHLI KITAB KARENA TIDAK BERIMAN\nKEPADA KENABIAN MUHAMMAD SAW ",
        "kosakata": "Kosakata: Kiflain \u0643\u0650\u0641\u0652\u0644\u064e\u064a\u0652\u0646 ( al-\u1e24ad\u012bd /57: 28)\nKata kiflain berasal dari bahasa non Arab yang berarti dua bagian, al-kifl bisa juga diartikan dua kelipatan. Dalam konteks ayat ini Allah swt menjanjikan dua bagian rahmat-Nya sebagai balasan bagi orang-orang yang beriman yang senantiasa bertakwa kepada Allah swt dan beriman kepada utusan-Nya.\n",
        "sabab_nuzul": null,
        "conclusion": "1.\tBani Israil yang beriman kepada Isa bin Maryam kemudian beriman pula kepada Nabi Muhammad saw sesuai dengan petujuk Injil, maka mereka akan memperoleh: Pahala dua kali lipat, akan menerangi jalan yang akan mereka tempuh di akhirat nanti, dan Allah akan mengampuni dosa-dosa mereka.\n2.\tAllah swt menetapkan yang demikian agar Bani Israil mengetahui bahwa hanya Dia-lah yang menentukan siapa yang akan dianugerahi karunia-Nya.\n3.\tAllah swt mempunyai karunia yang tak terhitung banyaknya akan diberikan kepada yang dikehendaki."
    }
}