{
    "id": 5124,
    "surah_id": 58,
    "ayah": 20,
    "page": 544,
    "quarter_hizb": 55.25,
    "juz": 28,
    "manzil": 7,
    "arabic": "\u0627\u0650\u0646\u0651\u064e \u0627\u0644\u0651\u064e\u0630\u0650\u064a\u0652\u0646\u064e \u064a\u064f\u062d\u064e\u0627\u06e4\u062f\u0651\u064f\u0648\u0652\u0646\u064e \u0627\u0644\u0644\u0651\u0670\u0647\u064e \u0648\u064e\u0631\u064e\u0633\u064f\u0648\u0652\u0644\u064e\u0647\u0657\u0653 \u0627\u064f\u0648\u0644\u0670\u06e4\u0649\u0655\u0650\u0643\u064e \u0641\u0650\u0649 \u0627\u0644\u0652\u0627\u064e\u0630\u064e\u0644\u0651\u0650\u064a\u0652\u0646\u064e",
    "latin": "Innal-la\u017c\u012bna yu\u1e25\u0101dd\u016bnall\u0101ha wa ras\u016blah\u016b ul\u0101'ika fil-a\u017call\u012bn(a).",
    "translation": "Sesungguhnya orang-orang yang menentang Allah dan Rasul-Nya, mereka termasuk orang-orang yang sangat hina. ",
    "no_footnote": null,
    "footnotes": null,
    "surah": {
        "id": 58,
        "arabic": " \u0627\u0644\u0645\u062c\u0627\u062f\u0644\u0629",
        "latin": "Al-Muj\u0101dalah",
        "transliteration": "Al-Mujadalah",
        "translation": "Gugatan",
        "num_ayah": 22,
        "page": 542,
        "location": "Madaniyah"
    },
    "tafsir": {
        "wajiz": "Pada ayat sebelumnya disebutkan bahwa orang-orang munafik itu membohongi Allah dan Rasul-Nya karena dirinya dikuasai setan sehingga termasuk golongan setan. Sementara itu pada ayat ini disebutkan bahwa sesungguhnya orang-orang yang menentang Allah dan Rasul-Nya dengan tidak beriman atau bersumpah beriman padahal hatinya penuh dengan kekafiran dan menghalangi orang untuk beriman, mereka termasuk orang-orang yang sangat hina, karena karakternya busuk, hipokrit, tidak sportif, bermuka dua dan berpura-pura.",
        "tahlili": "Ayat ini menerangkan tentang orang-orang yang menentang Allah, mereka tidak mengindahkan perintah-perintah-Nya, tidak mematuhi larangan-larangan-Nya, dan enggan mengerjakan kewajiban-kewajiban yang telah ditetapkan Allah bagi mereka. Mereka termasuk orang-orang yang hina karena kaum Muslimin akan mengalahkan mereka dengan memerangi dan menawan mereka. Bahkan ada di antara mereka yang diusir dari negeri mereka.\nAyat ini mengingatkan kaum Muslimin akan azab Allah yang ditimpakan kepada orang-orang musyrik Mekah berupa kekalahan pada fat\u1e25 Makkah. Akibat Perang Ahzab orang-orang Yahudi diusir dari kota Medinah karena melanggar perjanjian damai dengan Rasulullah saw. Orang-orang yang telah dinyatakan Allah sebagai orang yang hina, tidak dapat dimuliakan oleh siapa pun, sebagaimana tersebut dalam firman-Nya:\n\u0631\u064e\u0628\u0651\u064e\u0646\u064e\u0627\u0653 \u0627\u0650\u0646\u0651\u064e\u0643\u064e \u0645\u064e\u0646\u0652 \u062a\u064f\u062f\u0652\u062e\u0650\u0644\u0650 \u0627\u0644\u0646\u0651\u064e\u0627\u0631\u064e \u0641\u064e\u0642\u064e\u062f\u0652 \u0627\u064e\u062e\u0652\u0632\u064e\u064a\u0652\u062a\u064e\u0647\u0657 \u06d7 \u0648\u064e\u0645\u064e\u0627 \u0644\u0650\u0644\u0638\u0651\u0670\u0644\u0650\u0645\u0650\u064a\u0652\u0646\u064e \u0645\u0650\u0646\u0652 \u0627\u064e\u0646\u0652\u0635\u064e\u0627\u0631\u064d \u0661\u0669\u0662\nYa Tuhan kami, sesungguhnya orang yang Engkau masukkan ke dalam neraka, maka sungguh, Engkau telah menghinakannya, dan tidak ada seorang penolong pun bagi orang yang zalim. (\u0100li \u2018Imr\u0101n/3: 192)\n\nAyat ke-20 ini merupakan kabar gembira bagi orang-orang yang beriman yang sedang menerima cobaan-cobaan yang sangat berat bahwa mereka akan dapat mengalahkan musuh-musuh mereka dan agama Islam akan berkembang di mana-mana dalam waktu dekat.",
        "intro_surah": "Surah al-Muj\u0101dalah terdiri dari 22 ayat, termasuk kelompok surah Madaniyyah, diturunkan sesudah Surah al-Mun\u0101fiq\u016bn.\nSurah ini dinamai al-Muj\u0101dalah, karena pada awal surah ini disebutkan pengaduan seorang istri yang dalam riwayat disebut bernama Khaulah binti \u1e60a\u2018labah. Perempuan itu telah dizihar oleh suaminya, sehingga mereka tidak dapat bergaul lagi. Khaulah mencoba memberi pengertian kepada suaminya, akibat ziharnya itu terhadap anak-anaknya. Oleh karena itu, suaminya ingin kembali kepadanya, tetapi telah ada penghalang karena ziharnya itu. Maka si istri pergi meminta keputusan kepada Rasulullah saw. Sebagai jawabannya, maka turunlah ayat-ayat di permulaan surah ini. \n\nPokok-pokok Isinya:\n1.\tHukum-hukum:\nHukum zihar dan sangsi-sangsi bagi orang yang melakukannya bila ia menarik perkataannya kembali; larangan menjadikan musuh Islam sebagai teman; larangan mengadakan perundingan rahasia untuk memusuhi Islam.\n2.\tLain-lain:\nMenjaga sopan-santun dalam majelis pertemuan; adab sopan-santun terhadap Rasulullah saw; sikap seorang mukmin terhadap orang-orang yang bukan mukmin. Pengusiran Bani Na\u1e0d\u012br dari kota Medinah.",
        "outro_surah": null,
        "munasabah_prev_surah": "1.\tPada Surah al-\u1e24ad\u012bd disebutkan beberapa al-Asm\u0101\u2019ul-\u1e24usn\u0101, di antaranya, ialah al-B\u0101\u1e6din dan al-\u2018Al\u012bm, sedang pada Surah al-Muj\u0101dalah disebutkan bahwa Allah mengetahui pembicaraan-pembicaraan yang dirahasiakan.\n2.\tPada akhir Surah al-\u1e24ad\u012bd disebutkan bahwa Allah memberikan karunia-Nya kepada siapa yang dikehendaki-Nya dan Allah mempunyai karunia yang besar.",
        "munasabah_prev_theme": "Pada ayat-ayat yang lalu telah diterangkan sikap orang-orang munafik yang memusuhi Islam dan kaum Muslimin. Di hadapan orang-orang beriman, mereka bersumpah bahwa mereka benar-benar beriman kepada Allah dan mengikuti Nabi Muhammad. Sedangkan kepada orang-orang Yahudi, mereka juga bersumpah bahwa mereka adalah sama dengan orang-orang Yahudi. Tujuan mereka adalah agar kedua golongan itu senang kepada mereka. Kemudian Allah menerangkan bahwa mereka adalah orang yang merugi karena telah mementingkan kesenangan hidup di dunia dari kesenangan hidup di akhirat. \nPada ayat-ayat berikut ini diterangkan sebab orang munafik merugi hidup di dunia dan di akhirat ialah karena mereka telah melanggar larangan-larangan Allah dan mendurhakai Rasul-Nya. Kemudian ditegaskan sikap orang-orang yang beriman terhadap musuh-musuh Islam mereka lebih mengutamakan keridaan Allah daripada keridaan manusia, mereka bersedia melakukan apa saja demi mencari keridaan-Nya.",
        "theme_group": "SIKAP ORANG YANG BERIMAN TERHADAP MUSUH ISLAM ",
        "kosakata": "Kosakata: \n1.\tYu\u1e25\u0101dd\u016bna \u064a\u064f\u062d\u064e\u0627\u062f\u0651\u064f\u0648\u0652\u0646\u064e (al-Muj\u0101dalah/58: 20)\nYu\u1e25\u0101dd\u016bna artinya menghalangi, berasal dari kata \u1e25add, yaitu sesuatu yang menghalangi. Di sini dipahami dengan batas karena batas antara dua hal menghalangi percampuran antara keduanya. Ketentuan yang tidak boleh dilanggar disebut \u1e25add. Sanksi hukuman disebut \u1e25add karena dia berfungsi menghalangi yang bersangkutan mengulangi perbuatannya atau orang lain melakukan hal serupa. Oleh sebab itu, siapa yang berani melampaui batas yang ditetapkan berarti ia telah menentang atau menyatakan permusuhan kepada penetap batas itu. \n2.\t\u1e24izbull\u0101h \u062d\u0650\u0632\u0652\u0628\u064f \u0627\u0644\u0644\u0651\u0670\u0647\u0650 (al-Muj\u0101dalah/58: 22)\n\u1e24izbull\u0101h artinya penolong-penolong Allah. Al-\u1e25izb adalah berkumpulnya sesuatu seperti sekelompok manusia. Ayat ini menjelaskan kelompok orang-orang yang memihak Allah dan dekat kepada-Nya, bersedia berjuang menegakkan agama-Nya. Kelompok inilah yang akan mencapai puncak keberuntungan dan meraih segala yang mereka harapkan.",
        "sabab_nuzul": null,
        "conclusion": null
    }
}