{
    "id": 5125,
    "surah_id": 58,
    "ayah": 21,
    "page": 544,
    "quarter_hizb": 55.25,
    "juz": 28,
    "manzil": 7,
    "arabic": "\u0643\u064e\u062a\u064e\u0628\u064e \u0627\u0644\u0644\u0651\u0670\u0647\u064f \u0644\u064e\u0627\u064e\u063a\u0652\u0644\u0650\u0628\u064e\u0646\u0651\u064e \u0627\u064e\u0646\u064e\u0627\u06e0 \u0648\u064e\u0631\u064f\u0633\u064f\u0644\u0650\u064a\u0652\u06d7 \u0627\u0650\u0646\u0651\u064e \u0627\u0644\u0644\u0651\u0670\u0647\u064e \u0642\u064e\u0648\u0650\u064a\u0651\u064c \u0639\u064e\u0632\u0650\u064a\u0652\u0632\u064c ",
    "latin": "Kataball\u0101hu la'aglibanna ana wa rusul\u012b, innall\u0101ha qawiyyun \u2018az\u012bz(un).",
    "translation": "Allah telah menetapkan, \u201cAku dan rasul-rasul-Ku pasti menang.\u201d Sesungguhnya Allah Maha Kuat lagi Maha Perkasa.",
    "no_footnote": null,
    "footnotes": null,
    "surah": {
        "id": 58,
        "arabic": " \u0627\u0644\u0645\u062c\u0627\u062f\u0644\u0629",
        "latin": "Al-Muj\u0101dalah",
        "transliteration": "Al-Mujadalah",
        "translation": "Gugatan",
        "num_ayah": 22,
        "page": 542,
        "location": "Madaniyah"
    },
    "tafsir": {
        "wajiz": "Allah mengingatkan manusia tentang sunah-Nya bahwa Dia telah menetapkan pada kitab induk di Loh Mahfuz bahwa \u201cAku dan rasul-rasul-Ku pasti menang\u201d dalam melawan kebatilan. Sungguh, Allah Mahakuat, Mahaperkasa menghadapi musuh-musuh-Nya.",
        "tahlili": "Allah mengingatkan manusia tentang sunah-Nya yang telah ditetapkan di Lau\u1e25 Ma\u1e25f\u016b\u1e93 dan berlaku di sepanjang masa dan di semua tempat. Sunah-Nya itu ialah mengenai ketetapan Allah dan Rasul-Nya yang pasti akan mengalahkan setiap orang yang ingkar kepada-Nya. Di antaranya Allah telah menghancurkan kaum Nuh, kaum Lut, kaum Saleh, Fir\u2018aun serta pengikutnya dengan bermacam-macam cara. Kemenangan seperti itu akan diperoleh pula oleh Nabi Muhammad dan pengikut-pengikutnya, dan juga setiap orang yang benar-benar melaksanakan agama Islam dengan sebaik-baiknya. Ini adalah sunatullah yang berlaku bagi hamba-Nya. Allah berfirman:\n\u0648\u064e\u0644\u064e\u0642\u064e\u062f\u0652 \u0633\u064e\u0628\u064e\u0642\u064e\u062a\u0652 \u0643\u064e\u0644\u0650\u0645\u064e\u062a\u064f\u0646\u064e\u0627 \u0644\u0650\u0639\u0650\u0628\u064e\u0627\u062f\u0650\u0646\u064e\u0627 \u0627\u0644\u0652\u0645\u064f\u0631\u0652\u0633\u064e\u0644\u0650\u064a\u0652\u0646\u064e \u06d6 \u0661\u0667\u0661 \u0627\u0650\u0646\u0651\u064e\u0647\u064f\u0645\u0652 \u0644\u064e\u0647\u064f\u0645\u064f \u0627\u0644\u0652\u0645\u064e\u0646\u0652\u0635\u064f\u0648\u0652\u0631\u064f\u0648\u0652\u0646\u064e\u06d6 \u0661\u0667\u0662 \u0648\u064e\u0627\u0650\u0646\u0651\u064e \u062c\u064f\u0646\u0652\u062f\u064e\u0646\u064e\u0627 \u0644\u064e\u0647\u064f\u0645\u064f \u0627\u0644\u0652\u063a\u0670\u0644\u0650\u0628\u064f\u0648\u0652\u0646\u064e \u0661\u0667\u0663\nDan sungguh, janji Kami telah tetap bagi hamba-hamba Kami yang menjadi rasul, (yaitu) mereka itu pasti akan mendapat pertolongan. Dan sesungguhnya bala tentara Kami itulah yang pasti menang. (a\u1e63-\u1e62aff\u0101t/37: 171-173)\n\nPada akhir ayat ini ditegaskan lagi bahwa Allah mempunyai kekuasaan yang mutlak, kuasa menolong Rasul-Nya dan orang-orang yang beriman, dan mengalahkan orang-orang kafir. Tidak seorang pun di langit maupun di bumi yang sanggup melawan kehendak-Nya. Dia sangat mudah melaksanakan kehendak-Nya. Allah berfirman:\n\u0627\u0650\u0646\u0651\u064e\u0645\u064e\u0627\u0653 \u0627\u064e\u0645\u0652\u0631\u064f\u0647\u0657\u0653 \u0627\u0650\u0630\u064e\u0627\u0653 \u0627\u064e\u0631\u064e\u0627\u062f\u064e \u0634\u064e\u064a\u0652\u0640\u0654\u064b\u0627\u06d6 \u0627\u064e\u0646\u0652 \u064a\u0651\u064e\u0642\u064f\u0648\u0652\u0644\u064e \u0644\u064e\u0647\u0657 \u0643\u064f\u0646\u0652 \u0641\u064e\u064a\u064e\u0643\u064f\u0648\u0652\u0646\u064f \u0668\u0662\nSesungguhnya urusan-Nya apabila Dia menghendaki sesuatu Dia hanya berkata kepadanya, \u201cJadilah!\u201d Maka jadilah sesuatu itu. (Y\u0101s\u012bn/36: 82)",
        "intro_surah": "Surah al-Muj\u0101dalah terdiri dari 22 ayat, termasuk kelompok surah Madaniyyah, diturunkan sesudah Surah al-Mun\u0101fiq\u016bn.\nSurah ini dinamai al-Muj\u0101dalah, karena pada awal surah ini disebutkan pengaduan seorang istri yang dalam riwayat disebut bernama Khaulah binti \u1e60a\u2018labah. Perempuan itu telah dizihar oleh suaminya, sehingga mereka tidak dapat bergaul lagi. Khaulah mencoba memberi pengertian kepada suaminya, akibat ziharnya itu terhadap anak-anaknya. Oleh karena itu, suaminya ingin kembali kepadanya, tetapi telah ada penghalang karena ziharnya itu. Maka si istri pergi meminta keputusan kepada Rasulullah saw. Sebagai jawabannya, maka turunlah ayat-ayat di permulaan surah ini. \n\nPokok-pokok Isinya:\n1.\tHukum-hukum:\nHukum zihar dan sangsi-sangsi bagi orang yang melakukannya bila ia menarik perkataannya kembali; larangan menjadikan musuh Islam sebagai teman; larangan mengadakan perundingan rahasia untuk memusuhi Islam.\n2.\tLain-lain:\nMenjaga sopan-santun dalam majelis pertemuan; adab sopan-santun terhadap Rasulullah saw; sikap seorang mukmin terhadap orang-orang yang bukan mukmin. Pengusiran Bani Na\u1e0d\u012br dari kota Medinah.",
        "outro_surah": null,
        "munasabah_prev_surah": "1.\tPada Surah al-\u1e24ad\u012bd disebutkan beberapa al-Asm\u0101\u2019ul-\u1e24usn\u0101, di antaranya, ialah al-B\u0101\u1e6din dan al-\u2018Al\u012bm, sedang pada Surah al-Muj\u0101dalah disebutkan bahwa Allah mengetahui pembicaraan-pembicaraan yang dirahasiakan.\n2.\tPada akhir Surah al-\u1e24ad\u012bd disebutkan bahwa Allah memberikan karunia-Nya kepada siapa yang dikehendaki-Nya dan Allah mempunyai karunia yang besar.",
        "munasabah_prev_theme": "Pada ayat-ayat yang lalu telah diterangkan sikap orang-orang munafik yang memusuhi Islam dan kaum Muslimin. Di hadapan orang-orang beriman, mereka bersumpah bahwa mereka benar-benar beriman kepada Allah dan mengikuti Nabi Muhammad. Sedangkan kepada orang-orang Yahudi, mereka juga bersumpah bahwa mereka adalah sama dengan orang-orang Yahudi. Tujuan mereka adalah agar kedua golongan itu senang kepada mereka. Kemudian Allah menerangkan bahwa mereka adalah orang yang merugi karena telah mementingkan kesenangan hidup di dunia dari kesenangan hidup di akhirat. \nPada ayat-ayat berikut ini diterangkan sebab orang munafik merugi hidup di dunia dan di akhirat ialah karena mereka telah melanggar larangan-larangan Allah dan mendurhakai Rasul-Nya. Kemudian ditegaskan sikap orang-orang yang beriman terhadap musuh-musuh Islam mereka lebih mengutamakan keridaan Allah daripada keridaan manusia, mereka bersedia melakukan apa saja demi mencari keridaan-Nya.",
        "theme_group": "SIKAP ORANG YANG BERIMAN TERHADAP MUSUH ISLAM ",
        "kosakata": "Kosakata: \n1.\tYu\u1e25\u0101dd\u016bna \u064a\u064f\u062d\u064e\u0627\u062f\u0651\u064f\u0648\u0652\u0646\u064e (al-Muj\u0101dalah/58: 20)\nYu\u1e25\u0101dd\u016bna artinya menghalangi, berasal dari kata \u1e25add, yaitu sesuatu yang menghalangi. Di sini dipahami dengan batas karena batas antara dua hal menghalangi percampuran antara keduanya. Ketentuan yang tidak boleh dilanggar disebut \u1e25add. Sanksi hukuman disebut \u1e25add karena dia berfungsi menghalangi yang bersangkutan mengulangi perbuatannya atau orang lain melakukan hal serupa. Oleh sebab itu, siapa yang berani melampaui batas yang ditetapkan berarti ia telah menentang atau menyatakan permusuhan kepada penetap batas itu. \n2.\t\u1e24izbull\u0101h \u062d\u0650\u0632\u0652\u0628\u064f \u0627\u0644\u0644\u0651\u0670\u0647\u0650 (al-Muj\u0101dalah/58: 22)\n\u1e24izbull\u0101h artinya penolong-penolong Allah. Al-\u1e25izb adalah berkumpulnya sesuatu seperti sekelompok manusia. Ayat ini menjelaskan kelompok orang-orang yang memihak Allah dan dekat kepada-Nya, bersedia berjuang menegakkan agama-Nya. Kelompok inilah yang akan mencapai puncak keberuntungan dan meraih segala yang mereka harapkan.",
        "sabab_nuzul": null,
        "conclusion": null
    }
}