{
    "id": 5148,
    "surah_id": 59,
    "ayah": 22,
    "page": 548,
    "quarter_hizb": 55.5,
    "juz": 28,
    "manzil": 7,
    "arabic": "\u0647\u064f\u0648\u064e \u0627\u0644\u0644\u0651\u0670\u0647\u064f \u0627\u0644\u0651\u064e\u0630\u0650\u064a\u0652 \u0644\u064e\u0627\u0653 \u0627\u0650\u0644\u0670\u0647\u064e \u0627\u0650\u0644\u0651\u064e\u0627 \u0647\u064f\u0648\u064e\u06da \u0639\u064e\u0627\u0644\u0650\u0645\u064f \u0627\u0644\u0652\u063a\u064e\u064a\u0652\u0628\u0650 \u0648\u064e\u0627\u0644\u0634\u0651\u064e\u0647\u064e\u0627\u062f\u064e\u0629\u0650\u06da \u0647\u064f\u0648\u064e \u0627\u0644\u0631\u0651\u064e\u062d\u0652\u0645\u0670\u0646\u064f \u0627\u0644\u0631\u0651\u064e\u062d\u0650\u064a\u0652\u0645\u064f ",
    "latin": "Huwall\u0101hul-la\u017c\u012b l\u0101 il\u0101ha ill\u0101 huw(a), \u2018\u0101limul-gaibi wasy-syah\u0101dah(ti), huwar-ra\u1e25m\u0101nur-ra\u1e25\u012bm(u).",
    "translation": "Dialah Allah Yang tidak ada tuhan selain Dia. (Dialah) Yang Mengetahui yang gaib dan yang nyata. Dialah Yang Maha Pengasih lagi Maha Penyayang. ",
    "no_footnote": null,
    "footnotes": null,
    "surah": {
        "id": 59,
        "arabic": " \u0627\u0644\u062d\u0634\u0631",
        "latin": "Al-\u1e24asyr",
        "transliteration": "Al-Hasyr",
        "translation": "Pengusiran",
        "num_ayah": 24,
        "page": 545,
        "location": "Madaniyah"
    },
    "tafsir": {
        "wajiz": "Al-Qur\u2019an adalah wahyu Allah petunjuk bagi manusia. Pada ayat ini dan seterusnya hingga akhir surah, Allah menjelaskan al-asma al-husna, nama-nama Allah yang indah. Apabila al-asma al-husna dipahami dan diresapkan secara mendalam ke dalam sanubari akan menguatkan keyakinan kepada-Nya. Dialah Allah tidak ada tuhan selain Dia. Dia memperkenalkan nama-nama-Nya. Bila zat-Nya dipikirkan akan membingungkan, karena pikiran manusia tidak sanggup menjangkaunya; bila nama-Nya disebut akan menggetarkan hati yang beriman; bila sifat-Nya diuraikan akan mempesona; dan bila perbuatan-Nya diamati dengan cermat akan mengagumkan setiap manusia; karena itu tidak ada Tuhan layak diibadati selain Dia. Yang Mengetahui yang gaib, karena pengetahuan-Nya tak terbatas; dan Yang Mengetahui yang nyata, karena pengetahuan-Nya meliputi zarrah. Dialah Yang Maha Pengasih, yang kasih sayang-Nya tak mengenal batas; Maha Penyayang, yang rahmat-Nya kepada orang yang beriman sejak di dunia hingga di surga.",
        "tahlili": "Allah yang menurunkan Al-Qur\u2019an dan menetapkannya sebagai petunjuk bagi manusia, adalah Tuhan Yang Maha Esa, tidak ada tuhan selain Dia. Dialah yang berhak disembah, tidak ada yang lain. Segala penyembahan terhadap selain Allah, seperti pohon, batu, patung, matahari, dan sebagainya, adalah perbuatan sesat. Dia Maha Mengetahui segala yang ada, baik yang tampak maupun yang gaib di langit dan di bumi. Dia Maha Pemurah kepada makhluk-Nya, dan Maha Pengasih.",
        "intro_surah": "Surah al-\u1e24asyr terdiri dari 24 ayat, termasuk kelompok surah Madaniyyah, diturunkan sesudah Surah al-Bayyinah.\nNama al-\u1e24asyr (Pengusiran), diambil dari kata al-\u1e25asyr yang terdapat pada ayat 2 surah ini. Di dalam surah ini disebutkan kisah pengusiran salah satu suku Yahudi yang bernama Bani Na\u1e0d\u012br, yang berdiam di sekitar Medinah.\nMereka telah membuat perjanjian damai dengan Nabi Muhammad, hidup berdampingan dengan kaum Muslimin dalam membina masyarakat yang aman dan tenteram di kota Medinah. Namun demikian, perjanjian damai yang telah dibuat itu tidak saja mereka khianati, tetapi mereka berbuat lebih dari itu. Mereka mengadakan perjanjian rahasia dengan kafir Mekah untuk menghancurkan Islam dan kaum Muslimin.\n\nPokok-pokok Isinya:\n1. \tKeimanan:\nApa yang berada di langit dan di bumi semuanya bertasbih memuji Allah; Allah pasti mengalahkan musuh-musuh-Nya dan musuh-musuh Rasul-Nya; Allah mempunyai al-Asm\u0101\u2019ul-\u1e24usn\u0101; Keagungan Al-Qur\u2019an dan ketinggian martabatnya.\n2. \tHukum-hukum:\nCara pembagian harta fai\u2019; perintah takwa dan mempersiapkan diri untuk kehidupan ukhrawi.\n3. \tLain-lain:\nBeberapa sifat orang-orang munafik dan orang-orang ahli kitab yang tercela; peringatan-peringatan untuk kaum Muslimin.",
        "outro_surah": null,
        "munasabah_prev_surah": "1.\tPada akhir Surah al-Muj\u0101dalah, Allah menyatakan bahwa agama-Nya akan menang, sedang pada permulaan Surah al-\u1e24asyr diterangkan salah satu kemenangan itu, yaitu pengusiran Bani Na\u1e0d\u012br dari Medinah.\n2.\tDalam Surah al-Muj\u0101dalah, Allah menyebutkan bahwa orang-orang yang menentang Allah dan rasul-Nya akan mendapat kebinasaan, sedang dalam Surah al-\u1e24asyr, Allah menyebutkan bahwa orang-orang yang menentang Allah dan rasul-Nya akan mendapat azab yang sangat pedih.\n3.\tDalam Surah al-Muj\u0101dalah, Allah menyebutkan keadaan orang-orang munafik dan orang-orang Yahudi dan bagaimana mereka saling membantu dalam memusuhi kaum muslimin, sedang dalam Surah al-\u1e24asyr disebutkan kekalahan yang menimpa mereka dan kenyataan bahwa persatuan mereka tidak dapat menolong mereka sedikit pun.",
        "munasabah_prev_theme": "Pada ayat-ayat yang lalu Allah memerintahkan agar manusia bertakwa, mengerjakan perintah-perintah dan menjauhi larangan-larangan-Nya, serta mengerjakan semua yang bermanfaat. Sedangkan Al-Qur\u2019an adalah sebagai petunjuk bagi manusia kepada jalan kebahagiaan di dunia dan di akhirat. Pada ayat-ayat berikut ini diterangkan beberapa al-Asm\u0101\u2019ul-\u1e24usn\u0101 Allah (nama-nama Allah yang indah) yang menunjukkan sifat-sifat kekuasaan, kebesaran, dan keagungan-Nya.",
        "theme_group": "BEBERAPA AL-ASM\u0100\u2019UL \u1e24USN\u0100",
        "kosakata": "Kosakata:\n1.\tAl-Asm\u0101\u2019ul-\u1e24usn\u0101 \u0627\u064e\u0644\u0652\u0623\u064e\u0633\u0652\u0645\u06e4\u0640\u0627\u0621\u064f \u0627\u0644\u0652\u062d\u064f\u0633\u0652\u0646\u064e\u0649 (al-\u1e24asyr/59: 24)\nAl-Asm\u0101\u2019ul-\u1e24usn\u0101 terdiri dari dua kata yaitu al-asm\u0101\u2019 dan al-\u1e25usn\u0101. Al-asm\u0101\u2019 adalah bentuk jamak dari kata al-ism yang memiliki arti nama untuk sesuatu baik benda mati atau benda hidup. Kata ini berakar dari sam\u0101-yasm\u016b-sumuwwan yang berarti ketinggian atau sesuatu yang berada di atas. Langit disebut dengan sam\u0101\u2019 karena berada di atas. Begitu juga dengan hujan disebut sam\u0101' karena turun dari atas. Ism adalah nama untuk mengetahui sesuatu dengan maksud meninggikan yang dinamai. Sebagian berpendapat bahwa kata al-ism berasal dari kata as-simah yang berarti tanda. Kedua pendapat ini bisa digabungkan bahwa ism adalah tanda bagi sesuatu yang harus dijunjung tinggi. Sedangkan kata al-\u1e25usn\u0101 adalah bentuk superlatif muanna\u1e61 dari kata a\u1e25san yang berarti yang terbaik. Kata ini berakar dari al-\u1e25usnu yang berarti ungkapan yang baik dan menyenangkan. Ar-R\u0101gib al-Asfah\u0101n\u012b membagi al-\u1e25usn menjadi tiga macam yaitu baik menurut akal, baik menurut hawa nafsu, dan baik menurut perasaan. Pendeknya setiap karunia yang membuat manusia gembira dinamakan dengan al-\u1e25asanah. Antonimnya adalah as-sayyiah. \nJadi kata al-Asm\u0101\u2019ul-\u1e24usn\u0101 berarti nama-nama yang paling baik. Pemberian nama (al-ism) dengan nama-nama yang terbaik menunjukkan bahwa nama-nama tersebut tidak saja baik, tetapi adalah yang terbaik bila dibandingkan dengan yang baik lainnya, apakah yang baik dari selain-Nya itu wajar disandang-Nya atau tidak. Misalnya sifat Pengasih, dapat disandang oleh makhluk, tetapi karena bagi Allah nama yang terbaik, maka pastilah sifat Kasih-Nya melebihi sifat kasih makhluk dalam kapasitas kasih maupun substansinya. Al-Asm\u0101\u2019ul-\u1e24usn\u0101 menunjukkan pada nama-nama yang sangat sempurna, tidak sedikit pun ada kekurangan atau kelemahan seperti nama-nama sifat yang disandang oleh makhluk. Dalam Al-Qur\u2019an, kata al-Asm\u0101\u2019ul-\u1e24usn\u0101 terulang sebanyak empat kali, yaitu dalam Surah al-\u1e24asyr/59: 24,. al-A\u2018r\u0101f/7: 180, al-Isr\u0101\u2019/17: 110, dan \u1e6c\u0101h\u0101/20: 108-109. \nPara ulama berbeda pendapat mengenai jumlah bilangan al-Asm\u0101\u2019ul-\u1e24usn\u0101. Pendapat yang cukup populer menyebutkan jumlahnya 99 nama. A\u1e6d-\u1e6cab\u0101\u1e6daba\u2018\u012b menghitungnya menjadi 127 nama, Ibnu Barjam al-Andalus\u012b menghimpunnya sebanyak 132 nama, al-Qur\u1e6dubi dalam tafsirnya menghitung lebih dari 200 nama, bahkan Abu Bakar Ibnu Arab\u012b mengatakan al-Asm\u0101\u2019ul-\u1e24usn\u0101 berjumlah seribu nama. Ini menunjukkan bahwa Allah memiliki semua sifat yang baik yang tentunya berbeda dengan makhluk-Nya.\nDalam konteks ayat ini, Allah menjelaskan tentang rangkaian uraian mengenai nama-nama (asm\u0101\u2019) yang menjadi sifat al-Asm\u0101\u2019ul-\u1e24usn\u0101 dari Allah. Dalam ayat-ayat sebelumnya dijelaskan bahwa Dialah Allah yang tiada tuhan selain Dia. Dia Maha Mengetahui yang gaib dan yang nyata. Dia juga menyifati diri-Nya dengan ar-Ra\u1e25m\u0101n (Maha Pengasih) dan ar-Ra\u1e25\u012bm (Maha Penyayang). Dialah al-Malik (Maha Menguasai dan Merajai), al-Qudd\u016bs (Mahasuci dari segala sifat yang dapat dijangkau oleh panca indera atau imajinasi), as-Sal\u0101m (Pemilik as-Sal\u0101mah, terhindar dari segala aib dan kekurangan, dan Yang Memberi salam kepada hamba-hamba-Nya di surga kelak), al-Mu'min (Maha Pemberi rasa aman), al-Muhaimin (Yang Maha Menangani serta Memelihara makhluk-Nya), al-\u2018Az\u012bz (Yang Maha Mengalahkan musuh-Nya), al-Jabb\u0101r (Yang Mahatinggi), al-Mutakabbir (Yang Mahabesar). Dalam ayat 24 ini, Allah melanjutkan nama-nama lain yang disandang-Nya yaitu Dialah Allah al-Kh\u0101liq (Yang Maha Mencipta), al-B\u0101ri\u2019 (Yang Maha Memisahkan sesuatu dari sesuatu), dan al-Mu\u1e63awwir (Yang Memberi rupa dan bentuk). Nama-nama sifat itu dikenal dengan al-Asm\u0101\u2019ul-\u1e24usn\u0101. (Lihat Al-Qur\u2019an dan Tafsirnya Departemen Agama, Jilid III, Surah al-A\u2018r\u0101f/7: 180, hlm. 530-533).",
        "sabab_nuzul": null,
        "conclusion": null
    }
}