{
    "id": 5154,
    "surah_id": 60,
    "ayah": 4,
    "page": 549,
    "quarter_hizb": 55.5,
    "juz": 28,
    "manzil": 7,
    "arabic": "\u0642\u064e\u062f\u0652 \u0643\u064e\u0627\u0646\u064e\u062a\u0652 \u0644\u064e\u0643\u064f\u0645\u0652 \u0627\u064f\u0633\u0652\u0648\u064e\u0629\u064c \u062d\u064e\u0633\u064e\u0646\u064e\u0629\u064c \u0641\u0650\u064a\u0652\u0653 \u0627\u0650\u0628\u0652\u0631\u0670\u0647\u0650\u064a\u0652\u0645\u064e \u0648\u064e\u0627\u0644\u0651\u064e\u0630\u0650\u064a\u0652\u0646\u064e \u0645\u064e\u0639\u064e\u0647\u0657\u06da \u0627\u0650\u0630\u0652 \u0642\u064e\u0627\u0644\u064f\u0648\u0652\u0627 \u0644\u0650\u0642\u064e\u0648\u0652\u0645\u0650\u0647\u0650\u0645\u0652 \u0627\u0650\u0646\u0651\u064e\u0627 \u0628\u064f\u0631\u064e\u0621\u0670\u06e4\u0624\u064f\u0627 \u0645\u0650\u0646\u0652\u0643\u064f\u0645\u0652 \u0648\u064e\u0645\u0650\u0645\u0651\u064e\u0627 \u062a\u064e\u0639\u0652\u0628\u064f\u062f\u064f\u0648\u0652\u0646\u064e \u0645\u0650\u0646\u0652 \u062f\u064f\u0648\u0652\u0646\u0650 \u0627\u0644\u0644\u0651\u0670\u0647\u0650 \u06d6 \u0643\u064e\u0641\u064e\u0631\u0652\u0646\u064e\u0627 \u0628\u0650\u0643\u064f\u0645\u0652 \u0648\u064e\u0628\u064e\u062f\u064e\u0627 \u0628\u064e\u064a\u0652\u0646\u064e\u0646\u064e\u0627 \u0648\u064e\u0628\u064e\u064a\u0652\u0646\u064e\u0643\u064f\u0645\u064f \u0627\u0644\u0652\u0639\u064e\u062f\u064e\u0627\u0648\u064e\u0629\u064f \u0648\u064e\u0627\u0644\u0652\u0628\u064e\u063a\u0652\u0636\u064e\u0627\u06e4\u0621\u064f \u0627\u064e\u0628\u064e\u062f\u064b\u0627 \u062d\u064e\u062a\u0651\u0670\u0649 \u062a\u064f\u0624\u0652\u0645\u0650\u0646\u064f\u0648\u0652\u0627 \u0628\u0650\u0627\u0644\u0644\u0651\u0670\u0647\u0650 \u0648\u064e\u062d\u0652\u062f\u064e\u0647\u0657\u0653 \u0627\u0650\u0644\u0651\u064e\u0627 \u0642\u064e\u0648\u0652\u0644\u064e \u0627\u0650\u0628\u0652\u0631\u0670\u0647\u0650\u064a\u0652\u0645\u064e \u0644\u0650\u0627\u064e\u0628\u0650\u064a\u0652\u0647\u0650 \u0644\u064e\u0627\u064e\u0633\u0652\u062a\u064e\u063a\u0652\u0641\u0650\u0631\u064e\u0646\u0651\u064e \u0644\u064e\u0643\u064e \u0648\u064e\u0645\u064e\u0627\u0653 \u0627\u064e\u0645\u0652\u0644\u0650\u0643\u064f \u0644\u064e\u0643\u064e \u0645\u0650\u0646\u064e \u0627\u0644\u0644\u0651\u0670\u0647\u0650 \u0645\u0650\u0646\u0652 \u0634\u064e\u064a\u0652\u0621\u064d\u06d7 \u0631\u064e\u0628\u0651\u064e\u0646\u064e\u0627 \u0639\u064e\u0644\u064e\u064a\u0652\u0643\u064e \u062a\u064e\u0648\u064e\u0643\u0651\u064e\u0644\u0652\u0646\u064e\u0627 \u0648\u064e\u0627\u0650\u0644\u064e\u064a\u0652\u0643\u064e \u0627\u064e\u0646\u064e\u0628\u0652\u0646\u064e\u0627 \u0648\u064e\u0627\u0650\u0644\u064e\u064a\u0652\u0643\u064e \u0627\u0644\u0652\u0645\u064e\u0635\u0650\u064a\u0652\u0631\u064f ",
    "latin": "Qad k\u0101nat lakum uswatun \u1e25asanatun f\u012b ibr\u0101h\u012bma wal-la\u017c\u012bna ma\u2018ah(\u016b), i\u017c q\u0101l\u016b liqaumihim inn\u0101 bura'\u0101'u minkum wa mimm\u0101 ta\u2018bud\u016bna min d\u016bnill\u0101h(i), kafarn\u0101 bikum wa bad\u0101 bainan\u0101 wa bainakumul-\u2018ad\u0101watu wal-bag\u1e0d\u0101'u abadan \u1e25att\u0101 tu'min\u016b bill\u0101hi wa\u1e25dah\u016b ill\u0101 qaula ibr\u0101h\u012bma li'ab\u012bhi la'astagfiranna laka wa m\u0101 amliku laka minall\u0101hi min syai'(in), rabban\u0101 \u2018alaika tawakkaln\u0101 wa ilaika anabn\u0101 wa ilaikal-ma\u1e63\u012br(u).",
    "translation": "Sungguh, benar-benar ada suri teladan yang baik bagimu pada (diri) Ibrahim dan orang-orang yang bersama dengannya ketika mereka berkata kepada kaumnya, \u201cSesungguhnya kami berlepas diri dari kamu dan dari apa yang kamu sembah selain Allah. Kami mengingkari (kekufuran)-mu dan telah nyata antara kami dan kamu ada permusuhan dan kebencian untuk selama-lamanya sampai kamu beriman kepada Allah saja.\u201d Akan tetapi, (janganlah engkau teladani) perkataan Ibrahim kepada ayahnya,713) \u201cSungguh, aku akan memohonkan ampunan bagimu, tetapi aku sama sekali tidak dapat menolak (siksaan) Allah terhadapmu.\u201d (Ibrahim berkata,) \u201cYa Tuhan kami, hanya kepada Engkau kami bertawakal, hanya kepada Engkau kami bertobat, dan hanya kepada Engkaulah kami kembali.",
    "no_footnote": "713",
    "footnotes": "713) Nabi Ibrahim a.s. pernah meminta ampunan kepada Allah untuk ayahnya yang musyrik. Ini tidak boleh ditiru karena Allah tidak membenarkan orang mukmin memintakan ampunan untuk orang-orang kafir (lihat surah an-Nis\u0101\u2019 [4]: 48).",
    "surah": {
        "id": 60,
        "arabic": " \u0627\u0644\u0645\u0645\u062a\u062d\u0646\u0629",
        "latin": "Al-Mumta\u1e25anah",
        "transliteration": "Al-Mumtahanah",
        "translation": "Wanita Yang Diuji",
        "num_ayah": 13,
        "page": 549,
        "location": "Madaniyah"
    },
    "tafsir": {
        "wajiz": "Melalui ayat ini, Allah memberikan pelajaran berharga dari hubungan Nabi Ibrahim dengan ayahnya. Sungguh, telah ada suri teladan yang baik bagi kamu, orang-orang beriman di akhir zaman, pada Ibrahim dan orang-orang beriman yang bersama dengannya, para pengikut, dan sahabat-sahabatnya, ketika mereka berkata kepada kaumnya yang menyembah berhala dan mempertuhankan matahari, bulan, dan bintang, \u201cSesungguhnya kami berlepas diri dari kalian dan dari apa yang kalian sembah selain Allah, tidak menjadi sahabat kalian, dan mendukung perbuatan kalian, beribadah kepada selain Allah; kami mengingkari kekafiran kalian lahir batin, pernyataan, pikiran, perasaan, dan keyakinan, dan menurut kami telah nyata antara kami dan kalian ada permusuhan dan kebencian untuk selama-lamanya, karena kalian menolak beriman kepada Allah dan berusaha membunuh kami, orang-orang beriman, hingga kalian beriman kepada Allah saja dengan tauhid yang benar, sebab dengan beriman kalian menjadi saudara. \u201cAllah tidak membenarkan orang beriman memintakan ampunan untuk orang-orang kafir (Lihat: Surah an-Nisa/4: 48), kecuali perkataan Ibrahim kepada ayahnya yang bernama Azar, \u201cSungguh aku akan memohonkan ampunan kepada Allah bagimu, karena cinta dan kasih sayang anak kepada orang tua, namun aku sebagai hamba Allah sama sekali tidak dapat menolak siksaan Allah kepadamu, karena aku tidak memiliki daya dan kekuatan apa pun.\u201d Ibrahim berkata dalam doanya yang tulus, \u201cYa Tuhan kami, hanya kepada Engkau kami bertawakal, karena Engkau menyukai orang yang bertawakal dan hanya Engkau saja yang pantas menjadi tempat kami bertawakal; dan hanya kepada Engkau kami bertobat, karena Engkau menyukai hamba-hamba yang tobat dari dosa mereka dan hanya kepada Engkau kami kembali, karena hanya Engkau yang memiliki akhirat dan Engkau pangkal seluruh kehidupan.",
        "tahlili": "Allah memerintahkan kaum Muslimin untuk mencontoh Nabi Ibrahim dan orang-orang yang beriman besertanya, ketika ia berkata kepada kaumnya yang kafir dan menyembah berhala, \u201cHai kaumku, sesungguhnya kami berlepas diri dari kamu semua, dan dari apa yang kamu sembah selain Allah.\u201d\nKemudian diterangkan bahwa yang dimaksud Ibrahim dengan berlepas diri itu ialah:\na.\tNabi Ibrahim mengingkari kaumnya, tidak mengacuhkan tuhan-tuhan mereka, dan tidak membenarkan perbuatan mereka yang menyembah patung-patung yang tidak dapat memberi manfaat dan mudarat kepada siapa pun. Allah berfirman: \n\u064a\u0670\u0653\u0627\u064e\u064a\u0651\u064f\u0647\u064e\u0627 \u0627\u0644\u0646\u0651\u064e\u0627\u0633\u064f \u0636\u064f\u0631\u0650\u0628\u064e \u0645\u064e\u062b\u064e\u0644\u064c \u0641\u064e\u0627\u0633\u0652\u062a\u064e\u0645\u0650\u0639\u064f\u0648\u0652\u0627 \u0644\u064e\u0647\u0657 \u06d7\u0627\u0650\u0646\u0651\u064e \u0627\u0644\u0651\u064e\u0630\u0650\u064a\u0652\u0646\u064e \u062a\u064e\u062f\u0652\u0639\u064f\u0648\u0652\u0646\u064e \u0645\u0650\u0646\u0652 \u062f\u064f\u0648\u0652\u0646\u0650 \u0627\u0644\u0644\u0651\u0670\u0647\u0650 \u0644\u064e\u0646\u0652 \u064a\u0651\u064e\u062e\u0652\u0644\u064f\u0642\u064f\u0648\u0652\u0627 \u0630\u064f\u0628\u064e\u0627\u0628\u064b\u0627 \u0648\u0651\u064e\u0644\u064e\u0648\u0650 \u0627\u062c\u0652\u062a\u064e\u0645\u064e\u0639\u064f\u0648\u0652\u0627 \u0644\u064e\u0647\u0657 \u06d7\u0648\u064e\u0627\u0650\u0646\u0652 \u064a\u0651\u064e\u0633\u0652\u0644\u064f\u0628\u0652\u0647\u064f\u0645\u064f \u0627\u0644\u0630\u0651\u064f\u0628\u064e\u0627\u0628\u064f \u0634\u064e\u064a\u0652\u0640\u0654\u064b\u0627 \u0644\u0651\u064e\u0627 \u064a\u064e\u0633\u0652\u062a\u064e\u0646\u0652\u0642\u0650\u0630\u064f\u0648\u0652\u0647\u064f \u0645\u0650\u0646\u0652\u0647\u064f\u06d7 \u0636\u064e\u0639\u064f\u0641\u064e \u0627\u0644\u0637\u0651\u064e\u0627\u0644\u0650\u0628\u064f \u0648\u064e\u0627\u0644\u0652\u0645\u064e\u0637\u0652\u0644\u064f\u0648\u0652\u0628\u064f \u0667\u0663\nWahai manusia! Telah dibuat suatu perumpamaan. Maka dengarkanlah! Sesungguhnya segala yang kamu seru selain Allah tidak dapat menciptakan seekor lalat pun, walaupun mereka bersatu untuk menciptakannya. Dan jika lalat itu merampas sesuatu dari mereka, mereka tidak akan dapat merebutnya kembali dari lalat itu. Sama lemahnya yang menyembah dan yang disembah. (al-\u1e24ajj/22: 73)\n \nb.\tNabi Ibrahim mengatakan bahwa antara dia dengan kaumnya yang ingkar telah terjadi permusuhan dan saling membenci selamanya. Ibrahim menyatakan akan tetap menentang kaumnya sampai mereka meninggalkan perbuatan syirik. Jika mereka telah beriman, permusuhan itu baru akan berakhir.\n\nTerhadap ayahnya yang masih kafir, ia tidak mengambil sikap yang tegas seperti sikapnya terhadap kaumnya. Ia berjanji akan mendoakan agar Allah mengampuni dosa-dosa ayahnya. Dalam hal ini, Allah melarang kaum Muslimin mencontoh Ibrahim, sekalipun ia akhirnya berlepas tangan pula terhadap ayahnya, setelah nyata baginya keingkaran bapaknya itu.\nBenar ada di antara orang yang beriman mendoakan ayah-ayah mereka yang meninggal dalam keadaan musyrik. Mereka beralasan mencontoh perbuatan Ibrahim itu. Maka Allah membantah perbuatan mereka:\n\u0645\u064e\u0627 \u0643\u064e\u0627\u0646\u064e \u0644\u0650\u0644\u0646\u0651\u064e\u0628\u0650\u064a\u0651\u0650 \u0648\u064e\u0627\u0644\u0651\u064e\u0630\u0650\u064a\u0652\u0646\u064e \u0627\u0670\u0645\u064e\u0646\u064f\u0648\u0652\u0653\u0627 \u0627\u064e\u0646\u0652 \u064a\u0651\u064e\u0633\u0652\u062a\u064e\u063a\u0652\u0641\u0650\u0631\u064f\u0648\u0652\u0627 \u0644\u0650\u0644\u0652\u0645\u064f\u0634\u0652\u0631\u0650\u0643\u0650\u064a\u0652\u0646\u064e \u0648\u064e\u0644\u064e\u0648\u0652 \u0643\u064e\u0627\u0646\u064f\u0648\u0653\u0652\u0627 \u0627\u064f\u0648\u0644\u0650\u064a\u0652 \u0642\u064f\u0631\u0652\u0628\u0670\u0649 \u0645\u0650\u0646\u0652\u06e2 \u0628\u064e\u0639\u0652\u062f\u0650 \u0645\u064e\u0627 \u062a\u064e\u0628\u064e\u064a\u0651\u064e\u0646\u064e \u0644\u064e\u0647\u064f\u0645\u0652 \u0627\u064e\u0646\u0651\u064e\u0647\u064f\u0645\u0652 \u0627\u064e\u0635\u0652\u062d\u0670\u0628\u064f \u0627\u0644\u0652\u062c\u064e\u062d\u0650\u064a\u0652\u0645\u0650 \u0661\u0661\u0663 \u0648\u064e\u0645\u064e\u0627 \u0643\u064e\u0627\u0646\u064e \u0627\u0633\u0652\u062a\u0650\u063a\u0652\u0641\u064e\u0627\u0631\u064f \u0627\u0650\u0628\u0652\u0631\u0670\u0647\u0650\u064a\u0652\u0645\u064e \u0644\u0650\u0627\u064e\u0628\u0650\u064a\u0652\u0647\u0650 \u0627\u0650\u0644\u0651\u064e\u0627 \u0639\u064e\u0646\u0652 \u0645\u0651\u064e\u0648\u0652\u0639\u0650\u062f\u064e\u0629\u064d \u0648\u0651\u064e\u0639\u064e\u062f\u064e\u0647\u064e\u0627\u0653 \u0627\u0650\u064a\u0651\u064e\u0627\u0647\u064f\u06da \u0641\u064e\u0644\u064e\u0645\u0651\u064e\u0627 \u062a\u064e\u0628\u064e\u064a\u0651\u064e\u0646\u064e \u0644\u064e\u0647\u0657\u0653 \u0627\u064e\u0646\u0651\u064e\u0647\u0657 \u0639\u064e\u062f\u064f\u0648\u0651\u064c \u0644\u0651\u0650\u0644\u0651\u0670\u0647\u0650 \u062a\u064e\u0628\u064e\u0631\u0651\u064e\u0627\u064e \u0645\u0650\u0646\u0652\u0647\u064f\u06d7 \u0627\u0650\u0646\u0651\u064e \u0627\u0650\u0628\u0652\u0631\u0670\u0647\u0650\u064a\u0652\u0645\u064e \u0644\u064e\u0627\u064e\u0648\u0651\u064e\u0627\u0647\u064c \u062d\u064e\u0644\u0650\u064a\u0652\u0645\u064c \u0661\u0661\u0664\nTidak pantas bagi Nabi dan orang-orang yang beriman memohonkan ampunan (kepada Allah) bagi orang-orang musyrik, sekalipun orang-orang itu kaum kerabat(nya), setelah jelas bagi mereka, bahwa orang-orang musyrik itu penghuni neraka Jahanam. Adapun permohonan ampunan Ibrahim (kepada Allah) untuk bapaknya, tidak lain hanyalah karena suatu janji yang telah diikrarkannya kepada bapaknya. Maka ketika jelas bagi Ibrahim bahwa bapaknya adalah musuh Allah, maka Ibrahim berlepas diri darinya. Sungguh, Ibrahim itu seorang yang sangat lembut hatinya lagi penyantun. (at-Taubah/9: 113-114)\n\nSelanjutnya Nabi Ibrahim berkata kepada ayahnya bahwa dia tidak mampu menolongnya. Ia hanya bisa berdoa agar Allah memberi taufik berupa iman kepadanya.",
        "intro_surah": "Surah al-Mumta\u1e25anah terdiri dari 13 ayat, termasuk kelompok surah Madaniyyah, diturunkan sesudah Surah al-A\u1e25z\u0101b.\nNama al-Mumta\u1e25anah (perempuan yang diuji) diambil dari kata \u201cfamta\u1e25in\u016bhunna\u201d yang berarti \u201cmaka ujilah mereka\u201d, yang terdapat pada ayat 10 surah ini.\n\nPokok-pokok Isinya:\n1.\tHukum-hukum:\nLarangan mengadakan hubungan persahabatan dengan orang-orang kafir yang memusuhi Islam, sedang dengan orang-orang kafir yang tidak memusuhi Islam diperbolehkan; hukum perkawinan bagi orang yang pindah agama.\n2.\tKisah-kisah:\nKisah Nabi Ibrahim bersama kaumnya sebagai contoh dan teladan bagi orang-orang mukmin.",
        "outro_surah": null,
        "munasabah_prev_surah": "Dalam Surah al-\u1e24asyr disebutkan bagaimana orang-orang munafik saling menolong dengan orang-orang Yahudi dalam memusuhi kaum Muslimin, sedang dalam Surah al-Mumta\u1e25anah, Allah melarang orang Muslim mengangkat orang-orang kafir menjadi pimpinan atau menjadikan mereka teman setia. Namun demikian, dibolehkan bekerja sama dan tolong-menolong dengan mereka selama tidak memusuhi kaum Muslimin.",
        "munasabah_prev_theme": "Pada ayat-ayat yang lalu diterangkan larangan bagi kaum Muslimin berteman akrab dengan orang-orang kafir yang selalu memusuhi, karena mereka telah mengusir kaum Muslimin dari negerinya, dan menginginkan mereka menjadi kafir kembali setelah beriman. Setiap ada kesempatan, mereka akan menghancurkan Islam dan kaum Muslimin. Kemudian diterangkan bahwa setiap manusia bertanggung jawab terhadap diri sendiri di hari Kiamat, tidak ada teman dan kerabat yang dapat menolong. Pada ayat-ayat berikut ini, Allah memerintahkan kaum Muslimin agar mencontoh Nabi Ibrahim dalam menghadapi orang-orang kafir. Dia mempunyai sikap yang tegas, baik terhadap kaumnya maupun keluarganya.",
        "theme_group": "NABI IBRAHIM SEBAGAI TELADAN YANG BAIK",
        "kosakata": "Kosakata: Al-Bag\u1e0d\u2019 \u0627\u0644\u0652\u0628\u064e\u063a\u0652\u0636\u064e\u0627\u0621\u064f (al-Mumta\u1e25anah/60: 4)\nAl-Bag\u1e0d\u0101' berasal dari kata al-bug\u1e0d (baga\u1e0da-yabga\u1e0du) yang berarti menjauhnya jiwa dari sesuatu yang tidak disenangi atau membencinya. Dari kata ini juga lahir makna efek tidak senang yaitu rasa marah. Kata ini antonim dari kata al-\u1e25ubb yang berarti menyukai sesuatu. At-Tab\u0101gu\u1e0d artinya saling membenci. Lafal al-bag\u1e0d\u0101\u2019 terulang dalam Al-Qur\u2019an sebanyak 5 kali, empat kali disandingkan dengan lafal al-\u2018ad\u0101wah (permusuhan), dan sekali disebut menyendiri (\u0100li \u2018Imr\u0101n/3: 118). Kebencian dan permusuhan memang dua hal yang tidak bisa dipisahkan. \nDalam konteks ayat ini, Allah menjelaskan tentang sikap Nabi Ibrahim dan orang-orang yang beriman bersamanya yang patut untuk dijadikan uswah (teladan). Suri teladan itu adalah ketegasan Nabi Ibrahim terhadap kaumnya yang enggan beriman dengan mengatakan, \u201cSesungguhnya kami tanpa keraguan sedikit pun menyatakan berlepas diri dari apa yang kamu sembah selain Allah karena itulah yang menjadi sebab berpisahnya kami dengan kamu.\u201d Kalau dahulu perselisihan dan perbedaan masih terpendam dalam hati masing-masing, maka kini hal tersebut demikian kuat dan nyata akibat penolakan mereka menyembah Allah. Permusuhan dan kebencian ini akan tetap terpatri dalam hati sampai kaum kafir beriman dan menyembah Allah semata.",
        "sabab_nuzul": null,
        "conclusion": null
    }
}