{
    "id": 5160,
    "surah_id": 60,
    "ayah": 10,
    "page": 550,
    "quarter_hizb": 55.75,
    "juz": 28,
    "manzil": 7,
    "arabic": "\u064a\u0670\u0653\u0627\u064e\u064a\u0651\u064f\u0647\u064e\u0627 \u0627\u0644\u0651\u064e\u0630\u0650\u064a\u0652\u0646\u064e \u0627\u0670\u0645\u064e\u0646\u064f\u0648\u0652\u0653\u0627 \u0627\u0650\u0630\u064e\u0627 \u062c\u064e\u0627\u06e4\u0621\u064e\u0643\u064f\u0645\u064f \u0627\u0644\u0652\u0645\u064f\u0624\u0652\u0645\u0650\u0646\u0670\u062a\u064f \u0645\u064f\u0647\u0670\u062c\u0650\u0631\u0670\u062a\u064d \u0641\u064e\u0627\u0645\u0652\u062a\u064e\u062d\u0650\u0646\u064f\u0648\u0652\u0647\u064f\u0646\u0651\u064e\u06d7  \u0627\u064e\u0644\u0644\u0651\u0670\u0647\u064f \u0627\u064e\u0639\u0652\u0644\u064e\u0645\u064f \u0628\u0650\u0627\u0650\u064a\u0652\u0645\u064e\u0627\u0646\u0650\u0647\u0650\u0646\u0651\u064e \u0641\u064e\u0627\u0650\u0646\u0652 \u0639\u064e\u0644\u0650\u0645\u0652\u062a\u064f\u0645\u064f\u0648\u0652\u0647\u064f\u0646\u0651\u064e \u0645\u064f\u0624\u0652\u0645\u0650\u0646\u0670\u062a\u064d \u0641\u064e\u0644\u064e\u0627 \u062a\u064e\u0631\u0652\u062c\u0650\u0639\u064f\u0648\u0652\u0647\u064f\u0646\u0651\u064e \u0627\u0650\u0644\u064e\u0649 \u0627\u0644\u0652\u0643\u064f\u0641\u0651\u064e\u0627\u0631\u0650\u06d7  \u0644\u064e\u0627 \u0647\u064f\u0646\u0651\u064e \u062d\u0650\u0644\u0651\u064c \u0644\u0651\u064e\u0647\u064f\u0645\u0652 \u0648\u064e\u0644\u064e\u0627 \u0647\u064f\u0645\u0652 \u064a\u064e\u062d\u0650\u0644\u0651\u064f\u0648\u0652\u0646\u064e \u0644\u064e\u0647\u064f\u0646\u0651\u064e\u06d7 \u0648\u064e\u0627\u0670\u062a\u064f\u0648\u0652\u0647\u064f\u0645\u0652 \u0645\u0651\u064e\u0627\u0653 \u0627\u064e\u0646\u0652\u0641\u064e\u0642\u064f\u0648\u0652\u0627\u06d7 \u0648\u064e\u0644\u064e\u0627 \u062c\u064f\u0646\u064e\u0627\u062d\u064e \u0639\u064e\u0644\u064e\u064a\u0652\u0643\u064f\u0645\u0652 \u0627\u064e\u0646\u0652 \u062a\u064e\u0646\u0652\u0643\u0650\u062d\u064f\u0648\u0652\u0647\u064f\u0646\u0651\u064e \u0627\u0650\u0630\u064e\u0627\u0653 \u0627\u0670\u062a\u064e\u064a\u0652\u062a\u064f\u0645\u064f\u0648\u0652\u0647\u064f\u0646\u0651\u064e \u0627\u064f\u062c\u064f\u0648\u0652\u0631\u064e\u0647\u064f\u0646\u0651\u064e\u06d7 \u0648\u064e\u0644\u064e\u0627 \u062a\u064f\u0645\u0652\u0633\u0650\u0643\u064f\u0648\u0652\u0627 \u0628\u0650\u0639\u0650\u0635\u064e\u0645\u0650 \u0627\u0644\u0652\u0643\u064e\u0648\u064e\u0627\u0641\u0650\u0631\u0650 \u0648\u064e\u0633\u0652\u0640\u0654\u064e\u0644\u064f\u0648\u0652\u0627 \u0645\u064e\u0627\u0653 \u0627\u064e\u0646\u0652\u0641\u064e\u0642\u0652\u062a\u064f\u0645\u0652 \u0648\u064e\u0644\u0652\u064a\u064e\u0633\u0652\u0640\u0654\u064e\u0644\u064f\u0648\u0652\u0627 \u0645\u064e\u0627\u0653 \u0627\u064e\u0646\u0652\u0641\u064e\u0642\u064f\u0648\u0652\u0627\u06d7 \u0630\u0670\u0644\u0650\u0643\u064f\u0645\u0652 \u062d\u064f\u0643\u0652\u0645\u064f \u0627\u0644\u0644\u0651\u0670\u0647\u0650 \u06d7\u064a\u064e\u062d\u0652\u0643\u064f\u0645\u064f \u0628\u064e\u064a\u0652\u0646\u064e\u0643\u064f\u0645\u0652\u06d7 \u0648\u064e\u0627\u0644\u0644\u0651\u0670\u0647\u064f \u0639\u064e\u0644\u0650\u064a\u0652\u0645\u064c \u062d\u064e\u0643\u0650\u064a\u0652\u0645\u064c ",
    "latin": "Y\u0101 ayyuhal-la\u017c\u012bna \u0101man\u016b i\u017c\u0101 j\u0101'akumul-mu'min\u0101tu muh\u0101jir\u0101tin famta\u1e25in\u016bhunn(a), all\u0101hu a\u2018lamu bi'\u012bm\u0101nihinna fa'in \u2018alimtum\u016bhunna mu'min\u0101tin fal\u0101 tarji\u2018\u016bhunna ilal-kuff\u0101r(i), l\u0101 hunna \u1e25illul lahum wa l\u0101 hum ya\u1e25ill\u016bna lahunn(a), wa \u0101t\u016bhum m\u0101 anfaq\u016b, wa l\u0101 jun\u0101\u1e25a \u2018alaikum an tanki\u1e25\u016bhunna i\u017c\u0101 \u0101taitum\u016bhunna uj\u016brahunn(a), wa l\u0101 tumsik\u016b bi\u2018i\u1e63amil-kaw\u0101firi was'al\u016b m\u0101 anfaq\u016b, \u017c\u0101likum \u1e25ukmull\u0101h(i), ya\u1e25kumu bainakum, wall\u0101hu \u2018al\u012bmun \u1e25ak\u012bm(un).",
    "translation": "Wahai orang-orang yang beriman, apabila perempuan-perempuan mukmin datang berhijrah kepadamu, hendaklah kamu uji (keimanan) mereka. Allah lebih tahu tentang keimanan mereka. Jika kamu telah mengetahui (keadaan) mereka bahwa mereka (benar-benar sebagai) perempuan-perempuan mukmin, janganlah kamu kembalikan mereka kepada orang-orang kafir (suami mereka). Mereka tidak halal bagi orang-orang kafir itu dan orang-orang kafir itu tidak halal pula bagi mereka. Berikanlah kepada (suami) mereka mahar yang telah mereka berikan. Tidak ada dosa bagimu menikahi mereka apabila kamu membayar mahar kepada mereka. Janganlah kamu tetap berpegang pada tali (pernikahan) dengan perempuan-perempuan kafir. Hendaklah kamu meminta kembali (dari orang-orang kafir) mahar yang telah kamu berikan (kepada istri yang kembali kafir). Hendaklah mereka (orang-orang kafir) meminta kembali mahar yang telah mereka bayar (kepada mantan istrinya yang telah beriman). Demikianlah hukum Allah yang ditetapkan-Nya di antara kamu. Allah Maha Mengetahui lagi Maha Bijaksana.",
    "no_footnote": null,
    "footnotes": null,
    "surah": {
        "id": 60,
        "arabic": " \u0627\u0644\u0645\u0645\u062a\u062d\u0646\u0629",
        "latin": "Al-Mumta\u1e25anah",
        "transliteration": "Al-Mumtahanah",
        "translation": "Wanita Yang Diuji",
        "num_ayah": 13,
        "page": 549,
        "location": "Madaniyah"
    },
    "tafsir": {
        "wajiz": "Melalui ayat ini Allah menjelaskan tentang tata cara yang harus dilakukan Rasulullah apabila menerima perempuan yang berasal dari daerah kafir dan hukum perkawinan mereka. \u201cWahai orang-orang yang beriman! Apabila perempuan-perempuan mukmin yang berasal daerah yang dikuasai orang-orang kafir datang berhijrah kepadamu ke Madinah, maka hendaklah kamu uji keimanan mereka agar kamu mengetahui latar belakang dan motivasi kedatangan mereka, serta dapat memberikan perlindungan yang tepat kepada mereka. Allah lebih mengetahui tentang keimanan mereka, hakikat, kualitas, bahkan yang terbesit dalam hati mereka; namun, pengujian ini diperlukan untuk kewaspadaan. Jika kamu telah mengetahui, setelah kamu melakukan wawancara mendalam terhadap mereka bahwa mereka, perempuan-perempuan yang meminta perlindungan itu benar-benar beriman, maka janganlah kamu mengembalikan mereka kepada orang-orang kafir, yakni suami-suami mereka yang kafir, karena perkawinan mereka batal, ketika perempuan-perempuan itu masuk Islam. Mereka, perempuan-perempuan muslimah itu tidak halal bagi orang-orang kafir itu, yakni bagi para suami mereka untuk berhubungan suami-istri dan orang-orang kafir itu pun, yakni para suami yang kafir, tidak halal bagi mereka, para istri yang sudah menjadi muslimah untuk berhubungan suami-istri. Dan berikanlah kepada suami mereka, yang masih tetap kafir itu mahar yang telah mereka berikan kepada mantan istrinya yang menjadi muslimah, jika mereka meminta. Dan tidak ada dosa bagi kamu, para laki-laki muslim untuk menikahi mereka, karena perempuan-perempuan itu berstatus janda, apabila kamu menikahinya setelah selesai masa iddah, mengikuti hukum Allah dan dengan tujuan pernikahan yang benar, serta membayarkan kepada mereka maharnya sesuai kesepakatan.\u201d Sebaliknya jika perempuan-perempuan muslimah meninggalkan suami mereka, masuk ke daerah kafir dan menjadi kafir, maka Allah menegaskan, \u201cDan janganlah kamu, para laki-laki muslim tetap berpegang pada tali pernikahan dengan perempuan-perempuan kafir, karena pernikahan kamu dengan mereka batal setelah mereka murtad; dan hendaklah kamu, para laki-laki muslim meminta kembali mahar yang telah kamu berikan kepada mantan istri kamu yang murtad itu.\u201d Sementara itu tentang perempuan beriman yang menghadap kepada Nabi di Madinah, Allah menegaskan, \u201cDan jika suaminya tetap kafir, sedangkan perempuan-perempuan itu benar-benar beriman, biarkanlah mereka, para suami itu, meminta kembali mahar yang telah mereka bayarkan kepada mantan istrinya yang telah beriman. Demikianlah hukum Allah yang ditetapkan-Nya di antara kamu tentang perceraian karena suami atau istri murtad atau istri masuk Islam, serta larangan menikah beda agama. Dan Allah Maha Mengetahui semua yang tersimpan dalam hati, Mahabijasana dalam menyikapi tingkah laku manusia.",
        "tahlili": "Ayat ini menerangkan perintah Allah kepada Rasulullah dan orang-orang yang beriman tentang sikap yang harus diambil, jika seorang perempuan beriman yang berasal dari daerah kafir datang menghadap atau minta perlindungan. Allah menyatakan bahwa apabila datang seorang perempuan dari daerah kafir yang mengucapkan dua kalimat syahadat dan tidak tampak padanya tanda-tanda keingkaran dan kemunafikan, maka perlu diperiksa lebih dahulu, apakah mereka benar telah beriman, atau datang karena melarikan diri dari suaminya, sedangkan ia sebenarnya tidak beriman.\nAllah memerintahkan yang demikian itu bukan karena Dia tidak mengetahui hal ihwal mereka. Allah Maha Mengetahui hakikat iman mereka, bahkan mengetahui semua yang terbesit dalam hati mereka. Akan tetapi, untuk kewaspadaan dan berjaga-jaga di kalangan kaum Muslimin yang sedang berperang menghadapi orang-orang kafir, maka usaha-usaha mengadakan penelitian itu harus dilakukan, walaupun orang itu kerabat sendiri.\nJika dalam pemeriksaan itu terbukti mereka adalah orang-orang yang beriman, maka jangan sekali-kali kaum Muslimin mengembalikan mereka ke daerah kafir, sebab perempuan-perempuan yang beriman tidak halal lagi bagi suaminya yang kafir. Sebaliknya, pria-pria yang kafir tidak halal bagi perempuan yang beriman.\nDari ayat ini dapat ditetapkan suatu hukum yang menyatakan bahwa jika seorang istri telah masuk Islam, berarti sejak itu ia telah bercerai dengan suaminya yang masih kafir. Oleh karena itu, ia haram kembali kepada suaminya. Ayat ini juga menguatkan hukum yang menyatakan bahwa haram hukumnya seorang perempuan muslimat kawin dengan laki-laki kafir.\nKemudian Allah menetapkan agar mas kawin yang telah diterima istri yang masuk Islam itu dikembalikan kepada suaminya. Menurut Imam Syafi\u2018i, istri wajib mengembalikan mahar itu jika pihak suaminya yang kafir itu memintanya. Jika pihak suami tidak memintanya, maka mahar itu tidak wajib dikembalikan. Sebagian ulama berpendapat bahwa mahar yang wajib dikembalikan itu jika suaminya termasuk orang yang telah melakukan perjanjian damai dengan kaum Muslimin, sedang bagi suami yang tidak termasuk dalam perjanjian damai dengan kaum Muslimin maharnya tidak wajib dikembalikan. Sebagian ulama lain berpendapat bahwa hukum pengembalian mahar itu bukan wajib tetapi sunah dan itu pun jika diminta oleh suaminya.\nSementara itu kaum muslimin dibolehkan mengawini perempuan-perempuan mukminat yang berhijrah itu dengan membayar mahar. Hal ini berarti bahwa perempuan itu tidak boleh dijadikan budak, karena mereka bukan berasal dari tawanan perang. Allah menganjurkan kaum Muslimin mengawini mereka agar diri mereka terpelihara. \nAllah menerangkan bahwa penyebab larangan melanjutkan perkawinan istri yang beriman dengan suami yang kafir itu adalah karena tidak akan ada hubungan perkawinan antara perempuan-perempuan yang sudah beriman dengan suami-suami mereka yang masih kafir dan berada di daerah kafir. Akad perkawinan mereka tidak berlaku lagi sejak sang istri masuk Islam. Sebaliknya jika yang pergi ke daerah kafir itu adalah istri-istri yang beriman kemudian ia menjadi kafir, kaum Muslimin diperintahkan untuk membiarkan mereka pergi. Akan tetapi, mereka harus mengembalikan barang-barang yang pernah diberikan suaminya yang Muslim.\nSemua yang disebutkan itu adalah hukum-hukum Allah yang wajib ditaati oleh setiap orang yang menghambakan diri kepada-Nya, karena dalam menetapkan hukum-Nya, Allah Maha Mengetahui kesanggupan hamba yang akan memikul hukum itu dan mengetahui sesuatu yang paling baik dilakukan oleh hamba-hamba-Nya. Dalam menetapkan hukum itu, Allah juga mengetahui faedah dan akibat menetapkan hukum serta keserasian hukum itu bagi yang memikulnya.",
        "intro_surah": "Surah al-Mumta\u1e25anah terdiri dari 13 ayat, termasuk kelompok surah Madaniyyah, diturunkan sesudah Surah al-A\u1e25z\u0101b.\nNama al-Mumta\u1e25anah (perempuan yang diuji) diambil dari kata \u201cfamta\u1e25in\u016bhunna\u201d yang berarti \u201cmaka ujilah mereka\u201d, yang terdapat pada ayat 10 surah ini.\n\nPokok-pokok Isinya:\n1.\tHukum-hukum:\nLarangan mengadakan hubungan persahabatan dengan orang-orang kafir yang memusuhi Islam, sedang dengan orang-orang kafir yang tidak memusuhi Islam diperbolehkan; hukum perkawinan bagi orang yang pindah agama.\n2.\tKisah-kisah:\nKisah Nabi Ibrahim bersama kaumnya sebagai contoh dan teladan bagi orang-orang mukmin.",
        "outro_surah": null,
        "munasabah_prev_surah": "Dalam Surah al-\u1e24asyr disebutkan bagaimana orang-orang munafik saling menolong dengan orang-orang Yahudi dalam memusuhi kaum Muslimin, sedang dalam Surah al-Mumta\u1e25anah, Allah melarang orang Muslim mengangkat orang-orang kafir menjadi pimpinan atau menjadikan mereka teman setia. Namun demikian, dibolehkan bekerja sama dan tolong-menolong dengan mereka selama tidak memusuhi kaum Muslimin.",
        "munasabah_prev_theme": "Pada ayat-ayat yang lalu diterangkan bahwa kaum Muslimin boleh menjalin hubungan dengan orang-orang kafir bila mereka tidak bermaksud menghancurkan Islam dan kaum Muslimin, dan tidak pula mengusir mereka dari kampung halamannya. Pada ayat-ayat berikut ini Allah memerintahkan kaum Muslimin agar menerima orang-orang yang datang dari daerah kafir untuk masuk Islam, walaupun yang datang itu salah seorang perempuan dengan menguji dan mengambil sumpah mereka terlebih dahulu. Demikian pula dijelaskan ketentuan bagaimana sikap seorang suami Muslim yang istrinya menjadi kafir dan lari ke daerah musuh.",
        "theme_group": "PENGAKUAN KEIMANAN PERLU DIUJI",
        "kosakata": "Kosakata: \n1.\tFamta\u1e25in\u016bhunna \u0641\u064e\u0627\u0645\u0652\u062a\u064e\u062d\u0650\u0646\u064f\u0648\u0652\u0647\u064f\u0646\u0651\u064e (al-Mumta\u1e25anah/60: 10)\nKata famta\u1e25in\u016bhunna berasal dari kata imta\u1e25ana yang berarti menguji atau mencoba. Imti\u1e25\u0101n adalah ujian. Asal makna dari al-ma\u1e25n yaitu memukul dengan cambuk, juga berarti pemberian. Al-mi\u1e25nah merupakan bentuk penderitaan manusia sebagai cobaan (bal\u0101). A\u1e25mad bin \u1e24anbal pernah mendapatkan al-mi\u1e25nah dari penguasa saat itu. Jadi lafal imta\u1e25ana berkisar pada makna ujian, cobaan, dan penderitaan. Famta\u1e25in\u016bhunna berarti maka ujilah mereka. \nPada ayat ini Allah menjelaskan mengenai istri orang-orang yang beriman yang masih tinggal di Mekah kemudian mereka ingin bergabung dengan suaminya di Medinah, maka keimanan mereka harus diuji terlebih dahulu. Misalnya memerintahkan mereka bersumpah mengenai motivasi kedatangan mereka. Jangan ada yang menduga bahwa ujian itu karena Allah tidak mengetahui hakikat keimanan mereka. Allah Mahatahu dan lebih mengetahui kadar keimanannya.\n2.\t\u2018I\u1e63amul-Kaw\u0101firi \u0639\u0650\u0635\u064e\u0645\u064f \u0627\u0644\u0652\u0643\u064e\u0648\u064e\u0627\u0641\u0650\u0631\u0650 (al-Mumta\u1e25anah/60: 10) \n\u2018I\u1e63am adalah jamak dari \u2018i\u1e63mah artinya \u201cmemelihara atau memegang\u201d, sedangkan al-kaw\u0101fir adalah jamak dari k\u0101firah yaitu \u201cperempuan kafir\u201d. \u2018I\u1e63amul-kaw\u0101firi artinya adalah \u201cmemelihara atau memegang terus istri-istri yang kafir\u201d, maksudnya tidak menceraikannya. Hal tersebut tidak diperbolehkan. Seorang laki-laki Muslim yang hijrah ke Medinah dulu tidak diperkenankan memelihara terus perkawinan dengan istrinya yang tetap pada kekafiran atau kemusyrikan dan tetap tinggal di Mekah. Para rasul juga \u2018i\u1e63mah, yaitu suci jiwanya, punya kelebihan jasmani dan rohani, pasti berhasil dalam dakwahnya, dan memperoleh ketenangan batin dari Allah. Dalam Al-Qur\u2019an terdapat kata-kata lain yang berasal dari kata itu, seperti \u2018\u0101\u1e63im yaitu \u201cpenyelamat\u201d, i\u2018ta\u1e63ama yaitu \u201cberpegang\u201d, dan ista\u2018\u1e63ama yaitu \u201cmemohon perlindungan.\u201d",
        "sabab_nuzul": "Diriwayatkan bahwa Nabi Muhammad pada tahun terjadinya perdamaian Hudaibiyah memerintahkan \u2018Ali bin Ab\u012b \u1e6c\u0101lib untuk membuat konsep perjanjian itu. Lalu Ali pun menulisnya, \u201cDengan menyebut nama-Mu, wahai Tuhan Kami, ini adalah perdamaian antara Muhammad bin Abdullah dengan Suhail bin \u2018Amr. Mereka telah menyatakan perdamaian dengan menghentikan peperangan selama 10 tahun, saling berusaha menjaga keamanan, dan menahan serta menjaga terjadinya perselisihan. Barang siapa di antara orang-orang Quraisy yang datang kepada Muhammad saw tanpa izin walinya, hendaklah orang itu dikembalikan. Sedangkan kaum Muslimin yang datang kepada orang Quraisy tidak dikembalikan, dan seterusnya.\u201d Demikianlah Rasulullah saw mengembalikan Ab\u016b Jandal bin Suhail kepada orang-orang Quraisy dan tidak seorang pun yang ditahan beliau, walaupun ia seorang Mukmin. Suatu ketika, datang kepada Rasulullah seorang perempuan Mukmin dari daerah kafir yang bernama Ummu Kul\u1e61\u016bm binti \u2018Uqbah bin Ab\u012b Mu\u2018ai\u1e6d. Oleh karena itu, dua orang saudara perempuan itu, yang bernama \u2018Amm\u0101r dan al-Wal\u012bd datang kepada Rasulullah dan meminta agar perempuan itu dikembalikan. Maka turunlah ayat ini yang melarang Rasulullah mengembalikannya. Kemudian perempuan itu dikawini oleh Zaid bin \u1e24\u0101ri\u1e61ah.\nDengan tindakan Rasulullah yang tidak mengembalikan Ummu Kul\u1e61\u016bm binti \u2018Uqbah kepada saudaranya, sebagaimana dikisahkan dalam sabab nuzul di atas, menjadi jelas bahwa yang wajib dikembalikan menurut perjanjian itu hanyalah laki-laki, sedangkan perempuan tidak dikembalikan.\nMenurut riwayat lain dari al-Bukh\u0101r\u012b dan Muslim dari Miswan dan Marw\u0101n bin \u1e24akam diterangkan bahwa setelah Rasulullah menandatangani Perjanjian Hudaibiyah dengan orang-orang kafir Mekah, banyaklah perempuan-perempuan mukminat berdatangan dari Mekah ke Medinah. Maka turunlah ayat ini yang memerintahkan agar Rasulullah menguji mereka lebih dahulu dan melarang beliau mengembalikan perempuan-perempuan yang benar-benar beriman ke Mekah.",
        "conclusion": null
    }
}