{
    "id": 5151,
    "surah_id": 60,
    "ayah": 1,
    "page": 549,
    "quarter_hizb": 55.5,
    "juz": 28,
    "manzil": 7,
    "arabic": "\u064a\u0670\u0653\u0627\u064e\u064a\u0651\u064f\u0647\u064e\u0627 \u0627\u0644\u0651\u064e\u0630\u0650\u064a\u0652\u0646\u064e \u0627\u0670\u0645\u064e\u0646\u064f\u0648\u0652\u0627 \u0644\u064e\u0627 \u062a\u064e\u062a\u0651\u064e\u062e\u0650\u0630\u064f\u0648\u0652\u0627 \u0639\u064e\u062f\u064f\u0648\u0651\u0650\u064a\u0652 \u0648\u064e\u0639\u064e\u062f\u064f\u0648\u0651\u064e\u0643\u064f\u0645\u0652 \u0627\u064e\u0648\u0652\u0644\u0650\u064a\u064e\u0627\u06e4\u0621\u064e \u062a\u064f\u0644\u0652\u0642\u064f\u0648\u0652\u0646\u064e \u0627\u0650\u0644\u064e\u064a\u0652\u0647\u0650\u0645\u0652 \u0628\u0650\u0627\u0644\u0652\u0645\u064e\u0648\u064e\u062f\u0651\u064e\u0629\u0650 \u0648\u064e\u0642\u064e\u062f\u0652 \u0643\u064e\u0641\u064e\u0631\u064f\u0648\u0652\u0627 \u0628\u0650\u0645\u064e\u0627 \u062c\u064e\u0627\u06e4\u0621\u064e\u0643\u064f\u0645\u0652 \u0645\u0651\u0650\u0646\u064e \u0627\u0644\u0652\u062d\u064e\u0642\u0651\u0650\u06da  \u064a\u064f\u062e\u0652\u0631\u0650\u062c\u064f\u0648\u0652\u0646\u064e \u0627\u0644\u0631\u0651\u064e\u0633\u064f\u0648\u0652\u0644\u064e \u0648\u064e\u0627\u0650\u064a\u0651\u064e\u0627\u0643\u064f\u0645\u0652 \u0627\u064e\u0646\u0652 \u062a\u064f\u0624\u0652\u0645\u0650\u0646\u064f\u0648\u0652\u0627 \u0628\u0650\u0627\u0644\u0644\u0651\u0670\u0647\u0650 \u0631\u064e\u0628\u0651\u0650\u0643\u064f\u0645\u0652\u06d7 \u0627\u0650\u0646\u0652 \u0643\u064f\u0646\u0652\u062a\u064f\u0645\u0652 \u062e\u064e\u0631\u064e\u062c\u0652\u062a\u064f\u0645\u0652 \u062c\u0650\u0647\u064e\u0627\u062f\u064b\u0627 \u0641\u0650\u064a\u0652 \u0633\u064e\u0628\u0650\u064a\u0652\u0644\u0650\u064a\u0652 \u0648\u064e\u0627\u0628\u0652\u062a\u0650\u063a\u064e\u0627\u06e4\u0621\u064e \u0645\u064e\u0631\u0652\u0636\u064e\u0627\u062a\u0650\u064a\u0652 \u062a\u064f\u0633\u0650\u0631\u0651\u064f\u0648\u0652\u0646\u064e \u0627\u0650\u0644\u064e\u064a\u0652\u0647\u0650\u0645\u0652 \u0628\u0650\u0627\u0644\u0652\u0645\u064e\u0648\u064e\u062f\u0651\u064e\u0629\u0650 \u0648\u064e\u0627\u064e\u0646\u064e\u0627\u06e0 \u0627\u064e\u0639\u0652\u0644\u064e\u0645\u064f \u0628\u0650\u0645\u064e\u0627\u0653 \u0627\u064e\u062e\u0652\u0641\u064e\u064a\u0652\u062a\u064f\u0645\u0652 \u0648\u064e\u0645\u064e\u0627\u0653 \u0627\u064e\u0639\u0652\u0644\u064e\u0646\u0652\u062a\u064f\u0645\u0652\u06d7 \u0648\u064e\u0645\u064e\u0646\u0652 \u064a\u0651\u064e\u0641\u0652\u0639\u064e\u0644\u0652\u0647\u064f \u0645\u0650\u0646\u0652\u0643\u064f\u0645\u0652 \u0641\u064e\u0642\u064e\u062f\u0652 \u0636\u064e\u0644\u0651\u064e \u0633\u064e\u0648\u064e\u0627\u06e4\u0621\u064e \u0627\u0644\u0633\u0651\u064e\u0628\u0650\u064a\u0652\u0644\u0650 ",
    "latin": "Y\u0101 ayyuhal-la\u017c\u012bna \u0101man\u016b l\u0101 tattakhi\u017c\u016b \u2018aduww\u012b wa \u2018aduwwakum auliy\u0101'a tulq\u016bna ilaihim bil-mawaddati wa qad kafar\u016b bim\u0101 j\u0101'akum minal-\u1e25aqq(i), yukhrij\u016bnar-ras\u016bla wa iyy\u0101kum an tu'min\u016b bill\u0101hi rabbikum, in kuntum kharajtum jih\u0101dan f\u012b sab\u012bl\u012b wabtig\u0101'a mar\u1e0d\u0101t\u012b tusirr\u016bna ilaihim bil-mawaddah(ti), wa ana a\u2018lamu bim\u0101 akhfaitum wa m\u0101 a\u2018lantum, wa may yaf\u2018alhu minkum faqad \u1e0dalla saw\u0101'as-sab\u012bl(i).",
    "translation": "Wahai orang-orang yang beriman. Janganlah kamu menjadikan musuh-Ku dan musuhmu sebagai teman setia. Kamu sampaikan kepada mereka (hal-hal yang seharusnya dirahasiakan) karena rasa kasih sayang (kamu kepada mereka). Padahal, mereka telah mengingkari kebenaran yang datang kepadamu. Mereka mengusir Rasul dan kamu (dari Makkah) karena kamu beriman kepada Allah, Tuhanmu. Jika kamu keluar untuk berjihad pada jalan-Ku dan mencari keridaan-Ku, (janganlah kamu berbuat demikian). Kamu memberitahukan secara rahasia (hal-hal yang seharusnya dirahasiakan) kepada mereka karena rasa kasih sayang. Aku lebih tahu tentang apa yang kamu sembunyikan dan apa yang kamu nyatakan. Siapa di antara kamu yang melakukannya sungguh telah tersesat dari jalan yang lurus. ",
    "no_footnote": null,
    "footnotes": null,
    "surah": {
        "id": 60,
        "arabic": " \u0627\u0644\u0645\u0645\u062a\u062d\u0646\u0629",
        "latin": "Al-Mumta\u1e25anah",
        "transliteration": "Al-Mumtahanah",
        "translation": "Wanita Yang Diuji",
        "num_ayah": 13,
        "page": 549,
        "location": "Madaniyah"
    },
    "tafsir": {
        "wajiz": "Wahai orang-orang yang beriman di mana pun dan kapan pun kamu hidup! Janganlah kamu menjadikan musuh-Ku, yaitu mereka yang menolak ajaran-Ku, dan musuhmu yang membenci, menganiaya, berencana membunuh dan mengusir kamu dari tanah kelahiran kamu hanya karena kamu beriman kepada-Ku sebagai teman setia sehingga kamu merasa perlu menyampaikan kepada mereka informasi tentang Nabi Muhammad yang membahayakan Islam dan kaum muslim, karena kasih sayang kamu kepada mereka, padahal mereka telah ingkar kepada kebenaran, menolak beriman kepada Al-Qur\u2019an yang disampaikan kepada kamu melalui Rasulullah. Mereka mengusir Rasul dan kamu sendiri, ketika kamu bersama Rasulullah berada di Mekah sebelum hijrah ke Madinah, tanpa ada alasan apa pun hanya karena kamu beriman kepada Allah, Tuhan kamu, yang memelihara kamu dan seluruh jagat raya. Janganlah kamu berbuat demikan, bersahabat dengan orang-orang kafir dan membocorkan rahasia kepada mereka, jika kamu benar-benar keluar dari kota kelahiran kamu, Mekah dan berhijrah ke Madinah bersama Rasul untuk berjihad pada jalan-Ku guna mengharumkan Islam dan kaum muslim. Kamu benar-benar pengkhianat, karena kamu memberitahukan secara rahasia informasi-informasi tentang Nabi Muhammad kepada mereka, yang membahayakan Islam dan kaum muslim serta keamanan Negara Madinah, karena kecintaan kamu kepada mereka, dan Aku lebih mengetahui apa yang kamu sembunyikan dari Rasul dan kaum muslim dan apa yang kamu nyatakan secara terbuka di hadapan publik. Dan barang siapa di antara kamu, wahai orang-orang beriman, melakukannya, membocorkan rahasia kepada orang-orang kafir, maka sungguh dia telah tersesat dari jalan yang lurus hingga bertobat dan kembali setia kepada ajaran Islam.",
        "tahlili": "Ayat ini memperingatkan kaum Muslimin agar tidak mengadakan hubungan kasih sayang dengan kaum musyrik yang menjadi musuh Allah dan kaum Muslimin. Sebab, dengan adanya hubungan yang demikian itu, tanpa disadari mereka telah membukakan rahasia-rahasia kaum Muslimin, menyampaikan sesuatu yang akan dilaksanakan Rasulullah saw kepada mereka dalam usaha menegakkan kalimat Allah. Oleh karena itu, kaum Muslimin dilarang melakukan yang demikian sekalipun kepada kaum kerabatnya.\nMenjadikan orang-orang kafir yang memusuhi kaum Muslimin sebagai teman setia dan penolong adalah suatu hal yang dilarang. Hal ini tidak boleh dilakukan selama orang-orang kafir itu ingin menghancurkan agama Islam dan kaum Muslimin. \nAllah kemudian menjelaskan penyebab larangan menjadikan orang-orang kafir sebagai teman setia, yaitu:\n1.\tMereka menyangkal dan tidak membenarkan semua yang dibawa Rasulullah. Mereka ingkar kepada Allah, Rasul-Nya, dan Al-Qur\u2019an. Mungkinkah orang yang seperti itu dijadikan penolong-penolong dan teman setia? Kemudian disampaikan kepada mereka rahasia-rahasia yang bermanfaat bagi mereka dan menimbulkan bahaya bagi kaum Muslimin?\n2.\tMereka telah mengusir Rasulullah saw dan orang-orang Muhajirin dari kampung halaman mereka karena beriman kepada Allah, bukan karena sebab yang lain.\n\tAyat ini sama maksudnya dengan firman Allah:\n\u0648\u064e\u0645\u064e\u0627 \u0646\u064e\u0642\u064e\u0645\u064f\u0648\u0652\u0627 \u0645\u0650\u0646\u0652\u0647\u064f\u0645\u0652 \u0627\u0650\u0644\u0651\u064e\u0627\u0653 \u0627\u064e\u0646\u0652 \u064a\u0651\u064f\u0624\u0652\u0645\u0650\u0646\u064f\u0648\u0652\u0627 \u0628\u0650\u0627\u0644\u0644\u0651\u0670\u0647\u0650 \u0627\u0644\u0652\u0639\u064e\u0632\u0650\u064a\u0652\u0632\u0650 \u0627\u0644\u0652\u062d\u064e\u0645\u0650\u064a\u0652\u062f\u0650\u06d9 \u0668\nDan mereka menyiksa orang-orang mukmin itu hanya karena (orang-orang mukmin itu) beriman kepada Allah Yang Mahaperkasa, Maha Terpuji. (al-Bur\u016bj/85: 8)\n \nDan firman Allah:\n\u0627\u0644\u0651\u064e\u0630\u0650\u064a\u0652\u0646\u064e \u0627\u064f\u062e\u0652\u0631\u0650\u062c\u064f\u0648\u0652\u0627 \u0645\u0650\u0646\u0652 \u062f\u0650\u064a\u064e\u0627\u0631\u0650\u0647\u0650\u0645\u0652 \u0628\u0650\u063a\u064e\u064a\u0652\u0631\u0650 \u062d\u064e\u0642\u0651\u064d \u0627\u0650\u0644\u0651\u064e\u0627\u0653 \u0627\u064e\u0646\u0652 \u064a\u0651\u064e\u0642\u064f\u0648\u0652\u0644\u064f\u0648\u0652\u0627 \u0631\u064e\u0628\u0651\u064f\u0646\u064e\u0627 \u0627\u0644\u0644\u0651\u0670\u0647\u064f \u06d7\u0648\u064e\u0644\u064e\u0648\u0652\u0644\u064e\u0627 \u062f\u064e\u0641\u0652\u0639\u064f \u0627\u0644\u0644\u0651\u0670\u0647\u0650 \u0627\u0644\u0646\u0651\u064e\u0627\u0633\u064e \u0628\u064e\u0639\u0652\u0636\u064e\u0647\u064f\u0645\u0652 \u0628\u0650\u0628\u064e\u0639\u0652\u0636\u064d \u0644\u0651\u064e\u0647\u064f\u062f\u0651\u0650\u0645\u064e\u062a\u0652 \u0635\u064e\u0648\u064e\u0627\u0645\u0650\u0639\u064f \u0648\u064e\u0628\u0650\u064a\u064e\u0639\u064c \u0648\u0651\u064e\u0635\u064e\u0644\u064e\u0648\u0670\u062a\u064c \u0648\u0651\u064e\u0645\u064e\u0633\u0670\u062c\u0650\u062f\u064f \u064a\u064f\u0630\u0652\u0643\u064e\u0631\u064f \u0641\u0650\u064a\u0652\u0647\u064e\u0627 \u0627\u0633\u0652\u0645\u064f \u0627\u0644\u0644\u0651\u0670\u0647\u0650 \u0643\u064e\u062b\u0650\u064a\u0652\u0631\u064b\u0627\u06d7 \u0648\u064e\u0644\u064e\u064a\u064e\u0646\u0652\u0635\u064f\u0631\u064e\u0646\u0651\u064e \u0627\u0644\u0644\u0651\u0670\u0647\u064f \u0645\u064e\u0646\u0652 \u064a\u0651\u064e\u0646\u0652\u0635\u064f\u0631\u064f\u0647\u0657\u06d7 \u0627\u0650\u0646\u0651\u064e \u0627\u0644\u0644\u0651\u0670\u0647\u064e \u0644\u064e\u0642\u064e\u0648\u0650\u064a\u0651\u064c \u0639\u064e\u0632\u0650\u064a\u0652\u0632\u064c \u0664\u0660\n(Yaitu) orang-orang yang diusir dari kampung halamannya tanpa alasan yang benar, hanya karena mereka berkata, \u201cTuhan kami ialah Allah.\u201d Seandainya Allah tidak menolak (keganasan) sebagian manusia dengan sebagian yang lain, tentu telah dirobohkan biara-biara Nasrani, gereja-gereja, rumah-rumah ibadah orang Yahudi dan masjid-masjid, yang di dalamnya banyak disebut nama Allah. Allah pasti akan menolong orang yang menolong (agama)-Nya. Sungguh, Allah Mahakuat, Mahaperkasa. (al-\u1e24ajj/22: 40)\n\nAllah memperingatkan kaum Muslimin bahwa jika mereka keluar dari kampung halaman atau terusir karena berjihad di jalan Allah dan mencari keridaan-Nya, maka janganlah sekali-kali menjadikan orang-orang kafir itu sebagai teman setia dan penolong-penolong mereka. Cukuplah kaum Muslimin menderita akibat tindakan-tindakan mereka, dan jangan sekali-kali memberi kesempatan kepada mereka menambah penderitaan kaum Muslimin. Bagaimana mungkin ada di antara kaum Muslimin melakukan seperti yang dilakukan \u1e24\u0101\u1e6dib yang menyampaikan kepada orang-orang kafir langkah-langkah yang akan diambil Rasulullah dalam menghadapi orang-orang kafir?\nAllah Mahatahu segala yang dilakukan hamba-hamba-Nya. Oleh karena itu, Dia menyampaikan hal tersebut kepada Rasulullah, sehingga beliau segera dapat mengambil tindakan. Dengan demikian, kaum Muslimin tidak dirugikan.\nPada akhir ayat ini ditegaskan bahwa barang siapa yang berkasih-kasihan dengan musuh Islam dan menjadikan mereka penolong-penolong, berarti ia telah menyimpang dari jalan yang lurus.",
        "intro_surah": "Surah al-Mumta\u1e25anah terdiri dari 13 ayat, termasuk kelompok surah Madaniyyah, diturunkan sesudah Surah al-A\u1e25z\u0101b.\nNama al-Mumta\u1e25anah (perempuan yang diuji) diambil dari kata \u201cfamta\u1e25in\u016bhunna\u201d yang berarti \u201cmaka ujilah mereka\u201d, yang terdapat pada ayat 10 surah ini.\n\nPokok-pokok Isinya:\n1.\tHukum-hukum:\nLarangan mengadakan hubungan persahabatan dengan orang-orang kafir yang memusuhi Islam, sedang dengan orang-orang kafir yang tidak memusuhi Islam diperbolehkan; hukum perkawinan bagi orang yang pindah agama.\n2.\tKisah-kisah:\nKisah Nabi Ibrahim bersama kaumnya sebagai contoh dan teladan bagi orang-orang mukmin.",
        "outro_surah": null,
        "munasabah_prev_surah": "Dalam Surah al-\u1e24asyr disebutkan bagaimana orang-orang munafik saling menolong dengan orang-orang Yahudi dalam memusuhi kaum Muslimin, sedang dalam Surah al-Mumta\u1e25anah, Allah melarang orang Muslim mengangkat orang-orang kafir menjadi pimpinan atau menjadikan mereka teman setia. Namun demikian, dibolehkan bekerja sama dan tolong-menolong dengan mereka selama tidak memusuhi kaum Muslimin.",
        "munasabah_prev_theme": "Pada akhir Surah al-\u1e24asyr Allah menjelaskan sifat-sifat dan kekuasaannya, sehingga semua makhluk bertasbih kepada-Nya. Pada ayat-ayat berikutnya Allah swt melarang orang-orang yang beriman menjadikan musuh-musuh Allah dan Rasul-Nya sebagai pemimpin yang mengurus urusan mereka, karena akan menjadikan mereka orang-orang yang sesat.",
        "theme_group": "LARANGAN MENJADIKAN MUSUH TEMAN AKRAB",
        "kosakata": "Kosakata: \n1.\tMar\u1e0d\u0101t\u012b \u0645\u064e\u0631\u0652\u0636\u064e\u0627\u062a\u0650\u0649 (al-Mumta\u1e25anah/60: 1)\nKata mar\u1e0d\u0101t\u012b adalah isim ma\u1e63dar yang berasal dari kata ra\u1e0diya-yar\u1e0d\u0101 yang berarti merasa rela, senang, puas, dan setuju. Ra\u1e0diyall\u0101hu \u2018anhu artinya semoga Allah meridainya dengan memberikan rahmat padanya. Ra\u1e0diya juga berarti memandang baik dan membenarkan sesuatu. Kata ini sudah menjadi bahasa Indonesia yaitu rida. Antonimnya adalah as-sakha\u1e6d yang berarti benci atau kemurkaan. Rida dari seorang hamba kepada Allah adalah dengan mendapatkan kepuasan terhadap ketentuan yang telah ditetapkan-Nya, sedangkan rida Allah kepada hamba-Nya adalah hamba tersebut menjalankan segala perintah-Nya dan menjauhi larangan-Nya. Allah akan rida jika melihat hamba-Nya taat dan patuh pada-Nya. Ra\u1e0diyall\u0101hu \u2018anhum wa ra\u1e0d\u016b \u2018anhu (al-M\u0101\u2019idah/5: 119) artinya Allah merasa rida dengan perbuatan-perbuatan mereka dan mereka pun merasa puas terhadap nikmat yang telah dicurahkan Allah kepada mereka. \nAyat ini menjelaskan larangan agar orang-orang beriman tidak menjadikan musuhnya dan musuh Allah sebagai teman akrab hanya karena rasa kasih dan sayang mereka terhadap saudara-saudaranya. Ayat ini diturunkan berkaitan dengan seorang sahabat di Medinah yang menulis surat kepada saudaranya yang kafir untuk memberitahukan perihal akan datangnya Rasulullah ke Mekah. Allah mengingatkan bahwa walaupun dalam hati seorang Mukmin ada rasa sayang terhadap saudaranya yang kafir, tetapi hal tersebut tidak menjadikannya sebagai teman setia (auliy\u0101\u2019). Karena orang-orang kafir sebenarnya telah berbuat ingkar kepada kebenaran yang dibawa Muhammad dengan mengusirnya beserta orang-orang beriman. Janganlah hal tersebut (menjadikan teman setia) dilakukan, jika kamu benar-benar keluar untuk berjihad di jalan-Nya dan mencari keridaan-Nya. \n2.\tYa\u1e61qaf\u016bkum \u064a\u064e\u062b\u0652\u0642\u064e\u0641\u064f\u0648\u0652\u0643\u064f\u0645\u0652 (al-Mumta\u1e25anah/60: 2)\n\tLafal Ya\u1e61qaf\u016bkum adalah bentuk fi\u2018il mu\u1e0d\u0101ri\u2018 (kata kerja yang menunjukkan masa kini dan masa mendatang) yang dihubungkan dengan kata ganti orang kedua (kum) yang berasal dari kata \u1e61aqifa-ya\u1e61qafu yang berarti pintar dalam menangkap dan mengerjakan sesuatu. Rajul \u1e61aqif artinya seseorang yang pandai memahami sesuatu. \u1e60aqiftu ka\u017c\u0101 artinya aku mendapatkannya setelah merenungi. \u1e60aq\u0101fah artinya kebudayaan yang menunjukkan kepada kepintaran suatu kaum. Tetapi kemudian lafal ini digunakan pada idr\u0101k (penemuan) walaupun tidak ada padanya kemahiran tersebut. \u1e60aqafa disini berarti menangkap dan menemukannya. Waqtul\u016bhum hai\u1e61u \u1e61aqiftum\u016bhum (dan bunuhlah mereka dimanapun kalian menemukannya). A\u1e61-\u1e60aq\u0101f berarti besi atau kayu yang dibuat kampak atau tombak sebagai alat berperang. \nDalam ayat ini Allah menjelaskan tentang alasan jangan menjadikan orang-orang kafir sebagai teman setia yaitu bahwa perlakuan mereka tidak akan sama dengan perlakuan orang-orang beriman kepada mereka. Jika orang-orang kafir menangkap orang Mukmin, pasti mereka akan menjadikanmu sebagai musuh dan menyakitimu sampai kamu kembali ke dalam agama mereka.",
        "sabab_nuzul": "Diriwayatkan oleh al-Bukh\u0101r\u012b, Muslim, dan ulama yang lain bahwa telah datang ke Medinah seorang perempuan dari Mekah bernama S\u0101rrah untuk suatu keperluan. Waktu itu orang-orang musyrik Mekah baru saja melanggar perjanjian Hudaibiyah, suatu perjanjian damai yang dibuat Rasulullah dengan mereka. Rasulullah saw sedang mempertimbangkan batas waktu tertentu untuk berpikir bagi orang-orang musyrik Mekah. Rasulullah bermaksud jika batas waktu yang ditentukan habis dan orang-orang musyrik tetap pada sikap mereka semula, maka beliau bermaksud menyerang kota Mekah.\nS\u0101rrah diperintahkan Rasulullah tinggal bersama keluarga Bani Abdul Mu\u1e6dallib. Rasulullah mengharapkan agar mereka memberi nafkah, pakaian, dan tempat tinggal bagi S\u0101rrah. Setelah beberapa lama tinggal di Medinah, maka S\u0101rrah bermaksud kembali ke Mekah. Lalu \u1e24\u0101\u1e6dib bin Ab\u012b Balta\u2018ah, seorang sahabat Rasulullah yang ikut Perang Badar, menemui S\u0101rrah untuk mengirimkan sepucuk surat kepada keluarganya yang masih tinggal di Mekah. Dalam surat itu, \u1e24\u0101\u1e6dib menerangkan kepada keluarganya bahwa Rasulullah akan mengambil tindakan terhadap musyrik Mekah, setelah habis masa yang ditentukan itu.\nKejadian itu disampaikan Jibril kepada Rasulullah. Maka beliau pun menyuruh \u2018Ali bin Ab\u012b \u1e6c\u0101lib, \u2018Amm\u0101r, \u1e6cal\u1e25ah, Zubair, Miqd\u0101d, dan Ab\u016b Mar\u1e61id menyusul S\u0101rrah dan mengambil surat yang dikirimkan \u1e24\u0101\u1e6dib. Semua sahabat yang disuruh Rasulullah itu adalah dari pasukan berkuda. Nabi berkata kepada mereka, \u201cSegeralah pergi ke Khakh (suatu lembah yang terletak antara Mekah dengan Medinah), di sana ada seorang perempuan dalam usungan. Dia membawa surat untuk penduduk Mekah. Maka ambillah surat itu dari dia, dan biarkan dia pergi ke Mekah.\u201d\nMaka para sahabat itu memacu kudanya hingga sampai ke tempat perempuan itu dan meminta suratnya. Mula-mula ia enggan memberikan. Setelah didesak dengan keras, barulah ia memberikan surat itu. Setelah para sahabat kembali, maka \u1e24\u0101\u1e6dib dipanggil oleh Rasulullah saw dan menanyakan sebab ia menulis surat itu. \u1e24\u0101\u1e6dib menerangkan bahwa ia bermaksud untuk melindungi keluarganya yang ada di Mekah, seandainya kaum Muslimin memasuki kota itu nanti, bukan bermaksud untuk membukakan rahasia kepada kaum musyrikin. Rasulullah saw dapat membenarkan alasan \u1e24\u0101\u1e6dib, tetapi \u2018Umar bin Kha\u1e6d\u1e6d\u0101b berkata, \u201cYa Rasulullah, serahkanlah orang munafik itu agar aku pancung lehernya.\u201d Rasulullah berkata, \u201c\u1e24\u0101\u1e6dib adalah sahabat yang ikut Perang Badar.\u201d",
        "conclusion": null
    }
}