{
    "id": 5174,
    "surah_id": 61,
    "ayah": 11,
    "page": 552,
    "quarter_hizb": 55.75,
    "juz": 28,
    "manzil": 7,
    "arabic": "\u062a\u064f\u0624\u0652\u0645\u0650\u0646\u064f\u0648\u0652\u0646\u064e \u0628\u0650\u0627\u0644\u0644\u0651\u0670\u0647\u0650 \u0648\u064e\u0631\u064e\u0633\u064f\u0648\u0652\u0644\u0650\u0647\u0656 \u0648\u064e\u062a\u064f\u062c\u064e\u0627\u0647\u0650\u062f\u064f\u0648\u0652\u0646\u064e \u0641\u0650\u064a\u0652 \u0633\u064e\u0628\u0650\u064a\u0652\u0644\u0650 \u0627\u0644\u0644\u0651\u0670\u0647\u0650 \u0628\u0650\u0627\u064e\u0645\u0652\u0648\u064e\u0627\u0644\u0650\u0643\u064f\u0645\u0652 \u0648\u064e\u0627\u064e\u0646\u0652\u0641\u064f\u0633\u0650\u0643\u064f\u0645\u0652\u06d7 \u0630\u0670\u0644\u0650\u0643\u064f\u0645\u0652 \u062e\u064e\u064a\u0652\u0631\u064c \u0644\u0651\u064e\u0643\u064f\u0645\u0652 \u0627\u0650\u0646\u0652 \u0643\u064f\u0646\u0652\u062a\u064f\u0645\u0652 \u062a\u064e\u0639\u0652\u0644\u064e\u0645\u064f\u0648\u0652\u0646\u064e\u06d9 ",
    "latin": "Tu'min\u016bna bill\u0101hi wa ras\u016blih\u012b wa tuj\u0101hid\u016bna f\u012b sab\u012blill\u0101hi bi'amw\u0101likum wa anfusikum, \u017c\u0101likum khairul lakum in kuntum ta\u2018lam\u016bn(a).",
    "translation": "(Caranya) kamu beriman kepada Allah dan Rasul-Nya dan berjihad di jalan Allah dengan harta dan jiwamu. Yang demikian itu lebih baik bagimu jika kamu mengetahui.",
    "no_footnote": null,
    "footnotes": null,
    "surah": {
        "id": 61,
        "arabic": " \u0627\u0644\u0635\u0651\u0641\u0651",
        "latin": "A\u1e63-\u1e62aff",
        "transliteration": "As-Saff",
        "translation": "Barisan",
        "num_ayah": 14,
        "page": 551,
        "location": "Madaniyah"
    },
    "tafsir": {
        "wajiz": "Bisnis yang menyelamatkan manusia dari azab itu adalah kamu beriman kepada Allah dan Rasul-Nya dengan mantap dan kokoh dan berjihad di jalan Allah, yaitu berusaha sekuat tenaga untuk mengharumkan Islam dan kaum muslim, serta membela hak, martabat dan kehormatan kaum muslim dari serangan musuh-musuh Islam dengan harta dan jiwa kamu hingga kamu mati syahid. Itulah yang lebih baik bagi kamu, dalam berbisnis dengan Allah, jika kamu mengetahui, kebaikan dan keuntungan beriman dan berjihad dengan benar.",
        "tahlili": "Dalam ayat ini Allah memerintahkan kaum Muslimin agar melakukan amal saleh dengan mengatakan, \u201cWahai orang-orang yang beriman kepada Allah dan rasul -Nya, apakah kamu sekalian mau Aku tunjukkan suatu perniagaan yang bermanfaat dan pasti mendatangkan keuntungan yang berlipat ganda dan keberuntungan yang kekal atau melepaskan kamu dari api neraka.\u201d\nUngkapan ayat di atas memberikan pengertian bahwa amal saleh dengan pahala yang besar, sama hebatnya dengan perniagaan yang tak pernah merugi karena ia akan masuk surga dan selamat dari api neraka. Firman Allah:\n\u0627\u0650\u0646\u0651\u064e \u0627\u0644\u0644\u0651\u0670\u0647\u064e \u0627\u0634\u0652\u062a\u064e\u0631\u0670\u0649 \u0645\u0650\u0646\u064e \u0627\u0644\u0652\u0645\u064f\u0624\u0652\u0645\u0650\u0646\u0650\u064a\u0652\u0646\u064e \u0627\u064e\u0646\u0652\u0641\u064f\u0633\u064e\u0647\u064f\u0645\u0652 \u0648\u064e\u0627\u064e\u0645\u0652\u0648\u064e\u0627\u0644\u064e\u0647\u064f\u0645\u0652 \u0628\u0650\u0627\u064e\u0646\u0651\u064e \u0644\u064e\u0647\u064f\u0645\u064f \u0627\u0644\u0652\u062c\u064e\u0646\u0651\u064e\u0629\u064e\nSesungguhnya Allah membeli dari orang-orang mukmin, baik diri maupun harta mereka dengan memberikan surga untuk mereka. (at-Taubah/9: 111)\n\nKemudian disebutkan bentuk-bentuk perdagangan yang memberikan keuntungan yang besar itu, yaitu:\n1.\tSenantiasa beriman kepada Allah, para malaikat, kitab-kitab-Nya, rasul-rasul-Nya, adanya hari Kiamat, qa\u1e0d\u0101\u2018 dan qadar Allah.\n2.\tMengerjakan amal saleh semata-mata karena Allah bukan karena ria adalah perwujudan iman seseorang.\n3.\tBerjihad di jalan Allah. Berjihad ialah segala macam upaya dan usaha yang dilakukan untuk menegakkan agama Allah. Ada dua macam jihad yang disebut dalam ayat ini yaitu berjihad dengan jiwa raga dan berjihad dengan harta. Berjihad dengan jiwa dan raga ialah berperang melawan musuh-musuh agama yang menginginkan kehancuran Islam dan kaum Muslimin. Berjihad dengan harta yaitu membelanjakan harta benda untuk menegakkan kalimat Allah, seperti untuk biaya berperang, mendirikan masjid, rumah ibadah, sekolah, rumah sakit, dan kepentingan umum lainnya.\nDi samping itu, ada bentuk-bentuk jihad yang lain, yaitu jihad menentang hawa nafsu, mengendalikan diri, berusaha membentuk budi pekerti yang baik pada diri sendiri, menghilangkan rasa iri, dan sebagainya. \nPada akhir ayat ini ditegaskan bahwa iman dan jihad itu adalah perbuatan yang paling baik akibatnya, baik untuk diri sendiri, anak-anak, keluarga, harta benda, dan masyarakat, jika manusia itu memahami dengan sebenar-benarnya.",
        "intro_surah": "Surah a\u1e63-\u1e62aff terdiri dari 14 ayat, termasuk kelompok surah Madaniyyah. Dinamai a\u1e63-\u1e62aff (Barisan), karena pada ayat 4 surah ini terdapat kata \u1e63affan yang berarti \u201cbarisan\u201d. Ayat ini menerangkan apa yang diridai Allah sesudah menerangkan apa yang dimurkai-Nya. Pada ayat 3 diterangkan bahwa Allah murka kepada orang yang hanya pandai berkata saja tetapi tidak melaksanakan apa yang diucapkannya. Dan pada ayat 4 diterangkan bahwa Allah menyukai orang yang mempraktekkan apa yang diucapkan yaitu orang-orang yang berperang pada jalan Allah dalam satu barisan.\n\nPokok-pokok Isinya:\nSemua yang ada di langit dan di bumi bertasbih kepada Allah; anjuran berjihad di jalan Allah; pengikut-pengikut Nabi Musa dan Isa pernah mengingkari ajaran-ajaran nabi mereka. Demikian pula kaum musyrikin Mekah hendak memadamkan cahaya Allah (agama Islam). Ampunan Allah dan surga dapat dicapai dengan iman dan perjuangan menegakkan kalimat Allah dengan harta dan jiwa.",
        "outro_surah": null,
        "munasabah_prev_surah": "Pada Surah al-Mumta\u1e25anah, Allah melarang orang-orang Muslim mengadakan hubungan akrab dengan orang-orang kafir yang memusuhi dan memerangi mereka, sedangkan Surah a\u1e63-\u1e62aff memperkuatnya dengan menganjurkan agar berjihad di jalan Allah.",
        "munasabah_prev_theme": "Pada ayat-ayat yang lalu diterangkan bahwa Allah mengutus Nabi Muhammad saw kepada seluruh manusia dengan membawa petunjuk dan agama yang benar guna menggantikan agama-agama lain yang telah menyimpang. Pada ayat-ayat berikut ini dijelaskan bahwa beriman kepada Allah dan rasul-Nya, serta berjihad di jalan-Nya, baik dengan harta maupun jiwa dan raga, bagaikan sebuah perniagaan yang tidak pernah merugi.",
        "theme_group": "PERNIAGAAN YANG MENGUNTUNGKAN",
        "kosakata": "Kosakata: \t\n1.\tTunj\u012bkum \u062a\u064f\u0646\u0652\u062c\u0650\u064a\u0652\u0643\u064f\u0645\u0652 (a\u1e63-\u1e62aff/61: 10)\nKata tunj\u012b adalah fi\u2018il mu\u1e0d\u0101ri\u2018 dari kata anj\u0101-yunj\u012b-inj\u0101\u2019an yang berarti menyelamatkan. Ia berasal dari kata naj\u0101-yanj\u0101-naj\u0101tan yang berarti terbebas dari sesuatu. Darinya diambil kata najwah yang berarti tempat tinggi yang diduga memberi keselamatan. Darinya diambil kata an-najiyyah yang berarti unta cepat yang bisa menyelamatkan penunggangnya. Kata naj\u0101 juga berarti berbicara secara berbisik-bisik, sebagaimana disebutkan dalam Al-Qur\u2019an dalam bentuk najiyyan, \u201cMaka ketika mereka berputus asa darinya (putusan Yusuf), mereka menyendiri (sambil berunding) dengan berbisik-bisik.\u201d (Y\u016bsuf/12: 80) Juga seperti dalam firman Allah, \u201cWahai orang-orang beriman, apabila kamu mengadakan pembicaraan khusus dengan Rasul hendaklah kamu mengeluarkan sedekah (kepada orang miskin) sebelum (melakukan) pembicaraan itu.\u201d (al-Muj\u0101dalah/58: 12) Dan yang dimaksud dengan kata tunj\u012bkum di sini adalah menyelamatkan kalian. \n\n2.\tAn\u1e63\u0101rull\u0101h \u0627\u064e\u0646\u0652\u0635\u064e\u0627\u0631\u064f \u0627\u0644\u0644\u0651\u0670\u0647\u0650 (a\u1e63-\u1e62aff/61: 14) \nKata an\u1e63\u0101r adalah jamak dari kata n\u0101\u1e63ir, isim f\u0101\u2018il dari kata na\u1e63ara-yan\u1e63uru-na\u1e63ran yang berarti menolong. Di dalam sebuah hadis disebutkan, \u201cTolonglah saudaramu, baik dalam keadaan menzalimi atau dizalimi.\u201d Maksudnya, mencegahnya untuk berbuat zalim bila Anda menjumpainya dalam keadaan zalim, atau menolongnya dari orang yang menzalimi bila Anda menjumpainya dalam keadaan terzalimi. Kata an\u1e63\u0101r juga berarti para sahabat Nabi saw yang memberi pertolongan kepada beliau saat hijrah. Tadinya nama ini hanyalah sebatas sifat, lalu ia menjadi sebutan atau gelar karena terbiasa digunakan. Darinya diambil kata tan\u0101\u1e63ara yang berarti saling mendukung, sebagaimana kalimat tan\u0101\u1e63aral-akhb\u0101r yang berarti berita-berita itu sebagiannya membenarkan sebagian yang lain. Di dalam ayat yang sedang ditafsirkan ini, Allah memerintahkan kita untuk menjadi penolong-penolong-Nya. Ungkapan ini merupakan penghormatan Allah kepada para hamba-Nya yang beriman, karena tidak ada maq\u0101m (kedudukan) yang lebih tinggi daripada maq\u0101m penolong Allah, meskipun pada hakikatnya Allah tidak membutuhkan pertolongan kita. ",
        "sabab_nuzul": null,
        "conclusion": null
    }
}