{
    "id": 5234,
    "surah_id": 66,
    "ayah": 5,
    "page": 560,
    "quarter_hizb": 56.75,
    "juz": 28,
    "manzil": 7,
    "arabic": "\u0639\u064e\u0633\u0670\u0649 \u0631\u064e\u0628\u0651\u064f\u0647\u0657\u0653 \u0627\u0650\u0646\u0652 \u0637\u064e\u0644\u0651\u064e\u0642\u064e\u0643\u064f\u0646\u0651\u064e \u0627\u064e\u0646\u0652 \u064a\u0651\u064f\u0628\u0652\u062f\u0650\u0644\u064e\u0647\u0657\u0653 \u0627\u064e\u0632\u0652\u0648\u064e\u0627\u062c\u064b\u0627 \u062e\u064e\u064a\u0652\u0631\u064b\u0627 \u0645\u0651\u0650\u0646\u0652\u0643\u064f\u0646\u0651\u064e \u0645\u064f\u0633\u0652\u0644\u0650\u0645\u0670\u062a\u064d \u0645\u0651\u064f\u0624\u0652\u0645\u0650\u0646\u0670\u062a\u064d \u0642\u0670\u0646\u0650\u062a\u0670\u062a\u064d \u062a\u0670\u06e4\u0649\u0655\u0650\u0628\u0670\u062a\u064d \u0639\u0670\u0628\u0650\u062f\u0670\u062a\u064d \u0633\u0670\u06e4\u0649\u0655\u0650\u062d\u0670\u062a\u064d \u062b\u064e\u064a\u0651\u0650\u0628\u0670\u062a\u064d \u0648\u0651\u064e\u0627\u064e\u0628\u0652\u0643\u064e\u0627\u0631\u064b\u0627 ",
    "latin": "\u2018As\u0101 rabbuh\u016b in \u1e6dallaqakunna ay yubdilah\u016b azw\u0101jan khairam minkunna muslim\u0101tim mu'min\u0101tin q\u0101nit\u0101tin t\u0101'ib\u0101tin \u2018\u0101bid\u0101tin s\u0101'i\u1e25\u0101tin \u1e61ayyib\u0101tiw wa abk\u0101r\u0101(n).",
    "translation": "Jika dia (Nabi) menceraikan kamu, boleh jadi Tuhannya akan memberi ganti kepadanya istri-istri yang lebih baik daripada kamu, yang berserah diri, yang beriman, yang taat, yang bertobat, yang beribadah, dan yang berpuasa, baik yang janda maupun yang perawan.",
    "no_footnote": null,
    "footnotes": null,
    "surah": {
        "id": 66,
        "arabic": "\u0627\u0644\u062a\u0651\u062d\u0631\u064a\u0645",
        "latin": "At-ta\u1e25r\u012bm",
        "transliteration": "At-tahrim",
        "translation": "Pengharaman",
        "num_ayah": 12,
        "page": 560,
        "location": "Madaniyah"
    },
    "tafsir": {
        "wajiz": "Allah lalu menyampaikan peringatan kepada para istri Nabi. Jika dia, yakni Nabi, menceraikan kamu, karena kamu bersikap keras dan menyakiti beliau, boleh jadi Tuhannya, yaitu Allah akan memberi ganti kepadanya dengan istri-istri yang lebih baik dari kamu segala-galanya, karena Allah melindungi dan menyayangi beliau. Allah bisa mengganti dengan perempuan-perempuan yang patuh kepada Allah, yang beriman, yang taat kepada suami, yang bertobat setiap saat, yang beribadah dengan ikhlas, yang berpuasa dan berhasil mengendalikan ucapan dan perbuatan, yang janda dan yang perawan, keduanya mudah bagi Nabi.",
        "tahlili": "Diriwayatkan oleh Anas dari \u2018Umar bahwa ia berkata, \u201cTelah sampai kepadaku bahwa sebagian istri-istri Nabi bersikap keras kepada Nabi dan menyakiti hati beliau. Maka saya selidiki hal itu. Saya menasihatinya satu-persatu dan melarangnya menyakiti hati Nabi saw, saya berkata, \u2018Jika kalian tetap tidak mau taat maka boleh jadi Allah memberikan kepada Nabi, istri-istri baru yang lebih baik dari kalian.\u2019 Dan setelah saya menemui Zainab, ia berkata, \u2018Wahai Ibnu Kha\u1e6d\u1e6d\u0101b! Apakah tidak ada usaha Rasulullah untuk menasihati istri-istrinya? Maka nasihatilah mereka sampai mereka itu tidak diceraikan,\u2019 maka turunlah ayat ini.\u201d\nAyat ini berisi peringatan dari Allah terhadap istri-istri yang menyakiti hati Nabi saw. Jika Nabi menceraikan mereka, boleh jadi Allah menggantinya dengan istri-istri baru yang lebih baik dari mereka, baik keislaman maupun keimanannya, yaitu istri-istri yang tekun beribadah, bertobat kepada Allah, patuh kepada perintah-perintah Rasul.",
        "intro_surah": "Surah ini terdiri dari 12 ayat, termasuk kelompok surah Madaniyyah, diturunkan sesudah Surah al-\u1e24ujur\u0101t. Dinamai Surah at-Ta\u1e25r\u012bm karena pada awal surah ini terdapat kata tu\u1e25arrimu yang kata asalnya adalah at-ta\u1e25r\u012bm yang berarti \u201cpengharaman.\u201d\n\nPokok-pokok Isinya:\n1. \tKeimanan:\nKesempatan bertobat hanyalah di dunia. Segala amal perbuatan manusia di dunia akan dibalas di akhirat.\n2. \tHukum-hukum:\nLarangan mengharamkan apa yang dibolehkan Allah; kewajiban mem-bebaskan diri dari sumpah yang diucapkan untuk mengharamkan yang halal dengan membayar kafarat; kewajiban memelihara diri dan keluarga dari api neraka; perintah memerangi orang-orang kafir dan munafik dan berlaku keras terhadap mereka di waktu perang.\n3. \tLain-lain:\nIman dan perbuatan baik atau buruk seseorang tidak tergantung kepada iman dan perbuatan orang lain walaupun antara suami istri seperti istri Nabi Lut, istri Fir\u2018aun, dan Maryam.",
        "outro_surah": null,
        "munasabah_prev_surah": "1. \tDi dalam Surah a\u1e6d-\u1e6cal\u0101q disebutkan bagaimana seharusnya bergaul dan bertindak terhadap istri, sedang dalam Surah at-Ta\u1e25r\u012bm diterangkan beberapa hal yang terjadi antara Nabi Muhammad dengan para istrinya dan bagaimana tindakan Nabi menghadapi hal itu agar menjadi pelajaran bagi umatnya dalam pergaulan keluarga.\n2. \tKeduanya sama-sama dimulai dengan seruan Allah kepada Nabi Muhammad tentang hal-hal yang berhubungan dengan kehidupan keluarga.",
        "munasabah_prev_theme": "Pada ayat terakhir dari surah yang lalu, Allah menerangkan kekuasaan dan pengetahuan-Nya yang luas dan mencakup segala sesuatu, termasuk yang berkaitan dengan kehidupan manusia. Pada ayat-ayat berikut ini dijelaskan tentang berbagai tuntunan dalam kehidupan manusia, khususnya dalam rumah tangga.",
        "theme_group": "TUNTUNAN TENTANG\nKEHIDUPAN RUMAH TANGGA",
        "kosakata": "Kosakata: \n1.\tLima Tu\u1e25arrimu \u0644\u0650\u0645\u064e \u062a\u064f\u062d\u064e\u0640\u0631\u0650\u0651\u0645\u064f (at-Ta\u1e25r\u012bm/66: 1)\nSecara kebahasaan kata lima tu\u1e25arrimu terdiri dari dua suku kata, yaitu kata lima yang merupakan kata tanya yang berarti mengapa, dan kata tu\u1e25arrimu yang berarti engkau mengharamkan. Dalam konteks ayat ini, kata lima tu\u1e25arrimu bermakna sebuah pertanyaan Allah kepada nabi-Nya, \u201cMengapa engkau mengharamkan apa yang dihalalkan Allah bagimu?\u201d\n2.\tTa\u1e25illah Aim\u0101nikum \u062a\u064e\u062d\u0650\u0644\u0651\u064e\u0629\u064e \u0627\u064e\u064a\u0652\u0645\u064e\u0627\u0646\u0650\u0643\u064f\u0645\u0652 (at-Ta\u1e25r\u012bm/66: 2)\nSecara kebahasaan kata ta\u1e25illah aim\u0101nikum terdiri dari dua suku kata, yaitu kata ta\u1e25illah yang berarti sesuatu sebagai penebus sumpah, dan kata aim\u0101nikum yang berarti sumpah-sumpah kalian. Dengan demikian, dalam konteks ayat ini kata ta\u1e25illah aim\u0101nikum bermakna bahwa Allah telah mewajibkan kepada kalian membebaskan diri dari sumpah.",
        "sabab_nuzul": null,
        "conclusion": "1.\tNabi saw mendapat teguran dari Allah, ketika bersumpah tidak akan minum madu lagi. Padahal madu itu adalah minuman yang halal. \n2.\tAllah telah mewajibkan kepada seseorang untuk membebaskan dirinya dari sumpah bila hal itu bersifat menghalalkan yang haram dan mengharamkan yang halal, dengan membayar kafarat. Allah Maha Mengetahui lagi Mahabijaksana.\n3.\tNabi saw meminta kepada Haf\u1e63ah agar perbuatannya dirahasiakan dan jangan diberitahukan kepada siapa pun. Akan tetapi, Haf\u1e63ah memberi-tahukannya kepada \u2018Aisyah. Allah pun memberitahukan perbuatan Haf\u1e63ah itu kepada Nabi.\n4.\tSetelah Nabi memberitahu Haf\u1e63ah tentang perbuatannya, Haf\u1e63ah bertanya siapakah yang memberitahu beliau. Nabi menjawab bahwa Allah Yang Maha Mengetahui yang memberitahunya.\n5.\tJika Haf\u1e63ah dan \u2018Aisyah mau bertobat kepada Allah, berarti mereka cenderung untuk menerima kebaikan. Akan tetapi, kalau keduanya tetap menyakiti hati Nabi, maka Allah menjadi pelindung Nabi. Jibril, orang-orang mukmin yang saleh, dan para malaikat juga turut menolong dan membantunya.\n6.\tHaf\u1e63ah dan \u2018Aisyah diancam bahwa apabila mereka tetap menyakiti hati Nabi, sehingga beliau menceraikan mereka, maka Allah akan mengganti mereka dengan istri-istri yang lebih baik, patuh, beriman, tekun beribadah, bertobat, dan berpuasa, baik janda maupun perawan.\n7.\tMakanan yang halal adalah yang dihalalkan Allah, dan makanan yang haram adalah yang diharamkan Allah. "
    }
}