{
    "id": 5251,
    "surah_id": 67,
    "ayah": 10,
    "page": 562,
    "quarter_hizb": 57,
    "juz": 29,
    "manzil": 7,
    "arabic": "\u0648\u064e\u0642\u064e\u0627\u0644\u064f\u0648\u0652\u0627 \u0644\u064e\u0648\u0652 \u0643\u064f\u0646\u0651\u064e\u0627 \u0646\u064e\u0633\u0652\u0645\u064e\u0639\u064f \u0627\u064e\u0648\u0652 \u0646\u064e\u0639\u0652\u0642\u0650\u0644\u064f \u0645\u064e\u0627 \u0643\u064f\u0646\u0651\u064e\u0627 \u0641\u0650\u064a\u0652\u0653 \u0627\u064e\u0635\u0652\u062d\u0670\u0628\u0650 \u0627\u0644\u0633\u0651\u064e\u0639\u0650\u064a\u0652\u0631\u0650",
    "latin": "Wa q\u0101l\u016b lau kunn\u0101 nasma\u2018u au na\u2018qilu m\u0101 kunn\u0101 f\u012b a\u1e63\u1e25\u0101bis-sa\u2018\u012br(i).",
    "translation": "Mereka juga berkata, \u201cAndaikan dahulu kami mendengarkan atau memikirkan (peringatan itu), tentulah kami tidak termasuk ke dalam (golongan) para penghuni (neraka) Sa\u2018ir (yang menyala-nyala).\u201d",
    "no_footnote": null,
    "footnotes": null,
    "surah": {
        "id": 67,
        "arabic": "\u0627\u0644\u0645\u064f\u0644\u0643",
        "latin": "Al-Mulk",
        "transliteration": "Al-Mulk",
        "translation": "Kerajaan",
        "num_ayah": 30,
        "page": 562,
        "location": "Makkiyah"
    },
    "tafsir": {
        "wajiz": "Dan mereka orang-orang yang tersiksa di neraka itu berkata, \u201cSekiranya dahulu kami mendengarkan dengan sungguh-sungguh atau memikirkan dengan serius peringatan itu tentulah kami tidak termasuk penghuni neraka yang menyala-nyala yang azabnya sungguh tidak terbayang oleh kami.\u201d",
        "tahlili": "Dalam ayat ini, Allah menerangkan bahwa orang-orang kafir yang sedang diazab di dalam neraka itu menyesali sikap dan tindakan mereka selama hidup di dunia dengan mengatakan, \u201cSekiranya kami mau menggunakan akal dan pikiran kami yang telah dianugerahkan Allah, untuk menilai dan mengambil manfaat dari seruan rasul itu, demikian pula seandainya kami menggunakan telinga kami untuk mendengar ayat-ayat Allah yang telah diturunkan dan disampaikan kepada kami oleh rasul yang telah diutus-Nya, tentu kami tidak akan menyangkal dan mengingkari kebenaran yang disampaikan itu. Kami tidak akan teperdaya oleh kesenangan dan pengaruh dunia yang fana ini, tidak akan teperdaya oleh tipu daya setan, dan tidak akan dimasukkan ke dalam neraka yang menyala ini yang azabnya tidak tertanggungkan sedikit pun oleh kami.\u201d",
        "intro_surah": "Surah ini terdiri dari 30 ayat, termasuk kelompok surah Makkiyyah, diturunkan sesudah Surah a\u1e6d-\u1e6c\u016br.\nNama al-Mulk diambil dari kata al-mulk yang terdapat pada ayat pertama surah ini yang artinya \u201ckerajaan\u201d atau \u201ckekuasaan\u201d. Surah ini dinamai juga Tab\u0101rak (Mahasuci) diambil dari kata pertama pada ayat pertama surah ini.\nPokok-pokok Isinya:\nHidup dan mati itu adalah ujian bagi manusia. Allah swt menciptakan langit dan bumi bertingkat-tingkat dan semua ciptaan-Nya memiliki keseimbangan dan keharmonisan. Perintah Allah untuk memperhatikan alam semesta untuk mempertebal keimanan kepada-Nya. Azab yang diancamkan kepada orang-orang kafir; janji Allah swt kepada orang-orang yang beriman. Allah swt menjadikan bumi dengan sempurna sehingga mudah bagi manusia mencari rezeki di atasnya. Peringatan Allah swt kepada manusia karena amat sedikit di antara mereka yang mensyukuri nikmat-Nya, dan lain-lain.",
        "outro_surah": null,
        "munasabah_prev_surah": "Dalam Surah at-Ta\u1e25r\u012bm diterangkan bahwa Allah mengetahui segala rahasia, sedang pada Surah al-Mulk ditegaskan lagi bahwa Allah mengetahui segala rahasia karena Ia menguasai seluruh alam.",
        "munasabah_prev_theme": "Pada ayat-ayat yang lalu, Allah menerangkan bahwa bagi orang-orang kafir disediakan neraka yang menyala nyala sebagai balasan bagi mereka. Dalam ayat\u2013ayat berikut ini diterangkan keadaan orang-orang kafir ketika dimasukkan ke dalam neraka akibat mengingkari keesaan Allah, mendustakan para rasul, dan mengingkari adanya hari kebangkitan.",
        "theme_group": "AZAB NERAKA BAGI ORANG KAFIR",
        "kosakata": "Kosakata: Syah\u012bqan \u0634\u064e\u0647\u0650\u064a\u0652\u0642\u064b\u0627 (al-Mulk/67: 7)\nSyah\u012bq adalah isim ma\u1e63dar dari syahiqa-yasyhaqu-syahqan wa syah\u012bqan, yang artinya \u201csuara jeritan atau lenguhan keledai\u201d (ka syahq al-\u1e25imar). Kata ini dalam Al-Qur\u2019an disebut dua kali: dalam Surah H\u016bd/11: 106 yang didahului kata az-zaf\u012br, dan dalam surah ini. Menurut catatan Ibnu al-Jauz\u012b, az-zaf\u012br artinya suara napas keledai yang terdengar dari dadanya, sedangkan asy-syah\u012bq adalah suara napas keledai dari arah tenggorokannya. Asy-Syah\u012bq berarti suara napas yang amat payah, tersengal-sengal, dan tersiksa, yang biasa terdengar di ujung napas dengan suara memelas. Jadi, kata syah\u012bq dalam ayat 7 Surah al-Mulk, dikaitkan dengan Surah H\u016bd/11: 106, mengisyaratkan bahwa orang-orang yang dilemparkan ke dalam neraka mendengar jeritan, lolongan, dan lenguhan panjang yang amat kesakitan yang datangnya dari para penghuni neraka yang lama maupun baru. Mereka menjerit, melolong, melenguh, dan merintih kesakitan dengan mengeluarkan lenguhan dan jeritan seperti lenguhan dan jeritan keledai. Alangkah menderita dan sengsara mereka di dalam cengkeraman siksa neraka.",
        "sabab_nuzul": null,
        "conclusion": null
    }
}