{
    "id": 5267,
    "surah_id": 67,
    "ayah": 26,
    "page": 563,
    "quarter_hizb": 57,
    "juz": 29,
    "manzil": 7,
    "arabic": "\u0642\u064f\u0644\u0652 \u0627\u0650\u0646\u0651\u064e\u0645\u064e\u0627 \u0627\u0644\u0652\u0639\u0650\u0644\u0652\u0645\u064f \u0639\u0650\u0646\u0652\u062f\u064e \u0627\u0644\u0644\u0651\u0670\u0647\u0650 \u06d6\u0648\u064e\u0627\u0650\u0646\u0651\u064e\u0645\u064e\u0627\u0653 \u0627\u064e\u0646\u064e\u0627\u06e0 \u0646\u064e\u0630\u0650\u064a\u0652\u0631\u064c \u0645\u0651\u064f\u0628\u0650\u064a\u0652\u0646\u064c ",
    "latin": "Qul innamal-\u2018ilmu \u2018indall\u0101h(i), wa innam\u0101 ana na\u017c\u012brum mub\u012bn(un).",
    "translation": "Katakanlah (Nabi Muhammad), \u201cSesungguhnya ilmu (tentang hari Kiamat itu) hanya ada pada Allah. Aku hanyalah seorang pemberi peringatan yang jelas.\u201d",
    "no_footnote": null,
    "footnotes": null,
    "surah": {
        "id": 67,
        "arabic": "\u0627\u0644\u0645\u064f\u0644\u0643",
        "latin": "Al-Mulk",
        "transliteration": "Al-Mulk",
        "translation": "Kerajaan",
        "num_ayah": 30,
        "page": 562,
        "location": "Makkiyah"
    },
    "tafsir": {
        "wajiz": "Menanggapi ucapan kaum musyrik tersebut Nabi Muhammad diperintahkan Allah seperti yang ditegaskan pada ayat ini: Katakanlah wahai Nabi Muhammad, \u201cSesungguhnya ilmu tentang hari Kiamat itu hanya ada pada Allah. Dan aku hanyalah seorang pemberi peringatan yang menjelaskan.\u201d",
        "tahlili": "Dalam ayat ini, Allah memerintahkan Rasulullah menjawab omongan orang kafir itu dengan mengatakan, \u201cWahai orang-orang kafir, hanya Allah sajalah yang mengetahui semua yang kamu tanyakan itu. Sebab, tentang kapan datangnya azab, dan terjadinya hari Kiamat termasuk pengetahuan yang gaib, hanya Allah saja yang mengetahuinya. Mengenai diriku, tidak lain hanyalah rasul dan pesuruh Allah yang diberi tugas menyampaikan agama-Nya kepada kamu sekalian, agar kamu berbahagia hidup di dunia dan di akhirat nanti. Aku diperintahkan-Nya menyampaikan berita kepadamu bahwa azab itu pasti datang menimpa orang-orang kafir dan hari Kiamat itu pasti terjadi.\nPada ayat yang lain Allah berfirman:\n\u064a\u064e\u0633\u0652\u0640\u0654\u064e\u0644\u064f\u0643\u064e \u0627\u0644\u0646\u0651\u064e\u0627\u0633\u064f \u0639\u064e\u0646\u0650 \u0627\u0644\u0633\u0651\u064e\u0627\u0639\u064e\u0629\u0650\u06d7 \u0642\u064f\u0644\u0652 \u0627\u0650\u0646\u0651\u064e\u0645\u064e\u0627 \u0639\u0650\u0644\u0652\u0645\u064f\u0647\u064e\u0627 \u0639\u0650\u0646\u0652\u062f\u064e \u0627\u0644\u0644\u0651\u0670\u0647\u0650 \u06d7\u0648\u064e\u0645\u064e\u0627 \u064a\u064f\u062f\u0652\u0631\u0650\u064a\u0652\u0643\u064e \u0644\u064e\u0639\u064e\u0644\u0651\u064e \u0627\u0644\u0633\u0651\u064e\u0627\u0639\u064e\u0629\u064e \u062a\u064e\u0643\u064f\u0648\u0652\u0646\u064f \u0642\u064e\u0631\u0650\u064a\u0652\u0628\u064b\u0627 \u0666\u0663\nManusia bertanya kepadamu (Muhammad) tentang hari Kiamat. Katakanlah, \u201cIlmu tentang hari Kiamat itu hanya di sisi Allah.\u201d Dan tahukah engkau, boleh jadi hari Kiamat itu sudah dekat waktunya. (al-A\u1e25z\u0101b/33: 63)\nDari jawaban itu dapat dipahami bahwa Rasulullah hanyalah manusia biasa dan mempunyai sifat-sifat dan kemampuan seperti manusia biasa pula. Kelebihannya hanyalah terletak pada tugas yang diberikan kepadanya. Di samping sifatnya seperti manusia biasa, ia diberi tugas menyampaikan agama Allah. Oleh karena itu, ia tidak mengetahui ilmu yang gaib kecuali jika Allah memberitahukan kepadanya. Tugasnya bukanlah menjadikan seseorang beriman, tetapi semata-mata menyampaikan agama Allah dan memberi penjelasan kepada manusia. Dalam ayat yang lain, Allah berfirman:\n\u0646\u064e\u062d\u0652\u0646\u064f \u0627\u064e\u0639\u0652\u0644\u064e\u0645\u064f \u0628\u0650\u0645\u064e\u0627 \u064a\u064e\u0642\u064f\u0648\u0652\u0644\u064f\u0648\u0652\u0646\u064e \u0648\u064e\u0645\u064e\u0627\u0653 \u0627\u064e\u0646\u0652\u062a\u064e \u0639\u064e\u0644\u064e\u064a\u0652\u0647\u0650\u0645\u0652 \u0628\u0650\u062c\u064e\u0628\u0651\u064e\u0627\u0631\u064d\u06d7 \u0641\u064e\u0630\u064e\u0643\u0651\u0650\u0631\u0652 \u0628\u0650\u0627\u0644\u0652\u0642\u064f\u0631\u0652\u0627\u0670\u0646\u0650 \u0645\u064e\u0646\u0652 \u064a\u0651\u064e\u062e\u064e\u0627\u0641\u064f \u0648\u064e\u0639\u0650\u064a\u0652\u062f\u0650 \u08d6 \u0664\u0665\nKami lebih mengetahui tentang apa yang mereka katakan, dan engkau (Muhammad) bukanlah seorang pemaksa terhadap mereka. Maka berilah peringatan dengan Al-Qur\u2019an kepada siapa pun yang takut kepada ancaman-Ku. (Q\u0101f/50: 45)\nFirman Allah lainnya:\n\u0644\u064e\u064a\u0652\u0633\u064e \u0639\u064e\u0644\u064e\u064a\u0652\u0643\u064e \u0647\u064f\u062f\u0670\u0649\u0647\u064f\u0645\u0652 \u0648\u064e\u0644\u0670\u0643\u0650\u0646\u0651\u064e \u0627\u0644\u0644\u0651\u0670\u0647\u064e \u064a\u064e\u0647\u0652\u062f\u0650\u064a\u0652 \u0645\u064e\u0646\u0652 \u064a\u0651\u064e\u0634\u064e\u0627\u06e4\u0621\u064f\nBukanlah kewajibanmu (Muhammad) menjadikan mereka mendapat petunjuk, tetapi Allah-lah yang memberi petunjuk kepada siapa yang Dia kehendaki. (al-Baqarah/2: 272)",
        "intro_surah": "Surah ini terdiri dari 30 ayat, termasuk kelompok surah Makkiyyah, diturunkan sesudah Surah a\u1e6d-\u1e6c\u016br.\nNama al-Mulk diambil dari kata al-mulk yang terdapat pada ayat pertama surah ini yang artinya \u201ckerajaan\u201d atau \u201ckekuasaan\u201d. Surah ini dinamai juga Tab\u0101rak (Mahasuci) diambil dari kata pertama pada ayat pertama surah ini.\nPokok-pokok Isinya:\nHidup dan mati itu adalah ujian bagi manusia. Allah swt menciptakan langit dan bumi bertingkat-tingkat dan semua ciptaan-Nya memiliki keseimbangan dan keharmonisan. Perintah Allah untuk memperhatikan alam semesta untuk mempertebal keimanan kepada-Nya. Azab yang diancamkan kepada orang-orang kafir; janji Allah swt kepada orang-orang yang beriman. Allah swt menjadikan bumi dengan sempurna sehingga mudah bagi manusia mencari rezeki di atasnya. Peringatan Allah swt kepada manusia karena amat sedikit di antara mereka yang mensyukuri nikmat-Nya, dan lain-lain.",
        "outro_surah": null,
        "munasabah_prev_surah": "Dalam Surah at-Ta\u1e25r\u012bm diterangkan bahwa Allah mengetahui segala rahasia, sedang pada Surah al-Mulk ditegaskan lagi bahwa Allah mengetahui segala rahasia karena Ia menguasai seluruh alam.",
        "munasabah_prev_theme": "Pada ayat-ayat yang lalu, diterangkan bahwa orang-orang kafir itu, mengakui keesaan dan kekuasaan Allah, hanyalah karena keangkuhan dan kesombongan mereka dan akibat tipu daya setan, maka mereka tetap mempersekutukan Allah. Pada ayat-ayat berikut, disebutkan salah satu kesombongan orang-orang kafir itu, yaitu mereka bertanya kepada Rasulullah saw dengan berolok-olok tentang kapan terjadinya hari yang dipercayai oleh orang-orang beriman itu. Olok-olok mereka dijawab oleh Rasulullah saw dengan mengatakan bahwa hari kebangkitan itu adalah urusan Allah dan hanya Dialah yang mengetahuinya.",
        "theme_group": "AZAB ALLAH PASTI MENIMPA\nORANG-ORANG KAFIR",
        "kosakata": "Kosakata : Ma\u2018\u012bn \u0645\u064e\u0639\u0650\u064a\u0652\u0646\u064c (al-Mulk/67: 30)\nKata ma\u2018\u012bn dalam ayat ini adalah kata terakhir dari kata yang sama dari empat kali yang disebutkan Al-Qur\u2019an. Pertama, disebutkan dalam Surah al-Mu\u2019min\u016bn/23: 50; kedua, dalam Surah a\u1e63-\u1e62aff\u0101t/37: 45, ketiga, dalam Surah al-W\u0101qi\u2018ah/56: 18, dan keempat, dalam ayat ini, Surah al-Mulk/67. Surah pertama tersebut berbicara tentang kata wa ma\u2018\u012bn yang artinya \u201cdan mata air mengalir\u201d. Surah kedua dan ketiga berbicara tentang gelas yang berisi air dari mata air di surga. Demikian pula dalam Surah al-Mulk ini, kata ma\u2018\u012bn muncul sebagai kata sifat dari air (m\u0101\u2019) yang disebut sebelumnya, yang artinya air \u201cyang berasal dari sumber yang mengalir\u201d. Menurut Ibnu al-Jauz\u012b, ma\u2018\u012bn artinya adalah air yang jelas dapat dilihat mata kepala: m\u0101\u2019 \u1e93ah\u012br tar\u0101hu al-\u2018uy\u016bn. Jadi, kata ma\u2018\u012bn dalam Al-Qur\u2019an umumnya disebutkan dalam rangka menerangkan air minum penghuni surga yang berasal dari mata air yang mengalir, yang sudah tentu sehat dan nikmat serta menyenangkan.",
        "sabab_nuzul": null,
        "conclusion": null
    }
}