{
    "id": 5271,
    "surah_id": 67,
    "ayah": 30,
    "page": 564,
    "quarter_hizb": 57,
    "juz": 29,
    "manzil": 7,
    "arabic": "\u0642\u064f\u0644\u0652 \u0627\u064e\u0631\u064e\u0621\u064e\u064a\u0652\u062a\u064f\u0645\u0652 \u0627\u0650\u0646\u0652 \u0627\u064e\u0635\u0652\u0628\u064e\u062d\u064e \u0645\u064e\u0627\u06e4\u0624\u064f\u0643\u064f\u0645\u0652 \u063a\u064e\u0648\u0652\u0631\u064b\u0627 \u0641\u064e\u0645\u064e\u0646\u0652 \u064a\u0651\u064e\u0623\u0652\u062a\u0650\u064a\u0652\u0643\u064f\u0645\u0652 \u0628\u0650\u0645\u064e\u0627\u06e4\u0621\u064d \u0645\u0651\u064e\u0639\u0650\u064a\u0652\u0646\u064d \u08d6 ",
    "latin": "Qul ara'aitum in a\u1e63ba\u1e25a m\u0101'ukum gauran famay ya't\u012bkum bim\u0101'im ma\u2018\u012bn(in).",
    "translation": "Katakanlah (Nabi Muhammad), \u201cTerangkanlah kepadaku jika (sumber) air kamu surut ke dalam tanah, siapa yang akan memberimu air yang mengalir?\u201d",
    "no_footnote": null,
    "footnotes": null,
    "surah": {
        "id": 67,
        "arabic": "\u0627\u0644\u0645\u064f\u0644\u0643",
        "latin": "Al-Mulk",
        "transliteration": "Al-Mulk",
        "translation": "Kerajaan",
        "num_ayah": 30,
        "page": 562,
        "location": "Makkiyah"
    },
    "tafsir": {
        "wajiz": "Sebagai penutup surah ini, Allah memerintahkan kepada Nabi Muhammad agar mengingat aneka nikmat Allah, terutama nikmat air yang merupakan sumber utama kehidupan (lihat surah al-Anbiya/21:30). Katakanlah wahai Nabi Muhammad, \u201cTerangkanlah kepadaku jika sumber air kamu dan sumber air lainnya menjadi kering. maka siapa yang akan memberimu air yang mengalir?.\u201d Pasti tidak ada kecuali Allah, Tuhan Pemelihara seluruh alam. Maka sudah sewajarnya kalau manusia hanya menyembah kepada-Nya.",
        "tahlili": "Dalam ayat ini, Allah menerangkan lagi tanda-tanda kebesaran dan kekuasaan-Nya, setelah pada ayat yang lalu Dia memerintahkan agar bertawakal kepada-Nya. Allah memerintahkan Muhammad mengatakan kepada orang-orang kafir, \u201cHai orang-orang kafir, cobalah terangkan kepadaku, apa yang terpikir olehmu, seandainya atas kehendak Allah seluruh air yang mengalir di permukaan bumi ini meresap ke dalam tanah, sehingga sumber-sumber air dan sumurmu menjadi kering, timba-timbamu tidak dapat menimba air lagi. Apakah tuhanmu yang lain dapat mendatangkan air itu, sehingga kamu dapat minum, kebun-kebunmu menjadi subur kembali dan binatang-binatang ternakmu dapat berkembang biak? Tidak ada sesuatu pun yang dapat mendatangkan air itu kecuali Allah Yang Maha Pemurah dan Penyayang kepada hamba-hamba-Nya. Kenapa kamu masih menyekutukan-Nya dengan sesuatu yang tidak layak bagi-Nya?\u201d\nAyat ini menyuruh orang-orang kafir membandingkan dasar ketuhanan menurut pengertian mereka dengan sifat pemahaman ketuhanan menurut agama yang disampaikan Muhammad saw. Tuhan yang disembah menurut yang diajarkan Rasulullah adalah Tuhan pencipta seluruh makhluk, dan menjaga kelangsungan hidup semua yang hidup di alam ini. Dia Mahakuasa dan Maha Menentukan segala sesuatu, tidak memerlukan sesuatu apa pun untuk menolong-Nya dan sebagainya. Bukan Tuhan yang dibuat manusia atau diangkat oleh manusia sendiri untuk disembah, seperti pemahaman ketuhanan orang-orang musyrik. Ayat ini seakan mengingatkan mereka bahwa Tuhan yang pantas disembah itu hanyalah Tuhan Yang Maha Esa, tidak beranak, tidak dilahirkan, tidak berserikat dengan suatu apa pun, dan tidak memerlukan makhluk-makhluk lain untuk membantu-Nya melaksanakan setiap urusan.",
        "intro_surah": "Surah ini terdiri dari 30 ayat, termasuk kelompok surah Makkiyyah, diturunkan sesudah Surah a\u1e6d-\u1e6c\u016br.\nNama al-Mulk diambil dari kata al-mulk yang terdapat pada ayat pertama surah ini yang artinya \u201ckerajaan\u201d atau \u201ckekuasaan\u201d. Surah ini dinamai juga Tab\u0101rak (Mahasuci) diambil dari kata pertama pada ayat pertama surah ini.\nPokok-pokok Isinya:\nHidup dan mati itu adalah ujian bagi manusia. Allah swt menciptakan langit dan bumi bertingkat-tingkat dan semua ciptaan-Nya memiliki keseimbangan dan keharmonisan. Perintah Allah untuk memperhatikan alam semesta untuk mempertebal keimanan kepada-Nya. Azab yang diancamkan kepada orang-orang kafir; janji Allah swt kepada orang-orang yang beriman. Allah swt menjadikan bumi dengan sempurna sehingga mudah bagi manusia mencari rezeki di atasnya. Peringatan Allah swt kepada manusia karena amat sedikit di antara mereka yang mensyukuri nikmat-Nya, dan lain-lain.",
        "outro_surah": "Surah al-Mulk menunjukkan bukti-bukti kebesaran dan kekuasaan Allah yang terdapat di alam semesta ini, dan menganjurkan agar manusia memperhatikannya dengan seksama sehingga mereka beriman kepada-Nya. Bilamana mereka tetap ingkar, Allah akan menimpakan azab kepadanya.",
        "munasabah_prev_surah": "Dalam Surah at-Ta\u1e25r\u012bm diterangkan bahwa Allah mengetahui segala rahasia, sedang pada Surah al-Mulk ditegaskan lagi bahwa Allah mengetahui segala rahasia karena Ia menguasai seluruh alam.",
        "munasabah_prev_theme": "Pada ayat-ayat yang lalu, diterangkan bahwa orang-orang kafir itu, mengakui keesaan dan kekuasaan Allah, hanyalah karena keangkuhan dan kesombongan mereka dan akibat tipu daya setan, maka mereka tetap mempersekutukan Allah. Pada ayat-ayat berikut, disebutkan salah satu kesombongan orang-orang kafir itu, yaitu mereka bertanya kepada Rasulullah saw dengan berolok-olok tentang kapan terjadinya hari yang dipercayai oleh orang-orang beriman itu. Olok-olok mereka dijawab oleh Rasulullah saw dengan mengatakan bahwa hari kebangkitan itu adalah urusan Allah dan hanya Dialah yang mengetahuinya.",
        "theme_group": "AZAB ALLAH PASTI MENIMPA\nORANG-ORANG KAFIR",
        "kosakata": "Kosakata : Ma\u2018\u012bn \u0645\u064e\u0639\u0650\u064a\u0652\u0646\u064c (al-Mulk/67: 30)\nKata ma\u2018\u012bn dalam ayat ini adalah kata terakhir dari kata yang sama dari empat kali yang disebutkan Al-Qur\u2019an. Pertama, disebutkan dalam Surah al-Mu\u2019min\u016bn/23: 50; kedua, dalam Surah a\u1e63-\u1e62aff\u0101t/37: 45, ketiga, dalam Surah al-W\u0101qi\u2018ah/56: 18, dan keempat, dalam ayat ini, Surah al-Mulk/67. Surah pertama tersebut berbicara tentang kata wa ma\u2018\u012bn yang artinya \u201cdan mata air mengalir\u201d. Surah kedua dan ketiga berbicara tentang gelas yang berisi air dari mata air di surga. Demikian pula dalam Surah al-Mulk ini, kata ma\u2018\u012bn muncul sebagai kata sifat dari air (m\u0101\u2019) yang disebut sebelumnya, yang artinya air \u201cyang berasal dari sumber yang mengalir\u201d. Menurut Ibnu al-Jauz\u012b, ma\u2018\u012bn artinya adalah air yang jelas dapat dilihat mata kepala: m\u0101\u2019 \u1e93ah\u012br tar\u0101hu al-\u2018uy\u016bn. Jadi, kata ma\u2018\u012bn dalam Al-Qur\u2019an umumnya disebutkan dalam rangka menerangkan air minum penghuni surga yang berasal dari mata air yang mengalir, yang sudah tentu sehat dan nikmat serta menyenangkan.",
        "sabab_nuzul": null,
        "conclusion": "1. \tOrang-orang kafir mengingkari kekuasaan dan azab Allah yang akan ditimpakan kepada mereka karena kekafiran mereka.\n2. \tIlmu tentang hari Kiamat itu termasuk ilmu yang gaib, hanya Allah sendiri yang mengetahui kapan terjadinya.\n3. \tNabi Muhammad adalah manusia biasa yang diserahi tugas oleh Allah menyampaikan agama-Nya kepada seluruh manusia.\n4. \tOrang-orang kafir baru percaya akan adanya azab Allah setelah mereka berhadapan dengan azab itu di hari Kiamat nanti, tetapi waktu itu penyesalan tidak ada gunanya lagi.\n5. \tOrang-orang kafir hendaknya menyadari bahwa Nabi Muhammad tidak berkewajiban memaksa seseorang memeluk agama yang dibawanya. Tugasnya hanyalah menyampaikan agama itu, dan janganlah mereka menghalang-halangi orang lain mengikuti seruan itu.\n6. \tAllah Mahakuasa terhadap semua makhluk-Nya dan Dia berbuat menurut yang dikehendaki-Nya. Oleh karena itu, hanya Allah satu-satunya Zat yang pantas disembah dan ditaati."
    }
}