{
    "id": 5318,
    "surah_id": 68,
    "ayah": 47,
    "page": 566,
    "quarter_hizb": 57.25,
    "juz": 29,
    "manzil": 7,
    "arabic": "\u0627\u064e\u0645\u0652 \u0639\u0650\u0646\u0652\u062f\u064e\u0647\u064f\u0645\u064f \u0627\u0644\u0652\u063a\u064e\u064a\u0652\u0628\u064f \u0641\u064e\u0647\u064f\u0645\u0652 \u064a\u064e\u0643\u0652\u062a\u064f\u0628\u064f\u0648\u0652\u0646\u064e ",
    "latin": "Am \u2018indahumul-gaibu fahum yaktub\u016bn(a).",
    "translation": "Ataukah mereka mengetahui yang gaib lalu mereka menuliskannya?",
    "no_footnote": null,
    "footnotes": null,
    "surah": {
        "id": 68,
        "arabic": " \u0627\u0644\u0642\u0644\u0645",
        "latin": "Al-Qalam",
        "transliteration": "Al-Qalam",
        "translation": "Pena",
        "num_ayah": 52,
        "page": 564,
        "location": "Makkiyah"
    },
    "tafsir": {
        "wajiz": "Ataukah mungkin mereka secara khusus mengetahui yang gaib, lalu mereka menuliskannya? Hal ini pun jelas tidak ada.",
        "tahlili": "Pada ayat ini pertanyaan tersebut masih dilanjutkan: Apakah mereka mempunyai pengetahuan tentang yang gaib, atau mempunyai seperti Lau\u1e25 Ma\u1e25f\u016b\u201d yang mencatat segala sesuatu dengan yang mereka kehendaki yaitu bukti kebenaran pendapat mereka?\nOrang-orang kafir Mekah beranggapan bahwa patung-patung yang mereka sembah dapat memberitahukan kepada mereka segala sesuatu yang akan terjadi dan segala sesuatu yang gaib. Akan tetapi, anggapan mereka itu tidak ada buktinya sama sekali.",
        "intro_surah": "Surah ini terdiri dari 52 ayat, termasuk kelompok surah Makkiyyah, diturunkan sesudah Surah al-\u2018Alaq.\nNama al-Qalam yang artinya qalam atau pena, diambil dari kata al-qalam yang terdapat pada ayat pertama surah ini. Surah ini dinamai pula dengan \u201cN\u016bn\u201d (huruf nun), yang diambil dari huruf pertama yang terdapat pada permulaan ayat-ayat surah ini.\n\nPokok-pokok Isinya:\nNabi Muhammad bukanlah orang yang gila, melainkan manusia yang berbudi pekerti yang agung; larangan bertoleransi dalam bidang kepercayaan; larangan mengikuti sifat-sifat orang yang dicela Allah; nasib yang dialami orang-orang yang tidak bersyukur terhadap nikmat Allah; kecaman-kecaman Allah kepada mereka yang ingkar dan azab yang akan menimpa mereka; Al-Qur\u2019an adalah peringatan bagi seluruh umat.",
        "outro_surah": null,
        "munasabah_prev_surah": "1. \tPada akhir Surah al-Mulk, Allah mengancam orang-orang yang tidak bersyukur kepada-Nya dengan mengeringkan bumi, sedang dalam Surah al-Qalam diberi contoh azab yang ditimpakan kepada orang-orang yang tidak bersyukur kepada-Nya.\n2. \tKedua surah ini sama-sama menerangkan ancaman yang diberikan kepada orang-orang kafir.",
        "munasabah_prev_theme": "Pada ayat-ayat yang lalu, diterangkan bahwa balasan yang diterima oleh orang kafir dan orang yang beriman itu tidak sama. Bagi orang yang beriman kepada Allah disediakan surga yang penuh kenikmatan, sedangkan bagi orang kafir disediakan neraka, tempat yang penuh penderitaan dan kesengsaraan. Ayat-ayat berikut ini menerangkan bahwa kepada orang kafir telah banyak diberi kesempatan untuk mengikuti seruan Rasulullah saw selama mereka hidup di dunia. Seruan itu disampaikan baik secara langsung ataupun tidak langsung, tetapi mereka tidak menggunakan kesempatan itu. Mereka bahkan menantang dan menghalang-halangi seruan itu. ",
        "theme_group": "ANCAMAN ALLAH KEPADA ORANG\nYANG MENDUSTAKAN AL-QUR\u2019AN",
        "kosakata": "Kosakata: Magramin mu\u1e61qal\u016bn \u0645\u064e\u063a\u0652\u0631\u064e\u0645\u064d \u0645\u064f\u062b\u0652\u0642\u064e\u0644\u064f\u0648\u0652\u0646\u064e (al-Qalam/68: 46)\nMagram adalah bentuk ma\u1e63dar dari fi\u2018il garima-yagramu-garman wa gar\u0101matan wa magraman yang artinya berhutang. Mu\u1e61qal\u016bn adalah bentuk isim maf\u2018\u016bl dari fi\u2018il a\u1e61qala-yu\u1e61qilu-i\u1e63q\u0101lan yang artinya memberatkan atau membuat berat. A\u1e61qala adalah fi\u2018il \u1e61ul\u0101\u1e61i mazid bi \u1e25arf (kata kerja tiga huruf ditambah satu huruf, yaitu huruf hamzah pada awal kata) sehingga menjadikan fi\u2018il l\u0101zim (intransitif atau tidak punya objek) menjadi fi\u2018il muta\u2018addi (transitif atau punya objek). Mu\u1e61qal\u016bn artinya mereka diberati, atau diberi beban berat. Dalam konteks ayat ini berarti mereka dibebani hutang. Pada ayat 46 surah al-Qalam ini, Allah berfirman yang artinya: Ataukah engkau (Muhammad dalam melaksanakan dakwah) meminta imbalan (upah) kepada mereka, sehingga mereka dibebani dengan hutang? Gaya kalimat bertanya ini dalam Ilmu Bal\u0101gah adalah lit-tank\u012br artinya untuk mengingkari atau menafikan hal yang diucapkan. Jadi, maksudnya ialah Nabi Muhammad dalam melaksanakan dakwah tidak mungkin meminta imbalan, dan mereka sama sekali tidak dibebani dengan hutang yang memberatkan mereka.",
        "sabab_nuzul": null,
        "conclusion": "1. \tAllah memerintahkan kepada Nabi Muhammad agar tidak menghiraukan sikap dan perbuatan orang-orang kafir. Allah memberi tahu bahwa yang demikian itu agar bertambah banyak perbuatan dosa mereka, sehingga bertambah berat pula siksa yang ditimpakan kepada mereka.\n2. \tAzab yang akan ditimpakan kepada orang-orang kafir ada yang ditangguhkan kedatangannya selama mereka hidup di dunia. Di akhirat, azab itu pasti menimpa mereka.\n3. \tMuhammad saw sama sekali tidak mengharapkan upah dalam melaksanakan tugas kerasulannya. Upah yang diharapkannya hanyalah dari Allah semata yaitu berupa pahala surga.\n4. \tOrang-orang kafir menyangka seakan-akan mereka mempunyai ilmu gaib, tetapi pada kenyataannya, pernyataan itu adalah bohong belaka."
    }
}