{
    "id": 5323,
    "surah_id": 68,
    "ayah": 52,
    "page": 566,
    "quarter_hizb": 57.25,
    "juz": 29,
    "manzil": 7,
    "arabic": "\u0648\u064e\u0645\u064e\u0627 \u0647\u064f\u0648\u064e \u0627\u0650\u0644\u0651\u064e\u0627 \u0630\u0650\u0643\u0652\u0631\u064c \u0644\u0651\u0650\u0644\u0652\u0639\u0670\u0644\u064e\u0645\u0650\u064a\u0652\u0646\u064e \u08d6 ",
    "latin": "Wa m\u0101 huwa ill\u0101 \u017cikrul lil-\u2018\u0101lam\u012bn(a).",
    "translation": "(Al-Qur\u2019an) itu tidak lain kecuali peringatan bagi seluruh alam.",
    "no_footnote": null,
    "footnotes": null,
    "surah": {
        "id": 68,
        "arabic": " \u0627\u0644\u0642\u0644\u0645",
        "latin": "Al-Qalam",
        "transliteration": "Al-Qalam",
        "translation": "Pena",
        "num_ayah": 52,
        "page": 564,
        "location": "Makkiyah"
    },
    "tafsir": {
        "wajiz": "Padahal Al-Qur\u2019an itu tidak lain adalah peringatan, nasihat dan pengajaran bagi seluruh alam.",
        "tahlili": "Dalam ayat ini, Allah mengatakan dengan tegas bahwa Al-Qur\u2019an itu berisi petunjuk dan pelajaran untuk kebahagiaan hidup manusia di dunia dan akhirat. Ia diperuntukkan bagi seluruh manusia di mana pun mereka berada, baik bagi penduduk negeri-negeri yang telah maju ataupun bagi penduduk negeri yang sedang berkembang atau terbelakang, baik untuk orang yang pintar maupun untuk orang yang bodoh, baik penduduk kota maupun penduduk desa, baik bagi orang yang kaya maupun bagi orang-orang yang miskin, dan sebagainya. Oleh karena itu, setiap orang dapat belajar memahami dan mempelajari Al-Qur\u2019an, asal ia mempunyai sikap akan menerima setiap kebenaran yang disampaikan kepadanya. Jika seseorang belum mempunyai sikap yang demikian, walaupun hati dan pikirannya telah menerima kebenaran Al-Qur\u2019an, namun hawa nafsunya memerintahkan agar ia menentang Al-Qur\u2019an itu dan mengatakannya sebagai buatan manusia atau tuduhan lainnya.\nBerapa banyak orang yang terus-menerus melawan kebenaran dan keadilan karena memperturutkan hawa nafsunya, seperti hawa nafsu ingin pangkat, kedudukan, harta yang banyak, takut dipencilkan oleh golongannya, takut meninggalkan kepercayaan nenek moyangnya, dan sebagainya. Betapa banyak orang yang bersedia membunuh teman, saudara kandung, bahkan ayah dan ibunya karena mengiuti hawa nafsunya.\nMuhammad saw adalah seorang nabi dan rasul Allah yang telah terbukti kejujurannya, seorang yang dihormati dan dipercayai oleh kaumnya, adil sempurna akal pikirannya, tidak seorang pun yang mengingkarinya. Setelah beliau diangkat Allah sebagai nabi dan rasul, timbullah rasa benci itu, karena mengikuti Muhammad saw berarti meninggalkan pangkat, harta, kesenangan, dan kesewenang-wenangan.",
        "intro_surah": "Surah ini terdiri dari 52 ayat, termasuk kelompok surah Makkiyyah, diturunkan sesudah Surah al-\u2018Alaq.\nNama al-Qalam yang artinya qalam atau pena, diambil dari kata al-qalam yang terdapat pada ayat pertama surah ini. Surah ini dinamai pula dengan \u201cN\u016bn\u201d (huruf nun), yang diambil dari huruf pertama yang terdapat pada permulaan ayat-ayat surah ini.\n\nPokok-pokok Isinya:\nNabi Muhammad bukanlah orang yang gila, melainkan manusia yang berbudi pekerti yang agung; larangan bertoleransi dalam bidang kepercayaan; larangan mengikuti sifat-sifat orang yang dicela Allah; nasib yang dialami orang-orang yang tidak bersyukur terhadap nikmat Allah; kecaman-kecaman Allah kepada mereka yang ingkar dan azab yang akan menimpa mereka; Al-Qur\u2019an adalah peringatan bagi seluruh umat.",
        "outro_surah": "Surah al-Qalam berisi bantahan dari orang-orang musyrik terhadap Nabi Muhammad dan memperingatkan agar beliau tidak mengikuti kemauan mereka. Mereka itu mendapat penghinaan pada hari Kiamat akibat perbuatan mereka.",
        "munasabah_prev_surah": "1. \tPada akhir Surah al-Mulk, Allah mengancam orang-orang yang tidak bersyukur kepada-Nya dengan mengeringkan bumi, sedang dalam Surah al-Qalam diberi contoh azab yang ditimpakan kepada orang-orang yang tidak bersyukur kepada-Nya.\n2. \tKedua surah ini sama-sama menerangkan ancaman yang diberikan kepada orang-orang kafir.",
        "munasabah_prev_theme": "Pada ayat-ayat yang lalu, Allah memerintahkan Nabi Muhammad dan orang-orang Islam supaya menyerahkan kepada-Nya urusan tentang orang-orang kafir yang selalu mendustakan dan mengingkari Al-Qur\u2019an. Ia pasti menghukum mereka meskipun ada yang ditangguhkan siksaannya selama hidup di dunia, tetapi di akhirat azab itu pasti menimpa mereka.\nPada ayat-ayat berikut ini, Allah memerintahkan kepada Nabi saw agar bersabar dalam menerima segala cobaan dan ketetapan-Nya, baik dalam melaksanakan tugas sebagai rasul Allah, maupun dalam menghadapi sikap dan tindakan orang-orang kafir. Kemudian diterangkan sikap orang-orang musyrik Mekah tatkala mendengar bacaan ayat-ayat Al-Qur\u2019an dan tuduhan mereka bahwa Nabi saw adalah orang gila. Allah menegaskan bahwa orang yang dapat memahami Al-Qur\u2019an dengan mudah hanyalah orang-orang yang telah diberi taufik.",
        "theme_group": "PERINTAH BERSABAR KETIKA\nMENERIMA COBAAN",
        "kosakata": "Kosakata: \n1.\tMa\u017cm\u016bm  \u0645\u064e\u0630\u0652\u0645\u064f\u0648\u0652\u0645\u064c (al-Qalam/68: 49)\nMa\u017cm\u016bm adalah bentuk isim maf\u2018\u016bl dari fi\u2018il \u017camma-ya\u017cummu-\u017camman yang artinya mencela, mengecam. Jadi, ma\u017cm\u016bm artinya tercela atau dicela. Pada akhir ayat 49 disebutkan: wa huwa ma\u017cm\u016bm artinya: dia dicela atau tercela. Kalimat ini merupakan bagian dari rangkaian kisah Nabi Yunus yang ditelan ikan hiu tetapi masih hidup dalam perut ikan tersebut. Karena nikmat yang dilimpahkan Allah kepada Nabi Yunus, maka ikan itu memuntahkannya ke daratan. Allah lalu menumbuhkan di sampingnya pohon yaq\u012bn yaitu semacam labu yang melindunginya dan buah pohon itu dapat dimakan, sehingga tubuhnya yang lemah menjadi kuat kembali untuk melaksanakan dakwah selanjutnya. Jika Nabi Yunus tidak segera mendapat nikmat dari Tuhan, dia pasti dicampakkan ke tanah tandus dalam keadaan tercela.\n2.\tLayuzliq\u016b  naka  \u0644\u064e\u064a\u064f\u0632\u0652\u0644\u0650\u0642\u064f\u0648\u0652\u0646\u064e\u0643\u064e (al-Qalam/68: 51) \nLayuzliq\u016b  naka artinya mereka menggelincirkan kamu (Muhammad). Kata ini berasal dari fi\u2018il zaliqa-yazlaqu-zalaqan yang artinya tergelincir. Sedangkan azlaqa-yuzliqu-azlaqan berarti  artinya menggelincirkan. Yuzliq\u016b  naka adalah fi\u2018il mu\u1e0d\u0101ri\u2018 dengan f\u0101\u2018il wau jama\u2018dan disambung dengan \u1e0dam\u012br ka (artinya kamu) sebagai maf\u2018\u016bl, serta didahului l\u0101m at-taukid, sehingga artinya menjadi \u201cmereka benar-benar menggelincirkan kamu\u201d. Pada ayat 51 Surah al-Qalam ini, Allah menggambarkan kebencian orang-orang musyrik di Mekah kepada Nabi Muhammad karena Al-Qur\u2019an yang beliau dakwahkan tidak dapat mereka bantah, baik dari sisi keindahan bahasanya maupun kandungan isinya. Mereka betul-betul tunduk menyerah menghadapi ayat-ayat Al-Qur\u2019an. Oleh karena itu, mereka sangat benci dan marah sekali kepada Nabi Muhammad, sehingga jika tidak ada pertolongan Allah, mereka pasti menggelincirkan Nabi dengan pandangan atau sorotan mata mereka yang mempunyai ilmu semacam hipnotis, yang dapat berpengaruh buruk dan memaksa orang yang dipandangnya untuk melakukan hal-hal yang mereka kehendaki.",
        "sabab_nuzul": null,
        "conclusion": "1. \tAllah memerintahkan agar Nabi Muhammad tetap melaksanakan dakwahnya, bersabar menghadapi segala macam cobaan yang datang, melarang melakukan seperti yang telah dilakukan Nabi Yunus yang marah dan putus asa, meninggalkan kaumnya serta tugas kenabian dan kerasulan yang dibebankan Allah kepadanya.\n2. \tNabi Yunus kemudian dianugerahi nikmat dan karunia yang besar oleh Allah, setelah ia mau bertobat dengan tobat yang sebenar-benarnya dari semua dosa dan kesalahan-kesalahan yang telah diperbuatnya.\n3. \tSikap dan tindakan orang-orang kafir kepada Rasulullah disebabkan oleh hawa nafsu, bukan karena kesalahan ajaran atau agama yang dibawa beliau.\n4. \tMemahami Al-Qur\u2019an itu sebenarnya mudah, dapat dipelajari, dipahami, dan diamalkan oleh siapa saja, asal mau bersikap ingin mencari kebenaran, mengenyampingkan segala keinginan yang ditimbulkan hawa nafsu."
    }
}