{
    "id": 5297,
    "surah_id": 68,
    "ayah": 26,
    "page": 565,
    "quarter_hizb": 57.25,
    "juz": 29,
    "manzil": 7,
    "arabic": "\u0641\u064e\u0644\u064e\u0645\u0651\u064e\u0627 \u0631\u064e\u0627\u064e\u0648\u0652\u0647\u064e\u0627 \u0642\u064e\u0627\u0644\u064f\u0648\u0652\u0653\u0627 \u0627\u0650\u0646\u0651\u064e\u0627 \u0644\u064e\u0636\u064e\u0627\u06e4\u0644\u0651\u064f\u0648\u0652\u0646\u064e\u06d9",
    "latin": "Falamm\u0101 ra'auh\u0101 q\u0101l\u016b inn\u0101 la\u1e0d\u0101ll\u016bn(a).",
    "translation": "Ketika melihat kebun itu, mereka berkata, \u201cSesungguhnya kita benar-benar orang sesat.",
    "no_footnote": null,
    "footnotes": null,
    "surah": {
        "id": 68,
        "arabic": " \u0627\u0644\u0642\u0644\u0645",
        "latin": "Al-Qalam",
        "transliteration": "Al-Qalam",
        "translation": "Pena",
        "num_ayah": 52,
        "page": 564,
        "location": "Makkiyah"
    },
    "tafsir": {
        "wajiz": "Maka betapa terkejutnya ketika mereka melihat kebun itu ternyata telah binasa, mereka pun berkata, \u201cSungguh, kita ini benar-benar orang-orang yang sesat dengan merencanakan sesuatu yang buruk, akhirnya rusaklah kebun kita,",
        "tahlili": "Setelah sampai di kebun, mereka pun tercengang karena kebun itu telah musnah dan habis terbakar. Mereka mengira bahwa yang terbakar itu bukan kebun mereka, karena kebun mereka yang dipenuhi tanaman-tanaman yang subur dan buahnya lebat, telah waktunya untuk dipetik.",
        "intro_surah": "Surah ini terdiri dari 52 ayat, termasuk kelompok surah Makkiyyah, diturunkan sesudah Surah al-\u2018Alaq.\nNama al-Qalam yang artinya qalam atau pena, diambil dari kata al-qalam yang terdapat pada ayat pertama surah ini. Surah ini dinamai pula dengan \u201cN\u016bn\u201d (huruf nun), yang diambil dari huruf pertama yang terdapat pada permulaan ayat-ayat surah ini.\n\nPokok-pokok Isinya:\nNabi Muhammad bukanlah orang yang gila, melainkan manusia yang berbudi pekerti yang agung; larangan bertoleransi dalam bidang kepercayaan; larangan mengikuti sifat-sifat orang yang dicela Allah; nasib yang dialami orang-orang yang tidak bersyukur terhadap nikmat Allah; kecaman-kecaman Allah kepada mereka yang ingkar dan azab yang akan menimpa mereka; Al-Qur\u2019an adalah peringatan bagi seluruh umat.",
        "outro_surah": null,
        "munasabah_prev_surah": "1. \tPada akhir Surah al-Mulk, Allah mengancam orang-orang yang tidak bersyukur kepada-Nya dengan mengeringkan bumi, sedang dalam Surah al-Qalam diberi contoh azab yang ditimpakan kepada orang-orang yang tidak bersyukur kepada-Nya.\n2. \tKedua surah ini sama-sama menerangkan ancaman yang diberikan kepada orang-orang kafir.",
        "munasabah_prev_theme": "Pada ayat-ayat yang lalu, Allah memperingatkan Rasulullah agar tetap bersikap tegas kepada orang-orang musyrik, sekali-kali tidak menerima tawaran dan mengikuti keinginan mereka. Orang-orang musyrik itu sebenarnya orang-orang yang tidak baik akhlaknya. Mereka suka berdusta, mengerjakan perbuatan dosa, menipu, memfitnah, dan menjelek-jelekkan orang lain untuk kepentingan diri mereka sendiri. Pada ayat-ayat berikut ini, Allah menerangkan bahwa segala sesuatu yang diberikan-Nya kepada hamba-hamba-Nya merupakan cobaan belaka, adakalanya berupa kesengsaraan hidup dan adakalanya berupa kesenangan hidup. Allah ingin mengetahui untuk apa saja seorang hamba menggunakan harta yang dianugerahkan kepadanya, apakah untuk berbuat baik atau jahat. ",
        "theme_group": "ALLAH MEMBERIKAN COBAAN\nKEPADA MANUSIA",
        "kosakata": "Kosakata:\n1.\t\u1e60\u0101rim\u012bn \u0635\u064e\u0627\u0631\u0650\u0645\u0650\u064a\u0652\u0646\u064e (al-Qalam/68: 22)\n\u1e60\u0101rim\u012bn berasal dari kata \u1e63arama yang berarti memotong, memutus, atau memetik. A\u1e63-\u1e62ar\u012bm bisa berarti berlalu atau malam, karena malam dan siang silih berganti dan berlalu, atau bisa bermakna debu hitam, pasir, atau tanah kebun yang subur berubah menjadi pasir dan tidak bisa disuburkan lagi. Ayat ini mengisyaratkan bahwa pemilik kebun berusaha menghalangi rezeki yang tadinya diperoleh oleh fakir miskin sehingga para pemilik kebun itu benar-benar mengalami bencana dan kerugian yang bersumber dari Allah. \n2.\t\u1e24ardin \u062d\u064e\u0631\u0652\u062f\u064d (al-Qalam/68: 25)\n\u1e24ard digunakan dalam arti menghalangi, tekad yang kuat dan ketergesaan, dan juga amarah. Ayat ini menggambarkan tekad para pemilik kebun menghalangi orang-orang miskin menikmati hasil kebun mereka padahal mereka mampu. Orang yang telah bertekad melaksanakan kejahatan walaupun belum dilaksanakan sudah mendapatkan hukuman dari Allah sesuai dengan firman-Nya dalam Surah al-\u1e24ajj/22: 25.",
        "sabab_nuzul": null,
        "conclusion": null
    }
}