{
    "id": 5343,
    "surah_id": 69,
    "ayah": 20,
    "page": 567,
    "quarter_hizb": 57.5,
    "juz": 29,
    "manzil": 7,
    "arabic": "\u0627\u0650\u0646\u0651\u0650\u064a\u0652 \u0638\u064e\u0646\u064e\u0646\u0652\u062a\u064f \u0627\u064e\u0646\u0651\u0650\u064a\u0652 \u0645\u064f\u0644\u0670\u0642\u064d \u062d\u0650\u0633\u064e\u0627\u0628\u0650\u064a\u064e\u0647\u0652\u06da",
    "latin": "Inn\u012b \u1e93anantu ann\u012b mul\u0101qin \u1e25is\u0101biyah.",
    "translation": "Sesungguhnya (saat di dunia) aku yakin bahwa (suatu saat) aku akan menerima perhitungan diriku.\u201d",
    "no_footnote": null,
    "footnotes": null,
    "surah": {
        "id": 69,
        "arabic": " \u0627\u0644\u062d\u0627\u06e4\u0642\u0651\u0629",
        "latin": "Al-\u1e24\u0101qqah",
        "transliteration": "Al-Haqqah",
        "translation": "Hari Kiamat Yang Pasti Terjadi",
        "num_ayah": 52,
        "page": 566,
        "location": "Makkiyah"
    },
    "tafsir": {
        "wajiz": "Sesungguhnya ketika di dunia aku yakin, bahwa suatu saat aku akan menerima perhitungan terhadap diriku. ltulah sebabnya aku telah mempersiapkan diri untuk menghadapinya.\"",
        "tahlili": "Dengan bangga dan penuh kepuasan orang-orang mukmin berkata, \u201cAku telah yakin bahwa Tuhan akan menghisabku dan aku akan mempertanggungjawabkan seluruh perbuatanku hari ini. Karena itulah, selama hidup di dunia aku beriman kepada Allah serta melaksanakan perintah dan menjauhi larangan-Nya yang disampaikan Nabi Muhammad. Aku pun yakin bahwa Tuhanku akan menghisab dan menimbang amal perbuatanku.\u201d\nMenurut a\u1e0d-\u1e0ca\u1e25\u1e25\u0101k, setiap perkataan \u1e93ann (dugaan) yang berhubungan dengan orang-orang yang beriman, yang terdapat dalam Al-Qur\u2019an berarti yakin, dan kalau berhubungan dengan orang-orang kafir berarti ragu-ragu.\nAl-\u1e24asan berkata, \u201cSesungguhnya orang-orang yang beriman mempunyai dugaan yang mendekati keyakinan (\u1e93ann) yang paling baik kepada Tuhannya, lalu mereka meningkatkan amalnya untuk akhirat, sedangkan orang-orang munafik mempunyai keragu-raguan (\u1e93ann) yang paling buruk terhadap Tuhannya; maka ia mempunyai amal yang buruk pula untuk akhirat.\u201d\nDemikian pula dalam ayat ini. Perkataan \u1e93anantu berarti \u201caku yakin\u201d bukan \u201caku ragu\u201d, atau \u201caku menduga\u201d. Arti yang semakna dengan ini terdapat pula pada firman Allah:\n\u0644\u064e\u0648\u0652\u0644\u064e\u0627\u0653 \u0627\u0650\u0630\u0652 \u0633\u064e\u0645\u0650\u0639\u0652\u062a\u064f\u0645\u064f\u0648\u0652\u0647\u064f \u0638\u064e\u0646\u0651\u064e \u0627\u0644\u0652\u0645\u064f\u0624\u0652\u0645\u0650\u0646\u064f\u0648\u0652\u0646\u064e \u0648\u064e\u0627\u0644\u0652\u0645\u064f\u0624\u0652\u0645\u0650\u0646\u0670\u062a\u064f \u0628\u0650\u0627\u064e\u0646\u0652\u0641\u064f\u0633\u0650\u0647\u0650\u0645\u0652 \u062e\u064e\u064a\u0652\u0631\u064b\u0627\u06d9 \u0648\u0651\u064e\u0642\u064e\u0627\u0644\u064f\u0648\u0652\u0627 \u0647\u0670\u0630\u064e\u0627\u0653 \u0627\u0650\u0641\u0652\u0643\u064c \u0645\u0651\u064f\u0628\u0650\u064a\u0652\u0646\u064c \u0661\u0662\nMengapa orang-orang mukmin dan mukminat tidak berbaik sangka terhadap diri mereka sendiri, ketika kamu mendengar berita bohong itu dan berkata, \u201cIni adalah (suatu berita) bohong yang nyata.\u201d (an-N\u016br/24: 12)",
        "intro_surah": "Surah ini terdiri dari 52 ayat, termasuk surah Makkiyyah dan diturunkan sesudah surah al-Mulk. Surah ini bernama al-\u1e24\u0101qqah yang artinya hari Kiamat, diambil dari kata al-\u1e24\u0101qqah pada ayat pertama, kedua dan ketiga.\nDalam Al-Qur\u2019an ada beberapa surah yang namanya berarti hari Kiamat, seperti al-W\u0101qi\u2018ah/56, al-\u1e24\u0101qqah/69, dan al-Qiy\u0101mah/75. Meskipun kata-kata yang digunakan mempunyai arti bahasa yang berbeda-beda, tetapi maksudnya satu yaitu hari Kiamat. Hal ini menunjukkan pentingnya memperhatikan dan mempersiapkan diri dengan beriman yang mantap dan beramal saleh untuk menghadapi hari Kiamat.\n\nPokok-pokok Isinya:\nPeringatan terhadap azab yang ditimpakan kepada kaum Nuh, Samud, \u2018Ad, Fir\u2018aun, dan kaum-kaum sebelum mereka yang durhaka kepada Allah dan rasul-Nya pada hari Kiamat; kejadian-kejadian pada hari Kiamat dan hari penghisaban; penegasan Allah bahwa Al-Qur\u2019an itu benar-benar wahyu-Nya.",
        "outro_surah": null,
        "munasabah_prev_surah": "1. \tDalam Surah al-Qalam disebutkan tentang hari Kiamat secara umum, sedang dalam Surah al-\u1e24\u0101qqah dijelaskan secara terperinci peristiwa-peristiwa hari Kiamat itu.\n2. \tDalam Surah al-Qalam diterangkan orang-orang yang mendustakan Al-Qur\u2019an dan ancaman azab atas mereka, sedangkan dalam Surah al-\u1e24\u0101qqah diterangkan bahwa orang-orang zaman dahulu yang mendustakan Rasul-rasul dan macam-macam azab yang telah menimpa mereka.\n3. \tDalam Surah al-Qalam, Allah membantah tuduhan orang-orang musyrik Mekah bahwa Muhammad saw orang gila, sedang dalam Surah al-\u1e24\u0101qqah, Allah membantah tuduhan bahwa Nabi Muhammad seorang penyair.",
        "munasabah_prev_theme": "Pada ayat-ayat yang lalu diterangkan keadaan hari Kiamat dan kebangkitan manusia dari dalam kubur, kemudian mereka dihadapkan ke pengadilan Allah untuk ditimbang amal perbuatannya selama hidup di dunia. Pada ayat-ayat berikut ini diterangkan bahwa orang mukmin menerima catatan amal perbuatannya dengan tangan kanannya yang disodorkan dari sebelah kanan. Mereka dalam keadaan gembira karena selama hidup di dunia telah melakukan perbuatan-perbuatan yang diridai Allah. Mereka diberi balasan oleh Allah berupa surga yang penuh kenikmatan.",
        "theme_group": "KEADAAN ORANG BERIMAN WAKTU DIHISAB",
        "kosakata": "Kosakata: \n1. H\u0101\u2019umu \u0647\u064e\u0627\u0624\u064f\u0645\u064f (al-\u1e24\u0101qqah/69: 19)\nH\u0101\u2019umu adalah kata seru yang artinya: hai, inilah, ambillah! Sebenarnya kata seru berarti ambillah adalah h\u0101 (\u0647\u0627). Adapun umu (\u0624\u0645) adalah z\u0101'idah (tambahan) saja, sebagai pemanis yang memperindah ungkapan kalimat. Pada ayat 19 digambarkan keadaan orang-orang mukmin yang beramal saleh pada hari penghisaban atau perhitungan segala amal di dunia ketika menerima kitab amal perhitungan mereka dari sebelah kanan yang menunjukkan mereka adalah orang-orang baik. Maka dengan penuh kegembiraan dan kebahagiaan, setelah menerima kitab catatan amal, mereka langsung berkata, \u201cIni dia kitab catatan amalku, ambillah dan lihatlah, bacalah kitab catatan amalku ini, aku sungguh sangat gembira dan bahagia, karena catatan amal perbuatanku di dunia baik-baik semua.\u201d\n2.\tMul\u0101qin \u0645\u064f\u0644\u0627\u064e\u0642\u064d (al-\u1e24\u0101qqah/69: 20)\nMul\u0101qin adalah bentuk isim f\u0101\u2018il, berasal dari fi\u2018il l\u0101q\u0101-yul\u0101q\u012b-liq\u0101'an wa mul\u0101q\u0101tan yang artinya bertemu, menemui. Isim f\u0101\u2018il itu mulanya adalah al-mul\u0101q\u012b (\u0627\u0644\u0645\u0644\u0627\u0642\u0649), ada ya naqi\u1e63 pada akhirnya, tetapi dalam keadaan nakirah huruf naqi\u1e63 itu dibuang. Ungkapan inni mul\u0101qin \u1e25is\u0101biyah artinya: sungguh aku akan menemui atau menerima hisab atau perhitungan amal perbuatanku. Ayat 20 ini menggambarkan keadaan orang mukmin yang beramal saleh dan menghindari amal buruk, dengan riang gembira berkata, \u201cSejak dahulu, ketika di dunia aku telah yakin, pasti akan menemui hari hisab ini, dan aku akan menerima hisab perhitungan amalku di dunia dengan tepat dan benar, sesuai dengan apa yang kita kerjakan di dunia. Ternyata keyakinan itu semua benar-benar terjadi, aku bahagia sekali.\u201d",
        "sabab_nuzul": null,
        "conclusion": null
    }
}