{
    "id": 5367,
    "surah_id": 69,
    "ayah": 44,
    "page": 568,
    "quarter_hizb": 57.5,
    "juz": 29,
    "manzil": 7,
    "arabic": "\u0648\u064e\u0644\u064e\u0648\u0652 \u062a\u064e\u0642\u064e\u0648\u0651\u064e\u0644\u064e \u0639\u064e\u0644\u064e\u064a\u0652\u0646\u064e\u0627 \u0628\u064e\u0639\u0652\u0636\u064e \u0627\u0644\u0652\u0627\u064e\u0642\u064e\u0627\u0648\u0650\u064a\u0652\u0644\u0650\u06d9",
    "latin": "Wa lau taqawwala \u2018alain\u0101 ba\u2018\u1e0dal-aq\u0101w\u012bl(i).",
    "translation": "Sekiranya dia (Nabi Muhammad) mengada-adakan sebagian saja perkataan atas (nama) Kami,",
    "no_footnote": null,
    "footnotes": null,
    "surah": {
        "id": 69,
        "arabic": " \u0627\u0644\u062d\u0627\u06e4\u0642\u0651\u0629",
        "latin": "Al-\u1e24\u0101qqah",
        "transliteration": "Al-Haqqah",
        "translation": "Hari Kiamat Yang Pasti Terjadi",
        "num_ayah": 52,
        "page": 566,
        "location": "Makkiyah"
    },
    "tafsir": {
        "wajiz": "Setelah ditegaskan bahwa al-Qur'an adalah bersumber dari Allah, ayat-ayat ini memperkuat penegasan tersebut dengan menyatakan bahwa tidak ada campur tangan sedikit pun dari Nabi Muhammad dalam menyusun isi kandungan Al-Qur'an. Dan sekiranya dia, Nabi Muhammad, mengada-adakan sebagian perkataan apalagi semua atas nama Kami, pasti Kami siksa dia dengan sangat keras",
        "tahlili": "Kedua ayat ini menegaskan bahwa Al-Qur\u2019an itu benar-benar berasal dari Allah, bukan buatan Muhammad, syair, atau khayalan tukang tenung, karena tidak seorang makhluk pun yang sanggup membuat seperti ayat-ayat Al-Qur\u2019an itu. Allah menegaskan bahwa seandainya Nabi Muhammad mengatakan sesuatu tentang-Nya dan mengucapkan perkataan yang dikatakannya berasal dari-Nya, padahal Ia tidak pernah menyatakan atau mengatakannya, Allah pasti pegang tangan kanannya untuk menerima hukuman dari-Nya. Bagi Allah tidaklah berat dan sukar menghukumnya dengan hukuman yang sangat besar sekalipun, karena Ia Mahakuasa atas segala sesuatu.\nUngkapan \u201cmemegang tangan kanan\u201d (al-akh\u017cu bil yam\u012bn) dalam ayat ini merupakan ungkapan untuk suatu tindakan yang dilakukan terhadap orang yang berada di bawah kekuasaan seseorang, dengan maksud memberi hukuman kepada orang itu. Contohnya seperti seorang raja yang memberikan hukuman kepada seorang pemberontak.\nDalam ayat ini, ungkapan tersebut dipakai untuk menyatakan bahwa bagi Allah tidak ada suatu keberatan pun untuk melakukan suatu tindakan terhadap Muhammad, kalau ia mengadakan sesuatu yang tidak benar terhadap-Nya. Hal itu sebagai hukuman bagi Nabi saw, bagaimana pun beratnya hukuman itu.\nAyat ini juga mengisyaratkan bahwa seandainya Al-Qur\u2019an itu buatan Muhammad, pasti akan ditolak oleh manusia dan beliau akan gagal dalam melaksanakan dakwahnya. Kenyataan yang terjadi adalah sebaliknya, Muhammad diterima oleh orang-orang beriman karena mereka percaya akan kebenaran Al-Qur\u2019an. Dan ternyata pula bahwa agama Islam makin hari makin berkembang.",
        "intro_surah": "Surah ini terdiri dari 52 ayat, termasuk surah Makkiyyah dan diturunkan sesudah surah al-Mulk. Surah ini bernama al-\u1e24\u0101qqah yang artinya hari Kiamat, diambil dari kata al-\u1e24\u0101qqah pada ayat pertama, kedua dan ketiga.\nDalam Al-Qur\u2019an ada beberapa surah yang namanya berarti hari Kiamat, seperti al-W\u0101qi\u2018ah/56, al-\u1e24\u0101qqah/69, dan al-Qiy\u0101mah/75. Meskipun kata-kata yang digunakan mempunyai arti bahasa yang berbeda-beda, tetapi maksudnya satu yaitu hari Kiamat. Hal ini menunjukkan pentingnya memperhatikan dan mempersiapkan diri dengan beriman yang mantap dan beramal saleh untuk menghadapi hari Kiamat.\n\nPokok-pokok Isinya:\nPeringatan terhadap azab yang ditimpakan kepada kaum Nuh, Samud, \u2018Ad, Fir\u2018aun, dan kaum-kaum sebelum mereka yang durhaka kepada Allah dan rasul-Nya pada hari Kiamat; kejadian-kejadian pada hari Kiamat dan hari penghisaban; penegasan Allah bahwa Al-Qur\u2019an itu benar-benar wahyu-Nya.",
        "outro_surah": null,
        "munasabah_prev_surah": "1. \tDalam Surah al-Qalam disebutkan tentang hari Kiamat secara umum, sedang dalam Surah al-\u1e24\u0101qqah dijelaskan secara terperinci peristiwa-peristiwa hari Kiamat itu.\n2. \tDalam Surah al-Qalam diterangkan orang-orang yang mendustakan Al-Qur\u2019an dan ancaman azab atas mereka, sedangkan dalam Surah al-\u1e24\u0101qqah diterangkan bahwa orang-orang zaman dahulu yang mendustakan Rasul-rasul dan macam-macam azab yang telah menimpa mereka.\n3. \tDalam Surah al-Qalam, Allah membantah tuduhan orang-orang musyrik Mekah bahwa Muhammad saw orang gila, sedang dalam Surah al-\u1e24\u0101qqah, Allah membantah tuduhan bahwa Nabi Muhammad seorang penyair.",
        "munasabah_prev_theme": "Pada ayat-ayat yang lalu dijelaskan bahwa Al-Qur\u2019an benar-benar berasal dari Tuhan semesta alam, dan ia bukan syair yang digubah penyair dan tukang tenung. Pada ayat-ayat berikut ini ditegaskan bahwa Muhammad saw sekali-kali tidak akan sanggup membuat yang sama dengan Al-Qur\u2019an, karena ia tidak mempunyai kemampuan untuk membuatnya. Seandainya dia membuatnya juga, tentu Allah akan mematahkan seluruh alasan yang dikemukakannya, atau mencegah terlaksananya dakwah yang disampaikannya, atau mencabut nyawanya, karena ia menyiarkan kedustaan berhubung dengan-Nya. Kemudian disebutkan bahwa Al-Qur\u2019an adalah petunjuk bagi orang yang bertakwa, tak dapat diragukan sedikit pun dan perintah kepada Rasulullah saw agar selalu mengagungkan Allah.",
        "theme_group": "PERINGATAN ALLAH KEPADA MUHAMMAD\nSEANDAINYA IA MEMBUAT-BUAT AL-QUR\u2019AN",
        "kosakata": "Kosakata:\n1.\tAl-Wat\u012bn \u0627\u0644\u0652\u0648\u064e\u062a\u0650\u064a\u0652\u0646\u064f (al-\u1e24\u0101qqah/69 : 46)\n\tKata al-Wat\u012bn terambil dari kata watana-yatinu-wut\u016bnan atau watinatan. Kata ini memiliki makna urat atau pembuluh yang mengalir pada hati, jika pembuluh itu berhenti mengalir berarti sang pemilik hati telah mati. Kata    al-wat\u012bn ada juga yang memahaminya dalam arti urat yang berhubungan dengan jantung, ada juga yang menyatakan ia adalah urat nadi yang terdapat di leher seperti yang difirmankan Allah dalam Surah Q\u0101f/50: 16. Dari makna-makna di atas dapat disimpulkan bahwa kata al-wat\u012bn adalah sesuatu yang memiliki makna vital bagi kehidupan manusia. Dengan urat atau pembuluh tersebut, manusia bisa hidup atau mati. \n\tAyat ini bermaksud menyatakan bahwa seandainya Muhammad melakukan kebohongan atau mengada-ada seperti tukang ramal atau tukang tenung, niscaya dia tidak akan bertahan hidup karena Tuhan akan segera menyiksa dan membinasakannya dengan cara memotong urat tali jantungnya. Namun demikian, hal itu tidak akan terjadi karena Muhammad bukanlah seorang k\u0101hin (tukang tenung) atau tukang ramal. Hal ini merupakan bukti bahwa apa yang beliau sampaikan adalah benar-benar wahyu dari Allah. \n2. \u1e24\u0101jiz\u012bn \u062d\u064e\u0627\u062c\u0650\u0632\u0650\u064a\u0652\u0646\u064e (al-\u1e24\u0101qqah/69: 47)\n\tKata \u1e25\u0101jiz\u012bn merupakan bentuk jamak dari \u1e25\u0101jiz yang berasal dari kata \u1e25ajaza-ya\u1e25jazu-\u1e25ajzan yang berarti menghalangi/memisahkan antara dua hal, atau sesuatu yang memisahkan antara keduanya. Firman Allah: \u201cwa ja\u2018ala baina al-ba\u1e25raini \u1e25\u0101jiz\u0101n\u201d berarti \u201cdan Kami jadikan antara kedua laut itu pemisah\u201d. Kota Mekah disebut dengan negeri \u1e24ij\u0101z karena posisinya yang memisahkan antara kota Syam dan padang pasir (daerah pedalaman). Al-\u1e24ij\u0101z juga diartikan dengan tali kekang yang menghubungkan pinggang unta ke pergelangannya. Dari beberapa pengertian di atas, lafal al-\u1e25\u0101jiz berkisar pada makna pembatasan, pencegahan, pengekangan, penghalangan, penahanan, dan pemisahan.\n\tPada ayat ini, Allah menjelaskan bahwa Muhammad bukanlah seorang pembohong seperti yang dituduhkan orang-orang kafir. Seandainya dia adalah tukang tenung, maka niscaya Allah akan membinasakannya dan tidak ada seorang pun yang bisa menjadi penghalang atau pencegah atas kehendak-Nya. Artinya, jika Allah berkehendak untuk memotong urat jantung Nabi Muhammad sehingga dia tidak akan bertahan hidup, tentu sekali-kali tidak seorang pun yang bisa mencegah atau melarang-Nya. ",
        "sabab_nuzul": null,
        "conclusion": null
    }
}