{
    "id": 5336,
    "surah_id": 69,
    "ayah": 13,
    "page": 567,
    "quarter_hizb": 57.5,
    "juz": 29,
    "manzil": 7,
    "arabic": "\u0641\u064e\u0627\u0650\u0630\u064e\u0627 \u0646\u064f\u0641\u0650\u062e\u064e \u0641\u0650\u0649 \u0627\u0644\u0635\u0651\u064f\u0648\u0652\u0631\u0650 \u0646\u064e\u0641\u0652\u062e\u064e\u0629\u064c \u0648\u0651\u064e\u0627\u062d\u0650\u062f\u064e\u0629\u064c \u06d9",
    "latin": "Fa i\u017c\u0101 nufikha fi\u1e63-\u1e63\u016bri nafkhatuw w\u0101\u1e25idah(tun).",
    "translation": "Apabila sangkakala ditiup dengan sekali tiupan",
    "no_footnote": null,
    "footnotes": null,
    "surah": {
        "id": 69,
        "arabic": " \u0627\u0644\u062d\u0627\u06e4\u0642\u0651\u0629",
        "latin": "Al-\u1e24\u0101qqah",
        "transliteration": "Al-Haqqah",
        "translation": "Hari Kiamat Yang Pasti Terjadi",
        "num_ayah": 52,
        "page": 566,
        "location": "Makkiyah"
    },
    "tafsir": {
        "wajiz": "Di awal surah diuraikan tentang Kiamat, kini diuraikan tentang proses terjadinya Kiamat. Maka apabila sangkakala ditiup oleh malaikat lsrafil sekali tiup,",
        "tahlili": "Dalam ayat ini diterangkan bahwa apabila Allah berkehendak mendatangkan hari Kiamat, maka Ia memerintahkan Malaikat Israfil meniup sangkakala pertama. Firman Allah:\n\u0648\u064e\u0646\u064f\u0641\u0650\u062e\u064e \u0641\u0650\u0649 \u0627\u0644\u0635\u0651\u064f\u0648\u0652\u0631\u0650 \u0641\u064e\u0627\u0650\u0630\u064e\u0627 \u0647\u064f\u0645\u0652 \u0645\u0650\u0651\u0646\u064e \u0627\u0644\u0652\u0627\u064e\u062c\u0652\u062f\u064e\u0627\u062b\u0650 \u0627\u0650\u0644\u0670\u0649 \u0631\u064e\u0628\u0651\u0650\u0647\u0650\u0645\u0652 \u064a\u064e\u0646\u0652\u0633\u0650\u0644\u064f\u0648\u0652\u0646\u064e \u0665\u0661\nLalu ditiuplah sangkakala, maka seketika itu mereka keluar dari kuburnya (dalam keadaan hidup), menuju kepada Tuhannya. (Y\u0101s\u012bn/36: 51)",
        "intro_surah": "Surah ini terdiri dari 52 ayat, termasuk surah Makkiyyah dan diturunkan sesudah surah al-Mulk. Surah ini bernama al-\u1e24\u0101qqah yang artinya hari Kiamat, diambil dari kata al-\u1e24\u0101qqah pada ayat pertama, kedua dan ketiga.\nDalam Al-Qur\u2019an ada beberapa surah yang namanya berarti hari Kiamat, seperti al-W\u0101qi\u2018ah/56, al-\u1e24\u0101qqah/69, dan al-Qiy\u0101mah/75. Meskipun kata-kata yang digunakan mempunyai arti bahasa yang berbeda-beda, tetapi maksudnya satu yaitu hari Kiamat. Hal ini menunjukkan pentingnya memperhatikan dan mempersiapkan diri dengan beriman yang mantap dan beramal saleh untuk menghadapi hari Kiamat.\n\nPokok-pokok Isinya:\nPeringatan terhadap azab yang ditimpakan kepada kaum Nuh, Samud, \u2018Ad, Fir\u2018aun, dan kaum-kaum sebelum mereka yang durhaka kepada Allah dan rasul-Nya pada hari Kiamat; kejadian-kejadian pada hari Kiamat dan hari penghisaban; penegasan Allah bahwa Al-Qur\u2019an itu benar-benar wahyu-Nya.",
        "outro_surah": null,
        "munasabah_prev_surah": "1. \tDalam Surah al-Qalam disebutkan tentang hari Kiamat secara umum, sedang dalam Surah al-\u1e24\u0101qqah dijelaskan secara terperinci peristiwa-peristiwa hari Kiamat itu.\n2. \tDalam Surah al-Qalam diterangkan orang-orang yang mendustakan Al-Qur\u2019an dan ancaman azab atas mereka, sedangkan dalam Surah al-\u1e24\u0101qqah diterangkan bahwa orang-orang zaman dahulu yang mendustakan Rasul-rasul dan macam-macam azab yang telah menimpa mereka.\n3. \tDalam Surah al-Qalam, Allah membantah tuduhan orang-orang musyrik Mekah bahwa Muhammad saw orang gila, sedang dalam Surah al-\u1e24\u0101qqah, Allah membantah tuduhan bahwa Nabi Muhammad seorang penyair.",
        "munasabah_prev_theme": "Pada ayat-ayat yang lalu, diterangkan bahwa hari Kiamat sangat besar huru-haranya dan luar biasa kedahsyatannya. Kemudian dihubungkan dengan berbagai azab yang ditimpakan kepada orang-orang dahulu karena mengingkari adanya hari Kiamat itu. Pada ayat-ayat berikut ini, diterangkan secara lebih rinci tentang peristiwa-peristiwa yang terjadi pada hari Kiamat itu.",
        "theme_group": "BEBERAPA PERISTIWA KETIKA HARI KIAMAT",
        "kosakata": "Kosakata: W\u0101hiyah \u0648\u064e\u0627\u0647\u0650\u064a\u0629\u064c (al-\u1e24\u0101qqah/69: 16)\nW\u0101hiyah artinya lemah, rapuh. Kata ini berasal dari fi\u2018il wah\u0101-yahw\u012b-wahyan yang artinya lemah. Al-W\u0101hiy adalah bentuk isim f\u0101\u2018il artinya yang lemah, dan bentuknya dalam mu\u2019anna\u1e61 adalah w\u0101hiyah. Pada Surah al-\u1e24\u0101qqah/69: 13-18 ini, Allah menerangkan peristiwa hari Kiamat, yaitu antara lain digambarkan bahwa setelah ditiup sangkakala yang pertama, gunung-gunung menjadi beterbangan dan saling berbenturan, langit pun terbelah karena telah menjadi rapuh dan lemah. Semua manusia dihadapkan kepada Allah untuk diadili dan dihisab amal baik dan amal buruk mereka, dan tidak ada sesuatu pun yang tersembunyi.",
        "sabab_nuzul": null,
        "conclusion": null
    }
}