{
    "id": 5337,
    "surah_id": 69,
    "ayah": 14,
    "page": 567,
    "quarter_hizb": 57.5,
    "juz": 29,
    "manzil": 7,
    "arabic": "\u0648\u0651\u064e\u062d\u064f\u0645\u0650\u0644\u064e\u062a\u0650 \u0627\u0644\u0652\u0627\u064e\u0631\u0652\u0636\u064f \u0648\u064e\u0627\u0644\u0652\u062c\u0650\u0628\u064e\u0627\u0644\u064f \u0641\u064e\u062f\u064f\u0643\u0651\u064e\u062a\u064e\u0627 \u062f\u064e\u0643\u0651\u064e\u0629\u064b \u0648\u0651\u064e\u0627\u062d\u0650\u062f\u064e\u0629\u064b\u06d9",
    "latin": "Wa \u1e25umilatil-ar\u1e0du wal-jib\u0101lu fa dukkat\u0101 dakkataw w\u0101\u1e25idah(tan).",
    "translation": "dan bumi serta gunung-gunung diangkat lalu dibenturkan dengan sekali benturan,",
    "no_footnote": null,
    "footnotes": null,
    "surah": {
        "id": 69,
        "arabic": " \u0627\u0644\u062d\u0627\u06e4\u0642\u0651\u0629",
        "latin": "Al-\u1e24\u0101qqah",
        "transliteration": "Al-Haqqah",
        "translation": "Hari Kiamat Yang Pasti Terjadi",
        "num_ayah": 52,
        "page": 566,
        "location": "Makkiyah"
    },
    "tafsir": {
        "wajiz": "dan diangkatlah bumi dan gunung-gunung dengan sangat mudahnya, lalu dibenturkan keduanya sekali benturan maka bumi menjadi datar,",
        "tahlili": "Pada saat itu berguncanglah seluruh bumi, dan gunung-gunung terangkat dari tempat-tempatnya kemudian saling berbenturan. Berguncangnya bumi dan bergeraknya gunung menandakan bahwa telah terjadi gempa dahsyat yang menghancurkan seluruh yang ada di permukaan bumi, termasuk manusia yang berdiam di atasnya. Pada firman Allah yang lain diterangkan:\n\u0648\u064e\u064a\u064e\u0648\u0652\u0645\u064e \u0646\u064f\u0633\u064e\u064a\u0651\u0650\u0631\u064f \u0627\u0644\u0652\u062c\u0650\u0628\u064e\u0627\u0644\u064e \u0648\u064e\u062a\u064e\u0631\u064e\u0649 \u0627\u0644\u0652\u0627\u064e\u0631\u0652\u0636\u064e \u0628\u064e\u0627\u0631\u0650\u0632\u064e\u0629\u064b\u06d9 \u0648\u0651\u064e\u062d\u064e\u0634\u064e\u0631\u0652\u0646\u0670\u0647\u064f\u0645\u0652 \u0641\u064e\u0644\u064e\u0645\u0652 \u0646\u064f\u063a\u064e\u0627\u062f\u0650\u0631\u0652 \u0645\u0650\u0646\u0652\u0647\u064f\u0645\u0652 \u0627\u064e\u062d\u064e\u062f\u064b\u0627\u06da \u0664\u0667\nDan (ingatlah) pada hari (ketika) Kami perjalankan gunung-gunung dan engkau akan melihat bumi itu rata dan Kami kumpulkan mereka (seluruh manusia), dan tidak Kami tinggalkan seorang pun dari mereka. (al-Kahf/18: 47)",
        "intro_surah": "Surah ini terdiri dari 52 ayat, termasuk surah Makkiyyah dan diturunkan sesudah surah al-Mulk. Surah ini bernama al-\u1e24\u0101qqah yang artinya hari Kiamat, diambil dari kata al-\u1e24\u0101qqah pada ayat pertama, kedua dan ketiga.\nDalam Al-Qur\u2019an ada beberapa surah yang namanya berarti hari Kiamat, seperti al-W\u0101qi\u2018ah/56, al-\u1e24\u0101qqah/69, dan al-Qiy\u0101mah/75. Meskipun kata-kata yang digunakan mempunyai arti bahasa yang berbeda-beda, tetapi maksudnya satu yaitu hari Kiamat. Hal ini menunjukkan pentingnya memperhatikan dan mempersiapkan diri dengan beriman yang mantap dan beramal saleh untuk menghadapi hari Kiamat.\n\nPokok-pokok Isinya:\nPeringatan terhadap azab yang ditimpakan kepada kaum Nuh, Samud, \u2018Ad, Fir\u2018aun, dan kaum-kaum sebelum mereka yang durhaka kepada Allah dan rasul-Nya pada hari Kiamat; kejadian-kejadian pada hari Kiamat dan hari penghisaban; penegasan Allah bahwa Al-Qur\u2019an itu benar-benar wahyu-Nya.",
        "outro_surah": null,
        "munasabah_prev_surah": "1. \tDalam Surah al-Qalam disebutkan tentang hari Kiamat secara umum, sedang dalam Surah al-\u1e24\u0101qqah dijelaskan secara terperinci peristiwa-peristiwa hari Kiamat itu.\n2. \tDalam Surah al-Qalam diterangkan orang-orang yang mendustakan Al-Qur\u2019an dan ancaman azab atas mereka, sedangkan dalam Surah al-\u1e24\u0101qqah diterangkan bahwa orang-orang zaman dahulu yang mendustakan Rasul-rasul dan macam-macam azab yang telah menimpa mereka.\n3. \tDalam Surah al-Qalam, Allah membantah tuduhan orang-orang musyrik Mekah bahwa Muhammad saw orang gila, sedang dalam Surah al-\u1e24\u0101qqah, Allah membantah tuduhan bahwa Nabi Muhammad seorang penyair.",
        "munasabah_prev_theme": "Pada ayat-ayat yang lalu, diterangkan bahwa hari Kiamat sangat besar huru-haranya dan luar biasa kedahsyatannya. Kemudian dihubungkan dengan berbagai azab yang ditimpakan kepada orang-orang dahulu karena mengingkari adanya hari Kiamat itu. Pada ayat-ayat berikut ini, diterangkan secara lebih rinci tentang peristiwa-peristiwa yang terjadi pada hari Kiamat itu.",
        "theme_group": "BEBERAPA PERISTIWA KETIKA HARI KIAMAT",
        "kosakata": "Kosakata: W\u0101hiyah \u0648\u064e\u0627\u0647\u0650\u064a\u0629\u064c (al-\u1e24\u0101qqah/69: 16)\nW\u0101hiyah artinya lemah, rapuh. Kata ini berasal dari fi\u2018il wah\u0101-yahw\u012b-wahyan yang artinya lemah. Al-W\u0101hiy adalah bentuk isim f\u0101\u2018il artinya yang lemah, dan bentuknya dalam mu\u2019anna\u1e61 adalah w\u0101hiyah. Pada Surah al-\u1e24\u0101qqah/69: 13-18 ini, Allah menerangkan peristiwa hari Kiamat, yaitu antara lain digambarkan bahwa setelah ditiup sangkakala yang pertama, gunung-gunung menjadi beterbangan dan saling berbenturan, langit pun terbelah karena telah menjadi rapuh dan lemah. Semua manusia dihadapkan kepada Allah untuk diadili dan dihisab amal baik dan amal buruk mereka, dan tidak ada sesuatu pun yang tersembunyi.",
        "sabab_nuzul": null,
        "conclusion": null
    }
}