{
    "id": 5409,
    "surah_id": 70,
    "ayah": 34,
    "page": 569,
    "quarter_hizb": 57.75,
    "juz": 29,
    "manzil": 7,
    "arabic": "\u0648\u064e\u0627\u0644\u0651\u064e\u0630\u0650\u064a\u0652\u0646\u064e \u0647\u064f\u0645\u0652 \u0639\u064e\u0644\u0670\u0649 \u0635\u064e\u0644\u064e\u0627\u062a\u0650\u0647\u0650\u0645\u0652 \u064a\u064f\u062d\u064e\u0627\u0641\u0650\u0638\u064f\u0648\u0652\u0646\u064e\u06d6",
    "latin": "Wal-la\u017c\u012bna hum \u2018al\u0101 \u1e63al\u0101tihim yu\u1e25\u0101fi\u1e93\u016bn(a).",
    "translation": "dan yang memelihara salatnya.",
    "no_footnote": null,
    "footnotes": null,
    "surah": {
        "id": 70,
        "arabic": " \u0627\u0644\u0645\u0639\u0627\u0631\u062c",
        "latin": "Al-Ma\u2018\u0101rij",
        "transliteration": "Al-Ma\u2018arij",
        "translation": "Tempat-Tempat Naik",
        "num_ayah": 44,
        "page": 568,
        "location": "Makkiyah"
    },
    "tafsir": {
        "wajiz": "dan juga orang-orang yang memelihara salatnya, baik menyangkut waktu pelaksanannya, syarat, rukun dan wajibnya serta sunah-sunahnya.",
        "tahlili": "Selain yang telah disebutkan di atas, masih ada satu hal lagi yang dapat menghilangkan sifat suka berkeluh kesah dan sifat kikir, yaitu selalu memelihara salat. Pengertian memelihara salat dalam ayat ini ialah:\n1. \tBerusaha melengkapi syarat-syarat salat dengan baik dan sempurna, seperti meneliti pakaian yang dipakai sehingga tidak terdapat najis, berwudu dengan baik, dan mengenyampingkan segala sesuatu yang dapat menghilangkan atau mengurangi kekhusyukan.\n2. \tBerusaha melaksanakan semua rukun salat dengan baik dan sempurna.\n3. \tBerusaha khusyuk.\n4. \tBerusaha melaksanakan salat wajib yang lima waktu.\n5. \tBerusaha melaksanakan salat pada awal waktunya.",
        "intro_surah": "Surah ini terdiri dari 44 ayat, termasuk kelompok surah Makkiyyah, diturunkan sesudah Surah al-\u1e24\u0101qqah.\nPerkataan al-Ma\u2018\u0101rij yang menjadi nama surah ini adalah kata jamak dari kata mi\u2018raj, diambil dari kata al-ma\u2018\u0101rij yang terdapat pada ayat ke-3 surah ini, yang artinya menurut bahasa \u201ctempat naik\u201d. Sedangkan para mufasir memberi arti bermacam-macam, di antaranya ialah \u201clangit\u201d, karunia, dan derajat atau tingkatan yang diberikan Allah kepada penghuni surga.\n\nPokok-pokok Isinya:\nPerintah bersabar kepada Nabi Muhammad dalam menghadapi ejekan dan keingkaran orang-orang kafir; kejadian-kejadian pada hari kiamat; azab Allah tidak dapat dihindarkan dengan tebusan apa pun; sifat-sifat manusia yang mendorong mereka ke api neraka; amal perbuatan yang dapat membawa manusia ke martabat yang tinggi; peringatan Allah akan mengganti kaum yang durhaka dengan kaum yang lebih baik.",
        "outro_surah": null,
        "munasabah_prev_surah": "1. \tSurah al-Ma\u2018\u0101rij melengkapi Surah al-\u1e24\u0101qqah tentang gambaran hari Kiamat dan hari hisab.\n2. \tDalam Surah al-\u1e24\u0101qqah disebutkan dua golongan manusia pada hari Kiamat, yaitu ahli surga yang menerima kitab dari sebelah kanan, dan ahli neraka yang menerima kitab dari sebelah kiri; sedangkan Surah al-Ma\u2018\u0101rij menerangkan sifat-sifat kedua golongan itu. ",
        "munasabah_prev_theme": "Pada ayat-ayat yang lalu, diterangkan bahwa Allah adalah Tuhan Yang Mahatinggi dan Mahaagung. Dia mempunyai nikmat yang tiada terhingga dan selalu dilimpahkan kepada hamba-hamba-Nya. Pada ayat-ayat berikut ini, disebutkan sifat-sifat manusia yang jelek dan tidak baik, suka berkeluh kesah bila ditimpa bahaya dan bersifat kikir bila diberi Allah rezeki dan karunia. Diterangkan pula cara-cara menghilangkan sifat yang tidak baik itu, yaitu dengan mengerjakan salat, menunaikan zakat, menggunakan harta sesuai dengan ketentuan yang telah ditentukan Allah, menjaga kehormatan, memelihara amanat yang dipertaruhkan orang, dan melakukan kesaksian dengan benar. Mereka yang berbuat demikian di akhirat ditempatkan di dalam surga sebagai balasan yang diberikan Allah kepada mereka.",
        "theme_group": "MENGATASI SIFAT BURUK PADA MANUSIA",
        "kosakata": "Kosakata:\n1.\tHal\u016b\u2018an \u0647\u064e\u0644\u064f\u0648\u0652\u0639\u064b\u0627 (al-Ma\u2018\u0101rij/70: 19)\nHal\u016b\u2018 berasal dari kata hala\u2018a-yahla\u2018u-hal\u2018an wa hala\u2018an yang memiliki arti cepat gelisah, keluh kesah, atau berkeinginan meluap-luap semacam sifat rakus. Kata ini hanya terulang sekali dalam Al-Qur\u2019an yaitu dalam ayat ini. \n\tPada ayat ini, Allah menjelaskan tentang salah satu karakter yang dimiliki manusia, yaitu diciptakan bersifat hal\u016b\u2018 yaitu senantiasa gelisah, cemas, dan rakus. Kegelisahan ini dijelaskan selanjutnya oleh Allah bahwa manusia ketika disentuh oleh kesusahan, maka ia akan berkeluh kesah, dan sebaliknya jika ia mendapat kebaikan, maka ia akan kikir. Sifat hal\u016b\u2018 ini sebenarnya tidaklah negatif, karena pada dasarnya sesuatu yang tidak didasarkan pada keinginan yang kuat, tentulah tidak akan bisa tercapai. Sifat tersebut yang merupakan naluri manusia adalah cara untuk meraih kebahagiaan dan kesempurnaan wujudnya. Akan tetapi, naluri ini ketika disentuh oleh keburukan dan tidak bisa menyeimbangkannya maka manusia tersebut akan celaka. Begitu juga ketika kebaikan datang padanya dan tidak bisa menyeimbangkannya, maka ia pun akan celaka. Jadi sifat tersebut tercela akibat ulah manusia yang menggunakan nikmat dan cobaan Allah dengan jalan yang tidak sesuai dengan jalan-Nya. \n2.\tJaz\u016b\u2018an \u062c\u064e\u0632\u064f\u0648\u0652\u0639\u064b\u0627 (al-Ma\u2018\u0101rij/70: 20)\nKata jaz\u016b\u2018 berasal dari kata al-jaz\u2018, terambil dari kata jazi\u2018a-yajza\u2018u-jaza\u2018an, yang berarti kesedihan yang mendalam. Kata ini merupakan bagian dari kata al-huzn (kesedihan), al-huzn lebih umum sedangkan al-jaz\u2018 menunjukkan arti sangat (mub\u0101lagah). Al-Jaz\u2018 adalah kesedihan yang bisa memutuskan harapan seseorang dan bisa menimbulkan sifat berkeluh kesah. Asal maknanya adalah memutuskan tali dari tengah-tengahnya. Jaz\u2018u al-w\u0101di diartikan dengan sungai yang terputus. Al-Jaz\u2018 juga digunakan untuk kharaj yang berubah warna, seakan-akan warna aslinya terputus. Lahm mujazza\u2018 diistilahkan untuk daging yang memiliki dua warna. Al-J\u0101zi\u2018 sebutan untuk tiang penyangga yang berada di tengah rumah, dinamakan demikian seakan-akan kayu tersebut terpotong. Dari makna-makna ini bisa disimpulkan bahwa kata al-jaz\u2018 berkisar pada arti keterputusan baik bersifat fisik atau non fisik.\nDalam konteks ayat ini, seperti yang dijelaskan di atas bahwa sifat manusia ketika dia mendapatkan kesusahan atau keburukan maka dia akan berkeluh kesah, merasa sedih dan berputus asa. Ia beranggapan bahwa apa yang dia lakukan, tidak memiliki arti sama sekali tatkala harapannya tidak tercapai. Berkeluh kesah ketika disentuh oleh keburukan akan berakibat pada ketidakseimbangan sifat manusia, dan yang muncul adalah perasaan-perasaan minor dan sikap apatis terhadap sesuatu.\n3.\tMan\u016b\u2018an \u0645\u064e\u0646\u064f\u0648\u0652\u0639\u064b\u0627 (al-Ma\u2018\u0101rij/70 : 21)\nKata man\u016b\u2018 berasal dari kata mana\u2018a-yamna\u2018u-man\u2018an yang berarti melarang, antonim dari kata \u2018a\u1e6diyyah (pemberian). Rajul m\u0101ni\u2018 atau rajul mann\u0101\u2018 berarti seseorang yang sangat kikir. M\u0101ni\u2018 adalah sesuatu yang terlarang, mak\u0101n m\u0101ni\u2018 (tempat terlarang). Fulan \u017c\u016b man\u0101\u2018ah berarti seseorang yang memiliki kekuatan untuk bisa melarang). Imraat m\u0101ni\u2018ah berarti perempuan yang bisa menjaga dirinya (afifah) dari perbuatan terlarang. Dari sini juga lahir makna mencegah, menampik, dan menghalangi. Sesuatu yang sangat kukuh dan tidak dapat dimasuki disifati dengan m\u0101ni\u2018. Dalam Al-Qur\u2019an, kata ini dengan berbagai bentuk turunannya terulang sebanyak 17 kali. Semuanya cenderung negatif, seperti menghalang-halangi mengingat Allah di masjid (al-Baqarah/2: 114), menghalangi orang lain untuk beriman (al-Isr\u0101\u2019/17: 94), enggan melakukan sujud (al-A\u2018r\u0101f/7: 12), membela orang-orang kafir, tidak mau mengikuti seruan para nabi dan lain-lain. Ada satu kata yang dikemukakan dalam bentuk positif (al-W\u0101qi\u2018ah/56: 33), tetapi ini pun diungkapkan dalam bentuk negatif. \nDalam konteks ayat ini, Allah menjelaskan sisi negatif dari manusia yaitu jika ia mendapatkan kebaikan, maka ia akan bersikap kikir (man\u016b\u2018). Dan memang itulah sifat manusia, jika mendapat kenikmatan atau rezeki, dia akan lupa bersedekah untuk orang lain. Atau ketika kenikmatan didapat, dia lupa bahwa kenikmatan itu datangnya dari Allah sehingga penggunaannya pun tidak sesuai dengan apa yang telah diperintahkan-Nya. Atau dia merasa bahwa segala kenikmatan yang didapat adalah hasil dari upayanya sendiri sehingga ia pun menjadi kikir. ",
        "sabab_nuzul": null,
        "conclusion": null
    }
}