{
    "id": 5413,
    "surah_id": 70,
    "ayah": 38,
    "page": 569,
    "quarter_hizb": 57.75,
    "juz": 29,
    "manzil": 7,
    "arabic": "\u0627\u064e\u064a\u064e\u0637\u0652\u0645\u064e\u0639\u064f \u0643\u064f\u0644\u0651\u064f \u0627\u0645\u0652\u0631\u0650\u0626\u064d \u0645\u0651\u0650\u0646\u0652\u0647\u064f\u0645\u0652 \u0627\u064e\u0646\u0652 \u064a\u0651\u064f\u062f\u0652\u062e\u064e\u0644\u064e \u062c\u064e\u0646\u0651\u064e\u0629\u064e \u0646\u064e\u0639\u0650\u064a\u0652\u0645\u064d\u06d9",
    "latin": "Aya\u1e6dma\u2018u kullumri'im minhum ay yudkhala jannata na\u2018\u012bm(in).",
    "translation": "Apakah setiap orang dari mereka (orang-orang kafir itu) ingin dimasukkan ke dalam surga yang penuh kenikmatan?",
    "no_footnote": null,
    "footnotes": null,
    "surah": {
        "id": 70,
        "arabic": " \u0627\u0644\u0645\u0639\u0627\u0631\u062c",
        "latin": "Al-Ma\u2018\u0101rij",
        "transliteration": "Al-Ma\u2018arij",
        "translation": "Tempat-Tempat Naik",
        "num_ayah": 44,
        "page": 568,
        "location": "Makkiyah"
    },
    "tafsir": {
        "wajiz": "Apakah setiap orang dari orang-orang kafir itu ingin masuk surga yang penuh kenikmatan seperti kaum mukmin? Semestinya yang datang kepada Nabi Muhammad itu yang bersedia mengikuti ajarannya,",
        "tahlili": "Allah mengatakan bahwa perbuatan orang-orang musyrik itu sangat mengherankan. Apakah mereka berbuat demikian karena ingin masuk surga? Hal itu tidak mungkin karena mereka mengingkari ayat-ayat Al-Qur\u2019an itu. Allah menyediakan surga hanya bagi orang-orang yang beriman dan beramal saleh, bukan untuk orang-orang kafir seperti mereka.",
        "intro_surah": "Surah ini terdiri dari 44 ayat, termasuk kelompok surah Makkiyyah, diturunkan sesudah Surah al-\u1e24\u0101qqah.\nPerkataan al-Ma\u2018\u0101rij yang menjadi nama surah ini adalah kata jamak dari kata mi\u2018raj, diambil dari kata al-ma\u2018\u0101rij yang terdapat pada ayat ke-3 surah ini, yang artinya menurut bahasa \u201ctempat naik\u201d. Sedangkan para mufasir memberi arti bermacam-macam, di antaranya ialah \u201clangit\u201d, karunia, dan derajat atau tingkatan yang diberikan Allah kepada penghuni surga.\n\nPokok-pokok Isinya:\nPerintah bersabar kepada Nabi Muhammad dalam menghadapi ejekan dan keingkaran orang-orang kafir; kejadian-kejadian pada hari kiamat; azab Allah tidak dapat dihindarkan dengan tebusan apa pun; sifat-sifat manusia yang mendorong mereka ke api neraka; amal perbuatan yang dapat membawa manusia ke martabat yang tinggi; peringatan Allah akan mengganti kaum yang durhaka dengan kaum yang lebih baik.",
        "outro_surah": null,
        "munasabah_prev_surah": "1. \tSurah al-Ma\u2018\u0101rij melengkapi Surah al-\u1e24\u0101qqah tentang gambaran hari Kiamat dan hari hisab.\n2. \tDalam Surah al-\u1e24\u0101qqah disebutkan dua golongan manusia pada hari Kiamat, yaitu ahli surga yang menerima kitab dari sebelah kanan, dan ahli neraka yang menerima kitab dari sebelah kiri; sedangkan Surah al-Ma\u2018\u0101rij menerangkan sifat-sifat kedua golongan itu. ",
        "munasabah_prev_theme": "Pada ayat-ayat yang lalu, diterangkan sifat orang-orang yang baik di sisi Allah, yaitu orang yang khusyuk dalam salatnya, menunaikan zakat, percaya adanya hari kemudian, memelihara amanat, tidak berzina, memberikan kesaksian dengan benar, dan menjaga kesaksian. Pada ayat-ayat berikut ini, diterangkan sebagian tingkah laku orang-orang yang ingkar. Mereka diancam oleh Allah akan dihancurkan dan diganti dengan umat lain. Mereka juga akan memperoleh siksa pada hari Kiamat.",
        "theme_group": "BALASAN TERHADAP ORANG KAFIR",
        "kosakata": "Kosakata: \u2018Iz\u012bn \u0639\u0650\u0632\u0650\u064a\u0652\u0646 (al-Ma\u2018\u0101rij/70: 37)\n\tKata kerja dari \u2018iz\u012bn adalah \u2018az\u0101 yang berarti intasaba (menggabungkan diri). \u2018Iz\u012bn adalah bentuk jamak dari \u2018izah yang artinya \u201ckelompok\u201d atau \u201cgerombolan\u201d, karena anggota-anggotanya terdiri orang-orang yang bergabung satu sama lain. Ayat 37 Surah al-Ma\u2018\u0101rij/70 ini maksudnya adalah bahwa orang-orang kafir Mekah itu datang bergerombolan ke kanan dan kiri Nabi saw untuk mendengarkan Al-Qur\u2019an yang beliau bacakan. Akan tetapi, maksud mereka melakukan hal itu adalah untuk memperolok-olok Nabi, bukan untuk mengimaninya.",
        "sabab_nuzul": null,
        "conclusion": null
    }
}