{
    "id": 5458,
    "surah_id": 72,
    "ayah": 11,
    "page": 572,
    "quarter_hizb": 58,
    "juz": 29,
    "manzil": 7,
    "arabic": "\u0648\u0651\u064e\u0627\u064e\u0646\u0651\u064e\u0627 \u0645\u0650\u0646\u0651\u064e\u0627 \u0627\u0644\u0635\u0651\u0670\u0644\u0650\u062d\u064f\u0648\u0652\u0646\u064e \u0648\u064e\u0645\u0650\u0646\u0651\u064e\u0627 \u062f\u064f\u0648\u0652\u0646\u064e \u0630\u0670\u0644\u0650\u0643\u064e\u06d7  \u0643\u064f\u0646\u0651\u064e\u0627 \u0637\u064e\u0631\u064e\u0627\u06e4\u0649\u0655\u0650\u0642\u064e \u0642\u0650\u062f\u064e\u062f\u064b\u0627\u06d9",
    "latin": "Wa ann\u0101 minna\u1e63-\u1e63\u0101li\u1e25\u016bna wa minn\u0101 d\u016bna \u017c\u0101lik(a), kunn\u0101 \u1e6dar\u0101'iqa qidad\u0101(n).",
    "translation": "Sesungguhnya di antara kami ada yang saleh dan di antara kami ada (pula) yang tidak demikian halnya. Kami menempuh jalan yang berbeda-beda.",
    "no_footnote": null,
    "footnotes": null,
    "surah": {
        "id": 72,
        "arabic": "\u0627\u0644\u062c\u0646\u0651",
        "latin": "Al-Jinn",
        "transliteration": "Al-Jinn",
        "translation": "Jin",
        "num_ayah": 28,
        "page": 572,
        "location": "Makkiyah"
    },
    "tafsir": {
        "wajiz": "Lebih jauh para jin itu menguraikan keadaan anggota masyarakat mereka dengan mengatakan, \"Dan sesungguhnya di antara kami, kaum jin ada yang saleh yang bertakwa lagi mantap kesalehannya, dan ada pula kebalikannya yang tidak saleh bahkan durhaka dan mengajak kepada kedurhakaan. Kami menempuh jalan yang berbeda-beda akibat perbedaan pandangan dan kecenderungan kami.",
        "tahlili": "Dalam keterangan selanjutnya, Allah menyatakan bahwa di antara jin-jin itu ada yang Islam, mengerjakan amal saleh, dan taat kepada Allah, tetapi ada pula yang sebaliknya, yaitu tidak beriman dan ingkar kepada perintah Allah. Jin-jin itu juga mempunyai kemauan bermacam-macam dan pendapat yang berbeda-beda, sehingga di antara mereka ada yang beriman, ada yang fasik, dan ada pula yang kafir, seperti halnya manusia.",
        "intro_surah": "Surah al-Jinn terdiri dari 28 ayat, termasuk kelompok surah Makkiyyah, diturunkan sesudah Surah al-A\u2018r\u0101f.\nNama al-Jinn (jin) diambil dari kata al-jinn yang terdapat pada ayat pertama surah ini. Dalam ayat tersebut dan ayat-ayat berikutnya diterangkan bahwa jin sebagai makhluk halus beriman kepada Allah dan Al-Qur\u2019an. \n\nPokok-pokok Isinya:\nPengetahuan tentang jin diperoleh Nabi Muhammad dengan jalan wahyu; pernyataan iman segolongan jin kepada Allah; jin ada yang mukmin dan ada pula yang kafir; janji Allah kepada jin dan manusia untuk melimpahkan nikmat-Nya bila mereka mengikuti jalan yang lurus; janji perlindungan Allah terhadap Nabi Muhammad dan wahyu yang dibawanya.",
        "outro_surah": null,
        "munasabah_prev_surah": "Dalam Surah N\u016b\u1e25, Allah meminta manusia  supaya beriman kepada-Nya, sedangkan dalam Surah al-Jinn dijelaskan bahwa makhluk-Nya jenis lain, yaitu jin juga beriman kepada-Nya. Hal itu mengandung pelajaran bagi umat Nabi Nuh yang ingkar supaya beriman.",
        "munasabah_prev_theme": "Pada ayat-ayat yang lalu, Allah menerangkan beberapa hal tentang jin dan diri pribadinya. Pada ayat-ayat berikut ini, Allah menambah lagi keterangan-keterangan tersebut.",
        "theme_group": "PENGAKUAN JIN TENTANG PENJAGAAN LANGIT",
        "kosakata": "Kosakata:\n1.\tRa\u1e63adan \u0631\u064e\u0635\u064e\u062f\u064b\u0627 (al-Jinn/72: 9)\n\tRa\u1e63ad artinya \u201cpengintaian\u201d. Kata kerjanya adalah ra\u1e63ada yang artinya \u201cmengintai\u201d. Kata ra\u1e63ad yang terdapat dalam Surah al-Jinn/72: 9 maksudnya adalah bahwa jin yang mencoba-coba mencuri dengar percakapan-percakapan di atas \u2018Arasy, akan berhadapan dengan panah-panah api yang selalu mengintai. Ir\u1e63\u0101d artinya \u201cmelakukan pengintaian\u201d sebagaimana terdapat dalam Surah at-Taubah/9: 107. Al-Mar\u1e63ad adalah tempat mengintai atau memata-matai, sebagaimana terdapat dalam Surah at-Taubah/9: 5. sedangkan al-mir\u1e63\u0101d adalah fungsi sebagai mengintai, misalnya neraka dalam Surah an-Naba'/78: 11, senantiasa mengintai siapa saja yang bersalah untuk masuk ke dalamnya.\n2.\tQidadan \u0642\u0650\u062f\u064e\u062f\u064b\u0627 (al-Jinn/72: 11)\n\tQidadan artinya jalan-jalan. Kata kerjanya adalah qadda yang artinya \u201crobek panjang\u201d. Dalam Surah Y\u016bsuf/12: 25 dikisahkan tentang baju Yusuf yang robek panjang. Qidad adalah jamak dari qiddah yang artinya jalan, karena jalan itu merobek atau memisahkan tanah. Surah al-Jinn/72: 11 menceritakan pengakuan jin bahwa mereka itu berbeda-beda jalan, artinya ada yang beriman dan ada yang kafir.",
        "sabab_nuzul": null,
        "conclusion": null
    }
}