{
    "id": 5460,
    "surah_id": 72,
    "ayah": 13,
    "page": 572,
    "quarter_hizb": 58,
    "juz": 29,
    "manzil": 7,
    "arabic": "\u0648\u0651\u064e\u0627\u064e\u0646\u0651\u064e\u0627 \u0644\u064e\u0645\u0651\u064e\u0627 \u0633\u064e\u0645\u0650\u0639\u0652\u0646\u064e\u0627 \u0627\u0644\u0652\u0647\u064f\u062f\u0670\u0649\u0653 \u0627\u0670\u0645\u064e\u0646\u0651\u064e\u0627 \u0628\u0650\u0647\u0656\u06d7 \u0641\u064e\u0645\u064e\u0646\u0652 \u064a\u0651\u064f\u0624\u0652\u0645\u0650\u0646\u0652\u06e2 \u0628\u0650\u0631\u064e\u0628\u0651\u0650\u0647\u0656 \u0641\u064e\u0644\u064e\u0627 \u064a\u064e\u062e\u064e\u0627\u0641\u064f \u0628\u064e\u062e\u0652\u0633\u064b\u0627 \u0648\u0651\u064e\u0644\u064e\u0627 \u0631\u064e\u0647\u064e\u0642\u064b\u0627\u06d6",
    "latin": "Wa ann\u0101 lamm\u0101 sami\u2018nal-hud\u0101 \u0101mann\u0101 bih(\u012b), famay yu'mim birabbih\u012b fal\u0101 yakh\u0101fu bakhsaw wa l\u0101 rahaq\u0101(n).",
    "translation": "Sesungguhnya ketika mendengar petunjuk (Al-Qur\u2019an), kami pun beriman kepadanya. Maka, siapa yang beriman kepada Tuhannya tidak (perlu) takut akan pengurangan (pahala amalnya) dan tidak (takut pula) akan kesulitan (akibat penambahan dosa).",
    "no_footnote": null,
    "footnotes": null,
    "surah": {
        "id": 72,
        "arabic": "\u0627\u0644\u062c\u0646\u0651",
        "latin": "Al-Jinn",
        "transliteration": "Al-Jinn",
        "translation": "Jin",
        "num_ayah": 28,
        "page": 572,
        "location": "Makkiyah"
    },
    "tafsir": {
        "wajiz": "Setelah berbicara tentang adanya siksa bagi yang durhaka, maka ayat ini berbicara tentang sekelompok jin yang beriman. \"Dan sesungguhnya ketika kami mendengar petunjuk Al-Qur\u2019an, kami beriman kepada-Nya tanpa ragu dan tanpa berpikir panjang, karena petunjuk dalam Al-Qur\u2019an begitu jelas. Maka barang siapa beriman kepada Tuhan dan selalu memperbarui keimanannya, maka tidak perlu ia takut rugi karena berkurang amalnya atau berdosa.\"",
        "tahlili": "Dijelaskan juga bahwa ketika jin-jin itu mendengar Al-Qur\u2019an yang memberi petunjuk kepada jalan yang benar, mereka langsung beriman kepadanya serta mengakui bahwa Al-Qur\u2019an itu dari Allah.\nMenurut Qat\u0101dah, ayat ini memiliki pengertian bahwa barang siapa beriman kepada Allah dan membenarkan apa yang dibawa oleh para rasul, tidak ada kekhawatiran baginya tentang pengurangan pahala kebajikannya dan tidak ada pula dosa orang lain yang harus dipertanggungjawabkannya. Ia akan menerima pahala amal baik sepenuhnya tanpa pengurangan sedikit pun.",
        "intro_surah": "Surah al-Jinn terdiri dari 28 ayat, termasuk kelompok surah Makkiyyah, diturunkan sesudah Surah al-A\u2018r\u0101f.\nNama al-Jinn (jin) diambil dari kata al-jinn yang terdapat pada ayat pertama surah ini. Dalam ayat tersebut dan ayat-ayat berikutnya diterangkan bahwa jin sebagai makhluk halus beriman kepada Allah dan Al-Qur\u2019an. \n\nPokok-pokok Isinya:\nPengetahuan tentang jin diperoleh Nabi Muhammad dengan jalan wahyu; pernyataan iman segolongan jin kepada Allah; jin ada yang mukmin dan ada pula yang kafir; janji Allah kepada jin dan manusia untuk melimpahkan nikmat-Nya bila mereka mengikuti jalan yang lurus; janji perlindungan Allah terhadap Nabi Muhammad dan wahyu yang dibawanya.",
        "outro_surah": null,
        "munasabah_prev_surah": "Dalam Surah N\u016b\u1e25, Allah meminta manusia  supaya beriman kepada-Nya, sedangkan dalam Surah al-Jinn dijelaskan bahwa makhluk-Nya jenis lain, yaitu jin juga beriman kepada-Nya. Hal itu mengandung pelajaran bagi umat Nabi Nuh yang ingkar supaya beriman.",
        "munasabah_prev_theme": "Pada ayat-ayat yang lalu, Allah menerangkan beberapa hal tentang jin dan diri pribadinya. Pada ayat-ayat berikut ini, Allah menambah lagi keterangan-keterangan tersebut.",
        "theme_group": "PENGAKUAN JIN TENTANG PENJAGAAN LANGIT",
        "kosakata": "Kosakata:\n1.\tRa\u1e63adan \u0631\u064e\u0635\u064e\u062f\u064b\u0627 (al-Jinn/72: 9)\n\tRa\u1e63ad artinya \u201cpengintaian\u201d. Kata kerjanya adalah ra\u1e63ada yang artinya \u201cmengintai\u201d. Kata ra\u1e63ad yang terdapat dalam Surah al-Jinn/72: 9 maksudnya adalah bahwa jin yang mencoba-coba mencuri dengar percakapan-percakapan di atas \u2018Arasy, akan berhadapan dengan panah-panah api yang selalu mengintai. Ir\u1e63\u0101d artinya \u201cmelakukan pengintaian\u201d sebagaimana terdapat dalam Surah at-Taubah/9: 107. Al-Mar\u1e63ad adalah tempat mengintai atau memata-matai, sebagaimana terdapat dalam Surah at-Taubah/9: 5. sedangkan al-mir\u1e63\u0101d adalah fungsi sebagai mengintai, misalnya neraka dalam Surah an-Naba'/78: 11, senantiasa mengintai siapa saja yang bersalah untuk masuk ke dalamnya.\n2.\tQidadan \u0642\u0650\u062f\u064e\u062f\u064b\u0627 (al-Jinn/72: 11)\n\tQidadan artinya jalan-jalan. Kata kerjanya adalah qadda yang artinya \u201crobek panjang\u201d. Dalam Surah Y\u016bsuf/12: 25 dikisahkan tentang baju Yusuf yang robek panjang. Qidad adalah jamak dari qiddah yang artinya jalan, karena jalan itu merobek atau memisahkan tanah. Surah al-Jinn/72: 11 menceritakan pengakuan jin bahwa mereka itu berbeda-beda jalan, artinya ada yang beriman dan ada yang kafir.",
        "sabab_nuzul": null,
        "conclusion": null
    }
}