{
    "id": 5487,
    "surah_id": 73,
    "ayah": 12,
    "page": 574,
    "quarter_hizb": 58,
    "juz": 29,
    "manzil": 7,
    "arabic": "\u0627\u0650\u0646\u0651\u064e \u0644\u064e\u062f\u064e\u064a\u0652\u0646\u064e\u0627\u0653 \u0627\u064e\u0646\u0652\u0643\u064e\u0627\u0644\u064b\u0627 \u0648\u0651\u064e\u062c\u064e\u062d\u0650\u064a\u0652\u0645\u064b\u0627\u06d9",
    "latin": "Inna ladain\u0101 ank\u0101law wa ja\u1e25\u012bm\u0101(n).",
    "translation": "Sesungguhnya di sisi Kami ada belenggu-belenggu (yang berat), (neraka) Jahim,",
    "no_footnote": null,
    "footnotes": null,
    "surah": {
        "id": 73,
        "arabic": " \u0627\u0644\u0645\u0632\u0651\u0645\u0651\u0644",
        "latin": "Al-Muzzammil",
        "transliteration": "Al-Muzzammil",
        "translation": "Orang Berkelumun",
        "num_ayah": 20,
        "page": 574,
        "location": "Makkiyah"
    },
    "tafsir": {
        "wajiz": "karena sungguh, di sisi Kami ada belenggu-belenggu yang berat yang akan mengikat mereka dan api neraka yang menyala-nyala,",
        "tahlili": "Ayat ini menggambarkan tentang berbagai macam azab Tuhan di akhirat nanti terhadap pendusta-pendusta tersebut. Allah berkuasa mengazab mereka karena Dia mempunyai belenggu untuk mengikat kaki mereka sebagai penghinaan terhadap mereka dan tidak ada kekhawatiran kalau-kalau mereka melarikan diri. Allah mempunyai api neraka yang menyala-nyala dan dapat menghanguskan serta merusak kulit muka dan badan serta melemahkan sendi-sendi tulang mereka. Allah mempunyai makanan-makanan dalam api neraka yang sifatnya mencekik kerongkongan yang tidak dapat dikeluarkan dan tidak dapat pula ditelan. Hal ini merupakan azab Tuhan yang memedihkan seluruh bagian tubuh mereka.",
        "intro_surah": "Surah al-Muzzammil termasuk kelompok surah Makkiyyah, kecuali ayat 10, 11, dan 12. Ketiga ayat ini termasuk kelompok surah Madaniyyah. Surah al-Muzzammil terdiri dari 20 ayat. Diturunkan sesudah Surah al-Qalam.\nSurah ini dinamai al-Muzzammil (orang yang berselimut), diambil dari ayat pertama yang berbunyi: Y\u0101 ayyuhal muzzammil. Yang dimaksud dengan orang yang berselimut ialah Nabi Muhammad.\n\nPokok-pokok Isinya:\nPetunjuk-petunjuk yang harus dilakukan oleh Rasulullah saw untuk menguatkan rohani guna persiapan menerima wahyu, yaitu dengan bangun di malam hari untuk salat Tahajud, membaca Al-Qur\u2019an dengan tartil, bertasbih, dan bertahmid; perintah bersabar terhadap celaan orang-orang yang mendustakan rasul; umat Islam diperintahkan untuk salat Tahajud, berjihad di jalan Allah, membaca Al-Qur\u2019an, mendirikan salat, menunaikan zakat, membelanjakan harta di jalan Allah, dan memohon ampunan kepada-Nya.",
        "outro_surah": null,
        "munasabah_prev_surah": "1. \tSurah al-Jinn menerangkan ketakjuban segolongan jin yang mendengar-kan pembacaan Al-Qur\u2019an, sedang pada Surah al-Muzzammil, Allah memerintahkan Nabi Muhammad membaca Al-Qur\u2019an pada waktu malam.\n2. \tPada Surah al-Jinn diterangkan bahwa orang-orang kafir Mekah selalu mengganggu Nabi Muhammad jika beliau salat, sedangkan pada Surah al-Muzzammil, Allah memerintahkan agar Nabi Muhammad mengerjakan salat malam untuk menguatkan jiwa.",
        "munasabah_prev_theme": "Pada ayat yang lalu, Allah memerintahkan Nabi Muhammad supaya memperkuat hubungannya dengan pencipta-Nya melalui zikir, tahmid, takbir, salat Tahajud, dan membaca Al-Qur\u2019an sebanyak-banyaknya. Pada ayat-ayat berikut ini, Allah memerintahkan Nabi-Nya supaya melakukan pula hubungan dengan manusia dengan menggunakan kesabaran dalam menghadapi kesulitan. Beliau juga diperintahkan untuk mengasingkan diri dari kelompok orang-orang yang menyakitinya dengan cara yang baik dan menyerahkan kepada Allah perlakuan keji dari golongan musyrik karena Allah yang akan membalas mereka pada hari kemudian.",
        "theme_group": "BEBERAPA PETUNJUK UNTUK\nNABI MUHAMMAD",
        "kosakata": "Kosakata:\n1.\tGu\u1e63\u1e63ah \u063a\u064f\u0635\u0651\u064e\u0629 (al-Muzzammil/73: 13)\n\tKata gu\u1e63\u1e63ah adalah ma\u1e63dar dari kata ga\u1e63\u1e63a-yagu\u1e63\u1e63u-gu\u1e63\u1e63atan yang berarti tersedak. Dari kata ini diambil kalimat ga\u1e63\u1e63al-mak\u0101n berarti tempat itu sempit. Kata gu\u1e63\u1e63ah berarti sesuatu yang melintang di tenggorokan, dan inilah yang dimaksud dengan kata gu\u1e63\u1e63ah yang sedang ditafsirkan ini. Orang-orang yang mendustakan itu nanti di akhirat memperoleh makanan yang bila dimakan maka ia tersedak di tenggorokan, sehingga tidak bisa keluar ataupun masuk.\n2.\tWab\u012blan \u0648\u064e\u0628\u0650\u064a\u0652\u0644\u0627\u064b (al-Muzzammil/73: 16)\n\tKata wab\u012bl mengikuti pola mubalagah (hiperbola) fa\u2018\u012bl. Ia terbentuk dari kata wabala-yabilu-wablan. Pada mulanya, kalimat wabala as-sama' berarti langit menurunkan hujan yang lebat dan besar butiran airnya. Dari kata ini diambil kata rajulun wabilun yang berarti laki-laki yang dermawan. Darinya juga diambil kata wab\u0101l yang berarti akibat buruk yang memberatkan, sebagaimana dalam hadis: \u201cKullu m\u0101lin uddiyat zak\u0101tuhu faqad \u017cahabat wablatuh,\u201d \t(Setiap harta yang ditunaikan zakatnya, maka hilanglah mudarat dan dosanya). Dari kata ini juga diambil kata wab\u012bl yang berarti yang sangat berat, sebagaimana yang dimaksud dari kata wab\u012blan pada ayat yang sedang ditafsirkan ini.",
        "sabab_nuzul": null,
        "conclusion": null
    }
}