{
    "id": 5534,
    "surah_id": 74,
    "ayah": 39,
    "page": 576,
    "quarter_hizb": 58.25,
    "juz": 29,
    "manzil": 7,
    "arabic": "\u0627\u0650\u0644\u0651\u064e\u0627\u0653 \u0627\u064e\u0635\u0652\u062d\u0670\u0628\u064e \u0627\u0644\u0652\u064a\u064e\u0645\u0650\u064a\u0652\u0646\u0650 \u06db ",
    "latin": "Ill\u0101 a\u1e63\u1e25\u0101bal-yam\u012bn(i).",
    "translation": "kecuali golongan kanan,",
    "no_footnote": null,
    "footnotes": null,
    "surah": {
        "id": 74,
        "arabic": " \u0627\u0644\u0645\u062f\u0651\u062b\u0651\u0631",
        "latin": "Al-Mudda\u1e61\u1e61ir",
        "transliteration": "Al-Muddassir",
        "translation": "Orang Berselimut",
        "num_ayah": 56,
        "page": 575,
        "location": "Makkiyah"
    },
    "tafsir": {
        "wajiz": "38-39. Ayat-ayat berikut merupakan pernyataan kepada manusia seluruhnya dalam kaitan dengan kebebasan memilih yang telah ditegaskan pada ayat-ayat sebelumnya. Manusia mau maju meraih kebaikan atau mundur yang jelas setiap orang bertanggung jawab atas apa yang telah dilakukannya masing-masing, kecuali golongan kanan golongan inilah yang meraih keberuntungan karena memilih yang baik.",
        "tahlili": "Dalam ayat ini Allah menegaskan bahwa setiap jiwa manusia tergadai di sisi Allah. Baik yang muslim maupun yang kafir, yang ingkar atau pun yang taat, semuanya tergantung kepada Allah. Tiap jiwa terikat dengan amal yang dikerjakan sampai hari Kiamat, kecuali golongan kanan. Artinya mereka dapat melepaskan keterikatan mereka di sisi Allah dengan amal-amal baik yang mereka kerjakan, sebagaimana halnya seorang dapat melepaskan diri dari status gadai karena telah membayarkan kewajibannya.\nGolongan kanan yang dimaksudkan adalah orang-orang mukmin yang ikhlas, yang menerima buku amalan mereka di sebelah kanan di hari Kiamat. Akan tetapi, ada pula yang mengatakan golongan kanan dalam ayat ini adalah anak-anak yang memang belum diperhitungkan dosa dan kejahatannya. Bahkan ada yang berpendapat golongan kanan itu adalah para malaikat.",
        "intro_surah": "Surah al-Mudda\u1e61\u1e61ir terdiri 56 ayat, termasuk kelompok surah Makkiyyah, diturunkan sesudah Surah al-Muzzammil. \nNama al-Mudda\u1e61\u1e61ir diambil dari perkataan al-mudda\u1e61\u1e61ir yang terdapat pada ayat pertama surah ini.\n\nPokok-pokok Isinya:\nPerintah untuk mulai berdakwah mengagungkan Allah, membersihkan pakaian, menjauhi maksiat, memberikan sesuatu dengan ikhlas, dan bersabar dalam menjalankan perintah serta menjauhi larangan Allah; Allah akan mengazab orang-orang yang menentang Nabi Muhammad dan mendustakan Al-Qur\u2019an; tiap-tiap manusia terikat dengan apa yang telah diusahakannya.",
        "outro_surah": null,
        "munasabah_prev_surah": "1.\tKedua surah ini sama-sama dimulai dengan seruan kepada Nabi Muhammad.\n2.\tSurah al-Muzzammil berisi perintah bangun di malam hari untuk melakukan salat Tahajud dan membaca Al-Qur\u2019an untuk menguatkan jiwa seseorang, sedangkan Surah al-Mudda\u1e61\u1e61ir berisi perintah melakukan dakwah menyucikan diri dan bersabar.",
        "munasabah_prev_theme": "Pada ayat-ayat yang lalu, Allah menjelaskan bahwa peringatan Al-Qur\u2019an ditujukan kepada orang yang mau patuh dan juga kepada orang yang tetap ingkar. Pada ayat-ayat berikut ini, Allah menegaskan tentang fungsi amalan manusia yaitu keadaan mereka di akhirat adalah refleksi (pantulan) dari amal perbuatan mereka di dunia.",
        "theme_group": "EMPAT GOLONGAN \nPENGHUNI NERAKA SAQAR ",
        "kosakata": "Kosakata: Qaswarah \u0642\u064e\u0633\u0652\u0648\u064e\u0631\u064e\u0629 (al-Mudda\u1e61\u1e61ir/74: 51)\n\tKata qaswarah terambil dari kata qasara-yaqsiru-qasran yang berarti memaksa, menaklukkan, berani, kuat perkasa. Kata qaswarah mempunyai banyak arti, antara lain berarti singa, pemburu, penembak jitu, dan awal kegelapan. Keempat arti  tersebut semuanya dapat menjadi penakluk sesuatu.  Oleh sebab itu, kata asal qasara maknanya antara lain adalah menaklukkan. Kata qaswarah dalam ayat 51 Surah al-Mudda\u1e61\u1e61ir berarti singa. Kata qaswarah hanya satu kali disebutkan dalam Al-Qur\u2019an.",
        "sabab_nuzul": null,
        "conclusion": null
    }
}