{
    "id": 5551,
    "surah_id": 74,
    "ayah": 56,
    "page": 577,
    "quarter_hizb": 58.25,
    "juz": 29,
    "manzil": 7,
    "arabic": "\u0648\u064e\u0645\u064e\u0627 \u064a\u064e\u0630\u0652\u0643\u064f\u0631\u064f\u0648\u0652\u0646\u064e \u0627\u0650\u0644\u0651\u064e\u0627\u0653 \u0627\u064e\u0646\u0652 \u064a\u0651\u064e\u0634\u064e\u0627\u06e4\u0621\u064e \u0627\u0644\u0644\u0651\u0670\u0647\u064f \u06d7\u0647\u064f\u0648\u064e \u0627\u064e\u0647\u0652\u0644\u064f \u0627\u0644\u062a\u0651\u064e\u0642\u0652\u0648\u0670\u0649 \u0648\u064e\u0627\u064e\u0647\u0652\u0644\u064f \u0627\u0644\u0652\u0645\u064e\u063a\u0652\u0641\u0650\u0631\u064e\u0629\u0650 \u08d6",
    "latin": "Wa m\u0101 ya\u017ckur\u016bna ill\u0101 ay yasy\u0101'all\u0101h(u), huwa ahlut-taqw\u0101 wa ahlul-magfirah(ti).",
    "translation": "Mereka tidak akan mengambil pelajaran darinya (Al-Qur\u2019an), kecuali (jika) Allah menghendakinya. Dialah yang (kita) patut bertakwa kepada-Nya dan yang berhak memberi ampunan.",
    "no_footnote": null,
    "footnotes": null,
    "surah": {
        "id": 74,
        "arabic": " \u0627\u0644\u0645\u062f\u0651\u062b\u0651\u0631",
        "latin": "Al-Mudda\u1e61\u1e61ir",
        "transliteration": "Al-Muddassir",
        "translation": "Orang Berselimut",
        "num_ayah": 56,
        "page": 575,
        "location": "Makkiyah"
    },
    "tafsir": {
        "wajiz": " Ayat sebelumnya dapat menimbulkan kesan bahwa manusia memiliki kebebasan mutlak, maka ayat ini menegaskan bahwa, dan mereka tidak akan mengambil pelajaran dari Al-Qur\u2019an kecuali jika Allah menghendakinya. Dialah Tuhan yang patut kita bertakwa kepada-Nya dengan melaksanakan segala perintah-Nya dan menjauhi larangan-Nya, dan Dia juga yang berhak memberi ampunan kepada siapa pun yang dikehendaki-Nya.",
        "tahlili": "Ayat ini menegaskan bahwa mereka tidak akan mengambil pelajaran dari Al-Qur\u2019an kecuali jika Allah menghendakinya. Hanya Dia yang berhak memberi ampunan.\nTegasnya tidak ada yang memperoleh peringatan dan pengajaran dari Al-Qur\u2019an melainkan siapa yang dikehendaki Allah. Tidak seorang pun yang sanggup berbuat demikian kecuali berdasarkan kekuasaan yang diberikan Allah. Begitulah Allah berbuat sekehendak-Nya tanpa terhalang oleh siapa pun. Oleh karena itulah kepada Allah saja manusia patut bertakwa, hanya Dia saja yang harus ditakuti dan Dia saja yang harus ditaati. Dialah memberikan ampunan kepada hamba-Nya yang beriman.\nDalam sebuah hadis disebutkan:\n\u0623\u064e\u0646\u0651\u064e \u0631\u064e\u0633\u064f\u0648\u0652\u0644\u064e \u0627\u0644\u0644\u0651\u0670\u0647\u0650 \u0635\u064e\u0644\u0651\u064e\u0649 \u0627\u0644\u0644\u0651\u0670\u0647\u064f \u0639\u064e\u0644\u064e\u064a\u0652\u0647\u0650 \u0648\u064e\u0633\u064e\u0644\u0651\u064e\u0645\u064e \u0642\u064e\u0627\u0644\u064e:\u0641\u0650\u064a\u0652 \u0642\u064e\u0648\u0652\u0644\u0650\u0647\u0650: \ufd3f\u0647\u064f\u0648\u064e \u0627\u064e\u0647\u0652\u0644\u064f \u0627\u0644\u062a\u0651\u064e\u0642\u0652\u0648\u0670\u0649 \u0648\u064e\u0627\u064e\u0647\u0652\u0644\u064f \u0627\u0644\u0652\u0645\u064e\u063a\u0652\u0641\u0650\u0631\u064e\u0629\u0650\ufd3e \u0642\u064e\u0627\u0644\u064e \u064a\u064e\u0642\u064f\u0648\u0652\u0644\u064f \u0631\u064e\u0628\u0651\u064f\u0643\u064f\u0645\u0652: \u0623\u064e\u0646\u0652 \u0627\u064f\u062a\u0651\u064e\u0642\u064e\u0649 \u0623\u064e\u0646\u0652 \u064a\u064f\u062c\u0652\u0639\u064e\u0644\u064e \u0645\u064e\u0639\u0650\u064a\u0652 \u0627\u0650\u0644\u064e\u0647\u064c \u0648\u064e\u0645\u064e\u0646\u0650 \u0627\u062a\u0651\u064e\u0642\u064e\u0649 \u0648\u064e\u0644\u064e\u0646\u0652 \u064a\u064e\u062c\u0652\u0639\u064e\u0644\u064e \u0645\u064e\u0639\u0650\u064a\u0652 \u0627\u0650\u0644\u064e\u0647\u064b\u0627 \u063a\u064e\u064a\u0652\u0631\u0650\u064a\u0652 \u0641\u064e\u0623\u064e\u0646\u064e\u0627 \u0623\u064e\u0647\u0652\u0644\u064c \u0623\u064e\u0646\u0652 \u0627\u064e\u063a\u0652\u0641\u0650\u0631\u064e \u0644\u064e\u0647\u064f. (\u0631\u0648\u0627\u0647 \u0623\u062d\u0645\u062f \u0648\u0627\u0644\u062f\u0627\u0631\u0645\u064a \u0648\u0627\u0644\u062a\u0631\u0645\u0630\u064a \u0648 \u0627\u0644\u0646\u0633\u0627\u0626\u064a \u0648 \u0627\u0628\u0646 \u0645\u0627\u062c\u0647 \u0639\u0646 \u0623\u0646\u0633 \u0628\u0646 \u0645\u0627\u0644\u0643)\nBahwasanya Rasulullah saw, membaca ayat ini \u201chuwa ahlut-taqw\u0101 wa ahlul-magfirah\u201d dan bersabda, \u201cTuhanmu berfirman, \u2018Sayalah yang paling patut ditakuti, maka janganlah dijadikan bersama-Ku Tuhan yang lain. Barang siapa yang takwa kepada-Ku dan sekali-kali ia tidak menjadikan bersama-Ku Tuhan yang lain, maka Aku-lah yang berhak untuk mengampuninya\u2019.\u201d (Riwayat A\u1e25mad, ad-D\u0101rim\u012b, at-Tirmiz\u012b, an-Nas\u0101'\u012b, dan Ibnu M\u0101jah dari Anas bin M\u0101lik)",
        "intro_surah": "Surah al-Mudda\u1e61\u1e61ir terdiri 56 ayat, termasuk kelompok surah Makkiyyah, diturunkan sesudah Surah al-Muzzammil. \nNama al-Mudda\u1e61\u1e61ir diambil dari perkataan al-mudda\u1e61\u1e61ir yang terdapat pada ayat pertama surah ini.\n\nPokok-pokok Isinya:\nPerintah untuk mulai berdakwah mengagungkan Allah, membersihkan pakaian, menjauhi maksiat, memberikan sesuatu dengan ikhlas, dan bersabar dalam menjalankan perintah serta menjauhi larangan Allah; Allah akan mengazab orang-orang yang menentang Nabi Muhammad dan mendustakan Al-Qur\u2019an; tiap-tiap manusia terikat dengan apa yang telah diusahakannya.",
        "outro_surah": "Ringkasan kandungan Surah al-Mudda\u1e61\u1e61ir ini adalah perintah Allah kepada Nabi Muhammad dan kepada umat Islam seluruhnya untuk melakukan dakwah disertai ancaman bagi orang yang menghalang-halanginya.",
        "munasabah_prev_surah": "1.\tKedua surah ini sama-sama dimulai dengan seruan kepada Nabi Muhammad.\n2.\tSurah al-Muzzammil berisi perintah bangun di malam hari untuk melakukan salat Tahajud dan membaca Al-Qur\u2019an untuk menguatkan jiwa seseorang, sedangkan Surah al-Mudda\u1e61\u1e61ir berisi perintah melakukan dakwah menyucikan diri dan bersabar.",
        "munasabah_prev_theme": "Pada ayat-ayat yang lalu, Allah menjelaskan bahwa peringatan Al-Qur\u2019an ditujukan kepada orang yang mau patuh dan juga kepada orang yang tetap ingkar. Pada ayat-ayat berikut ini, Allah menegaskan tentang fungsi amalan manusia yaitu keadaan mereka di akhirat adalah refleksi (pantulan) dari amal perbuatan mereka di dunia.",
        "theme_group": "EMPAT GOLONGAN \nPENGHUNI NERAKA SAQAR ",
        "kosakata": "Kosakata: Qaswarah \u0642\u064e\u0633\u0652\u0648\u064e\u0631\u064e\u0629 (al-Mudda\u1e61\u1e61ir/74: 51)\n\tKata qaswarah terambil dari kata qasara-yaqsiru-qasran yang berarti memaksa, menaklukkan, berani, kuat perkasa. Kata qaswarah mempunyai banyak arti, antara lain berarti singa, pemburu, penembak jitu, dan awal kegelapan. Keempat arti  tersebut semuanya dapat menjadi penakluk sesuatu.  Oleh sebab itu, kata asal qasara maknanya antara lain adalah menaklukkan. Kata qaswarah dalam ayat 51 Surah al-Mudda\u1e61\u1e61ir berarti singa. Kata qaswarah hanya satu kali disebutkan dalam Al-Qur\u2019an.",
        "sabab_nuzul": null,
        "conclusion": "1. \tDi antara yang menyebabkan kecelakaan manusia di hari Kiamat (dilemparkan ke dalam neraka Saqar) adalah:\na. \tTidak mengerjakan salat.\nb. \tTidak memberikan makanan/bantuan kepada orang miskin/golongan tak punya.\nc. \tSering terlibat dalam kelompok yang suka mengolok-olokkan agama.\nd. \tTidak mempercayai hari akhirat.\n2. \tSyafaat (pertolongan) di hari Kiamat hanya bisa diperoleh dengan amal perbuatan sendiri.\n3. \tManusia lari dari agama bagaikan keledai lari ketakutan dikejar singa.\n4. \tTaufik dan hidayah Allah hanya diberikan kepada siapa yang dikehendaki-Nya."
    }
}