{
    "id": 5559,
    "surah_id": 75,
    "ayah": 8,
    "page": 577,
    "quarter_hizb": 58.5,
    "juz": 29,
    "manzil": 7,
    "arabic": "\u0648\u064e\u062e\u064e\u0633\u064e\u0641\u064e \u0627\u0644\u0652\u0642\u064e\u0645\u064e\u0631\u064f\u06d9",
    "latin": "Wa khasafal-qamar(u).",
    "translation": "bulan pun telah hilang cahayanya,",
    "no_footnote": null,
    "footnotes": null,
    "surah": {
        "id": 75,
        "arabic": " \u0627\u0644\u0642\u064a\u0670\u0645\u0629",
        "latin": "Al-Qiy\u0101mah",
        "transliteration": "Al-Qiyamah",
        "translation": "Hari Kiamat",
        "num_ayah": 40,
        "page": 577,
        "location": "Makkiyah"
    },
    "tafsir": {
        "wajiz": "7-10.Atas pertanyaan kaum pendurhaka yang tujuannya untuk mengejek maka ayat ini menegaskan ancamannya kepada mereka. Maka apabila mata terbelalak karena ketakutan, dan bulan pun telah hilang cahayanya, lalu matahari dan bulan dikumpulkan, dan saat itulah Kiamat terjadi. Pada hari itu manusia berkata, \u201cKemana tempat lari untuk menyelamatkan diri?\u201d Sama sekali tidak ada tempat yang aman.",
        "tahlili": "Dalam ayat-ayat ini, Allah menerangkan tiga hal tanda kedatangan hari Kiamat, yakni:\n1. \tApabila mata terbelalak (karena ketakutan). Pada waktu itu, mata tidak sanggup menyaksikan sesuatu hal yang sangat dahsyat. Dalam ayat lain tercantum makna yang sama, yakni:\n\u0645\u064f\u0647\u0652\u0637\u0650\u0639\u0650\u064a\u0652\u0646\u064e \u0645\u064f\u0642\u0652\u0646\u0650\u0639\u0650\u064a\u0652 \u0631\u064f\u0621\u064f\u0648\u0652\u0633\u0650\u0647\u0650\u0645\u0652 \u0644\u064e\u0627 \u064a\u064e\u0631\u0652\u062a\u064e\u062f\u0651\u064f \u0627\u0650\u0644\u064e\u064a\u0652\u0647\u0650\u0645\u0652 \u0637\u064e\u0631\u0652\u0641\u064f\u0647\u064f\u0645\u0652 \u06da\u0648\u064e\u0627\u064e\u0641\u0652\u0640\u0655\u0650\u062f\u064e\u062a\u064f\u0647\u064f\u0645\u0652 \u0647\u064e\u0648\u064e\u0627\u06e4\u0621\u064c \u06d7 \u0664\u0663\nMereka datang tergesa-gesa (memenuhi panggilan) dengan mengangkat kepalanya, sedang mata mereka tidak berkedip-kedip dan hati mereka kosong.  (Ibr\u0101h\u012bm/14: 43)\n\n2. \tApabila bulan telah hilang cahayanya untuk selama-lamanya, bukan seperti keadaan waktu gerhana bulan yang hanya berlangsung sebentar saja.\n3. \tMatahari dan bulan dikumpulkan. Artinya matahari dan bulan saling bertemu, keduanya terbit dan terbenam pada tempat yang sama, menyebabkan gelapnya suasana alam semesta ini. Padahal keadaan begitu tidak pernah terjadi, masing-masing berada dalam posisi yang telah ditentukan. Allah berfirman:\n\u0644\u064e\u0627 \u0627\u0644\u0634\u0651\u064e\u0645\u0652\u0633\u064f \u064a\u064e\u0646\u0652\u06e2\u0628\u064e\u063a\u0650\u064a\u0652 \u0644\u064e\u0647\u064e\u0627\u0653 \u0627\u064e\u0646\u0652 \u062a\u064f\u062f\u0652\u0631\u0650\u0643\u064e \u0627\u0644\u0652\u0642\u064e\u0645\u064e\u0631\u064e \u0648\u064e\u0644\u064e\u0627 \u0627\u0644\u0651\u064e\u064a\u0652\u0644\u064f \u0633\u064e\u0627\u0628\u0650\u0642\u064f \u0627\u0644\u0646\u0651\u064e\u0647\u064e\u0627\u0631\u0650 \u06d7\u0648\u064e\u0643\u064f\u0644\u0651\u064c \u0641\u0650\u064a\u0652 \u0641\u064e\u0644\u064e\u0643\u064d \u064a\u0651\u064e\u0633\u0652\u0628\u064e\u062d\u064f\u0648\u0652\u0646\u064e \u0664\u0660\nTidaklah mungkin bagi matahari mengejar bulan dan malam pun tidak dapat mendahului siang. Masing-masing beredar pada garis edarnya. (Y\u0101s\u012bn/36: 40)\n\nPada saat itulah manusia yang kafir menyadari betapa janji Allah menjadi kenyataan. Semua orang berusaha hendak menyelamatkan diri.\nMenurut kajian ilmiah, skenario kiamat ada bermacam-macam, ada yang berupa skenario besar (Grand Scenario), ada pula skenario \u201clokal\u201d walaupun dampaknya bisa universal dan berpengaruh kepada seluruh alam semesta. Pada Grand Scenario sistem alam semesta mengalami suatu perubahan sistem yang memburuk bahkan bisa secara drastis sehingga alam semesta sebagai sistem menjadi ambruk dan kiamat datang. \nSkenario jenis kedua bersifat \u201clokal\u201d, artinya hanya terjadi di salah satu galaksi atau tata surya. Besar kemungkinan bahwa kejadian ini berlangsung di galaksi Bima Sakti atau bahkan di tata surya kita, di mana manusia berada. Salah satu skenario yang mungkin adalah mengarahnya lubang hitam (black hole) ke tata surya kita. Bila anggota tata surya kita, termasuk planet bumi, dikenai lubang hitam, yang berarti akan tersedot gravitasi yang sangat kuat, maka semua yang ada di permukaan bumi termasuk manusia akan terangkat kemudian kaki-kakinya akan terlepas dan akhirnya tubuh manusia akan tercerai-berai hingga enam puluh empat bagian. Sedangkan pada saat yang sama, matahari akan tersedot, termasuk energi nuklirnya hingga habis, sedangkan planet seluruh anggota tata surya kita dan matahari juga akan bersama-sama tersedot, hingga akan menyatu karena sedotan gravitasi yang sangat kuat. Jelaslah bahwa cahaya bulan dan tentu saja cahaya sumbernya yaitu matahari akan menghilang. Maka seluruh tata surya kita akan lebur sehingga mengganggu keseimbangan galaksi kita, dan akibat universalnya, keseimbangan Bima Sakti ini akan berdampak pada keseimbangan posisi dan energi alam semesta, sehingga kiamat hanyalah soal waktu.",
        "intro_surah": "Surah al-Qiy\u0101mah terdiri atas 40 ayat, 199 kata dan 652 huruf. Termasuk kelompok surah Makkiyyah, dan diturunkan sesudah Surah al-Q\u0101ri\u2018ah. Nama al-Qiy\u0101mah (Hari Kiamat) diambil dari kata al-qiy\u0101mah yang terdapat pada ayat pertama. Dinamakan al-Qiy\u0101mah karena sebagian besar surah ini menceritakan kedahsyatan hari Kiamat. Saat pahala dan siksaan yang dialami manusia tiada batasnya. Pada hari itu manusia menyesal karena sedikitnya perbuatan baik yang telah dikerjakannya.\n\nPokok-pokok Isinya:\n1. \tAllah memastikan kedatangan hari Kiamat itu, disertai gambaran sekitar huru-hara yang terjadi pada masa itu.\n2. \tSurah ini menyebutkan sebagian dari jaminan Allah terhadap kemurnian Al-Qur\u2019an, yakni ayat-ayatnya terpelihara dengan baik dalam dada Nabi, sehingga beliau tidak lupa sedikit pun tentang urutan dan pembacaannya.",
        "outro_surah": null,
        "munasabah_prev_surah": "1. \tSurah al-Mudda\u1e61\u1e61ir menerangkan bahwa bagaimanapun keterangan-keterangan dikemukakan kepada orang-orang kafir itu, namun mereka tetap tidak percaya. Mereka tidak merasa takut dan gentar sedikit pun dengan hari kebangkitan itu, karena mereka tidak mengimaninya. Maka pada ayat ini dalil-dalil tentang hari akhirat itu disebutkan lebih lengkap lagi guna menyempurnakan keterangan yang terdapat di dalam Surah al-Mudda\u1e61\u1e61ir. Di sini disebutkan tentang sifat-sifat hari Kiamat itu, kedahsyatannya dan keadaan manusia pada hari itu. Sebelumnya Allah menerangkan tentang dicabutnya roh manusia pada saat ia meninggal dunia, dan masalah asal mula kejadian manusia yang diciptakan Allah dari setetes air yang kotor (mani).\n2. \tSurah al-Mudda\u1e61\u1e61ir mengungkapkan bahwa orang-orang kafir mendustakan Al-Qur\u2019an dan menganggapnya sebagai perkataan manusia biasa, sedang pada Surah al-Qiy\u0101mah ini, Allah menjamin Al-Qur\u2019an dalam ingatan Nabi dan mengajarkan bacaannya.",
        "munasabah_prev_theme": null,
        "theme_group": "KEDAHSYATAN HARI KIAMAT ",
        "kosakata": "Kosakata:\n1.\tAn-Nafsul-Laww\u0101mah \u0627\u0644\u0646\u0651\u064e\u0641\u0652\u0633\u064f \u0627\u0644\u0644\u0651\u064e\u0648\u0651\u064e\u0627\u0645\u064e\u0629\u064f (al-Qiy\u0101mah/75: 2)\n\tKata al-nafs berasal dari fi\u2018il (kata kerja) nafasa yang berarti \u201cbernapas\u201d. Arti kata tersebut berkembang, sehingga ditemukan arti-arti yang beraneka ragam seperti: menghilangkan, melahirkan, bernapas, jiwa, roh, darah, manusia, diri, hakikat, dan sebagainya.\nKata an-nafs dengan segala bentuknya terulang 313 kali di dalam Al-Qur\u2019an, termasuk dalam Surah al-Qiy\u0101mah ayat 2. Sebanyak 72 kali di antaranya disebut dalam bentuk nafs yang berdiri sendiri.\nSedangkan kata laww\u0101mah terambil dari kata: l\u0101ma-yal\u016bmu-lawman yang berarti \u201cmengecam\u201d. Yang dimaksud di sini adalah menyesal sehingga mengecam diri sendiri. Kata laww\u0101mah hanya satu kali disebutkan dalam Al-Qur\u2019an, yaitu pada Surah al-Qiy\u0101mah ayat 2.\nDengan demikian, maka makna kata an-nafsul-laww\u0101mah dalam Surah al-Qiy\u0101mah ayat 2 diartikan jiwa yang amat menyesali dirinya sendiri. Jiwa yang menyandang sifat an-nafsul-laww\u0101mah berada di antara dua jiwa lainnya, yaitu al-mu\u1e6dmainnah, yakni yang selalu patuh kepada tuntunan Allah dan merasa tenang dengannya, dan al-amm\u0101rah, yakni yang selalu durhaka dan mendorong pemiliknya untuk membangkang perintah Allah dan mengikuti nafsunya.\n2.\tBan\u0101nahu \u0628\u064e\u0646\u064e\u0627\u0646\u064e\u0647\u064f  (al-Qiy\u0101mah/75: 4)\nKata ban\u0101nahu terdiri dari dua kata, yaitu ban\u0101n dan al-h\u0101' (kata ganti kepunyaan orang ketiga tunggal), yang berarti jari-jarinya. Kata ban\u0101n adalah bentuk jamak dari ban\u0101nah, yang berarti jari, ujung jari. Yang dimaksud dalam Surah al-Qiy\u0101mah/75: 4 ini adalah tulang-tulang kecil yang terdapat pada ujung jari-jari kaki dan tangan.\nKata ban\u0101nahu hanya satu kali disebutkan dalam Al-Qur\u2019an, yaitu pada Surah al-Qiy\u0101mah/75: 4. Sedangkan dalam bentuk berdiri sendiri tanpa disandarkan dengan kata lain, yaitu ban\u0101n juga disebutkan hanya 1 kali dalam Al-Qur\u2019an yaitu pada Surah al-Anf\u0101l/8: 12.\n3.\tMa\u2018\u0101\u017c\u012brahu \u0645\u064e\u0639\u064e\u0627\u0630\u0650\u064a\u0652\u0631\u064e\u0647\u064f (al-Qiy\u0101mah/75: 15)\nKata ma\u2018\u0101\u017c\u012brahu terdiri dari dua  kata yaitu ma\u2018\u0101\u017c\u012br dan al-h\u0101' (kata ganti kepunyaan orang ketiga tunggal), yang berarti alasan-alasannya atau argumentasi-argumentasinya. Kata ma\u2018\u0101\u017c\u012br adalah bentuk jamak dari kata ma\u2018\u017cirah. Kata ini pada mulanya digunakan dalam arti alasan atau argumentasi, kemudian kata ini digunakan dalam arti upaya menutupi atau memberi argumentasi untuk menampik kecaman atau siksaan.\nKata ma\u2018\u017cirah dengan beberapa bentuk lainnya disebutkan dua belas kali dalam Al-Qur\u2019an, antara lain disebutkan dalam Surah (al-Qiy\u0101mah) ayat 15, yaitu dengan kata ma\u2018\u0101\u017c\u012brahu. Dari ayat-ayat tersebut, sebagian besar maknanya adalah suatu alasan yang ditujukan kepada Allah dan nabi-Nya supaya dapat dikeluarkan dari api neraka atau dimaafkan dari kesalahan. Akan tetapi, kata ma\u2018\u017cirah atau \u2018u\u017cur digunakan untuk pemberian alasan yang tidak dapat diterima Allah.",
        "sabab_nuzul": null,
        "conclusion": null
    }
}