{
    "id": 5574,
    "surah_id": 75,
    "ayah": 23,
    "page": 578,
    "quarter_hizb": 58.5,
    "juz": 29,
    "manzil": 7,
    "arabic": "\u0627\u0650\u0644\u0670\u0649 \u0631\u064e\u0628\u0651\u0650\u0647\u064e\u0627 \u0646\u064e\u0627\u0638\u0650\u0631\u064e\u0629\u064c \u06da",
    "latin": "Il\u0101 rabbih\u0101 n\u0101\u1e93irah(tun).",
    "translation": "(karena) memandang Tuhannya. ",
    "no_footnote": null,
    "footnotes": null,
    "surah": {
        "id": 75,
        "arabic": " \u0627\u0644\u0642\u064a\u0670\u0645\u0629",
        "latin": "Al-Qiy\u0101mah",
        "transliteration": "Al-Qiyamah",
        "translation": "Hari Kiamat",
        "num_ayah": 40,
        "page": 577,
        "location": "Makkiyah"
    },
    "tafsir": {
        "wajiz": "22-23. Setelah mengecam orang yang durhaka, ayat ini menjelaskan tentang keadaan manusia di akhirat sesuai dengan amalnya ketika di dunia. Wajah-wajah orang mukmin pada hari itu di akhirat berseri-seri karena rasa bahagia yang ada padanya ketika memandang Tuhannya.",
        "tahlili": "Ayat ini menerangkan sebagian hal ihwal manusia pada hari kebangkitan saat wajah-wajah orang beriman pada waktu itu berseri-seri. Golongan yang gembira dan berwajah ceria inilah calon penghuni surga. Merekalah yang berwajah cerah yang mengharapkan perjumpaan dengan Tuhannya.\nDi mana pun mereka dapat melihat-Nya. Artinya mereka langsung memandang kepada Allah tanpa dinding pembatas (hijab). Demikian kesimpulan pendapat ulama ahli sunnah berdasarkan hadis-hadis sahih yang menerangkan lebih lanjut tentang makna melihat Tuhan yang disebutkan dalam ayat ini. Dikatakan bahwa orang yang beriman yang beruntung melihat Allah dengan mata kepalanya sendiri pada hari akhirat sebagaimana mereka melihat bulan purnama yang bersinar terang benderang yang tidak ada awan di bawahnya. Hadis al-Bukh\u0101r\u012b yang menyebutkan hal itu berbunyi:\n\u0627\u0650\u0646\u0651\u064e\u0643\u064f\u0645\u0652 \u0633\u064e\u062a\u064e\u0631\u064e\u0648\u0652\u0646\u064e \u0631\u064e\u0628\u0651\u064e\u0643\u064f\u0645\u0652 \u0639\u064e\u064a\u064e\u0627\u0646\u064b\u0627 \u0643\u064e\u0645\u064e\u0627 \u062a\u064e\u0631\u064e\u0648\u0652\u0646\u064e \u0647\u064e\u0630\u064e\u0627 \u0627\u0644\u0652\u0642\u064e\u0645\u064e\u0631\u064e \u0644\u064e\u0627 \u062a\u064f\u0636\u064e\u0627\u0645\u0651\u064f\u0648\u0652\u0646\u064e \u0641\u0650\u064a\u0652 \u0631\u064f\u0624\u0652\u064a\u064e\u062a\u0650\u0647\u0650 \u0641\u064e\u0625\u0650\u0646\u0650 \u0627\u0633\u0652\u062a\u064e\u0637\u064e\u0639\u0652\u062a\u064f\u0645\u0652 \u0627\u064e\u0646\u0652 \u0644\u064e\u0627 \u062a\u064f\u063a\u0652\u0644\u064e\u0628\u064f\u0648\u0652\u0627 \u0639\u064e\u0644\u064e\u0649 \u0635\u064e\u0644\u064e\u0627\u0629\u064d \u0642\u064e\u0628\u0652\u0644\u064e \u0637\u064f\u0644\u064f\u0648\u0652\u0639\u0650 \u0627\u0644\u0634\u0651\u064e\u0645\u0652\u0633\u0650 \u0648\u064e\u0642\u064e\u0628\u0652\u0644\u064e \u063a\u064f\u0631\u064f\u0648\u0652\u0628\u0650\u0647\u064e\u0627 \u0641\u064e\u0627\u0641\u0652\u0639\u064e\u0644\u064f\u0648\u0652\u0627. (\u0631\u0648\u0627\u0647 \u0627\u0644\u0628\u062e\u0627\u0631\u064a \u0648\u0645\u0633\u0644\u0645 \u0639\u0646 \u062c\u0631\u064a\u0631 \u0628\u0646 \u0639\u0628\u062f \u0627\u0644\u0644\u0647)\nSesungguhnya kamu akan melihat Tuhanmu dengan mata kepalamu sendiri (terang-terang) sebagaimana kamu melihat bulan (purnama), kamu tidak berdesak-desakan dalam melihat-Nya. Jika kamu mampu tidak meninggalkan salat sebelum terbit matahari dan terbenam matahari maka lakukanlah.  (Riwayat al-Bukh\u0101r\u012b dan Muslim dari Jar\u012br bin \u2018Abdill\u0101h)\n\nSekalipun ada keterangan yang jelas dari ayat 22 ini yang diperkuat dengan beberapa hadis di atas yang menegaskan bahwa manusia mukmin nanti melihat sendiri wajah Allah itu, namun sebagian dari ulama salaf mencoba mentakwilkan (memalingkan) pengertian ayat dan hadis-hadis tersebut. Muj\u0101hid (seorang tabiin yang terkenal) berpendapat bahwa arti melihat Allah di dalam surga adalah \u201cmelihat pahala yang ada di sisi Allah\u201d. Namun hal demikian dianggap tidak berdasarkan alasan yang kuat, sebab kata-kata \u201cna\u1e93ara\u201d (melihat) dalam bahasa Arab betul-betul berarti melihat dengan mata kepala sendiri bukan melihat dengan mata hati dan sebagainya.\nPermasalahan tentang \u201capakah manusia nanti melihat Allah pada hari Kiamat atau tidak?\u201d menjadi persoalan yang diperselisihkan (khilafiah) sejak dari dahulu. Ulama ahli sunnah tetap berpendirian bahwa orang mukmin pasti melihat Allah berdasarkan ayat di atas, ditambah keterangan dari berbagai hadis sahih. Sebaliknya ulama-ulama Mu\u2018tazilah menegaskan tidak mungkin sama sekali manusia melihat wajah dan zat Allah berdasarkan bunyi ayat ke 103 Surah al-An\u2018\u0101m: Dia tidak dapat dicapai oleh penglihatan mata, sedang Dia dapat melihat segala penglihatan itu.\nAyat ini, menurut Mu\u2018tazilah, terbatas pengertiannya pada melihat nikmat, keridaan, dan pahala yang disediakan Allah. Persoalan akhirat adalah persoalan gaib, tidak dapat kita ukur dalam perbandingan dengan apa yang ada sekarang.\nJalan yang ringkas dan selamat serta tidak terlibat dalam pertikaian yang berlarut-larut itu adalah \u201cmengimani sepenuhnya apa yang diberikan ayat tanpa membahasnya lagi. Bagaimana pengertian yang sesungguhnya, kita serahkan kepada Allah saja. Masih banyak lapangan ijtihad (pemikiran) yang lain bila seseorang ingin mendalami maksud ayat-ayat suci Al-Qur\u2019an.\u201d\nBerikut ini kita kutip beberapa hadis tentang melihat Allah di akhirat:\n\u0642\u064e\u0627\u0644\u064f\u0648\u0652\u0627 \u064a\u064e\u0627\u0631\u064e\u0633\u064f\u0648\u0652\u0644\u064e \u0627\u0644\u0644\u0651\u0670\u0647\u0650 \u0635\u064e\u0644\u0651\u064e\u0649 \u0627\u0644\u0644\u0651\u0670\u0647\u064f \u0639\u064e\u0644\u064e\u064a\u0652\u0647\u0650 \u0648\u064e\u0633\u064e\u0644\u0651\u064e\u0645\u064e \u0647\u064e\u0644\u0652 \u0646\u064e\u0631\u064e\u0649 \u0631\u064e\u0628\u0651\u064e\u0646\u064e\u0627 \u064a\u064e\u0648\u0652\u0645\u064e \u0627\u0644\u0652\u0642\u0650\u064a\u064e\u0627\u0645\u064e\u0629\u0650 \u0641\u064e\u0642\u064e\u0627\u0644\u064e \u0647\u064e\u0644\u0652 \u062a\u064f\u0636\u064e\u0627\u0631\u0651\u064f\u0648\u0652\u0646\u064e \u0641\u0650\u064a\u0652 \u0631\u064f\u0624\u0652\u064a\u064e\u0629\u0650 \u0627\u0644\u0634\u0651\u064e\u0645\u0652\u0633\u0650 \u0648\u064e\u0627\u0644\u0652\u0642\u064e\u0645\u064e\u0631\u0650 \u0644\u064e\u064a\u0652\u0633\u064e \u062f\u064f\u0648\u0652\u0646\u064e\u0647\u064f\u0645\u064e\u0627 \u0633\u064e\u062d\u064e\u0627\u0628\u064c \u0642\u064e\u0627\u0644\u064f\u0648\u0652\u0627: \u0644\u064e\u0627\u060c \u0642\u064e\u0627\u0644\u064e \u0641\u064e\u0625\u0650\u0646\u0651\u064e\u0643\u064f\u0645\u0652 \u062a\u064e\u0631\u064e\u0648\u0652\u0646\u064e \u0631\u064e\u0628\u0651\u064e\u0643\u064f\u0645\u0652 \u0643\u064e\u0630\u064e\u0644\u0650\u0643\u064e (\u0631\u0648\u0627\u0647 \u0627\u0644\u0628\u062e\u0627\u0631\u064a \u0648 \u0645\u0633\u0644\u0645 \u0639\u0646 \u0623\u0628\u064a \u0647\u0631\u064a\u0631\u0629)\nOrang-orang bertanya kepada Rasulullah saw, \u201cWahai Rasulullah apakah kami dapat melihat Tuhan kami di hari Kiamat kelak?\u201d Beliau menjawab, \u201cApakah sulit bagi kalian melihat matahari dan bulan yang tidak dihalangi oleh awan?\u201d Mereka menjawab, \u201cTidak.\u201d Beliau bersabda lagi, \u201cDemikian pula kamu melihat Tuhanmu.\u201d (Riwayat al-Bukh\u0101r\u012b dan Muslim dari Ab\u016b Hurairah)\n\n\u0639\u064e\u0646\u0652 \u0635\u064f\u0647\u064e\u064a\u0652\u0628\u064d \u0639\u064e\u0646\u0650 \u0627\u0644\u0646\u064e\u0628\u0650\u064a\u0651\u0650 \u0635\u064e\u0644\u0651\u064e\u0649 \u0627\u0644\u0644\u0651\u0670\u0647\u064f \u0639\u064e\u0644\u064e\u064a\u0652\u0647\u0650 \u0648\u064e\u0633\u064e\u0644\u0651\u064e\u0645\u064e \u0642\u064e\u0627\u0644\u064e \u0627\u0650\u0630\u064e\u0627 \u062f\u064e\u062e\u064e\u0644\u064e \u0627\u064e\u0647\u0652\u0644\u064f \u0627\u0644\u0652\u062c\u064e\u0646\u0651\u064e\u0629\u0650 \u0627\u0644\u0652\u062c\u064e\u0646\u0651\u064e\u0629\u064e \u064a\u064e\u0642\u064f\u0648\u0652\u0644\u064f \u0627\u0644\u0644\u0651\u0670\u0647\u064f \u062a\u064e\u0639\u064e\u0627\u0644\u064e\u0649: \u062a\u064f\u0631\u0650\u064a\u0652\u062f\u064f\u0648\u0652\u0646\u064e \u0634\u064e\u064a\u0652\u0626\u064b\u0627 \u0627\u064e\u0632\u0650\u064a\u0652\u062f\u064f\u0643\u064f\u0645\u0652\u060c \u0641\u064e\u064a\u064e\u0642\u064f\u0648\u0652\u0644\u064f\u0648\u0652\u0646\u064e: \u0627\u064e\u0644\u064e\u0645\u0652 \u062a\u064f\u0628\u064e\u064a\u0651\u0650\u0636\u0652 \u0648\u064f\u062c\u064f\u0648\u0652\u0647\u064e\u0646\u064e\u0627\u060c \u0627\u064e\u0644\u064e\u0645\u0652 \u062a\u064f\u062f\u0652\u062e\u0650\u0644\u0652\u0646\u064e\u0627 \u0627\u0644\u0652\u062c\u064e\u0646\u0651\u064e\u0629\u064e \u0648\u064e\u062a\u064f\u0646\u0652\u062c\u0650\u0646\u064e\u0627 \u0645\u0650\u0646\u064e \u0627\u0644\u0646\u0651\u064e\u0627\u0650\u0631\u060c \u0642\u064e\u0627\u0644\u064e \u0641\u064e\u064a\u064e\u0643\u0652\u0634\u0650\u0641\u064f \u0627\u0644\u0652\u062d\u0650\u062c\u064e\u0627\u0628\u064e \u0641\u064e\u0645\u064e\u0627 \u0627\u064f\u0639\u0652\u0637\u064f\u0648\u0652\u0627 \u0634\u064e\u064a\u0652\u0626\u064b\u0627 \u0627\u064e\u062d\u064e\u0628\u0651\u064e \u0627\u0650\u0644\u064e\u064a\u0652\u0647\u0650\u0645\u0652 \u0645\u0650\u0646\u064e \u0627\u0644\u0646\u0651\u064e\u0638\u0652\u0631\u0650 \u0650\u0627\u0644\u064e\u0649 \u0631\u064e\u0628\u0650\u0651\u0647\u0650\u0645\u0652 \u062b\u064f\u0645\u0651\u064e \u062a\u064e\u0644\u064e\u0627 \u0647\u064e\u0630\u0650\u0647\u0650 \u0627\u0652\u0644\u0622\u064a\u064e\u0629\u064e: \ufd3f\u0644\u0650\u0644\u0651\u064e\u0630\u0650\u064a\u0652\u0646\u064e \u0627\u064e\u062d\u0652\u0633\u064e\u0646\u064f\u0648\u0627 \u0627\u0644\u0652\u062d\u064f\u0633\u0652\u0646\u0670\u0649 \u0648\u064e\u0632\u0650\u064a\u064e\u0627\u062f\u064e\u0629\u064c\ufd3e. (\u0631\u0648\u0627\u0647 \u0645\u0633\u0644\u0645)\nDiriwayatkan dari \u1e62uhaib dari Nabi saw bahwa beliau bersabda, \u201cBila penduduk surga telah masuk ke dalam surga, Allah berfirman, \u2018Apakah engkau ingin lagi sesuatu yang hendak Aku tambahkan?\u2019 Mereka menjawab, \u2018Bukankah Engkau sudah cerahkan wajah kami, bukankah telah Engkau masukkan kami ke dalam surga. Dan telah Engkau lepaskan kami dari api neraka?\u2019 Nabi bersabda dan kemudian hijab pun tersingkap, maka tiadalah sesuatu pemberian yang lebih mereka senangi selain daripada melihat Tuhan mereka.\u201d Kemudian beliau membaca ayat ini (Y\u016bnus/10: 26): lilla\u017c\u012bna a\u1e25san\u016bul-\u1e25usn\u0101 wa ziy\u0101dah.  (Riwayat Muslim)",
        "intro_surah": "Surah al-Qiy\u0101mah terdiri atas 40 ayat, 199 kata dan 652 huruf. Termasuk kelompok surah Makkiyyah, dan diturunkan sesudah Surah al-Q\u0101ri\u2018ah. Nama al-Qiy\u0101mah (Hari Kiamat) diambil dari kata al-qiy\u0101mah yang terdapat pada ayat pertama. Dinamakan al-Qiy\u0101mah karena sebagian besar surah ini menceritakan kedahsyatan hari Kiamat. Saat pahala dan siksaan yang dialami manusia tiada batasnya. Pada hari itu manusia menyesal karena sedikitnya perbuatan baik yang telah dikerjakannya.\n\nPokok-pokok Isinya:\n1. \tAllah memastikan kedatangan hari Kiamat itu, disertai gambaran sekitar huru-hara yang terjadi pada masa itu.\n2. \tSurah ini menyebutkan sebagian dari jaminan Allah terhadap kemurnian Al-Qur\u2019an, yakni ayat-ayatnya terpelihara dengan baik dalam dada Nabi, sehingga beliau tidak lupa sedikit pun tentang urutan dan pembacaannya.",
        "outro_surah": null,
        "munasabah_prev_surah": "1. \tSurah al-Mudda\u1e61\u1e61ir menerangkan bahwa bagaimanapun keterangan-keterangan dikemukakan kepada orang-orang kafir itu, namun mereka tetap tidak percaya. Mereka tidak merasa takut dan gentar sedikit pun dengan hari kebangkitan itu, karena mereka tidak mengimaninya. Maka pada ayat ini dalil-dalil tentang hari akhirat itu disebutkan lebih lengkap lagi guna menyempurnakan keterangan yang terdapat di dalam Surah al-Mudda\u1e61\u1e61ir. Di sini disebutkan tentang sifat-sifat hari Kiamat itu, kedahsyatannya dan keadaan manusia pada hari itu. Sebelumnya Allah menerangkan tentang dicabutnya roh manusia pada saat ia meninggal dunia, dan masalah asal mula kejadian manusia yang diciptakan Allah dari setetes air yang kotor (mani).\n2. \tSurah al-Mudda\u1e61\u1e61ir mengungkapkan bahwa orang-orang kafir mendustakan Al-Qur\u2019an dan menganggapnya sebagai perkataan manusia biasa, sedang pada Surah al-Qiy\u0101mah ini, Allah menjamin Al-Qur\u2019an dalam ingatan Nabi dan mengajarkan bacaannya.",
        "munasabah_prev_theme": "Pada ayat-ayat yang lalu diterangkan bahwa manusia mengetahui baik dan buruk diri sendiri. Pada ayat-ayat berikut ini dijelaskan kepada Nabi Muhammad bahwa wahyu pasti diberikan kepadanya, maka jangan terburu-buru menguasainya.",
        "theme_group": "PENGATURAN SURAH DAN AYAT\nMENURUT KEHENDAK ALLAH\t",
        "kosakata": "Kosakata:\n1.\tN\u0101\u1e0dirah  \u0646\u064e\u0627\u0636\u0650\u0631\u064e\u0629\u064c (al-Qiy\u0101mah/75: 22)\n\tKata n\u0101\u1e0dirah adalah isim f\u0101\u2018il dari na\u1e0dara-yan\u1e0duru-na\u1e0dran, na\u1e0dratan, na\u1e0d\u0101ratan, yang berarti segar, bagus, cantik. Dari sinilah berkembang makna n\u0101\u1e0dirah yang dalam ayat 22 Surah al-Qiy\u0101mah menjadi berseri-seri, yakni pada hari Kiamat ada wajah-wajah yang berseri-seri.\n\tDalam Al-Qur\u2019an kata n\u0101\u1e0dirah hanya sekali disebutkan dan dalam bentuk lainnya juga disebutkan satu kali yaitu dengan kata na\u1e0dratan pada Surah al-Ins\u0101n/76 ayat 11.\n2.\tN\u0101\u1e93irah \u0646\u064e\u0627\u0638\u0650\u0631\u064e\u0629\u064c (al-Qiy\u0101mah/75: 23) \n\tN\u0101\u1e93irah merupakan bentuk isim fa\u2018il dari kata kerja na\u1e93ara-yan\u1e93uru yang artinya melihat. Dengan demikian, n\u0101\u1e93irah diartikan sebagai yang melihat. Dalam kaitan dengan maknanya pada ayat ini ada dua pendapat yang saling berbeda. Yang pertama memahami bahwa maknanya adalah sebagaimana arti utamanya, yaitu melihat dengan mata kepala. Dengan arti seperti ini, maka ayat tersebut mengisyaratkan bahwa manusia dapat melihat Tuhan kelak di akhirat. Dalam konteks ayat ini sebagian dari kelompok ini menggarisbawahi bahwa melihat yang dimaksud adalah dengan pandangan khusus. Namun sebagian lagi menyatakan bahwa yang dimaksud adalah melihat dengan mata kepala. Pendapat yang terakhir ini didasarkan pada hadis-hadis yang diriwayatkan sekian banyak orang dan berasal dari beberapa sahabat, antara lain Jar\u012br bin \u2018Abdill\u0101h, Ab\u016b Hurairah, dan Ab\u016b Sa\u2018\u012bd al-Khudr\u012b. Di antaranya adalah yang diriwayatkan al-Bukh\u0101r\u012b dari Jar\u012br bin \u2018Abdill\u0101h bahwa Nabi saw duduk bersama sahabat-sahabat saat bulan purnama, kemudian beliau bersabda: \u201cSesungguhnya kamu akan melihat Tuhan kamu sebagaimana kamu melihat bulan purnama ini.\u201d\n\tSementara itu, kelompok kedua memahami n\u0101\u1e93irah bukan dalam arti melihat, tetapi dalam arti menunggu. Arti menanti ini diambil karena juga merupakan salah satu makna dari kata tersebut. Yang dimaksud pada ayat ini adalah menunggu nikmat-nikmat Allah. Pemaknaan seperti ini, menurut mereka, didasarkan pada argumen bahwa mata manusia yang bersifat materi tidak akan mampu melihat Tuhan yang immateri. Selain itu ada pula ayat yang menguatkan pendapat bahwa mata itu tidak dapat menjangkau Tuhan, seperti firman Allah pada Surah al-An\u2018\u0101m ayat 103, yaitu: \u201cDia tidak dapat dijangkau oleh penglihatan mata, sedang Dia dapat menjangkau segala penglihatan, dan Dialah Yang Maha Tersembunyi lagi Maha Mengetahui.\u201d",
        "sabab_nuzul": null,
        "conclusion": null
    }
}