{
    "id": 5591,
    "surah_id": 75,
    "ayah": 40,
    "page": 578,
    "quarter_hizb": 58.5,
    "juz": 29,
    "manzil": 7,
    "arabic": "\u0627\u064e\u0644\u064e\u064a\u0652\u0633\u064e \u0630\u0670\u0644\u0650\u0643\u064e \u0628\u0650\u0642\u0670\u062f\u0650\u0631\u064d \u0639\u064e\u0644\u0670\u0653\u0649 \u0627\u064e\u0646\u0652 \u064a\u0651\u064f\u062d\u0652\u064a\u0650 \u06e7\u064e \u0627\u0644\u0652\u0645\u064e\u0648\u0652\u062a\u0670\u0649 \u08d6",
    "latin": "Alaisa \u017c\u0101lika  biq\u0101dirin \u2018al\u0101 ay yu\u1e25yiyal-maut\u0101.",
    "translation": "Bukankah (Allah) itu kuasa (pula) menghidupkan orang mati?",
    "no_footnote": null,
    "footnotes": null,
    "surah": {
        "id": 75,
        "arabic": " \u0627\u0644\u0642\u064a\u0670\u0645\u0629",
        "latin": "Al-Qiy\u0101mah",
        "transliteration": "Al-Qiyamah",
        "translation": "Hari Kiamat",
        "num_ayah": 40,
        "page": 577,
        "location": "Makkiyah"
    },
    "tafsir": {
        "wajiz": "37-40. Kalau manusia menduga seperti itu, sungguh itu adalah dugaan yang keliru. Bukankah dia mulanya hanya setetes mani yang ditumpahkan ke dalam rahim, kemudian mani itu setelah bertemu dengan sel telur menjadi sesuatu yang melekat, lalu Allah Yang Mahakuasa menciptakannya dan menyempurnakan kejadiannya, lalu Dia menjadikan darinya sepasang laki-laki dan perempuan. Begitulah siklus reproduksi manusia yang diberi kesempatan hidup di dunia untuk diberi tugas dan tanggung jawab. Dan pastilah akan dibangkitkan untuk dimintai pertanggung jawaban. Bukankah Allah yang berbuat demikian hebat dan menakjubkan, berkuasa pula menghidupkan orang mati? Kalau manusia masih tetap durhaka, berarti sudah tertutup mata hatinya.",
        "tahlili": "Ayat ini merupakan jawaban dari semua itu, bahwa bukankah Allah yang berbuat demikian, berkuasa pula menghidupkan orang yang telah mati? Maksud pernyataan ini adalah apakah Zat yang menciptakan makhluk yang sempurna dari setetes air mani itu tidak sanggup mengembalikan orang yang sudah meninggal? Justru yang demikian itu lebih mudah bagi-Nya. Begitulah Allah menegaskan dalam firman-Nya:\n\u0648\u064e\u0647\u064f\u0648\u064e \u0627\u0644\u0651\u064e\u0630\u0650\u064a\u0652 \u064a\u064e\u0628\u0652\u062f\u064e\u0624\u064f\u0627 \u0627\u0644\u0652\u062e\u064e\u0644\u0652\u0642\u064e \u062b\u064f\u0645\u0651\u064e \u064a\u064f\u0639\u0650\u064a\u0652\u062f\u064f\u0647\u0657 \u0648\u064e\u0647\u064f\u0648\u064e \u0627\u064e\u0647\u0652\u0648\u064e\u0646\u064f \u0639\u064e\u0644\u064e\u064a\u0652\u0647\u0650\u06d7 \u0648\u064e\u0644\u064e\u0647\u064f \u0627\u0644\u0652\u0645\u064e\u062b\u064e\u0644\u064f \u0627\u0644\u0652\u0627\u064e\u0639\u0652\u0644\u0670\u0649 \u0641\u0650\u0649 \u0627\u0644\u0633\u0651\u064e\u0645\u0670\u0648\u0670\u062a\u0650 \u0648\u064e\u0627\u0644\u0652\u0627\u064e\u0631\u0652\u0636\u0650\u06da \u0648\u064e\u0647\u064f\u0648\u064e \u0627\u0644\u0652\u0639\u064e\u0632\u0650\u064a\u0652\u0632\u064f \u0627\u0644\u0652\u062d\u064e\u0643\u0650\u064a\u0652\u0645\u064f \u08d6 \u0662\u0667\nDan Dialah yang memulai penciptaan, kemudian mengulanginya kembali, dan itu lebih mudah bagi-Nya. Dia memiliki sifat yang Mahatinggi di langit dan di bumi. Dan Dialah Yang Mahaperkasa, Mahabijaksana. (ar-R\u016bm/30: 27)\n\nDalam beberapa hadis disebutkan bahwa bila selesai membaca surah ini, Rasulullah saw berdoa:\n\u0625\u0650\u0646\u0651\u064e \u0631\u064e\u0633\u064f\u0648\u0652\u0644\u064e \u0627\u0644\u0644\u0651\u0670\u0647\u0650 \u0635\u064e\u0644\u0651\u064e\u0649 \u0627\u0644\u0644\u0651\u0670\u0647\u064f \u0639\u064e\u0644\u064e\u064a\u0652\u0647\u0650 \u0648\u064e\u0633\u064e\u0644\u0651\u064e\u0645\u064e \u0643\u064e\u0627\u0646\u064e \u0625\u0650\u0630\u064e\u0627 \u0642\u064e\u0631\u064e\u0623\u064e: \ufd3f\u0627\u064e\u0644\u064e\u064a\u0652\u0633\u064e \u0630\u0670\u0644\u0650\u0643\u064e \u0628\u0650\u0642\u0670\u062f\u0650\u0631\u064d \u0639\u064e\u0644\u0670\u0653\u0649 \u0627\u064e\u0646\u0652 \u064a\u0651\u064f\u062d\u0652\u064a\u0650 \u06e7\u064e \u0627\u0644\u0652\u0645\u064e\u0648\u0652\u062a\u0670\u0649 \ufd3e \u0642\u064e\u0627\u0644\u064e: \u0633\u064f\u0628\u0652\u062d\u064e\u0627\u0646\u064e\u0643\u064e \u0627\u0644\u0644\u0651\u0670\u0647\u064f\u0645\u0651\u064e \u0648\u064e\u0628\u064e\u0644\u064e\u0649. (\u0631\u0648\u0627\u0647 \u0627\u0628\u0646 \u0645\u0631\u062f\u0648\u064a\u0647 \u0639\u0646 \u0623\u0628\u064a \u0647\u0631\u064a\u0631\u0629)\n\nSesungguhnya Rasulullah saw selepas membaca Surah al-Qiy\u0101mah, memanjatkan doa, \u201cSub\u1e25\u0101naka Allahumma wa bal\u0101\u201d (Maha Suci Engkau ya Allah dan Engkaulah yang Mahakuasa). (Riwayat Ibnu Mardawaih dari Ab\u016b Hurairah) \n\nDemikian pula bila selesai membaca Surah at-T\u012bn, beliau berdoa:\n\u0642\u064e\u0627\u0644\u064e \u0631\u064e\u0633\u064f\u0648\u0652\u0644\u064f \u0627\u0644\u0644\u0651\u0670\u0647\u0650 \u0635\u064e\u0644\u0651\u064e\u0649 \u0627\u0644\u0644\u0651\u0670\u0647\u064f \u0639\u064e\u0644\u064e\u064a\u0652\u0647\u0650 \u0648\u064e\u0633\u064e\u0644\u0651\u064e\u0645\u064e : \u0645\u064e\u0646\u0652 \u0642\u064e\u0631\u064e\u0623\u064e \u0645\u0650\u0646\u0652\u0643\u064f\u0645\u0652 \ufd3f\u0648\u064e\u0627\u0644\u062a\u0651\u0650\u064a\u0652\u0646\u0650 \u0648\u064e\u0627\u0644\u0632\u0651\u064e\u064a\u0652\u062a\u064f\u0648\u0652\u0646\u0650\ufd3e \u0641\u064e\u0627\u0646\u0652\u062a\u064e\u0647\u064e\u0649 \u0625\u0650\u0644\u064e\u0649 \u0622\u062e\u0650\u0631\u0650\u0647\u064e\u0627 \ufd3f\u0623\u064e\u0644\u064e\u064a\u0652\u0633\u064e \u0627\u0644\u0644\u0651\u0670\u0647\u064f \u0628\u0650\u0623\u064e\u062d\u0652\u0643\u064e\u0645\u0650 \u0627\u0644\u0652\u062d\u064e\u0627\u0643\u0650\u0645\u0650\u064a\u0652\u0646\u064e\ufd3e \u0641\u064e\u0644\u0652\u064a\u064e\u0642\u064f\u0644\u0652: \u00bb\u0628\u064e\u0644\u064e\u0649 \u0648\u064e\u0627\u064e\u0646\u064e\u0627 \u0639\u064e\u0644\u064e\u0649 \u0630\u064e\u0644\u0650\u0643\u064e \u0645\u0650\u0646\u064e \u0627\u0644\u0634\u0651\u064e\u0627\u0647\u0650\u062f\u0650\u064a\u0652\u0646\u064e\u1e0d. \u0648\u064e\u0645\u064e\u0646\u0652 \u0642\u064e\u0631\u064e\u0623\u064e \ufd3f\u0644\u064e\u0627 \u0623\u064f\u0642\u0652\u0633\u0650\u0645\u064f \u0628\u0650\u064a\u064e\u0648\u0652\u0645\u0650 \u0627\u0644\u0652\u0642\u0650\u064a\u064e\u0627\u0645\u064e\u0629\u0650\ufd3e \u0641\u064e\u0627\u0646\u062a\u064e\u0647\u064e\u0649 \u0625\u0650\u0644\u064e\u0649 \ufd3f\u0623\u064e\u0644\u064e\u064a\u0652\u0633\u064e \u0630\u064e\u0644\u0650\u0643\u064e \u0628\u0650\u0642\u064e\u0627\u062f\u0650\u0631\u064d \u0639\u064e\u0644\u064e\u0649 \u0623\u064e\u0646\u0652 \u064a\u064f\u062d\u0652\u064a\u0650\u064a\u064e \u0627\u0644\u0652\u0645\u064e\u0648\u0652\u062a\u064e\u0649\ufd3e \u0641\u064e\u0644\u0652\u064a\u064e\u0642\u064f\u0644: \u00bb\u0628\u064e\u0644\u064e\u0649\u1e0d. \u0648\u064e\u0645\u064e\u0646\u0652 \u0642\u064e\u0631\u064e\u0623\u064e \ufd3f\u0648\u064e\u0627\u0644\u0652\u0645\u064f\u0631\u0652\u0633\u064e\u0644\u064e\u0627\u062a\u0650\ufd3e \u0641\u064e\u0628\u064e\u0644\u064e\u063a\u064e \ufd3f\u0641\u064e\u0628\u0650\u0623\u064e\u064a\u0651\u0650 \u062d\u064e\u062f\u0650\u064a\u0652\u062b\u064d \u0628\u064e\u0639\u0652\u062f\u064e\u0647\u064f \u064a\u064f\u0624\u0652\u0645\u0650\u0646\u064f\u0648\u0652\u0646\u064e\ufd3e \u0641\u064e\u0644\u0652\u064a\u064e\u0642\u064f\u0644\u0652: \u00bb\u0622\u0645\u064e\u0646\u0651\u064e\u0627 \u0628\u0650\u0627\u0644\u0644\u0651\u0670\u0647\u0650\u1e0d. (\u0631\u0648\u0627\u0647 \u0623\u062d\u0645\u062f \u0648\u0623\u0628\u0648 \u062f\u0627\u0648\u062f \u0648\u0627\u0644\u062a\u0631\u0645\u0630\u064a \u0648\u0627\u0628\u0646 \u0627\u0644\u0645\u0646\u0630\u0631 \u0648\u0627\u0628\u0646 \u0645\u0631\u062f\u0648\u064a\u0647 \u0648\u0627\u0644\u0628\u064a\u0647\u0642\u064a \u0648\u0627\u0644\u062d\u0627\u0643\u0645 \u0648\u0635\u062d\u062d\u0647 \u0639\u0646 \u0623\u0628\u064a \u0647\u0631\u064a\u0631\u0629)\nRasulullah bersabda: Siapa saja yang membaca Surah at-T\u012bn sampai selesai, hendaklah ia berdoa, \u201cBal\u0101 wa'ana \u2018al\u0101 \u017c\u0101likum minasy-sy\u0101hid\u012bn\u201d (Ya , saya bersaksi atas hal tersebut). Dan siapa yang membaca Surah al-Qiy\u0101mah sampai akhir, hendaklah ia berdoa, \u201cBal\u0101\u201d (ya, Engkaulah yang Mahakuasa). Dan siapa yang membaca Surah al-Mursal\u0101t hingga akhir, hendaklah ia berdoa, \u201c\u0100mann\u0101 bill\u0101hi\u201d (kami beriman kepada Allah). (Riwayat A\u1e25mad, Ab\u016b D\u0101wud, at-Tirmi\u017c\u012b, ibnu al-Mun\u017cir, Ibnu Mardawaih, al-Baihaq\u012b, dan disahihkan oleh al-\u1e24\u0101kim dari Ab\u016b Hurairah)\n\nDoa-doa di atas dibaca Rasulullah setelah membaca ayat-ayat seperti ini ketika di luar salat. Sedangkan ketika dalam salat, beliau tidak melakukannya dan tidak terdapat keterangan atau dalil tentang hal itu.",
        "intro_surah": "Surah al-Qiy\u0101mah terdiri atas 40 ayat, 199 kata dan 652 huruf. Termasuk kelompok surah Makkiyyah, dan diturunkan sesudah Surah al-Q\u0101ri\u2018ah. Nama al-Qiy\u0101mah (Hari Kiamat) diambil dari kata al-qiy\u0101mah yang terdapat pada ayat pertama. Dinamakan al-Qiy\u0101mah karena sebagian besar surah ini menceritakan kedahsyatan hari Kiamat. Saat pahala dan siksaan yang dialami manusia tiada batasnya. Pada hari itu manusia menyesal karena sedikitnya perbuatan baik yang telah dikerjakannya.\n\nPokok-pokok Isinya:\n1. \tAllah memastikan kedatangan hari Kiamat itu, disertai gambaran sekitar huru-hara yang terjadi pada masa itu.\n2. \tSurah ini menyebutkan sebagian dari jaminan Allah terhadap kemurnian Al-Qur\u2019an, yakni ayat-ayatnya terpelihara dengan baik dalam dada Nabi, sehingga beliau tidak lupa sedikit pun tentang urutan dan pembacaannya.",
        "outro_surah": "Secara ringkas, pokok-pokok isi Surah al-Qiy\u0101mah dapat disebutkan sebagai berikut:\n1. \tAllah memastikan kedatangan hari Kiamat itu, disertai gambaran sekitar huru-hara yang terjadi pada saat itu.\n2. \tSurah ini menyebutkan sebagian dari jaminan Allah terhadap kemurnian Al-Qur\u2019an, yakni ayat-ayat-Nya terpelihara dengan baik dalam dada Nabi Muhammad, sehingga beliau tidak lupa sedikit pun tentang urutan pembacaannya.\n3. \tCelaan Allah kepada orang-orang musyrik karena telah mencintai dunia dan meninggalkan akhirat.\n4. \tKeadaan manusia di waktu sakratulmaut.\n5. \tAllah menciptakan manusia dari setetes air mani yang hina, dan sanggup menghidupkan kembali manusia yang telah mati.",
        "munasabah_prev_surah": "1. \tSurah al-Mudda\u1e61\u1e61ir menerangkan bahwa bagaimanapun keterangan-keterangan dikemukakan kepada orang-orang kafir itu, namun mereka tetap tidak percaya. Mereka tidak merasa takut dan gentar sedikit pun dengan hari kebangkitan itu, karena mereka tidak mengimaninya. Maka pada ayat ini dalil-dalil tentang hari akhirat itu disebutkan lebih lengkap lagi guna menyempurnakan keterangan yang terdapat di dalam Surah al-Mudda\u1e61\u1e61ir. Di sini disebutkan tentang sifat-sifat hari Kiamat itu, kedahsyatannya dan keadaan manusia pada hari itu. Sebelumnya Allah menerangkan tentang dicabutnya roh manusia pada saat ia meninggal dunia, dan masalah asal mula kejadian manusia yang diciptakan Allah dari setetes air yang kotor (mani).\n2. \tSurah al-Mudda\u1e61\u1e61ir mengungkapkan bahwa orang-orang kafir mendustakan Al-Qur\u2019an dan menganggapnya sebagai perkataan manusia biasa, sedang pada Surah al-Qiy\u0101mah ini, Allah menjamin Al-Qur\u2019an dalam ingatan Nabi dan mengajarkan bacaannya.",
        "munasabah_prev_theme": "Pada ayat-ayat yang lalu, diterangkan dua golongan manusia di akhirat: orang mukmin yang berwajah cerah dan orang kafir yang berwajah muram karena takut kepada azab Allah. Pada ayat-ayat berikut ini, diterangkan bahwa orang kafir ketika sakratulmaut baru sadar akan berpisah dengan dunia dan digiring menghadap Allah.",
        "theme_group": "KEADAAN MANUSIA SAAT SAKRATULMAUT",
        "kosakata": "Kosakata:\n1. At-Tar\u0101q\u012b  \u0627\u0644\u062a\u0651\u064e\u0631\u064e\u0627\u0642\u0650\u0649 (al-Qiy\u0101mah/75: 26)\n\tAt-Tar\u0101q\u012b merupakan bentuk jamak dari kata tarquwah, yang artinya lubang yang terdapat di kerongkongan untuk pernapasan dan saluran makanan. Pada ayat ini, kata ini dikaitkan dengan fenomena yang dialami manusia ketika roh dicabut dan dipisahkan dari raganya. Dalam proses pencabutan itu, roh merambat naik dari kaki ke atas, dan fase akhir dari kehidupan seseorang ditandai dengan sampainya roh ke tar\u0101q\u012b tersebut. Pada saat seperti ini, seseorang yang mengalaminya disebut sedang berada dalam keadaan sakaratulmaut, dan pernapasannya akan terdengar bergetar, yang dalam bahasa Arab disebut yugargir. Inilah batas akhir dari diterimanya tobat seseorang. \n2. Sud\u0101n \u0633\u064f\u062f\u064b\u0649 (al-Qiy\u0101mah/75: 36)\n\tSud\u0101 maknanya adalah diremehkan atau disia-siakan. Ayat ini mengisyaratkan bahwa manusia itu tidak akan diremehkan atau disia-siakan. Makna yang demikian memberikan pemahaman bahwa manusia itu merupakan makhluk istimewa dan bukan sesuatu yang diremehkan di sisi Allah. Manusia adalah makhluk terhormat yang tidak akan dibiarkan begitu saja. Pemahaman demikian membawa pada kesimpulan bahwa tujuan penciptaan manusia itu adalah sedemikian pentingnya, sehingga mereka mendapatkan segala kasih sayang dan perhatian utama dari Allah. Selain itu, demi menjaga keseimbangan dalam prilaku dan perbuatan, manusia yang bukan makhluk remeh itu akan dibangkitkan kelak setelah kematiannya. Tujuan penciptaan manusia adalah sebagai khalifah dan sekaligus untuk beribadah kepada Allah. Ini adalah tujuan yang mulia, karena mengemban misi dari-Nya untuk mengelola bumi. Seandainya manusia diciptakan tanpa tujuan, maka penciptaan dan kejadiannya tentu tidak perlu dengan proses yang rumit dan berfase-fase. Tuhan tentu tidak melakukan semua ini dengan sia-sia. Oleh karena itulah, manusia bukan makhluk yang akan diremehkan atau disia-siakan.",
        "sabab_nuzul": null,
        "conclusion": " 1. \tKematian adalah saat berpisahnya manusia dengan kesenangan duniawi dan merupakan awal dari menempuh babak baru kehidupan akhirat yang kekal dan abadi.\n2. \tOrang yang tidak membenarkan Al-Qur\u2019an dan Rasulullah, serta tidak mengerjakan salat, malah bersikap congkak dan mendustakan ajaran agama, pasti celaka dan dikutuk oleh Allah.\n3. \tManusia diciptakan tidak sia-sia begitu saja, melainkan harus bertanggung jawab kepada Allah tentang kehidupan yang telah dijalankannya.\n4. \tUntuk meyakinkan diri bahwa Kiamat dan hari kebangkitan itu pasti datang, manusia hendaklah memikirkan kembali tentang awal mula kejadiannya."
    }
}