{
    "id": 5564,
    "surah_id": 75,
    "ayah": 13,
    "page": 577,
    "quarter_hizb": 58.5,
    "juz": 29,
    "manzil": 7,
    "arabic": "\u064a\u064f\u0646\u064e\u0628\u0651\u064e\u0624\u064f\u0627 \u0627\u0644\u0652\u0627\u0650\u0646\u0652\u0633\u064e\u0627\u0646\u064f \u064a\u064e\u0648\u0652\u0645\u064e\u0649\u0655\u0650\u0630\u064d\u06e2 \u0628\u0650\u0645\u064e\u0627 \u0642\u064e\u062f\u0651\u064e\u0645\u064e \u0648\u064e\u0627\u064e\u062e\u0651\u064e\u0631\u064e\u06d7",
    "latin": "Yunabba'ul-ins\u0101nu yauma'i\u017cim bim\u0101 qaddama wa akhkhar(a).",
    "translation": "Pada hari itu diberitakan kepada manusia apa yang telah dia kerjakan dan apa yang telah dia lalaikan.",
    "no_footnote": null,
    "footnotes": null,
    "surah": {
        "id": 75,
        "arabic": " \u0627\u0644\u0642\u064a\u0670\u0645\u0629",
        "latin": "Al-Qiy\u0101mah",
        "transliteration": "Al-Qiyamah",
        "translation": "Hari Kiamat",
        "num_ayah": 40,
        "page": 577,
        "location": "Makkiyah"
    },
    "tafsir": {
        "wajiz": "11-13. Pertanyaan manusia pada akhir ayat yang lalu, diberikan jawab-annya pada ayat-ayat ini. Sekali-kali tidak! Tidak ada tempat berlindung kecuali pada Allah semata! Hanya kepada Tuhanmu sajalah yang selama ini berbuat baik kepadamu wahai manusia, tidak kepada siapa pun selain-Nya, tempat kembali pada hari itu. Allah yang akan memutuskan seadil-adilnya atas segala urusan manusia. Pada hari itu diberitakan secara jelas dan tegas kepada manusia apa yang telah dikerjakannya dan apa yang dilalaikannya.",
        "tahlili": "Ayat ini menerangkan bahwa pada hari itu diberitakan kepada manusia apa yang telah dikerjakannya dan apa yang dilalaikannya. Kepada manusia diceritakan ketika telah tiba waktunya menghisab dan menimbang amalannya. Semua akan dibeberkan dengan jelas, mana perbuatan baik yang telah dikerjakan dan mana yang seharusnya dikerjakan tapi tidak sempat lagi dilaksanakan. Demikian pula mana yang semestinya dahulu diperbuat guna menghindarkan diri dari azab Allah dan mencapai pahala-Nya. Tidak ada yang luput dari pemberitaan itu, karya yang kecil maupun yang besar, yang baru maupun yang usang.\nIbnu \u2018Abb\u0101s mengartikan ayat ini dengan menjelaskan bahwa yang diceritakan tidak hanya sekadar perbuatan buruk dan baik seseorang menjelang dia meninggal dunia, tetapi juga segala karya, pikiran, dan kebiasaannya. Semua orang akan menyaksikan sendiri di hadapannya segala wujud amaliahnya, sebagaimana disebutkan dalam ayat lain:\n\u0648\u064e\u0648\u064f\u0636\u0650\u0639\u064e \u0627\u0644\u0652\u0643\u0650\u062a\u0670\u0628\u064f \u0641\u064e\u062a\u064e\u0631\u064e\u0649 \u0627\u0644\u0652\u0645\u064f\u062c\u0652\u0631\u0650\u0645\u0650\u064a\u0652\u0646\u064e \u0645\u064f\u0634\u0652\u0641\u0650\u0642\u0650\u064a\u0652\u0646\u064e \u0645\u0650\u0645\u0651\u064e\u0627 \u0641\u0650\u064a\u0652\u0647\u0650 \u0648\u064e\u064a\u064e\u0642\u064f\u0648\u0652\u0644\u064f\u0648\u0652\u0646\u064e \u064a\u0670\u0648\u064e\u064a\u0652\u0644\u064e\u062a\u064e\u0646\u064e\u0627 \u0645\u064e\u0627\u0644\u0650 \u0647\u0670\u0630\u064e\u0627 \u0627\u0644\u0652\u0643\u0650\u062a\u0670\u0628\u0650 \u0644\u064e\u0627 \u064a\u064f\u063a\u064e\u0627\u062f\u0650\u0631\u064f \u0635\u064e\u063a\u0650\u064a\u0652\u0631\u064e\u0629\u064b \u0648\u0651\u064e\u0644\u064e\u0627 \u0643\u064e\u0628\u0650\u064a\u0652\u0631\u064e\u0629\u064b \u0627\u0650\u0644\u0651\u064e\u0627\u0653 \u0627\u064e\u062d\u0652\u0635\u0670\u0649\u0647\u064e\u0627\u06da \u0648\u064e\u0648\u064e\u062c\u064e\u062f\u064f\u0648\u0652\u0627 \u0645\u064e\u0627 \u0639\u064e\u0645\u0650\u0644\u064f\u0648\u0652\u0627 \u062d\u064e\u0627\u0636\u0650\u0631\u064b\u0627\u06d7 \u0648\u064e\u0644\u064e\u0627 \u064a\u064e\u0638\u0652\u0644\u0650\u0645\u064f \u0631\u064e\u0628\u0651\u064f\u0643\u064e \u0627\u064e\u062d\u064e\u062f\u064b\u0627 \u08d6 \u0664\u0669\nDan diletakkanlah kitab (catatan amal), lalu engkau akan melihat orang yang berdosa merasa ketakutan terhadap apa yang (tertulis) di dalamnya, dan mereka berkata, \u201cBetapa celaka kami, kitab apakah ini, tidak ada yang tertinggal, yang kecil dan yang besar melainkan tercatat semuanya,\u201d dan mereka dapati (semua) apa yang telah mereka kerjakan. Dan Tuhanmu tidak menzalimi seorang jua pun. (al-Kahf/18: 49)\n\nSehubungan dengan hal ini, disebutkan pula dalam hadis Rasulullah saw:\n\u0633\u064e\u0628\u0652\u0639\u064c \u064a\u064e\u062c\u0652\u0631\u0650\u0649 \u0623\u064e\u062c\u0652\u0631\u064f\u0647\u064e\u0627 \u0644\u0650\u0644\u0652\u0639\u064e\u0628\u0652\u062f\u0650 \u0628\u064e\u0639\u0652\u062f\u064e \u0645\u064e\u0648\u0652\u062a\u0650\u0647\u0650 \u0648\u064e\u0647\u064f\u0648\u064e \u0641\u0650\u064a\u0652 \u0642\u064e\u0628\u0652\u0631\u0650\u0647\u0650 \u0645\u064e\u0646\u0652 \u0639\u064e\u0644\u0651\u064e\u0645\u064e \u0639\u0650\u0644\u0652\u0645\u064b\u0627 \u0623\u064e\u0648\u0652 \u0623\u064e\u062c\u0652\u0631\u064e\u0649 \u0646\u064e\u0647\u0652\u0631\u064b\u0627 \u0623\u064e\u0648\u0652 \u062d\u064e\u0641\u064e\u0631\u064e \u0628\u0650\u0626\u0652\u0631\u064b\u0627 \u0623\u064e\u0648\u0652 \u063a\u064e\u0631\u064e\u0633\u064e \u0646\u064e\u062e\u0652\u0644\u0627\u064b \u0623\u064e\u0648\u0652 \u0628\u064e\u0646\u064e\u0649 \u0645\u064e\u0633\u0652\u062c\u0650\u062f\u064b\u0627 \u0623\u064e\u0648\u0652 \u0648\u064e\u0631\u0651\u064e\u062b\u064e \u0645\u064f\u0635\u0652\u062d\u064e\u0641\u064b\u0627 \u0623\u064e\u0648\u0652 \u062a\u064e\u0631\u064e\u0643\u064e \u0648\u064e\u0644\u064e\u062f\u064b\u0627 \u064a\u064e\u0633\u0652\u062a\u064e\u063a\u0652\u0641\u0650\u0631\u064f\u0644\u064e\u0647\u064f \u0628\u064e\u0639\u0652\u062f\u064e \u0645\u064e\u0648\u0652\u062a\u0650\u0647\u0650. (\u0631\u0648\u0627\u0647 \u0623\u0628\u0648 \u0646\u0639\u064a\u0645 \u0648\u0627\u0644\u0628\u064a\u0647\u0642\u064a \u0639\u0646 \u0623\u0646\u0633 \u0628\u0646 \u0645\u0627\u0644\u0643)\nTujuh macam perbuatan seorang hamba yang tetap mengalir pahalanya bagi orang yang sudah wafat sedang dia dalam kuburnya: orang yang mengajarkan ilmu, orang yang membuat aliran sungai, orang yang menggali sumur, orang yang menanam pohon kurma, orang yang mendirikan masjid, orang yang mewariskan (menyebarluaskan) mushaf (kitab suci Al-Qur\u2019an), dan orang yang meninggalkan anak (keturunan) yang memohonkan ampunan baginya setelah ia meninggal. (Riwayat Ab\u016b Nu\u2018aim dan al-Baihaq\u012b dari Anas bin M\u0101lik)",
        "intro_surah": "Surah al-Qiy\u0101mah terdiri atas 40 ayat, 199 kata dan 652 huruf. Termasuk kelompok surah Makkiyyah, dan diturunkan sesudah Surah al-Q\u0101ri\u2018ah. Nama al-Qiy\u0101mah (Hari Kiamat) diambil dari kata al-qiy\u0101mah yang terdapat pada ayat pertama. Dinamakan al-Qiy\u0101mah karena sebagian besar surah ini menceritakan kedahsyatan hari Kiamat. Saat pahala dan siksaan yang dialami manusia tiada batasnya. Pada hari itu manusia menyesal karena sedikitnya perbuatan baik yang telah dikerjakannya.\n\nPokok-pokok Isinya:\n1. \tAllah memastikan kedatangan hari Kiamat itu, disertai gambaran sekitar huru-hara yang terjadi pada masa itu.\n2. \tSurah ini menyebutkan sebagian dari jaminan Allah terhadap kemurnian Al-Qur\u2019an, yakni ayat-ayatnya terpelihara dengan baik dalam dada Nabi, sehingga beliau tidak lupa sedikit pun tentang urutan dan pembacaannya.",
        "outro_surah": null,
        "munasabah_prev_surah": "1. \tSurah al-Mudda\u1e61\u1e61ir menerangkan bahwa bagaimanapun keterangan-keterangan dikemukakan kepada orang-orang kafir itu, namun mereka tetap tidak percaya. Mereka tidak merasa takut dan gentar sedikit pun dengan hari kebangkitan itu, karena mereka tidak mengimaninya. Maka pada ayat ini dalil-dalil tentang hari akhirat itu disebutkan lebih lengkap lagi guna menyempurnakan keterangan yang terdapat di dalam Surah al-Mudda\u1e61\u1e61ir. Di sini disebutkan tentang sifat-sifat hari Kiamat itu, kedahsyatannya dan keadaan manusia pada hari itu. Sebelumnya Allah menerangkan tentang dicabutnya roh manusia pada saat ia meninggal dunia, dan masalah asal mula kejadian manusia yang diciptakan Allah dari setetes air yang kotor (mani).\n2. \tSurah al-Mudda\u1e61\u1e61ir mengungkapkan bahwa orang-orang kafir mendustakan Al-Qur\u2019an dan menganggapnya sebagai perkataan manusia biasa, sedang pada Surah al-Qiy\u0101mah ini, Allah menjamin Al-Qur\u2019an dalam ingatan Nabi dan mengajarkan bacaannya.",
        "munasabah_prev_theme": null,
        "theme_group": "KEDAHSYATAN HARI KIAMAT ",
        "kosakata": "Kosakata:\n1.\tAn-Nafsul-Laww\u0101mah \u0627\u0644\u0646\u0651\u064e\u0641\u0652\u0633\u064f \u0627\u0644\u0644\u0651\u064e\u0648\u0651\u064e\u0627\u0645\u064e\u0629\u064f (al-Qiy\u0101mah/75: 2)\n\tKata al-nafs berasal dari fi\u2018il (kata kerja) nafasa yang berarti \u201cbernapas\u201d. Arti kata tersebut berkembang, sehingga ditemukan arti-arti yang beraneka ragam seperti: menghilangkan, melahirkan, bernapas, jiwa, roh, darah, manusia, diri, hakikat, dan sebagainya.\nKata an-nafs dengan segala bentuknya terulang 313 kali di dalam Al-Qur\u2019an, termasuk dalam Surah al-Qiy\u0101mah ayat 2. Sebanyak 72 kali di antaranya disebut dalam bentuk nafs yang berdiri sendiri.\nSedangkan kata laww\u0101mah terambil dari kata: l\u0101ma-yal\u016bmu-lawman yang berarti \u201cmengecam\u201d. Yang dimaksud di sini adalah menyesal sehingga mengecam diri sendiri. Kata laww\u0101mah hanya satu kali disebutkan dalam Al-Qur\u2019an, yaitu pada Surah al-Qiy\u0101mah ayat 2.\nDengan demikian, maka makna kata an-nafsul-laww\u0101mah dalam Surah al-Qiy\u0101mah ayat 2 diartikan jiwa yang amat menyesali dirinya sendiri. Jiwa yang menyandang sifat an-nafsul-laww\u0101mah berada di antara dua jiwa lainnya, yaitu al-mu\u1e6dmainnah, yakni yang selalu patuh kepada tuntunan Allah dan merasa tenang dengannya, dan al-amm\u0101rah, yakni yang selalu durhaka dan mendorong pemiliknya untuk membangkang perintah Allah dan mengikuti nafsunya.\n2.\tBan\u0101nahu \u0628\u064e\u0646\u064e\u0627\u0646\u064e\u0647\u064f  (al-Qiy\u0101mah/75: 4)\nKata ban\u0101nahu terdiri dari dua kata, yaitu ban\u0101n dan al-h\u0101' (kata ganti kepunyaan orang ketiga tunggal), yang berarti jari-jarinya. Kata ban\u0101n adalah bentuk jamak dari ban\u0101nah, yang berarti jari, ujung jari. Yang dimaksud dalam Surah al-Qiy\u0101mah/75: 4 ini adalah tulang-tulang kecil yang terdapat pada ujung jari-jari kaki dan tangan.\nKata ban\u0101nahu hanya satu kali disebutkan dalam Al-Qur\u2019an, yaitu pada Surah al-Qiy\u0101mah/75: 4. Sedangkan dalam bentuk berdiri sendiri tanpa disandarkan dengan kata lain, yaitu ban\u0101n juga disebutkan hanya 1 kali dalam Al-Qur\u2019an yaitu pada Surah al-Anf\u0101l/8: 12.\n3.\tMa\u2018\u0101\u017c\u012brahu \u0645\u064e\u0639\u064e\u0627\u0630\u0650\u064a\u0652\u0631\u064e\u0647\u064f (al-Qiy\u0101mah/75: 15)\nKata ma\u2018\u0101\u017c\u012brahu terdiri dari dua  kata yaitu ma\u2018\u0101\u017c\u012br dan al-h\u0101' (kata ganti kepunyaan orang ketiga tunggal), yang berarti alasan-alasannya atau argumentasi-argumentasinya. Kata ma\u2018\u0101\u017c\u012br adalah bentuk jamak dari kata ma\u2018\u017cirah. Kata ini pada mulanya digunakan dalam arti alasan atau argumentasi, kemudian kata ini digunakan dalam arti upaya menutupi atau memberi argumentasi untuk menampik kecaman atau siksaan.\nKata ma\u2018\u017cirah dengan beberapa bentuk lainnya disebutkan dua belas kali dalam Al-Qur\u2019an, antara lain disebutkan dalam Surah (al-Qiy\u0101mah) ayat 15, yaitu dengan kata ma\u2018\u0101\u017c\u012brahu. Dari ayat-ayat tersebut, sebagian besar maknanya adalah suatu alasan yang ditujukan kepada Allah dan nabi-Nya supaya dapat dikeluarkan dari api neraka atau dimaafkan dari kesalahan. Akan tetapi, kata ma\u2018\u017cirah atau \u2018u\u017cur digunakan untuk pemberian alasan yang tidak dapat diterima Allah.",
        "sabab_nuzul": null,
        "conclusion": null
    }
}