{
    "id": 5556,
    "surah_id": 75,
    "ayah": 5,
    "page": 577,
    "quarter_hizb": 58.5,
    "juz": 29,
    "manzil": 7,
    "arabic": "\u0628\u064e\u0644\u0652 \u064a\u064f\u0631\u0650\u064a\u0652\u062f\u064f \u0627\u0644\u0652\u0627\u0650\u0646\u0652\u0633\u064e\u0627\u0646\u064f \u0644\u0650\u064a\u064e\u0641\u0652\u062c\u064f\u0631\u064e \u0627\u064e\u0645\u064e\u0627\u0645\u064e\u0647\u0657\u06da",
    "latin": "Bal yur\u012bdul-ins\u0101nu liyafjura am\u0101mah(\u016b).",
    "translation": "Akan tetapi, manusia hendak berbuat maksiat terus-menerus.",
    "no_footnote": null,
    "footnotes": null,
    "surah": {
        "id": 75,
        "arabic": " \u0627\u0644\u0642\u064a\u0670\u0645\u0629",
        "latin": "Al-Qiy\u0101mah",
        "transliteration": "Al-Qiyamah",
        "translation": "Hari Kiamat",
        "num_ayah": 40,
        "page": 577,
        "location": "Makkiyah"
    },
    "tafsir": {
        "wajiz": "5-6. Kepastian Kiamat tidak diragukan lagi, tetapi manusia hendak membuat maksiat terus-menerus. Manusia tidak menyadari sama sekali atas akibat perbuatannya. Justru dengan nada menantang dia bertanya, \u201cKapankah hari Kiamat yang diancamkan itu?\u201d",
        "tahlili": "Dalam ayat ini ditegaskan bahwa sebenarnya manusia dengan perkembangan pikirannya menyadari bahwa Allah sanggup berbuat begitu, namun kehendak nafsu mempengaruhi pikirannya. Bahkan manusia itu hendak berbuat maksiat terus-menerus. Sesungguhnya tidak ada manusia yang tidak mengenal kekuasaan Tuhannya, untuk menghidupkan dan menyusun tulang-belulang orang yang sudah mati. Akan tetapi, mereka masih ingin bergelimang dengan berbagai perbuatan maksiat, kemudian menunda-nunda tobat atau menghindarkan diri daripadanya.\nSesungguhnya manusia yang seperti ini, menurut Sa\u2018\u012bd bin Jubair, suka cepat-cepat memperturutkan kehendak hati dan berbuat apa saja yang diinginkan. Nafsu selalu menggodanya, \u201cNanti sajalah aku bertobat; nanti sajalah aku mengerjakan kebaikan.\u201d Celakanya dia belum sempat tobat dan beramal baik, malaikat maut sudah lebih dahulu mencabut nyawanya. Padahal pada saat itu, ia sedang asyik dalam perbuatan maksiat.\nBoleh jadi juga maksud ayat ini adalah bahwa seseorang selalu berangan-angan tentang betapa nikmatnya kalau ia mendapat ini dan itu, mendapat mobil dan rumah mewah atau jabatan yang empuk, dan seterusnya, namun lupa mengingat mati, lupa dengan akan datangnya hari kebangkitan, hari saat diperiksa segala pekerjaannya.\nKata-kata liyafjura berarti cenderung kepada yang batil, atau suka menyimpang dari kebenaran. Orang seperti ini ingin hidup bebas seperti binatang. Ia tidak mau dihalangi untuk mengerjakan apa saja dengan teguran akal sehat atau larangan agama yang mengekang keinginannya.",
        "intro_surah": "Surah al-Qiy\u0101mah terdiri atas 40 ayat, 199 kata dan 652 huruf. Termasuk kelompok surah Makkiyyah, dan diturunkan sesudah Surah al-Q\u0101ri\u2018ah. Nama al-Qiy\u0101mah (Hari Kiamat) diambil dari kata al-qiy\u0101mah yang terdapat pada ayat pertama. Dinamakan al-Qiy\u0101mah karena sebagian besar surah ini menceritakan kedahsyatan hari Kiamat. Saat pahala dan siksaan yang dialami manusia tiada batasnya. Pada hari itu manusia menyesal karena sedikitnya perbuatan baik yang telah dikerjakannya.\n\nPokok-pokok Isinya:\n1. \tAllah memastikan kedatangan hari Kiamat itu, disertai gambaran sekitar huru-hara yang terjadi pada masa itu.\n2. \tSurah ini menyebutkan sebagian dari jaminan Allah terhadap kemurnian Al-Qur\u2019an, yakni ayat-ayatnya terpelihara dengan baik dalam dada Nabi, sehingga beliau tidak lupa sedikit pun tentang urutan dan pembacaannya.",
        "outro_surah": null,
        "munasabah_prev_surah": "1. \tSurah al-Mudda\u1e61\u1e61ir menerangkan bahwa bagaimanapun keterangan-keterangan dikemukakan kepada orang-orang kafir itu, namun mereka tetap tidak percaya. Mereka tidak merasa takut dan gentar sedikit pun dengan hari kebangkitan itu, karena mereka tidak mengimaninya. Maka pada ayat ini dalil-dalil tentang hari akhirat itu disebutkan lebih lengkap lagi guna menyempurnakan keterangan yang terdapat di dalam Surah al-Mudda\u1e61\u1e61ir. Di sini disebutkan tentang sifat-sifat hari Kiamat itu, kedahsyatannya dan keadaan manusia pada hari itu. Sebelumnya Allah menerangkan tentang dicabutnya roh manusia pada saat ia meninggal dunia, dan masalah asal mula kejadian manusia yang diciptakan Allah dari setetes air yang kotor (mani).\n2. \tSurah al-Mudda\u1e61\u1e61ir mengungkapkan bahwa orang-orang kafir mendustakan Al-Qur\u2019an dan menganggapnya sebagai perkataan manusia biasa, sedang pada Surah al-Qiy\u0101mah ini, Allah menjamin Al-Qur\u2019an dalam ingatan Nabi dan mengajarkan bacaannya.",
        "munasabah_prev_theme": null,
        "theme_group": "KEDAHSYATAN HARI KIAMAT ",
        "kosakata": "Kosakata:\n1.\tAn-Nafsul-Laww\u0101mah \u0627\u0644\u0646\u0651\u064e\u0641\u0652\u0633\u064f \u0627\u0644\u0644\u0651\u064e\u0648\u0651\u064e\u0627\u0645\u064e\u0629\u064f (al-Qiy\u0101mah/75: 2)\n\tKata al-nafs berasal dari fi\u2018il (kata kerja) nafasa yang berarti \u201cbernapas\u201d. Arti kata tersebut berkembang, sehingga ditemukan arti-arti yang beraneka ragam seperti: menghilangkan, melahirkan, bernapas, jiwa, roh, darah, manusia, diri, hakikat, dan sebagainya.\nKata an-nafs dengan segala bentuknya terulang 313 kali di dalam Al-Qur\u2019an, termasuk dalam Surah al-Qiy\u0101mah ayat 2. Sebanyak 72 kali di antaranya disebut dalam bentuk nafs yang berdiri sendiri.\nSedangkan kata laww\u0101mah terambil dari kata: l\u0101ma-yal\u016bmu-lawman yang berarti \u201cmengecam\u201d. Yang dimaksud di sini adalah menyesal sehingga mengecam diri sendiri. Kata laww\u0101mah hanya satu kali disebutkan dalam Al-Qur\u2019an, yaitu pada Surah al-Qiy\u0101mah ayat 2.\nDengan demikian, maka makna kata an-nafsul-laww\u0101mah dalam Surah al-Qiy\u0101mah ayat 2 diartikan jiwa yang amat menyesali dirinya sendiri. Jiwa yang menyandang sifat an-nafsul-laww\u0101mah berada di antara dua jiwa lainnya, yaitu al-mu\u1e6dmainnah, yakni yang selalu patuh kepada tuntunan Allah dan merasa tenang dengannya, dan al-amm\u0101rah, yakni yang selalu durhaka dan mendorong pemiliknya untuk membangkang perintah Allah dan mengikuti nafsunya.\n2.\tBan\u0101nahu \u0628\u064e\u0646\u064e\u0627\u0646\u064e\u0647\u064f  (al-Qiy\u0101mah/75: 4)\nKata ban\u0101nahu terdiri dari dua kata, yaitu ban\u0101n dan al-h\u0101' (kata ganti kepunyaan orang ketiga tunggal), yang berarti jari-jarinya. Kata ban\u0101n adalah bentuk jamak dari ban\u0101nah, yang berarti jari, ujung jari. Yang dimaksud dalam Surah al-Qiy\u0101mah/75: 4 ini adalah tulang-tulang kecil yang terdapat pada ujung jari-jari kaki dan tangan.\nKata ban\u0101nahu hanya satu kali disebutkan dalam Al-Qur\u2019an, yaitu pada Surah al-Qiy\u0101mah/75: 4. Sedangkan dalam bentuk berdiri sendiri tanpa disandarkan dengan kata lain, yaitu ban\u0101n juga disebutkan hanya 1 kali dalam Al-Qur\u2019an yaitu pada Surah al-Anf\u0101l/8: 12.\n3.\tMa\u2018\u0101\u017c\u012brahu \u0645\u064e\u0639\u064e\u0627\u0630\u0650\u064a\u0652\u0631\u064e\u0647\u064f (al-Qiy\u0101mah/75: 15)\nKata ma\u2018\u0101\u017c\u012brahu terdiri dari dua  kata yaitu ma\u2018\u0101\u017c\u012br dan al-h\u0101' (kata ganti kepunyaan orang ketiga tunggal), yang berarti alasan-alasannya atau argumentasi-argumentasinya. Kata ma\u2018\u0101\u017c\u012br adalah bentuk jamak dari kata ma\u2018\u017cirah. Kata ini pada mulanya digunakan dalam arti alasan atau argumentasi, kemudian kata ini digunakan dalam arti upaya menutupi atau memberi argumentasi untuk menampik kecaman atau siksaan.\nKata ma\u2018\u017cirah dengan beberapa bentuk lainnya disebutkan dua belas kali dalam Al-Qur\u2019an, antara lain disebutkan dalam Surah (al-Qiy\u0101mah) ayat 15, yaitu dengan kata ma\u2018\u0101\u017c\u012brahu. Dari ayat-ayat tersebut, sebagian besar maknanya adalah suatu alasan yang ditujukan kepada Allah dan nabi-Nya supaya dapat dikeluarkan dari api neraka atau dimaafkan dari kesalahan. Akan tetapi, kata ma\u2018\u017cirah atau \u2018u\u017cur digunakan untuk pemberian alasan yang tidak dapat diterima Allah.",
        "sabab_nuzul": null,
        "conclusion": null
    }
}