{
    "id": 5615,
    "surah_id": 76,
    "ayah": 24,
    "page": 579,
    "quarter_hizb": 58.75,
    "juz": 29,
    "manzil": 7,
    "arabic": "\u0641\u064e\u0627\u0635\u0652\u0628\u0650\u0631\u0652 \u0644\u0650\u062d\u064f\u0643\u0652\u0645\u0650 \u0631\u064e\u0628\u0651\u0650\u0643\u064e \u0648\u064e\u0644\u064e\u0627 \u062a\u064f\u0637\u0650\u0639\u0652 \u0645\u0650\u0646\u0652\u0647\u064f\u0645\u0652 \u0627\u0670\u062b\u0650\u0645\u064b\u0627 \u0627\u064e\u0648\u0652 \u0643\u064e\u0641\u064f\u0648\u0652\u0631\u064b\u0627\u06da",
    "latin": "Fa\u1e63bir li\u1e25ukmi rabbika wa l\u0101 tu\u1e6di\u2018 minhum \u0101\u1e61iman au kaf\u016br\u0101(n).",
    "translation": "Maka, bersabarlah untuk (melaksanakan) ketetapan Tuhanmu dan jangan ikuti pendosa dan orang yang sangat kufur di antara mereka.",
    "no_footnote": null,
    "footnotes": null,
    "surah": {
        "id": 76,
        "arabic": " \u0627\u0644\u0627\u0646\u0633\u0627\u0646",
        "latin": "Al-Ins\u0101n",
        "transliteration": "Al-Insan",
        "translation": "Manusia",
        "num_ayah": 31,
        "page": 578,
        "location": "Madaniyah"
    },
    "tafsir": {
        "wajiz": "23-24. Setelah diuraikan tentang balasan bagi yang bertakwa, selanjutnya dijelaskan tentang bagaimana bertakwa secara baik itu. Allah menurunkan petunjuk-Nya melalui al-Qur\u2019an. Inilah yang disinggung oleh ayat ini. Sesungguhnya Kamilah yang menurunkan Al-Qur\u2019an kepadamu wahai Nabi Muhammad secara berangsur-angsur agar mudah memahaminya. Maka bersabarlah setiap saat untuk menghadapi dan melaksanakan ketetapan Tuhanmu, dan janganlah engkau ikuti orang yang berdosa dan orang yang kafir di antara mereka yang mencoba untuk menghentikan dakwahmu.",
        "tahlili": "Dalam ayat ini, Allah menganjurkan kepada Rasul-Nya agar menghadapi celaan dan sikap permusuhan orang musyrik itu dengan sabar, dan tidak mengikuti mereka. Ayat ini memerintahkan Nabi Muhammad dan orang-orang mukmin agar bersikap sabar dan tahan uji menghadapi seribu satu gangguan dalam menegakkan agama Allah. Mereka diperintahkan untuk bersabar katika pertolongan belum dating dalam menghadapi orang-orang musyrik anti-Islam. Bersabar ketika menyampaikan kebenaran Allah dalam menghadapi tantangan penuh bahaya. Sebab tantangan itu suatu kewajaran dan sikap sabar menghadapinya adalah sikap yang terpuji.\nKemudian Allah memerintahkan pula agar umat Islam tidak terbawa arus mengikuti jalan pikiran orang yang sudah hanyut dalam lautan dosa, atau orang yang sudah sangat keterlaluan memusuhi agama. Orang yang seperti itu di antaranya adalah Ab\u016b Jahal. Ketika Rasulullah saw diperintahkan untuk pertama kali mengerjakan salat, Ab\u016b Jahal berusaha menghalangi orang Islam melaksanakan perintah itu. Ia berkata, \u201cKalau aku lihat Muhammad salat, pasti akan aku patahkan lehernya\u201d.\nContoh yang lain adalah \u2018Utbah bin Rab\u012b\u2018ah (sahabat karib Ab\u016b Jahal). Dialah yang membujuk Nabi agar berhenti berdakwah. Suatu kali dia bersama al-Wal\u012bd datang menemui Nabi sambil membujuk, \u201cKalau engkau bermaksud dengan kegiatan dakwah itu hendak memperoleh wanita cantik atau harta yang banyak, berhentilah dan saya berjanji akan mengawinkan engkau dengan anakku sendiri dan aku berikan kepadamu tanpa mahar.\u201d Sementara itu, al-Wal\u012bd menyeru pula, \u201cDan saya, hai Muhammad, akan memberikan kepadamu harta sebanyak-banyaknya sampai engkau puas, asal engkau berhenti melakukan kegiatan ini.\u201d \nAllah mengingatkan kepada Nabi saw dan umatnya agar tidak tergiur dengan bujukan dan rayuan itu, sebab nilai akidah dan perjuangan tidak dapat ditukar dengan kekayaan dunia. Dalam artian lain, ayat ini melarang seorang mukmin, apalagi kalau ia sebagai pemimpin umat, tergiur dengan berbagai kesenangan duniawi yang ditawarkan oleh orang-orang yang penuh dosa dan maksiat, dengan tujuan hendak mematikan gerakan dakwah. Namun yang betul-betul seratus persen bebas dari bujukan dan rayuan itu hanyalah Nabi Muhammad saw saja, karena beliau dijamin suci dan maksum dari dosa. Akan tetapi, kepada umat Islam dianjurkan untuk mengikuti apa yang dicontohkan beliau. Jangan terlalu mudah mengikuti gejolak nafsu, agar selamat dari kebinasaan, dan menemui Allah di hari Kiamat dengan lembaran amal yang putih bersih, bebas dari cela dan aib.",
        "intro_surah": "Surah al-Ins\u0101n terdiri dari 31 ayat, termasuk kelompok surah Madaniyyah, diturunkan sesudah Surah al-Ra\u1e25m\u0101n.\nNama al-Ins\u0101n (manusia) diambil dari perkataan al-ins\u0101n yang terdapat pada ayat pertama surah ini.\nSurah ini dinamai Surah ad-Dahr (masa) dan \u201cHal at\u0101\u201d, yang kedua-duanya diambil dari perkataan yang terdapat pada ayat pertama. Dinamakan pula Surah Amsy\u0101j (yang bercampur) yang diambil dari perkataan yang terdapat pada ayat kedua.\nDalam hadis riwayat Muslim disebutkan bahwa Ibnu \u2018Abb\u0101s menceritakan, di antara kebiasaan Rasulullah saw adalah membaca Surah  as-Sajdah dan Hal at\u0101 \u2018ala ins\u0101ni pada salat Subuh pada hari Jumat.\n\nPokok-pokok Isinya:\nKandungan surah ini meliputi:\n1.\tPenciptaan manusia dari nutfah (sperma) laki-laki dan sel telur perempuan.\n2.\tPetunjuk-petunjuk untuk mencapai kehidupan yang sempurna dengan menempuh jalan yang lurus.\n3.\tSifat-sifat orang baik (al-abr\u0101r), yakni: memberi makan orang miskin, anak yatim, dan orang yang ditawan semata-mata karena Allah, takut kepada hari Kiamat, mengerjakan salat Tahajud, dan sabar dalam menjalankan hukum-hukum Allah.\n4.\tGanjaran bagi orang yang mengikuti petunjuk dan ancaman terhadap orang yang mengingkarinya.",
        "outro_surah": null,
        "munasabah_prev_surah": "1.\tSurah al-Qiy\u0101mah diakhiri dengan peringatan kepada manusia akan asal kejadiannya, sedang Surah al-Ins\u0101n dimulai pula dengan peringatan tersebut serta memberinya petunjuk ke jalan yang membawa manusia kepada kesempurnaan.\n2.\tKedua surah ini sama-sama mencela orang-orang yang lebih mencintai dunia dan meninggalkan akhirat.\n3.\tSurah al-Qiy\u0101mah menerangkan huru-hara pada hari Kiamat dan azab yang dialami orang-orang kafir, sedang surah al-Ins\u0101n menerangkan keadaan yang dialami orang-orang yang bertakwa dan berbakti di akhirat dan di dalam surga nanti.",
        "munasabah_prev_theme": "Pada ayat-ayat yang lalu, disebutkan beberapa hal tentang rumah dan tempat tinggal, gelas atau cangkir minuman yang serba mewah, serta pakaian dan perhiasan yang gemerlapan yang semuanya merupakan balasan terhadap amal kebaikan orang-orang beriman. Pada ayat-ayat berikut ini, disebutkan tuntunan Allah kepada orang mukmin di dunia ini, yakni Rasul bersama umat yang patuh kepada-Nya.",
        "theme_group": "PERINTAH ALLAH KEPADA NABI MUHAMMAD ",
        "kosakata": "Kosakata: Yauman \u1e60aq\u012blan \u064a\u064e\u0648\u0652\u0645\u064b\u0627 \u062b\u064e\u0642\u0650\u064a\u0652\u0644\u064b\u0627 (al-Ins\u0101n/76: 27)\nYauman \u1e61aq\u012bl secara kebahasaan terdiri dari dua suku kata, yaitu kata yaum yang berarti hari dan kata \u1e61aq\u012bl yang berarti yang berat. Dengan demikian, kata yaum \u1e61aq\u012bl dalam konteks ayat ini berarti hari yang amat berat bagi seluruh umat manusia, yaitu hari Kiamat.",
        "sabab_nuzul": null,
        "conclusion": null
    }
}