{
    "id": 5625,
    "surah_id": 77,
    "ayah": 3,
    "page": 580,
    "quarter_hizb": 58.75,
    "juz": 29,
    "manzil": 7,
    "arabic": "\u0648\u0651\u064e\u0627\u0644\u0646\u0651\u0670\u0634\u0650\u0631\u0670\u062a\u0650 \u0646\u064e\u0634\u0652\u0631\u064b\u0627\u06d9",
    "latin": "Wan-n\u0101syir\u0101ti nasyr\u0101(n).",
    "translation": "demi (malaikat-malaikat) yang menyebarkan (rahmat Allah) dengan seluas-luasnya,738)",
    "no_footnote": "738",
    "footnotes": "738) Yang dimaksud adalah malaikat yang turun untuk membawa wahyu. Sebagian mufasir berpendapat bahwa yang dimaksud dengan an-n\u0101syir\u0101t ialah angin yang bertiup disertai hujan.",
    "surah": {
        "id": 77,
        "arabic": " \u0627\u0644\u0645\u0631\u0633\u0644\u0670\u062a",
        "latin": "Al-Mursal\u0101t",
        "transliteration": "Al-Mursalat",
        "translation": "Malaikat Yang Diutus",
        "num_ayah": 50,
        "page": 580,
        "location": "Makkiyah"
    },
    "tafsir": {
        "wajiz": "3-4. Dan juga demi malaikat-malaikat yang menyebarkan rahmat Allah dengan seluas-luasnya, dan demi malaikat-malaikat yang membedakan antara yang baik dan yang buruk dengan pembedaan yang sejelas-jelasnya,",
        "tahlili": "Selanjutnya Allah bersumpah dengan malaikat-malaikat yang menyebarkan rahmat-Nya seluas-luasnya. Terdapat berbagai macam penafsiran tentang kata an-n\u0101syir\u0101t di sini. Ada yang mengartikannya dengan malaikat yang menebarkan maut kepada orang yang ditetapkan kematiannya tanpa diketahui sedikit pun. Ada pula yang menafsirkannya dengan malaikat yang menebarkan dan meratakan syariat-syariat Allah kepada sekalian nabi dan rasul-Nya.",
        "intro_surah": "Surah al-Mursal\u0101t terdiri 50 ayat, termasuk kelompok surah Makkiyyah, diturunkan sesudah Surah al-Humazah.\nNama al-Mursal\u0101t (Malaikat-malaikat yang diutus) diambil dari perkataan al-mursal\u0101t yang terdapat pada ayat pertama surah ini.\n\nPokok-pokok Isinya:\nPenegasan Allah bahwa semua yang diancamkan-Nya pasti terjadi; peristiwa-peristiwa yang terjadi sebelum hari kebangkitan; peringatan Allah akan kehancuran umat-umat yang dahulu yang mendustakan nabi-nabi dan asal kejadian manusia dari air yang hina; keadaan orang kafir dan orang mukmin di hari Kiamat.",
        "outro_surah": null,
        "munasabah_prev_surah": "1.\tSurah al-Ins\u0101n menerangkan tentang ancaman Allah terhadap orang-orang yang durhaka, sedang pada Surah al-Mursal\u0101t, Allah bersumpah bahwa semua ancamannya itu pasti terjadi.\n2.\tSurah al-Ins\u0101n menerangkan tentang kejadian manusia secara umum, sedang Surah al-Mursal\u0101t menerangkan kejadian itu secara terperinci.",
        "munasabah_prev_theme": "Pada ayat-ayat bagian akhir surah yang lalu diterangkan bahwa Allah akan memasukkan manusia yang taat ke dalam rahmat dan yang ingkar ke neraka. Pada ayat-ayat berikut diterangkan bahwa semua yang dijanjikan itu pasti terjadi.",
        "theme_group": "KEADAAN MANUSIA DI HARI KIAMAT",
        "kosakata": "Kosakata: \n1.\tAl-Mursal\u0101t \u0627\u0644\u0652\u0645\u064f\u0631\u0652\u0633\u064e\u0644\u0627\u064e\u062a (al-Mursal\u0101t/77: 1)\n\tSecara kebahasaan kata al-mursal\u0101t adalah bentuk plural dari kata mursalah yang berarti sesuatu yang diutus. Dalam konteks ayat ini, sebagian mufasir mengartikan kata al-mursal\u0101t dengan angin yang diutus, sedangkan sebagian yang lain mengartikan kata tersebut dengan para malaikat yang diutus.\n\n2.\tUqqitat \u0627\u064f\u0642\u0651\u0650\u062a\u064e\u062a\u0652 (al-Mursal\u0101t/77: 11)\n\tSecara kebahasaan kata uqqitat merupakan bentuk majh\u016bl (pasif) dari kata aqqata yang berarti telah ditetapkan waktunya. Dalam konteks ayat ini, kata uqqitat bermakna telah ditetapkan waktu berkumpulnya para rasul bersama umat mereka masing-masing.",
        "sabab_nuzul": null,
        "conclusion": null
    }
}