{
    "id": 5657,
    "surah_id": 77,
    "ayah": 35,
    "page": 581,
    "quarter_hizb": 58.75,
    "juz": 29,
    "manzil": 7,
    "arabic": "\u0647\u0670\u0630\u064e\u0627 \u064a\u064e\u0648\u0652\u0645\u064f \u0644\u064e\u0627 \u064a\u064e\u0646\u0652\u0637\u0650\u0642\u064f\u0648\u0652\u0646\u064e\u06d9",
    "latin": "H\u0101\u017c\u0101 yaumu l\u0101 yan\u1e6diq\u016bn(a).",
    "translation": "Inilah hari ketika mereka tidak dapat berbicara.",
    "no_footnote": null,
    "footnotes": null,
    "surah": {
        "id": 77,
        "arabic": " \u0627\u0644\u0645\u0631\u0633\u0644\u0670\u062a",
        "latin": "Al-Mursal\u0101t",
        "transliteration": "Al-Mursalat",
        "translation": "Malaikat Yang Diutus",
        "num_ayah": 50,
        "page": 580,
        "location": "Makkiyah"
    },
    "tafsir": {
        "wajiz": "35-37. Bagi yang mendustakan azab Allah tersebut, maka ayat ini menguraikan tentang kepastian datangnya azab tersebut. Inilah hari yaitu hari Kiamat, saat mereka tidak dapat berbicara pada waktu dan tempat-tempat tertentu, dan tidak diizinkan kepada mereka mengemukakan alasan agar mereka dimaafkan. Celakalah pada hari itu, bagi mereka yang mendustakan kebenaran.",
        "tahlili": "Dalam ayat ini, Allah menerangkan bahwa pada hari itu manusia tidak bisa berbicara dan hanya terpukau karena kedahsyatan keadaan. Mereka tidak diizinkan berbicara, dan andaikata diizinkan pun, hal itu tidak ada gunanya.",
        "intro_surah": "Surah al-Mursal\u0101t terdiri 50 ayat, termasuk kelompok surah Makkiyyah, diturunkan sesudah Surah al-Humazah.\nNama al-Mursal\u0101t (Malaikat-malaikat yang diutus) diambil dari perkataan al-mursal\u0101t yang terdapat pada ayat pertama surah ini.\n\nPokok-pokok Isinya:\nPenegasan Allah bahwa semua yang diancamkan-Nya pasti terjadi; peristiwa-peristiwa yang terjadi sebelum hari kebangkitan; peringatan Allah akan kehancuran umat-umat yang dahulu yang mendustakan nabi-nabi dan asal kejadian manusia dari air yang hina; keadaan orang kafir dan orang mukmin di hari Kiamat.",
        "outro_surah": null,
        "munasabah_prev_surah": "1.\tSurah al-Ins\u0101n menerangkan tentang ancaman Allah terhadap orang-orang yang durhaka, sedang pada Surah al-Mursal\u0101t, Allah bersumpah bahwa semua ancamannya itu pasti terjadi.\n2.\tSurah al-Ins\u0101n menerangkan tentang kejadian manusia secara umum, sedang Surah al-Mursal\u0101t menerangkan kejadian itu secara terperinci.",
        "munasabah_prev_theme": "Pada ayat-ayat yang lalu ditegaskan balasan bagi orang yang mendustakan Allah, Nabi, dan hari akhirat pada hari pemisah (yaumul-fa\u1e63l). Pada ayat-ayat ini disebutkan jenis azab yang diancamkan itu. Mereka disuruh mendatangi apa yang mereka dustakan dahulu, diperintahkan mendatangi gumpalan asap neraka Jahanam yang tidak ada lindungan. Mereka datang ke sana bagaikan iringan unta yang kuning.",
        "theme_group": "BALASAN DI AKHIRAT",
        "kosakata": "Kosakata:\n1.\tBi Syararin \u0628\u0650\u0634\u064e\u0631\u064e\u0631\u064d (al-Mursal\u0101t/77: 32)\n\tSecara kebahasaan kata bi syarar terdiri dari dua kata, yaitu kata bi yang berarti dengan dan kata syarar yang berarti percikan-percikan api atau bunga api. Dalam konteks ayat ini, kata bi syarar bermakna pemberitahuan bahwa neraka itu menyemburkan percikan-percikan api yang dahsyat bagaikan bunga api yang sebesar dan setinggi istana.\n2.\tJim\u0101latun \u062c\u0650\u0645\u064e\u0627\u0644\u064e\u062a\u064c (al-Mursal\u0101t/77: 33)\n\tSecara kebahasaan kata jim\u0101lat berarti unta-unta. Dalam konteks ayat ini, Allah mendiskripsikan dahsyatnya api neraka yang percikan-percikan apinya seolah-olah menyerupai unta-unta kuning yang beriring-iringan.\n3. Wail \u0648\u064e\u064a\u0652\u0644 (al-Mursal\u0101t/77: 40)\n\tSecara kebahasaan kata wail merupakan kata jamid (kata yang tak terderivikasikan) yang berarti celakalah atau masuklah neraka wail. Dalam konteks ayat ini, pada hari Kiamat orang-orang yang mendustakan kebenaran misi kenabian Muhammad saw pasti celaka dan dimasukkan ke dalam neraka wail. ",
        "sabab_nuzul": null,
        "conclusion": null
    }
}