{
    "id": 5671,
    "surah_id": 77,
    "ayah": 49,
    "page": 581,
    "quarter_hizb": 58.75,
    "juz": 29,
    "manzil": 7,
    "arabic": "\u0648\u064e\u064a\u0652\u0644\u064c \u064a\u0651\u064e\u0648\u0652\u0645\u064e\u0649\u0655\u0650\u0630\u064d \u0644\u0651\u0650\u0644\u0652\u0645\u064f\u0643\u064e\u0630\u0651\u0650\u0628\u0650\u064a\u0652\u0646\u064e ",
    "latin": "Wailuy yauma'i\u017cil lil-muka\u017c\u017cib\u012bn(a).",
    "translation": "Celakalah pada hari itu para pendusta (kebenaran).",
    "no_footnote": null,
    "footnotes": null,
    "surah": {
        "id": 77,
        "arabic": " \u0627\u0644\u0645\u0631\u0633\u0644\u0670\u062a",
        "latin": "Al-Mursal\u0101t",
        "transliteration": "Al-Mursalat",
        "translation": "Malaikat Yang Diutus",
        "num_ayah": 50,
        "page": 580,
        "location": "Makkiyah"
    },
    "tafsir": {
        "wajiz": "48-49. Salah satu bentuk kedurhakaan mereka digambarkan pada ayat ini. Dan apabila dikatakan kepada mereka, \u201cRukuklah,\u201d yaitu salatlah dan taatlah kepada Allah, mereka tidak mau rukuk. Maka Celakalah pada hari itu, bagi mereka yang mendustakan kebenaran!",
        "tahlili": "Sebagai penutup dari dua ayat terakhir ini, Allah mengulang kembali kutukan-Nya terhadap orang-orang yang mendustakan perintah dan larangan-Nya. Kecelakaan besar bagi orang yang mendustakan karena tidak patuh kepada perintah-Nya dan tidak mau meninggalkan larangan-Nya.\nSetelah mencela orang kafir dengan sangat keras agar mengikuti agama yang benar, maka Allah mengakhiri surah ini dengan menegaskan bahwa orang-orang musyrik itu sama sekali tidak mau mendengarkan nasihat para dai yang mengajak mereka untuk mengikuti ajaran Ilahi bagi kepentingan kehidupan mereka di dunia dan akhirat. Allah mengatakan, \u201cMaka kepada perkataan apakah selain Al-Qur\u2019an mereka akan beriman?\u201d Jadi dengan keterangan-keterangan Al-Qur\u2019an yang begitu jelas dan mudah dimengerti disertai dengan bukti-bukti yang jelas, mereka tidak juga mau beriman, maka manakah lagi kebenaran yang mampu membawa mereka kepada petunjuk Ilahi?\u201d\nDari ayat terakhir ini jelaslah bahwa Allah telah menetapkan ajaran Al-Qur\u2019an tentang dunia dan akhirat yang menghimpun sekalian keterangan yang ada, lengkap dengan segala seluk-beluknya sebagai alasan yang kuat. Dengan demikian, Al-Qur\u2019an satu-satunya kitab suci yang dikenal manusia yang mengandung keterangan yang begitu jelas dan lengkap. Hanya manusia tidak mau beriman menjelang ajal datang mencabut kehidupannya.",
        "intro_surah": "Surah al-Mursal\u0101t terdiri 50 ayat, termasuk kelompok surah Makkiyyah, diturunkan sesudah Surah al-Humazah.\nNama al-Mursal\u0101t (Malaikat-malaikat yang diutus) diambil dari perkataan al-mursal\u0101t yang terdapat pada ayat pertama surah ini.\n\nPokok-pokok Isinya:\nPenegasan Allah bahwa semua yang diancamkan-Nya pasti terjadi; peristiwa-peristiwa yang terjadi sebelum hari kebangkitan; peringatan Allah akan kehancuran umat-umat yang dahulu yang mendustakan nabi-nabi dan asal kejadian manusia dari air yang hina; keadaan orang kafir dan orang mukmin di hari Kiamat.",
        "outro_surah": null,
        "munasabah_prev_surah": "1.\tSurah al-Ins\u0101n menerangkan tentang ancaman Allah terhadap orang-orang yang durhaka, sedang pada Surah al-Mursal\u0101t, Allah bersumpah bahwa semua ancamannya itu pasti terjadi.\n2.\tSurah al-Ins\u0101n menerangkan tentang kejadian manusia secara umum, sedang Surah al-Mursal\u0101t menerangkan kejadian itu secara terperinci.",
        "munasabah_prev_theme": "Pada ayat-ayat yang lalu dijelaskan betapa orang-orang kafir mengalami siksaan dan penghinaan di kala manusia seluruhnya berkumpul di hadapan Allah pada Yaumul-Fa\u1e63l (hari pemisah). Pada ayat-ayat berikut ini diterangkan berita tentang kesenangan yang dinikmati oleh kaum mukminin yang bertakwa. Mereka menikmati makanan yang diinginkan sebagai ganjaran amal kebaikan yang pernah mereka kerjakan. Sedangkan bagi orang-orang yang telah mendustakan-Nya hanya diberikan kesempatan menikmati kesenangan di dunia saja, sedangkan di hari akhirat tidak mendapat bagian sama sekali.",
        "theme_group": "KENIKMATAN BAGI ORANG BERTAKWA",
        "kosakata": "Kosakata: Yasytah\u016bn \u064a\u064e\u0634\u0652\u062a\u064e\u0647\u064f\u0648\u0652\u0646\u064e (al-Mursal\u0101t/77: 42)\n\tSecara kebahasaan kata yasytah\u016bn berarti mereka menyukai atau menginginkan. Dalam konteks ayat ini, Allah mendeskripsikan kehidupan penduduk surga yang mendapatkan apa yang mereka sukai dan inginkan dengan mudah",
        "sabab_nuzul": null,
        "conclusion": null
    }
}