{
    "id": 5712,
    "surah_id": 78,
    "ayah": 40,
    "page": 583,
    "quarter_hizb": 59,
    "juz": 30,
    "manzil": 7,
    "arabic": "\u0627\u0650\u0646\u0651\u064e\u0627\u0653 \u0627\u064e\u0646\u0652\u0630\u064e\u0631\u0652\u0646\u0670\u0643\u064f\u0645\u0652 \u0639\u064e\u0630\u064e\u0627\u0628\u064b\u0627 \u0642\u064e\u0631\u0650\u064a\u0652\u0628\u064b\u0627 \u06d5\u06d9 \u064a\u0651\u064e\u0648\u0652\u0645\u064e \u064a\u064e\u0646\u0652\u0638\u064f\u0631\u064f \u0627\u0644\u0652\u0645\u064e\u0631\u0652\u0621\u064f \u0645\u064e\u0627 \u0642\u064e\u062f\u0651\u064e\u0645\u064e\u062a\u0652 \u064a\u064e\u062f\u064e\u0627\u0647\u064f \u0648\u064e\u064a\u064e\u0642\u064f\u0648\u0652\u0644\u064f \u0627\u0644\u0652\u0643\u0670\u0641\u0650\u0631\u064f \u064a\u0670\u0644\u064e\u064a\u0652\u062a\u064e\u0646\u0650\u064a\u0652 \u0643\u064f\u0646\u0652\u062a\u064f \u062a\u064f\u0631\u0670\u0628\u064b\u0627 \u08d6",
    "latin": "Inn\u0101 an\u017carn\u0101kum \u2018a\u017c\u0101ban qar\u012bb\u0101(n), yauma yan\u1e93urul-mar'u m\u0101 qaddamat yad\u0101hu wa yaq\u016blul-k\u0101firu y\u0101 laitan\u012b kuntu tur\u0101b\u0101(n).",
    "translation": "Sesungguhnya Kami telah memperingatkan kamu akan azab yang dekat pada hari (ketika) manusia melihat apa yang telah diperbuat oleh kedua tangannya dan orang kafir berkata, \u201cOh, seandainya saja aku menjadi tanah.\u201d",
    "no_footnote": null,
    "footnotes": null,
    "surah": {
        "id": 78,
        "arabic": "\u0627\u0644\u0646\u0651\u0628\u0623",
        "latin": "An-Naba'",
        "transliteration": "An-Naba'",
        "translation": "Berita",
        "num_ayah": 40,
        "page": 582,
        "location": "Makkiyah"
    },
    "tafsir": {
        "wajiz": "Wahai manusia, sesungguhnya Kami telah memperingatkan kepadamu azab di akhirat yang waktunya sungguh sangat dekat dan segera tiba, yaitu pada hari ketika manusia melihat apa yang telah diperbuat oleh kedua tangannya, oleh dirinya sendiri, dan orang kafir berkata dengan penuh penyesalan, \u201cAlangkah baiknya seandainya dahulu aku jadi tanah, bukan menjadi manusia yang mendapat taklif agama, niscaya aku tidak dihadapkan pada pertanggungjawaban atas perbuatanku sebagaimana yang aku hadapi hari ini.\u201d",
        "tahlili": "Ayat ini memberi peringatan kepada orang-orang kafir bahwa sesungguhnya Allah telah memberi peringatan kepada mereka dengan siksaan yang dekat.\nSetiap orang harus mengerti bahwa apa saja yang akan dialaminya telah dekat waktu terjadinya. Soal jarak waktu bukanlah suatu hal yang penting, tetapi yang penting adalah peristiwa itu pasti akan dialaminya. Maka seorang yang berakal sehat selalu bersiap-siap untuk menghadapi peristiwa-peristiwa yang akan dijumpainya. Pada hari itu, manusia akan melihat apa yang telah diperbuat oleh kedua tangannya, sebagaimana dijelaskan pula dalam firman Allah:\n\u064a\u064e\u0648\u0652\u0645\u064e \u062a\u064e\u062c\u0650\u062f\u064f \u0643\u064f\u0644\u0651\u064f \u0646\u064e\u0641\u0652\u0633\u064d \u0645\u0651\u064e\u0627 \u0639\u064e\u0645\u0650\u0644\u064e\u062a\u0652 \u0645\u0650\u0646\u0652 \u062e\u064e\u064a\u0652\u0631\u064d \u0645\u0651\u064f\u062d\u0652\u0636\u064e\u0631\u064b\u0627 \u06db\u0648\u064e\u0645\u064e\u0627 \u0639\u064e\u0645\u0650\u0644\u064e\u062a\u0652 \u0645\u0650\u0646\u0652 \u0633\u064f\u0648\u0652\u06e4\u0621\u064d \u06db \u062a\u064e\u0648\u064e\u062f\u0651\u064f \u0644\u064e\u0648\u0652 \u0627\u064e\u0646\u0651\u064e \u0628\u064e\u064a\u0652\u0646\u064e\u0647\u064e\u0627 \u0648\u064e\u0628\u064e\u064a\u0652\u0646\u064e\u0647\u0657\u0653 \u0627\u064e\u0645\u064e\u062f\u064b\u0627\u06e2 \u0628\u064e\u0639\u0650\u064a\u0652\u062f\u064b\u0627 \u06d7\u0648\u064e\u064a\u064f\u062d\u064e\u0630\u0651\u0650\u0631\u064f\u0643\u064f\u0645\u064f \u0627\u0644\u0644\u0651\u0670\u0647\u064f \u0646\u064e\u0641\u0652\u0633\u064e\u0647\u0657 \u06d7\u0648\u064e\u0627\u0644\u0644\u0651\u0670\u0647\u064f \u0631\u064e\u0621\u064f\u0648\u0652\u0641\u064c\u06e2 \u0628\u0650\u0627\u0644\u0652\u0639\u0650\u0628\u064e\u0627\u062f\u0650 \u08d6 \u0663\u0660\n(Ingatlah) pada hari (ketika) setiap jiwa mendapatkan (balasan) atas kebajikan yang telah dikerjakan dihadapkan kepadanya, (begitu juga balasan) atas kejahatan yang telah dia kerjakan. Dia berharap sekiranya ada jarak yang jauh antara dia dengan (hari) itu. (\u0100li \u2018Imr\u0101n/3: 30)\n\nPada hari itu, orang kafir akan berkata dengan penuh kesedihan dan penyesalan, \u201cAndaikata aku dahulu di dunia hanya menjadi tanah, dan tidak menjadi manusia yang durhaka kepada Tuhan.\u201d",
        "intro_surah": "Surah an-Naba\u2019 terdiri dari 40 ayat, termasuk kelompok surah Makkiyyah, diturunkan sesudah Surah al-Ma\u2018\u0101rij. \nNama an-Naba\u2019 diambil dari kata an-naba\u2019 yang terdapat pada ayat kedua surah ini.\nDisebut juga Surah \u2018Amma yatas\u0101\u2019al\u016bn yang diambil dari perkataan \u2018amma yatas\u0101\u2019al\u016bn yang terdapat pada ayat pertama surah ini.\n\nPokok-pokok Isinya:\nKeimanan:\nPengingkaran orang-orang musyrik terhadap adanya hari kebangkitan dan ancaman Allah terhadap sikap mereka itu; kekuasaan Allah yang terlihat dalam alam sebagai bukti adanya hari kebangkitan; azab yang diterima orang-orang yang mendustakan ayat-ayat Allah; kebahagiaan yang diterima orang-orang mukmin pada hari Kiamat; dan juga penyesalan orang kafir pada hari Kiamat.",
        "outro_surah": "Surah an-Naba\u2019 menerangkan keingkaran orang-orang musyrik terhadap hari kebangkitan, ancaman Allah terhadap sikap mereka, azab yang akan mereka terima pada hari Kiamat, serta kebahagiaan orang-orang yang beriman dan bertakwa kepada-Nya.",
        "munasabah_prev_surah": "HUBUNGAN SURAH AL-MURSAL\u0100T DENGAN\nSURAH AN-NABA\u2019\n\n1.\tKedua surah ini sama-sama menerangkan keadaan neraka tempat orang-orang kafir menerima azab, dan keadaan surga tempat orang-orang bertakwa merasakan nikmat dari Allah.\n2.\tDalam Surah al-Mursal\u0101t diterangkan tentang \u201cyaumul-fa\u1e63l\u201d (hari keputusan) secara umum sedang Surah an-Naba\u2019 menjelaskannya.",
        "munasabah_prev_theme": "Pada ayat-ayat yang lalu, Allah menerangkan tentang balasan dan pahala bagi orang-orang yang bertakwa, yaitu kebahagiaan pada hari akhirat, dan itu terjadi setelah hari Kiamat. Pada ayat-ayat berikut ini, Allah menegaskan akan kepastian hari Kiamat di mana Malaikat Jibril dan para malaikat yang lain berdiri bersaf-saf siap sedia melaksanakan tugas-tugas setelah datangnya hari Kiamat. Pada hari itu, tiada seorang pun yang dapat berkata-kata kecuali atas izin Allah.",
        "theme_group": "PERINTAH MEMILIH JALAN YANG BENAR",
        "kosakata": "Kosakata:\n1.\t\u1e60aw\u0101ban \u0635\u064e\u0648\u064e\u0627\u0628\u064b\u0627 (an-Naba\u2019/78: 38)\n\u1e60aw\u0101b artinya benar, baik pelakunya maupun sasarannya. Ini berarti bahwa para malaikat, yang diizinkan berbicara di depan Allah untuk memintakan syafaat bagi manusia,  tidak meminta tanpa izin Allah dan yang diminta tidak sesuatu yang mustahil dikabulkan-Nya.\n2.\tTur\u0101ban \u062a\u064f\u0631\u064e\u0627\u0628\u064b\u0627 (an-Naba\u2019/78: 40)\nTur\u0101ban artinya tanah. Kata kerjanya tariba artinya \u201camat miskin\u201d sehingga seakan-akan terhempas ke tanah. Dari kata itu terdapat dalam     Al-Qur\u2032an kata matrabah artinya keterhempasan ke tanah karena sangat miskinnya. Ungkapan atraba artinya merasa cukup, karena dia mempunyai harta benda sebanyak butir-butir tanah di bumi.",
        "sabab_nuzul": null,
        "conclusion": "1. \tPada hari Kiamat, Jibril dan para malaikat berdiri berbaris, tidak ada satu pun yang berkata-kata kecuali dengan izin Allah, dan mereka mengucapkan kata-kata yang benar.\n2. \tDalam rangka menghadapi hari Kiamat yang pasti datang itu, setiap orang harus menyiapkan amal kebajikan untuk mendapatkan keridaan Allah.\n3. \tPada hari Kiamat setiap orang akan melihat dan menyaksikan apa yang telah diperbuatnya.\n4. \tOrang kafir akan menyesali diri dan mengangan-angankan sekiranya ia dahulu di dunia tidak menjadi manusia tetapi menjadi tanah saja.\n5. \tJadi manusia justru lebih mulia asalkan beriman, beramal saleh, dan ikhlas."
    }
}