{
    "id": 5704,
    "surah_id": 78,
    "ayah": 32,
    "page": 583,
    "quarter_hizb": 59,
    "juz": 30,
    "manzil": 7,
    "arabic": "\u062d\u064e\u062f\u064e\u0627\u06e4\u0649\u0655\u0650\u0642\u064e \u0648\u064e\u0627\u064e\u0639\u0652\u0646\u064e\u0627\u0628\u064b\u0627\u06d9",
    "latin": "\u1e24ad\u0101'iqa wa a\u2018n\u0101b\u0101(n).",
    "translation": "(yaitu) kebun-kebun, buah anggur,",
    "no_footnote": null,
    "footnotes": null,
    "surah": {
        "id": 78,
        "arabic": "\u0627\u0644\u0646\u0651\u0628\u0623",
        "latin": "An-Naba'",
        "transliteration": "An-Naba'",
        "translation": "Berita",
        "num_ayah": 40,
        "page": 582,
        "location": "Makkiyah"
    },
    "tafsir": {
        "wajiz": "Kemenangan dan kebahagiaan yang akan mereka dapatkan di antaranya berupa kebun-kebun yang rindang, indah, damai, dan sejuk; dan buah anggur yang kelezatan rasanya sangat berbeda dari anggur dunia meski memiliki sebutan yang sama. Inilah bentuk kenikmatan lingkungan dan makanan di surga.",
        "tahlili": "Di dalamnya terdapat berbagai nikmat, antara lain berupa kebun-kebun kurma dan buah anggur yang sangat lezat rasanya, cocok dengan selera, dan sedap dalam pandangan mata.",
        "intro_surah": "Surah an-Naba\u2019 terdiri dari 40 ayat, termasuk kelompok surah Makkiyyah, diturunkan sesudah Surah al-Ma\u2018\u0101rij. \nNama an-Naba\u2019 diambil dari kata an-naba\u2019 yang terdapat pada ayat kedua surah ini.\nDisebut juga Surah \u2018Amma yatas\u0101\u2019al\u016bn yang diambil dari perkataan \u2018amma yatas\u0101\u2019al\u016bn yang terdapat pada ayat pertama surah ini.\n\nPokok-pokok Isinya:\nKeimanan:\nPengingkaran orang-orang musyrik terhadap adanya hari kebangkitan dan ancaman Allah terhadap sikap mereka itu; kekuasaan Allah yang terlihat dalam alam sebagai bukti adanya hari kebangkitan; azab yang diterima orang-orang yang mendustakan ayat-ayat Allah; kebahagiaan yang diterima orang-orang mukmin pada hari Kiamat; dan juga penyesalan orang kafir pada hari Kiamat.",
        "outro_surah": null,
        "munasabah_prev_surah": "HUBUNGAN SURAH AL-MURSAL\u0100T DENGAN\nSURAH AN-NABA\u2019\n\n1.\tKedua surah ini sama-sama menerangkan keadaan neraka tempat orang-orang kafir menerima azab, dan keadaan surga tempat orang-orang bertakwa merasakan nikmat dari Allah.\n2.\tDalam Surah al-Mursal\u0101t diterangkan tentang \u201cyaumul-fa\u1e63l\u201d (hari keputusan) secara umum sedang Surah an-Naba\u2019 menjelaskannya.",
        "munasabah_prev_theme": "Pada ayat-ayat yang lalu, Allah menerangkan kepada manusia bahwa kejadian alam semesta ini dapat dijadikan bukti akan adanya hari kebangkitan. Oleh karena itu, manusia wajib mempercayainya. Dalam ayat-ayat berikut ini, Allah menjelaskan peristiwa-peristiwa dahsyat yang terjadi pada hari kebangkitan itu. Diterangkan pula akibat yang akan diterima orang-orang yang mendustakannya dan akibat yang diterima oleh orang-orang yang percaya kepadanya.",
        "theme_group": "BALASAN TERHADAP ORANG YANG BERTAKWA",
        "kosakata": "Kosakata: Dih\u0101qan \u062f\u0650\u0647\u064e\u0627\u0642\u064b\u0627 (an-Naba\u2019/78: 34)\nDih\u0101q artinya penuh. Ka\u2019san dih\u0101qan maksudnya adalah gelas yang penuh berisi minuman yang lezat.",
        "sabab_nuzul": null,
        "conclusion": null
    }
}