{
    "id": 5696,
    "surah_id": 78,
    "ayah": 24,
    "page": 582,
    "quarter_hizb": 59,
    "juz": 30,
    "manzil": 7,
    "arabic": "\u0644\u064e\u0627 \u064a\u064e\u0630\u064f\u0648\u0652\u0642\u064f\u0648\u0652\u0646\u064e \u0641\u0650\u064a\u0652\u0647\u064e\u0627 \u0628\u064e\u0631\u0652\u062f\u064b\u0627 \u0648\u0651\u064e\u0644\u064e\u0627 \u0634\u064e\u0631\u064e\u0627\u0628\u064b\u0627\u06d9",
    "latin": "L\u0101 ya\u017c\u016bq\u016bna f\u012bh\u0101 bardaw wa l\u0101 syar\u0101b\u0101(n).",
    "translation": "Mereka tidak merasakan kesejukan di dalamnya dan tidak (pula mendapat) minuman,",
    "no_footnote": null,
    "footnotes": null,
    "surah": {
        "id": 78,
        "arabic": "\u0627\u0644\u0646\u0651\u0628\u0623",
        "latin": "An-Naba'",
        "transliteration": "An-Naba'",
        "translation": "Berita",
        "num_ayah": 40,
        "page": 582,
        "location": "Makkiyah"
    },
    "tafsir": {
        "wajiz": "Mereka mendiami neraka Jahanam dengan penuh penderitaan. Mereka tidak pernah merasakan kesejukan di dalamnya untuk sekadar menikmati udara segar atau keteduhan, dan tidak pula mendapat minuman untuk melepas dahaga yang sangat berat.",
        "tahlili": "Di dalam neraka Jahanam itu mereka tidak merasakan kesejukan yang dapat mengurangi panas yang sangat menghanguskan dan tidak pula mendapat minuman yang dapat menghilangkan rasa haus.",
        "intro_surah": "Surah an-Naba\u2019 terdiri dari 40 ayat, termasuk kelompok surah Makkiyyah, diturunkan sesudah Surah al-Ma\u2018\u0101rij. \nNama an-Naba\u2019 diambil dari kata an-naba\u2019 yang terdapat pada ayat kedua surah ini.\nDisebut juga Surah \u2018Amma yatas\u0101\u2019al\u016bn yang diambil dari perkataan \u2018amma yatas\u0101\u2019al\u016bn yang terdapat pada ayat pertama surah ini.\n\nPokok-pokok Isinya:\nKeimanan:\nPengingkaran orang-orang musyrik terhadap adanya hari kebangkitan dan ancaman Allah terhadap sikap mereka itu; kekuasaan Allah yang terlihat dalam alam sebagai bukti adanya hari kebangkitan; azab yang diterima orang-orang yang mendustakan ayat-ayat Allah; kebahagiaan yang diterima orang-orang mukmin pada hari Kiamat; dan juga penyesalan orang kafir pada hari Kiamat.",
        "outro_surah": null,
        "munasabah_prev_surah": "HUBUNGAN SURAH AL-MURSAL\u0100T DENGAN\nSURAH AN-NABA\u2019\n\n1.\tKedua surah ini sama-sama menerangkan keadaan neraka tempat orang-orang kafir menerima azab, dan keadaan surga tempat orang-orang bertakwa merasakan nikmat dari Allah.\n2.\tDalam Surah al-Mursal\u0101t diterangkan tentang \u201cyaumul-fa\u1e63l\u201d (hari keputusan) secara umum sedang Surah an-Naba\u2019 menjelaskannya.",
        "munasabah_prev_theme": "Pada ayat-ayat yang lalu, Allah menerangkan kepada manusia bahwa kejadian alam semesta ini dapat dijadikan bukti akan adanya hari kebangkitan. Oleh karena itu, manusia wajib mempercayainya. Dalam ayat-ayat berikut ini, Allah menjelaskan peristiwa-peristiwa dahsyat yang terjadi pada hari kebangkitan itu. Diterangkan pula akibat yang akan diterima orang-orang yang mendustakannya dan akibat yang diterima oleh orang-orang yang percaya kepadanya.",
        "theme_group": "KEDAHSYATAN HARI KEBANGKITAN",
        "kosakata": "1.\tMir\u1e63\u0101dan  \u0645\u0650\u0631\u0652\u0635\u064e\u0627\u062f\u064b\u0627 (an-Naba\u2019/78: 21)\nMir\u1e63\u0101d artinya tempat mengintai/menjebak. Terambil dari kata ra\u1e63ada artinya \u201cmengintai\u201d atau \u201cmenjebak\u201d sasaran. Kata itu adalah isim mak\u0101n, kata yang menunjukkan tempat pekerjaan, atau pekerjaan itu sendiri sebagaimana disebutkan dalam Surah al-Fajr/89: 14: Inna rabbaka labil-mir\u1e63\u0101d (Sungguh, Tuhanmu benar-benar mengawasi.)\n2.\tA\u1e25q\u0101ban \u0623\u064e\u062d\u0652\u0642\u064e\u0627\u0628\u064b\u0627 (an-Naba\u2019/78: 23)\nA\u1e25q\u0101b adalah bentuk jamak dari \u1e25uqub yang artinya masa-masa yang sangat panjang (sehingga tidak diketahui lamanya).",
        "sabab_nuzul": null,
        "conclusion": null
    }
}