{
    "id": 5729,
    "surah_id": 79,
    "ayah": 17,
    "page": 584,
    "quarter_hizb": 59,
    "juz": 30,
    "manzil": 7,
    "arabic": "\u0627\u0650\u0630\u0652\u0647\u064e\u0628\u0652 \u0627\u0650\u0644\u0670\u0649 \u0641\u0650\u0631\u0652\u0639\u064e\u0648\u0652\u0646\u064e \u0627\u0650\u0646\u0651\u064e\u0647\u0657 \u0637\u064e\u063a\u0670\u0649\u06d6",
    "latin": "I\u017chab il\u0101 fir\u2018auna innah\u016b \u1e6dag\u0101.",
    "translation": "\u201cPergilah engkau kepada Fir\u2018aun! Sesungguhnya dia telah melampaui batas.",
    "no_footnote": null,
    "footnotes": null,
    "surah": {
        "id": 79,
        "arabic": " \u0627\u0644\u0646\u0651\u0670\u0632\u0639\u0670\u062a",
        "latin": "An-N\u0101zi\u2018\u0101t",
        "transliteration": "An-Nazi\u2018at",
        "translation": "Yang Mencabut Dengan Keras",
        "num_ayah": 46,
        "page": 583,
        "location": "Makkiyah"
    },
    "tafsir": {
        "wajiz": "Di lembah itu Allah menurunkan wahyu kepada Nabi Musa dan membekalinya dengan dua mukjizat: tongkat yang berubah menjadi ular dan telapak tangan yang bercahaya. Wahai Nabi Musa, pergilah engkau kepada Fir\u2019aun! Sesungguhnya dia telah melampaui batas, memperbudak bangsa Israel, membunuhi anak lelaki mereka, dan membiarkan hidup anak perempuan mereka.",
        "tahlili": "Tugas Nabi Musa ialah supaya pergi kepada Fir\u2018aun dan menasihatinya karena Fir\u2018aun sudah melampaui batas, berlaku sombong terhadap Bani Israil dan memperbudak mereka dengan kekejaman yang luar biasa dan di luar peri kemanusiaan. Di antaranya adalah perintah untuk membunuh bayi-bayi laki-laki dan membiarkan bayi perempuan hidup. Kemudian Allah menyuruh Nabi Musa supaya melaksanakan dakwah dengan halus dan lemah lembut.\nNabi Musa diperintahkan untuk berdialog secara baik-baik dengan Fir\u2018aun dan mengemukakan pertanyaan apakah Fir\u2018aun mau membersihkan diri dari kesesatan. Fir\u2018aun telah bergelimang dalam kesesatan, sehingga sebaiknya mau menerima petunjuk dari Allah yang dibawa Nabi Musa. Fir\u2018aun perlu menempuh jalan kebajikan yaitu menjauhkan diri dari perbuatan-perbuatan jahat.\nKemudian Nabi Musa diperintahkan untuk menjelaskan secara terbuka dengan mengajak Fir\u2018aun untuk mengikuti risalahnya menuju ke jalan Allah dengan bertakwa kepada-Nya.",
        "intro_surah": "Surah an-N\u0101zi\u2018\u0101t terdiri dari 46 ayat, termasuk kelompok surah Makkiyyah, diturunkan sesudah Surah an-Naba\u2019.\nNama an-N\u0101zi\u2018\u0101t (Malaikat-malaikat yang mencabut) diambil dari kata an-N\u0101zi\u2018\u0101t yang terdapat pada ayat pertama surah ini.\nSurah ini dinamai pula dengan as-S\u0101hirah yang diambil dari ayat 14, dan dinamai juga a\u1e6d-\u1e6c\u0101mmah yang diambil dari ayat 34.\n\nPokok-pokok Isinya:\n1.\tKeimanan:\nPenegasan Allah tentang adanya hari Kiamat dan sikap orang-orang musyrik terhadapnya; manusia dibagi dua golongan di akhirat; manusia tidak dapat mengetahui kapan terjadinya saat Kiamat.\n2.\tKisah:\nKisah Nabi Musa dengan Fir\u2018aun.",
        "outro_surah": null,
        "munasabah_prev_surah": "HUBUNGAN SURAH AN-NABA\u2019\nDENGAN SURAH AN-N\u0100ZI\u2018\u0100T\n\n1. \tSurah an-Naba\u2019 menerangkan ancaman Allah terhadap sikap orang-orang musyrik yang mengingkari adanya hari kebangkitan, serta mengemukakan bukti-bukti adanya hari kebangkitan, sedangkan pada Surah an-N\u0101zi\u2018\u0101t, Allah bersumpah bahwa hari Kiamat yang mendahului hari kebangkitan itu pasti terjadi.\n2. \tSama-sama menerangkan huru-hara yang terjadi pada hari Kiamat dan hari kebangkitan.",
        "munasabah_prev_theme": "Pada ayat-ayat yang lalu, Allah menerangkan sikap orang-orang kafir Mekah yang terus-menerus mengingkari hari kebangkitan dan mengejek Rasulullah saw dengan ejekan yang sangat menyakitkan hati. Pada ayat-ayat berikut ini, Allah membentangkan kisah Musa dengan Fir\u2018aun. Allah menjelaskan bahwa Fir\u2018aun lebih jahat dan lebih kufur daripada kaum Quraisy di Mekah. Ia telah mengangkat dirinya sebagai tuhan yang harus disembah, dan telah membujuk kaumnya supaya menentang seruan Nabi Musa.",
        "theme_group": "KISAH MUSA DAN FIR\u2018AUN SEBAGAI\nHIBURAN BAGI NABI MUHAMMAD",
        "kosakata": "Kosakata: Nak\u0101l \u0646\u064e\u0643\u064e\u0627\u0644\u064e (an-N\u0101zi\u2018\u0101t/79: 25)\nNak\u0101l artinya siksaan. Terambil dari kata kerja nakala yang artinya \u2018lemah\u2019. Nak\u0101l berarti \u201csiksaan\u201d karena siksaan itu membuat orang lemah tak berdaya. Dalam Al-Qur\u2019an juga terdapat kata ank\u0101l, bentuk jamak dari nakl, yang secara harfiah berarti \u201ckekang\u201d atau \u201ctambatan\u201d hewan, karena keduanya membuat hewan itu harus patuh dan tentu saja tersiksa. Dalam Surah al-Muzzammil/73: 12 disebutkan bahwa Allah memiliki alat-alat untuk menyiksa dan neraka bagi orang kafir: inna ladain\u0101 ank\u0101lan wa ja\u1e25\u012bman (sungguh, di sisi Kami ada belenggu-belenggu (yang berat) dan neraka yang menyala-nyala). Juga terdapat kata tank\u012bl yang merupakan ma\u1e63dar dari nakkala (menyiksa).",
        "sabab_nuzul": null,
        "conclusion": null
    }
}