{
    "id": 5749,
    "surah_id": 79,
    "ayah": 37,
    "page": 584,
    "quarter_hizb": 59,
    "juz": 30,
    "manzil": 7,
    "arabic": "\u0641\u064e\u0627\u064e\u0645\u0651\u064e\u0627 \u0645\u064e\u0646\u0652 \u0637\u064e\u063a\u0670\u0649\u06d6",
    "latin": "Fa amm\u0101 man \u1e6dag\u0101.",
    "translation": "Adapun orang yang melampaui batas",
    "no_footnote": null,
    "footnotes": null,
    "surah": {
        "id": 79,
        "arabic": " \u0627\u0644\u0646\u0651\u0670\u0632\u0639\u0670\u062a",
        "latin": "An-N\u0101zi\u2018\u0101t",
        "transliteration": "An-Nazi\u2018at",
        "translation": "Yang Mencabut Dengan Keras",
        "num_ayah": 46,
        "page": 583,
        "location": "Makkiyah"
    },
    "tafsir": {
        "wajiz": "Di akhirat Allah akan memberi putusan kepada manusia, memisahkan mereka menjadi dua kelompok besar. Maka adapun orang yang melampaui batas dengan berlaku musyrik, kafir, dan maksiat,",
        "tahlili": "Adapun orang-orang yang sombong dan melampaui batas, lebih mengutamakan kelezatan kehidupan dunia dari pahala di akhirat. Maka sesungguhnya neraka Jahimlah tempat kediamannya.",
        "intro_surah": "Surah an-N\u0101zi\u2018\u0101t terdiri dari 46 ayat, termasuk kelompok surah Makkiyyah, diturunkan sesudah Surah an-Naba\u2019.\nNama an-N\u0101zi\u2018\u0101t (Malaikat-malaikat yang mencabut) diambil dari kata an-N\u0101zi\u2018\u0101t yang terdapat pada ayat pertama surah ini.\nSurah ini dinamai pula dengan as-S\u0101hirah yang diambil dari ayat 14, dan dinamai juga a\u1e6d-\u1e6c\u0101mmah yang diambil dari ayat 34.\n\nPokok-pokok Isinya:\n1.\tKeimanan:\nPenegasan Allah tentang adanya hari Kiamat dan sikap orang-orang musyrik terhadapnya; manusia dibagi dua golongan di akhirat; manusia tidak dapat mengetahui kapan terjadinya saat Kiamat.\n2.\tKisah:\nKisah Nabi Musa dengan Fir\u2018aun.",
        "outro_surah": null,
        "munasabah_prev_surah": "HUBUNGAN SURAH AN-NABA\u2019\nDENGAN SURAH AN-N\u0100ZI\u2018\u0100T\n\n1. \tSurah an-Naba\u2019 menerangkan ancaman Allah terhadap sikap orang-orang musyrik yang mengingkari adanya hari kebangkitan, serta mengemukakan bukti-bukti adanya hari kebangkitan, sedangkan pada Surah an-N\u0101zi\u2018\u0101t, Allah bersumpah bahwa hari Kiamat yang mendahului hari kebangkitan itu pasti terjadi.\n2. \tSama-sama menerangkan huru-hara yang terjadi pada hari Kiamat dan hari kebangkitan.",
        "munasabah_prev_theme": "Pada ayat-ayat yang lalu, Allah menerangkan kekuasaan-Nya untuk membangkitkan semua manusia dari kuburnya sebagaimana Ia kuasa untuk menciptakan makhluk-Nya. Pada ayat-ayat berikut ini, Allah menjelaskan kebenaran wahyu yang telah disampaikan Nabi-Nya tentang kedahsyatan hari Kiamat. Pada saat itu, semua manusia akan berdiri menghadap Allah Rabbul \u2018\u0100lam\u012bn. Setiap orang akan menerima kitab yang berisi catatan tentang amal perbuatannya selama hidup di dunia, dan Allah akan memperlihatkan neraka Jahanam, sehingga dapat dilihat oleh semua yang ada di Padang Mahsyar.",
        "theme_group": "PADA HARI KIAMAT MANUSIA INGAT\nPERBUATANNYA DI DUNIA",
        "kosakata": "Kosakata: a\u1e6d-\u1e6c\u0101mmatul-Kubr\u0101 \u0627\u064e\u0644\u0637\u0651\u064e\u0627\u0645\u0651\u064e\u0629\u064f \u0627\u0644\u0652\u0643\u064f\u0628\u0652\u0631\u064e\u0649 (an-N\u0101zi\u2018\u0101t/79: 34)\nA\u1e6d-\u1e6c\u0101mmatul-Kubr\u0101 artinya malapetaka yang paling besar. Berasal dari fi\u2018il \u1e6damma-ya\u1e6dummu-\u1e6damman wa \u1e6dum\u016bman yang mempunyai lebih dari satu arti yaitu: mengisi, memotong, menggunting. \u1e6dammal-m\u0101\u2019 artinya air itu melimpah, \u1e6dammal-amr artinya perkara itu besar. a\u1e6d-\u1e6c\u0101mmah juga berarti ad-d\u0101hiyah yaitu bencana besar. Juga berarti hari Kiamat. Sedangkan al-kubr\u0101 adalah bentuk mu\u2019anna\u1e61 (feminim) dari isim taf\u1e0d\u012bl al-akbar, artinya lebih besar, paling besar. Jadi a\u1e6d-\u1e6d\u0101mmatul-kubr\u0101 artinya bencana atau malapetaka yang sangat besar atau paling besar, yaitu hari Kiamat. Ayat 34 memang menerangkan apabila hari Kiamat yang merupakan malapetaka yang sangat besar itu datang, neraka Jahanam akan diperlihatkan dan manusia akan teringat akan segala yang diperbuatnya di dunia. Pada ayat lain yaitu Surah al-\u1e24ajj/22: 2 digambarkan bahwa pada hari Kiamat itu ibu yang sedang hamil langsung keguguran, semua orang menjadi seperti mabuk padahal mereka tidak mabuk. Demikian dahsyat peristiwa hari Kiamat.",
        "sabab_nuzul": null,
        "conclusion": null
    }
}