{
    "id": 5713,
    "surah_id": 79,
    "ayah": 1,
    "page": 583,
    "quarter_hizb": 59,
    "juz": 30,
    "manzil": 7,
    "arabic": "\u0648\u064e\u0627\u0644\u0646\u0651\u0670\u0632\u0650\u0639\u0670\u062a\u0650 \u063a\u064e\u0631\u0652\u0642\u064b\u0627\u06d9",
    "latin": "Wan-n\u0101zi\u2018\u0101ti garq\u0101(n).",
    "translation": "Demi (malaikat) yang mencabut (nyawa orang kafir) dengan keras,",
    "no_footnote": null,
    "footnotes": null,
    "surah": {
        "id": 79,
        "arabic": " \u0627\u0644\u0646\u0651\u0670\u0632\u0639\u0670\u062a",
        "latin": "An-N\u0101zi\u2018\u0101t",
        "transliteration": "An-Nazi\u2018at",
        "translation": "Yang Mencabut Dengan Keras",
        "num_ayah": 46,
        "page": 583,
        "location": "Makkiyah"
    },
    "tafsir": {
        "wajiz": "Allah memulai surah ini dengan sumpah demi malaikat yang diberiNya tugas berat. Di antara tujuannya adalah agar manusia menghayati peran-peran tersebut dalam kehidupan. Demi malaikat yang mencabut nyawa kaum kafir dengan keras dan kasar sebagai tanda kegeraman para malaikat itu terhadap mereka.",
        "tahlili": "Pada ayat-ayat ini, Allah berfirman dalam bentuk sumpah terhadap beberapa malaikat yang mencabut nyawa manusia dengan keras dan juga kepada para malaikat yang mencabut nyawa manusia dengan lemah-lembut. Hal ini dalam rangka menegaskan adanya hari kebangkitan yang diingkari orang-orang musyrik. Ayat-ayat selanjutnya yang juga dalam bentuk kalimat-kalimat sumpah kepada para malaikat yang turun dari langit dengan cepat sambil membawa perintah Allah. Bahkan Allah bersumpah kepada para malaikat yang mendahului malaikat yang lain dengan kencang, serta para malaikat yang mengatur dunia.\nFirman-firman dalam bentuk sumpah ini banyak terdapat pada surah-surah Makkiyyah karena banyak orang-orang musyrik menolak dan mengingkari hari kebangkitan, seperti pada Surah a\u1e63-\u1e62\u0101ff\u0101t/37: 1-4:\n\u0648\u064e\u0627\u0644\u0635\u0651\u0670\u06e4\u0641\u0651\u0670\u062a\u0650 \u0635\u064e\u0641\u0651\u064b\u0627\u06d9 \u0661 \u0641\u064e\u0627\u0644\u0632\u0651\u0670\u062c\u0650\u0631\u0670\u062a\u0650 \u0632\u064e\u062c\u0652\u0631\u064b\u0627\u06d9 \u0662 \u0641\u064e\u0627\u0644\u062a\u0651\u0670\u0644\u0650\u064a\u0670\u062a\u0650 \u0630\u0650\u0643\u0652\u0631\u064b\u0627\u06d9 \u0663 \u0627\u0650\u0646\u0651\u064e \u0627\u0650\u0644\u0670\u0647\u064e\u0643\u064f\u0645\u0652 \u0644\u064e\u0648\u064e\u0627\u062d\u0650\u062f\u064c\u06d7 \u0664\nDemi (rombongan malaikat) yang berbaris bersaf-saf, demi (rombongan) yang mencegah dengan sungguh-sungguh, demi (rombongan) yang membacakan peringatan, sungguh, Tuhanmu benar-benar Esa. (a\u1e63-\u1e62\u0101ff\u0101t/37: 1-4).\n\n\tAdapun jawab qasam (isi dari sumpah) pada awal Surah an-N\u0101zi\u2018\u0101t ini terdapat dalam ayat 6, yaitu sungguh pada saat alam berguncang ketika tiupan sangkakala pertama, semuanya rusak dan hancur.\n\tTiupan sangkakala yang pertama itu kemudian diikuti oleh tiupan kedua yang membangkitkan manusia dari kuburnya. Inilah hari Kiamat dalam arti yang sebenarnya.\nAyat-ayat permulaan pada Surah an-N\u0101zi\u2018\u0101t ini oleh jumhur mufasir dipahami sebagai sumpah-sumpah kepada para malaikat. Akan tetapi, ada mufasir lain, seperti A\u1e25mad Mus\u1e6daf\u0101 al-Mar\u0101g\u012b, yang memahami sumpah ini bukan kepada para malaikat, tetapi kepada bintang-bintang yang beredar menurut aturan tertentu, seperti matahari, bulan, dan planet-planet yang lain. Dalam tafsir al-Mar\u0101g\u012b, ayat-ayat ini dipahami sebagai bintang-bintang yang sigap dan cepat jalannya, cahaya-cahaya yang keluar dari bintang ke bintang, dan bintang-bintang yang jalannya cepat dari bintang-bintang yang lain.\nAdapun tentang pemahaman jawab qasam-nya sama dengan pendapat jumhur mufasir.",
        "intro_surah": "Surah an-N\u0101zi\u2018\u0101t terdiri dari 46 ayat, termasuk kelompok surah Makkiyyah, diturunkan sesudah Surah an-Naba\u2019.\nNama an-N\u0101zi\u2018\u0101t (Malaikat-malaikat yang mencabut) diambil dari kata an-N\u0101zi\u2018\u0101t yang terdapat pada ayat pertama surah ini.\nSurah ini dinamai pula dengan as-S\u0101hirah yang diambil dari ayat 14, dan dinamai juga a\u1e6d-\u1e6c\u0101mmah yang diambil dari ayat 34.\n\nPokok-pokok Isinya:\n1.\tKeimanan:\nPenegasan Allah tentang adanya hari Kiamat dan sikap orang-orang musyrik terhadapnya; manusia dibagi dua golongan di akhirat; manusia tidak dapat mengetahui kapan terjadinya saat Kiamat.\n2.\tKisah:\nKisah Nabi Musa dengan Fir\u2018aun.",
        "outro_surah": null,
        "munasabah_prev_surah": "HUBUNGAN SURAH AN-NABA\u2019\nDENGAN SURAH AN-N\u0100ZI\u2018\u0100T\n\n1. \tSurah an-Naba\u2019 menerangkan ancaman Allah terhadap sikap orang-orang musyrik yang mengingkari adanya hari kebangkitan, serta mengemukakan bukti-bukti adanya hari kebangkitan, sedangkan pada Surah an-N\u0101zi\u2018\u0101t, Allah bersumpah bahwa hari Kiamat yang mendahului hari kebangkitan itu pasti terjadi.\n2. \tSama-sama menerangkan huru-hara yang terjadi pada hari Kiamat dan hari kebangkitan.",
        "munasabah_prev_theme": "Pada ayat-ayat terakhir Surah an-Naba\u2019, Allah telah menegaskan tentang kepastian datangnya hari Kiamat, di mana Malaikat Jibril dan para malaikat lainnya telah siap melaksanakan tugas-tugas mereka. Dijelaskan juga bahwa orang-orang mukmin diperintahkan untuk memperbanyak amal kebaikan. Pada ayat-ayat berikut ini, Allah menerangkan bahwa ada para malaikat yang bertugas mencabut nyawa dengan keras dan ada pula yang dengan lemah-lembut. Juga dijelaskan bahwa orang-orang musyrik tidak pantas untuk mengingkari adanya hari kebangkitan.",
        "theme_group": "PENEGASAN HARI KEBANGKITAN\nKEPADA ORANG MUSYRIK",
        "kosakata": "Kosakata:\n1.\tAr-R\u0101jifah \u0627\u0644\u0631\u0651\u064e\u0627\u062c\u0650\u0641\u064e\u0629\u064f (an-N\u0101zi\u2018\u0101t/79: 6)\nAr-R\u0101jifah artinya yang berguncang hebat. Kata kerjanya rajafa (berguncang hebat). Pada hari Kiamat, bumi dan gunung berguncang dengan hebat sekali sebagaimana dinyatakan dalam Surah al-Muzzammil/73: 14, yauma tarjuful-ar\u1e0du wal-jib\u0101l (Ingatlah) pada hari (ketika) bumi dan gunung-gunung berguncang keras). Ma\u1e63dar atau kata bendanya adalah rajfah (guncangan), seperti dalam Surah al-A\u2018r\u0101f/7: 78: Fa akha\u017cathumur-rajfatu fa a\u1e63ba\u1e25\u016b f\u012b d\u0101rihim j\u0101\u1e61im\u012bn (Lalu datanglah gempa menimpa mereka, dan mereka pun mati bergelimpangan di dalam reruntuhan rumah mereka). Al-Murjif\u016bn adalah orang-orang yang membuat guncangan, yaitu orang yang membuat-buat dan menyebarkan isu-isu yang sangat berbahaya sehingga membuat masyarakat tidak tenang (lihat Surah al-A\u1e25z\u0101b/33: 60).\n2.\tW\u0101jifah \u0648\u064e\u0627\u062c\u0650\u0641\u064e\u0629\u064c (an-N\u0101zi\u2018\u0101t/79: 8)\nW\u0101jifah artinya yang berlari kencang. Kata kerjanya wajafa (berlari kencang). Dalam Al-Qur\u2019an terdapat kata aujafa (membuat berlari kencang (kuda atau unta, atau kendaraan), seperti dalam ayat (Surah al-\u1e24asyr/59: 6). W\u0101jifah (yang berlari kencang) dalam Al-Qur\u2019an digunakan untuk hati (Surah al-N\u0101zi\u2018\u0101t/79: 8). Hal itu untuk melukiskan hari Kiamat, bagaimana hebatnya hati berguncang pada hari itu.",
        "sabab_nuzul": null,
        "conclusion": null
    }
}