{
    "id": 5775,
    "surah_id": 80,
    "ayah": 17,
    "page": 585,
    "quarter_hizb": 59.25,
    "juz": 30,
    "manzil": 7,
    "arabic": "\u0642\u064f\u062a\u0650\u0644\u064e \u0627\u0644\u0652\u0627\u0650\u0646\u0652\u0633\u064e\u0627\u0646\u064f \u0645\u064e\u0627\u0653 \u0627\u064e\u0643\u0652\u0641\u064e\u0631\u064e\u0647\u0657\u06d7",
    "latin": "Qutilal-ins\u0101nu m\u0101 akfarah(\u016b).",
    "translation": "Celakalah manusia! Alangkah kufur dia!",
    "no_footnote": null,
    "footnotes": null,
    "surah": {
        "id": 80,
        "arabic": " \u0639\u0628\u0633",
        "latin": "\u2018Abasa",
        "transliteration": "\u2018Abasa",
        "translation": "Berwajah Masam",
        "num_ayah": 42,
        "page": 585,
        "location": "Makkiyah"
    },
    "tafsir": {
        "wajiz": "Allah telah menurunkan Al-Qur\u2019an sebagai kitab yang penuh peringatan bagi manusia agar mereka mengikuti jalan Allah, tetapi celakalah manusia, alangkah jauh mereka dari rahmat Allah, alangkah kufurnya dia kepada peringatan Tuhan!",
        "tahlili": "Dalam ayat-ayat ini, Allah memberi peringatan keras kepada manusia dengan kalimat-kalimat yang tegas, yaitu: binasalah manusia! Alangkah besar keingkarannya kepada nikmat-nikmat Allah yang telah dilimpahkan kepadanya sejak mulai lahir sampai matinya. Allah mengemukakan pertanyaan supaya dijadikan renungan oleh manusia untuk dapat menimbulkan kesadaran, yaitu dari apakah Allah menciptakannya?\nAllah memberi perincian tentang macam-macam nikmat yang telah diberikan kepada manusia dalam tiga masa, yaitu permulaan, pertengahan dan bagian akhir. Allah memberi isyarat kepada yang pertama dengan pertanyaan berikut ini: \u201cDari apakah manusia diciptakan Allah?\u201d",
        "intro_surah": "Surah \u2018Abasa terdiri dari 42 ayat, termasuk kelompok surah Makkiyyah, diturunkan sesudah Surah an-Najm.\nNama \u2018Abasa (ia bermuka masam) diambil dari perkataan \u2018abasa yang terdapat pada ayat pertama surah ini.\nMenurut riwayat, pada suatu ketika Rasulullah saw menerima dan berbicara dengan pemuka-pemuka Quraisy, yang beliau harapkan agar masuk Islam. Ketika itu, datanglah \u2018Abdull\u0101h bin Ummi Makt\u016bm, seorang sahabat yang buta yang mengharap agar Rasulullah saw membacakan kepadanya ayat-ayat Al-Qur\u2019an yang telah diturunkan Allah. Akan tetapi, Rasulullah saw bermuka masam dan memalingkan muka dari \u2018Abdull\u0101h bin Ummi Makt\u016bm yang buta itu, lalu Allah menurunkan surah ini sebagai teguran atas sikap Rasulullah saw kepada sahabat tersebut.\n\nPokok-pokok Isinya:\n1.\tKeimanan:\nDalil-dalil keesaan Allah; keadaan manusia pada hari Kiamat.\n2.\tLain-lain:\nDalam berdakwah hendaknya memberikan penghargaan yang sama kepada orang-orang yang diberi dakwah; cercaan Allah kepada manusia yang tidak mensyukuri nikmat-Nya.",
        "outro_surah": null,
        "munasabah_prev_surah": "HUBUNGAN SURAH AN-N\u0100ZI\u2019\u0100T\nDENGAN SURAH \u2018ABASA\n\nPada akhir Surah an-N\u0101zi\u2019\u0101t diterangkan bahwa Nabi Muhammad saw hanyalah pemberi peringatan kepada orang-orang yang takut kepada hari Kiamat, sedangkan pada permulaan Surah \u2018Abasa dibayangkan bahwa dalam memberikan peringatan itu hendaklah memberikan penghargaan yang sama kepada orang-orang yang diberi peringatan dengan tidak memandang kedudukan seseorang dalam masyarakat.",
        "munasabah_prev_theme": "Pada ayat-ayat yang lalu, Allah menyampaikan teguran pada Nabi saw dalam peristiwa \u2018Abdull\u0101h bin Ummi Makt\u016bm. Pada ayat-ayat berikut ini, Allah menjelaskan bahwa hidayah yang diberikan-Nya kepada manusia dengan perantaraan para rasul-Nya, bukanlah hanya sekadar disimpan saja dalam hati. Akan tetapi, harus benar-benar dipergunakan untuk menyadarkan orang-orang yang lemah (ada perhatian), sehingga seluruh perbuatannya setelah diberi petunjuk itu menjurus ke arah yang diridai oleh Allah.",
        "theme_group": "AL-QUR\u2019AN PEMBERI PERINGATAN DARI ALLAH",
        "kosakata": "Kosakata: Safarah \u0633\u064e\u0641\u064e\u0631\u064e\u0629\u064d (\u2018Abasa/80: 15)\nSafarah adalah bentuk jamak dari s\u0101fir yaitu isim f\u0101\u2019il atau orang yang melakukan pekerjaan tersebut, berasal dari fi\u2018il safara-yasfuru-suf\u016bran wa safran artinya bepergian, menyapu, menulis. Ayat 15 surah ini yang berbunyi: bi aid\u012b safarah (pada tangan-tangan para penulis, atau di tangan-tangan para utusan yaitu malaikat). Rangkaian ayat-ayat ini sedang menggambarkan tentang Al-Qur\u2019an yang berfungsi sebagai hidayah atau petunjuk dan pelajaran dari Allah bagi semua manusia. Al-Qur\u2019an sebagai salah satu dari kitab-kitab yang diturunkan Allah kepada para nabi, sangat mulia dan tinggi ajaran dan ilmunya, suci dari segala macam bentuk kesalahan dan pengaruh buruk dari setan, diturunkan dengan perantaraan para penulis atau utusan yaitu malaikat. Sebelum diturunkan kepada Nabi Muhammad, Al-Qur\u2019an tersimpan pada Lau\u1e25 Ma\u1e25f\u016b\u1e93 artinya pada lembaran yang terjaga. Para malaikat adalah makhluk yang mulia dan senantiasa tunduk dan patuh kepada Allah, tidak pernah membangkang terhadap perintah-Nya, dan selalu mengerjakan apa yang diperintahkan, demikian disebutkan dalam Surah at-Ta\u1e25r\u012bm/66: 6).",
        "sabab_nuzul": null,
        "conclusion": null
    }
}