{
    "id": 5785,
    "surah_id": 80,
    "ayah": 27,
    "page": 585,
    "quarter_hizb": 59.25,
    "juz": 30,
    "manzil": 7,
    "arabic": "\u0641\u064e\u0627\u064e\u0646\u0652\u06e2\u0628\u064e\u062a\u0652\u0646\u064e\u0627 \u0641\u0650\u064a\u0652\u0647\u064e\u0627 \u062d\u064e\u0628\u0651\u064b\u0627\u06d9",
    "latin": "Fa'ambatn\u0101 f\u012bh\u0101 \u1e25abb\u0101(n).",
    "translation": "Lalu, Kami tumbuhkan padanya biji-bijian,",
    "no_footnote": null,
    "footnotes": null,
    "surah": {
        "id": 80,
        "arabic": " \u0639\u0628\u0633",
        "latin": "\u2018Abasa",
        "transliteration": "\u2018Abasa",
        "translation": "Berwajah Masam",
        "num_ayah": 42,
        "page": 585,
        "location": "Makkiyah"
    },
    "tafsir": {
        "wajiz": "Lalu di sana Kami tumbuhkan biji-bijian dengan segala macam dan ragamnya, seperti biji padi dan gandum.",
        "tahlili": "Dalam ayat ini dan selanjutnya Allah menyebutkan beberapa macam tumbuh-tumbuhan: pertama, Allah menumbuhkan di bumi biji-bijian seperti gandum, padi, dan lain-lainnya yang menjadi makanan pokok.\nKedua dan ketiga, Allah menumbuhkan pula buah anggur dan bermacam sayuran yang dapat dimakan secara langsung.\nKeempat dan kelima, buah zaitun dan pohon kurma.\nKeenam, kebun-kebun yang besar, tinggi, dan lebat buahnya. Tidak hanya buahnya yang dapat dimanfaatkan, tetapi pohonnya pun dapat dijadikan bahan bangunan dan alat-alat perumahan.\nKetujuh, bermacam-macam buah-buahan yang lain, seperti buah pir, apel, mangga, dan sebagainya.\nKedelapan, berbagai macam rumput-rumputan.\nAir yang turun dari langit dan perannya dalam \u201cmenghidupkan tanah yang mati\u201d secara jelas diuraikan pada Surah al-Furq\u0101n/25: 48-49. Apa kandungan dari air hujan sehingga dapat digunakan untuk tumbuhnya tumbuhan ada pada Surah Q\u0101f/50: 9. \nSedangkan uraian bagaimana bumi \u201cterbelah\u201d, di samping ayat di atas, juga terdapat pada Surah Fu\u1e63\u1e63ilat/41: 39, sebagaimana pada penggalannya: \u201cDan di antara ayat-ayat-Nya adalah engkau melihat bumi kering tandus maka apabila telah Kami turunkan air di atasnya, niscaya ia bergerak dan mengembang.\u201d\nAyat tersebut menerangkan apa yang akan terjadi pada tanah yang kering apabila butiran hujan jatuh di atasnya. Ayat tersebut juga menjelaskan adanya tiga tahap bagaimana perkembangan tumbuhan sampai dengan menghasilkan buah.\nTingkat-tingkat perkembangan tumbuhan yang dijelaskan oleh ayat di atas adalah demikian:\nPertama: Bergeraknya tanah. Apa yang dimaksud dengan bergeraknya tanah adalah gerakan partikel tanah. Partikel ini terdiri dari lapisan-lapisan yang terdiri atas bahan silika dan alumina. Ketika air masuk ke lapisan-lapisan partikel, maka akan terjadi pembengkakan dari partikel-partikel pembentuk lumpur. Hal ini dapat dijelaskan demikian:\na.\tMuatan listrik elektrostatis yang ada di permukaan partikel (yang terjadi setelah kehadiran air) akan mengakibatkan terganggunya stabilitas. Partikel ini akan bergerak terus, sebelum ada stabilisator yang berupa partikel yang bermuatan listrik yang berlawanan. Di sini kita seharusnya bersyukur, tentang bagaimana Allah telah menciptakan semuanya dalam pasangan-pasangan, sehingga mendatangkan suasana yang stabil dan sentosa. Termasuk dalam hal ini adalah muatan listrik\nb.\tPergerakan partikel tanah juga disebabkan karena adanya tabrakan dengan partikel air. Pergerakan partikel air yang tidak teratur menyebabkan partikel tanah bergerak ke semua arah. Gerakan yang demikian ini ditemukan oleh seorang ahli tumbuhan bernama Robert Brown pada tahun 1828. Pergerakannya sangat tergantung pada kecepatan dan jumlah partikel air. Dengan demikian, pergerakan yang terjadi adalah interaksi langsung antara partikel tanah dan partikel air.\n\nKedua: Mengembangnya tanah. Apa yang dimaksud dengan mengembangnya tanah adalah mengembangnya partikel tanah. Partikel tanah akan bertambah tebal. Dengan demikian, tanah akan mengembang, sejalan dengan mengembangnya partikel tanah. Telah dikemukakan sebelumnya bahwa partikel tanah terdiri atas lapisan-lapisan yang berhubungan satu sama lain. Antara lapisan satu dan lainnya terdapat pori-pori. Ke dalam pori-pori inilah air dan ion-ion yang terlarut akan masuk. Dengan bentuk pori-pori yang sangat sempit dan adanya medan elektrostatis di permukaan lapisan, maka air seperti ditaruh dalam botol, dan tidak mengalir ke luar. Dengan kata lain, air akan disimpan di pori-pori di setiap lapisan.\nKetiga: Tahap Perkecambahan. Tahap perkecambahan biji terjadi saat air sudah tersedia. Saat air sudah pada tahap cukup, maka embrio yang ada di dalam biji akan menjadi aktif dan menyerap material nutrisi yang sederhana (material nutrisi kompleks dipecah menjadi sederhana dengan bantuan enzim). Pada tahap ini, bakal akar tumbuh ke bawah, bergerak di antara partikel tanah untuk mencari kawasan yang memenuhi syarat dan memperoleh nutrisi yang diperlukannya. Kemudian bakal daun akan berkembang ke atas, menembus permukaan tanah, dan mengarahkan pada sumber sinar matahari.\nJadi, secara singkat, tahapan-tahapan di atas dapat dijelaskan demikian. Kata \u201cbergerak\u201d jelas mengindikasikan efek dari air terhadap partikel tanah. Efek ini dapat terjadi sebagai akibat adanya muatan listrik elektrostatis atau benturan langsung antara partikel-partikel air dan tanah. Sedangkan kata \u201cmembengkak\u201d mengacu pada menebalnya partikel tanah karena terperangkapnya air di antara lapisan-lapisan pembentuk partikel tanah. Dengan demikian, partikel tanah berfungsi sebagai reservoar air, tempat menyimpan air. Ini sesuai dengan ayat berikut: \n\u0648\u064e\u0627\u064e\u0646\u0652\u0632\u064e\u0644\u0652\u0646\u064e\u0627 \u0645\u0650\u0646\u064e \u0627\u0644\u0633\u0651\u064e\u0645\u064e\u0627\u06e4\u0621\u0650 \u0645\u064e\u0627\u06e4\u0621\u064b\u06e2 \u0628\u0650\u0642\u064e\u062f\u064e\u0631\u064d \u0641\u064e\u0627\u064e\u0633\u0652\u0643\u064e\u0646\u0651\u0670\u0647\u064f \u0641\u0650\u0649 \u0627\u0644\u0652\u0627\u064e\u0631\u0652\u0636\u0650\u06d6 \u0648\u064e\u0627\u0650\u0646\u0651\u064e\u0627 \u0639\u064e\u0644\u0670\u0649 \u0630\u064e\u0647\u064e\u0627\u0628\u064d\u06e2 \u0628\u0650\u0647\u0656 \u0644\u064e\u0642\u0670\u062f\u0650\u0631\u064f\u0648\u0652\u0646\u064e \u06da \u0661\u0668\nDan Kami turunkan air dari langit dengan suatu ukuran; lalu Kami jadikan air itu menetap di bumi, dan pasti Kami berkuasa melenyapkannya. (al-Mu\u2019min\u016bn/23: 18)\n\nKemudian bakal akar, dan disusul bakal daun, mulai tumbuh. Anak pohon akan muncul, terus tumbuh dan memberikan hasil untuk keperluan manusia. Apakah manusia masih tidak bersyukur?\n\u0641\u064e\u0627\u0646\u0652\u0638\u064f\u0631\u0652 \u0627\u0650\u0644\u0670\u0653\u0649 \u0627\u0670\u062b\u0670\u0631\u0650 \u0631\u064e\u062d\u0652\u0645\u064e\u062a\u0650 \u0627\u0644\u0644\u0651\u0670\u0647\u0650 \u0643\u064e\u064a\u0652\u0641\u064e \u064a\u064f\u062d\u0652\u064a\u0650 \u0627\u0644\u0652\u0627\u064e\u0631\u0652\u0636\u064e \u0628\u064e\u0639\u0652\u062f\u064e \u0645\u064e\u0648\u0652\u062a\u0650\u0647\u064e\u0627\u06d7 \u0627\u0650\u0646\u0651\u064e \u0630\u0670\u0644\u0650\u0643\u064e \u0644\u064e\u0645\u064f\u062d\u0652\u064a\u0650 \u0627\u0644\u0652\u0645\u064e\u0648\u0652\u062a\u0670\u0649\u06da \u0648\u064e\u0647\u064f\u0648\u064e \u0639\u064e\u0644\u0670\u0649 \u0643\u064f\u0644\u0651\u0650 \u0634\u064e\u064a\u0652\u0621\u064d \u0642\u064e\u062f\u0650\u064a\u0652\u0631\u064c \u0665\u0660\nMaka perhatikanlah bekas-bekas rahmat Allah, bagaimana Allah menghidupkan bumi setelah mati (kering). Sungguh, itu berarti Dia pasti (berkuasa) menghidupkan yang telah mati. Dan Dia Mahakuasa atas segala sesuatu. (ar-R\u016bm/30: 50)",
        "intro_surah": "Surah \u2018Abasa terdiri dari 42 ayat, termasuk kelompok surah Makkiyyah, diturunkan sesudah Surah an-Najm.\nNama \u2018Abasa (ia bermuka masam) diambil dari perkataan \u2018abasa yang terdapat pada ayat pertama surah ini.\nMenurut riwayat, pada suatu ketika Rasulullah saw menerima dan berbicara dengan pemuka-pemuka Quraisy, yang beliau harapkan agar masuk Islam. Ketika itu, datanglah \u2018Abdull\u0101h bin Ummi Makt\u016bm, seorang sahabat yang buta yang mengharap agar Rasulullah saw membacakan kepadanya ayat-ayat Al-Qur\u2019an yang telah diturunkan Allah. Akan tetapi, Rasulullah saw bermuka masam dan memalingkan muka dari \u2018Abdull\u0101h bin Ummi Makt\u016bm yang buta itu, lalu Allah menurunkan surah ini sebagai teguran atas sikap Rasulullah saw kepada sahabat tersebut.\n\nPokok-pokok Isinya:\n1.\tKeimanan:\nDalil-dalil keesaan Allah; keadaan manusia pada hari Kiamat.\n2.\tLain-lain:\nDalam berdakwah hendaknya memberikan penghargaan yang sama kepada orang-orang yang diberi dakwah; cercaan Allah kepada manusia yang tidak mensyukuri nikmat-Nya.",
        "outro_surah": null,
        "munasabah_prev_surah": "HUBUNGAN SURAH AN-N\u0100ZI\u2019\u0100T\nDENGAN SURAH \u2018ABASA\n\nPada akhir Surah an-N\u0101zi\u2019\u0101t diterangkan bahwa Nabi Muhammad saw hanyalah pemberi peringatan kepada orang-orang yang takut kepada hari Kiamat, sedangkan pada permulaan Surah \u2018Abasa dibayangkan bahwa dalam memberikan peringatan itu hendaklah memberikan penghargaan yang sama kepada orang-orang yang diberi peringatan dengan tidak memandang kedudukan seseorang dalam masyarakat.",
        "munasabah_prev_theme": "Pada ayat-ayat yang lalu, Allah menerangkan tanda-tanda kekuasaan-Nya yang terdapat pada tubuh manusia sendiri dan nikmat-nikmat yang telah dianugerahkan-Nya. Pada ayat-ayat berikut ini, Allah memperingatkan lagi nikmat-nikmat lain yang erat hubungannya dengan keperluan pokok hidup manusia yaitu makanan-makanan yang dimakannya.",
        "theme_group": "KENIKMATAN MAKANAN DAN BUAH-BUAHAN\nMENGINGATKAN MANUSIA KEPADA \nPENCIPTANYA",
        "kosakata": "Kosakata: \n1.\tSyaqaqn\u0101 \u0634\u064e\u0642\u064e\u0642\u0652\u0646\u064e\u0627 (\u2018Abasa/80: 26)\nKata syaqaqn\u0101 adalah fi\u2019il m\u0101\u1e0d\u012b yang dihubungkan dengan \u1e0dam\u012br n\u0101 (kami) yang artinya kami belah, kami bukakan, atau kami rekah. Ayat 26 ini menggambarkan betapa Allah telah menganugerahkan dan melimpahkan berbagai macam makanan yang dibutuhkan manusia dalam kehidupan mereka di dunia. Allah mencurahkan air hujan di muka bumi dengan sangat cukup, kemudian merekahkan permukaan bumi supaya terbuka dan mendapat sinar matahari dan udara juga masuk menyuburkan bumi. Bumi menjadi subur dan segala macam tanam-tanaman pun tumbuh di muka bumi baik biji-bijian, sayur-sayuran, buah-buahan dan segala macam yang dibutuhkan manusia. Kata syaqaqn\u0101 dengan menggunakan fi\u2019il m\u0101\u1e0d\u012b di sini bukan berarti terjadi pada masa yang lalu, tetapi menunjukkan benar-benar terjadi, pasti terjadi, sebagaimana kisah-kisah tentang hari Kiamat dan peristiwa hari akhirat yang menggunakan fi\u2019il m\u0101\u1e0d\u012b adalah menunjukkan hal itu benar-benar terjadi.\n2.\tGulban \u063a\u064f\u0644\u0652\u0628\u064b\u0627 (\u2018Abasa/80: 30)\nGulb artinya lebat, pohon-pohon yang rindang, banyak daun dan cabang-cabangnya. Kata al-galb adalah bentuk isim ma\u1e63dar dari fi\u2019il galaba-yaglibu-galban wa galbatan yang artinya mengalahkan atau mengatasi. Ayat 30 yang berbunyi wa \u1e25ad\u0101\u2019iqa gulban adalah \u2018a\u1e6daf atau sambungan dari ayat-ayat sebelumnya, yaitu mulai dari ayat 27, 28, 29, dan 30, yang artinya: Maka Kami tumbuhkan di sana biji-bijian, anggur, sayur-sayuran, zaitun, kurma, dan kebun-kebun yang rindang, banyak cabangnya dan lebat daunnya. Dalam kalimat ini, kata gulban adalah sebagai maf\u2018\u016bl mu\u1e6dlaq yang menunjukkan jenis tumbuh-tumbuhan yang lebat dan rindang. Hal ini sesuai dengan kebutuhan manusia pada suasana kesejukan di mana sinar dan panas matahari diserap oleh daun-daun yang hijau sehingga udara di sekelilingnya menjadi sejuk dan segar, seperti sering dikatakan hutan yang lebat adalah paru-paru dunia.",
        "sabab_nuzul": null,
        "conclusion": null
    }
}