{
    "id": 5761,
    "surah_id": 80,
    "ayah": 3,
    "page": 585,
    "quarter_hizb": 59.25,
    "juz": 30,
    "manzil": 7,
    "arabic": "\u0648\u064e\u0645\u064e\u0627 \u064a\u064f\u062f\u0652\u0631\u0650\u064a\u0652\u0643\u064e \u0644\u064e\u0639\u064e\u0644\u0651\u064e\u0647\u0657 \u064a\u064e\u0632\u0651\u064e\u0643\u0651\u0670\u0649\u0653\u06d9",
    "latin": "Wa m\u0101 yudr\u012bka la\u2018allah\u016b yazzakk\u0101.",
    "translation": "Tahukah engkau (Nabi Muhammad) boleh jadi dia ingin menyucikan dirinya (dari dosa)",
    "no_footnote": null,
    "footnotes": null,
    "surah": {
        "id": 80,
        "arabic": " \u0639\u0628\u0633",
        "latin": "\u2018Abasa",
        "transliteration": "\u2018Abasa",
        "translation": "Berwajah Masam",
        "num_ayah": 42,
        "page": 585,
        "location": "Makkiyah"
    },
    "tafsir": {
        "wajiz": "Wahai Nabi Muhammad, Kami menegur sikapmu yang demikian karena tahukah engkau barangkali dia datang menghadapmu untuk minta pengajaran darimu sebab dia ingin menyucikan dirinya dari dosa dan kesalahan masa lalunya?",
        "tahlili": "Dalam ayat-ayat ini, Allah menegur Rasul-Nya, \u201cApa yang memberitahukan kepadamu tentang keadaan orang buta ini? Boleh jadi ia ingin membersihkan dirinya dengan ajaran yang kamu berikan kepadanya atau ingin bermanfaat bagi dirinya dan ia mendapat keridaan Allah, sedangkan pengajaran itu belum tentu bermanfaat bagi orang-orang kafir Quraisy yang sedang kamu hadapi itu.\u201d",
        "intro_surah": "Surah \u2018Abasa terdiri dari 42 ayat, termasuk kelompok surah Makkiyyah, diturunkan sesudah Surah an-Najm.\nNama \u2018Abasa (ia bermuka masam) diambil dari perkataan \u2018abasa yang terdapat pada ayat pertama surah ini.\nMenurut riwayat, pada suatu ketika Rasulullah saw menerima dan berbicara dengan pemuka-pemuka Quraisy, yang beliau harapkan agar masuk Islam. Ketika itu, datanglah \u2018Abdull\u0101h bin Ummi Makt\u016bm, seorang sahabat yang buta yang mengharap agar Rasulullah saw membacakan kepadanya ayat-ayat Al-Qur\u2019an yang telah diturunkan Allah. Akan tetapi, Rasulullah saw bermuka masam dan memalingkan muka dari \u2018Abdull\u0101h bin Ummi Makt\u016bm yang buta itu, lalu Allah menurunkan surah ini sebagai teguran atas sikap Rasulullah saw kepada sahabat tersebut.\n\nPokok-pokok Isinya:\n1.\tKeimanan:\nDalil-dalil keesaan Allah; keadaan manusia pada hari Kiamat.\n2.\tLain-lain:\nDalam berdakwah hendaknya memberikan penghargaan yang sama kepada orang-orang yang diberi dakwah; cercaan Allah kepada manusia yang tidak mensyukuri nikmat-Nya.",
        "outro_surah": null,
        "munasabah_prev_surah": "HUBUNGAN SURAH AN-N\u0100ZI\u2019\u0100T\nDENGAN SURAH \u2018ABASA\n\nPada akhir Surah an-N\u0101zi\u2019\u0101t diterangkan bahwa Nabi Muhammad saw hanyalah pemberi peringatan kepada orang-orang yang takut kepada hari Kiamat, sedangkan pada permulaan Surah \u2018Abasa dibayangkan bahwa dalam memberikan peringatan itu hendaklah memberikan penghargaan yang sama kepada orang-orang yang diberi peringatan dengan tidak memandang kedudukan seseorang dalam masyarakat.",
        "munasabah_prev_theme": "Pada akhir Surah an-N\u0101zi\u2019\u0101t diterangkan bahwa Nabi Muhammad hanyalah pemberi peringatan kepada orang-orang yang takut kepada hari Kiamat. Pada permulaan surah ini dijelaskan bahwa dalam memberikan penghargaan yang sama kepada orang-orang yang diberi peringatan dengan tidak memandang kedudukan seseorang dalam masyarakat, seperti antara tokoh-tokoh bangsawan Quraisy dengan orang buta yang bernama \u2018Abdull\u0101h bin Ummi Makt\u016bm. Sahabat Nabi yang terkenal ini sebenarnya bernama \u2018Abdull\u0101h bin Syurai\u1e25 bin M\u0101lik bin Ab\u012b Rab\u012b\u2019ah. Ibunya yang bernama Ummi Makt\u016bm adalah anak paman Khadijah sehingga lebih dikenal dengan nama \u2018Abdull\u0101h bin Ummi Makt\u016bm.",
        "theme_group": "TEGURAN KEPADA RASULULLAH SAW",
        "kosakata": "Kosakata: \u2018Abasa \u0639\u064e\u0628\u064e\u0633\u064e (\u2018Abasa/80: 1)\nKata \u2018abasa adalah fi\u2018il ma\u1e0d\u012b yaitu \u2018abasa-ya\u2018bisu-\u2018absan wa \u2018ab\u016bsan artinya memberengut, bermuka masam. Ayat 1 ini menggambarkan bahwa Nabi Muhammad bermuka masam dan memalingkan muka ke arah lain dari orang yang bertanya kepada beliau. Orang yang bertanya itu adalah \u2018Abdull\u0101h bin Ummi Makt\u016bm, seorang buta yang ingin menanyakan sesuatu kepada Nabi. Tetapi karena Nabi sedang menghadapi orang-orang penting yaitu beberapa tokoh Quraisy seperti \u2018Utbah bin Rab\u012b\u2019ah, Syaibah bin Rab\u012b\u2019ah, Ab\u016b Jahal bin Hisy\u0101m, al-\u2018Abb\u0101s bin \u2018Abdul-Mu\u1e6d\u1e6dalib, Umayyah bin Khalaf, dan al-Wal\u012bd bin al-Mug\u012brah. Mereka ini sangat diharapkan Nabi untuk masuk Islam agar memperkuat posisi Islam dalam masyarakat Quraisy. Akan tetapi, ternyata sikap Nabi yang demikian, yaitu tidak peduli dan memalingkan muka dari orang kecil yang buta yaitu \u2018Abdull\u0101h bin Ummi Makt\u016bm, ditegur Allah. Nabi harus menjadi contoh yang baik bagi semua orang.",
        "sabab_nuzul": null,
        "conclusion": null
    }
}