{
    "id": 5796,
    "surah_id": 80,
    "ayah": 38,
    "page": 585,
    "quarter_hizb": 59.25,
    "juz": 30,
    "manzil": 7,
    "arabic": "\u0648\u064f\u062c\u064f\u0648\u0652\u0647\u064c \u064a\u0651\u064e\u0648\u0652\u0645\u064e\u0649\u0655\u0650\u0630\u064d \u0645\u0651\u064f\u0633\u0652\u0641\u0650\u0631\u064e\u0629\u064c\u06d9",
    "latin": "Wuj\u016bhuy yauma'i\u017cim musfirah(tun).",
    "translation": "Pada hari itu ada wajah-wajah yang berseri-seri,",
    "no_footnote": null,
    "footnotes": null,
    "surah": {
        "id": 80,
        "arabic": " \u0639\u0628\u0633",
        "latin": "\u2018Abasa",
        "transliteration": "\u2018Abasa",
        "translation": "Berwajah Masam",
        "num_ayah": 42,
        "page": 585,
        "location": "Makkiyah"
    },
    "tafsir": {
        "wajiz": "Pada hari itu ada wajah-wajah yang berseri-seri. Itulah muka orang-orang yang pada saat di dunia beriman dan beramal saleh.",
        "tahlili": "Banyak muka orang-orang mukmin pada hari itu berseri-seri dengan penuh kegembiraan karena mereka dapat menyaksikan sendiri apa yang dijanjikan oleh Allah kepada orang-orang yang beriman ternyata semuanya dapat terlaksana dengan penuh kebahagiaan. Mereka tertawa dan bergembira.",
        "intro_surah": "Surah \u2018Abasa terdiri dari 42 ayat, termasuk kelompok surah Makkiyyah, diturunkan sesudah Surah an-Najm.\nNama \u2018Abasa (ia bermuka masam) diambil dari perkataan \u2018abasa yang terdapat pada ayat pertama surah ini.\nMenurut riwayat, pada suatu ketika Rasulullah saw menerima dan berbicara dengan pemuka-pemuka Quraisy, yang beliau harapkan agar masuk Islam. Ketika itu, datanglah \u2018Abdull\u0101h bin Ummi Makt\u016bm, seorang sahabat yang buta yang mengharap agar Rasulullah saw membacakan kepadanya ayat-ayat Al-Qur\u2019an yang telah diturunkan Allah. Akan tetapi, Rasulullah saw bermuka masam dan memalingkan muka dari \u2018Abdull\u0101h bin Ummi Makt\u016bm yang buta itu, lalu Allah menurunkan surah ini sebagai teguran atas sikap Rasulullah saw kepada sahabat tersebut.\n\nPokok-pokok Isinya:\n1.\tKeimanan:\nDalil-dalil keesaan Allah; keadaan manusia pada hari Kiamat.\n2.\tLain-lain:\nDalam berdakwah hendaknya memberikan penghargaan yang sama kepada orang-orang yang diberi dakwah; cercaan Allah kepada manusia yang tidak mensyukuri nikmat-Nya.",
        "outro_surah": null,
        "munasabah_prev_surah": "HUBUNGAN SURAH AN-N\u0100ZI\u2019\u0100T\nDENGAN SURAH \u2018ABASA\n\nPada akhir Surah an-N\u0101zi\u2019\u0101t diterangkan bahwa Nabi Muhammad saw hanyalah pemberi peringatan kepada orang-orang yang takut kepada hari Kiamat, sedangkan pada permulaan Surah \u2018Abasa dibayangkan bahwa dalam memberikan peringatan itu hendaklah memberikan penghargaan yang sama kepada orang-orang yang diberi peringatan dengan tidak memandang kedudukan seseorang dalam masyarakat.",
        "munasabah_prev_theme": "Pada ayat-ayat yang lalu, Allah mengemukakan berbagai nikmat pemberian-Nya kepada para hamba-Nya dan memperingatkan agar manusia mensyukuri nikmat-nikmat itu ketika hidup di dunia. Diterangkan juga bahwa tidak patut bagi seorang yang berakal untuk terus-menerus membangkang dan mengingkari Tuhan pemberi nikmat-nikmat tersebut. Pada ayat-ayat berikut ini, Allah menerangkan beberapa huru-hara dan kedahsyatan yang terjadi pada hari Kiamat yang dapat menimbulkan rasa ketakutan, agar dapat mendorong manusia untuk merenungkan kembali tanda-tanda kekuasaan dan keesaan Allah serta meyakinkan benarnya berita-berita akan datangnya hari Kiamat yang telah disampaikan oleh para rasul, dan bersiap-siap membawa bekal amal saleh untuk menghadapinya.",
        "theme_group": "PERISTIWA HARI KIAMAT YANG SANGAT DAHSYAT",
        "kosakata": "Kosakata:\n1.\tA\u1e63-\u1e62\u0101khkhah \u0627\u0644\u0635\u0651\u064e\u0627\u062e\u0651\u064e\u0629\u064f (\u2018Abasa/80: 33) \nKata a\u1e63-\u1e63\u0101khkhah secara kebahasaan artinya bunyi menggelegar yang keras sekali. Berasal dari fi\u2018il \u1e63akhkha-ya\u1e63ukhkhu-\u1e63akhkhan artinya bunyi benturan besi dengan besi yang keras sekali. Kata a\u1e63-\u1e63\u0101khkhah juga berarti bencana atau malapetaka yang sangat besar, juga berarti hari Kiamat. Pada ayat 33 digambarkan tentang kedahsyatan hari Kiamat, yaitu ketika suara yang memekakkan telinga terdengar, sebagai tanda datangnya hari Kiamat, semua orang pada berlarian ke sana kemari. Semua orang pada hari itu seperti mempunyai urusan yang sangat penting dan harus selesai pada hari itu juga. Berbagai urusan yang menyibukkan semua orang itu, ada sebagian orang yang senang, tetapi banyak pula yang kelihatan sedih dan penuh ketakutan. Demikianlah peristiwa hari Kiamat yang sangat dahsyat, sungguh sangat luar biasa sehingga dalam Surah Luqm\u0101n/31: 33 dikatakan pada saat itu, ayah tidak dapat menolong anaknya, juga anak tidak ada yang dapat menolong orang tuanya, semuanya harus dapat mengatasi dirinya sendiri.\n2.\tQatarah \u0642\u064e\u062a\u064e\u0631\u064e\u0629\u064c (\u2018Abasa/80: 41)\nKata qatarah artinya kegelapan, kehinaan, dan kesusahan. Berasal dari fi\u2018il qatara-yaqtiru-qatran wa qut\u016bran artinya kikir. Kata al-qatarah juga berarti al-gabarah yang berarti debu. Ayat 42 yang berbunyi tarhaquh\u0101 qatarah artinya wajah-wajah itu dibohongi atau ditutup debu, dalam kegelapan atau kehinaan. Maksudnya orang-orang kafir ketika di dunia tertipu oleh kemewahan dunia, hanya mengejar debu di atas bumi, maka di akhirat nanti wajah-wajah mereka juga penuh debu, serba tertutup oleh kegelapan dan kehinaan, serta menderita berbagai kesedihan dan kesusahan. Itulah keadaan orang-orang kafir yang banyak berbuat durhaka dan selalu menolak dan mengingkari kebenaran dan petunjuk agama. Hal ini dikemukakan ayat-ayat Al-Qur\u2019an untuk menjadi pelajaran bagi kita semua, supaya kita tidak tertipu oleh kemewahan dunia, tetapi memperhatikan petunjuk agama, beriman, dan melaksanakan amal saleh.",
        "sabab_nuzul": null,
        "conclusion": null
    }
}