{
    "id": 5846,
    "surah_id": 82,
    "ayah": 17,
    "page": 587,
    "quarter_hizb": 59.5,
    "juz": 30,
    "manzil": 7,
    "arabic": "\u0648\u064e\u0645\u064e\u0627\u0653 \u0627\u064e\u062f\u0652\u0631\u0670\u0649\u0643\u064e \u0645\u064e\u0627 \u064a\u064e\u0648\u0652\u0645\u064f \u0627\u0644\u062f\u0651\u0650\u064a\u0652\u0646\u0650\u06d9",
    "latin": "Wa m\u0101 adr\u0101ka m\u0101 yaumud-d\u012bn(i).",
    "translation": "Tahukah engkau apakah hari Pembalasan itu? ",
    "no_footnote": null,
    "footnotes": null,
    "surah": {
        "id": 82,
        "arabic": " \u0627\u0644\u0627\u0646\u0641\u0637\u0627\u0631",
        "latin": "Al-Infi\u1e6d\u0101r",
        "transliteration": "Al-Infitar",
        "translation": "Terbelah",
        "num_ayah": 19,
        "page": 587,
        "location": "Makkiyah"
    },
    "tafsir": {
        "wajiz": "Menegaskan ketegangan hari kebangkitan, Allah bertanya, \u201cDan tahukah kamu apakah hari pembalasan itu?\u201d",
        "tahlili": "Dalam ayat 17 dan 18, Allah bertanya kepada Nabi dan kaumnya apakah mereka tahu apa hari pembalasan itu? Pertanyaan ini bukan meminta jawaban, tetapi celaan bagi orang-orang yang tidak mau percaya pada hari pembalasan ini. Apakah semua informasi dan tanda yang dipaparkan         Al-Qur\u2019an belum cukup untuk membuat mereka percaya? \nAllah kemudian menjelaskan dalam ayat 19 bahwa di hari perhitungan tidak ada manusia yang bisa menolong orang lain. Orang tua tidak bisa menolong anaknya dan begitu juga sebaliknya. Suami tidak bisa menolong istrinya, dan teman atau sahabat tidak bisa menolong temannya. Semua sibuk dengan diri masing-masing. Segala urusan pada hari itu berada di tangan Allah. Yang bisa menolong manusia hanyalah amalnya. Firman Allah:\n\u0648\u064e\u0627\u064e\u0646\u0652 \u0644\u0651\u064e\u064a\u0652\u0633\u064e \u0644\u0650\u0644\u0652\u0627\u0650\u0646\u0652\u0633\u064e\u0627\u0646\u0650 \u0627\u0650\u0644\u0651\u064e\u0627 \u0645\u064e\u0627 \u0633\u064e\u0639\u0670\u0649\u06d9 \u0663\u0669 \u0648\u064e\u0627\u064e\u0646\u0651\u064e \u0633\u064e\u0639\u0652\u064a\u064e\u0647\u0657 \u0633\u064e\u0648\u0652\u0641\u064e \u064a\u064f\u0631\u0670\u0649\u06d6 \u0664\u0660\nDan bahwa manusia hanya memperoleh apa yang telah diusahakannya, dan sesungguhnya usahanya itu kelak akan diperlihatkan (kepadanya). (an-Najm/53: 39-40)\nDan firman-Nya lagi:\n\u0648\u064e\u0644\u064e\u0645\u0652 \u062a\u064e\u0643\u064f\u0646\u0652 \u0644\u0651\u064e\u0647\u0657 \u0641\u0650\u0626\u064e\u0629\u064c \u064a\u0651\u064e\u0646\u0652\u0635\u064f\u0631\u064f\u0648\u0652\u0646\u064e\u0647\u0657 \u0645\u0650\u0646\u0652 \u062f\u064f\u0648\u0652\u0646\u0650 \u0627\u0644\u0644\u0651\u0670\u0647\u0650 \u0648\u064e\u0645\u064e\u0627 \u0643\u064e\u0627\u0646\u064e \u0645\u064f\u0646\u0652\u062a\u064e\u0635\u0650\u0631\u064b\u0627\u06d7 \u0664\u0663\nDan tidak ada (lagi) baginya segolongan pun yang dapat menolongnya selain Allah; dan dia pun tidak akan dapat membela dirinya. (al-Kahf/18: 43)",
        "intro_surah": "Surah ini terdiri dari 19 ayat, termasuk kelompok surah Makkiyyah dan diturunkan sesudah Surah an-N\u0101zi\u2018\u0101t. Al-Infi\u1e6d\u0101r yang dijadikan nama untuk surah ini adalah kata asal dari kata infa\u1e6darat (terbelah) yang terdapat pada ayat pertama.\n\nPokok-pokok Isinya:\nPeristiwa-peristiwa yang terjadi pada hari Kiamat; peringatan kepada manusia agar tidak teperdaya sampai durhaka kepada Allah; adanya malaikat yang selalu menjaga dan mencatat segala amal perbuatan manusia; pada hari Kiamat manusia tak dapat menolong orang lain. Hanya kekuasaan Allah-lah yang berlaku pada waktu itu.",
        "outro_surah": null,
        "munasabah_prev_surah": "HUBUNGAN SURAH AT-TAKW\u012aR DENGAN\nSURAH AL-INFI\u1e6c\u0100R\n\n1. \tPermulaan dari kedua surah ini sama-sama mengandung kejadian-kejadian yang dahsyat pada hari Kiamat.\n2. \tDalam Surah at-Takw\u012br dinyatakan bahwa tiap-tiap jiwa akan mengetahui apa-apa yang telah dikerjakannya, kemudian pada Surah   al-Infi\u1e6d\u0101r diulangi lagi penegasan bahwa manusia tidak dapat saling menolong di akhirat.",
        "munasabah_prev_theme": "Pada ayat-ayat yang lalu dijelaskan bahwa bukti yang kuat atas adanya pemberian nikmat-nikmat Allah kepada manusia ialah bahwa Allah telah menciptakan mereka dalam bentuk yang seindah-indahnya. Hal yang demikian itu menjadi bukti pula bahwa manusia akan memasuki alam yang lain selain dari alam dunia ini, tempat pemberian balasan menurut amalnya. Pada ayat-ayat berikut ini, Allah menjelaskan bahwa tidak ada yang menghalang-halangi manusia untuk mempercayai akan adanya hari Kiamat melainkan keingkaran dan kesombongannya. Padahal hati nuraninya membisikkan kepadanya supaya ia membenarkan. Dalil-dalil yang tertulis pun, yang dibawa oleh Rasulullah saw, membenarkan hal itu dan Allah tidak akan membiarkan amal seorang hamba-Nya kecuali Dia menghitungnya secara teliti dan menyuruh para malaikat untuk mencatatnya agar dapat memberi balasan yang sempurna.",
        "theme_group": "SEMUA PERBUATAN MANUSIA \nDICATAT OLEH MALAIKAT",
        "kosakata": "Kosakata: K\u0101tib\u012bna \u0643\u064e\u0627\u062a\u0650\u0628\u0650\u064a\u0652\u0646\u064e (al-Infi\u1e6d\u0101r/82: 11)\nSecara kebahasaan kata k\u0101tib\u012bn merupakan bentuk plural (jamak) dari kata k\u0101tib yang berarti pencatat atau penulis. Dalam konteks ayat ini, Allah mengabarkan kepada umat manusia bahwa di sekeliling setiap individu ada para malaikat yang mulia yang mengawasi dan mencatat semua amal perbuatannya semasa hidup di dunia.",
        "sabab_nuzul": null,
        "conclusion": null
    }
}