{
    "id": 5875,
    "surah_id": 83,
    "ayah": 27,
    "page": 588,
    "quarter_hizb": 59.5,
    "juz": 30,
    "manzil": 7,
    "arabic": "\u0648\u064e\u0645\u0650\u0632\u064e\u0627\u062c\u064f\u0647\u0657 \u0645\u0650\u0646\u0652 \u062a\u064e\u0633\u0652\u0646\u0650\u064a\u0652\u0645\u064d\u06d9",
    "latin": "Wa miz\u0101juh\u016b min tasn\u012bm(in).",
    "translation": "Campurannya terbuat dari tasn\u012bm,",
    "no_footnote": null,
    "footnotes": null,
    "surah": {
        "id": 83,
        "arabic": " \u0627\u0644\u0645\u0637\u0641\u0651\u0641\u064a\u0646",
        "latin": "Al-Mu\u1e6daffif\u012bn",
        "transliteration": "Al-Mutaffifin",
        "translation": "Orang-Orang Yang Curang",
        "num_ayah": 36,
        "page": 587,
        "location": "Makkiyah"
    },
    "tafsir": {
        "wajiz": "Dan tidak hanya dilak dengan kasturi, campurannya dari tasnim.",
        "tahlili": "Dalam dua ayat ini dijelaskan bahwa campuran khamar murni itu ialah dari tasn\u012bm yang datang dari daerah yang tinggi. Tasn\u012bm adalah mata air yang menjadi sumber air minum orang-orang yang didekatkan kepada Allah.",
        "intro_surah": "Surah ini terdiri dari 36 ayat, termasuk kelompok surah Makkiyyah, diturunkan sesudah Surah al-\u2018Ankab\u016bt dan merupakan surah yang terakhir diturunkan di Mekah sebelum hijrah. Al-Mu\u1e6daffif\u012bn yang dijadikan nama bagi surah ini diambil dari kata al-mu\u1e6daffif\u012bn yang terdapat pada ayat pertama.\n\nPokok-pokok Isinya:\nAncaman Allah terhadap orang-orang yang mengurangi hak orang lain dalam timbangan, ukuran, dan takaran. Catatan kejahatan manusia dicantumkan dalam sijj\u012bn, sedangkan catatan kebajikan manusia dicantumkan dalam \u2018illiyy\u012bn. Balasan dan  berbagai macam kenikmatan bagi orang yang berbuat kebajikan; sikap dan pandangan orang-orang kafir di dunia terhadap orang-orang yang beriman; sikap orang-orang yang beriman di akhirat terhadap orang-orang kafir.",
        "outro_surah": null,
        "munasabah_prev_surah": "HUBUNGAN SURAH AL-INFI\u1e6c\u0100R DENGAN\nSURAH AL-MU\u1e6cAFFIF\u012aN\n\n1. \tDalam Surah al-Infi\u1e6d\u0101r, Allah menjelaskan adanya malaikat yang menjaga dan mencatat amal perbuatan manusia, lalu pada Surah al-Mu\u1e6daffif\u012bn dijelaskan lagi tentang buku catatan itu.\n2. \tDalam Surah al-Infi\u1e6d\u0101r secara singkat diterangkan dua golongan manusia pada hari Kiamat yaitu orang-orang yang berbuat kebajikan dan orang-orang yang durhaka. Dalam Surah al-Mu\u1e6daffif\u012bn diuraikan lebih luas keadaan dan sifat kedua golongan manusia itu.",
        "munasabah_prev_theme": "Pada ayat-ayat yang lalu, Allah menjelaskan bahwa kebiasaan orang-orang kafir melakukan kedurhakaan secara terus-menerus membuat hati mereka tertutup dari rahmat Allah. Akibatnya, mereka tidak dapat lagi membedakan antara dongengan dan hujah yang nyata. Pada ayat-ayat berikut ini, Allah menjelaskan bahwa hal ihwal orang-orang yang berbakti, membenarkan apa-apa yang dibawa oleh Nabi Muhammad dari Tuhannya, dan berbuat amal kebajikan, dicantumkan dalam kitab yang bernama \u2018Illiyy\u016bn. Pemeliharaan kitab ini diserahkan kepada para malaikat, di samping tugas mereka memelihara Lau\u1e25 Ma\u1e25f\u016b\u1e93. Ayat-ayat ini mengandung dorongan kepada orang-orang yang beriman supaya tetap memelihara keimanan dan ketakwaan, tetap menempuh jalan yang lurus (a\u1e63-\u1e63ir\u0101\u1e6dal-mustaq\u012bm), serta menjauhkan diri dari jalan yang menyesatkan.",
        "theme_group": "BALASAN BAGI ORANG YANG\nBERBAKTI KEPADA ALLAH",
        "kosakata": "Kosakata:\n1.\t\u2018Illiyy\u012bn \u0639\u0650\u0644\u0651\u0650\u064a\u0651\u0650\u064a\u0652\u0646\u064e (al-Mu\u1e6daffif\u012bn/83: 18)\nSecara kebahasaan, kata \u2018illiyy\u012bn adalah bentuk jamak dari \u2018illiy, yang berarti tempat yang tinggi, atau pemilik tempat yang tinggi. Dalam konteks ayat ini, \u2018illiyy\u012bn adalah sebuah kitab yang berisi tulisan amal perbuatan baik.\n2.\tRa\u1e25\u012bqin Makht\u016bm \u0631\u064e\u062d\u0650\u064a\u0652\u0642\u064d \u0645\u064e\u062e\u0652\u062a\u064f\u0648\u0652\u0645\u064d (al-Mu\u1e6daffif\u012bn/83: 25)\nSecara kebahasaan, kata ra\u1e25\u012bqin makht\u016bmin terdiri dari dua kata, yaitu ra\u1e25\u012bq yang berarti minuman anggur atau arak yang lezat yang tidak memabukkan, dan makht\u016bm yang berarti yang disegel atau distempel. Dalam konteks ayat ini, Allah mengabarkan perihal keadaan penghuni surga yang senantiasa disuguhi minuman anggur atau arak yang lezat dan tidak memabukkan, yang sangat murni dan masih dalam keadaan disegel.",
        "sabab_nuzul": null,
        "conclusion": null
    }
}