{
    "id": 5903,
    "surah_id": 84,
    "ayah": 19,
    "page": 589,
    "quarter_hizb": 59.75,
    "juz": 30,
    "manzil": 7,
    "arabic": "\u0644\u064e\u062a\u064e\u0631\u0652\u0643\u064e\u0628\u064f\u0646\u0651\u064e \u0637\u064e\u0628\u064e\u0642\u064b\u0627 \u0639\u064e\u0646\u0652 \u0637\u064e\u0628\u064e\u0642\u064d\u06d7 ",
    "latin": "Latarkabunna \u1e6dabaqan \u2018an \u1e6dabaq(in).",
    "translation": "sungguh, kamu benar-benar akan menjalani tingkat demi tingkat (dalam kehidupan).752)",
    "no_footnote": "752",
    "footnotes": "752) Yang dimaksud dengan tingkat demi tingkat adalah perkembangan dari setetes mani menuju kelahiran, kanak-kanak, remaja, dewasa, dan tua atau perkembangan dari hidup menuju mati, kemudian dibangkitkan kembali.",
    "surah": {
        "id": 84,
        "arabic": " \u0627\u0644\u0627\u0646\u0634\u0642\u0627\u0642",
        "latin": "Al-Insyiq\u0101q",
        "transliteration": "Al-Insyiqaq",
        "translation": "Terbelah",
        "num_ayah": 25,
        "page": 589,
        "location": "Makkiyah"
    },
    "tafsir": {
        "wajiz": "Sungguh, akan kamu jalani kehidupanmu tingkat demi tingkat. Kamu semula berupa nutfah, lalu menjadi alaqah, menjadi mudgah, lalu menerima ruh dari Tuhanmu, terlahir ke dunia, tumbuh dari kanak-kanak hingga dewasa dan tua. Akan kamu rasakan dalam hidupmu berbagai keadaan, dari yang mudah hingga yang sulit. Setelah itu kamu mati, dibangkitkan, dan dipisahkan menjadi dua kelompok: penghuni surga dan penghuni neraka.",
        "tahlili": "Dalam ayat-ayat ini, Allah bersumpah dengan cahaya merah pada waktu senja, dengan malam dan apa-apa yang diselubunginya dan dengan bulan apabila jadi purnama bahwa sesungguhnya manusia melalui tahap demi tahap dalam kehidupan, dari setetes air mani sampai dilahirkan.\nKemudian melalui masa kanak-kanak, remaja dan dewasa sampai tua. Kemudian dari hidup sampai mati, lalu dibangkitkan kembali, hidup kembali di surga atau neraka setelah melalui ujian dan perhitungan yang sangat teliti. ",
        "intro_surah": "Surah al-Insyiq\u0101q terdiri dari 25 ayat, termasuk kelompok surah Makkiyyah, diturunkan sesudah Surah al-Infi\u1e6d\u0101r. Nama al-Insyiq\u0101q (terbelah) diambil dari perkataan insyaqqat yang terdapat pada permulaan surah ini, yang pokok katanya ialah insyiq\u0101q.\n\nPokok-pokok Isinya:\nPeristiwa-peristiwa pada permulaan terjadinya hari Kiamat; peringatan bahwa manusia bersusah payah menemui Tuhannya; dalam menemui Tuhannya kelak ada yang mendapat kebahagiaan dan ada pula yang mendapat kesengsaraan; tingkat-tingkat kejadian dan kehidupan manusia di dunia dan akhirat.",
        "outro_surah": null,
        "munasabah_prev_surah": "HUBUNGAN SURAH AL-MU\u1e6cAFFIF\u012aN DENGAN\nSURAH AL-INSYIQ\u0100Q\n\n1. \tDalam Surah al-Mu\u1e6daffif\u012bn, Allah menerangkan bahwa segala perbuatan manusia, yang baik maupun yang buruk, tercatat dalam suatu buku yang terpelihara. Dalam Surah al-Insyiq\u0101q, Allah menjelaskan bahwa buku-buku catatan itu akan diberikan kepada manusia pada hari Kiamat dan bagaimana cara pemberiannya.\n2. \tDalam kedua surah ini, Allah juga menggambarkan ancaman bagi orang kafir dan ganjaran yang tak terhingga bagi orang-orang yang beriman.",
        "munasabah_prev_theme": "Pada ayat yang lalu dijelaskan tentang adanya orang yang masih tidak percaya adanya hari kebangkitan, padahal sudah banyak dalil-dalil yang meyakinkan tentang hal itu. Maka pada ayat ini Allah bersumpah dengan sesuatu yang benar-benar terjadi di alam raya ini.",
        "theme_group": "TAHAPAN KEHIDUPAN MANUSIA",
        "kosakata": "Kosakata: \u1e6cabaq \u0637\u064e\u0628\u064e\u0642 (al-Insyiq\u0101q/84: 19)\n\u1e6cabaq artinya tingkatan atau lapisan. Jika disebut \u1e6dabaq\u0101tus-sam\u0101w\u0101t artinya tingkatan benda-benda alam yang terdapat dalam ruang alam yang luas. Jika disebut \u1e6dabaq\u0101tul-ar\u1e0d artinya lapisan bumi. \u1e6cabaq\u0101t diartikan tingkatan jika berkenaan dengan benda-benda alam yang satu berada di atas yang lain (ba\u2018\u1e0duh\u0101 fauqa ba\u2018\u1e0d), dan diartikan lapisan jika berkaitan dengan sesuatu yang keberadaannya berdempet atau melekat tanpa jarak, seperti keadaan struktur bumi/tanah, sehingga kata \u1e6dabaq\u0101tul-ar\u1e0d artinya \u201clapisan bumi.\u201d Firman Allah dalam Surah al-Insyiq\u0101q/84:19: latarkabunna \u1e6dabaqan \u2018an \u1e6dabaq (sungguh, akan kamu jalani tingkat demi tingkat (dalam kehidupan).",
        "sabab_nuzul": null,
        "conclusion": null
    }
}