{
    "id": 5891,
    "surah_id": 84,
    "ayah": 7,
    "page": 589,
    "quarter_hizb": 59.75,
    "juz": 30,
    "manzil": 7,
    "arabic": "\u0641\u064e\u0627\u064e\u0645\u0651\u064e\u0627 \u0645\u064e\u0646\u0652 \u0627\u064f\u0648\u0652\u062a\u0650\u064a\u064e \u0643\u0650\u062a\u0670\u0628\u064e\u0647\u0657 \u0628\u0650\u064a\u064e\u0645\u0650\u064a\u0652\u0646\u0650\u0647\u0656\u06d9 ",
    "latin": "Fa amm\u0101 man \u016btiya kit\u0101bah\u016b biyam\u012bnih(\u012b). ",
    "translation": "Adapun orang yang catatannya diberikan dari sebelah kanannya, ",
    "no_footnote": null,
    "footnotes": null,
    "surah": {
        "id": 84,
        "arabic": " \u0627\u0644\u0627\u0646\u0634\u0642\u0627\u0642",
        "latin": "Al-Insyiq\u0101q",
        "transliteration": "Al-Insyiqaq",
        "translation": "Terbelah",
        "num_ayah": 25,
        "page": 589,
        "location": "Makkiyah"
    },
    "tafsir": {
        "wajiz": "Di hadapan Allah manusia akan terbagi menjadi dua kelompok: kelompok yang berbahagia dan kelompok yang sengsara. Maka adapun orang yang catatan amal-nya diberikan dari sebelah kanannya mereka adalah orang yang beriman dan berbuat baik,",
        "tahlili": "Dalam ayat-ayat ini diterangkan golongan yang menerima catatan dengan tangan kanannya yang berisi apa-apa yang telah dikerjakannya, maka ia akan dihisab dengan mudah dan ringan. Dipaparkanlah semua perbuatannya yang baik dan yang buruk, kemudian diberi ganjaran atas perbuatannya yang baik dan dimaafkanlah perbuatannya yang buruk.\nDalam sebuah hadis Nabi saw dijelaskan:\n\u0639\u064e\u0646\u0652 \u0639\u064e\u0627\u0626\u0650\u0634\u064e\u0629\u064e \u0642\u064e\u0627\u0644\u064e\u062a\u0652: \u0633\u064e\u0645\u0650\u0639\u0652\u062a\u064f \u0631\u064e\u0633\u064f\u0648\u0652\u0644\u064e \u0627\u0644\u0644\u0651\u0670\u0647\u0650 \u0635\u064e\u0644\u0651\u064e\u0649 \u0627\u0644\u0644\u0651\u0670\u0647\u064f \u0639\u064e\u0644\u064e\u064a\u0652\u0647\u0650 \u0648\u064e\u0633\u064e\u0644\u0651\u064e\u0645\u064e \u064a\u064e\u0642\u064f\u0648\u0652\u0644\u064f \u0641\u0650\u064a\u0652 \u0628\u064e\u0639\u0652\u0636\u0650 \u0635\u064e\u0644\u0627\u064e\u062a\u0650\u0647\u0650: \u0627\u064e\u0644\u0644\u0651\u0670\u0647\u064f\u0645\u0651\u064e \u062d\u064e\u0627\u0633\u0650\u0628\u0652\u0646\u0650\u064a\u0652 \u062d\u0650\u0633\u064e\u0627\u0628\u064b\u0627 \u064a\u064e\u0633\u0650\u064a\u0652\u0631\u064b\u0627\u060c \u0641\u064e\u0644\u064e\u0645\u0651\u064e\u0627 \u0627\u0646\u0652\u0635\u064e\u0631\u064e\u0641\u064e \u0642\u064f\u0644\u0652\u062a\u064f \u064a\u064e\u0627 \u0646\u064e\u0628\u0650\u064a\u0651\u064e \u0627\u0644\u0644\u0651\u0670\u0647\u0650 \u0645\u064e\u0627 \u0627\u0644\u0652\u062d\u0650\u0633\u064e\u0627\u0628\u064f \u0627\u0644\u0652\u064a\u064e\u0633\u0650\u064a\u0652\u0631\u064f\u061f \u0642\u064e\u0627\u0644\u064e: \u0623\u064e\u0646\u0652 \u064a\u064e\u0646\u0652\u0638\u064f\u0631\u064e \u0641\u0650\u064a\u0652 \u0643\u0650\u062a\u064e\u0627\u0628\u0650\u0647\u0650 \u0641\u064e\u064a\u064e\u062a\u064e\u062c\u064e\u0627\u0648\u064e\u0632\u064e \u0639\u064e\u0646\u0652\u0647\u064f \u0625\u0650\u0646\u0651\u064e\u0647\u064f \u0645\u064e\u0646\u0652 \u0646\u064f\u0648\u0652\u0642\u0650\u0634\u064e \u0627\u0644\u0652\u062d\u0650\u0633\u064e\u0627\u0628\u064e \u064a\u064e\u0648\u0652\u0645\u064e\u0626\u0650\u0630\u064d \u064a\u064e\u0627 \u0639\u064e\u0627\u0626\u0650\u0634\u064e\u0629\u064f \u0647\u064e\u0644\u064e\u0643\u064e \u0648\u064e\u0643\u064f\u0644\u0651\u064f \u0645\u064e\u0627 \u064a\u064f\u0635\u0650\u064a\u0652\u0628\u064f \u0627\u0644\u0652\u0645\u064f\u0624\u0652\u0645\u0650\u0646\u064e \u064a\u064f\u0643\u064e\u0641\u0651\u0650\u0631\u064f \u0627\u0644\u0644\u0651\u0670\u0647\u064f \u0639\u064e\u0632\u0651\u064e \u0648\u064e\u062c\u064e\u0644\u0651\u064e \u0628\u0650\u0647\u0650 \u0639\u064e\u0646\u0652\u0647\u064f \u062d\u064e\u062a\u0651\u064e\u0649 \u0627\u0644\u0634\u0651\u064e\u0648\u0652\u0643\u064e\u0629\u0650 \u062a\u064e\u0634\u064f\u0648\u0652\u0643\u064f\u0647\u064f. (\u0631\u0648\u0627\u0647 \u0623\u062d\u0645\u062f)\n\nDari \u2018Aisyah, ia berkata, \u201cAku mendengar Rasulullah saw. berdoa dalam sebagian salat yang dilakukannya, \u201cWahai Allah, hisablah aku dengan hisab yang mudah\u201d. Ketika Rasul selesai salat, aku berkata: \u201cWahai Nabi Allah, apakah hisab yang mudah itu? Rasulullah menjawab, \u201cHisab yang mudah adalah ketika Allah memeriksa catatan amal seseorang, Dia memaafkan. Wahai \u2018Aisyah, orang yang diinterogasi pada perhitungan amalnya di hari itu (Hari Kiamat), maka ia celaka. Dan setiap musibah yang menimpa seorang mukmin, Allah akan mengampuni (dosanya) dengan musibah itu, walau hanya sekedar tertusuk duri.\u201d (Riwayat A\u1e25mad)\n\nMaksud Rasulullah dengan perhitungan yang mudah ialah dimaafkan segala kesalahannya, sedangkan orang yang diperiksa catatannya dengan teliti adalah orang yang mendapat malapetaka. Barang siapa mendapat perhitungan yang mudah dan ringan, ia akan kembali kepada keluarganya yang mukmin dengan gembira sebagaimana firman Allah:\n\u0641\u064e\u0627\u064e\u0645\u0651\u064e\u0627 \u0645\u064e\u0646\u0652 \u0627\u064f\u0648\u0652\u062a\u0650\u064a\u064e \u0643\u0650\u062a\u0670\u0628\u064e\u0647\u0657 \u0628\u0650\u064a\u064e\u0645\u0650\u064a\u0652\u0646\u0650\u0647\u0656 \u0641\u064e\u064a\u064e\u0642\u064f\u0648\u0652\u0644\u064f \u0647\u064e\u0627\u06e4\u0624\u064f\u0645\u064f \u0627\u0642\u0652\u0631\u064e\u0621\u064f\u0648\u0652\u0627 \u0643\u0650\u062a\u0670\u0628\u0650\u064a\u064e\u0647\u0652\u06da \u0661\u0669 \u0627\u0650\u0646\u0651\u0650\u064a\u0652 \u0638\u064e\u0646\u064e\u0646\u0652\u062a\u064f \u0627\u064e\u0646\u0651\u0650\u064a\u0652 \u0645\u064f\u0644\u0670\u0642\u064d \u062d\u0650\u0633\u064e\u0627\u0628\u0650\u064a\u064e\u0647\u0652\u06da \u0662\u0660 \u0641\u064e\u0647\u064f\u0648\u064e \u0641\u0650\u064a\u0652 \u0639\u0650\u064a\u0652\u0634\u064e\u0629\u064d \u0631\u0651\u064e\u0627\u0636\u0650\u064a\u064e\u0629\u064d\u06da \u0662\u0661\nAdapun orang yang kitabnya diberikan di tangan kanannya, maka dia berkata, \u201cAmbillah, bacalah kitabku (ini). Sesungguhnya aku yakin bahwa (suatu saat) aku akan menerima perhitungan terhadap diriku.\u201d Maka orang itu berada dalam kehidupan yang diridai. (al-\u1e24\u0101qqah/69: 19-21)",
        "intro_surah": "Surah al-Insyiq\u0101q terdiri dari 25 ayat, termasuk kelompok surah Makkiyyah, diturunkan sesudah Surah al-Infi\u1e6d\u0101r. Nama al-Insyiq\u0101q (terbelah) diambil dari perkataan insyaqqat yang terdapat pada permulaan surah ini, yang pokok katanya ialah insyiq\u0101q.\n\nPokok-pokok Isinya:\nPeristiwa-peristiwa pada permulaan terjadinya hari Kiamat; peringatan bahwa manusia bersusah payah menemui Tuhannya; dalam menemui Tuhannya kelak ada yang mendapat kebahagiaan dan ada pula yang mendapat kesengsaraan; tingkat-tingkat kejadian dan kehidupan manusia di dunia dan akhirat.",
        "outro_surah": null,
        "munasabah_prev_surah": "HUBUNGAN SURAH AL-MU\u1e6cAFFIF\u012aN DENGAN\nSURAH AL-INSYIQ\u0100Q\n\n1. \tDalam Surah al-Mu\u1e6daffif\u012bn, Allah menerangkan bahwa segala perbuatan manusia, yang baik maupun yang buruk, tercatat dalam suatu buku yang terpelihara. Dalam Surah al-Insyiq\u0101q, Allah menjelaskan bahwa buku-buku catatan itu akan diberikan kepada manusia pada hari Kiamat dan bagaimana cara pemberiannya.\n2. \tDalam kedua surah ini, Allah juga menggambarkan ancaman bagi orang kafir dan ganjaran yang tak terhingga bagi orang-orang yang beriman.",
        "munasabah_prev_theme": "Pada akhir Surah al-Mu\u1e6daffif\u012bn dijelaskan bahwa orang-orang yang baik berada di surga yang penuh kenikmatan, dan orang-orang yang jahat berada di neraka yang penuh kesengsaraan. Pada permulaan surah ini dijelaskan tentang kejadian di hari Kiamat, hari dimana semua manusia akan diperhitungkan amalnya.",
        "theme_group": "PENYERAHAN CATATAN AMAL DI AKHIRAT",
        "kosakata": "Kosakata:\n1.\t\u1e24uqqat \u062d\u064f\u0642\u0651\u064e\u062a\u0652 (al-Insyiq\u0101q/84: 2)\nKata \u1e25uqqat adalah fi\u2018il m\u0101\u1e0d\u012b (kata kerja lampau) dengan mabn\u012b majh\u016bl, dari \u1e25aqqa-ya\u1e25iqqu-\u1e25aqqan. Kata \u1e25aqqa di-mu\u2019anna\u1e61-kan (difemininkan) menjadi \u1e25aqqat. \u1e24aqqat mabn\u012b majh\u016bl-nya \u1e25uqqat. Kata al-\u1e25aqq artinya berhak atau pantas. Dengan demikian, kata \u1e25uqqat dalam ayat ini, langit diberi hak atau langit itu dibuat pantas untuk patuh dan taat kepada perintah Tuhannya. Menurut penafsiran Ibnu al-Jauz\u012b, \u1e25uqqat maksudnya memang berhaklah langit untuk mematuhi perintah Tuhannya yang telah menciptakannya. Artinya, memang menjadi kodrat langitlah untuk taat dan berserah diri sepenuhnya kepada perintah Tuhan, yang menciptakan dan mengendalikannya.\n2.\tKad\u1e25an \u0643\u064e\u062f\u0652\u062d\u064b\u0627 (al-Insyiq\u0101q/84: 6)\nKad\u1e25 adalah isim ma\u1e63dar dari kadi\u1e25a-yakda\u1e25u-kad\u1e25an. Isim f\u0101\u2018il-nya k\u0101di\u1e25. Kad\u1e25 pada mulanya berarti \u201cusaha sungguh-sungguh hingga letih dalam melakukan kegiatan\u201d. Menurut az-Zajj\u0101j, secara bahasa, al-kad\u1e25 sama maksudnya dengan as-sa\u2018yu (berusaha). Manusia dalam bekerja pada dasarnya berusaha dengan sungguh-sungguh, dengan melihat masa yang akan datang baik pendek maupun panjang. Demikian yang dilakukannya hingga berakhir umurnya dengan kematian dan perjumpaan dengan Allah. Atas dasar itulah sehingga ayat ini menyatakan bahwa usaha manusia berlanjut hingga akhirnya ia pasti berjumpa dengan Allah, dan bahwa perjalanan menuju Allah adalah sesuatu yang pasti dan tak dapat dihindari. \n3.\t\u1e60ub\u016bran \u062b\u064f\u0628\u064f\u0648\u0652\u0631\u064b\u0627 (al-Insyiq\u0101q/84: 11)\n\u1e60ub\u016br adalah isim ma\u1e63dar yang kedudukannya sebagai \u1e25\u0101l (menerangkan keadaan). Menurut az-Zajj\u0101j, kata \u1e61ub\u016br dalam penuturan orang Arab sering disamakan dengan ungkapan y\u0101 wailah y\u0101 \u1e61ub\u016brah (aduh celaka, aduh celaka), dan hal itu sering dikatakan oleh setiap orang yang jatuh dalam kebinasaan. Setiap orang yang nasibnya buruk di akhirat dan menerima catatannya dari belakangnya, nanti akan berseru (berteriak), \u1e61abartu \u1e61ub\u016bran, \u201dcelakalah aku\u201d. \n4.\tYa\u1e25\u016bra \u064a\u064e\u062d\u064f\u0648\u0652\u0631\u064e (al-Insyiq\u0101q/84: 14)\nKata ya\u1e25\u016br adalah fi\u2018il mu\u1e0d\u0101ri\u2018 (kata kerja berkelanjutan), dari \u1e25\u0101ra-ya\u1e25\u016bru-h\u016bran. Ahli bahasa Arab berkata bahwa kata al-\u1e25\u016br secara bahasa artinya kembali (ar-ruj\u016b\u2018). Lan ya\u1e25\u016bra maksudnya tidak lain adalah lan yarji\u2018a. Ayat ini maksudnya \u201cdia menduga bahwa dia sekali-kali tidak akan kembali ke akhirat dan tidak pula dibangkitkan. Itu merupakan pandangan orang kafir. Kata ya\u1e25\u016bru maknanya kembali hidup setelah kematian. Yang dimaksud adalah bahwa yang bersangkutan (orang kafir) mengingkari hari kebangkitan. Bagi orang kafir, hidup dan kehidupan hanyalah di dunia, setelah itu semua makhluk hidup akan mati dan habis ditelan masa. Tidak ada yang namanya \u201ckembali\u201d.",
        "sabab_nuzul": null,
        "conclusion": null
    }
}