{
    "id": 5890,
    "surah_id": 84,
    "ayah": 6,
    "page": 589,
    "quarter_hizb": 59.75,
    "juz": 30,
    "manzil": 7,
    "arabic": "\u064a\u0670\u0653\u0627\u064e\u064a\u0651\u064f\u0647\u064e\u0627 \u0627\u0644\u0652\u0627\u0650\u0646\u0652\u0633\u064e\u0627\u0646\u064f \u0627\u0650\u0646\u0651\u064e\u0643\u064e \u0643\u064e\u0627\u062f\u0650\u062d\u064c \u0627\u0650\u0644\u0670\u0649 \u0631\u064e\u0628\u0651\u0650\u0643\u064e \u0643\u064e\u062f\u0652\u062d\u064b\u0627 \u0641\u064e\u0645\u064f\u0644\u0670\u0642\u0650\u064a\u0652\u0647\u0650\u06da ",
    "latin": "Y\u0101 ayyuhal-ins\u0101nu innaka k\u0101di\u1e25un il\u0101 rabbika kad\u1e25an fa mul\u0101q\u012bh(i). ",
    "translation": "Wahai manusia, sesungguhnya engkau telah bekerja keras menuju (pertemuan dengan) Tuhanmu. Maka, engkau pasti menemui-Nya.751)",
    "no_footnote": "751",
    "footnotes": "751) Manusia di dunia ini, baik disadari maupun tidak, sedang dalam perjalanan menuju Tuhannya. Pasti dia akan bertemu dengan Tuhannya untuk menerima balasan atas perbuatannya yang buruk dan yang baik.",
    "surah": {
        "id": 84,
        "arabic": " \u0627\u0644\u0627\u0646\u0634\u0642\u0627\u0642",
        "latin": "Al-Insyiq\u0101q",
        "transliteration": "Al-Insyiqaq",
        "translation": "Terbelah",
        "num_ayah": 25,
        "page": 589,
        "location": "Makkiyah"
    },
    "tafsir": {
        "wajiz": "Wahai manusia! Sesungguhnya kamu ketika di dunia telah bekerja keras siang dan malam untuk terus berbuat baik maupun buruk guna menuju kepada Tuhanmu, maka pada akhirnya pasti kamu akan menemui-Nya. Tiap hari yang seseorang lalui pada hakikatnya adalah langkah menuju kematian, menuju pertemuan dengan Tuhannya, berbekal amal masing-masing, lalu Tuhan akan memberinya balasan yang setimpal.",
        "tahlili": "Dalam ayat ini, Allah mengungkapkan bahwa manusia dalam masa hidupnya bekerja dengan sungguh-sungguh untuk mencapai cita-citanya. Setiap langkah manusia sesungguhnya menuju kepada akhir hidupnya, yaitu mati. Hal ini berarti kembali kepada Allah. Oleh karena itu, manusia akan mengetahui tentang baik buruk pekerjaan yang telah mereka kerjakan.",
        "intro_surah": "Surah al-Insyiq\u0101q terdiri dari 25 ayat, termasuk kelompok surah Makkiyyah, diturunkan sesudah Surah al-Infi\u1e6d\u0101r. Nama al-Insyiq\u0101q (terbelah) diambil dari perkataan insyaqqat yang terdapat pada permulaan surah ini, yang pokok katanya ialah insyiq\u0101q.\n\nPokok-pokok Isinya:\nPeristiwa-peristiwa pada permulaan terjadinya hari Kiamat; peringatan bahwa manusia bersusah payah menemui Tuhannya; dalam menemui Tuhannya kelak ada yang mendapat kebahagiaan dan ada pula yang mendapat kesengsaraan; tingkat-tingkat kejadian dan kehidupan manusia di dunia dan akhirat.",
        "outro_surah": null,
        "munasabah_prev_surah": "HUBUNGAN SURAH AL-MU\u1e6cAFFIF\u012aN DENGAN\nSURAH AL-INSYIQ\u0100Q\n\n1. \tDalam Surah al-Mu\u1e6daffif\u012bn, Allah menerangkan bahwa segala perbuatan manusia, yang baik maupun yang buruk, tercatat dalam suatu buku yang terpelihara. Dalam Surah al-Insyiq\u0101q, Allah menjelaskan bahwa buku-buku catatan itu akan diberikan kepada manusia pada hari Kiamat dan bagaimana cara pemberiannya.\n2. \tDalam kedua surah ini, Allah juga menggambarkan ancaman bagi orang kafir dan ganjaran yang tak terhingga bagi orang-orang yang beriman.",
        "munasabah_prev_theme": "Pada akhir Surah al-Mu\u1e6daffif\u012bn dijelaskan bahwa orang-orang yang baik berada di surga yang penuh kenikmatan, dan orang-orang yang jahat berada di neraka yang penuh kesengsaraan. Pada permulaan surah ini dijelaskan tentang kejadian di hari Kiamat, hari dimana semua manusia akan diperhitungkan amalnya.",
        "theme_group": "PENYERAHAN CATATAN AMAL DI AKHIRAT",
        "kosakata": "Kosakata:\n1.\t\u1e24uqqat \u062d\u064f\u0642\u0651\u064e\u062a\u0652 (al-Insyiq\u0101q/84: 2)\nKata \u1e25uqqat adalah fi\u2018il m\u0101\u1e0d\u012b (kata kerja lampau) dengan mabn\u012b majh\u016bl, dari \u1e25aqqa-ya\u1e25iqqu-\u1e25aqqan. Kata \u1e25aqqa di-mu\u2019anna\u1e61-kan (difemininkan) menjadi \u1e25aqqat. \u1e24aqqat mabn\u012b majh\u016bl-nya \u1e25uqqat. Kata al-\u1e25aqq artinya berhak atau pantas. Dengan demikian, kata \u1e25uqqat dalam ayat ini, langit diberi hak atau langit itu dibuat pantas untuk patuh dan taat kepada perintah Tuhannya. Menurut penafsiran Ibnu al-Jauz\u012b, \u1e25uqqat maksudnya memang berhaklah langit untuk mematuhi perintah Tuhannya yang telah menciptakannya. Artinya, memang menjadi kodrat langitlah untuk taat dan berserah diri sepenuhnya kepada perintah Tuhan, yang menciptakan dan mengendalikannya.\n2.\tKad\u1e25an \u0643\u064e\u062f\u0652\u062d\u064b\u0627 (al-Insyiq\u0101q/84: 6)\nKad\u1e25 adalah isim ma\u1e63dar dari kadi\u1e25a-yakda\u1e25u-kad\u1e25an. Isim f\u0101\u2018il-nya k\u0101di\u1e25. Kad\u1e25 pada mulanya berarti \u201cusaha sungguh-sungguh hingga letih dalam melakukan kegiatan\u201d. Menurut az-Zajj\u0101j, secara bahasa, al-kad\u1e25 sama maksudnya dengan as-sa\u2018yu (berusaha). Manusia dalam bekerja pada dasarnya berusaha dengan sungguh-sungguh, dengan melihat masa yang akan datang baik pendek maupun panjang. Demikian yang dilakukannya hingga berakhir umurnya dengan kematian dan perjumpaan dengan Allah. Atas dasar itulah sehingga ayat ini menyatakan bahwa usaha manusia berlanjut hingga akhirnya ia pasti berjumpa dengan Allah, dan bahwa perjalanan menuju Allah adalah sesuatu yang pasti dan tak dapat dihindari. \n3.\t\u1e60ub\u016bran \u062b\u064f\u0628\u064f\u0648\u0652\u0631\u064b\u0627 (al-Insyiq\u0101q/84: 11)\n\u1e60ub\u016br adalah isim ma\u1e63dar yang kedudukannya sebagai \u1e25\u0101l (menerangkan keadaan). Menurut az-Zajj\u0101j, kata \u1e61ub\u016br dalam penuturan orang Arab sering disamakan dengan ungkapan y\u0101 wailah y\u0101 \u1e61ub\u016brah (aduh celaka, aduh celaka), dan hal itu sering dikatakan oleh setiap orang yang jatuh dalam kebinasaan. Setiap orang yang nasibnya buruk di akhirat dan menerima catatannya dari belakangnya, nanti akan berseru (berteriak), \u1e61abartu \u1e61ub\u016bran, \u201dcelakalah aku\u201d. \n4.\tYa\u1e25\u016bra \u064a\u064e\u062d\u064f\u0648\u0652\u0631\u064e (al-Insyiq\u0101q/84: 14)\nKata ya\u1e25\u016br adalah fi\u2018il mu\u1e0d\u0101ri\u2018 (kata kerja berkelanjutan), dari \u1e25\u0101ra-ya\u1e25\u016bru-h\u016bran. Ahli bahasa Arab berkata bahwa kata al-\u1e25\u016br secara bahasa artinya kembali (ar-ruj\u016b\u2018). Lan ya\u1e25\u016bra maksudnya tidak lain adalah lan yarji\u2018a. Ayat ini maksudnya \u201cdia menduga bahwa dia sekali-kali tidak akan kembali ke akhirat dan tidak pula dibangkitkan. Itu merupakan pandangan orang kafir. Kata ya\u1e25\u016bru maknanya kembali hidup setelah kematian. Yang dimaksud adalah bahwa yang bersangkutan (orang kafir) mengingkari hari kebangkitan. Bagi orang kafir, hidup dan kehidupan hanyalah di dunia, setelah itu semua makhluk hidup akan mati dan habis ditelan masa. Tidak ada yang namanya \u201ckembali\u201d.",
        "sabab_nuzul": null,
        "conclusion": null
    }
}