{
    "id": 5918,
    "surah_id": 85,
    "ayah": 9,
    "page": 590,
    "quarter_hizb": 59.75,
    "juz": 30,
    "manzil": 7,
    "arabic": "\u0627\u0644\u0651\u064e\u0630\u0650\u064a\u0652 \u0644\u064e\u0647\u0657 \u0645\u064f\u0644\u0652\u0643\u064f \u0627\u0644\u0633\u0651\u064e\u0645\u0670\u0648\u0670\u062a\u0650 \u0648\u064e\u0627\u0644\u0652\u0627\u064e\u0631\u0652\u0636\u0650 \u06d7\u0648\u064e\u0627\u0644\u0644\u0651\u0670\u0647\u064f \u0639\u064e\u0644\u0670\u0649 \u0643\u064f\u0644\u0651\u0650 \u0634\u064e\u064a\u0652\u0621\u064d \u0634\u064e\u0647\u0650\u064a\u0652\u062f\u064c  \u06d7 ",
    "latin": "Alla\u017c\u012b lah\u016b mulkus-sam\u0101w\u0101ti wal-ar\u1e0d(i), wall\u0101hu \u2018al\u0101 kulli syai'in syah\u012bd(un).",
    "translation": "yang memiliki kerajaan langit dan bumi. Allah Maha Menyaksikan segala sesuatu.",
    "no_footnote": null,
    "footnotes": null,
    "surah": {
        "id": 85,
        "arabic": " \u0627\u0644\u0628\u0631\u0648\u062c",
        "latin": "Al-Bur\u016bj",
        "transliteration": "Al-Buruj",
        "translation": "Gugusan Bintang",
        "num_ayah": 22,
        "page": 590,
        "location": "Makkiyah"
    },
    "tafsir": {
        "wajiz": "Dialah Tuhan yang memiliki kerajaan langit dan bumi; dan Allah Maha Menyaksikan segala sesuatu yang terjadi di alam semesta karena semua itu masuk dalam wilayah kekuasaan-Nya. Allah menyaksikan perbuatan orang mukmin dan kafir untuk memberi mereka balasan yang sesuai.",
        "tahlili": "Pada akhir ayat ini, Allah menerangkan bahwa Ia telah menyaksikan segala sesuatunya dan dengan demikian akan memberikan balasan yang setimpal atas kekejaman yang telah dilakukan oleh orang-orang kafir itu.",
        "intro_surah": "Surah al-Bur\u016bj terdiri dari 22 ayat, termasuk kelompok surah Makkiyyah, diturunkan sesudah Surah asy-Syams.\nNama al-Bur\u016bj (gugusan bintang) diambil dari kata al-bur\u016bj yang terdapat pada ayat pertama surah ini.\n\nPokok-pokok Isinya:\nSikap dan tindakan orang kafir terhadap orang-orang yang mengikuti seruan para rasul; bukti-bukti kekuasaan dan keesaan Allah; isyarat dari Allah bahwa orang-orang kafir Mekah akan ditimpa azab sebagaimana kaum Fir\u2018aun dan Samud telah ditimpa azab; serta jaminan Allah terhadap kemurnian Al-Qur\u2019an.",
        "outro_surah": null,
        "munasabah_prev_surah": "HUBUNGAN SURAH AL-INSYIQ\u0100Q DENGAN\nSURAH AL-B\u016aR\u016aJ\n\n1. \tKedua surah ini sama-sama menerangkan janji Allah kepada orang mukmin serta ancaman-Nya kepada orang yang mengingkari seruan Rasulullah saw.\n2. \tDalam Surah al-Insyiq\u0101q diterangkan sikap kaum musyrikin terhadap seruan Rasulullah saw, sedangkan Surah al-Bur\u016bj menerangkan sikap orang-orang musyrik dan tindakan mereka yang biasa mereka lakukan sejak dahulu terhadap orang-orang yang menerima seruan para rasul.",
        "munasabah_prev_theme": "Pada akhir surah yang lalu dijelaskan tentang nasib setiap orang. Mereka yang mendustakan hari kiamat akan disiksa, sedangkan orang beriman akan mendapatkan pahala. Maka pada permulaan surah ini Allah menjelaskan tentang apa yang dilakukan orang-orang jahat dahulu yang menyiksa orang-orang beriman, tapi mereka bersabar.  Hal ini untuk menjadi penenang bagi orang-orang mukmin pada masa Nabi, bahwa mereka harus terus bersabar.",
        "theme_group": "ORANG-ORANG YANG MENENTANG NABI MUHAMMAD \nAKAN MENGALAMI KEHANCURAN ",
        "kosakata": "Kosakata: \n1.\tAl-Bur\u016bj \u0627\u0644\u0652\u0628\u064f\u0631\u064f\u0648\u0652\u062c (al-Bur\u016bj/85: 1)\nKata al-bur\u016bj (dengan alif-l\u0101m) disebutkan hanya sekali dalam Al-Qur\u2019an (al-Bur\u016bj/85: 1). Namun, kata bur\u016bj (tanpa alif-l\u0101m) disebutkan tidak kurang dari tiga kali, yaitu dalam Surah an-Nis\u0101/4: 78, dalam arti \u201cbenteng,\u201d Surah al-\u1e24ijr/15: 16 yang artinya \u201cgugusan bintang di langit yang Tuhan jadikan indah bagi yang memandangnya,\u201d dan Surah al-Furq\u0101n/25: 61 yang juga berarti \u201cgugusan bintang di langit.\u201d Kata al-bur\u016bj adalah bentuk jamak dari kata al-burj yang pada mulanya berarti \u201csesuatu yang tampak\u201d. Kata ini sering digunakan dalam arti \u201cbangunan besar\u201d seperti benteng atau istana yang tinggi sehingga karena besar dan tingginya, bangunan menjadi tampak dengan jelas. Kebanyakan ulama memahami kata al-bur\u016bj di sini dalam arti \u201cgugusan bintang di langit\u201d. Yakni bintang yang tampak di langit dalam bentuk yang beragam dan terbagi atas dua belas macam yang masing-masing disebut \u201crasi\u201d. Bumi dan benda-benda langit lain akan melewati gugusan-gugusan bintang itu setiap kali berputar mengelilingi matahari. Secara berurutan, nama-nama gugusan bintang yang berjumlah 12 buah itu adalah: Aries, Taurus, Gemini, Cancer, Leo, Virgo, Libra, Scorpio, Sagitarius, Capricornus, Aquarius dan Pisces. \n2.\tAl-Ukhd\u016bd \u0627\u0644\u0623\u064f\u062e\u0652\u062f\u064f\u0648\u0652\u062f (al-Bur\u016bj/85: 4)\nKata al-ukhd\u016bd adalah bentuk tunggal yang artinya \u201cbelahan dalam tanah\u201d atau dalam kata lain \u201cparit\u201d. Bentuk jamaknya adalah akh\u0101did. Para pakar berbeda pendapat tentang siapa yang dimaksud dengan a\u1e63\u1e25\u0101bul-ukhd\u016bd. Tidak sedikit ulama menyatakan bahwa mereka adalah sekelompok kaum beriman pemeluk agama Nasrani yang hidup di wilayah Najran, suatu lembah di perbatasan antara Saudi Arabia dan Yaman. Peristiwa itu konon terjadi pada tahun 523 M, pada masa kekuasaan \u017b\u016b Nuwas. Informasi versi lain menyatakan bahwa mereka adalah penduduk Habasyah (Ethiopia). Siapa pun mereka, yang jelas bahwa penguasa pada waktu itu melakukan penyiksaan dalam bentuk melemparkan mereka ke dalam parit yang berkobar, karena mereka enggan murtad dari keimanan mereka. \nPenyiksaan dengan pembakaran memang dikenal pada masa lalu. Nabi Ibrahim misalnya juga pernah dilempar ke dalam kobaran api, tetapi diselamatkan Allah (baca Surah al-Anbiy\u0101\u2019/21: 68-69). Nabi Muhammad melarang penyiksaan dengan api.\nUngkapan a\u1e63\u1e25\u0101bul-ukhd\u016bd mencakup semua yang terlibat dalam penyiksaan, mulai dari yang memerintahkan pembuatan parit, yang menggali, menyalakan api, menjerumuskan orang mukmin ke dalamnya, serta pihak yang merestui perbuatan itu. Jadi, kalau merujuk cerita tersebut, al-ukhd\u016bd berarti kubangan yang dibuat untuk menyiksa orang-orang beriman pada masa lalu dengan membakar mereka dalam api yang berkobar.",
        "sabab_nuzul": null,
        "conclusion": "1. \tAllah bersumpah dengan benda-benda yang mempunyai kelebihan luar biasa.\n2. \tOrang-orang zalim seperti para pemuka Najran yang membakar orang mukmin hidup-hidup tanpa ada kesalahan, tentu akan mendapat siksa dari Allah."
    }
}