{
    "id": 5922,
    "surah_id": 85,
    "ayah": 13,
    "page": 590,
    "quarter_hizb": 59.75,
    "juz": 30,
    "manzil": 7,
    "arabic": "\u0627\u0650\u0646\u0651\u064e\u0647\u0657 \u0647\u064f\u0648\u064e \u064a\u064f\u0628\u0652\u062f\u0650\u0626\u064f \u0648\u064e\u064a\u064f\u0639\u0650\u064a\u0652\u062f\u064f\u06da ",
    "latin": "Innah\u016b huwa yubdi'u wa yu\u2018\u012bd(u).",
    "translation": "Sesungguhnya Dialah yang memulai (penciptaan makhluk) dan yang mengembalikan (hidup setelah mati).",
    "no_footnote": null,
    "footnotes": null,
    "surah": {
        "id": 85,
        "arabic": " \u0627\u0644\u0628\u0631\u0648\u062c",
        "latin": "Al-Bur\u016bj",
        "transliteration": "Al-Buruj",
        "translation": "Gugusan Bintang",
        "num_ayah": 22,
        "page": 590,
        "location": "Makkiyah"
    },
    "tafsir": {
        "wajiz": "Sungguh, Dialah yang mampu memulai penciptaan apa pun, kemudian mematikannya dan Dia pula yang menghidupkannya kembali seperti semula dengan sangat mudah.",
        "tahlili": "Dalam ayat ini dijelaskan bahwa siksa yang akan ditimpakan kepada orang-orang kafir yang menganiaya, menyiksa, dan membunuh orang-orang mukmin karena tidak mau meninggalkan agama mereka, sangatlah keras. Perlu diingat bahwa Allah-lah yang telah menciptakan mereka, dan Dia pula yang menghidupkan mereka kembali.\nMereka akhirnya akan kembali kepada Allah. Apabila Ia belum menyiksa mereka di dunia ini, bukanlah berarti mereka tidak akan mendapat siksaan sama sekali. Akan tetapi, siksaan itu diundurkan waktunya sampai mereka kembali kepada-Nya, yaitu pada hari Kiamat.",
        "intro_surah": "Surah al-Bur\u016bj terdiri dari 22 ayat, termasuk kelompok surah Makkiyyah, diturunkan sesudah Surah asy-Syams.\nNama al-Bur\u016bj (gugusan bintang) diambil dari kata al-bur\u016bj yang terdapat pada ayat pertama surah ini.\n\nPokok-pokok Isinya:\nSikap dan tindakan orang kafir terhadap orang-orang yang mengikuti seruan para rasul; bukti-bukti kekuasaan dan keesaan Allah; isyarat dari Allah bahwa orang-orang kafir Mekah akan ditimpa azab sebagaimana kaum Fir\u2018aun dan Samud telah ditimpa azab; serta jaminan Allah terhadap kemurnian Al-Qur\u2019an.",
        "outro_surah": null,
        "munasabah_prev_surah": "HUBUNGAN SURAH AL-INSYIQ\u0100Q DENGAN\nSURAH AL-B\u016aR\u016aJ\n\n1. \tKedua surah ini sama-sama menerangkan janji Allah kepada orang mukmin serta ancaman-Nya kepada orang yang mengingkari seruan Rasulullah saw.\n2. \tDalam Surah al-Insyiq\u0101q diterangkan sikap kaum musyrikin terhadap seruan Rasulullah saw, sedangkan Surah al-Bur\u016bj menerangkan sikap orang-orang musyrik dan tindakan mereka yang biasa mereka lakukan sejak dahulu terhadap orang-orang yang menerima seruan para rasul.",
        "munasabah_prev_theme": "Pada ayat-ayat yang lalu dijelaskan peringatan Allah terhadap orang-orang yang menganiaya kaum yang beriman, baik laki-laki maupun perempuan, dan janji-Nya akan memberi pahala besar kepada orang-orang beriman dan beramal saleh. Pada ayat-ayat berikut ini diterangkan tentang kekuasaan Allah yang sempurna untuk mengukuhkan janji dan azab-Nya, sebagaimana orang-orang Yahudi menganiaya kaum Nasrani Najran.",
        "theme_group": "BEBERAPA SIFAT ALLAH",
        "kosakata": "Kosakata:\n1.\tBa\u1e6dsy \u0628\u064e\u0637\u0652\u0634\u064e (al-Bur\u016bj/85: 12)\nBa\u1e6dsy adalah isim ma\u1e63dar dari ba\u1e6dasya-yab\u1e6disyu-ba\u1e6dsyan yang artinya \u201csiksa\u201d (\u2018a\u017c\u0101b). Al-Ba\u1e6dsy berarti siksa ditimpakan kepada mereka yang melakukan kezaliman dan kesombongan. Penafsiran Ibnu al-Jauz\u012b terhadap inna ba\u1e6dsya rabbik adalah inna akh\u017cah\u016b bil-\u2018a\u017c\u0101bi i\u017c\u0101 akha\u017ca\u017c-\u1e93alamah wal-jab\u0101birah la syad\u012bd, bahwa ketegasan Tuhan untuk mengazab (manusia) jika mereka berbuat kezaliman dan kesombongan amatlah keras. \n2.\tAl-Wad\u016bd \u0627\u0644\u0652\u0648\u064e\u062f\u064f\u0648\u0652\u062f\u064f (al-Bur\u016bj/85: 14)\nAl-Wad\u016bd, dalam Al-Qur\u2019an hanya disebutkan dua kali, yaitu dalam Surah H\u016bd/11: 90, dan dalam ayat ini (al-Bur\u016bj/85: 14) dengan alif l\u0101m (al-wad\u016bd). Kata ini berasal dari wadda-yawaddu-wuddan wa wid\u0101dan. Al-Wad\u016bd merupakan salah satu nama Allah yang diambil dari al-wudd. Kata ini mengandung dua arti. Dia berwazan (bertimbangan) fa\u2018\u016bl dalam posisi maf\u2018\u016bl (objek yang dicintai). Maksudnya adalah bahwa Tuhan sebagai al-Wad\u016bd adalah Allah amat dicintai dalam kalbu para wali-Nya. Arti lainnya, al-wad\u016bd terambil dari kata al-wadd dalam arti bahwa Tuhan amat mencintai para hamba-Nya yang saleh, meridai dengan menerima amal-amal mereka. Pengertian demikian, seperti dapat dilihat dalam firman-Nya, Surah Maryam/19: 96: sayaj\u2018alu lahumur-ra\u1e25m\u0101nu wudd\u0101 (Nanti Allah Yang Maha Pengasih akan menanamkan rasa kasih sayang (dalam hati mereka). Jika dalam hati seorang hamba telah tumbuh rasa kasih-sayang, itu berarti Tuhan telah menunjukkan bukti kasih-sayang-Nya kepada hamba itu.",
        "sabab_nuzul": null,
        "conclusion": null
    }
}