{
    "id": 5969,
    "surah_id": 88,
    "ayah": 2,
    "page": 592,
    "quarter_hizb": 60,
    "juz": 30,
    "manzil": 7,
    "arabic": "\u0648\u064f\u062c\u064f\u0648\u0652\u0647\u064c \u064a\u0651\u064e\u0648\u0652\u0645\u064e\u0649\u0655\u0650\u0630\u064d \u062e\u064e\u0627\u0634\u0650\u0639\u064e\u0629\u064c  \u06d9",
    "latin": "Wuj\u016bhuy yauma'i\u017cin kh\u0101syi\u2018ah(tun).",
    "translation": "Pada hari itu banyak wajah yang tertunduk hina",
    "no_footnote": null,
    "footnotes": null,
    "surah": {
        "id": 88,
        "arabic": " \u0627\u0644\u063a\u0627\u0634\u064a\u0629",
        "latin": "Al-G\u0101syiyah",
        "transliteration": "Al-Gasyiyah",
        "translation": "Hari Kiamat Yang Menghilangkan Kesadaran",
        "num_ayah": 26,
        "page": 592,
        "location": "Makkiyah"
    },
    "tafsir": {
        "wajiz": "Pada hari kiamat manusia terbagi menjadi dua, kelompok yang celaka dan kelompok yang berbahagia. Pada hari itu banyak wajah yang tertunduk hina. Mereka saat itu menyadari perilaku buruk mereka. Hati mereka terguncang dan sangat risau akan nasib mereka.",
        "tahlili": "Kemudian Allah menjelaskan bahwa manusia ketika itu terbagi dua, yaitu golongan orang kafir dan golongan orang mukmin.\nGolongan orang kafir ketika melihat kedahsyatan yang terjadi ketika itu, menjadi tertunduk dan merasa terhina. Allah berfirman:\n\u0648\u064e\u0644\u064e\u0648\u0652 \u062a\u064e\u0631\u0670\u0649\u0653 \u0627\u0650\u0630\u0650 \u0627\u0644\u0652\u0645\u064f\u062c\u0652\u0631\u0650\u0645\u064f\u0648\u0652\u0646\u064e \u0646\u064e\u0627\u0643\u0650\u0633\u064f\u0648\u0652\u0627 \u0631\u064f\u0621\u064f\u0648\u0652\u0633\u0650\u0647\u0650\u0645\u0652 \u0639\u0650\u0646\u0652\u062f\u064e \u0631\u064e\u0628\u0651\u0650\u0647\u0650\u0645\u0652\u06d7 \u0631\u064e\u0628\u0651\u064e\u0646\u064e\u0627\u0653 \u0627\u064e\u0628\u0652\u0635\u064e\u0631\u0652\u0646\u064e\u0627 \u0648\u064e\u0633\u064e\u0645\u0650\u0639\u0652\u0646\u064e\u0627 \u0641\u064e\u0627\u0631\u0652\u062c\u0650\u0639\u0652\u0646\u064e\u0627 \u0646\u064e\u0639\u0652\u0645\u064e\u0644\u0652 \u0635\u064e\u0627\u0644\u0650\u062d\u064b\u0627 \u0627\u0650\u0646\u0651\u064e\u0627 \u0645\u064f\u0648\u0652\u0642\u0650\u0646\u064f\u0648\u0652\u0646\u064e \u0661\u0662\nDan (alangkah ngerinya), jika sekiranya kamu melihat orang-orang yang berdosa itu menundukkan kepalanya di hadapan Tuhannya, (mereka berkata), \u201cYa Tuhan kami, kami telah melihat dan mendengar, maka kembalikanlah kami (ke dunia), niscaya kami akan mengerjakan kebajikan. Sungguh, kami adalah orang-orang yang yakin.\u201d (as-Sajdah/32: 12)\n\t\nDan firman Allah:\n\u0648\u064e\u062a\u064e\u0631\u0670\u0649\u0647\u064f\u0645\u0652 \u064a\u064f\u0639\u0652\u0631\u064e\u0636\u064f\u0648\u0652\u0646\u064e \u0639\u064e\u0644\u064e\u064a\u0652\u0647\u064e\u0627 \u062e\u0670\u0634\u0650\u0639\u0650\u064a\u0652\u0646\u064e \u0645\u0650\u0646\u064e \u0627\u0644\u0630\u0651\u064f\u0644\u0651\u0650 \u064a\u064e\u0646\u0652\u0638\u064f\u0631\u064f\u0648\u0652\u0646\u064e \u0645\u0650\u0646\u0652 \u0637\u064e\u0631\u0652\u0641\u064d \u062e\u064e\u0641\u0650\u064a\u06d7\u0651\u064d \u0648\u064e\u0642\u064e\u0627\u0644\u064e \u0627\u0644\u0651\u064e\u0630\u0650\u064a\u0652\u0646\u064e \u0627\u0670\u0645\u064e\u0646\u064f\u0648\u0652\u0653\u0627 \u0627\u0650\u0646\u0651\u064e \u0627\u0644\u0652\u062e\u0670\u0633\u0650\u0631\u0650\u064a\u0652\u0646\u064e \u0627\u0644\u0651\u064e\u0630\u0650\u064a\u0652\u0646\u064e \u062e\u064e\u0633\u0650\u0631\u064f\u0648\u0652\u0653\u0627 \u0627\u064e\u0646\u0652\u0641\u064f\u0633\u064e\u0647\u064f\u0645\u0652 \u0648\u064e\u0627\u064e\u0647\u0652\u0644\u0650\u064a\u0652\u0647\u0650\u0645\u0652 \u064a\u064e\u0648\u0652\u0645\u064e \u0627\u0644\u0652\u0642\u0650\u064a\u0670\u0645\u064e\u0629\u0650 \u06d7 \u0627\u064e\u0644\u064e\u0627\u0653 \u0627\u0650\u0646\u0651\u064e \u0627\u0644\u0638\u0651\u0670\u0644\u0650\u0645\u0650\u064a\u0652\u0646\u064e \u0641\u0650\u064a\u0652 \u0639\u064e\u0630\u064e\u0627\u0628\u064d \u0645\u0651\u064f\u0642\u0650\u064a\u0652\u0645\u064d \u0664\u0665\nDan kamu akan melihat mereka dihadapkan ke neraka dalam keadaan tertunduk karena (merasa) hina, mereka melihat dengan pandangan yang lesu. Dan orang-orang yang beriman berkata, \u201cSesungguhnya orang-orang yang rugi ialah orang-orang yang merugikan diri mereka sendiri dan keluarganya pada hari Kiamat.\u201d Ingatlah, sesungguhnya orang-orang zalim itu berada dalam azab yang kekal. (asy-Sy\u016br\u0101/42: 45)",
        "intro_surah": "Surah ini terdiri dari 26 ayat, termasuk kelompok surah Makkiyyah, diturunkan sesudah Surah a\u017c-\u017b\u0101riy\u0101t. Nama al-G\u0101syiyah diambil dari kata al-g\u0101syiyah yang terdapat pada ayat pertama surah ini yang artinya peristiwa yang dahsyat; tetapi yang dimaksud adalah hari Kiamat. Surah ini adalah surah yang kerap kali dibaca Nabi pada rakaat kedua pada salat Hari Raya dan salat Jum\u2019at.\n\nPokok-pokok Isinya:\nKeterangan tentang orang-orang kafir pada hari Kiamat dan azab yang dijatuhkan atas mereka. Keterangan tentang orang-orang yang beriman serta keadaan surga yang diberikan kepada mereka sebagai balasan. Perintah untuk memperhatikan keajaiban ciptaan-ciptaan Allah. Perintah kepada Rasulullah saw untuk memperingatkan kaumnya kepada ayat-ayat Allah karena beliau adalah seorang pemberi peringatan, dan bukanlah seorang yang berkuasa atas keimanan mereka.",
        "outro_surah": null,
        "munasabah_prev_surah": "HUBUNGAN SURAH AL-A\u2018L\u0100 DENGAN\nSURAH AL-G\u0100SYIYAH\n\nPada Surah al-A\u2018l\u0101 diterangkan secara umum tentang orang yang beriman, orang yang kafir, surga dan neraka. Kemudian dalam Surah al-G\u0101syiyah dikemukakan kembali dengan cara yang lebih luas.",
        "munasabah_prev_theme": "Pada akhir Surah al-A\u2018l\u0101 dijelaskan bahwa orang-orang kafir senantiasa memilih kehidupan dunia dan tidak pernah memperhatikan kehidupan akhirat. Dijelaskan juga tentang kitab suci yang dibawa oleh Nabi Muhammad mempunyai kesamaan dengan suhuf yang diturunkan kepada Nabi Ibrahim dan Musa, khususnya dalam persoalan ketauhidan. Pada awal Surah al-G\u0101syiyah ini dijelaskan berita tentang hari pembalasan di mana manusia terbagi ke dalam dua golongan, yaitu kafir dan mukmin. Bagi golongan kafir, tatkala melihat kedahsyatan hari tersebut, wajah mereka tertunduk, dan  mereka merasa hina dan kelelahan.",
        "theme_group": "KEADAAN PENGHUNI NERAKA",
        "kosakata": "Kosakata: Al-G\u0101syiyah \u0627\u0644\u0652\u063a\u064e\u0627\u0634\u0650\u064a\u064e\u0629 (al-G\u0101syiyah/88: 1)\nBentuk isim f\u0101\u2018il dari fi\u2018il m\u0101\u1e0d\u012b \u201cgasyiya\u201d. Kata jadiannya \u201cgisy\u0101wah\u201d dan \u201cghisy\u0101\u2019an\u201d. Arti dasarnya adalah menutupi, menyelimuti dan sebagainya. Hari Kiamat mempunyai beberapa nama, antara lain \u201cal-g\u0101syiyah\u201d, dinamakan demikian karena hari Kiamat adalah kejadian besar, malapetaka yang menyelimuti perasaan seluruh manusia. Seluruh perhatian mereka tercurahkan kepada kejadian ini.",
        "sabab_nuzul": null,
        "conclusion": null
    }
}