{
    "id": 5968,
    "surah_id": 88,
    "ayah": 1,
    "page": 592,
    "quarter_hizb": 60,
    "juz": 30,
    "manzil": 7,
    "arabic": "\u0647\u064e\u0644\u0652 \u0627\u064e\u062a\u0670\u0649\u0643\u064e \u062d\u064e\u062f\u0650\u064a\u0652\u062b\u064f \u0627\u0644\u0652\u063a\u064e\u0627\u0634\u0650\u064a\u064e\u0629\u0650\u06d7",
    "latin": "Hal at\u0101ka \u1e25ad\u012b\u1e61ul-g\u0101syiyah(ti).",
    "translation": "Sudahkah sampai kepadamu berita tentang al-G\u0101syiyah (hari Kiamat yang menutupi kesadaran manusia dengan kedahsyatannya)?",
    "no_footnote": null,
    "footnotes": null,
    "surah": {
        "id": 88,
        "arabic": " \u0627\u0644\u063a\u0627\u0634\u064a\u0629",
        "latin": "Al-G\u0101syiyah",
        "transliteration": "Al-Gasyiyah",
        "translation": "Hari Kiamat Yang Menghilangkan Kesadaran",
        "num_ayah": 26,
        "page": 592,
        "location": "Makkiyah"
    },
    "tafsir": {
        "wajiz": "Hari kiamat adalah rahasia besar. Wahai Nabi, sudahkah sampai kepadamu berita tentang hari kiamat yang penuh kengerian itu?",
        "tahlili": "Allah menyindir penduduk neraka dengan mengatakan, \u201cSudahkah sampai kepada kamu berita tentang hari Kiamat.\u201d",
        "intro_surah": "Surah ini terdiri dari 26 ayat, termasuk kelompok surah Makkiyyah, diturunkan sesudah Surah a\u017c-\u017b\u0101riy\u0101t. Nama al-G\u0101syiyah diambil dari kata al-g\u0101syiyah yang terdapat pada ayat pertama surah ini yang artinya peristiwa yang dahsyat; tetapi yang dimaksud adalah hari Kiamat. Surah ini adalah surah yang kerap kali dibaca Nabi pada rakaat kedua pada salat Hari Raya dan salat Jum\u2019at.\n\nPokok-pokok Isinya:\nKeterangan tentang orang-orang kafir pada hari Kiamat dan azab yang dijatuhkan atas mereka. Keterangan tentang orang-orang yang beriman serta keadaan surga yang diberikan kepada mereka sebagai balasan. Perintah untuk memperhatikan keajaiban ciptaan-ciptaan Allah. Perintah kepada Rasulullah saw untuk memperingatkan kaumnya kepada ayat-ayat Allah karena beliau adalah seorang pemberi peringatan, dan bukanlah seorang yang berkuasa atas keimanan mereka.",
        "outro_surah": null,
        "munasabah_prev_surah": "HUBUNGAN SURAH AL-A\u2018L\u0100 DENGAN\nSURAH AL-G\u0100SYIYAH\n\nPada Surah al-A\u2018l\u0101 diterangkan secara umum tentang orang yang beriman, orang yang kafir, surga dan neraka. Kemudian dalam Surah al-G\u0101syiyah dikemukakan kembali dengan cara yang lebih luas.",
        "munasabah_prev_theme": "Pada akhir Surah al-A\u2018l\u0101 dijelaskan bahwa orang-orang kafir senantiasa memilih kehidupan dunia dan tidak pernah memperhatikan kehidupan akhirat. Dijelaskan juga tentang kitab suci yang dibawa oleh Nabi Muhammad mempunyai kesamaan dengan suhuf yang diturunkan kepada Nabi Ibrahim dan Musa, khususnya dalam persoalan ketauhidan. Pada awal Surah al-G\u0101syiyah ini dijelaskan berita tentang hari pembalasan di mana manusia terbagi ke dalam dua golongan, yaitu kafir dan mukmin. Bagi golongan kafir, tatkala melihat kedahsyatan hari tersebut, wajah mereka tertunduk, dan  mereka merasa hina dan kelelahan.",
        "theme_group": "KEADAAN PENGHUNI NERAKA",
        "kosakata": "Kosakata: Al-G\u0101syiyah \u0627\u0644\u0652\u063a\u064e\u0627\u0634\u0650\u064a\u064e\u0629 (al-G\u0101syiyah/88: 1)\nBentuk isim f\u0101\u2018il dari fi\u2018il m\u0101\u1e0d\u012b \u201cgasyiya\u201d. Kata jadiannya \u201cgisy\u0101wah\u201d dan \u201cghisy\u0101\u2019an\u201d. Arti dasarnya adalah menutupi, menyelimuti dan sebagainya. Hari Kiamat mempunyai beberapa nama, antara lain \u201cal-g\u0101syiyah\u201d, dinamakan demikian karena hari Kiamat adalah kejadian besar, malapetaka yang menyelimuti perasaan seluruh manusia. Seluruh perhatian mereka tercurahkan kepada kejadian ini.",
        "sabab_nuzul": null,
        "conclusion": null
    }
}