{
    "id": 5987,
    "surah_id": 88,
    "ayah": 20,
    "page": 592,
    "quarter_hizb": 60,
    "juz": 30,
    "manzil": 7,
    "arabic": "\u0648\u064e\u0627\u0650\u0644\u064e\u0649 \u0627\u0644\u0652\u0627\u064e\u0631\u0652\u0636\u0650 \u0643\u064e\u064a\u0652\u0641\u064e \u0633\u064f\u0637\u0650\u062d\u064e\u062a\u0652\u06d7 ",
    "latin": "Wa ilal-ar\u1e0di kaifa su\u1e6di\u1e25at.",
    "translation": "Bagaimana pula bumi dihamparkan?",
    "no_footnote": null,
    "footnotes": null,
    "surah": {
        "id": 88,
        "arabic": " \u0627\u0644\u063a\u0627\u0634\u064a\u0629",
        "latin": "Al-G\u0101syiyah",
        "transliteration": "Al-Gasyiyah",
        "translation": "Hari Kiamat Yang Menghilangkan Kesadaran",
        "num_ayah": 26,
        "page": 592,
        "location": "Makkiyah"
    },
    "tafsir": {
        "wajiz": "Dan tidakkah mereka memperhatikan bumi, bagaimana dihamparkan? Di bumi itu manusia tinggal, beraktivitas, bercocok tanam, dan sebagainya. Di bumi Allah menciptakan beraneka flora, fauna, sungai, sumber air, dan lain sebagainya untuk kepentingan makhluk hidup.",
        "tahlili": "Dalam ayat-ayat ini, Allah mempertanyakan apakah mereka tidak memperhatikan bagaimana unta, yang ada di depan mata mereka dan dipergunakan setiap waktu, diciptakan. Bagaimana pula langit yang berada di tempat yang tinggi tanpa tiang; bagaimana gunung-gunung dipancangkan dengan kukuh, tidak bergoyang dan dijadikan petunjuk bagi orang yang dalam perjalanan. Di atasnya terdapat danau dan mata air yang dapat dipergunakan untuk keperluan manusia, mengairi tumbuh-tumbuhan, dan memberi minum binatang ternak. Bagaimana pula bumi dihamparkan sebagai tempat tinggal bagi manusia.\nApabila mereka telah memperhatikan semua itu dengan seksama, tentu mereka akan mengakui bahwa penciptanya dapat membangkitkan manusia kembali pada hari Kiamat.",
        "intro_surah": "Surah ini terdiri dari 26 ayat, termasuk kelompok surah Makkiyyah, diturunkan sesudah Surah a\u017c-\u017b\u0101riy\u0101t. Nama al-G\u0101syiyah diambil dari kata al-g\u0101syiyah yang terdapat pada ayat pertama surah ini yang artinya peristiwa yang dahsyat; tetapi yang dimaksud adalah hari Kiamat. Surah ini adalah surah yang kerap kali dibaca Nabi pada rakaat kedua pada salat Hari Raya dan salat Jum\u2019at.\n\nPokok-pokok Isinya:\nKeterangan tentang orang-orang kafir pada hari Kiamat dan azab yang dijatuhkan atas mereka. Keterangan tentang orang-orang yang beriman serta keadaan surga yang diberikan kepada mereka sebagai balasan. Perintah untuk memperhatikan keajaiban ciptaan-ciptaan Allah. Perintah kepada Rasulullah saw untuk memperingatkan kaumnya kepada ayat-ayat Allah karena beliau adalah seorang pemberi peringatan, dan bukanlah seorang yang berkuasa atas keimanan mereka.",
        "outro_surah": null,
        "munasabah_prev_surah": "HUBUNGAN SURAH AL-A\u2018L\u0100 DENGAN\nSURAH AL-G\u0100SYIYAH\n\nPada Surah al-A\u2018l\u0101 diterangkan secara umum tentang orang yang beriman, orang yang kafir, surga dan neraka. Kemudian dalam Surah al-G\u0101syiyah dikemukakan kembali dengan cara yang lebih luas.",
        "munasabah_prev_theme": "Pada ayat-ayat yang lalu, Allah menerangkan akan datangnya hari Kiamat dan bahwa manusia ketika itu akan menjadi dua golongan: yang celaka dan yang bahagia. Orang yang celaka akan berada dalam kehinaan yang serendah-rendahnya, dan orang yang beriman akan memperlihatkan wajah yang cemerlang penuh kebahagiaan. Pada ayat-ayat berikut ini, Allah mengemukakan dalil-Nya terhadap orang-orang yang ingkar itu. Allah menyuruh mereka memperhatikan tanda-tanda kebesaran dan kekuasaan-Nya yang ada di langit dan di bumi seperti meneliti keadaan unta, binatang peliharaan yang mereka manfaatkan tenaga, daging, susu, kulit, dan bulunya. Mereka juga disuruh memperhatikan gunung-gunung yang dapat dijadikan petunjuk dalam melakukan perjalanan.",
        "theme_group": "ANJURAN MEMPERHATIKAN ALAM SEMESTA",
        "kosakata": "Kosakata:\n1. Rufi\u2018at \u0631\u064f\u0641\u0650\u0639\u064e\u062a\u0652 (al-G\u0101syiyah/88: 18)\nArtinya ditinggikan, diangkat dan lain sebagainya. As-sam\u0101\u2019 atau langit diartikan sebagai ruang hampa yang ada di atas bumi kita, dimulai dari mega sampai kawasan yang tidak terhingga. As-sam\u0101\u2019 juga difungsikan sebagai atap (saqf) dari bumi. Namun atap di sini tidak sebagai atap yang berbentuk benda padat tapi berupa ruang udara (al-gil\u0101f al-jawwi). Walaupun as-sam\u0101\u2019 tingginya dan besarnya tidak terkirakan, tetapi tidak ada tiang yang menyangganya, atau ada tapi tidak terlihat oleh manusia. Manusia diperintahkan untuk merenung tentang kekuasaan Allah yang demikian besar dengan tujuan beriman kepada-Nya. \n2. Nu\u1e63ibat \u0646\u064f\u0635\u0650\u0628\u064e\u062a\u0652 (al-G\u0101syiyah/88: 19)\nKata nu\u1e63ibat berarti ditegakkan, kata kerja pasif dari kata na\u1e63aba. Kata ini memiliki akar makna letih. Di dalam Al-Qur\u2019an disebutkan, \u201cMaka apabila kamu telah selesai (dari sesuatu urusan), kerjakanlah dengan sungguh-sungguh (urusan) yang lain\u201d (asy-Syar\u1e25/94: 7). Maksudnya, setelah kamu (Muhammad) selesai mengerjakan ibadah fardu, maka buatlah dirimu letih dengan ibadah-ibadah sunah. Di dalam sebuah hadis disebutkan bahwa Nabi saw bersabda: \n\n\u1e0d\u0625\u0650\u0646\u0651\u064e\u0645\u064e\u0627 \u0641\u064e\u0627\u0637\u0650\u0645\u064e\u0629\u064f \u0628\u0650\u0636\u0652\u0639\u064e\u0629\u064c \u0645\u0650\u0646\u0651\u0650\u064a \u064a\u064f\u0624\u0652\u0630\u0650\u064a\u0646\u0650\u064a \u0645\u064e\u0627 \u0622\u0630\u064e\u0627\u0647\u064e\u0627 \u0648\u064e\u064a\u064f\u0646\u0652\u0635\u0650\u0628\u064f\u0646\u0650\u064a \u0645\u064e\u0627 \u0623\u064e\u0646\u0652\u0635\u064e\u0628\u064e\u0647\u064e\u0627\u00bb\nFa\u1e6dimah adalah bagian dariku. Yang membuatnya letih itu juga membuatku letih. (Riwayat at-Tirmi\u017c\u012b, A\u1e25mad dan Al-\u1e24\u0101kim) \nSelain itu, kata na\u1e63aba juga berarti meletakkan dan meninggikan. Darinya diambil kata nu\u1e63ub yang berarti berhala, sebagaimana dalam firman Allah, \u201cDan (diharamkan bagimu) yang disembelih untuk berhala\u201d (al-M\u0101\u2019idah/5: 3). Berhala disebut demikian karena ia diletakkan dan ditinggikan. Makna inilah yang dimaksud pada ayat ini.\n3. Su\u1e6di\u1e25at \u0633\u064f\u0637\u0650\u062d\u064e\u062a\u0652 (al-G\u0101syiyah/88: 20)\nKata su\u1e6di\u1e25at berarti dihamparkan. Ia adalah kata kerja pasif dari sa\u1e6da\u1e25a. Kata ini memiliki akar kata dengan makna \u2018membaringkan\u2019. Kalimat sa\u1e6da\u1e25an-n\u0101qah berarti \u2018ia menderumkan unta\u2019. Darinya diambil kata as-sa\u1e6d\u012b\u1e25  yang berarti \u2018orang yang dilahirkan dalam keadaan lemah, tidak sanggup berdiri dan duduk\u2019. Kata ini hanya disebut satu kali di dalam Al-Qur\u2019an, yaitu di tempat ini, dan yang dimaksud di sini adalah \u2018dihamparkan\u2019.",
        "sabab_nuzul": null,
        "conclusion": "1.\tHendaklah manusia memperhatikan bagaimana Tuhan menciptakan makhluk-makhluk-Nya. \n2.\tMereka mengakui bahwa penciptanya dapat membangkitkan mereka kembali pada hari Kiamat."
    }
}