{
    "id": 6011,
    "surah_id": 89,
    "ayah": 18,
    "page": 593,
    "quarter_hizb": 60,
    "juz": 30,
    "manzil": 7,
    "arabic": "\u0648\u064e\u0644\u064e\u0627 \u062a\u064e\u062d\u0670\u06e4\u0636\u0651\u064f\u0648\u0652\u0646\u064e \u0639\u064e\u0644\u0670\u0649 \u0637\u064e\u0639\u064e\u0627\u0645\u0650 \u0627\u0644\u0652\u0645\u0650\u0633\u0652\u0643\u0650\u064a\u0652\u0646\u0650\u06d9",
    "latin": "Wa l\u0101 ta\u1e25\u0101\u1e0d\u1e0d\u016bna \u2018al\u0101 \u1e6da\u2018\u0101mil-misk\u012bn(i).",
    "translation": "tidak saling mengajak memberi makan orang miskin,",
    "no_footnote": null,
    "footnotes": null,
    "surah": {
        "id": 89,
        "arabic": " \u0627\u0644\u0641\u062c\u0631",
        "latin": "Al-Fajr",
        "transliteration": "Al-Fajr",
        "translation": "Fajar",
        "num_ayah": 30,
        "page": 593,
        "location": "Makkiyah"
    },
    "tafsir": {
        "wajiz": "Dan kamu tidak saling mengajak satu sama lain untuk memberi makan orang miskin. Tidak mengajak orang lain untuk berbuat baik juga merupakan tindakan tidak terpuji. Mengajak orang lain berbuat baik adalah tindakan terpuji, apa lagi jika dibarengi dengan melakukannya. Makanan adalah kebutuhan pokok manusia. Memberi makanan fakir miskin, baik muslim atau bukan, adalah suatu bentuk kesalehan sosial yang sangat terpuji (Lihat pula: al-Insan/76: 8).",
        "tahlili": "Di samping itu, mereka tidak menaruh kasihan pada penderitaan orang miskin. Jangankan untuk melepaskan mereka dari kemiskinan, membantu mencukupkan kebutuhan pokok mereka saja mereka tidak ada perhatian.",
        "intro_surah": "Surah ini terdiri dari 30 ayat, termasuk kelompok surah Makkiyyah, turun sebelum Surah a\u1e0d-\u1e0cuh\u0101 dan sesudah Surah al-F\u012bl. Nama al-Fajr diambil dari kata al-fajr yang terdapat pada ayat pertama surah ini yang artinya \u201cfajar\u201d.\n\nPokok-pokok Isinya:\nAllah bersumpah dengan fajar dan malam setiap hari atau hari-hari tertentu untuk menekankan bahwa apa dan siapa pun di alam ini tidak akan abadi. Contohnya adalah beberapa umat terdahulu yang dihancurkan Allah karena kedurhakaan mereka walaupun mereka begitu kuat dan perkasa. Peristiwa-peristiwa itu hendaknya menjadi peringatan bagi kaum kafir Mekah bahwa bila mereka tetap membangkang, mereka dapat saja dihancurkan oleh Allah seperti umat-umat itu. Manusia secara pribadi juga demikian, mereka akan mati, kemudian akan menjalani kehidupan yang abadi di akhirat dalam keadaan bahagia atau sengsara. Oleh karena itu, manusia jangan terlalu cinta harta, sebab kecukupan materi di dunia belum tentu merupakan pertanda bahwa Allah mencintainya. Yang diperlukan adalah mencintai anak yatim, membantu orang miskin, dan tidak memakan harta pusaka yang tidak menjadi haknya. Orang yang bersih dari dosa akan dipersilakan oleh Allah untuk memasuki surga-Nya.",
        "outro_surah": null,
        "munasabah_prev_surah": "HUBUNGAN SURAH AL-G\u0100SYIYAH\nDENGAN SURAH AL-FAJR\n\n1. \tDalam Surah al-G\u0101syiyah, Allah menyebutkan tentang orang yang pada hari Kiamat tergambar di mukanya kehinaan, dan tentang orang yang bercahaya wajahnya. Sedang pada Surah al-Fajr disebutkan beberapa kaum yang mendustakan dan berbuat durhaka, sebagai contoh dari orang-orang yang tergambar di muka mereka kehinaan dan azab yang ditimpakan kepada mereka di dunia. Disebutkan pula orang yang berjiwa mu\u1e6dmainnah, mereka itulah orang-orang yang wajahnya bercahaya.\n2. \tDalam Surah al-G\u0101syiyah, Allah mengemukakan orang yang bercahaya wajahnya, sedang pada surah al-Fajr disebutkan orang yang berjiwa tenang di dunia karena iman dan takwanya yang di akhirat akan berseri-seri wajahnya.",
        "munasabah_prev_theme": "Dalam ayat-ayat yang lalu dikisahkan bahwa Allah telah memberi umat-umat terdahulu berbagai nikmat-Nya sehingga mereka menjadi bangsa yang besar dan berkuasa. Akan tetapi, mereka membangkang, lalu Allah menghancurkan mereka. Dengan demikian, pemberian nikmat itu belum tentu menunjukkan bahwa Allah sayang kepada manusia, tetapi adalah ujian. Dalam ayat-ayat berikut dijelaskan kekeliruan pandangan manusia, khususnya kaum kafir Mekah, bahwa kelimpahan nikmat yang mereka miliki adalah tanda bahwa Allah menyayangi mereka sekalipun mereka ingkar dan bergelimang dosa.",
        "theme_group": "MEMPEROLEH NIKMAT BUKANLAH\nTANDA ALLAH SAYANG DAN SEBALIKNYA",
        "kosakata": "Kosakata:\n1.\tAh\u0101nan \u0627\u064e\u0647\u064e\u0627\u0646\u064e\u0646 (al-Fajr/89: 16)\nKata ah\u0101nan berarti Dia menghinakanku. Ia diambil dari akar kata h\u0101na yang berarti hina dan rendah. Darinya diambil kata a\u017c\u0101b muh\u012bn yang berarti siksa yang menghinakan. Dan darinya diambil kata hayyin yang berarti sepele, sebagaimana dalam firman Allah, \u201cDan kamu menganggapnya suatu yang ringan saja, padahal dia pada sisi Allah adalah besar.\u201d (an-N\u016br/24: 15) Dan makna inilah yang dimaksud pada ayat ini. Jika Allah menguji mereka dengan rezeki yang sempit, maka mereka meyakininya sebagai penghinaan dari Allah.\n2.\tAt-Tur\u0101\u1e61 \u0627\u0644\u062a\u0651\u064f\u0631\u064e\u0627\u062b (al-Fajr/89: 19)\nKata tur\u0101\u1e61 berarti warisan. Ini adalah ma\u1e63dar dari kata wara\u1e61a yang berarti mewarisi. Kata wara\u1e61a ini memiliki beberapa bentuk ma\u1e63dar yang lazim digunakan. Di antaranya adalah: tur\u0101\u1e61, ir\u1e61, wara\u1e61ah, wir\u1e61, dan lain-lain. Kata tur\u0101\u1e61 itu sendiri terbentuk dari kata wur\u0101\u1e61 yang kemudian huruf w\u0101w-nya diganti dengan huruf t\u0101\u2019. Darinya diambil kata al-w\u0101ri\u1e61, salah satu nama Allah yang berarti: Dia yang Mahaabadi dan mewarisi makhluk-makhluk-Nya; Dia tetap ada sesudah mereka lenyap. Semua hamba pasti musnah, sehingga semua yang menjadi milik para hamba itu kembali kepada-Nya. Di dalam Al-Qur\u2019an disebutkan, \u201cYang akan mewarisi Aku dan mewarisi sebahagian keluarga Yakub.\u201d (Maryam/19: 6) Yang dimaksud dengan mewarisi di sini adalah mewarisi kenabian. Dan yang dimaksud dengan kata tur\u0101\u1e61 di ayat yang sedang ditafsirkan ini adalah harta warisan. \n3.\tAl-M\u0101l \u0627\u0644\u0652\u0645\u064e\u0627\u0644 (al-Fajr/89: 20)\nKata al-m\u0101l berarti harta. Ia diambil dari kata m\u0101la yang berarti condong. Harta disebut demikian karena manusia condong kepadanya. Pada mulanya, kata al-m\u0101l ini digunakan untuk menyebut emas dan perak yang dimiliki seseorang, namun selanjutnya kata ini digunakan untuk menyebut benda-benda yang dimiliki dan dikuasai seseorang. Kata ini oleh orang Arab sering digunakan untuk menyebut unta, karena kebanyakan harta mereka berupa unta. Dan yang dimaksud di sini adalah harta dalam bentuk apa saja.",
        "sabab_nuzul": null,
        "conclusion": null
    }
}