{
    "id": 6036,
    "surah_id": 90,
    "ayah": 13,
    "page": 594,
    "quarter_hizb": 60.25,
    "juz": 30,
    "manzil": 7,
    "arabic": "\u0641\u064e\u0643\u0651\u064f \u0631\u064e\u0642\u064e\u0628\u064e\u0629\u064d\u06d9",
    "latin": "Fakku raqabah(tin).",
    "translation": "(Itulah upaya) melepaskan perbudakan",
    "no_footnote": null,
    "footnotes": null,
    "surah": {
        "id": 90,
        "arabic": " \u0627\u0644\u0628\u0644\u062f",
        "latin": "Al-Balad",
        "transliteration": "Al-Balad",
        "translation": "Negeri",
        "num_ayah": 20,
        "page": 594,
        "location": "Makkiyah"
    },
    "tafsir": {
        "wajiz": "Jalan yang mendaki dan sukar itu adalah melepaskan hamba sahaya dari perbudakan atau membantunya untuk membebaskan diri, karena perbudakan tidak sesuai dengan nilai-nilai kemanusiaan,",
        "tahlili": "Allah menegaskan bahwa pekerjaan besar yang sulit dilaksanakan itu adalah memerdekakan budak. Hal itu karena perbudakan pada waktu itu sudah sangat dalam merasuk ke dalam kehidupan masyarakat sehari-hari, baik di dunia Arab maupun di luarnya. Segala aktivitas manusia, seperti perdagangan, pertanian, kemiliteran, bahkan kehidupan sehari-hari, dan sebagainya, tidak akan bisa berjalan dengan baik pada waktu itu tanpa adanya budak yang mengerjakan pekerjaan-pekerjaan berat. Namun Allah meminta umat Islam agar menghapus perbudakan. Pelaksanaannya memang tidak sekaligus, tetapi berangsur-angsur. Seorang tuan seharusnya dapat memerdekakan budaknya, inilah yang dirasakan mereka sangat berat. Pemerdekaan budak juga dilakukan melalui cara-cara lain, misalnya dengan sanksi pelanggaran-pelanggaran yang hukumannya adalah memerdekakan budak. Juga dengan cara memberi kesempatan kepada budak itu untuk menebus dirinya.",
        "intro_surah": "Surah al-Balad terdiri dari 20 ayat, termasuk kelompok surah Makkiyyah, diturunkan sebelum Surah Q\u0101f dan sesudah Surah a\u1e6d-\u1e6c\u0101riq.\nNama al-Balad (negeri) diambil dari perkataan al-balad yang terdapat pada ayat pertama surah ini. Yang dimaksud dengan kota di sini ialah kota Mekah yang merupakan kota yang diberkahi sekalipun negeri itu padang pasir.\n\nPokok-pokok Isinya:\nManusia diciptakan Allah untuk berjuang menghadapi kesulitan. Manusia jangan teperdaya oleh kekuasaan dan harta benda yang banyak yang telah dibelanjakannya. Beberapa peringatan kepada manusia atas beberapa nikmat yang telah diberikan Allah kepadanya dan bahwa Allah telah menunjukkan jalan-jalan yang akan menyampaikannya kepada kebahagiaan dan yang akan membawanya kepada kecelakaan.",
        "outro_surah": null,
        "munasabah_prev_surah": "HUBUNGAN SURAH AL-FAJR \nDENGAN SURAH AL-BALAD\n\n1.\tSurah al-Fajr mengecam orang yang mencari kekayaan menurut cara yang tidak dibenarkan dan mengecam pula kekikiran mereka. Dalam Surah al-Balad disampaikan bagaimana kekayaan itu seharusnya diperlakukan, yaitu untuk menolong mereka yang membutuhkan.\n2.\tKedua surah sama-sama mengemukakan bahwa manusia itu terbagi dua dalam kaitannya dengan harta kekayaan mereka, ada yang akan masuk surga dan ada yang akan masuk neraka.",
        "munasabah_prev_theme": "Pada ayat-ayat yang lalu diterangkan kesombongan orang yang memiliki kekayaan. Pada ayat-ayat berikut ini dikemukakan pekerjaan-pekerjaan besar yang perlu diselesaikan oleh kaum Muslimin, tanpa maksud mencari nama.",
        "theme_group": "BALASAN BAGI MEREKA YANG BERHASIL\n MELAKSANAKAN PEKERJAAN BESAR",
        "kosakata": "Kosakata:\n1.\tAl-\u2018Aqabah \u0627\u0644\u0652\u0639\u064e\u0642\u064e\u0628\u064e\u0629 (al-Balad/90: 11)\nKata \u2018aqabah secara harfiah berarti jalan di pegunungan, atau jalan yang mendaki lagi sukar. Kata ini diambil dari kata \u2018aqibu kulli syai' yang berarti bagian akhir dari segala sesuatu. Ada beberapa riwayat mengenai makna kata ini. Kata \u2018aqabah menurut riwayat Ibnu \u2018Umar berarti sebuah gunung di neraka Jahanam; menurut riwayat Ka\u2018b al-Ahbar berarti tujuh puluh anak tangga di neraka Jahanam; menurut riwayat Qat\u0101dah berarti jalan di pegunungan yang terjal dan sulit. Maksudnya, umat Islam diperintahkan untuk melewati akibat-akibat yang sulit itu dengan cara berbuat taat kepada Allah.\n2.\t\u017b\u012b Masgabah \u0630\u0650\u064a\u0652 \u0645\u064e\u0633\u0652\u063a\u064e\u0628\u064e\u0629\u064d (al-Balad/90: 14)\nKata \u017c\u012b berarti yang memiliki. Dan kata masgabah berarti paceklik. Ia adalah ma\u1e63dar dari kata sagaba yang berarti lapar. Menurut pendapat lain, artinya adalah lapar yang disertai letih. Makna ini senada dengan seluruh riwayat. Di dalam ayat ini kita diperintahkan untuk memberi makan pada hari ketika terjadi makanan menjadi sesuatu yang berharga.",
        "sabab_nuzul": null,
        "conclusion": null
    }
}