{
    "id": 6056,
    "surah_id": 91,
    "ayah": 13,
    "page": 595,
    "quarter_hizb": 60.25,
    "juz": 30,
    "manzil": 7,
    "arabic": "\u0641\u064e\u0642\u064e\u0627\u0644\u064e \u0644\u064e\u0647\u064f\u0645\u0652 \u0631\u064e\u0633\u064f\u0648\u0652\u0644\u064f \u0627\u0644\u0644\u0651\u0670\u0647\u0650 \u0646\u064e\u0627\u0642\u064e\u0629\u064e \u0627\u0644\u0644\u0651\u0670\u0647\u0650 \u0648\u064e\u0633\u064f\u0642\u0652\u064a\u0670\u0647\u064e\u0627\u06d7",
    "latin": "Fa q\u0101la lahum ras\u016blull\u0101hi n\u0101qatall\u0101hi wa suqy\u0101h\u0101.",
    "translation": "Rasul Allah (Saleh) lalu berkata kepada mereka, \u201c(Biarkanlah) unta betina Allah ini beserta minumannya.\u201d",
    "no_footnote": null,
    "footnotes": null,
    "surah": {
        "id": 91,
        "arabic": "\u0627\u0644\u0634\u0651\u0645\u0633",
        "latin": "Asy-Syams",
        "transliteration": "Asy-Syams",
        "translation": "Matahari",
        "num_ayah": 15,
        "page": 595,
        "location": "Makkiyah"
    },
    "tafsir": {
        "wajiz": "Melihat gelagat buruk itu lalu Rasul Allah, Nabi Saleh, berkata kepada mereka, \u201cBiarkanlah unta betina dari Allah ini dengan minumannya.\u201d Janganlah kamu mengusik apalagi membunuhnya. Jangan pula kamu larang unta itu mengambil jatah air minumnya sesuai kesepakatan kita satu hari untuk unta dan hari berikutnya untuk kaum amud.",
        "tahlili": "Nabi Saleh memperingatkan kaumnya agar tidak mengganggu unta itu. Ia memperingatkan bahwa unta itu adalah mukjizat dari Allah, dan haknya untuk memperoleh minum berselang hari dengan mereka, harus dihormati. Ia memperingatkan pula bahwa bila mereka mengganggunya, mereka akan mendapat bahaya.",
        "intro_surah": "Surah asy-Syams terdiri dari 15 ayat, termasuk kelompok surah Makkiyyah, diturunkan sesudah Surah al-Qadar dan sebelum Surah al-Bur\u016bj.\nNama asy-Syams diambil dari kata itu yang disebutkan pada ayat pertama.\n\nPokok-pokok Isinya:\n1.\tSumpah Allah dengan matahari dan bulan, siang dan malam, langit dan bumi untuk menekankan bahwa manusia memiliki dua sisi yang bertolak belakang dalam dirinya. Oleh karena itu, ia harus mengembangkan sisi yang positif dari dirinya.\n2.\tContoh seorang yang mengikuti segi negatif dalam dirinya adalah seorang yang diinformasikan bernama Qudar bin Salif dari kaum Samud. Ia menjadi seorang paling jahat dari kaumnya. Ia membunuh unta betina yang merupakan mukjizat Nabi Saleh, sehingga akibatnya ia dan kaumnya ditimpa azab dari Allah.",
        "outro_surah": null,
        "munasabah_prev_surah": "HUBUNGAN SURAH AL-BALAD\nDENGAN SURAH ASY-SYAMS\n\n1.\tKedua surah menerangkan adanya dua golongan manusia, yaitu yang kanan dan yang kiri, yang berbuat baik dan yang tidak berbuat baik, yang berjasa dan yang tidak berbuat apa-apa, dan yang masuk surga dan yang masuk neraka.\n2.\tKedua surah juga menyampaikan pesan bahwa manusia perlu berusaha dan berjuang untuk memperoleh kebahagiaan dengan menyelesaikan pekerjaan-pekerjaan besar dan sulit.",
        "munasabah_prev_theme": "Dalam ayat-ayat yang lalu dinyatakan bahwa orang yang mengembangkan potensi baiknya akan bahagia, dan orang yang mengikuti potensi jahatnya akan celaka. Dalam ayat-ayat berikut diberikan contoh orang-orang yang mengikuti potensi jahatnya itu yaitu kaum Samud.",
        "theme_group": "CONTOH MANUSIA CELAKA ADALAH KAUM SAMUD",
        "kosakata": "Kosakata: Fadamdama \u0641\u064e\u062f\u064e\u0645\u0652\u062f\u064e\u0645\u064e (asy-Syams/91: 14)\nMakna damdama adalah menghancurkan secara menyeluruh dan membuat panik. Ad-damdamah berarti cerita suara kucing. Damama juga diartikan dengan mencelupkan sesuatu sehingga menjadi rata. Damamtu\u1e61-\u1e61aub berarti aku mencelupkan baju dengan zat pewarna sehingga warnanya menjadi rata. Sementara ulama berpendapat bahwa damdama berarti mengguncang bangunan sehingga menjadi rata dengan tanah. Ada juga yang memahaminya dalam arti meratakan dengan tanah. Selain itu, ad-damdamah juga mengandung makna kemarahan dan kebencian. Yang jelas, makna damdama menggambarkan tentang siksa dari Allah yang marah melihat kemaksiatan yang dilakukan makhluk-Nya. Siksa ini bersifat menyeluruh dan merata, serta menimpa semua yang terlibat. Kata damdama hanya terulang sekali dalam Al-Qur\u2019an yaitu dalam ayat ini. \nAyat ini menjelaskan tentang siksa Allah kepada kaum Nabi Saleh yaitu kaum Samud. Mereka mendustakan dan bahkan menantang kebenaran risalah yang dibawanya. Allah memberikan mukjizat kepada Nabi Saleh berupa unta betina. Nabi Saleh memperingatkan kaumnya agar tidak mengganggu unta betina itu atau menghalanginya untuk minum pada hari yang telah dikhususkan. Akan tetapi, kaum Samud malah menyembelihnya. Karena kedurhakaan yang mereka lakukan, kemudian Allah menurunkan azab berupa suara yang menggelegar yang menjungkirbalikkan tanah tempat mereka berpijak. Azab ini bersifat menyeluruh untuk seluruh kaum Samud walaupun yang melakukan penyembelihan hanya sebagian saja. Tetapi karena sikap diam sebagian yang lain dan membiarkan sebagian yang lain berbuat durhaka, maka Allah menyamaratakan siksaan tersebut.",
        "sabab_nuzul": null,
        "conclusion": null
    }
}