{
    "id": 6060,
    "surah_id": 92,
    "ayah": 2,
    "page": 595,
    "quarter_hizb": 60.25,
    "juz": 30,
    "manzil": 7,
    "arabic": "\u0648\u064e\u0627\u0644\u0646\u0651\u064e\u0647\u064e\u0627\u0631\u0650 \u0627\u0650\u0630\u064e\u0627 \u062a\u064e\u062c\u064e\u0644\u0651\u0670\u0649\u06d9",
    "latin": "Wan-nah\u0101ri i\u017c\u0101 tajall\u0101.",
    "translation": "demi siang apabila terang benderang,",
    "no_footnote": null,
    "footnotes": null,
    "surah": {
        "id": 92,
        "arabic": " \u0627\u0644\u0651\u064a\u0644",
        "latin": "Al-Lail",
        "transliteration": "Al-Lail",
        "translation": "Malam",
        "num_ayah": 21,
        "page": 595,
        "location": "Makkiyah"
    },
    "tafsir": {
        "wajiz": "Demi waktu siang apabila terang benderang oleh cahaya matahari sehingga manusia dapat beraktivitas dengan leluasa.",
        "tahlili": "Allah bersumpah dengan malam apabila menutupi, yaitu ketika malam sudah merata menutupi alam ini. Ini adalah waktu isya yaitu ketika cahaya merah sudah hilang di ufuk barat. Waktu itu manusia pada umumnya sudah mengakhiri aktivitasnya, dan ingin istirahat dan pergi tidur. Kemudian Allah bersumpah dengan aktivitas alam sebaliknya, yaitu siang ketika terang benderang. Waktu itu adalah waktu duha ketika cahaya matahari sudah merata menyinari alam ini, yang kontras dengan malam yang baru saja berakhir, dan manusia mulai bekerja.",
        "intro_surah": "Surah al-Lail terdiri dari 21 ayat, termasuk kelompok surah Makkiyyah, diturunkan sesudah surah al-A\u2018l\u0101 sebelum Surah al-Fajr.\nSurah ini dinamai al-Lail (malam), diambil dari kata al-lail yang terdapat pada ayat pertama surah ini.\n\nPokok-pokok Isinya:\nSurah ini juga dimulai dengan sumpah-sumpah Allah dengan makhluk-makhluk-Nya yang bertolak belakang sifat-sifatnya, yaitu malam dan siang serta laki-laki dan perempuan. Isi sumpah (muqsam \u2018alaih) Allah juga berkenaan dengan sifat manusia berkenaan kekayaan yang bermacam-macam, yaitu ada yang mau menggunakannya untuk membantu orang lain dan ada yang tidak mau. Menggunakannya untuk membantu orang lain akan membawa mereka masuk ke dalam surga. Sedangkan kikir akan membawa ke dalam neraka.",
        "outro_surah": null,
        "munasabah_prev_surah": "HUBUNGAN SURAH ASY-SYAMS\nDENGAN SURAH AL-LAIL\n\nSurah asy-Syams menginformasikan adanya dua golongan manusia, yaitu yang menyucikan dirinya dengan berbuat baik dan bebas dari dosa, dan orang mengotori dirinya dengan melakukan dosa-dosa. Dalam Surah al-Lail juga diterangkan dua golongan manusia. Bila dalam Surah asy-Syams penggolongan itu berdasarkan usaha manusia membersihkan dirinya dengan melakukan perbuatan-perbuatan baik dan menjauhi perbuatan-perbuatan dosa, dalam Surah al-Lail ini penggolongan itu berdasarkan aktualisasi yang konkrit perbuatan baik itu, yaitu kesediaan mengorbankan harta atau ketidak sediaannya. Hal itu mengandung arti bahwa salah satu cara membersihkan diri itu adalah dengan mengorbankan harta tersebut.",
        "munasabah_prev_theme": "Dalam surah yang lalu diinformasikan bahwa manusia diberi Allah potensi baik dan potensi jahat, lalu ada manusia yang mengembangkan potensi baiknya maka ia berbuat baik, dan ada pula manusia yang mengembangkan potensi jahatnya maka ia berbuat jahat. Dalam ayat-ayat berikut setelah bersumpah, Allah menegaskan bahwa aktualisasi sifat-sifat manusia tersebut memang berbeda-beda bahkan bertolak belakang.",
        "theme_group": "TINGKAH LAKU MANUSIA BERMACAM-MACAM",
        "kosakata": "Kosakata: Lasyatt\u0101 \u0644\u064e\u0634\u064e\u062a\u0651\u064e\u0649 (al-Lail/92: 4)\nLasyatt\u0101 terdiri atas dua kalimat, l\u0101m tauk\u012bd yang diartikan dengan \u201csungguh\u201d dan syatt\u0101. Syatt\u0101 adalah bentuk jamak dari kata syat\u012bt yang terambil dari kata syatata-asy-syatt yang berarti keterpencaran dan keterpisahan yang sangat jauh dan tidak teratur. Kata ini mengandung makna perbedaan dan keanekaragaman. Dalam Surah az-Zalzalah/99: 6, Allah menggambarkan keadaan manusia pada hari Kiamat terpencar dan keluar dengan bermacam-macam keadaan. Yang dimaksud dalam ayat ini adalah perbedaan yang menonjol dalam berbagai hal, sifat, dan kondisi. Kata syatt\u0101 terulang sebanyak 5 kali: syatt\u0101 3 kali dan asyt\u0101ta 2 kali. \nPada ayat ini, Allah menjelaskan tentang perbedaan laki-laki dan perempuan. Hal ini untuk membuktikan kesempurnaan kekuasaan dan kehendak-Nya. Dalam ayat ini, Allah bersumpah, \u201cDemi malam apabila menutupi sedikit demi sedikit alam sekeliling dengan kegelapannya dan demi siang apabila terang benderang karena pancaran sinar matahari sehingga menampakkan dengan jelas apa yang tersembunyi, dan demi penciptaan laki-laki dan perempuan, jantan dan betina serta setiap makhluk yang berpasangan dan dengannya berkembang biak, sesungguhnya usaha kamu sebagaimana perbedaan malam dan siang, laki-laki dan perempuan yang memang berbeda-beda. Ada yang bermanfaat dan ada juga yang merusak. Ada yang berdampak kebahagiaan dan ada juga kesengsaraan. Ada yang mengantar ke surga dan ada juga yang ke neraka\u201d.",
        "sabab_nuzul": null,
        "conclusion": null
    }
}