{
    "id": 6073,
    "surah_id": 92,
    "ayah": 15,
    "page": 596,
    "quarter_hizb": 60.25,
    "juz": 30,
    "manzil": 7,
    "arabic": "\u0644\u064e\u0627 \u064a\u064e\u0635\u0652\u0644\u0670\u0649\u0647\u064e\u0627\u0653 \u0627\u0650\u0644\u0651\u064e\u0627 \u0627\u0644\u0652\u0627\u064e\u0634\u0652\u0642\u064e\u0649\u06d9",
    "latin": "L\u0101 ya\u1e63l\u0101h\u0101 illal-asyq\u0101.",
    "translation": "Tidak masuk ke dalamnya kecuali orang yang paling celaka,",
    "no_footnote": null,
    "footnotes": null,
    "surah": {
        "id": 92,
        "arabic": " \u0627\u0644\u0651\u064a\u0644",
        "latin": "Al-Lail",
        "transliteration": "Al-Lail",
        "translation": "Malam",
        "num_ayah": 21,
        "page": 595,
        "location": "Makkiyah"
    },
    "tafsir": {
        "wajiz": "Itulah neraka yang hanya dimasuki dan dirasakan panasnya oleh orang yang paling celaka.",
        "tahlili": "Di samping Allah telah menunjuki manusia jalan yang benar, Ia juga memperingatkan manusia tentang adanya neraka yang senantiasa menyala-nyala. Penghuni neraka itu adalah mereka yang paling durhaka, yaitu orang-orang yang senantiasa memandang dusta wahyu-wahyu yang disampaikan kepadanya, dan karena itu tidak mau mengimaninya dan menjalankannya.",
        "intro_surah": "Surah al-Lail terdiri dari 21 ayat, termasuk kelompok surah Makkiyyah, diturunkan sesudah surah al-A\u2018l\u0101 sebelum Surah al-Fajr.\nSurah ini dinamai al-Lail (malam), diambil dari kata al-lail yang terdapat pada ayat pertama surah ini.\n\nPokok-pokok Isinya:\nSurah ini juga dimulai dengan sumpah-sumpah Allah dengan makhluk-makhluk-Nya yang bertolak belakang sifat-sifatnya, yaitu malam dan siang serta laki-laki dan perempuan. Isi sumpah (muqsam \u2018alaih) Allah juga berkenaan dengan sifat manusia berkenaan kekayaan yang bermacam-macam, yaitu ada yang mau menggunakannya untuk membantu orang lain dan ada yang tidak mau. Menggunakannya untuk membantu orang lain akan membawa mereka masuk ke dalam surga. Sedangkan kikir akan membawa ke dalam neraka.",
        "outro_surah": null,
        "munasabah_prev_surah": "HUBUNGAN SURAH ASY-SYAMS\nDENGAN SURAH AL-LAIL\n\nSurah asy-Syams menginformasikan adanya dua golongan manusia, yaitu yang menyucikan dirinya dengan berbuat baik dan bebas dari dosa, dan orang mengotori dirinya dengan melakukan dosa-dosa. Dalam Surah al-Lail juga diterangkan dua golongan manusia. Bila dalam Surah asy-Syams penggolongan itu berdasarkan usaha manusia membersihkan dirinya dengan melakukan perbuatan-perbuatan baik dan menjauhi perbuatan-perbuatan dosa, dalam Surah al-Lail ini penggolongan itu berdasarkan aktualisasi yang konkrit perbuatan baik itu, yaitu kesediaan mengorbankan harta atau ketidak sediaannya. Hal itu mengandung arti bahwa salah satu cara membersihkan diri itu adalah dengan mengorbankan harta tersebut.",
        "munasabah_prev_theme": "Dalam ayat-ayat yang lalu dijelaskan adanya dua kelompok manusia yang bertentangan sifat dan tingkah laku mereka. Dalam ayat-ayat berikut dijelaskan tempat masing-masing mereka nanti di akhirat.",
        "theme_group": "KESUDAHAN DUA GOLONGAN MANUSIA",
        "kosakata": "Kosakata: Tala\u1e93\u1e93\u0101 \u062a\u064e\u0644\u064e\u0638\u0651\u064e\u0649 (al-Lail/92: 14)\nAsal dari kata ini adalah tatala\u1e93\u1e93\u0101 dengan dua ( t\u0101\u2019), kemudian t\u0101\u2019 yang satu dibuang untuk meringankan. La\u1e93\u0101 diartikan dengan api murni yang bergejolak. Sifat api ini adalah sangat panas dan bisa membakar apa yang ada atau membakar dirinya sendiri jika tidak ada sesuatu yang dibakar. Oleh karena itu, la\u1e93\u0101 menjadi sebuah nama untuk neraka Jahanam, karena sifat apinya yang bergejolak dan sangat panas. Kata ini tidak bisa di-ta\u1e63rif. Kata la\u1e93\u0101 terulang hanya dua kali yaitu dalam ayat ini dan Surah al-Ma\u2018\u0101rij/70: 15 (kall\u0101 innah\u0101 la\u1e93\u0101).\nDalam ayat ini, Allah menjelaskan tentang peringatan-Nya  dengan siksa-Nya berupa api yang menyala-nyala. Tidak ada yang masuk ke dalamnya kecuali orang yang paling celaka, yang mendustakan dan berpaling dari ajaran Allah.",
        "sabab_nuzul": null,
        "conclusion": null
    }
}