{
    "id": 6115,
    "surah_id": 96,
    "ayah": 9,
    "page": 597,
    "quarter_hizb": 60.5,
    "juz": 30,
    "manzil": 7,
    "arabic": "\u0627\u064e\u0631\u064e\u0627\u064e\u064a\u0652\u062a\u064e \u0627\u0644\u0651\u064e\u0630\u0650\u064a\u0652 \u064a\u064e\u0646\u0652\u0647\u0670\u0649\u06d9",
    "latin": "Ara'aital-la\u017c\u012b yanh\u0101.",
    "translation": "Tahukah kamu tentang orang yang melarang",
    "no_footnote": null,
    "footnotes": null,
    "surah": {
        "id": 96,
        "arabic": " \u0627\u0644\u0639\u0644\u0642",
        "latin": "Al-\u2018Alaq",
        "transliteration": "Al-\u2018Alaq",
        "translation": "Segumpal Darah",
        "num_ayah": 19,
        "page": 597,
        "location": "Makkiyah"
    },
    "tafsir": {
        "wajiz": "Wahai Rasul atau siapa saja, bagaimana pendapatmu tentang orang yang melarang",
        "tahlili": "Allah bertanya kepada Nabi Muhammad, yang maksudnya meminta beliau memperhatikan orang yang melarang manusia melakukan salat. Orang yang dilarang adalah Nabi Muhammad saw untuk melakukan salat di Masjidil Haram. Sedangkan yang melarang adalah Ab\u016b Jahal. Ia mengancam Nabi saw dengan kata-kata:\n\u0642\u064e\u0627\u0644\u064e \u0623\u0628\u0648 \u062c\u064e\u0647\u0652\u0644\u064d: \u0644\u064e\u0626\u0650\u0646\u0652 \u0631\u064e\u0623\u064e\u064a\u0652\u062a\u064f \u0645\u064f\u062d\u0645\u0651\u064e\u062f\u064b\u0627 \u064a\u064f\u0635\u064e\u0644\u0651\u0650\u064a\u0652 \u0639\u0650\u0646\u0652\u062f\u064e \u0627\u0644\u0643\u064e\u0639\u0652\u0628\u064e\u0629\u0650 \u0644\u064e\u0623\u064e\u0637\u064e\u0623\u064e\u0646\u0651\u064e \u0639\u064e\u0644\u064e\u0649 \u0639\u064f\u0646\u064f\u0642\u0650\u0647\u0650. \u0641\u064e\u0628\u064e\u0644\u064e\u063a\u064e \u0627\u0644\u0646\u0651\u064e\u0628\u0650\u064a\u0651\u064e \u0635\u064e\u0644\u0651\u064e\u0649 \u0627\u0644\u0644\u0647\u064f \u0639\u064e\u0644\u064e\u064a\u0652\u0647\u0650 \u0648\u064e\u0633\u064e\u0644\u0651\u064e\u0645\u064e \u0641\u064e\u0642\u064e\u0627\u0644\u064e: \u0644\u064e\u0626\u0650\u0646\u0652 \u0641\u064e\u0639\u064e\u0644\u064e \u0644\u064e\u0623\u064e\u062e\u064e\u0630\u064e\u062a\u0652\u0647\u064f \u0627\u0644\u0652\u0645\u064e\u0644\u0627\u064e\u0626\u0650\u0643\u064e\u0629\u064f. (\u0631\u0648\u0627\u0647 \u0627\u0644\u0628\u062e\u0627\u0631\u064a \u0639\u0646 \u0627\u0628\u0646 \u0639\u0628\u0627\u0633)\nAb\u016b Jahal berkata, \u201cJika saya melihat Muhammad salat di Ka\u2018bah, saya akan lindas-lindaskan tengkuknya (ke tanah).\u201d Ketika hal itu sampai kepada Nabi saw., beliau bersabda, \u201cJika itu ia lakukan, malaikat akan menghajarnya.\u201d (Riwayat al-Bukh\u0101r\u012b dari Ibnu \u2018Abb\u0101s) ",
        "intro_surah": "Surah al-\u2018Alaq terdiri dari 19 ayat, termasuk kelompok surah Makkiyyah. Ayat pertama sampai dengan kelima dalam surah ini adalah ayat-ayat Al-Qur\u2019an yang pertama kali diturunkan, yaitu pada waktu Nabi Muhammad berkhalwat di Gua Hira. Surah ini dinamai al-\u2018Alaq (yang melekat), diambil dari perkataan al-\u2018alaq (zigot yang menempel) yang terdapat pada ayat kedua surah ini. Surah ini dinamai juga dengan Surah Iqra\u2019 Bismi Rabbika atau al-Qalam.\n\nPokok-pokok Isinya:\nPerintah membaca ayat-ayat Allah; keterangan tentang asal usul manusia; perlunya dikembangkan kemampuan baca-tulis; sifat-sifat manusia yang jahat; ancaman Allah terhadap orang yang melarang atau menghalang-halangi umat beribadah.",
        "outro_surah": null,
        "munasabah_prev_surah": "HUBUNGAN SURAH AT-T\u012aN\nDENGAN SURAH AL-\u2018ALAQ\n\n1.\tSurah at-T\u012bn menerangkan bahwa manusia diciptakan dalam kondisi fisik dan psikis yang sempurna. Oleh karena itu, ia akan menjadi makhluk termulia bila beriman dan berbuat baik. Dalam Surah al-\u2018Alaq dijelaskan asal usul manusia yaitu \u2018alaqah, yang sesungguhnya pada awalnya sangat rentan, tetapi karena kemahakuasaan Allah, kemudian menjadi makhluk yang paling sempurna. \n2.\tDalam Surah at-T\u012bn diterangkan bahwa manusia akan menjadi manusia sempurna bila diberi agama dan pendidikan. Dalam Surah al-\u2018Alaq diisyaratkan bahwa kunci pendidikan itu adalah kemampuan membaca dan memahami ayat-ayat Allah yang tersurat dan yang tersirat. \n3.\tDalam Surah at-T\u012bn diterangkan bahwa manusia akan menjadi makhluk terhina bila menjadi manusia yang ingkar dan jahat. Dalam Surah al-\u2018Alaq dijelaskan sifat-sifat manusia yang jahat dan hina itu.",
        "munasabah_prev_theme": "Pada ayat-ayat yang lalu, Allah menginformasikan adanya manusia-manusia yang kafir kepada Allah dan sewenang-wenang terhadap manusia karena merasa sudah mapan/berkecukupan. Pada ayat-ayat berikut diberikan contoh manusia yang ingkar dan sewenang-wenang itu, yaitu Ab\u016b Jahal.",
        "theme_group": "CONTOH MANUSIA YANG KAFIR DAN JAHAT",
        "kosakata": "Kosakata: Yanh\u0101 \u064a\u064e\u0646\u0652\u0647\u064e\u0649 (al-\u2018Alaq/96: 9)\nKata yanh\u0101 terambil dari kata an-nahy, yakni larangan atau pencegahan. Dari kata ini terbentuk sekian banyak kosakata yang kesemuanya mengandung makna pencegahan. Misalnya kata nih\u0101yah/batas akhir sesuatu, karena dengan batas akhir itu, tercegahlah adanya penambahan. An-nahy yang berarti larangan atau pencegahan, mengisyaratkan bahwa pekerjaan yang dilakukan tadi harus tidak dilakukan lagi, sehingga ia berakhir dan telah mencapai batasnya. Demikian pula kata an-nuh\u0101/akal pikiran, ia diharapkan berfungsi mencegah pemiliknya melakukan hal-hal yang tidak wajar.",
        "sabab_nuzul": null,
        "conclusion": null
    }
}