{
    "id": 6108,
    "surah_id": 96,
    "ayah": 2,
    "page": 597,
    "quarter_hizb": 60.5,
    "juz": 30,
    "manzil": 7,
    "arabic": "\u062e\u064e\u0644\u064e\u0642\u064e \u0627\u0644\u0652\u0627\u0650\u0646\u0652\u0633\u064e\u0627\u0646\u064e \u0645\u0650\u0646\u0652 \u0639\u064e\u0644\u064e\u0642\u064d\u06da",
    "latin": "Khalaqal-ins\u0101na min \u2018alaq(in).",
    "translation": "Dia menciptakan manusia dari segumpal darah.",
    "no_footnote": null,
    "footnotes": null,
    "surah": {
        "id": 96,
        "arabic": " \u0627\u0644\u0639\u0644\u0642",
        "latin": "Al-\u2018Alaq",
        "transliteration": "Al-\u2018Alaq",
        "translation": "Segumpal Darah",
        "num_ayah": 19,
        "page": 597,
        "location": "Makkiyah"
    },
    "tafsir": {
        "wajiz": "Dia telah menciptakan manusia yang sempurna bentuk dan pengetahuannya dari segumpal darah, sebagai kelanjutan dari fase nutfah. Setelah itu berturut-turut akan terbentuk sekepal daging, tulang, pelapisan tulang dengan daging, dan peniupan roh.",
        "tahlili": "Allah menyebutkan bahwa di antara yang telah Ia ciptakan adalah manusia, yang menunjukkan mulianya manusia itu dalam pandangan-Nya. Allah menciptakan manusia itu dari \u2018alaqah (zigot), yakni telur yang sudah terbuahi sperma, yang sudah menempel di rahim ibu. Karena sudah menempel itu, maka zigot dapat berkembang menjadi manusia. Dengan demikian, asal usul manusia itu adalah sesuatu yang tidak ada artinya, tetapi kemudian ia menjadi manusia yang perkasa. Allah berfirman:\n\u0648\u064e\u0645\u0650\u0646\u0652 \u0627\u0670\u064a\u0670\u062a\u0650\u0647\u0656\u0653 \u0627\u064e\u0646\u0652 \u062e\u064e\u0644\u064e\u0642\u064e\u0643\u064f\u0645\u0652 \u0645\u0650\u0651\u0646\u0652 \u062a\u064f\u0631\u064e\u0627\u0628\u064d \u062b\u064f\u0645\u0651\u064e \u0627\u0650\u0630\u064e\u0627\u0653 \u0627\u064e\u0646\u0652\u062a\u064f\u0645\u0652 \u0628\u064e\u0634\u064e\u0631\u064c \u062a\u064e\u0646\u0652\u062a\u064e\u0634\u0650\u0631\u064f\u0648\u0652\u0646\u064e \u0662\u0660\nDan di antara tanda-tanda (kebesaran)-Nya ialah Dia menciptakan kamu dari tanah, kemudian tiba-tiba kamu (menjadi) manusia yang berkembang biak. (ar-R\u016bm/30: 20)\n\nAsal usulnya itu juga labil, zigot itu bisa tidak menempel di rahim, atau bisa terlepas lagi dari rahim itu, sehingga pembentukan manusia terhenti prosesnya. Oleh karena itu, manusia seharusnya tidak sombong dan ingkar, tetapi bersyukur dan patuh kepada-Nya, karena dengan kemahakuasaan dan karunia Allah-lah, ia bisa tercipta. Allah berfirman menyesali manusia yang ingkar dan sombong itu:\n\u0627\u064e\u0648\u064e\u0644\u064e\u0645\u0652 \u064a\u064e\u0631\u064e \u0627\u0644\u0652\u0627\u0650\u0646\u0652\u0633\u064e\u0627\u0646\u064f \u0627\u064e\u0646\u0651\u064e\u0627 \u062e\u064e\u0644\u064e\u0642\u0652\u0646\u0670\u0647\u064f \u0645\u0650\u0646\u0652 \u0646\u0651\u064f\u0637\u0652\u0641\u064e\u0629\u064d \u0641\u064e\u0627\u0650\u0630\u064e\u0627 \u0647\u064f\u0648\u064e \u062e\u064e\u0635\u0650\u064a\u0652\u0645\u064c \u0645\u0651\u064f\u0628\u0650\u064a\u0652\u0646\u064c \u0667\u0667\nDan tidakkah manusia memperhatikan bahwa Kami menciptakannya dari setetes mani, ternyata dia menjadi musuh yang nyata! (Y\u0101s\u012bn/36: 77)\n\nMenurut kajian ilmiah, \u2018alaqah merupakan bentuk perkembangan pra-embrionik, yang terjadi setelah percampuran sel mani (sperma) dan sel telur. Moore dan Azzindani menjelaskan bahwa \u2018alaqah dalam bahasa Arab berarti lintah (leech) atau suatu suspensi (suspended thing) atau segumpal darah (a clot of blood). Lintah merupakan binatang tingkat rendah, berbentuk seperti buah per, dan hidup dengan cara menghisap darah. Jadi \u2018alaqah merupakan tingkatan (stadium) embrionik, yang berbentuk seperti buah per, di mana sistem kardiovaskuler (sistem pembuluh-jantung) sudah mulai tampak, dan hidupnya tergantung dari darah ibunya, mirip dengan lintah. \u2018Alaqah terbentuk sekitar 24-25 hari sejak pembuahan. Jika jaringan pra-embrionik \u2018alaqah ini diambil keluar (digugurkan), memang tampak seperti segumpal darah (a blood clot like). Lihat pula telaah ilmiah pada penjelasan Surah N\u016b\u1e25/71 ayat 14.",
        "intro_surah": "Surah al-\u2018Alaq terdiri dari 19 ayat, termasuk kelompok surah Makkiyyah. Ayat pertama sampai dengan kelima dalam surah ini adalah ayat-ayat Al-Qur\u2019an yang pertama kali diturunkan, yaitu pada waktu Nabi Muhammad berkhalwat di Gua Hira. Surah ini dinamai al-\u2018Alaq (yang melekat), diambil dari perkataan al-\u2018alaq (zigot yang menempel) yang terdapat pada ayat kedua surah ini. Surah ini dinamai juga dengan Surah Iqra\u2019 Bismi Rabbika atau al-Qalam.\n\nPokok-pokok Isinya:\nPerintah membaca ayat-ayat Allah; keterangan tentang asal usul manusia; perlunya dikembangkan kemampuan baca-tulis; sifat-sifat manusia yang jahat; ancaman Allah terhadap orang yang melarang atau menghalang-halangi umat beribadah.",
        "outro_surah": null,
        "munasabah_prev_surah": "HUBUNGAN SURAH AT-T\u012aN\nDENGAN SURAH AL-\u2018ALAQ\n\n1.\tSurah at-T\u012bn menerangkan bahwa manusia diciptakan dalam kondisi fisik dan psikis yang sempurna. Oleh karena itu, ia akan menjadi makhluk termulia bila beriman dan berbuat baik. Dalam Surah al-\u2018Alaq dijelaskan asal usul manusia yaitu \u2018alaqah, yang sesungguhnya pada awalnya sangat rentan, tetapi karena kemahakuasaan Allah, kemudian menjadi makhluk yang paling sempurna. \n2.\tDalam Surah at-T\u012bn diterangkan bahwa manusia akan menjadi manusia sempurna bila diberi agama dan pendidikan. Dalam Surah al-\u2018Alaq diisyaratkan bahwa kunci pendidikan itu adalah kemampuan membaca dan memahami ayat-ayat Allah yang tersurat dan yang tersirat. \n3.\tDalam Surah at-T\u012bn diterangkan bahwa manusia akan menjadi makhluk terhina bila menjadi manusia yang ingkar dan jahat. Dalam Surah al-\u2018Alaq dijelaskan sifat-sifat manusia yang jahat dan hina itu.",
        "munasabah_prev_theme": "Pada ayat-ayat yang lalu dijelaskan bahwa Allah amat bijaksana dengan menjadikan iman dan perbuatan baik sebagai tolok ukur kebaikan seseorang. Pada ayat-ayat berikut, Allah memerintahkan manusia agar membaca ayat-ayat-Nya dan menyadari asal usulnya agar dapat menjadi orang yang beriman dan berbuat baik.",
        "theme_group": "MANUSIA PERLU MAMPU BACA-TULIS",
        "kosakata": "Kosakata: \u2018Alaq \u0639\u064e\u0644\u064e\u0642 (al-\u2018Alaq/96: 2)\nKata \u2018alaq diambil dari kata \u2018aliqa-ya\u2018laqu-\u2018uluqan yang berarti bergantung, melekat. Kata \u2018alaq berarti darah beku, segumpal darah/ segumpal sel, juga berarti binatang lintah/cacing yang terdapat di dalam air, bila terminum oleh binatang, maka ia tersangkut di kerongkongannya. Sebagian ulama mengartikan \u2018alaq dengan makna segumpal darah, dan sebagian yang lainnya memahaminya dalam arti sesuatu yang tergantung di dinding rahim. Hal ini disebabkan karena setelah terjadinya pertemuan antara sperma dan indung telur dan setelah terjadi pembuahan, maka hasil pembuahan itu melekat dan bergantung pada dinding rahim. Kata \u2018alaq juga berbicara tentang sifat manusia sebagai makhluk sosial yang tidak dapat hidup sendiri, tetapi selalu bergantung kepada selainnya.\nKata \u2018alaq dan yang serumpun dengannya disebutkan 7 kali dalam Al-Qur\u2019an yang antara lain adalah pada Surah al-\u2018Alaq ayat 2. Juga kata \u2018alaq sebagai nama  salah satu surah dalam Al-Qur\u2019an.",
        "sabab_nuzul": null,
        "conclusion": null
    }
}