{
    "id": 6109,
    "surah_id": 96,
    "ayah": 3,
    "page": 597,
    "quarter_hizb": 60.5,
    "juz": 30,
    "manzil": 7,
    "arabic": "\u0627\u0650\u0642\u0652\u0631\u064e\u0623\u0652 \u0648\u064e\u0631\u064e\u0628\u0651\u064f\u0643\u064e \u0627\u0644\u0652\u0627\u064e\u0643\u0652\u0631\u064e\u0645\u064f\u06d9",
    "latin": "Iqra' wa rabbukal-akram(u).",
    "translation": "Bacalah! Tuhanmulah Yang Maha Mulia,",
    "no_footnote": null,
    "footnotes": null,
    "surah": {
        "id": 96,
        "arabic": " \u0627\u0644\u0639\u0644\u0642",
        "latin": "Al-\u2018Alaq",
        "transliteration": "Al-\u2018Alaq",
        "translation": "Segumpal Darah",
        "num_ayah": 19,
        "page": 597,
        "location": "Makkiyah"
    },
    "tafsir": {
        "wajiz": "Wahai Nabi, bacalah firman yang Allah turunkan kepadamu, dan Tuhanmulah Yang Mahamulia. Dia membagi kemurahan-Nya kepada semua makhluk. Di antara kemurahan-Nya adalah menjadikan manusia bisa membaca, menulis, dan mempelajari ilmu pengetahuan.",
        "tahlili": "Allah meminta manusia membaca lagi, yang mengandung arti bahwa membaca yang akan membuahkan ilmu dan iman itu perlu dilakukan berkali-kali, minimal dua kali. Bila Al-Qur\u2019an atau alam ini dibaca dan diselidiki berkali-kali, maka manusia akan menemukan bahwa Allah itu pemurah, yaitu bahwa Ia akan mencurahkan pengetahuan-Nya kepadanya dan akan memperkokoh imannya.",
        "intro_surah": "Surah al-\u2018Alaq terdiri dari 19 ayat, termasuk kelompok surah Makkiyyah. Ayat pertama sampai dengan kelima dalam surah ini adalah ayat-ayat Al-Qur\u2019an yang pertama kali diturunkan, yaitu pada waktu Nabi Muhammad berkhalwat di Gua Hira. Surah ini dinamai al-\u2018Alaq (yang melekat), diambil dari perkataan al-\u2018alaq (zigot yang menempel) yang terdapat pada ayat kedua surah ini. Surah ini dinamai juga dengan Surah Iqra\u2019 Bismi Rabbika atau al-Qalam.\n\nPokok-pokok Isinya:\nPerintah membaca ayat-ayat Allah; keterangan tentang asal usul manusia; perlunya dikembangkan kemampuan baca-tulis; sifat-sifat manusia yang jahat; ancaman Allah terhadap orang yang melarang atau menghalang-halangi umat beribadah.",
        "outro_surah": null,
        "munasabah_prev_surah": "HUBUNGAN SURAH AT-T\u012aN\nDENGAN SURAH AL-\u2018ALAQ\n\n1.\tSurah at-T\u012bn menerangkan bahwa manusia diciptakan dalam kondisi fisik dan psikis yang sempurna. Oleh karena itu, ia akan menjadi makhluk termulia bila beriman dan berbuat baik. Dalam Surah al-\u2018Alaq dijelaskan asal usul manusia yaitu \u2018alaqah, yang sesungguhnya pada awalnya sangat rentan, tetapi karena kemahakuasaan Allah, kemudian menjadi makhluk yang paling sempurna. \n2.\tDalam Surah at-T\u012bn diterangkan bahwa manusia akan menjadi manusia sempurna bila diberi agama dan pendidikan. Dalam Surah al-\u2018Alaq diisyaratkan bahwa kunci pendidikan itu adalah kemampuan membaca dan memahami ayat-ayat Allah yang tersurat dan yang tersirat. \n3.\tDalam Surah at-T\u012bn diterangkan bahwa manusia akan menjadi makhluk terhina bila menjadi manusia yang ingkar dan jahat. Dalam Surah al-\u2018Alaq dijelaskan sifat-sifat manusia yang jahat dan hina itu.",
        "munasabah_prev_theme": "Pada ayat-ayat yang lalu dijelaskan bahwa Allah amat bijaksana dengan menjadikan iman dan perbuatan baik sebagai tolok ukur kebaikan seseorang. Pada ayat-ayat berikut, Allah memerintahkan manusia agar membaca ayat-ayat-Nya dan menyadari asal usulnya agar dapat menjadi orang yang beriman dan berbuat baik.",
        "theme_group": "MANUSIA PERLU MAMPU BACA-TULIS",
        "kosakata": "Kosakata: \u2018Alaq \u0639\u064e\u0644\u064e\u0642 (al-\u2018Alaq/96: 2)\nKata \u2018alaq diambil dari kata \u2018aliqa-ya\u2018laqu-\u2018uluqan yang berarti bergantung, melekat. Kata \u2018alaq berarti darah beku, segumpal darah/ segumpal sel, juga berarti binatang lintah/cacing yang terdapat di dalam air, bila terminum oleh binatang, maka ia tersangkut di kerongkongannya. Sebagian ulama mengartikan \u2018alaq dengan makna segumpal darah, dan sebagian yang lainnya memahaminya dalam arti sesuatu yang tergantung di dinding rahim. Hal ini disebabkan karena setelah terjadinya pertemuan antara sperma dan indung telur dan setelah terjadi pembuahan, maka hasil pembuahan itu melekat dan bergantung pada dinding rahim. Kata \u2018alaq juga berbicara tentang sifat manusia sebagai makhluk sosial yang tidak dapat hidup sendiri, tetapi selalu bergantung kepada selainnya.\nKata \u2018alaq dan yang serumpun dengannya disebutkan 7 kali dalam Al-Qur\u2019an yang antara lain adalah pada Surah al-\u2018Alaq ayat 2. Juga kata \u2018alaq sebagai nama  salah satu surah dalam Al-Qur\u2019an.",
        "sabab_nuzul": null,
        "conclusion": null
    }
}