{
    "id": 6140,
    "surah_id": 99,
    "ayah": 2,
    "page": 599,
    "quarter_hizb": 60.5,
    "juz": 30,
    "manzil": 7,
    "arabic": "\u0648\u064e\u0627\u064e\u062e\u0652\u0631\u064e\u062c\u064e\u062a\u0650 \u0627\u0644\u0652\u0627\u064e\u0631\u0652\u0636\u064f \u0627\u064e\u062b\u0652\u0642\u064e\u0627\u0644\u064e\u0647\u064e\u0627\u06d9",
    "latin": "Wa akhrajatil-ar\u1e0du a\u1e61q\u0101lah\u0101.",
    "translation": "bumi mengeluarkan isi perutnya,",
    "no_footnote": null,
    "footnotes": null,
    "surah": {
        "id": 99,
        "arabic": "\u0627\u0644\u0632\u0651\u0644\u0632\u0644\u0629",
        "latin": "Az-Zalzalah",
        "transliteration": "Az-Zalzalah",
        "translation": "Guncangan",
        "num_ayah": 8,
        "page": 599,
        "location": "Madaniyah"
    },
    "tafsir": {
        "wajiz": "dan bumi telah mengeluarkan beban-beban berat yang dikandung-nya, baik kekayaan yang ada di dalamnya atau mayat-mayat yang terkubur,",
        "tahlili": "Dalam ayat ini, Allah menyatakan bahwa pada hari terjadi keguncangan itu, karena dahsyatnya, bumi menghamburkan isi perutnya yang terpendam berupa logam, harta simpanan, dan mayat-mayat dari kubur. Dalam ayat lain, Allah berfirman:\n\u0648\u064e\u0627\u0650\u0630\u064e\u0627 \u0627\u0644\u0652\u0627\u064e\u0631\u0652\u0636\u064f \u0645\u064f\u062f\u0651\u064e\u062a\u0652\u06d9 \u0663 \u0648\u064e\u0627\u064e\u0644\u0652\u0642\u064e\u062a\u0652 \u0645\u064e\u0627 \u0641\u0650\u064a\u0652\u0647\u064e\u0627 \u0648\u064e\u062a\u064e\u062e\u064e\u0644\u0651\u064e\u062a\u0652\u06d9 \u0664\nDan apabila bumi diratakan, dan memuntahkan apa yang ada di dalamnya dan menjadi kosong. (al-Insyiq\u0101q/84: 3-4)\n\nContohnya, sebagaimana terjadi dengan letusan gunung Krakatau pada tahun 1883, gempa dan tsunami di Aceh pada tahun 2004, lumpur panas di Sidoarjo Jawa Timur sejak tahun 2006, dan lain-lain yang begitu dahsyat sehingga mengeluarkan lava dan isi perut bumi. Guncangan pada hari kiamat jauh lebih dahsyat lagi.",
        "intro_surah": "Surah ini terdiri dari 8 ayat, termasuk kelompok surah Madaniyyah, diturunkan sesudah Surah an-Nis\u0101\u2019. Nama az-Zalzalah diambil dari kata zilz\u0101l yang terdapat pada ayat pertama surah ini yang berarti guncangan.\n\nPokok-pokok Isinya:\nKeguncangan bumi yang amat hebat pada hari Kiamat dan kebingungan manusia ketika itu; manusia pada hari Kiamat itu dikumpulkan untuk dihisab segala amal perbuatan mereka.",
        "outro_surah": null,
        "munasabah_prev_surah": "Surah al-Bayyinah menerangkan orang yang akan mendapat balasan yang baik dan orang yang akan mendapat siksa; sedang Surah az-Zalzalah menerangkan kapan datangnya balasan ini",
        "munasabah_prev_theme": "Pada akhir Surah al-Bayyinah diterangkan orang yang akan mendapat balasan siksaan neraka dan orang yang akan mendapat balasan surga. Pada awal Surah az-Zalzalah diterangkan tanda-tanda datangnya hari Kiamat sebagai hari pembalasan amal manusia selama hidup di dunia.",
        "theme_group": "SEMUA PERBUATAN MANUSIA\nMENDAPAT BALASAN PADA HARI KIAMAT",
        "kosakata": "Kosakata: Zilz\u0101lah\u0101 \u0632\u0650\u0644\u0652\u0632\u064e\u0627\u0644\u064e\u0647\u064e\u0627 (az-Zalzalah/99: 1)\nKata zilz\u0101lah\u0101 terdiri dari kata: zilz\u0101l dan h\u0101 yang digandengkan dengannya, maknanya adalah  guncangannya, yang terambil dari kata zalzala-yuzalzilu-zalzalatan wa zilz\u0101lan, yang berarti mengguncangkan. Maksud zilz\u0101lah\u0101 dalam Surah az-Zalzalah ayat 1 tersebut adalah bahwa pada awal terjadinya hari Kiamat, bumi diguncangkan dengan guncangan yang dahsyat.\nKata zilz\u0101l dan yang serumpun dengannya disebutkan 6 kali dalam Al-Qur\u2019an, antara lain dua kali disebutkan dalam Surah az-Zalzalah ayat 1 dan semuanya berarti guncangan.",
        "sabab_nuzul": null,
        "conclusion": null
    }
}