{
    "id": 6143,
    "surah_id": 99,
    "ayah": 5,
    "page": 599,
    "quarter_hizb": 60.5,
    "juz": 30,
    "manzil": 7,
    "arabic": "\u0628\u0650\u0627\u064e\u0646\u0651\u064e \u0631\u064e\u0628\u0651\u064e\u0643\u064e \u0627\u064e\u0648\u0652\u062d\u0670\u0649 \u0644\u064e\u0647\u064e\u0627\u06d7",
    "latin": "Bi'anna rabbaka au\u1e25\u0101 lah\u0101.",
    "translation": "karena sesungguhnya Tuhanmu telah memerintahkan (yang demikian itu) kepadanya.",
    "no_footnote": null,
    "footnotes": null,
    "surah": {
        "id": 99,
        "arabic": "\u0627\u0644\u0632\u0651\u0644\u0632\u0644\u0629",
        "latin": "Az-Zalzalah",
        "transliteration": "Az-Zalzalah",
        "translation": "Guncangan",
        "num_ayah": 8,
        "page": 599,
        "location": "Madaniyah"
    },
    "tafsir": {
        "wajiz": "Bumi menyampaikan kepada manusia apa yang terjadi padanya dan bersaksi di hadapan Allah tentang apa saja yang manusia lakukan di atasnya karena sesungguhnya Tuhanmu telah memerintahkan padanya untuk berbuat demikian.",
        "tahlili": "Dalam ayat ini, Allah menerangkan bahwa pada hari terjadinya kerusakan dan kehancuran bagi bumi serta terjadinya alam baru dan hidup baru, muncullah manusia dalam keadaan yang berbeda-beda dan berkelompok. Orang-orang yang beramal baik tidak sama dengan orang-orang jahat. Orang-orang yang taat tidak sama dengan orang yang berbuat maksiat. Mereka muncul untuk diperlihatkan Allah kepada mereka apa yang telah mereka lakukan dan untuk memetik hasil usaha mereka selama hidup di dunia.",
        "intro_surah": "Surah ini terdiri dari 8 ayat, termasuk kelompok surah Madaniyyah, diturunkan sesudah Surah an-Nis\u0101\u2019. Nama az-Zalzalah diambil dari kata zilz\u0101l yang terdapat pada ayat pertama surah ini yang berarti guncangan.\n\nPokok-pokok Isinya:\nKeguncangan bumi yang amat hebat pada hari Kiamat dan kebingungan manusia ketika itu; manusia pada hari Kiamat itu dikumpulkan untuk dihisab segala amal perbuatan mereka.",
        "outro_surah": null,
        "munasabah_prev_surah": "Surah al-Bayyinah menerangkan orang yang akan mendapat balasan yang baik dan orang yang akan mendapat siksa; sedang Surah az-Zalzalah menerangkan kapan datangnya balasan ini",
        "munasabah_prev_theme": "Pada akhir Surah al-Bayyinah diterangkan orang yang akan mendapat balasan siksaan neraka dan orang yang akan mendapat balasan surga. Pada awal Surah az-Zalzalah diterangkan tanda-tanda datangnya hari Kiamat sebagai hari pembalasan amal manusia selama hidup di dunia.",
        "theme_group": "SEMUA PERBUATAN MANUSIA\nMENDAPAT BALASAN PADA HARI KIAMAT",
        "kosakata": "Kosakata: Zilz\u0101lah\u0101 \u0632\u0650\u0644\u0652\u0632\u064e\u0627\u0644\u064e\u0647\u064e\u0627 (az-Zalzalah/99: 1)\nKata zilz\u0101lah\u0101 terdiri dari kata: zilz\u0101l dan h\u0101 yang digandengkan dengannya, maknanya adalah  guncangannya, yang terambil dari kata zalzala-yuzalzilu-zalzalatan wa zilz\u0101lan, yang berarti mengguncangkan. Maksud zilz\u0101lah\u0101 dalam Surah az-Zalzalah ayat 1 tersebut adalah bahwa pada awal terjadinya hari Kiamat, bumi diguncangkan dengan guncangan yang dahsyat.\nKata zilz\u0101l dan yang serumpun dengannya disebutkan 6 kali dalam Al-Qur\u2019an, antara lain dua kali disebutkan dalam Surah az-Zalzalah ayat 1 dan semuanya berarti guncangan.",
        "sabab_nuzul": null,
        "conclusion": null
    }
}