{
    "id": 6149,
    "surah_id": 100,
    "ayah": 3,
    "page": 599,
    "quarter_hizb": 60.5,
    "juz": 30,
    "manzil": 7,
    "arabic": "\u0641\u064e\u0627\u0644\u0652\u0645\u064f\u063a\u0650\u064a\u0652\u0631\u0670\u062a\u0650 \u0635\u064f\u0628\u0652\u062d\u064b\u0627\u06d9",
    "latin": "Fal-mug\u012br\u0101ti \u1e63ub\u1e25\u0101(n).",
    "translation": "yang menyerang (dengan tiba-tiba) pada waktu pagi",
    "no_footnote": null,
    "footnotes": null,
    "surah": {
        "id": 100,
        "arabic": " \u0627\u0644\u0639\u0670\u062f\u064a\u0670\u062a",
        "latin": "Al-\u2018\u0100diy\u0101t",
        "transliteration": "Al-\u2018Adiyat",
        "translation": "Kuda Perang Yang Berlari Kencang",
        "num_ayah": 11,
        "page": 599,
        "location": "Makkiyah"
    },
    "tafsir": {
        "wajiz": "Dan demi kuda yang menyerang dengan tiba-tiba pada waktu pagi hal ini menunjukkan kesiagaannya untuk berjihad tanpa mengenal waktu,",
        "tahlili": "Allah bersumpah dengan kuda perang yang memperdengarkan suaranya yang gemuruh. Kuda-kuda yang memancarkan bunga api dari kuku kakinya karena berlari kencang. Kuda-kuda yang menyerang di waktu subuh untuk menyergap musuh di waktu mereka tidak siap siaga. Karena kencangnya lari kuda itu, debu-debu jadi beterbangan. Allah menyatakan bahwa kuda yang menyerang itu tiba-tiba berada di tengah-tengah musuh sehingga menyebabkan mereka panik.\nAllah bersumpah dengan kuda dan sifat-sifatnya dalam suasana perang bertujuan untuk membangkitkan semangat perjuangan di kalangan orang-orang Mukmin. Sudah selayaknya mereka bersifat demikian dengan membiasakan diri menunggang kuda dengan tangkas untuk menyerbu musuh. Mereka juga diperintahkan agar selalu siap siaga untuk terjun ke medan pertempuran bila genderang perang memanggil mereka untuk menghancurkan musuh yang menyerang, sebagaimana Allah berfirman:\n\u0648\u064e\u0627\u064e\u0639\u0650\u062f\u0651\u064f\u0648\u0652\u0627 \u0644\u064e\u0647\u064f\u0645\u0652 \u0645\u0651\u064e\u0627 \u0627\u0633\u0652\u062a\u064e\u0637\u064e\u0639\u0652\u062a\u064f\u0645\u0652 \u0645\u0650\u0651\u0646\u0652 \u0642\u064f\u0648\u0651\u064e\u0629\u064d \u0648\u0651\u064e\u0645\u0650\u0646\u0652 \u0631\u0651\u0650\u0628\u064e\u0627\u0637\u0650 \u0627\u0644\u0652\u062e\u064e\u064a\u0652\u0644\u0650 \u062a\u064f\u0631\u0652\u0647\u0650\u0628\u064f\u0648\u0652\u0646\u064e \u0628\u0650\u0647\u0656 \u0639\u064e\u062f\u064f\u0648\u0651\u064e \u0627\u0644\u0644\u0651\u0670\u0647\u0650 \u0648\u064e\u0639\u064e\u062f\u064f\u0648\u0651\u064e\u0643\u064f\u0645\u0652 \nDan persiapkanlah dengan segala kemampuan untuk menghadapi mereka dengan kekuatan yang kamu miliki dan dari pasukan berkuda yang dapat menggentarkan musuh Allah dan musuhmu. (al-Anf\u0101l/8: 60)\n\nAllah bersumpah dengan kuda perang yang dalam keadaan berlari kencang, hilir-mudik, memancarkan percikan bunga api dari kakinya karena berlari kencang, dan dengan penyergapan di waktu subuh, menunjukkan bahwa kuda-kuda yang dipelihara itu bukan untuk kebanggaan. Hendaknya kuda yang dipuji adalah yang digunakan untuk memadamkan keganasan musuh, melumpuhkan kekuatan mereka, atau menghadang serangan mereka.\nMaksudnya, dalam ketangkasan berkuda terkandung faedah yang tidak terkira banyaknya. Di antaranya adalah dapat dipergunakan untuk mencari nafkah, cepat bergerak untuk suatu keperluan yang mendadak, digunakan untuk menyergap musuh, dan dapat mencapai tempat yang jauh dalam waktu yang singkat.",
        "intro_surah": "Surah al-\u2018\u0100diy\u0101t ini terdiri dari 11 ayat, termasuk kelompok surah-surah Makkiyyah, diturunkan sesudah Surah al-\u2018A\u1e63r. Nama \u201cal-\u2018\u0100diy\u0101t\u201d diambil dari kata al-\u2018\u0101diy\u0101t yang terdapat pada ayat pertama surah ini yang artinya \u201cyang berlari kencang\u201d.\n\nPokok-pokok Isinya:\nAncaman Allah kepada manusia yang ingkar dan sangat mencintai harta benda bahwa mereka akan mendapat balasan yang setimpal di kala mereka dibangkitkan dari kubur dan apa yang ada di dalam dada mereka ditampakkan.",
        "outro_surah": null,
        "munasabah_prev_surah": "Surah az-Zalzalah menerangkan balasan bagi perbuatan yang baik dan yang buruk, sedangkan pada Surah al-\u2018\u0100diy\u0101t, Allah mencela orang-orang yang telah mencintai kehidupan dunia, dan mengabaikan kehidupan akhirat serta tidak mempersiapkan diri mereka untuk kehidupan akhirat itu dengan amal kebajikan.",
        "munasabah_prev_theme": "Pada akhir Surah az-Zalzalah diterangkan balasan atas perbuatan yang baik dan yang buruk. Pada awal Surah al-\u2018\u0100diy\u0101t diterangkan bahwa Allah mencela orang-orang yang hanya mencintai kehidupan dunia dan mengabaikan kehidupan akhirat sebagai hari pembalasan atas perbuatan yang baik dan yang buruk.",
        "theme_group": "MANUSIA MENJADI KIKIR KARENA TAMAK",
        "kosakata": "Kosakata: Al-\u2018\u0100diy\u0101t \u0627\u0644\u0652\u0639\u064e\u0627\u062f\u0650\u064a\u064e\u0627\u062a (al-\u2018\u0100diy\u0101t/100: 1)\nKata al-\u2018\u0101diy\u0101t berarti yang berlari kencang, terambil dari kata \u2018ad\u0101-ya\u2018d\u016b-\u2018adwan wa \u2018udw\u0101nan, yang berarti  berlari kencang. Dalam  ayat ini tidak dijelaskan apa atau siapa yang berlari kencang, yang jelas Allah bersumpah  dengan yang berlari kencang itu. Ada yang berpendapat bahwa yang berlari kencang adalah kuda dan ada pula yang berpendapat bahwa yang dimaksud adalah unta. Kata al-\u2018\u0101diy\u0101t hanya satu kali disebutkan dalam Al-Qur\u2019an dan dijadikan sebagai salah satu nama surahnya.",
        "sabab_nuzul": null,
        "conclusion": null
    }
}