{
    "id": 6152,
    "surah_id": 100,
    "ayah": 6,
    "page": 599,
    "quarter_hizb": 60.5,
    "juz": 30,
    "manzil": 7,
    "arabic": "\u0627\u0650\u0646\u0651\u064e \u0627\u0644\u0652\u0627\u0650\u0646\u0652\u0633\u064e\u0627\u0646\u064e \u0644\u0650\u0631\u064e\u0628\u0651\u0650\u0647\u0656 \u0644\u064e\u0643\u064e\u0646\u064f\u0648\u0652\u062f\u064c \u06da",
    "latin": "Innal-ins\u0101na lirabbih\u012b lakan\u016bd(un).",
    "translation": "sesungguhnya manusia itu sangatlah ingkar kepada Tuhannya. ",
    "no_footnote": null,
    "footnotes": null,
    "surah": {
        "id": 100,
        "arabic": " \u0627\u0644\u0639\u0670\u062f\u064a\u0670\u062a",
        "latin": "Al-\u2018\u0100diy\u0101t",
        "transliteration": "Al-\u2018Adiyat",
        "translation": "Kuda Perang Yang Berlari Kencang",
        "num_ayah": 11,
        "page": 599,
        "location": "Makkiyah"
    },
    "tafsir": {
        "wajiz": "Demi kuda-kuda perang yang demikian sifatnya, sungguh manusia itu enggan bersyukur dan sangat ingkar kepada nikmat Tuhannya. Manusia, kecuali yang dirahmati Allah, malas bersyukur ketika mendapatkan nikmat dan tidak mau memenuhi kewajiban yang dibebankan kepadanya.",
        "tahlili": "Dalam ayat ini, Allah menerangkan isi sumpah-Nya, yaitu: watak manusia adalah mengingkari kebenaran dan tidak mengakui hal-hal yang menyebabkan mereka harus bersyukur kepada penciptanya, kecuali orang-orang yang mendapat taufik, membiasakan diri berbuat kebajikan dan menjauhkan diri dari kemungkaran.\nHubungan antara ayat 5 yang menggambarkan persoalan kuda dan ayat 6 yang memberi informasi tentang sifat dasar manusia adalah bahwa manusia itu mempunyai potensi menjadi liar seperti kuda yang tidak terkendali, sehingga menyebabkannya ingkar kepada Allah.\nSifat yang terpendam dalam jiwa manusia ini menyebabkan ia tidak mementingkan apa yang terdapat di sekelilingnya, tidak menghiraukan apa yang akan datang, dan lupa apa yang telah lalu. Bila Allah memberikan kepadanya sesuatu nikmat, dia menjadi bingung, hatinya menjadi bengis, dan sikapnya menjadi kasar terhadap hamba-hamba Allah.",
        "intro_surah": "Surah al-\u2018\u0100diy\u0101t ini terdiri dari 11 ayat, termasuk kelompok surah-surah Makkiyyah, diturunkan sesudah Surah al-\u2018A\u1e63r. Nama \u201cal-\u2018\u0100diy\u0101t\u201d diambil dari kata al-\u2018\u0101diy\u0101t yang terdapat pada ayat pertama surah ini yang artinya \u201cyang berlari kencang\u201d.\n\nPokok-pokok Isinya:\nAncaman Allah kepada manusia yang ingkar dan sangat mencintai harta benda bahwa mereka akan mendapat balasan yang setimpal di kala mereka dibangkitkan dari kubur dan apa yang ada di dalam dada mereka ditampakkan.",
        "outro_surah": null,
        "munasabah_prev_surah": "Surah az-Zalzalah menerangkan balasan bagi perbuatan yang baik dan yang buruk, sedangkan pada Surah al-\u2018\u0100diy\u0101t, Allah mencela orang-orang yang telah mencintai kehidupan dunia, dan mengabaikan kehidupan akhirat serta tidak mempersiapkan diri mereka untuk kehidupan akhirat itu dengan amal kebajikan.",
        "munasabah_prev_theme": "Pada akhir Surah az-Zalzalah diterangkan balasan atas perbuatan yang baik dan yang buruk. Pada awal Surah al-\u2018\u0100diy\u0101t diterangkan bahwa Allah mencela orang-orang yang hanya mencintai kehidupan dunia dan mengabaikan kehidupan akhirat sebagai hari pembalasan atas perbuatan yang baik dan yang buruk.",
        "theme_group": "MANUSIA MENJADI KIKIR KARENA TAMAK",
        "kosakata": "Kosakata: Al-\u2018\u0100diy\u0101t \u0627\u0644\u0652\u0639\u064e\u0627\u062f\u0650\u064a\u064e\u0627\u062a (al-\u2018\u0100diy\u0101t/100: 1)\nKata al-\u2018\u0101diy\u0101t berarti yang berlari kencang, terambil dari kata \u2018ad\u0101-ya\u2018d\u016b-\u2018adwan wa \u2018udw\u0101nan, yang berarti  berlari kencang. Dalam  ayat ini tidak dijelaskan apa atau siapa yang berlari kencang, yang jelas Allah bersumpah  dengan yang berlari kencang itu. Ada yang berpendapat bahwa yang berlari kencang adalah kuda dan ada pula yang berpendapat bahwa yang dimaksud adalah unta. Kata al-\u2018\u0101diy\u0101t hanya satu kali disebutkan dalam Al-Qur\u2019an dan dijadikan sebagai salah satu nama surahnya.",
        "sabab_nuzul": null,
        "conclusion": null
    }
}