{
    "id": 6169,
    "surah_id": 102,
    "ayah": 1,
    "page": 600,
    "quarter_hizb": 60.75,
    "juz": 30,
    "manzil": 7,
    "arabic": "\u0627\u064e\u0644\u0652\u0647\u0670\u0649\u0643\u064f\u0645\u064f \u0627\u0644\u062a\u0651\u064e\u0643\u064e\u0627\u062b\u064f\u0631\u064f\u06d9",
    "latin": "Alh\u0101kumut-tak\u0101\u1e61ur(u). ",
    "translation": "Berbangga-bangga dalam memperbanyak (dunia) telah melalaikanmu760)",
    "no_footnote": "760",
    "footnotes": "760) Maksudnya adalah bersaing memperbanyak anak, harta, pengikut, kemuliaan, dan sebagainya telah melalaikan manusia dari ketaatan kepada Allah Swt.",
    "surah": {
        "id": 102,
        "arabic": "\u0627\u0644\u062a\u0651\u0643\u0627\u062b\u0631",
        "latin": "At-Tak\u0101\u1e61ur",
        "transliteration": "At-Takasur",
        "translation": "Berbangga-Bangga Dalam Memperbanyak Dunia",
        "num_ayah": 8,
        "page": 600,
        "location": "Makkiyah"
    },
    "tafsir": {
        "wajiz": "Wahai manusia, bermegah-megahan dalam hal harta, keturunan, dan pengikut telah melalaikan kamu dari ketaatan kepada Allah dan mempersiapkan diri untuk menghadapi hari akhir.",
        "tahlili": "Dalam ayat ini, Allah mengungkapkan bahwa manusia sibuk bermegah-megahan dengan harta, teman, dan pengikut yang banyak, sehingga melalaikannya dari kegiatan beramal. Mereka asyik dengan berbicara saja, teperdaya oleh keturunan mereka dan teman sejawat tanpa memikirkan amal perbuatan yang bermanfaat untuk diri dan keluarga mereka.\nDiriwayatkan dari Mu\u1e6darrif dari ayahnya, ia berkata:\n\u0627\u064e\u062a\u064e\u064a\u0652\u062a\u064f \u0627\u0644\u0646\u0651\u064e\u0628\u0650\u064a\u0651\u064e \u0635\u064e\u0644\u0651\u064e\u0649 \u0627\u0644\u0644\u0651\u0670\u0647\u064f \u0639\u064e\u0644\u064e\u064a\u0652\u0647\u0650 \u0648\u064e\u0633\u064e\u0644\u0651\u064e\u0645\u064e \u0648\u064e\u0647\u064f\u0648\u064e \u064a\u064e\u0642\u0652\u0631\u064e\u0623\u064f \ufd3f\u0627\u064e\u0644\u0652\u0647\u0670\u0649\u0643\u064f\u0645\u064f \u0627\u0644\u062a\u0651\u064e\u0643\u064e\u0627\u062b\u064f\u0631\u064f\ufd3e \u0642\u064e\u0627\u0644\u064e: \u064a\u064e\u0642\u064f\u0648\u0652\u0644\u064f \u0627\u0628\u0652\u0646\u064f \u0622\u062f\u064e\u0645\u064e \u0645\u064e\u0627\u0644\u0650\u064a\u0652 \u0645\u064e\u0627\u0644\u0650\u064a\u0652 \u0642\u064e\u0627\u0644\u064e \u0648\u064e\u0647\u064e\u0644\u0652 \u0644\u064e\u0643\u064e \u064a\u064e\u0627 \u0627\u0628\u0652\u0646\u064e \u0622\u062f\u064e\u0645\u064e \u0645\u0650\u0646\u0652 \u0645\u064e\u0627\u0644\u0650\u0643\u064e \u0625\u0650\u0644\u0651\u064e\u0627 \u0645\u064e\u0627 \u0623\u064e\u0643\u064e\u0644\u0652\u062a\u064e \u0641\u064e\u0623\u064e\u0641\u0652\u0646\u064e\u064a\u0652\u062a\u064e \u0623\u064e\u0648\u0652 \u0644\u064e\u0628\u0650\u0633\u0652\u062a\u064e \u0641\u064e\u0623\u064e\u0628\u0652\u0644\u064e\u064a\u0652\u062a\u064e \u0623\u064e\u0648\u0652 \u062a\u064e\u0635\u064e\u062f\u0651\u064e\u0642\u0652\u062a\u064e \u0641\u064e\u0623\u064e\u0645\u0652\u0636\u064e\u064a\u0652\u062a\u064e. (\u0631\u0648\u0627\u0647 \u0645\u0633\u0644\u0645)\nSaya menghadap Nabi saw ketika beliau sedang membaca al-h\u0101kumut-tak\u0101\u1e61ur, beliau bersabda, \u201cAnak Adam berkata, \u2018Inilah harta saya, inilah harta saya.\u2019 Nabi bersabda, \u201cWahai anak Adam! Engkau tidak memiliki dari hartamu kecuali apa yang engkau makan dan telah engkau habiskan, atau pakaian yang engkau pakai hingga lapuk, atau yang telah kamu sedekahkan sampai habis.\u201d (Riwayat Muslim) \n\nDiriwayatkan pula bahwa Nabi saw bersabda:\n\u0644\u064e\u0648\u0652 \u0623\u064e\u0646\u0651\u064e \u0644\u0650\u0627\u0628\u0652\u0646\u0650 \u0622\u062f\u064e\u0645\u064e \u0648\u064e\u0627\u062f\u0650\u064a\u064b\u0627 \u0645\u0650\u0646\u0652 \u0645\u064e\u0627\u0644\u064d \u0644\u064e\u0627\u0628\u0652\u062a\u064e\u063a\u064e\u0649 \u0625\u0650\u0644\u064e\u064a\u0652\u0647\u0650 \u062b\u064e\u0627\u0646\u0650\u064a\u064b\u0627 \u0648\u064e\u0644\u064e\u0648\u0652 \u0643\u064e\u0627\u0646\u064e \u0644\u064e\u0647\u064f \u0648\u064e\u0627\u062f\u0650\u064a\u064e\u0627\u0646\u0650 \u0644\u064e\u0627\u0628\u0652\u062a\u064e\u063a\u064e\u0649 \u0625\u0650\u0644\u064e\u064a\u0652\u0647\u0650 \u062b\u064e\u0627\u0644\u0650\u062b\u064b\u0627 \u0648\u064e\u0644\u064e\u0627 \u064a\u064e\u0645\u0652\u0644\u064e\u0623\u064f \u062c\u064e\u0648\u0652\u0641\u064e \u0627\u0628\u0652\u0646\u0650 \u0622\u062f\u064e\u0645\u064e \u0625\u0650\u0644\u0651\u064e\u0627 \u0627\u0644\u062a\u0651\u064f\u0631\u064e\u0627\u0628\u064f \u0648\u064e\u064a\u064e\u062a\u064f\u0648\u0652\u0628\u064f \u0627\u0644\u0644\u0651\u0670\u0647\u064f \u0639\u064e\u0644\u064e\u0649 \u0645\u064e\u0646\u0652 \u062a\u064e\u0627\u0628\u064e. (\u0631\u0648\u0627\u0647 \u0623\u062d\u0645\u062f \u0648\u0627\u0644\u0628\u062e\u0627\u0631\u064a \u0648\u0645\u0633\u0644\u0645 \u0648\u0627\u0644\u062a\u0631\u0645\u0630\u064a \u0639\u0646 \u0623\u0646\u0633)\n\nSeandainya anak Adam memiliki satu lembah harta, sungguh ia ingin memiliki dua lembah harta, dan seandainya ia memiliki dua lembah harta, sungguh ia ingin memiliki tiga lembah harta dan tidak memenuhi perut manusia (tidak merasa puas) kecuali perutnya diisi dengan tanah dan Allah akan menerima tobat (memberi ampunan) kepada orang yang bertobat.  (Riwayat A\u1e25mad, al-Bukh\u0101r\u012b, Muslim, dan at-Tirmi\u017c\u012b dari Anas)\n\nAhli tafsir ada yang berpendapat bahwa maksud ayat ini adalah bangga dalam berlebih-lebihan. Seseorang berusaha memiliki lebih banyak dari yang lain baik harta ataupun kedudukan dengan tujuan semata-mata untuk mencapai ketinggian dan kebanggaan, bukan untuk digunakan pada jalan kebaikan atau untuk membantu menegakkan keadilan dan maksud baik lainnya.\n\u0627\u0650\u0639\u0652\u0644\u064e\u0645\u064f\u0648\u0652\u0653\u0627 \u0627\u064e\u0646\u0651\u064e\u0645\u064e\u0627 \u0627\u0644\u0652\u062d\u064e\u064a\u0670\u0648\u0629\u064f \u0627\u0644\u062f\u0651\u064f\u0646\u0652\u064a\u064e\u0627 \u0644\u064e\u0639\u0650\u0628\u064c \u0648\u0651\u064e\u0644\u064e\u0647\u0652\u0648\u064c \u0648\u0651\u064e\u0632\u0650\u064a\u0652\u0646\u064e\u0629\u064c \u0648\u0651\u064e\u062a\u064e\u0641\u064e\u0627\u062e\u064f\u0631\u064c\u06e2 \u0628\u064e\u064a\u0652\u0646\u064e\u0643\u064f\u0645\u0652 \u0648\u064e\u062a\u064e\u0643\u064e\u0627\u062b\u064f\u0631\u064c \u0641\u0650\u0649 \u0627\u0644\u0652\u0627\u064e\u0645\u0652\u0648\u064e\u0627\u0644\u0650 \u0648\u064e\u0627\u0644\u0652\u0627\u064e\u0648\u0652\u0644\u064e\u0627\u062f\u0650\u06d7 \u0643\u064e\u0645\u064e\u062b\u064e\u0644\u0650 \u063a\u064e\u064a\u0652\u062b\u064d \u0627\u064e\u0639\u0652\u062c\u064e\u0628\u064e \u0627\u0644\u0652\u0643\u064f\u0641\u0651\u064e\u0627\u0631\u064e \u0646\u064e\u0628\u064e\u0627\u062a\u064f\u0647\u0657 \u062b\u064f\u0645\u0651\u064e \u064a\u064e\u0647\u0650\u064a\u0652\u062c\u064f \u0641\u064e\u062a\u064e\u0631\u0670\u0649\u0647\u064f \u0645\u064f\u0635\u0652\u0641\u064e\u0631\u0651\u064b\u0627 \u062b\u064f\u0645\u0651\u064e \u064a\u064e\u0643\u064f\u0648\u0652\u0646\u064f \u062d\u064f\u0637\u064e\u0627\u0645\u064b\u0627\u06d7 \u0648\u064e\u0641\u0650\u0649 \u0627\u0644\u0652\u0627\u0670\u062e\u0650\u0631\u064e\u0629\u0650 \u0639\u064e\u0630\u064e\u0627\u0628\u064c \u0634\u064e\u062f\u0650\u064a\u0652\u062f\u064c\u06d9 \u0648\u0651\u064e\u0645\u064e\u063a\u0652\u0641\u0650\u0631\u064e\u0629\u064c \u0645\u0651\u0650\u0646\u064e \u0627\u0644\u0644\u0651\u0670\u0647\u0650 \u0648\u064e\u0631\u0650\u0636\u0652\u0648\u064e\u0627\u0646\u064c \u06d7\u0648\u064e\u0645\u064e\u0627 \u0627\u0644\u0652\u062d\u064e\u064a\u0670\u0648\u0629\u064f \u0627\u0644\u062f\u0651\u064f\u0646\u0652\u064a\u064e\u0627\u0653 \u0627\u0650\u0644\u0651\u064e\u0627 \u0645\u064e\u062a\u064e\u0627\u0639\u064f \u0627\u0644\u0652\u063a\u064f\u0631\u064f\u0648\u0652\u0631\u0650\nKetahuilah, sesungguhnya kehidupan dunia itu hanyalah permainan dan sendagurauan, perhiasan dan saling berbangga di antara kamu serta berlomba dalam kekayaan dan anak keturunan, seperti hujan yang tanam-tanamannya mengagumkan para petani; kemudian (tanaman) itu menjadi kering dan kamu lihat warnanya kuning kemudian menjadi hancur. Dan di akhirat (nanti) ada azab yang keras dan ampunan dari Allah serta keridaan-Nya. Dan kehidupan dunia tidak lain hanyalah kesenangan yang palsu. (al-\u1e24ad\u012bd/57: 20)",
        "intro_surah": "Surah at-Tak\u0101\u1e61ur terdiri dari 8 ayat, termasuk kelompok surah Makkiyyah, diturunkan sesudah Surah al-Kau\u1e61ar.\nDinamai at-Tak\u0101\u1e61ur (bermegah-megah) diambil dari perkataan at-tak\u0101\u1e61ur yang terdapat pada ayat pertama surah ini.\n\nPokok-pokok Isinya:\nKeinginan manusia untuk bermegah-megahan dalam soal duniawi, sering melalaikan manusia dari tujuan hidupnya. Dia baru menyadari kesalahannya itu setelah maut mendatanginya; manusia akan ditanya di akhirat tentang nikmat yang dibangga-banggakannya.",
        "outro_surah": null,
        "munasabah_prev_surah": "Dalam Surah al-Q\u0101ri\u2018ah dijelaskan golongan orang-orang yang masuk surga dan golongan yang masuk neraka, sedang pada Surah at-Tak\u0101\u1e61ur diterangkan salah satu sebab yang membawa orang masuk neraka.",
        "munasabah_prev_theme": "Pada akhir Surah al-Qariah dijelaskan golongan orang-orang  yang masuk neraka. Maka pada awal Surah at-Taka\u1e61ur dijelaskan salah satu sebab orang masuk neraka.",
        "theme_group": "ANCAMAN ALLAH TERHADAP ORANG\nYANG LALAI KARENA BERMEGAH-MEGAHAN",
        "kosakata": "Kosakata: \n1.\tAl-Maq\u0101bir \u0627\u064e\u0644\u0652\u0645\u064e\u0642\u064e\u0627\u0628\u0650\u0631 (at-Tak\u0101\u1e61ur/102: 2)\nKata al-maq\u0101bir adalah jamak dari maqbarah yang berarti pekuburan (tempat pemakaman),  yang terambil dari kata: qabara-yaqburu-qabran, yang berarti menguburkan.\nKata al-maq\u0101bir dan yang serumpun dengannya disebutkan 8 kali dalam Al-Qur\u2019an. Akan tetapi, kata khusus al-maq\u0101bir hanya 1 kali disebutkan dalam Al-Qur\u2019an.\n2.\tAl-Yaq\u012bn \u0627\u064e\u0644\u0652\u064a\u064e\u0642\u0650\u064a\u0652\u0646 (at-Tak\u0101\u1e61ur/102: 5)\nKata al-yaq\u012bn berarti yakin, tidak ragu, yang diambil dari kata yaqina-yaiqanu-yaqnan, yaqanan, yang berarti terang/jelas dan yakin. Jika kata al-yaq\u012bn digandengkan dengan kata \u2018ilm (\u2018ilmul-yaq\u012bn), maka maknanya adalah pengetahuan yang yakin. Jika digandengkan dengan kata \u2018ain (\u2018ainul-yaq\u012bn), maka maknanya adalah mata telanjang yang tidak sedikit pun disentuh oleh keraguan.\nKata al-yaq\u012bn disebutkan 8 kali dalam Al-Qur\u2019an, 2 kali di antaranya terdapat pada Surah at-Tak\u0101\u1e61ur, yaitu pada ayat 5 dan ayat 7",
        "sabab_nuzul": "Diriwayatkan oleh Ibnu Ab\u012b \u1e24\u0101tim dari Ab\u016b Hurairah, ia berkata, \u201cal-h\u0101kumut-tak\u0101\u1e61ur turun karena ada kaitannya dengan dua kabilah dari seorang An\u1e63\u0101r, yaitu Bani \u1e24\u0101ri\u1e61ah dan Bani al-\u1e24ar\u1e61, mereka saling membanggakan kabilahnya masing-masing. Salah satu dari dua kabilah itu berkata, \u201cAdakah di kalangan kamu orang besar seperti si Fulan?\u201d Yang lain berkata begitu pula, \u201cMereka berbangga-bangga dengan orang-orang yang masih hidup.\u201d Lalu mereka bersama-sama menuju ke kubur. Salah satu dari dua kabilah itu mengatakan, \u201cAdakah di antara kamu orang besar seperti ini sambil menunjuk kepada satu kuburan?\u201d Dan yang lain berkata begitu pula, lalu turunlah surah ini.",
        "conclusion": null
    }
}