{
    "id": 6174,
    "surah_id": 102,
    "ayah": 6,
    "page": 600,
    "quarter_hizb": 60.75,
    "juz": 30,
    "manzil": 7,
    "arabic": "\u0644\u064e\u062a\u064e\u0631\u064e\u0648\u064f\u0646\u0651\u064e \u0627\u0644\u0652\u062c\u064e\u062d\u0650\u064a\u0652\u0645\u064e\u06d9",
    "latin": "Latarawunnal-ja\u1e25\u012bm(a).",
    "translation": "Pasti kamu benar-benar akan melihat (neraka) Jahim.",
    "no_footnote": null,
    "footnotes": null,
    "surah": {
        "id": 102,
        "arabic": "\u0627\u0644\u062a\u0651\u0643\u0627\u062b\u0631",
        "latin": "At-Tak\u0101\u1e61ur",
        "transliteration": "At-Takasur",
        "translation": "Berbangga-Bangga Dalam Memperbanyak Dunia",
        "num_ayah": 8,
        "page": 600,
        "location": "Makkiyah"
    },
    "tafsir": {
        "wajiz": "Aku bersumpah, niscaya kamu benar-benar akan melihat neraka Jahim dan merasakan panasnya.",
        "tahlili": "Dalam ayat ini, Allah menerangkan sebagian azab yang akan dialami oleh orang yang bermegah-megahan itu karena kelalaian tersebut. Mereka akan ditimpa azab di akhirat, dan pasti akan melihat tempat itu dengan mata kepala mereka sendiri. Oleh sebab itu, mereka hendaknya selalu merenung\u00adkan kedahsyatan azab itu dalam pikiran agar membawa mereka kepada perbuatan yang baik dan bermanfaat. Maksud perkataan \u201cmelihat neraka Jahim\u201d adalah merasakan azabnya, sesuai dengan tujuan Al-Qur\u2019an dalam pemakaian kata-kata tersebut.",
        "intro_surah": "Surah at-Tak\u0101\u1e61ur terdiri dari 8 ayat, termasuk kelompok surah Makkiyyah, diturunkan sesudah Surah al-Kau\u1e61ar.\nDinamai at-Tak\u0101\u1e61ur (bermegah-megah) diambil dari perkataan at-tak\u0101\u1e61ur yang terdapat pada ayat pertama surah ini.\n\nPokok-pokok Isinya:\nKeinginan manusia untuk bermegah-megahan dalam soal duniawi, sering melalaikan manusia dari tujuan hidupnya. Dia baru menyadari kesalahannya itu setelah maut mendatanginya; manusia akan ditanya di akhirat tentang nikmat yang dibangga-banggakannya.",
        "outro_surah": null,
        "munasabah_prev_surah": "Dalam Surah al-Q\u0101ri\u2018ah dijelaskan golongan orang-orang yang masuk surga dan golongan yang masuk neraka, sedang pada Surah at-Tak\u0101\u1e61ur diterangkan salah satu sebab yang membawa orang masuk neraka.",
        "munasabah_prev_theme": "Pada akhir Surah al-Qariah dijelaskan golongan orang-orang  yang masuk neraka. Maka pada awal Surah at-Taka\u1e61ur dijelaskan salah satu sebab orang masuk neraka.",
        "theme_group": "ANCAMAN ALLAH TERHADAP ORANG\nYANG LALAI KARENA BERMEGAH-MEGAHAN",
        "kosakata": "Kosakata: \n1.\tAl-Maq\u0101bir \u0627\u064e\u0644\u0652\u0645\u064e\u0642\u064e\u0627\u0628\u0650\u0631 (at-Tak\u0101\u1e61ur/102: 2)\nKata al-maq\u0101bir adalah jamak dari maqbarah yang berarti pekuburan (tempat pemakaman),  yang terambil dari kata: qabara-yaqburu-qabran, yang berarti menguburkan.\nKata al-maq\u0101bir dan yang serumpun dengannya disebutkan 8 kali dalam Al-Qur\u2019an. Akan tetapi, kata khusus al-maq\u0101bir hanya 1 kali disebutkan dalam Al-Qur\u2019an.\n2.\tAl-Yaq\u012bn \u0627\u064e\u0644\u0652\u064a\u064e\u0642\u0650\u064a\u0652\u0646 (at-Tak\u0101\u1e61ur/102: 5)\nKata al-yaq\u012bn berarti yakin, tidak ragu, yang diambil dari kata yaqina-yaiqanu-yaqnan, yaqanan, yang berarti terang/jelas dan yakin. Jika kata al-yaq\u012bn digandengkan dengan kata \u2018ilm (\u2018ilmul-yaq\u012bn), maka maknanya adalah pengetahuan yang yakin. Jika digandengkan dengan kata \u2018ain (\u2018ainul-yaq\u012bn), maka maknanya adalah mata telanjang yang tidak sedikit pun disentuh oleh keraguan.\nKata al-yaq\u012bn disebutkan 8 kali dalam Al-Qur\u2019an, 2 kali di antaranya terdapat pada Surah at-Tak\u0101\u1e61ur, yaitu pada ayat 5 dan ayat 7",
        "sabab_nuzul": null,
        "conclusion": null
    }
}