{
    "id": 6179,
    "surah_id": 103,
    "ayah": 3,
    "page": 601,
    "quarter_hizb": 60.75,
    "juz": 30,
    "manzil": 7,
    "arabic": "\u0627\u0650\u0644\u0651\u064e\u0627 \u0627\u0644\u0651\u064e\u0630\u0650\u064a\u0652\u0646\u064e \u0627\u0670\u0645\u064e\u0646\u064f\u0648\u0652\u0627 \u0648\u064e\u0639\u064e\u0645\u0650\u0644\u064f\u0648\u0627 \u0627\u0644\u0635\u0651\u0670\u0644\u0650\u062d\u0670\u062a\u0650 \u0648\u064e\u062a\u064e\u0648\u064e\u0627\u0635\u064e\u0648\u0652\u0627 \u0628\u0650\u0627\u0644\u0652\u062d\u064e\u0642\u0651\u0650 \u06d5\u06d9 \u0648\u064e\u062a\u064e\u0648\u064e\u0627\u0635\u064e\u0648\u0652\u0627 \u0628\u0650\u0627\u0644\u0635\u0651\u064e\u0628\u0652\u0631\u0650 \u08d6",
    "latin": "Illal-la\u017c\u012bna \u0101man\u016b wa \u2018amilu\u1e63-\u1e63\u0101li\u1e25\u0101ti wa taw\u0101\u1e63au bil-\u1e25aqq(i), wa taw\u0101\u1e63au bi\u1e63-\u1e63abr(i).",
    "translation": "kecuali orang-orang yang beriman dan beramal saleh serta saling menasihati untuk kebenaran dan kesabaran.",
    "no_footnote": null,
    "footnotes": null,
    "surah": {
        "id": 103,
        "arabic": " \u0627\u0644\u0639\u0635\u0631",
        "latin": "Al-\u2018A\u1e63r",
        "transliteration": "Al-\u2018Asr",
        "translation": "Masa",
        "num_ayah": 3,
        "page": 601,
        "location": "Makkiyah"
    },
    "tafsir": {
        "wajiz": "Semua manusia rugi, kecuali orang-orang yang beriman dengan sejati dan mengerjakan kebajikan sesuai ketentuan syariat dengan penuh keikhlasan, serta saling menasihati satu sama lain dengan baik dan bijaksana untuk memegang teguh kebenaran sebagaimana diajarkan oleh agama dan saling menasihati untuk kesabaran dalam melaksanakan kewajiban agama, menjauhi larangan, menghadapi musibah, dan menjalani kehidupan.",
        "tahlili": "Dalam ayat ini, Allah menjelaskan bahwa jika manusia tidak mau hidupnya merugi, maka ia harus beriman kepada-Nya, melaksanakan ibadah sebagaimana yang diperintahkannya, berbuat baik untuk dirinya sendiri, dan berusaha menimbulkan manfaat kepada orang lain.\nDi samping beriman dan beramal saleh, mereka harus saling nasihat-menasihati untuk menaati kebenaran dan tetap berlaku sabar, menjauhi perbuatan maksiat yang setiap orang cenderung kepadanya, karena dorongan hawa nafsunya.",
        "intro_surah": "Surah al-\u2018A\u1e63r terdiri dari 3 ayat, termasuk kelompok surah Makkiyyah, diturunkan sesudah Surah asy-Syar\u1e25.\nDinamai al-\u2018A\u1e63r (masa) diambil dari perkataan al-\u2018a\u1e63r yang terdapat pada ayat pertama surah ini.\n\nPokok-pokok Isinya:\nAnjuran untuk saling memperingatkan dalam kebaikan, sebab orang yang tidak melaksanakan akan merugi.",
        "outro_surah": "Surah ini menerangkan bahwa manusia yang tidak dapat menggunakan masa dengan sebaik-baiknya termasuk golongan yang merugi.",
        "munasabah_prev_surah": "1. \tPada Surah at-Tak\u0101\u1e61ur, Allah menerangkan keadaan orang yang bermegah-megahan dan disibukkan oleh harta benda sehingga lupa mengingat Allah, sedang Surah al-\u2018A\u1e63r menerangkan bahwa manusia akan merugi, kecuali kalau mereka beriman, beramal saleh dan nasihat-menasihati dalam kebenaran dan kesabaran.\n2. \tPada Surah at-Tak\u0101\u1e61ur, Allah menerangkan sifat orang yang mengikuti hawa nafsu, sedang pada Surah al-\u2018A\u1e63r, Allah menerangkan sifat orang-orang yang tidak merugi.",
        "munasabah_prev_theme": "Pada surah yang lalu, Allah mengancam orang yang bermegah-megahan dan mereka akan ditanya tentang nikmat-nikmat yang telah diberikan tersebut. Pada awal surah ini, Allah menyatakan bahwa orang akan rugi bila tidak mempergunakan waktunya dengan baik. Sumpah Allah dengan waktu menunjukkan betapa penting waktu itu. Oleh karena itu, waktu mesti dimanfaatkan dengan baik.",
        "theme_group": "KERUGIAN BAGI YANG TIDAK\nMEMANFAATKAN WAKTU",
        "kosakata": "Kosakata: Al-\u2018A\u1e63r \u0627\u0644\u0652\u0639\u064e\u0635\u0652\u0631 (al-\u2018A\u1e63r/103: 1)\nKata al-\u2018a\u1e63r terambil dari kata \u2018a\u1e63ara-ya\u2018\u1e63iru-\u2018a\u1e63ran, berarti memerah, memeras, atau menekan. Jika matahari telah melampaui pertengahan dan telah menuju kepada terbenamnya dinamai \u2018a\u1e63r (asar). Penamaan ini disebabkan  karena pada waktu itu manusia yang sejak pagi telah memeras tenaganya, diharapkan telah mendapatkan hasil dari usahanya.\nKata al-\u2018a\u1e63r dan yang serumpun  dengannya disebutkan 5 kali dalam Al-Qur\u2019an, tetapi khusus dengan kata al-\u2018a\u1e63r hanya 1 kali disebutkan dan merupakan nama salah satu surah dalam Al-Qur\u2019an.",
        "sabab_nuzul": null,
        "conclusion": "Allah bersumpah dengan masa dengan pengertian bahwa manusia secara keseluruhan dalam kerugian kecuali mereka yang beriman dan mengerjakan amal saleh serta nasihat-menasihati supaya menaati kebenaran dan nasihat-menasihati supaya tetap berlaku sabar."
    }
}