{
    "id": 6190,
    "surah_id": 105,
    "ayah": 2,
    "page": 601,
    "quarter_hizb": 60.75,
    "juz": 30,
    "manzil": 7,
    "arabic": "\u0627\u064e\u0644\u064e\u0645\u0652 \u064a\u064e\u062c\u0652\u0639\u064e\u0644\u0652 \u0643\u064e\u064a\u0652\u062f\u064e\u0647\u064f\u0645\u0652 \u0641\u0650\u064a\u0652 \u062a\u064e\u0636\u0652\u0644\u0650\u064a\u0652\u0644\u064d\u06d9",
    "latin": "Alam yaj\u2018al kaidahum f\u012b ta\u1e0dl\u012bl(in).",
    "translation": "Bukankah Dia telah menjadikan tipu daya mereka itu sia-sia?",
    "no_footnote": null,
    "footnotes": null,
    "surah": {
        "id": 105,
        "arabic": " \u0627\u0644\u0641\u064a\u0644",
        "latin": "Al-F\u012bl",
        "transliteration": "Al-Fil",
        "translation": "Gajah",
        "num_ayah": 5,
        "page": 601,
        "location": "Makkiyah"
    },
    "tafsir": {
        "wajiz": "Bukankah Dia telah menjadikan tipu daya dan usaha mereka menghancurkan Kakbah itu sia-sia, meski mereka datang dengan pasukan yang kuat dan persenjataan yang lengkap?",
        "tahlili": "Dalam ayat ini, Allah menjelaskan bahwa Ia telah menggagalkan tipu muslihat mereka yang hendak menghancurkan Ka\u2018bah.\nAllah mengungkapkan cara menggagalkan tipu daya mereka, yaitu dengan mengirimkan pasukan burung yang berbondong-bondong melempari mereka dengan batu-batu yang berasal dari tanah sehingga menjadikan mereka hancur-lebur dan daging mereka beterbangan ke mana-mana. Maka tentara gajah menjadi laksana daun-daun yang dimakan ulat.",
        "intro_surah": "Surah ini terdiri dari 5 ayat, termasuk kelompok surah Makkiyyah, diturunkan sesudah Surah al-K\u0101fir\u016bn. Nama al-F\u012bl diambil dari kata al-f\u012bl yang terdapat pada ayat pertama surah ini, artinya \u201cgajah\u201d. Surah al-F\u012bl mengemukakan cerita pasukan bergajah dari Yaman yang dipimpin oleh Abrahah yang ingin meruntuhkan Ka\u2018bah di Mekah. Peristiwa ini terjadi pada tahun Nabi Muhammad dilahirkan.\n\nPokok-pokok Isinya:\nCerita tentang pasukan bergajah yang diazab oleh Allah, dengan mengirimkan sejenis burung yang menyerang mereka sampai binasa.",
        "outro_surah": null,
        "munasabah_prev_surah": "Dalam Surah al-Humazah diterangkan bahwa harta tidak berguna sedikit pun untuk menghadapi kekuasaan Allah, sedang Surah al-F\u012bl menerangkan bahwa tentara gajah dengan segala macam perlengkapan perangnya tidak dapat menantang kekuasaan Allah.",
        "munasabah_prev_theme": "Pada akhir Surah al-Humazah yang lalu dijelaskan bahwa orang yang mengumpat akan disiksa dalam waktu yang panjang. Pada awal Surah  al-F\u012bl ini dijelaskan azab Allah terhadap orang yang akan menghancurkan Ka\u2018bah.",
        "theme_group": "AZAB ALLAH KEPADA TENTARA BERGAJAH\nYANG AKAN MENGHANCURKAN KA\u2018BAH",
        "kosakata": "Kosakata:\n1.\tAl-F\u012bl  \u0627\u0644\u0652\u0641\u0650\u064a\u0652\u0644  (al-F\u012bl/105: 1)\nAyat pertama ini mengacu pada peristiwa \u201cPasukan Gajah\u201d yang terjadi tahun 570 Masehi. Kata al-f\u012bl (jamak: fiyalah, fuy\u016bl, dan afy\u0101l) dalam bahasa Arab berarti gajah, binatang berkaki empat, besar, menyusui, berbelalai, bergading, dan bertelinga lebar, hidup bergerombol di hutan yang sudah cukup dikenal. Di beberapa kawasan, gajah digunakan sebagai kendaraan berperang di samping kuda. Tapi di semenanjung Arab binatang ini tidak banyak dikenal.\nDari uraian para mufasir dan sejarawan Arab dapat disimpulkan bahwa ketika itu terjadi pembunuhan besar-besaran orang-orang Nasrani oleh Zu Nuwas, raja Himyar terakhir yang beragama Yahudi (al-Bur\u016bj/85: 4-7). Mendengar yang demikian, raja Abisinia setelah dihubungi untuk minta bantuan segera mengirim sebuah pasukan besar dipimpin oleh dua orang pangeran, Aryat (al-\u1e24\u0101ri\u1e61) dan Abrahah sebagai wakil raja, dan pasukan ini dapat menaklukkan  Yaman. Akan tetapi kemudian, terjadi percekcokan sampai pertarungan antara Aryat dengan Abrahah, yang berakhir dengan terbunuhnya Aryat. Dengan demikian, sekarang Yaman berada di tangan Abrahah sebagai wakil raja dan gubernur di Yaman. Ia membangun sebuah katedral besar Sa\u2019an yang konon dibuat dari barang-barang mewah, pualam dibawa dari peninggalan istana Ratu Saba\u2019 (Sheba), salib-salib dari emas dan perak, serta mimbar dari gading dan kayu hitam. Tujuannya selain untuk mengambil hati raja atas tindakannya itu, sekaligus Abrahah ingin mengubah perhatian masyarakat Arab yang setiap tahun berziarah ke Ka\u2018bah di Mekah, beralih ke gereja besar Sa\u2019an itu. Karena dengan segala cara harapannya itu tak pernah terwujud, maka tak ada jalan lain Ka\u2018bah harus dihancurkan. Didorong oleh ambisi dan fanatisme agama, Abrahah mengerahkan dan memimpin sebuah pasukan besar disertai pasukan gajah\u2014yang bagi orang Arab waktu itu asing sekali\u2014menuju Mekah. Mereka hendak menghancurkan Ka\u2018bah, dan dia  sendiri di depan sekali di atas seekor gajah besar.\nPara mufasir beragam sekali mengomentari peristiwa ini, kendati dalam garis besarnya hampir sama. Ringkasnya, setelah Abrahah dan pasukannya memasuki kawasan Hijaz dan sudah mendekat Mekah, Abrahah mengirim pasukan berkuda sebagai kurir. Dalam perjalanan itu, mereka membawa harta suku Quraisy, di antaranya dua ratus ekor unta milik \u2018Abdul Mu\u1e6dallib bin H\u0101syim. Melihat besarnya pasukan Abrahah, Quraisy tak akan mampu mengadakan perlawanan. Abrahah mengirim seorang Himyar pengikutnya untuk menemui \u2018Abdul Mu\u1e6dallib, pemimpin Mekah, dengan pesan bahwa mereka datang bukan untuk berperang, melainkan hanya akan menghancurkan Ka\u2018bah. Pihak Mekah tidak perlu mengadakan perlawanan.\nMendengar mereka tidak bermaksud berperang, konon \u2018Abdul Mu\u1e6dallib pergi ke markas pasukan itu, diantar oleh utusan Abrahah, diikuti oleh anak-anaknya dan beberapa pemuka Mekah yang lain. Melihat sosok \u2018Abdul Mu\u1e6dallib yang tegap besar dan tampan Abrahah turun dari tahtanya menyambut dengan hormat, dan duduk bersama-sama dengan tamunya itu. Menjawab pertanyaan Abrahah melalui penerjemahnya apa yang diperlukan \u2018Abdul Mu\u1e6dallib dengan kedatangannya itu, konon dijawab bahwa dia mau meminta dua ratus ekor yang dirampas pasukannya dikembalikan. Abrahah mengatakan ia hormat dan kagum kepada \u2018Abdul Mu\u1e6dallib ketika melihatnya, tetapi tidak demikian setelah diketahui kedatangannya hanya membicarakan dua ratus ekor unta miliknya yang dirampas anak buahnya, bukan rumah suci yang mendasari agamanya dan agama nenek moyangnya. Kedatangannya akan menghancurkan Ka\u2018bah tidak disinggung sama sekali. Akan tetapi, \u2018Abdul Mu\u1e6dallib menjawab bahwa ia pemilik unta, bukan pemilik Ka\u2018bah. Rumah suci itu milik Allah, dan Dia yang akan melindunginya. Abrahah berjanji akan mengembalikan unta \u2018Abdul Mu\u1e6dallib. Konon \u2018Abdul Mu\u1e6dallib dan beberapa pemuka Mekah kemudian menawarkan sepertiga kekayaan Tihamah untuk Abrahah asal tidak mengganggu Ka\u2018bah. Tetapi tawaran itu ditolak. \u2018Abdul Mu\u1e6dallib kembali ke Mekah setelah dua ratus untanya dikembalikan. \u2018Abdul Mu\u1e6dallib dan para pemuka Mekah yang lain tidak perlu mengadakan perlawanan, mereka percaya bahwa Ka\u2018bah sudah ada yang menjaganya.\nSesudah kembali ke Mekah, \u2018Abdul Mu\u1e6dallib memerintahkan Bani Quraisy keluar dari kota Mekah agar tidak menjadi korban pasukan Abrahah. Sesudah itu mereka berdoa, memohon perlindungan kota Mekah, barangkali mereka memohonkan bantuan berhala-berhala.\nSetelah seluruh kota Mekah sunyi, Abrahah mengerahkan pasukannya dan sudah siap menghancurkan Ka\u2018bah. Dalam perhitungannya setelah itu ia akan kembali ke Yaman. Akan tetapi, pada saat itu tiba-tiba pasukannya merasa dihujani batu yang dibawa oleh kawanan burung besar. Burung itu tampaknya menyebarkan kuman-kuman wabah yang sangat mematikan berupa bisul dan letupan-letupan kulit, yang diduga sejenis campak ganas. Mereka belum tahu dan belum pernah mengalami kejadian serupa itu. Barangkali wabah itu dibawa angin dari jurusan laut. Tidak sedikit pasukan Abrahah yang binasa, dan Abrahah sendiri mati dalam perjalanan pulang ke Yaman. Versi lain mengatakan bahwa Abrahah yang sudah dalam ketakutan, melihat bencana wabah makin hari makin mengganas dan banyak anggota pasukannya yang mati, cepat-cepat ia pulang kembali dan sampai ke \u1e62an\u2018a. Tetapi ternyata badannya sendiri pun sudah digerogoti penyakit mematikan itu. Tidak berselang lama kemudian ia pun mati seperti anggota pasukannya yang lain.\nPeristiwa ini terjadi pada tahun kelahiran Nabi Muhammad, atau tak lebih dari dua bulan sebelum itu. Tahun itu oleh orang Mekah dicatat sebagai \u201cTahun Gajah,\u201d dan diabadikan tonggak perhitungan sebelum Hijrah.\n2.\tAb\u0101b\u012bl \u0627\u064e\u0628\u064e\u0627\u0628\u0650\u064a\u0652\u0644  (al-F\u012bl/105: 3)\nAb\u0101b\u012bl dalam bahasa Arab berarti \u2018kelompok atau kawanan yang terpencar-pencar,\u201d yakni kawanan yang banyak. Dalam ayat ini, artinya kawanan burung yang beterbangan yang terpencar-pencar kian kemari. Kata ini tak punya bentuk kata tunggal dan tersirat arti kata memperbanyak.\nSuatu mukjizat diperlihatkan dalam ayat pendek ini. Dengan datangnya kawanan besar burung yang di luar dugaan, datang beterbangan dan melemparkan batu-batu yang membawa wabah menimpa pasukan Abrahah. Anggota-anggota pasukannya berlarian menyelamatkan diri setelah banyak yang mati di antara mereka. Abrahah sendiri juga terkena wabah itu dan mati.",
        "sabab_nuzul": null,
        "conclusion": null
    }
}